<?xml version="1.0" encoding="utf-8"?>
<!-- Generator: Adobe Illustrator 18.0.0, SVG Export Plug-In . SVG Version: 6.00 Build 0)  -->
<!DOCTYPE svg PUBLIC "-//W3C//DTD SVG 1.1//EN" "http://www.w3.org/Graphics/SVG/1.1/DTD/svg11.dtd">
<svg version="1.1" id="Arrow_1_" xmlns="http://www.w3.org/2000/svg" xmlns:xlink="http://www.w3.org/1999/xlink" x="0px" y="0px"
	 width="500px" height="500px" viewBox="0 0 500 500" enable-background="new 0 0 500 500" xml:space="preserve">
  <metadata>
    <?xpacket begin="﻿" id="W5M0MpCehiHzreSzNTczkc9d"?>
    <x:xmpmeta xmlns:x="adobe:ns:meta/" x:xmptk="Adobe XMP Core 5.6-c011 79.156380, 2014/06/19-23:40:37        ">
     <rdf:RDF xmlns:rdf="http://www.w3.org/1999/02/22-rdf-syntax-ns#">
      <rdf:Description rdf:about=""
        xmlns:xmpMM="http://ns.adobe.com/xap/1.0/mm/"
        xmlns:stEvt="http://ns.adobe.com/xap/1.0/sType/ResourceEvent#"
        xmlns:xmp="http://ns.adobe.com/xap/1.0/"
        xmlns:xmpRights="http://ns.adobe.com/xap/1.0/rights/"
        xmlns:dc="http://purl.org/dc/elements/1.1/"
       xmpMM:DocumentID="xmp.did:b488ac5b559f0841450d8286b3d7dfc0"
       xmpMM:OriginalDocumentID="xmp.did:b488ac5b559f0841450d8286b3d7dfc0"
       xmpMM:InstanceID="xmp.iid:b488ac5b559f0841450d8286b3d7dfc0"
       xmp:ModifyDate="2015-04-14T18:14:03+02:00"
       xmp:MetadataDate="2015-04-14T18:14:03+02:00"
       xmpRights:Marked="True"
       xmpRights:WebStatement="http://www.adobe.com/legal/general-terms.html">
       <xmpMM:History>
        <rdf:Seq>
         <rdf:li
          stEvt:action="saved"
          stEvt:instanceID="xmp.iid:b488ac5b559f0841450d8286b3d7dfc0"
          stEvt:when="2015-04-14T18:14:03+02:00"/>
        </rdf:Seq>
       </xmpMM:History>
       <xmpRights:UsageTerms>
        <rdf:Alt>
         <rdf:li xml:lang="x-default">This work is licensed under the Adobe General Terms of Use http://www.adobe.com/legal/general-terms.html.</rdf:li>
        </rdf:Alt>
       </xmpRights:UsageTerms>
       <dc:publisher>
        <rdf:Bag>
         <rdf:li>Adobe Systems Incorporated</rdf:li>
        </rdf:Bag>
       </dc:publisher>
      </rdf:Description>
     </rdf:RDF>
    </x:xmpmeta>
    <?xpacket end="r"?>
  </metadata>
<g>
	<path fill="none" d="M298.4,226.2l18.1,2.1c-1.8-5.5-4.3-10.8-7.3-15.7L298.4,226.2z"/>
	<path fill="none" d="M273.8,201.6l13.5-10.7c-4.8-3-10.1-5.5-15.7-7.3L273.8,201.6z"/>
	<path fill="none" d="M343.7,268.6c-2.9,14.7-9.2,28.2-18,39.7l14.1,17.7c14.1-16.7,23.7-37.3,26.7-60L343.7,268.6z"/>
	<path fill="none" d="M201.5,273.8l-18.1-2.1c1.8,5.5,4.3,10.8,7.3,15.7L201.5,273.8z"/>
	<path fill="none" d="M308.2,325.7c-11.5,8.8-24.9,15.1-39.7,18l-2.6,22.8c22.7-3,43.4-12.6,60-26.7L308.2,325.7z"/>
	<path fill="none" d="M226.2,201.6l2.1-18.1c-5.5,1.8-10.8,4.3-15.7,7.3L226.2,201.6z"/>
	<path fill="none" d="M201.5,226.2l-10.7-13.5c-3,4.8-5.5,10.1-7.3,15.7L201.5,226.2z"/>
	<path fill="none" d="M231.4,343.8c-14.7-2.9-28.2-9.2-39.7-18L174,339.8c16.7,14.1,37.3,23.7,60,26.7L231.4,343.8z"/>
	<path fill="none" d="M191.7,174.4c11.5-8.8,24.9-15.1,39.7-18l2.6-22.8c-22.7,3-43.4,12.6-60,26.7L191.7,174.4z"/>
	<path fill="none" d="M325.6,191.8c8.8,11.5,15.1,24.9,18,39.7l22.8,2.6c-3-22.7-12.6-43.4-26.7-60L325.6,191.8z"/>
	<path fill="none" d="M174.3,308.3c-8.8-11.5-15.1-24.9-18-39.7l-22.8-2.6c3,22.7,12.6,43.4,26.7,60L174.3,308.3z"/>
	<path fill="none" d="M226.2,298.5l-13.5,10.7c4.8,3,10.1,5.5,15.7,7.3L226.2,298.5z"/>
	<path fill="none" d="M156.2,231.5c2.9-14.7,9.2-28.2,18-39.7l-14.1-17.7c-14.1,16.7-23.7,37.3-26.7,60L156.2,231.5z"/>
	<path fill="none" d="M268.5,156.3c14.7,2.9,28.2,9.2,39.7,18l17.7-14.1c-16.7-14.1-37.3-23.7-60-26.7L268.5,156.3z"/>
	<path fill="none" d="M298.4,273.8l10.7,13.5c3-4.8,5.5-10.1,7.3-15.7L298.4,273.8z"/>
	<path fill="none" d="M273.8,298.5l-2.1,18.1c5.5-1.8,10.8-4.3,15.7-7.3L273.8,298.5z"/>
	<g>
		<path d="M499.6,249.4l-109-12.6c-2.9-31.2-16-59.6-35.8-81.6l35.7-45.1c0.1-0.1,0.1-0.1,0.1-0.2l0,0c0-0.1,0-0.2-0.1-0.2l0,0l0,0
			l0,0l0,0c-0.1-0.1-0.2-0.1-0.2-0.1l0,0c-0.1,0-0.2,0-0.2,0.1l-45.1,35.7c-22-20-50.4-33-81.6-35.8l-12.6-109V0.4c0,0,0,0,0-0.1
			s-0.1-0.1-0.1-0.1l0,0l-0.1-0.1l0,0h-0.1c0,0,0,0-0.1,0l0,0l0,0c0,0,0,0-0.1,0H250c0,0,0,0-0.1,0c0,0-0.1,0-0.1,0.1
			c0,0,0,0-0.1,0.1c0,0,0,0.1-0.1,0.1v0.1c0,0,0,0,0,0.1l-12.7,108.8c-31.2,2.9-59.6,16-81.6,35.8l-45.1-35.7
			c-0.1-0.1-0.1-0.1-0.2-0.1l0,0c-0.1,0-0.2,0-0.2,0.1l0,0l0,0l0,0l0,0c-0.1,0.1-0.1,0.2-0.1,0.2l0,0c0,0.1,0,0.2,0.1,0.2l35.7,45.1
			c-20,22-33,50.4-35.8,81.6l-109,12.6c0,0,0,0-0.1,0H0.3H0.2c0,0-0.1,0-0.1,0.1c0,0,0,0-0.1,0.1v0.1v0.1c0,0,0,0,0,0.1l0,0l0,0
			c0,0,0,0,0,0.1v0.1v0.1c0,0,0,0,0.1,0.1c0,0,0,0,0.1,0.1c0,0,0,0,0.1,0h0.1c0,0,0,0,0.1,0l109,12.6c2.9,31.2,16,59.6,35.8,81.6
			l-35.7,45.1c-0.1,0.1-0.1,0.1-0.1,0.2l0,0c0,0.1,0,0.2,0.1,0.2l0,0l0,0l0,0l0,0c0.1,0.1,0.2,0.1,0.2,0.1c0.1,0,0.2,0,0.2-0.1l0,0
			l45.1-35.7c22,20,50.4,33,81.6,35.8l12.6,109c0,0,0,0,0,0.1v0.1c0,0,0,0.1,0.1,0.1c0,0,0,0,0,0.1c0,0,0.1,0,0.1,0.1c0,0,0,0,0.1,0
			h0.1c0,0,0,0,0.1,0l0,0l0,0c0,0,0,0,0.1,0h0.1c0,0,0,0,0.1,0c0,0,0.1,0,0.1-0.1c0,0,0,0,0-0.1c0,0,0-0.1,0.1-0.1v-0.1
			c0,0,0,0,0-0.1l12.6-109c31.2-2.9,59.6-16,81.6-35.8l45.1,35.7l0,0c0.1,0,0.1,0.1,0.2,0.1l0,0c0.2,0,0.5-0.2,0.5-0.5
			c0-0.1-0.1-0.3-0.2-0.3l-35.7-45.1c20-22,33-50.4,35.8-81.6l109-12.6l0,0c0.2,0,0.5-0.2,0.5-0.6
			C500.1,249.8,499.9,249.4,499.6,249.4z M366.4,234.1l-22.8-2.6c-2.9-14.7-9.2-28.2-18-39.7l14.1-17.7
			C353.8,190.8,363.4,211.4,366.4,234.1z M384.9,115.8l-59.9,75.4c-2.3-2.9-4.7-5.6-7.3-8.3L384.9,115.8z M325.9,160.3l-17.7,14.1
			c-11.5-8.8-24.9-15.1-39.7-18l-2.6-22.8C288.6,136.6,309.3,146.2,325.9,160.3z M250.6,10.2l16.8,145.9c-5.4-1-11-1.6-16.8-1.6
			V10.2z M234,133.6l-2.6,22.8c-14.7,2.9-28.2,9.2-39.7,18L174,160.3C190.7,146.2,211.3,136.6,234,133.6z M115.6,115.1l75.4,59.9
			c-2.9,2.3-5.6,4.7-8.3,7.3L115.6,115.1z M160.2,174.1l14.1,17.7c-8.8,11.5-15.1,24.9-18,39.7l-22.8,2.6
			C136.5,211.4,146.1,190.8,160.2,174.1z M10.1,249.4L156,232.6c-1,5.4-1.6,11-1.6,16.8H10.1z M133.5,266l22.8,2.6
			c2.9,14.7,9.2,28.2,18,39.7L160.2,326C146.1,309.3,136.5,288.7,133.5,266z M115,384.4l59.9-75.4c2.3,2.9,4.7,5.6,7.3,8.3
			L115,384.4z M174,339.8l17.7-14.1c11.5,8.8,24.9,15.1,39.7,18l2.6,22.8C211.3,363.5,190.7,353.9,174,339.8z M249.4,489.9
			L232.7,344c5.4,1,11,1.6,16.8,1.6V489.9z M250,344.5c-52.1,0-94.5-42.4-94.5-94.5s42.4-94.5,94.5-94.5s94.5,42.4,94.5,94.5
			C344.4,302.1,302.1,344.5,250,344.5z M265.9,366.6l2.6-22.8c14.7-2.9,28.2-9.2,39.7-18l17.7,14.1
			C309.3,353.9,288.6,363.5,265.9,366.6z M384.3,385l-75.4-59.9c2.9-2.3,5.6-4.7,8.3-7.3L384.3,385z M339.7,326l-14.1-17.7
			c8.8-11.5,15.1-24.9,18-39.7l22.8-2.6C363.4,288.7,353.8,309.3,339.7,326z M343.9,267.5c1-5.4,1.6-11,1.6-16.8h144.3L343.9,267.5z
			"/>
		<path d="M250,178.9c-39.2,0-71.1,31.9-71.1,71.1s31.9,71.1,71.1,71.1s71.1-31.9,71.1-71.1S289.2,178.9,250,178.9z M316.5,228.4
			l-18.1-2.1l10.7-13.5C312.2,217.5,314.7,222.8,316.5,228.4z M308.6,211.9l-11.3,14.2l-16.1-1.9c-0.7-0.9-1.5-1.7-2.3-2.6
			l20.9-20.9C303.1,204.2,306,208,308.6,211.9z M287.3,190.8l-13.5,10.7l-2.1-18.1C277.2,185.3,282.5,187.8,287.3,190.8z M250.6,180
			c6.9,0,13.6,1.1,20,3l2.3,19.4l-11,8.8c-3.5-1-7.2-1.7-11-1.7V180H250.6z M228.3,183.5l-2.1,18.1l-13.5-10.7
			C217.4,187.8,222.7,185.3,228.3,183.5z M211.8,191.4l25.5,20.2c-6,1.9-11.3,5.3-15.7,9.6l-20.9-20.9
			C204.1,196.9,207.9,194,211.8,191.4z M190.8,212.7l10.7,13.5l-18.1,2.1C185.2,222.8,187.7,217.5,190.8,212.7z M183.1,229.5
			l34.7-4.1c-5.1,6.7-8.1,15-8.2,23.9H180C180,242.6,181.1,235.8,183.1,229.5z M183.4,271.8l18.1,2.1l-10.7,13.5
			C187.7,282.6,185.2,277.3,183.4,271.8z M191.3,288.2l11.3-14.2l16.1,1.9c0.7,0.9,1.5,1.7,2.3,2.6l-20.9,20.9
			C196.8,295.9,193.9,292.2,191.3,288.2z M212.6,309.2l13.5-10.7l2.1,18.1C222.7,314.8,217.4,312.3,212.6,309.2z M249.4,320
			c-6.9,0-13.6-1.1-20-3l-2.3-19.4l11-8.8c3.5,1,7.2,1.7,11,1.7V320H249.4z M210.6,250c0-21.8,17.7-39.3,39.3-39.3
			c21.8,0,39.3,17.7,39.3,39.3c0,21.8-17.7,39.3-39.3,39.3C228.3,289.5,210.6,271.8,210.6,250z M271.7,316.6l2.1-18.1l13.5,10.7
			C282.5,312.3,277.2,314.8,271.7,316.6z M288.1,308.7l-25.5-20.2c6-1.9,11.3-5.3,15.7-9.6l20.9,20.9
			C295.8,303.2,292.1,306.1,288.1,308.7z M309.2,287.4l-10.7-13.5l18.1-2.1C314.7,277.3,312.2,282.6,309.2,287.4z M282.2,274.6
			c5.1-6.7,8.1-15,8.2-23.9H320c0,6.9-1.1,13.6-3,20L282.2,274.6z"/>
		<path d="M250,226.9c-12.7,0-23.1,10.4-23.1,23.1s10.4,23.1,23.1,23.1c12.7,0,23.1-10.4,23.1-23.1
			C273.1,237.3,262.7,226.9,250,226.9z M250,253.8c-2.1,0-3.8-1.7-3.8-3.8s1.7-3.8,3.8-3.8c2.1,0,3.8,1.7,3.8,3.8
			C253.7,252.1,252,253.8,250,253.8z"/>
	</g>
</g>
</svg>
