<?xml version="1.0" encoding="utf-8"?>
<!-- Generator: Adobe Illustrator 22.0.0, SVG Export Plug-In . SVG Version: 6.00 Build 0)  -->
<svg version="1.1" id="Isolation_Mode" xmlns="http://www.w3.org/2000/svg" xmlns:xlink="http://www.w3.org/1999/xlink" x="0px"
	 y="0px" viewBox="0 0 129.5 144.5" style="enable-background:new 0 0 129.5 144.5;" xml:space="preserve">
<style type="text/css">
	.st0{fill:#FFFFFF;}
	.st1{fill:#98D183;}
	.st2{fill:#5E9C46;}
</style>
<g>
	<path class="st0" d="M71,139.2l48.9-28.2c0,0,5.6-3.7,5.6-10.7c0-4,0-14.3,0-22.4c0,0,0-5,0-11.2c0-8.1,0-18.4,0-22.4
		c0-7.1-5.6-10.7-5.6-10.7L71,5.4c-7.5-3.6-14.3,1.1-14.3,1.1s-41.2,23.8-46.8,27C4.4,36.6,4,43.8,4,43.8v22.9v11.2v22.9
		c0,0,0.4,7.1,5.9,10.4c5.6,3.2,46.8,27,46.8,27S63.4,142.7,71,139.2z"/>
	<path class="st1" d="M65,144.5c-5.4,0-9.5-2.4-10.4-3c-2.2-1.3-41.3-23.8-46.7-27C0.6,110.3,0,101.3,0,100.9l0-0.2l0-57.1
		c0-0.4,0.5-9.4,7.9-13.6L54.6,3c1.3-0.8,9.2-5.5,18.1-1.3L73,1.9l49,28.3c0.3,0.2,7.5,4.9,7.5,14.1v55.9c0,9.1-7.2,13.9-7.5,14.1
		l-0.2,0.1l-49.2,28.4C70,144.1,67.4,144.5,65,144.5z M8,100.6c0.1,0.6,0.6,5.1,3.9,7c5.6,3.2,46.8,27,46.8,27l0.3,0.2
		c0.2,0.1,4.9,3.2,10.2,0.8l48.6-28.1c0.5-0.3,3.8-2.9,3.8-7.3V44.3c0-4.4-3.2-6.9-3.8-7.3L69.1,8.9C63.9,6.5,59,9.7,59,9.7
		l-0.3,0.2l-46.8,27c-3.3,1.9-3.9,6.5-3.9,7V100.6z"/>
</g>
<path class="st2" d="M91,82.2c0-9.3-10.3-28-18.9-42c-1.6-2.6-4.4-4.2-7.5-4.2c-3.1,0-5.9,1.6-7.5,4.2c-8.6,14.1-18.9,32.7-18.9,42
	c0,14.6,11.9,26.4,26.4,26.4S91,96.8,91,82.2z M65.4,97.1l14-13.6c0.2-0.2,0.3-0.4,0.3-0.6c0-0.2-0.1-0.4-0.2-0.6
	c-0.3-0.3-0.9-0.3-1.2,0L65.4,94.7V76.1l7.9-7.7c0.2-0.2,0.3-0.4,0.3-0.6c0-0.2-0.1-0.4-0.2-0.6c-0.3-0.3-0.9-0.3-1.2,0l-6.7,6.5
	v-17c0-0.5-0.4-0.9-0.9-0.9c-0.5,0-0.9,0.4-0.9,0.9v17.1L57,67.2c-0.3-0.3-0.9-0.3-1.2,0c-0.3,0.3-0.3,0.9,0,1.2l7.9,7.9V95L51,82.3
	c-0.3-0.3-0.9-0.3-1.2,0c-0.3,0.3-0.3,0.9,0,1.2l14,14v7.7c-12.3-0.5-22.1-10.6-22.1-22.9c0-6.6,6.5-20.9,18.4-40.2
	c1-1.6,2.7-2.6,4.6-2.6c1.9,0,3.6,1,4.6,2.6C81,61.3,87.6,75.6,87.6,82.2c0,12.4-9.9,22.5-22.1,22.9V97.1z"/>
</svg>
