<?xml version="1.0"?><svg width="640" height="480" xmlns="http://www.w3.org/2000/svg" xmlns:xlink="http://www.w3.org/1999/xlink">
 <title>love birds corner frame</title>
 <metadata id="metadata7">image/svg+xml</metadata>
 <g>
  <title>Layer 1</title>
  <defs>
   <filter id="svg_682">
    <feGaussianBlur id="svg_683" stdDeviation="0.028007"/>
   </filter>
   <pattern patternTransform="translate(-84.1377, 510.395)" id="svg_482" xlink:href="#svg_511"/>
   <pattern patternTransform="matrix(0.880062, 0, 0, 0.880062, -58.8481, 577.678)" id="svg_676" xlink:href="#svg_511"/>
   <pattern patternTransform="matrix(0.880062, 0, 0, 0.880062, -58.8481, 577.678)" id="svg_674" xlink:href="#svg_511"/>
   <pattern patternTransform="matrix(0.880062, 0, 0, 0.880062, -58.8481, 577.678)" id="svg_672" xlink:href="#svg_511"/>
   <pattern patternTransform="matrix(0.880062, 0, 0, 0.880062, -58.8481, 577.678)" id="svg_670" xlink:href="#svg_511"/>
   <pattern patternTransform="matrix(0.880062, 0, 0, 0.880062, -58.8481, 577.678)" id="svg_668" xlink:href="#svg_511"/>
   <pattern patternTransform="translate(0.0672191, 0.0671756)" id="svg_681" xlink:href="#svg_736"/>
   <pattern patternTransform="translate(-79.9494, 517.532)" id="svg_736" xlink:href="#svg_684"/>
   <pattern patternTransform="translate(-212.763, 474.817)" id="svg_507" xlink:href="#svg_712"/>
   <pattern patternTransform="matrix(0.893653, 0, 0, 0.815661, -53.4473, 517.427)" id="svg_509" xlink:href="#svg_735"/>
   <pattern patternTransform="matrix(0.893653, 0, 0, 0.815661, -50.3653, 517.419)" id="svg_735" xlink:href="#svg_723"/>
   <pattern patternTransform="matrix(0.692326, 0, 0, 0.69244, 3.54248e-07, -1.90234e-05)" id="svg_723" xlink:href="#svg_724"/>
   <pattern patternTransform="matrix(0.73209, 0, 0, 0.714954, -6.45752e-07, 1.75391e-05)" id="svg_726" xlink:href="#svg_727"/>
   <pattern id="svg_727" patternTransform="matrix(0.73209, 0, 0, 0.714954, -50.3262, 517.536)" height="3.635903" width="3.551382" patternUnits="userSpaceOnUse">
    <path fill="#800000" d="m2.19847,0.29226c0.28594,0.31889 0.36332,0.78009 0.17283,1.03011c-0.19049,0.25002 -0.57671,0.19418 -0.86265,-0.12472c-0.28594,-0.31889 -0.36332,-0.78008 -0.17283,-1.0301c0.19049,-0.25002 0.57671,-0.19419 0.86265,0.12471z" id="svg_734"/>
    <path fill="#800000" id="svg_733" d="m1.25987,2.07843c-0.26906,0.3736 -0.68656,0.53954 -0.93251,0.37063c-0.24595,-0.16892 -0.22721,-0.60871 0.04186,-0.98231c0.26907,-0.3736 0.68656,-0.53954 0.93251,-0.37063c0.24595,0.16891 0.22721,0.6087 -0.04186,0.98231z"/>
    <path fill="#800000" d="m2.09614,3.11828c-0.37625,0.13239 -0.73541,-0.03663 -0.80221,-0.37752c-0.06679,-0.3409 0.18409,-0.72455 0.56035,-0.85694c0.37626,-0.13238 0.73541,0.03664 0.80221,0.37753c0.06678,0.34089 -0.18409,0.72455 -0.56035,0.85693z" id="svg_732"/>
    <path fill="#800000" d="m0.90538,0.59997c-0.07413,0.34353 -0.33108,0.63208 -0.57393,0.64449c-0.24285,0.01241 -0.37962,-0.25602 -0.3055,-0.59955c0.07413,-0.34354 0.33108,-0.63209 0.57393,-0.6445c0.24285,-0.01241 0.37962,0.25602 0.3055,0.59956z" id="svg_731"/>
    <path fill="#800000" id="svg_730" d="m3.12962,1.48654c-0.27786,0.13239 -0.5431,-0.03663 -0.59243,-0.37753c-0.04932,-0.34089 0.13595,-0.72454 0.41381,-0.85693c0.27787,-0.13238 0.54311,0.03664 0.59243,0.37753c0.04932,0.34089 -0.13594,0.72455 -0.41381,0.85693z"/>
    <path fill="#800000" id="svg_729" d="m3.51902,2.71922c0.03585,0.35104 -0.117,0.72001 -0.3414,0.8241c-0.2244,0.10409 -0.43537,-0.0961 -0.47122,-0.44715c-0.03585,-0.35104 0.117,-0.72 0.3414,-0.8241c0.2244,-0.10409 0.43537,0.0961 0.47122,0.44715z"/>
    <path fill="#800000" id="svg_728" d="m0.48139,3.62673c-0.32262,-0.05105 -0.53317,-0.30081 -0.47028,-0.55787c0.06288,-0.25705 0.37539,-0.42406 0.69801,-0.37302c0.32262,0.05105 0.53317,0.30081 0.47028,0.55787c-0.06289,0.25706 -0.37539,0.42406 -0.69801,0.37302z"/>
   </pattern>
   <pattern id="svg_724" patternTransform="matrix(0.692326, 0, 0, 0.69244, -50.3262, 517.536)" height="2.599502" width="2.599932" patternUnits="userSpaceOnUse">
    <rect fill="url(#svg_726)" width="2.599932" height="2.599502" x="0" y="0" id="svg_725"/>
   </pattern>
   <pattern id="svg_721" patternTransform="translate(-50.3262, 517.536)" height="1.8" width="1.8" patternUnits="userSpaceOnUse">
    <rect fill="url(#svg_723)" width="1.8" height="1.8" x="0" y="0" id="svg_722"/>
   </pattern>
   <pattern id="svg_712" patternTransform="translate(-50.4178, 517.402)" height="2.175213" width="2.341234" patternUnits="userSpaceOnUse">
    <path fill="#333333" id="svg_720" d="m0.64745,0.54334c-0.08455,0.11809 -0.21624,0.19802 -0.34541,0.20961c-0.12916,0.01161 -0.23614,-0.04686 -0.28059,-0.15336c-0.04447,-0.10649 -0.01961,-0.24482 0.06516,-0.36279c0.08454,-0.11808 0.21624,-0.19802 0.3454,-0.2096c0.12916,-0.01162 0.23615,0.04686 0.28059,0.15336c0.04447,0.10649 0.01961,0.24482 -0.06515,0.36278z"/>
    <path fill="#333333" d="m0.80062,1.02685c0.08028,0.12676 0.09675,0.27154 0.04313,0.37971c-0.0536,0.10817 -0.16909,0.16329 -0.30292,0.14455c-0.13382,-0.01871 -0.26562,-0.10845 -0.34567,-0.23533c-0.08029,-0.12676 -0.09675,-0.27154 -0.04312,-0.37971c0.05359,-0.10818 0.16909,-0.16329 0.30291,-0.14455c0.13383,0.01871 0.26562,0.10845 0.34567,0.23533z" id="svg_719"/>
    <path fill="#333333" id="svg_718" d="m1.50426,0.31448c0.10504,0.15122 0.14242,0.33267 0.09799,0.47589c-0.04439,0.14323 -0.16382,0.22645 -0.31321,0.21827c-0.14939,-0.00815 -0.30602,-0.10649 -0.41081,-0.25788c-0.10504,-0.15121 -0.14242,-0.33266 -0.09799,-0.47588c0.0444,-0.14323 0.16382,-0.22646 0.31321,-0.21828c0.14939,0.00815 0.30602,0.1065 0.41081,0.25788z"/>
    <path fill="#333333" d="m0.41985,2.17521c-0.13756,0.00015 -0.26477,-0.05301 -0.3336,-0.13946c-0.06886,-0.08643 -0.0689,-0.19299 -0.00009,-0.27946c0.06878,-0.08649 0.19595,-0.13974 0.33351,-0.13967c0.13756,-0.00016 0.26477,0.05301 0.33361,0.13946c0.06886,0.08643 0.06889,0.19299 0.00009,0.27947c-0.06878,0.08649 -0.19596,0.13973 -0.33352,0.13966z" id="svg_717"/>
    <path fill="#333333" d="m1.53942,1.83097c-0.13687,0.10252 -0.30415,0.14336 -0.43873,0.10706c-0.13459,-0.03627 -0.21601,-0.14413 -0.21354,-0.28288c0.00244,-0.13876 0.08842,-0.2873 0.22546,-0.3896c0.13687,-0.10252 0.30416,-0.14335 0.43874,-0.10705c0.13459,0.03627 0.21601,0.14413 0.21353,0.28288c-0.00243,0.13875 -0.08842,0.28729 -0.22546,0.38959z" id="svg_716"/>
    <path fill="#333333" d="m2.21879,0.54951c-0.08196,0.11604 -0.20138,0.18919 -0.31323,0.19179c-0.11185,0.00263 -0.1991,-0.06564 -0.22884,-0.17907c-0.02977,-0.11342 0.00252,-0.25475 0.08466,-0.37064c0.08195,-0.11605 0.20139,-0.18919 0.31323,-0.19179c0.11185,-0.00263 0.19911,0.06564 0.22885,0.17907c0.02976,0.11342 -0.00253,0.25474 -0.08467,0.37064z" id="svg_715"/>
    <path fill="#333333" id="svg_714" d="m2.30187,1.87822c-0.05208,0.1289 -0.14818,0.22612 -0.25206,0.25494c-0.10388,0.02884 -0.19974,-0.01507 -0.25141,-0.11518c-0.05168,-0.10009 -0.05131,-0.24116 0.00097,-0.36996c0.05207,-0.12891 0.14818,-0.22612 0.25207,-0.25494c0.10388,-0.02884 0.19974,0.01507 0.2514,0.11518c0.05169,0.10009 0.0513,0.24115 -0.00097,0.36996z"/>
    <path fill="#333333" id="svg_713" d="m2.03204,0.80549c0.11235,0.007 0.21344,0.05793 0.26511,0.13362c0.05168,0.07568 0.04611,0.16458 -0.01463,0.23317c-0.06072,0.0686 -0.16738,0.10644 -0.27972,0.09926c-0.11234,-0.00699 -0.21343,-0.05793 -0.2651,-0.13362c-0.05169,-0.07567 -0.04611,-0.16458 0.01463,-0.23317c0.06072,-0.0686 0.16738,-0.10643 0.27971,-0.09926z"/>
   </pattern>
   <pattern id="svg_497" patternTransform="translate(-50.3935, 512.782)" height="4" width="4" patternUnits="userSpaceOnUse">
    <g fill="#800000" id="svg_703">
     <path fill="#800000" d="m1.12031,0.96773c-0.2339,0.33081 -0.636,0.46509 -0.89811,0.30005c-0.26214,-0.16505 -0.28501,-0.56696 -0.05111,-0.89766c0.23388,-0.3307 0.63598,-0.46498 0.89811,-0.30005c0.26212,0.16505 0.28501,0.56696 0.05111,0.89766z" id="svg_711"/>
     <path fill="#800000" id="svg_710" d="m1.35977,1.87145c0.20327,0.36948 0.13178,0.78158 -0.15967,0.92043c-0.29145,0.13884 -0.69247,-0.04805 -0.89574,-0.41753c-0.20328,-0.36949 -0.13179,-0.78148 0.15967,-0.92043c0.29145,-0.13884 0.69247,0.04805 0.89574,0.41753z"/>
     <path fill="#800000" d="m2.60495,0.58958c0.26714,0.44149 0.23787,0.97291 -0.06537,1.18685c-0.30323,0.21383 -0.76558,0.02934 -1.0327,-0.41216c-0.26712,-0.4416 -0.23787,-0.97291 0.06538,-1.18685c0.30324,-0.21394 0.76557,-0.02945 1.03269,0.41216z" id="svg_709"/>
     <path fill="#800000" id="svg_708" d="m0.6482,3.97813c-0.3654,-0.01121 -0.6555,-0.25191 -0.64795,-0.53758c0.00754,-0.28568 0.30987,-0.50824 0.67528,-0.49703c0.36542,0.01121 0.65552,0.25191 0.64797,0.53758c-0.00755,0.28568 -0.30988,0.50824 -0.6753,0.49703z"/>
     <path fill="#800000" id="svg_707" d="m2.59038,3.40021c-0.37163,0.28175 -0.83092,0.27057 -1.02586,-0.02489c-0.19496,-0.29545 -0.05172,-0.76338 0.31992,-1.04512c0.37163,-0.28174 0.83091,-0.27056 1.02587,0.02489c0.19494,0.29546 0.05171,0.76338 -0.31993,1.04512z"/>
     <path fill="#800000" id="svg_706" d="m3.82198,1.063c-0.22681,0.32504 -0.58276,0.43473 -0.79506,0.24486c-0.21233,-0.18976 -0.20056,-0.60711 0.02624,-0.93226c0.22681,-0.32503 0.58277,-0.43472 0.79509,-0.24486c0.2123,0.18976 0.20055,0.60711 -0.02627,0.93226z"/>
     <path fill="#800000" d="m3.8991,3.52834c-0.14844,0.36435 -0.45964,0.55836 -0.69512,0.43317c-0.23546,-0.12508 -0.306,-0.5219 -0.15755,-0.88636c0.14844,-0.36435 0.45966,-0.55824 0.69512,-0.43317c0.23547,0.12519 0.30601,0.52201 0.15755,0.88636z" id="svg_705"/>
     <path fill="#800000" d="m3.48819,1.52717c0.29789,0.02948 0.52295,0.24622 0.50269,0.4842c-0.02026,0.23799 -0.27814,0.40695 -0.57602,0.37735c-0.29789,-0.02948 -0.52293,-0.24633 -0.50269,-0.48421c0.02027,-0.23798 0.27814,-0.40694 0.57602,-0.37735l0,0.00001z" id="svg_704"/>
    </g>
   </pattern>
   <pattern id="svg_494" patternTransform="translate(-50.6334, 507.297)" height="4.508552" width="4.531986" patternUnits="userSpaceOnUse">
    <g id="svg_693">
     <path fill="#800000" id="svg_702" d="m0.79009,2.82555c-0.43626,0.00012 -0.78998,-0.23455 -0.79008,-0.52419c-0.00011,-0.28965 0.35345,-0.52451 0.7897,-0.52464c0.43626,-0.00012 0.78998,0.23455 0.79008,0.52419c0.00011,0.28965 -0.35345,0.52452 -0.7897,0.52464z"/>
     <path fill="#800000" id="svg_701" d="m3.82611,1.481c-0.45448,0.31616 -0.8984,0.29682 -0.99156,-0.04324c-0.09315,-0.34001 0.19974,-0.87197 0.65422,-1.18813c0.45447,-0.31616 0.89841,-0.29677 0.99156,0.04324c0.09316,0.34005 -0.19974,0.87197 -0.65422,1.18813z"/>
     <path fill="#800000" d="m2.31355,1.64747c0.32663,0.02919 0.57908,0.33114 0.56388,0.67444c-0.01519,0.34331 -0.29228,0.59792 -0.61891,0.56873c-0.32662,-0.02919 -0.57908,-0.33112 -0.56388,-0.67444c0.01519,-0.34329 0.29228,-0.59792 0.61891,-0.56873z" id="svg_700"/>
     <path fill="#800000" d="m3.74229,2.77869c-0.43626,0.00012 -0.78998,-0.23455 -0.79008,-0.52419c-0.0001,-0.28965 0.35345,-0.52451 0.7897,-0.52464c0.43626,-0.00012 0.78998,0.23455 0.79008,0.52419c0.00011,0.28965 -0.35345,0.52452 -0.7897,0.52464z" id="svg_699"/>
     <path fill="#800000" id="svg_698" d="m2.79041,0.7897c0.00012,0.43625 -0.23456,0.78997 -0.52419,0.79007c-0.28964,0.00011 -0.52452,-0.35345 -0.52464,-0.7897c-0.00012,-0.43626 0.23455,-0.78998 0.52419,-0.79008c0.28963,-0.0001 0.52451,0.35345 0.52464,0.78971z"/>
     <path fill="#800000" d="m2.81383,3.71846c0.00013,0.43626 -0.23455,0.78998 -0.52418,0.79008c-0.28964,0.0001 -0.52452,-0.35345 -0.52464,-0.78971c-0.00012,-0.43625 0.23455,-0.78997 0.52419,-0.79007c0.28964,-0.00011 0.52451,0.35345 0.52464,0.7897l-0.00001,0z" id="svg_697"/>
     <path fill="#800000" d="m1.04964,4.2809c-0.45448,0.31616 -0.8984,0.29682 -0.99157,-0.04324c-0.09315,-0.34001 0.19974,-0.87197 0.65422,-1.18813c0.45448,-0.31616 0.89842,-0.29677 0.99157,0.04324c0.09316,0.34005 -0.19974,0.87197 -0.65422,1.18813z" id="svg_696"/>
     <path fill="#800000" id="svg_695" d="m1.49665,0.72009c0.31616,0.45448 0.2968,0.89841 -0.04323,0.99157c-0.34006,0.09316 -0.87197,-0.19974 -1.18813,-0.65422c-0.31616,-0.45448 -0.29682,-0.89841 0.04323,-0.99157c0.34004,-0.09316 0.87197,0.19974 1.18813,0.65422z"/>
     <path fill="#800000" d="m4.24969,3.4497c0.31616,0.45448 0.2968,0.89841 -0.04323,0.99156c-0.34006,0.09317 -0.87197,-0.19973 -1.18813,-0.65421c-0.31616,-0.45448 -0.29682,-0.89841 0.04323,-0.99157c0.34004,-0.09316 0.87197,0.19974 1.18813,0.65422z" id="svg_694"/>
    </g>
   </pattern>
   <pattern id="svg_684" patternTransform="translate(-82.2386, 518.899)" height="5.602892" width="5.599999" patternUnits="userSpaceOnUse">
    <path fill="#800000" id="svg_692" d="m1.54863,1.40171c-0.20223,0.304 -0.51722,0.5098 -0.82617,0.53963c-0.30894,0.0299 -0.56484,-0.12065 -0.67114,-0.39483c-0.10637,-0.27416 -0.04692,-0.63028 0.15584,-0.93397c0.20222,-0.30401 0.51723,-0.50979 0.82617,-0.53962c0.30894,-0.0299 0.56484,0.12064 0.67115,0.39482c0.10636,0.27416 0.04689,0.63027 -0.15585,0.93397z"/>
    <path fill="#800000" d="m1.98906,2.64646c0.19203,0.32635 0.23141,0.69908 0.10315,0.97755c-0.12819,0.27849 -0.40445,0.42039 -0.72454,0.37215c-0.3201,-0.04817 -0.63535,-0.2792 -0.82681,-0.60585c-0.19206,-0.32634 -0.23142,-0.69908 -0.10316,-0.97755c0.12819,-0.2785 0.40445,-0.4204 0.72454,-0.37216c0.3201,0.04818 0.63533,0.27922 0.82682,0.60586z" id="svg_691"/>
    <path fill="#740000" id="svg_690" d="m3.59807,0.6644c0.25122,0.3893 0.34064,0.85643 0.23437,1.22515c-0.10619,0.36874 -0.39184,0.583 -0.74916,0.56193c-0.35732,-0.02098 -0.73199,-0.27415 -0.98262,-0.6639c-0.25125,-0.38929 -0.34065,-0.85644 -0.23438,-1.22515c0.1062,-0.36874 0.39184,-0.583 0.74916,-0.56193c0.35733,0.02098 0.73197,0.27417 0.98263,0.6639z"/>
    <path fill="#7b0000" d="m1.00426,5.60289c-0.32903,0.00038 -0.6333,-0.13648 -0.79795,-0.35904c-0.16471,-0.22251 -0.16479,-0.49684 -0.00022,-0.71947c0.16452,-0.22267 0.46871,-0.35975 0.79774,-0.35957c0.32903,-0.0004 0.6333,0.13648 0.79795,0.35904c0.16471,0.22252 0.16479,0.49685 0.00022,0.71947c-0.16452,0.22267 -0.46871,0.35973 -0.79774,0.35957z" id="svg_689"/>
    <path fill="#800000" d="m3.68215,4.71665c-0.3274,0.26392 -0.72752,0.36907 -1.04942,0.27561c-0.32191,-0.09337 -0.51666,-0.37105 -0.51075,-0.72826c0.00583,-0.35722 0.21149,-0.73965 0.53928,-1.00299c0.32738,-0.26395 0.72752,-0.36906 1.04942,-0.27561c0.32192,0.09337 0.51666,0.37105 0.51075,0.72827c-0.00583,0.35721 -0.2115,0.73961 -0.53928,1.00298z" id="svg_688"/>
    <path fill="#800000" d="m5.30715,1.41758c-0.19604,0.29874 -0.48169,0.48704 -0.74922,0.49375c-0.26753,0.00678 -0.47624,-0.169 -0.54737,-0.46102c-0.0712,-0.29199 0.00604,-0.65583 0.20251,-0.9542c0.19602,-0.29876 0.48169,-0.48705 0.74922,-0.49375c0.26753,-0.00678 0.47624,0.169 0.54738,0.46101c0.07119,0.29199 -0.00607,0.65582 -0.20252,0.95421z" id="svg_687"/>
    <path fill="#800000" id="svg_686" d="m5.50586,4.8383c-0.12457,0.33184 -0.35443,0.58212 -0.60292,0.65632c-0.24847,0.07426 -0.47775,-0.0388 -0.60133,-0.29651c-0.12363,-0.25768 -0.12273,-0.62086 0.00232,-0.95247c0.12455,-0.33185 0.35443,-0.58212 0.60292,-0.65631c0.24847,-0.07426 0.47775,0.03879 0.60133,0.29651c0.12363,0.25768 0.12271,0.62085 -0.00232,0.95246z"/>
    <path fill="#800000" id="svg_685" d="m4.86045,2.0766c0.26873,0.01801 0.51052,0.14914 0.63411,0.344c0.12363,0.19482 0.11029,0.42371 -0.03499,0.60028c-0.14524,0.17661 -0.40036,0.27404 -0.66905,0.25555c-0.26872,-0.01799 -0.51052,-0.14914 -0.63411,-0.34399c-0.12363,-0.19483 -0.11029,-0.42371 0.03499,-0.60029c0.14524,-0.17661 0.40036,-0.27401 0.66905,-0.25555z"/>
   </pattern>
   <pattern id="svg_511" patternTransform="translate(-80.0166, 517.465)" height="5.737327" width="5.734434" patternUnits="userSpaceOnUse">
    <rect fill="url(#svg_681)" filter="url(#svg_682)" width="5.599999" height="5.602892" x="0.067217" y="0.067217" id="svg_680"/>
   </pattern>
  </defs>
  <metadata id="svg_679">image/svg+xml</metadata>
  <g transform="rotate(66.774, 144.203, 131.008)" id="svg_23">
   <g id="svg_24">
    <metadata id="svg_25">image/svg+xml</metadata>
    <g id="svg_26">
     <g id="svg_27">
      <path fill="#13bcf9" fill-rule="nonzero" stroke-width="1px" d="m71.003166,191.619583c1.693275,-2.344971 3.171867,-4.713959 5.343307,-6.887238c4.941093,-4.644196 10.658318,-8.573334 17.246414,-11.983337c7.523582,-3.912872 16.139969,-5.112473 25.210739,-5.225403c9.49398,0.659195 16.947594,4.168427 23.610008,8.828491c6.816406,5.679214 11.569885,12.36142 13.826813,19.665436c2.125854,8.08609 0.346207,16.075897 -2.710083,23.882111c-3.207718,7.21344 -9.137497,13.185547 -17.391815,17.789001c-9.086983,4.263199 -18.370071,3.121567 -27.876907,0.423233c-11.291733,-4.185074 -20.673393,-10.462677 -30.396461,-16.238327c-9.820297,-6.342712 -20.958813,-11.310776 -32.783031,-15.431885c-7.442669,-1.410782 -15.5317,-4.515121 -23.110359,-3.751251c-0.64146,0.064713 -0.76762,-0.589706 -0.12595,-0.653427l0,0c9.407709,-0.933411 16.350948,-2.830719 25.336788,1.425705c11.815842,4.519318 22.309895,10.49881 33.341915,15.912582c9.797829,5.020813 19.548264,10.247604 30.395454,14.043518c7.242729,2.216766 14.356064,3.175735 21.745316,0.592148c8.252411,-3.428619 13.715515,-8.536667 17.130859,-14.950623c3.480392,-7.27626 4.850143,-14.840652 3.005341,-22.490982c-2.169205,-7.004059 -4.705978,-13.701462 -12.278381,-18.780609c-6.178085,-4.108154 -13.195862,-7.287231 -21.800415,-7.746796c-8.421829,-0.41008 -16.164536,1.203751 -23.233406,4.567703c-6.112259,3.305222 -11.645638,7.241974 -16.069778,11.741821c-1.92112,1.858658 -4.725082,3.664612 -5.411575,5.963852c-0.46891,1.571518 -4.034454,0.730408 -3.004791,-0.695724z" id="svg_28"/>
      <path fill="#13bcf9" fill-rule="nonzero" stroke-width="1px" d="m244.91626,258.144775c1.61615,2.296417 2.367004,4.773285 3.071838,7.277649c1.159302,5.21167 0.807526,10.470581 -0.415039,15.648712c-1.929749,5.062286 -6.537933,8.759796 -11.812622,12.172058c-5.69519,3.005249 -11.41925,3.876373 -17.996201,1.990265c-7.058014,-2.507721 -10.952347,-7.57959 -15.034637,-12.179474c-4.711777,-5.675598 -9.008408,-11.516876 -13.429642,-17.30957c-4.583725,-6.670563 -10.591049,-12.645096 -16.980118,-18.454147c-7.658676,-6.659317 -17.028946,-12.023773 -27.164932,-16.58194c-9.52951,-4.522141 -20.303841,-6.792542 -31.431953,-8.146606c-8.363167,-1.285675 -16.296097,-0.070862 -24.147095,2.009415c-0.607925,0.16098 -0.923958,-0.45874 -0.315811,-0.619339l0,0c7.98333,-2.107346 16.233955,-3.136261 24.774239,-2.951004c11.625191,1.000427 22.307434,3.951691 32.212997,8.477051c10.182144,4.797272 20.240906,9.829025 28.321564,16.465622c6.883011,5.68866 13.059418,11.821732 18.386505,18.324051c4.487503,5.64679 8.840683,11.379639 14.099487,16.678864c3.67038,3.68512 7.550278,7.329376 13.206924,9.525452c4.222031,1.044861 8.254044,1.335693 12.292191,-0.386475c5.397034,-2.177032 9.085968,-5.689667 11.478241,-9.774384c2.911682,-4.684143 3.879913,-9.554321 2.256165,-14.61673c-0.793671,-2.358368 -1.722656,-4.72522 -3.247406,-6.900665c-0.662811,-0.945892 1.210266,-1.593811 1.875305,-0.648804z" id="svg_29"/>
      <path fill="#13bcf9" fill-rule="nonzero" stroke-width="1px" d="m145.347565,244.530304c1.55011,0.766754 2.194244,2.212006 2.961197,3.429733c2.216476,3.404099 5.489914,6.308884 9.04686,9.023178c4.99765,3.699158 10.986984,6.397766 17.247986,8.821472c6.188919,2.028442 12.990234,2.880005 19.76004,2.732056c4.640381,-0.537659 9.326569,-1.1875 11.820541,-4.246643c0.327988,-0.402161 1.119293,-0.065857 0.788849,0.335388l0,0c-3.257217,3.955811 -5.275803,7.684998 -12.802612,7.292847c-7.308105,-0.537231 -13.772385,-2.734436 -20.294556,-5.069946c-6.609207,-2.231049 -12.74382,-5.115906 -18.150253,-8.664673c-4.027756,-2.625702 -7.883636,-5.377914 -11.397903,-8.36644c-1.156509,-0.963898 -2.726059,-2.088303 -2.896927,-3.327637c-0.333359,-2.416885 1.137299,-3.334457 3.916779,-1.959335z" id="svg_30"/>
      <path fill="#13bcf9" fill-rule="nonzero" stroke-width="1px" d="m63.030479,210.328613c2.129089,0.406631 3.655403,1.873062 5.365753,2.899414c4.72654,2.562378 10.075531,4.05127 15.685249,5.275513c6.524841,0.886566 13.077301,0.813538 19.445801,-0.524734c5.315575,-1.090683 10.008926,-3.24118 13.78714,-6.118759c3.854889,-3.076263 4.34491,-6.730347 3.679085,-10.679993c-0.578964,-2.72171 -2.23526,-4.98877 -4.188896,-7.298325c-0.337044,-0.398346 0.446007,-0.741516 0.782608,-0.342941l0,0c2.002808,2.373032 4.21225,4.679672 5.642563,7.274582c2.180161,4.82254 2.660576,9.533875 -1.822342,13.81369c-4.642609,3.582321 -10.218567,5.891907 -16.960564,6.842026c-7.11924,0.531769 -14.136589,0.218964 -20.902588,-1.628693c-5.819916,-1.158371 -11.706329,-2.518311 -17.014977,-4.602951c-2.09758,-0.813766 -4.697151,-1.57074 -5.547474,-3.193314c-0.784607,-1.496933 -0.098679,-2.125732 2.048641,-1.715515z" id="svg_31"/>
      <path fill="#13bcf9" fill-rule="nonzero" stroke-width="1px" d="m101.600571,231.535889c1.282906,1.13884 3.080437,1.828903 4.789902,2.583984c4.544731,1.953461 8.733971,4.280823 12.837708,6.677063c5.953903,3.43924 11.418671,7.269958 16.717606,11.216919c4.362671,3.970337 9.614883,7.04303 15.149612,10.08197c5.989563,2.781952 8.551575,6.219666 6.1259,11.151062c-1.811951,2.564178 -5.193771,3.427734 -8.496933,4.710449c-0.384766,0.344727 -0.769516,0.689301 -1.154388,1.033875c-0.405884,0.363647 -0.562561,0.391327 -0.915924,0.000397l0,0c-0.385315,-0.4263 -0.77063,-0.85257 -1.156067,-1.2789c-2.141724,-2.557495 -1.989624,-5.556366 -0.058334,-8.225342c2.749756,-0.870544 1.908386,-3.088501 1.378342,-5.078125c-2.444229,-4.771484 -6.317551,-8.48349 -11.530533,-11.936783c-5.273239,-3.927948 -10.710838,-7.74054 -16.636261,-11.163177c-4.072342,-2.378235 -8.229172,-4.688614 -12.739578,-6.627045c-1.683418,-0.743561 -3.318359,-1.627045 -5.250549,-1.989731c-1.273071,-0.238998 0.110649,-1.89238 0.939499,-1.156616z" id="svg_32"/>
      <path fill="#13bcf9" fill-rule="nonzero" stroke-width="1px" d="m152.46257,195.302444c0.131989,-1.097458 0.317825,-2.203369 0.425552,-3.311172c-0.045929,-3.426514 -1.458694,-6.765106 -2.868881,-10.009048c-3.656754,-6.463882 -9.218735,-12.193085 -14.971161,-17.758667c-8.069031,-7.566254 -17.666489,-14.172348 -28.931732,-19.191452c-7.992706,-3.716431 -16.844902,-0.217987 -24.946121,-1.594543c-1.067444,0.520752 -2.134674,1.041473 -3.202003,1.562241c-0.536194,0.261673 -1.049927,-0.286728 -0.512177,-0.54686l0,0c1.116074,-0.540054 2.23214,-1.080109 3.34819,-1.620148c6.9123,-6.496948 18.1353,-2.65155 25.925301,1.513977c11.082855,5.35025 20.991989,11.782104 29.053314,19.482849c5.80069,5.613586 11.405823,11.393417 15.090164,17.913544c2.108871,3.251389 3.934784,6.570724 4.876953,10.10965c0.278381,1.228394 0.570602,2.534485 0.051178,3.730377c-0.70961,1.633804 -3.543747,1.424698 -3.338577,-0.280746z" id="svg_33"/>
      <path fill="#13bcf9" fill-rule="nonzero" stroke-width="1px" d="m71.209473,224.599976c1.71405,1.142303 3.374451,2.342529 4.924675,3.607025c3.90638,3.454941 8.42585,6.43335 12.871223,9.521637c5.760567,3.163025 10.503891,7.207504 15.429901,11.019516c5.725601,4.771088 7.222839,9.010452 5.391129,15.129715c0.900612,0.863159 1.801102,1.726257 2.701591,2.589417c0.389229,0.372925 -0.343399,0.769226 -0.732201,0.396301l0,0c-0.911102,-0.873779 -1.821991,-1.747559 -2.733109,-2.62146c-8.75161,-1.467224 -13.09227,-4.464783 -16.237526,-10.51593c-2.167206,-4.803391 -4.955299,-9.399368 -7.306435,-14.14917c-2.73513,-3.947571 -5.548706,-7.824341 -10.034866,-10.905441c-1.65963,-1.067596 -3.278893,-2.115036 -5.424309,-2.628922c-1.549889,-0.371246 -0.048836,-2.241653 1.149925,-1.442688z" id="svg_34"/>
      <path fill="#13bcf9" fill-rule="nonzero" stroke-width="1px" d="m239.762726,287.175232c0.746155,-1.000702 1.599945,-1.978027 2.354828,-2.98587c2.238617,-2.306122 3.98819,-4.835419 5.63205,-7.380676c1.772736,-2.518951 3.16626,-5.1698 5.233124,-7.576263c1.655701,-2.032928 3.889862,-3.384979 7.053986,-3.939819c4.78656,0.375214 5.262726,4.340698 5.965637,7.100952c1.182434,3.729004 1.082642,7.537079 0.797577,11.326508c-0.165619,2.64151 -0.912018,5.059875 -3.424072,7.041718c-3.754974,1.967529 -6.10199,-0.492554 -6.879089,-2.99823c-0.245758,-0.444702 -0.491394,-0.889374 -0.737,-1.334045c-0.239502,-0.433441 0.613831,-0.67691 0.851532,-0.24295l0,0c0.231537,0.422577 0.463104,0.845184 0.694641,1.267761c1.246613,0.855774 2.306671,1.603699 4.038727,1.5784c2.495178,-1.30722 3.768158,-3.164581 4.330475,-5.394257c0.761261,-3.685608 0.463776,-7.433014 -0.560883,-11.083099c-0.935455,-2.05481 -1.802429,-4.153839 -4.659271,-5.138672c-2.387665,0.314697 -4.126404,1.21225 -5.635742,2.673187c-2.163727,2.287872 -4.015015,4.7099 -5.585907,7.236908c-1.760315,2.510895 -3.511688,5.039185 -4.859528,7.682892c-0.738434,1.129364 -1.266907,2.365875 -2.393494,3.330688c-1.249268,1.069885 -3.135986,0.066376 -2.21759,-1.165131z" id="svg_35"/>
     </g>
    </g>
   </g>
   <g id="svg_36">
    <metadata id="svg_37">image/svg+xml</metadata>
    <g id="svg_38">
     <g id="svg_39">
      <path fill="#13bcf9" fill-rule="nonzero" stroke-width="1px" d="m68.184563,176.799698c2.685097,0.582764 5.218018,1.335342 8.172928,1.450378c6.547508,0.033478 13.277321,-1.023087 20.37751,-3.088165c8.119339,-2.344131 15.495766,-7.51709 22.587509,-13.834808c6.967354,-7.202011 10.684814,-15.124832 13.115311,-23.361664c1.952774,-9.118423 1.720245,-17.541008 -0.810135,-24.672661c-3.090088,-7.632225 -9.148659,-12.434326 -16.088608,-16.196037c-6.70993,-3.205414 -14.801041,-3.547874 -23.890808,-1.211517c-9.5355,3.18219 -16.056847,10.601143 -21.839622,19.358444c-6.294376,11.144714 -9.883575,22.527603 -14.031178,33.771072c-3.890728,11.741974 -9.607738,23.372238 -16.351948,34.84436c-4.938263,6.323837 -9.385033,14.388077 -15.702461,19.158875c-0.53475,0.403839 -0.249111,0.989151 0.28521,0.584473l0,0c7.833361,-5.933472 14.322548,-9.396271 18.789101,-18.967255c6.504459,-11.768158 11.129879,-23.710327 16.503288,-35.603424c4.647671,-10.723846 9.138084,-21.570313 15.316017,-32.10614c4.311241,-6.793816 9.259087,-12.542465 16.495667,-15.799812c8.400215,-3.225807 15.623604,-3.209167 22.026131,-0.756638c6.957947,3.060501 12.449913,7.829498 15.502411,14.932854c2.422623,6.842278 4.381027,13.711548 1.491104,22.908585c-2.378662,7.476486 -5.951965,14.841202 -12.34726,21.263992c-6.282791,6.256226 -13.225189,10.498322 -20.670731,12.937653c-6.670319,1.80864 -13.262215,2.729645 -19.32476,2.440689c-2.576721,-0.053162 -5.806335,0.55687 -7.684875,-0.701965c-1.283691,-0.860641 -3.552696,2.294235 -1.9198,2.648712z" id="svg_40"/>
      <path fill="#13bcf9" fill-rule="nonzero" stroke-width="1px" d="m163.917999,3.5837c-0.093994,-2.8822 -0.962997,-5.2904 -1.884003,-7.6871c-2.154999,-4.7702 -5.507996,-8.5096 -9.487991,-11.573c-4.460007,-2.4763 -10.195007,-2.0269 -16.279007,-0.8908c-6.171997,1.7417 -11.115997,5.121799 -15.104996,11.1951c-3.998001,6.8839 -4.042999,13.479 -4.511002,19.8488c-0.323997,7.6299 -0.231003,15.092371 -0.261993,22.605991c0.356995,8.293907 -0.796005,17.065109 -2.341011,25.980209c-2.03199,10.456097 -6.146996,21.138699 -11.327003,31.750301c-4.731995,10.156296 -11.747993,19.483894 -19.57399,28.366402c-5.724007,6.878807 -12.580002,11.557396 -19.879402,15.522392c-0.565102,0.307007 -0.446899,1 0.118198,0.692993l0,0c7.418201,-4.037994 14.411198,-9.082184 20.917202,-15.251587c8.417999,-8.965202 14.963005,-18.744102 19.984001,-29.168304c5.076996,-10.8255 9.919998,-21.741898 12.291,-32.4786c1.999001,-9.1726 3.189995,-18.183197 3.507996,-26.87439c0.167999,-7.449699 0.181,-14.869909 1.149994,-22.600609c0.684006,-5.3853 1.555008,-10.8876 4.650009,-16.5462c2.658005,-3.7727 5.610001,-6.8396 9.746994,-8.3843c5.455002,-2.1593 10.37001,-2.099899 14.615997,-0.6914c4.999008,1.4965 8.601013,4.5059 10.309006,9.4909c0.766998,2.3485 1.434006,4.7991 1.527008,7.5251c0.041,1.1851 1.870987,0.3541 1.832993,-0.8319l0,0z" id="svg_41"/>
      <path fill="#13bcf9" fill-rule="nonzero" stroke-width="1px" d="m94.773323,84.196404c0.751396,-1.67569 0.403725,-3.226295 0.284409,-4.691147c-0.277252,-4.145874 0.556511,-8.659348 1.721626,-13.2285c1.703949,-6.332954 4.762222,-12.607395 8.191765,-18.865116c3.605324,-5.907101 8.37442,-11.354069 13.704536,-16.02092c3.909103,-2.868191 7.919357,-5.68354 11.642929,-5.12451c0.489655,0.07346 0.905533,-0.7402 0.414536,-0.811201l0,0c-4.839981,-0.700199 -8.587875,-2.102859 -14.187943,3.50786c-5.345779,5.566519 -9.065468,11.79595 -12.749084,18.17108c-3.812149,6.357491 -6.873749,12.87566 -8.982468,19.383194c-1.581535,4.83429 -2.955933,9.64328 -3.927238,14.390236c-0.331207,1.54734 -0.888161,3.507957 -0.294548,4.568314c1.157547,2.067986 2.834145,1.725624 4.18148,-1.279289z" id="svg_42"/>
      <path fill="#13bcf9" fill-rule="nonzero" stroke-width="1px" d="m51.050259,168.241333c1.410782,-1.81134 1.734013,-4.000824 2.457531,-5.986389c2.15987,-5.279663 5.430691,-10.184708 9.058491,-15.07312c4.534412,-5.278381 9.652332,-9.848663 15.368801,-13.329666c4.756012,-2.925415 9.650909,-4.60791 14.262917,-5.093033c4.78772,-0.388672 7.307739,2.036194 9.105629,5.501144c1.145851,2.472519 1.190987,5.360794 1.03067,8.491196c-0.027664,0.540024 0.779854,0.247467 0.807076,-0.292389l0,0c0.161148,-3.213318 0.521317,-6.522064 0.1091,-9.49942c-1.136322,-5.195923 -3.523956,-9.107498 -9.503204,-9.18821c-5.694267,0.56105 -11.365982,2.745987 -17.144402,6.784981c-5.825554,4.622498 -11.077545,9.813507 -15.235786,15.99086c-3.829151,4.986893 -7.59177,10.173553 -10.48238,15.501755c-1.147942,2.097961 -2.717979,4.50708 -2.426121,6.337708c0.269161,1.68898 1.16872,1.681503 2.591679,-0.145416z" id="svg_43"/>
      <path fill="#13bcf9" fill-rule="nonzero" stroke-width="1px" d="m68.501442,124.932358c0.326569,-1.769211 1.31459,-3.561401 2.19635,-5.340706c2.375725,-4.689575 4.257172,-9.411659 6.031998,-14.125671c2.596878,-6.810997 4.585609,-13.573601 6.3778,-20.30719c1.053329,-6.090279 3.321434,-12.127983 5.828171,-18.33947c3.009529,-6.337742 2.980247,-10.753101 -1.787354,-12.78017c-2.90538,-0.665161 -6.030624,1.067318 -9.340378,2.42654c-0.499931,0.010231 -0.999786,0.020561 -1.499779,0.030918c-0.527267,0.010822 -0.66494,0.100403 -0.709587,0.646332l0,0c-0.048775,0.595211 -0.097511,1.190468 -0.146286,1.785858c-0.160759,3.451172 1.71373,5.617908 4.773003,6.278263c2.639801,-1.28096 3.287308,0.994781 4.042213,2.877586c0.901886,5.343605 0.076279,10.89267 -1.938583,17.191185c-1.783417,6.701019 -3.761703,13.430664 -6.346222,20.20887c-1.761055,4.678284 -3.627365,9.364571 -5.985321,14.018539c-0.868324,1.75222 -1.617104,3.576294 -2.90123,5.215378c-0.845955,1.079857 1.194183,1.356728 1.405205,0.213737z" id="svg_44"/>
      <path fill="#13bcf9" fill-rule="nonzero" stroke-width="1px" d="m129.120468,116.501953c0.745056,0.73896 1.536835,1.446381 2.26915,2.210304c1.971542,2.630699 2.833008,6.159561 3.640976,9.614876c0.954193,7.482834 0.002197,15.753586 -1.193008,24.034683c-1.817764,11.433472 -5.381546,23.217957 -11.166893,34.976364c-4.013603,8.460403 -12.919273,12.056732 -18.387611,18.819489c-1.131828,0.358658 -2.263489,0.717163 -3.395187,1.075714c-0.568573,0.180191 -0.645233,0.958694 -0.076355,0.776321l0,0c1.180794,-0.378357 2.361565,-0.756729 3.542343,-1.135086c9.1595,0.04686 15.599602,-10.791824 19.193146,-19.449677c5.450089,-11.880692 9.357437,-23.753052 11.090332,-35.283127c1.20459,-8.351501 2.160263,-16.691101 1.194565,-24.236137c-0.271194,-3.954178 -0.801331,-7.760117 -2.144592,-11.108711c-0.503952,-1.127884 -1.042664,-2.324638 -2.145462,-2.864738c-1.506668,-0.737915 -3.579308,1.421379 -2.421402,2.569725z" id="svg_45"/>
      <path fill="#13bcf9" fill-rule="nonzero" stroke-width="1px" d="m49.02533,151.645874c0.65844,-2.076233 1.241379,-4.158524 1.701492,-6.211655c1.001759,-5.377457 2.757549,-10.826401 4.391727,-16.306259c2.608891,-6.465027 3.913582,-12.880348 5.495941,-19.248314c1.63995,-7.659737 0.316299,-11.931313 -4.686951,-15.278343c0.191971,-1.290276 0.383839,-2.580437 0.57571,-3.870613c0.082981,-0.557587 -0.71661,-0.340897 -0.799259,0.216393l0,0c-0.19384,1.305748 -0.38752,2.611351 -0.581329,3.917145c-5.918961,7.29068 -7.525032,12.627899 -6.416611,19.436615c1.135159,5.172241 1.66787,10.625557 2.62915,15.886902c0.193947,4.924179 0.285629,9.850037 -1.38427,15.353241c-0.660061,1.98114 -1.300713,3.918472 -2.661343,5.822617c-0.98304,1.375626 1.275311,1.734329 1.735741,0.282272z" id="svg_46"/>
      <path fill="#13bcf9" fill-rule="nonzero" stroke-width="1px" d="m142.920868,-14.79143c1.164108,0.232051 2.397827,0.37045 3.572922,0.60173c3.084793,0.16841 5.921494,0.85122 8.685715,1.620811c2.848572,0.65854 5.480713,1.684939 8.491211,2.05065c2.473221,0.37268 4.995682,-0.1793 7.771423,-1.99216c3.487564,-3.66352 1.533432,-7.0066 0.461029,-9.595891c-1.26857,-3.66231 -3.576508,-6.479509 -6.017014,-9.151628c-1.675568,-1.88612 -3.670319,-3.192959 -6.776978,-2.922482c-4.060898,1.15884 -4.437607,4.681211 -3.571747,7.129801c0.070145,0.51067 0.140289,1.02116 0.210526,1.53175c0.06842,0.49773 0.87204,0.08004 0.801987,-0.416861l0,0c-0.068192,-0.483898 -0.136444,-0.967758 -0.204712,-1.45175c0.46431,-1.528839 0.847275,-2.844299 2.203613,-4.04784c2.698349,-0.770208 4.772293,-0.26046 6.513916,1.03327c2.74852,2.257261 4.713318,5.308842 6.057709,8.800011c0.479172,2.2185 1.037247,4.42218 -0.598648,7.1857c-2.033615,1.446919 -3.906113,1.99375 -5.930847,1.95144c-3.016144,-0.20729 -5.86879,-0.73717 -8.565796,-1.54434c-2.834244,-0.66129 -5.671753,-1.341969 -8.264252,-2.39517c-1.233597,-0.335169 -2.367157,-0.899611 -3.804886,-0.83592c-1.594315,0.070641 -2.467834,2.163321 -1.035172,2.44888z" id="svg_47"/>
     </g>
    </g>
   </g>
  </g>
  <g id="svg_184">
   <g id="svg_185">
    <path fill="#97ea44" fill-rule="evenodd" clip-rule="evenodd" d="m506.855225,346.451569c-0.934082,2.538147 -2.619385,3.509888 -2.187073,6.390289c0.489075,3.257324 1.026428,5.754303 0.002808,9.068787c-2.114868,6.847015 -8.804993,9.753754 -14.332275,13.108978c-2.934326,1.781067 -5.115601,4.329895 -7.31662,6.91568c-2.365326,2.778839 -5.164795,5.328247 -7.012543,8.495911c-1.817108,3.114899 -2.975433,6.632629 -4.540649,9.879486c-1.8013,3.736938 -3.520782,7.411438 -4.63739,11.421387c-0.858734,3.083405 -1.19046,6.253784 -1.153687,9.447479c-0.941498,-3.505676 1.539734,-8.621582 2.37793,-11.96283c1.293579,-5.159241 2.587463,-10.318115 3.881317,-15.477417c-4.625397,7.141998 -9.250854,14.283997 -13.876282,21.425995c1.887177,-4.978394 5.629242,-8.764282 8.371124,-13.231384c2.924133,-4.764191 4.865784,-10.156677 7.466278,-15.111206c-3.54425,4.474792 -7.741333,8.127655 -12.066254,11.802948c0.026917,-0.9039 -0.442047,-1.829681 -0.075562,-2.631378c0.392029,-0.857025 1.568298,-1.323364 2.035919,-2.255402c1.580048,-3.148254 2.724213,-5.493713 5.039185,-8.29538c4.893768,-5.92276 9.94751,-11.11319 13.172974,-18.186829c1.599854,-3.509155 3.159515,-7.035706 5.015717,-10.416779c1.83075,-3.334839 4.113098,-6.017914 6.109375,-9.185547c1.638306,-2.599213 2.516479,-4.30307 5.09082,-6.01416c1.799561,-1.196411 6.028137,-0.696381 7.579224,0.75177c0.715454,0.667633 0.848511,2.016266 1.508423,2.556244c0.955566,0.781891 2.927002,0.16214 3.84613,1.127411c-1.338684,0.457672 -2.897644,0.32016 -4.298889,0.375946" id="svg_186"/>
    <path fill="#97ea44" stroke="#000000" stroke-width="0.3806" stroke-linecap="square" stroke-miterlimit="10" d="m506.855225,346.451569c-0.934082,2.538147 -2.619385,3.509888 -2.187073,6.390289c0.489075,3.257324 1.026428,5.754303 0.002808,9.068787c-2.114868,6.847015 -8.804993,9.753754 -14.332275,13.108978c-2.934326,1.781067 -5.115601,4.329895 -7.31662,6.91568c-2.365326,2.778839 -5.164795,5.328247 -7.012543,8.495911c-1.817108,3.114899 -2.975433,6.632629 -4.540649,9.879486c-1.8013,3.736938 -3.520782,7.411438 -4.63739,11.421387c-0.858734,3.083405 -1.19046,6.253784 -1.153687,9.447479c-0.941498,-3.505676 1.539734,-8.621582 2.37793,-11.96283c1.293579,-5.159241 2.587463,-10.318115 3.881317,-15.477417c-4.625397,7.141998 -9.250854,14.283997 -13.876282,21.425995c1.887177,-4.978394 5.629242,-8.764282 8.371124,-13.231384c2.924133,-4.764191 4.865784,-10.156677 7.466278,-15.111206c-3.54425,4.474792 -7.741333,8.127655 -12.066254,11.802948c0.026917,-0.9039 -0.442047,-1.829681 -0.075562,-2.631378c0.392029,-0.857025 1.568298,-1.323364 2.035919,-2.255402c1.580048,-3.148254 2.724213,-5.493713 5.039185,-8.29538c4.893768,-5.92276 9.94751,-11.11319 13.172974,-18.186829c1.599854,-3.509155 3.159515,-7.035706 5.015717,-10.416779c1.83075,-3.334839 4.113098,-6.017914 6.109375,-9.185547c1.638306,-2.599213 2.516479,-4.30307 5.09082,-6.01416c1.870178,-1.243317 5.940002,-0.62973 7.579224,0.75177c0.157043,0.132263 0.315918,0.297577 0.452576,0.451141" id="svg_187"/>
    <path fill="#97ea44" stroke="#000000" stroke-width="0.3806" stroke-linecap="square" stroke-miterlimit="10" d="m506.251892,342.843109c0.361877,0.602325 0.703918,2.119049 1.40509,2.218994c1.129395,0.161163 2.745483,0.224487 3.496826,1.013519c-1.338379,0.457458 -2.897339,0.32016 -4.298584,0.375732" id="svg_188"/>
    <path fill="#97ea44" fill-rule="evenodd" clip-rule="evenodd" d="m498.258057,379.004028c-0.861023,-0.464722 -1.720764,-0.938202 -2.639832,-1.277954c0.267944,0.070129 0.787292,0.381378 0.980713,0.45108c0.078125,-0.030151 -0.152222,-0.154907 -0.075684,-0.150482c-0.077087,0.313812 -0.170532,0.719299 -0.226379,1.202942c-0.935669,-2.020477 -0.777222,-2.019867 -2.941162,-1.804169c-1.763062,0.17569 -2.256165,0.444427 -3.771118,1.428497c0.761963,-1.75827 2.097778,-2.125336 3.771118,-1.353516c-0.51355,-1.690033 -2.685303,-2.106232 -4.223083,-2.255219c1.836304,-0.873138 3.384338,1.150085 5.015015,1.691467c1.505493,0.500061 3.303711,0.478516 4.110413,2.067352" id="svg_189"/>
    <path fill="#97ea44" stroke="#000000" stroke-width="0.3806" stroke-linecap="square" stroke-miterlimit="10" d="m498.258057,379.004028c-0.861023,-0.464722 -1.720764,-0.938202 -2.639832,-1.277954c0.267944,0.070129 0.787292,0.381378 0.980713,0.45108c0.078125,-0.030151 -0.152222,-0.154907 -0.075684,-0.150482c-0.077087,0.313812 -0.170532,0.719299 -0.226379,1.202942c-0.935669,-2.020477 -0.777222,-2.019867 -2.941162,-1.804169c-1.763062,0.17569 -2.256165,0.444427 -3.771118,1.428497c0.761963,-1.75827 2.097778,-2.125336 3.771118,-1.353516c-0.51355,-1.690033 -2.685303,-2.106232 -4.223083,-2.255219c1.836304,-0.873138 3.384338,1.150085 5.015015,1.691467c1.505493,0.500061 3.303711,0.478516 4.110413,2.067352" id="svg_190"/>
    <path fill="#97ea44" fill-rule="evenodd" clip-rule="evenodd" d="m498.258057,375.245209c-0.870178,-0.470062 -1.751831,-0.91803 -2.639832,-1.353027c0.260315,0.064087 0.702148,0.402466 0.980713,0.526276c-0.508423,0.153564 -0.101685,0.128143 -0.301819,1.052246c-0.95343,-2.058258 -0.765564,-2.021912 -2.94104,-1.80423c-1.68457,0.168549 -2.337646,0.318878 -3.77124,1.353149c0.758606,-1.835175 2.137634,-1.914948 3.77124,-1.353149c-0.590881,-1.655304 -2.665161,-2.02951 -4.223328,-2.180206c1.688599,-0.949249 3.529053,0.995087 5.015076,1.654053c1.427551,0.633087 3.380432,0.432617 4.110229,2.104889" id="svg_191"/>
    <path fill="#97ea44" stroke="#000000" stroke-width="0.3806" stroke-linecap="square" stroke-miterlimit="10" d="m498.258057,375.245209c-0.870178,-0.470062 -1.751831,-0.91803 -2.639832,-1.353027c0.260315,0.064087 0.702148,0.402466 0.980713,0.526276c-0.508423,0.153564 -0.101685,0.128143 -0.301819,1.052246c-0.95343,-2.058258 -0.765564,-2.021912 -2.94104,-1.80423c-1.68457,0.168549 -2.337646,0.318878 -3.77124,1.353149c0.758606,-1.835175 2.137634,-1.914948 3.77124,-1.353149c-0.590881,-1.655304 -2.665161,-2.02951 -4.223328,-2.180206c1.688599,-0.949249 3.529053,0.995087 5.015076,1.654053c1.427551,0.633087 3.380432,0.432617 4.110229,2.104889" id="svg_192"/>
   </g>
  </g>
  <text fill="#ffffff" stroke="#000000" stroke-width="0" x="41.283284" y="2.949971" font-size="14" font-family="Monospace" text-anchor="middle" xml:space="preserve" font-weight="bold" id="svg_207">.</text>
  <g id="svg_101">
   <path fill="#97ea44" fill-rule="evenodd" clip-rule="evenodd" d="m79.354134,33.426041c0.913139,2.063549 2.561028,2.853519 2.138298,5.195301c-0.478149,2.648228 -1.00354,4.678207 -0.002678,7.372887c2.067924,5.566551 8.609367,7.929741 14.013725,10.657532c2.869324,1.44799 5.002197,3.52018 7.154228,5.62249c2.312691,2.25909 5.05011,4.331783 6.856575,6.907047c1.776855,2.532471 2.909355,5.392334 4.439819,8.03199c1.761482,3.038139 3.442627,6.025459 4.534416,9.285606c0.839676,2.506737 1.164192,5.084244 1.128059,7.680656c0.92083,-2.850098 -1.505501,-7.0093 -2.32489,-9.725693c-1.264954,-4.194427 -2.53022,-8.388618 -3.795288,-12.583084c4.522697,5.806374 9.045471,11.612816 13.568169,17.419266c-1.84539,-4.047386 -5.504326,-7.125359 -8.185234,-10.757019c-2.859314,-3.873306 -4.757751,-8.257339 -7.300415,-12.285393c3.465393,3.638031 7.569328,6.60775 11.798279,9.595779c-0.026489,-0.73494 0.43219,-1.487579 0.07373,-2.139275c-0.383301,-0.6968 -1.533386,-1.075989 -1.990601,-1.833694c-1.54493,-2.559525 -2.663696,-4.466354 -4.927246,-6.74408c-4.785164,-4.815208 -9.726501,-9.035076 -12.880249,-14.785816c-1.564453,-2.852982 -3.089355,-5.720093 -4.904373,-8.468884c-1.790207,-2.711178 -4.02179,-4.892448 -5.973801,-7.467808c-1.601746,-2.113121 -2.460449,-3.498301 -4.977539,-4.88945c-1.759651,-0.972641 -5.89418,-0.56609 -7.411072,0.61124c-0.69928,0.542759 -0.82959,1.639189 -1.474869,2.078171c-0.934128,0.635689 -2.861679,0.131779 -3.76049,0.916637c1.308784,0.37207 2.833191,0.26025 4.20343,0.305592" id="svg_102"/>
   <path fill="#97ea44" stroke="#000000" stroke-width="0.3806" stroke-linecap="square" stroke-miterlimit="10" d="m79.354134,33.426041c0.913139,2.063549 2.561028,2.853519 2.138298,5.195301c-0.478149,2.648228 -1.00354,4.678207 -0.002678,7.372887c2.067924,5.566551 8.609367,7.929741 14.013725,10.657532c2.869324,1.44799 5.002197,3.52018 7.154228,5.62249c2.312691,2.25909 5.05011,4.331783 6.856575,6.907047c1.776855,2.532471 2.909355,5.392334 4.439819,8.03199c1.761482,3.038139 3.442627,6.025459 4.534416,9.285606c0.839676,2.506737 1.164192,5.084244 1.128059,7.680656c0.92083,-2.850098 -1.505501,-7.0093 -2.32489,-9.725693c-1.264954,-4.194427 -2.53022,-8.388618 -3.795288,-12.583084c4.522697,5.806374 9.045471,11.612816 13.568169,17.419266c-1.84539,-4.047386 -5.504326,-7.125359 -8.185234,-10.757019c-2.859314,-3.873306 -4.757751,-8.257339 -7.300415,-12.285393c3.465393,3.638031 7.569328,6.60775 11.798279,9.595779c-0.026489,-0.73494 0.43219,-1.487579 0.07373,-2.139275c-0.383301,-0.6968 -1.533386,-1.075989 -1.990601,-1.833694c-1.54493,-2.559525 -2.663696,-4.466354 -4.927246,-6.74408c-4.785164,-4.815208 -9.726501,-9.035076 -12.880249,-14.785816c-1.564453,-2.852982 -3.089355,-5.720093 -4.904373,-8.468884c-1.790207,-2.711178 -4.02179,-4.892448 -5.973801,-7.467808c-1.601746,-2.113121 -2.460449,-3.498301 -4.977539,-4.88945c-1.828857,-1.01078 -5.807991,-0.51194 -7.411072,0.61124c-0.153389,0.10751 -0.308838,0.241819 -0.442268,0.366678" id="svg_103"/>
   <path fill="#97ea44" stroke="#000000" stroke-width="0.3806" stroke-linecap="square" stroke-miterlimit="10" d="m79.94397,30.492319c-0.353996,0.489771 -0.688293,1.722853 -1.37384,1.80409c-1.104431,0.131039 -2.684448,0.182461 -3.419373,0.824039c1.308716,0.371902 2.83313,0.26025 4.203377,0.30545" id="svg_104"/>
   <path fill="#97ea44" fill-rule="evenodd" clip-rule="evenodd" d="m87.760246,59.891071c0.841866,-0.377823 1.682564,-0.76276 2.581001,-1.038933c-0.261841,0.056942 -0.769661,0.31002 -0.958801,0.366722c-0.076538,-0.024559 0.148743,-0.125969 0.073914,-0.12241c0.075439,0.255169 0.166809,0.58482 0.221497,0.978058c0.914795,-1.642658 0.759956,-1.642178 2.87561,-1.466808c1.723946,0.142841 2.206177,0.36121 3.687386,1.161259c-0.74482,-1.42944 -2.050972,-1.727791 -3.687386,-1.100288c0.50219,-1.37405 2.625793,-1.712429 4.129395,-1.8335c-1.795532,-0.709831 -3.309319,0.935028 -4.903503,1.37516c-1.472229,0.40654 -3.230408,0.389069 -4.019096,1.68074" id="svg_105"/>
   <path fill="#97ea44" stroke="#000000" stroke-width="0.3806" stroke-linecap="square" stroke-miterlimit="10" d="m87.760246,59.891071c0.841866,-0.377823 1.682564,-0.76276 2.581001,-1.038933c-0.261841,0.056942 -0.769661,0.31002 -0.958801,0.366722c-0.076538,-0.024559 0.148743,-0.125969 0.073914,-0.12241c0.075439,0.255169 0.166809,0.58482 0.221497,0.978058c0.914795,-1.642658 0.759956,-1.642178 2.87561,-1.466808c1.723946,0.142841 2.206177,0.36121 3.687386,1.161259c-0.74482,-1.42944 -2.050972,-1.727791 -3.687386,-1.100288c0.50219,-1.37405 2.625793,-1.712429 4.129395,-1.8335c-1.795532,-0.709831 -3.309319,0.935028 -4.903503,1.37516c-1.472229,0.40654 -3.230408,0.389069 -4.019096,1.68074" id="svg_106"/>
   <path fill="#97ea44" fill-rule="evenodd" clip-rule="evenodd" d="m87.760246,56.835171c0.850655,-0.382172 1.712715,-0.746399 2.581001,-1.100021c-0.254456,0.05209 -0.686455,0.32719 -0.958801,0.427792c0.497131,0.124859 0.099365,0.104259 0.295166,0.855511c0.932129,-1.673313 0.748596,-1.643803 2.875725,-1.466743c1.646919,0.136993 2.285652,0.259201 3.687447,1.100052c-0.741707,-1.49202 -2.090271,-1.55685 -3.687447,-1.100052c0.577705,-1.34581 2.605965,-1.65004 4.129341,-1.77256c-1.651131,-0.771717 -3.450562,0.809021 -4.903511,1.344742c-1.396049,0.51474 -3.30529,0.35173 -4.018906,1.711281" id="svg_107"/>
   <path fill="#97ea44" stroke="#000000" stroke-width="0.3806" stroke-linecap="square" stroke-miterlimit="10" d="m87.760246,56.835171c0.850655,-0.382172 1.712715,-0.746399 2.581001,-1.100021c-0.254456,0.05209 -0.686455,0.32719 -0.958801,0.427792c0.497131,0.124859 0.099365,0.104259 0.295166,0.855511c0.932129,-1.673313 0.748596,-1.643803 2.875725,-1.466743c1.646919,0.136993 2.285652,0.259201 3.687447,1.100052c-0.741707,-1.49202 -2.090271,-1.55685 -3.687447,-1.100052c0.577705,-1.34581 2.605965,-1.65004 4.129341,-1.77256c-1.651131,-0.771717 -3.450562,0.809021 -4.903511,1.344742c-1.396049,0.51474 -3.30529,0.35173 -4.018906,1.711281" id="svg_108"/>
  </g>
  <g id="svg_91">
   <g id="svg_92">
    <path fill="#97ea44" fill-rule="evenodd" clip-rule="evenodd" d="m74.178963,26.90472c-0.863655,2.285009 -2.422005,3.15983 -2.022285,5.75296c0.452209,2.932438 0.949165,5.180359 0.002625,8.16428c-1.955505,6.16412 -8.141602,8.780949 -13.252441,11.80151c-2.713261,1.603428 -4.73016,3.898079 -6.76535,6.22596c-2.187099,2.501671 -4.775631,4.79681 -6.484192,7.648533c-1.68018,2.80426 -2.751217,5.97113 -4.198517,8.894127c-1.665623,3.364227 -3.25552,6.672272 -4.288021,10.282288c-0.794041,2.775879 -1.100739,5.630035 -1.066769,8.505196c-0.870552,-3.156013 1.423759,-7.761696 2.198788,-10.769691c1.196102,-4.644684 2.392509,-9.289001 3.588902,-13.933739c-4.27689,6.42968 -8.553871,12.859337 -12.83082,19.289024c1.745029,-4.481865 5.205111,-7.890167 7.74045,-11.911705c2.7038,-4.28904 4.499149,-9.143684 6.903721,-13.604073c-3.277222,4.028503 -7.158081,7.317017 -11.157143,10.625732c0.02491,-0.813751 -0.408718,-1.647179 -0.069878,-2.368919c0.362488,-0.771523 1.45013,-1.191383 1.882538,-2.030434c1.461033,-2.834259 2.518951,-4.945831 4.659512,-7.468048c4.525028,-5.332031 9.198029,-10.004791 12.18045,-16.372921c1.479309,-3.159149 2.921509,-6.333988 4.637817,-9.377838c1.692841,-3.002232 3.803192,-5.417702 5.649082,-8.269411c1.514889,-2.339972 2.3269,-3.873901 4.707272,-5.414341c1.66394,-1.07708 5.573929,-0.626921 7.008179,0.676821c0.661499,0.601009 0.784546,1.815159 1.394791,2.30127c0.88353,0.70392 2.706406,0.145969 3.55632,1.01499c-1.237854,0.41201 -2.679382,0.288231 -3.975044,0.33844" id="svg_93"/>
    <path fill="#97ea44" stroke="#000000" stroke-width="0.3806" stroke-linecap="square" stroke-miterlimit="10" d="m74.178963,26.90472c-0.863655,2.285009 -2.422005,3.15983 -2.022285,5.75296c0.452209,2.932438 0.949165,5.180359 0.002625,8.16428c-1.955505,6.16412 -8.141602,8.780949 -13.252441,11.80151c-2.713261,1.603428 -4.73016,3.898079 -6.76535,6.22596c-2.187099,2.501671 -4.775631,4.79681 -6.484192,7.648533c-1.68018,2.80426 -2.751217,5.97113 -4.198517,8.894127c-1.665623,3.364227 -3.25552,6.672272 -4.288021,10.282288c-0.794041,2.775879 -1.100739,5.630035 -1.066769,8.505196c-0.870552,-3.156013 1.423759,-7.761696 2.198788,-10.769691c1.196102,-4.644684 2.392509,-9.289001 3.588902,-13.933739c-4.27689,6.42968 -8.553871,12.859337 -12.83082,19.289024c1.745029,-4.481865 5.205111,-7.890167 7.74045,-11.911705c2.7038,-4.28904 4.499149,-9.143684 6.903721,-13.604073c-3.277222,4.028503 -7.158081,7.317017 -11.157143,10.625732c0.02491,-0.813751 -0.408718,-1.647179 -0.069878,-2.368919c0.362488,-0.771523 1.45013,-1.191383 1.882538,-2.030434c1.461033,-2.834259 2.518951,-4.945831 4.659512,-7.468048c4.525028,-5.332031 9.198029,-10.004791 12.18045,-16.372921c1.479309,-3.159149 2.921509,-6.333988 4.637817,-9.377838c1.692841,-3.002232 3.803192,-5.417702 5.649082,-8.269411c1.514889,-2.339972 2.3269,-3.873901 4.707272,-5.414341c1.729248,-1.119289 5.492439,-0.566889 7.008179,0.676821c0.14521,0.11908 0.29213,0.267879 0.418457,0.40613" id="svg_94"/>
    <path fill="#97ea44" stroke="#000000" stroke-width="0.3806" stroke-linecap="square" stroke-miterlimit="10" d="m73.621147,23.65616c0.334541,0.542269 0.65081,1.907709 1.299141,1.997679c1.044312,0.145111 2.538689,0.202091 3.233398,0.912441c-1.237549,0.41181 -2.679077,0.28824 -3.974739,0.338259" id="svg_95"/>
    <path fill="#97ea44" fill-rule="evenodd" clip-rule="evenodd" d="m66.229553,56.21051c-0.796143,-0.418362 -1.591125,-0.844631 -2.440914,-1.150509c0.247738,0.063137 0.727962,0.343349 0.906803,0.40609c0.072258,-0.027161 -0.140755,-0.139462 -0.069954,-0.13546c-0.071289,0.282497 -0.157715,0.647549 -0.209351,1.08297c-0.865177,-1.81897 -0.718628,-1.81842 -2.719547,-1.624229c-1.630241,0.158138 -2.086182,0.400078 -3.487,1.286007c0.704529,-1.58289 1.939697,-1.913357 3.487,-1.21851c-0.47485,-1.521481 -2.482971,-1.896179 -3.9049,-2.0303c1.697929,-0.786037 3.12933,1.03537 4.637138,1.522762c1.39209,0.450199 3.054813,0.43079 3.800724,1.861179" id="svg_96"/>
    <path fill="#97ea44" stroke="#000000" stroke-width="0.3806" stroke-linecap="square" stroke-miterlimit="10" d="m66.229553,56.21051c-0.796143,-0.418362 -1.591125,-0.844631 -2.440914,-1.150509c0.247738,0.063137 0.727962,0.343349 0.906803,0.40609c0.072258,-0.027161 -0.140755,-0.139462 -0.069954,-0.13546c-0.071289,0.282497 -0.157715,0.647549 -0.209351,1.08297c-0.865177,-1.81897 -0.718628,-1.81842 -2.719547,-1.624229c-1.630241,0.158138 -2.086182,0.400078 -3.487,1.286007c0.704529,-1.58289 1.939697,-1.913357 3.487,-1.21851c-0.47485,-1.521481 -2.482971,-1.896179 -3.9049,-2.0303c1.697929,-0.786037 3.12933,1.03537 4.637138,1.522762c1.39209,0.450199 3.054813,0.43079 3.800724,1.861179" id="svg_97"/>
    <path fill="#97ea44" fill-rule="evenodd" clip-rule="evenodd" d="m66.229553,52.826569c-0.804626,-0.423157 -1.619812,-0.82645 -2.440914,-1.218079c0.240719,0.057678 0.649227,0.362331 0.906803,0.473782c-0.4701,0.138248 -0.094002,0.11536 -0.27906,0.9473c-0.881592,-1.85297 -0.707882,-1.820251 -2.719482,-1.624271c-1.557621,0.151741 -2.161499,0.287079 -3.487061,1.21817c0.701412,-1.65213 1.976563,-1.723942 3.487061,-1.21817c-0.546329,-1.490231 -2.464359,-1.82708 -3.90509,-1.962769c1.56134,-0.85458 3.263123,0.895847 4.637211,1.489079c1.32,0.569981 3.125729,0.389462 3.800533,1.894958" id="svg_98"/>
    <path fill="#97ea44" stroke="#000000" stroke-width="0.3806" stroke-linecap="square" stroke-miterlimit="10" d="m66.229553,52.826569c-0.804626,-0.423157 -1.619812,-0.82645 -2.440914,-1.218079c0.240719,0.057678 0.649227,0.362331 0.906803,0.473782c-0.4701,0.138248 -0.094002,0.11536 -0.27906,0.9473c-0.881592,-1.85297 -0.707882,-1.820251 -2.719482,-1.624271c-1.557621,0.151741 -2.161499,0.287079 -3.487061,1.21817c0.701412,-1.65213 1.976563,-1.723942 3.487061,-1.21817c-0.546329,-1.490231 -2.464359,-1.82708 -3.90509,-1.962769c1.56134,-0.85458 3.263123,0.895847 4.637211,1.489079c1.32,0.569981 3.125729,0.389462 3.800533,1.894958" id="svg_99"/>
   </g>
  </g>
  <g id="svg_1" transform="rotate(-119.702, 490.406, 369.211)">
   <g id="svg_2" transform="rotate(90, 490.407, 455.071) matrix(1.02529, 0, 0, 1.94961, -62.4519, -623.823)">
    <metadata id="svg_3">image/svg+xml</metadata>
    <g id="svg_4">
     <g id="svg_5">
      <path id="svg_6" fill="#13bcf9" fill-rule="nonzero" stroke-width="1px" d="m516.229309,593.358643c-2.242065,-0.924805 -4.507141,-1.732361 -6.585144,-2.918335c-4.440369,-2.698669 -8.197144,-5.821228 -11.45752,-9.419434c-3.741272,-4.109131 -4.888245,-8.815125 -4.996216,-13.769287c0.63031,-5.185303 3.985596,-9.256226 8.441223,-12.89502c5.430054,-3.7229 11.819092,-6.319092 18.802612,-7.551758c7.731323,-1.161072 15.370667,-0.189087 22.834351,1.480164c6.896973,1.751953 12.607117,4.990601 17.008606,9.49884c4.076172,4.963013 2.984619,10.033142 0.404663,15.225464c-4.001465,6.167175 -10.003662,11.291138 -15.525879,16.601563c-6.064453,5.363525 -10.814636,11.447021 -14.754883,17.904968c-1.348877,4.064941 -4.317017,8.48291 -3.586731,12.622131c0.06189,0.350342 -0.563843,0.41925 -0.624756,0.068787l0,0c-0.892456,-5.138184 -2.706482,-8.930359 1.363159,-13.838074c4.321045,-6.45343 10.038208,-12.184937 15.214478,-18.210266c4.800598,-5.351257 9.798035,-10.676636 13.427429,-16.601013c2.119507,-3.95575 3.036377,-7.84082 0.566162,-11.876587c-3.278198,-4.507202 -8.162109,-7.490967 -14.294678,-9.356323c-6.957031,-1.900879 -14.189636,-2.648987 -21.504333,-1.641418c-6.696777,1.184753 -13.100342,2.570251 -17.956665,6.706055c-3.927917,3.374268 -6.967529,7.207153 -7.406921,11.906677c-0.392029,4.599731 1.15094,8.828552 4.367371,12.689331c3.160217,3.338318 6.924194,6.360474 11.226685,8.776794c1.7771,1.049255 3.503784,2.580688 5.702209,2.955627c1.502563,0.256104 0.698303,2.203491 -0.665222,1.641113z"/>
      <path id="svg_7" fill="#13bcf9" fill-rule="nonzero" stroke-width="1px" d="m579.835876,498.372955c2.195679,-0.88266 4.563904,-1.292755 6.958374,-1.677734c4.983032,-0.633148 10.011292,-0.44101 14.962219,0.226685c4.840149,1.053986 8.375427,3.570831 11.638,6.45166c2.873413,3.110535 3.706299,6.236816 1.902954,9.828949c-2.397705,3.854858 -7.247009,5.981812 -11.645081,8.211426c-5.426697,2.573425 -11.011658,4.920105 -16.550232,7.334839c-6.37793,2.503479 -12.090332,5.784485 -17.644531,9.273987c-6.367126,4.182922 -11.496277,9.300659 -15.854431,14.836609c-4.323792,5.204712 -6.494568,11.089294 -7.789246,17.167114c-1.229187,4.567688 -0.067749,8.900391 1.921326,13.188354c0.15387,0.332031 -0.43866,0.504639 -0.592224,0.172485l0,0c-2.014893,-4.360229 -2.998657,-8.866455 -2.821533,-13.530884c0.956543,-6.349304 3.778381,-12.183594 8.105164,-17.593689c4.586792,-5.561157 9.397827,-11.054932 15.743225,-15.468323c5.439087,-3.759277 11.303162,-7.132629 17.520142,-10.042114c5.399048,-2.450928 10.880432,-4.828491 15.947144,-7.700684c3.523499,-2.004639 7.007813,-4.123657 9.107544,-7.213226c0.999023,-2.305908 1.2771,-4.508057 -0.369446,-6.713531c-2.081604,-2.947693 -5.440125,-4.962494 -9.345642,-6.269073c-4.478577,-1.590271 -9.135071,-2.11908 -13.975464,-1.232208c-2.254883,0.433441 -4.517883,0.940857 -6.597839,1.77359c-0.904419,0.36203 -1.523926,-0.661011 -0.620422,-1.024231z"/>
      <path id="svg_8" fill="#13bcf9" fill-rule="nonzero" stroke-width="1px" d="m566.818726,552.75415c0.733154,-0.846619 2.114929,-1.198425 3.279236,-1.61731c3.254761,-1.210571 6.032104,-2.998413 8.627319,-4.941101c3.536926,-2.729553 6.117126,-6.000732 8.434509,-9.420288c1.939392,-3.380188 2.753601,-7.094849 2.612183,-10.792297c-0.514099,-2.534424 -1.135437,-5.093872 -4.060303,-6.455994c-0.384583,-0.179138 -0.063049,-0.611328 0.320679,-0.430847l0,0c3.782166,1.778992 7.347778,2.88147 6.972839,6.992371c-0.513611,3.991455 -2.614441,7.522034 -4.847473,11.084229c-2.13324,3.609741 -4.891541,6.960266 -8.284546,9.913086c-2.510559,2.199829 -5.142029,4.305786 -7.999451,6.225159c-0.921631,0.631653 -1.996704,1.488892 -3.181641,1.582214c-2.310852,0.182068 -3.188171,-0.621155 -1.873352,-2.139221z"/>
      <path id="svg_9" fill="#13bcf9" fill-rule="nonzero" stroke-width="1px" d="m534.117493,597.713074c0.388794,-1.162842 1.790894,-1.99646 2.772217,-2.930603c2.449951,-2.581482 3.873535,-5.50293 5.044067,-8.566772c0.847717,-3.56366 0.777893,-7.142395 -0.501709,-10.620667c-1.042786,-2.903198 -3.098938,-5.466553 -5.850342,-7.53009c-2.941284,-2.105408 -6.435059,-2.373047 -10.211426,-2.009399c-2.602295,0.316223 -4.769897,1.220825 -6.978149,2.287842c-0.380859,0.184082 -0.708984,-0.243591 -0.327881,-0.427429l0,0c2.268921,-1.093872 4.474426,-2.300598 6.955444,-3.081787c4.610962,-1.190735 9.115601,-1.453125 13.207703,0.9953c3.425171,2.535645 5.633362,5.581055 6.541809,9.263306c0.508423,3.888306 0.209351,7.720947 -1.55719,11.416321c-1.107605,3.17865 -2.407898,6.393616 -4.401062,9.29303c-0.778076,1.14563 -1.501831,2.56543 -3.053223,3.029846c-1.431274,0.428528 -2.032471,0.053894 -1.640259,-1.118896z"/>
      <path id="svg_10" fill="#13bcf9" fill-rule="nonzero" stroke-width="1px" d="m554.394409,576.647339c1.088867,-0.700684 1.748657,-1.682434 2.470581,-2.616089c1.867798,-2.482178 4.093018,-4.770203 6.384155,-7.011536c3.28833,-3.251831 6.95105,-6.236511 10.724792,-9.130615c3.796204,-2.382751 6.734009,-5.251343 9.639709,-8.274231c2.659912,-3.271301 5.946716,-4.670593 10.661804,-3.345764c2.451721,0.989624 3.277405,2.83667 4.503784,4.640747c0.32959,0.210144 0.659119,0.420288 0.988525,0.630493c0.347656,0.22168 0.374146,0.307251 0.000366,0.500244l0,0c-0.407593,0.210449 -0.815186,0.420898 -1.222717,0.631409c-2.445374,1.169739 -5.312622,1.08667 -7.864502,0.03186c-0.832397,-1.501831 -2.953064,-1.042297 -4.855408,-0.752808c-4.562134,1.334961 -8.111328,3.450439 -11.413025,6.297607c-3.755676,2.880066 -7.401001,5.849915 -10.673462,9.086182c-2.273926,2.224182 -4.48291,4.494507 -6.336304,6.957947c-0.710938,0.919434 -1.555664,1.812378 -1.902466,2.867676c-0.228516,0.695313 -1.809326,-0.060425 -1.105835,-0.513123z"/>
      <path id="svg_11" fill="#13bcf9" fill-rule="nonzero" stroke-width="1px" d="m519.750549,548.868164c-1.049316,-0.072083 -2.106689,-0.173584 -3.165833,-0.232422c-3.276245,0.025085 -6.468323,0.796692 -9.570007,1.566895c-6.180298,1.997192 -11.658142,5.034973 -16.979553,8.176758c-7.234314,4.407043 -13.550629,9.648865 -18.349487,15.801575c-3.553406,4.365356 -0.208435,9.200134 -1.524597,13.624756c0.497925,0.583008 0.995789,1.165894 1.493683,1.74884c0.250214,0.292847 -0.274139,0.573425 -0.522858,0.279724l0,0c-0.516357,-0.609558 -1.032715,-1.219116 -1.549072,-1.828674c-6.211914,-3.775269 -2.535217,-9.904907 1.447571,-14.159546c5.115509,-6.053101 11.265198,-11.465149 18.628113,-15.867981c5.36731,-3.168152 10.893616,-6.229492 17.127686,-8.24176c3.108765,-1.151794 6.28241,-2.149048 9.666138,-2.663635c1.1745,-0.152039 2.423279,-0.311646 3.56665,-0.027954c1.562195,0.387573 1.362244,1.935486 -0.268433,1.823425z"/>
      <path id="svg_12" fill="#13bcf9" fill-rule="nonzero" stroke-width="1px" d="m547.762756,593.245972c1.092163,-0.936157 2.239807,-1.843018 3.448792,-2.689697c3.303345,-2.133545 6.151123,-4.601929 9.103882,-7.029846c3.024292,-3.14624 6.891296,-5.736877 10.536072,-8.427307c4.561768,-3.127136 8.615112,-3.944885 14.466003,-2.944458c0.825317,-0.491882 1.650452,-0.983704 2.475769,-1.475525c0.356567,-0.212585 0.735474,0.187561 0.378906,0.399902l0,0c-0.835449,0.49762 -1.670898,0.995117 -2.50647,1.492737c-1.402832,4.779846 -4.26886,7.150574 -10.054565,8.868408c-4.592651,1.183655 -8.987,2.706421 -13.528381,3.99054c-3.774414,1.493835 -7.481079,3.030518 -10.427002,5.480713c-1.020752,0.906433 -2.022278,1.790833 -2.513611,2.962585c-0.35498,0.846497 -2.14325,0.026672 -1.379395,-0.628052z"/>
      <path id="svg_13" fill="#13bcf9" fill-rule="nonzero" stroke-width="1px" d="m607.592773,501.187683c-0.956787,-0.407562 -1.891296,-0.873871 -2.854919,-1.286163c-2.204895,-1.222626 -4.623291,-2.178192 -7.056824,-3.07605c-2.408508,-0.96817 -4.943054,-1.729279 -7.243896,-2.858124c-1.943726,-0.904327 -3.236511,-2.124542 -3.767029,-3.852692c0.358826,-2.614258 4.150269,-2.874329 6.789429,-3.258209c3.565491,-0.645844 7.206421,-0.591309 10.82959,-0.435608c2.525635,0.090454 4.837891,0.498108 6.732788,1.870087c1.881226,2.050873 -0.470886,3.332703 -2.866699,3.757172c-0.42511,0.134186 -0.850342,0.268372 -1.275513,0.402496c-0.414429,0.130798 -0.647217,-0.335236 -0.2323,-0.465088l0,0c0.404053,-0.126434 0.808105,-0.25293 1.212158,-0.379395c0.818237,-0.680817 1.533325,-1.259796 1.509155,-2.205811c-1.249878,-1.362793 -3.025757,-2.058014 -5.157593,-2.365173c-3.523926,-0.415741 -7.106934,-0.253296 -10.596863,0.306335c-1.964661,0.510925 -3.971619,0.984436 -4.913208,2.544739c0.300903,1.304077 1.159058,2.253723 2.555847,3.078094c2.1875,1.181763 4.503296,2.192871 6.919434,3.050812c2.400818,0.961426 4.818115,1.917969 7.345886,2.654144c1.079834,0.40332 2.262024,0.691925 3.184509,1.30722c1.022949,0.682312 0.063477,1.712799 -1.113953,1.211212z"/>
     </g>
    </g>
   </g>
   <g id="svg_14" transform="rotate(50, 453.825, 343.209) matrix(-1.01489, 0, 0, 1.97122, 657.384, -632.881)">
    <metadata id="svg_15">image/svg+xml</metadata>
    <g id="svg_16">
     <g id="svg_17">
      <path id="svg_18" fill="#13bcf9" fill-rule="nonzero" stroke-width="1px" d="m175.683838,535.520203c-2.242065,-0.924866 -4.507141,-1.732422 -6.585083,-2.918396c-4.44043,-2.698608 -8.197266,-5.821228 -11.457642,-9.419373c-3.741211,-4.109131 -4.888245,-8.815186 -4.996216,-13.769318c0.630249,-5.185272 3.985596,-9.256195 8.441223,-12.89502c5.430115,-3.72287 11.819153,-6.319061 18.802673,-7.551727c7.731415,-1.161072 15.370636,-0.189087 22.834442,1.480164c6.897003,1.751953 12.607147,4.99057 17.008575,9.49884c4.076172,4.963013 2.984619,10.033112 0.404663,15.225403c-4.001465,6.167236 -10.003601,11.291199 -15.525909,16.601624c-6.064453,5.363464 -10.814575,11.447021 -14.754944,17.905029c-1.348877,4.064941 -4.317017,8.48291 -3.586609,12.62207c0.061829,0.350403 -0.563904,0.419312 -0.624817,0.068848l0,0c-0.892487,-5.138184 -2.706573,-8.93042 1.363159,-13.838135c4.321106,-6.45343 10.038208,-12.184998 15.214539,-18.210266c4.800598,-5.351257 9.798004,-10.676636 13.42746,-16.601074c2.119507,-3.955719 3.036316,-7.84079 0.566162,-11.876526c-3.278259,-4.507202 -8.162109,-7.490997 -14.294708,-9.356323c-6.957092,-1.900879 -14.189697,-2.648987 -21.504425,-1.641449c-6.696716,1.184784 -13.100342,2.570282 -17.956604,6.706085c-3.927979,3.374237 -6.96759,7.207153 -7.407043,11.906647c-0.39209,4.599701 1.151001,8.828583 4.367386,12.689362c3.160202,3.338318 6.924301,6.360474 11.22673,8.776794c1.7771,1.049255 3.503784,2.580688 5.702148,2.955627c1.502563,0.256104 0.698364,2.20343 -0.665161,1.641113z"/>
      <path id="svg_19" fill="#13bcf9" fill-rule="nonzero" stroke-width="1px" d="m239.290604,440.534485c2.19574,-0.88269 4.563843,-1.292786 6.958435,-1.677765c4.982971,-0.633148 10.011307,-0.44101 14.962234,0.226715c4.840149,1.053955 8.375427,3.570801 11.638,6.45166c2.873413,3.110535 3.706421,6.236816 1.902954,9.828979c-2.397583,3.854858 -7.246948,5.981812 -11.64502,8.211426c-5.426697,2.573395 -11.011734,4.920105 -16.550369,7.334839c-6.377869,2.503479 -12.090332,5.784485 -17.644577,9.273987c-6.367218,4.182922 -11.496307,9.300659 -15.854462,14.836609c-4.32373,5.204712 -6.494598,11.089264 -7.789215,17.167053c-1.229309,4.567688 -0.067749,8.900452 1.921204,13.188416c0.153992,0.332031 -0.438599,0.504639 -0.592163,0.172424l0,0c-2.014893,-4.360168 -2.998657,-8.866455 -2.821533,-13.530884c0.956543,-6.349274 3.778351,-12.183563 8.105194,-17.593628c4.586731,-5.561157 9.397827,-11.054932 15.743256,-15.468323c5.439117,-3.759277 11.303146,-7.132629 17.520187,-10.042114c5.399048,-2.450928 10.880508,-4.828491 15.947281,-7.700714c3.523376,-2.004608 7.007751,-4.123718 9.107605,-7.213165c0.998901,-2.305969 1.276978,-4.508118 -0.369629,-6.713623c-2.081421,-2.947693 -5.440063,-4.962463 -9.345581,-6.269043c-4.478577,-1.590302 -9.135208,-2.11911 -13.975479,-1.232239c-2.254883,0.433441 -4.518005,0.940857 -6.597961,1.773621c-0.904358,0.362 -1.523865,-0.661011 -0.620361,-1.024231z"/>
      <path id="svg_20" fill="#13bcf9" fill-rule="nonzero" stroke-width="1px" d="m226.273315,494.91568c0.733154,-0.846619 2.115021,-1.198425 3.279388,-1.617279c3.25473,-1.210571 6.03215,-2.998413 8.627304,-4.941101c3.536865,-2.729553 6.117065,-6.000732 8.434509,-9.420288c1.939453,-3.380188 2.753601,-7.094879 2.612122,-10.792328c-0.514038,-2.534393 -1.135376,-5.093842 -4.060242,-6.455963c-0.384583,-0.179138 -0.062988,-0.611328 0.320679,-0.430847l0,0c3.782227,1.778992 7.347717,2.88147 6.972839,6.992371c-0.513672,3.991455 -2.614502,7.522034 -4.847473,11.084229c-2.13324,3.609711 -4.891541,6.960266 -8.284607,9.913086c-2.510498,2.199829 -5.141968,4.305786 -7.999405,6.225159c-0.9216,0.631653 -1.996735,1.488892 -3.181671,1.582184c-2.310883,0.182098 -3.188263,-0.621124 -1.873444,-2.139221z"/>
      <path id="svg_21" fill="#13bcf9" fill-rule="nonzero" stroke-width="1px" d="m193.572052,539.874634c0.388855,-1.162842 1.790955,-1.99646 2.772217,-2.930603c2.450012,-2.581482 3.873596,-5.50293 5.044128,-8.566772c0.847656,-3.56366 0.777832,-7.142395 -0.501648,-10.620728c-1.042847,-2.903198 -3.09906,-5.466553 -5.850464,-7.53006c-2.941284,-2.105408 -6.435059,-2.373047 -10.211456,-2.009399c-2.602295,0.316223 -4.769897,1.220825 -6.978088,2.287842c-0.38092,0.184082 -0.709045,-0.243591 -0.327942,-0.427429l0,0c2.268982,-1.093872 4.474365,-2.300598 6.955444,-3.081787c4.611053,-1.190735 9.115631,-1.453125 13.207794,0.9953c3.42511,2.535645 5.633423,5.581024 6.541809,9.263275c0.508423,3.888367 0.209351,7.721008 -1.55719,11.416382c-1.107605,3.178589 -2.407898,6.393555 -4.401001,9.29303c-0.778198,1.145569 -1.501953,2.56543 -3.053345,3.029846c-1.431274,0.428528 -2.03241,0.053894 -1.640259,-1.118896z"/>
      <path id="svg_22" fill="#13bcf9" fill-rule="nonzero" stroke-width="1px" d="m213.848999,518.808899c1.088867,-0.700745 1.748657,-1.682556 2.470581,-2.61615c1.867798,-2.482178 4.093018,-4.770172 6.384155,-7.011505c3.288391,-3.251831 6.951141,-6.236481 10.724991,-9.130585c3.796082,-2.382751 6.734009,-5.251343 9.639587,-8.274231c2.659912,-3.271301 5.946777,-4.670624 10.661987,-3.345764c2.451614,0.989624 3.277359,2.83667 4.503738,4.640747c0.32959,0.210144 0.659058,0.420288 0.988586,0.630493c0.347595,0.221649 0.374146,0.307251 0.000305,0.500244l0,0c-0.407532,0.210449 -0.815125,0.420898 -1.222778,0.631409c-2.445267,1.169739 -5.312698,1.086639 -7.864517,0.03183c-0.832458,-1.501801 -2.953064,-1.042267 -4.855347,-0.752808c-4.562195,1.334991 -8.111389,3.45047 -11.413086,6.297638c-3.755661,2.880066 -7.401077,5.849884 -10.673538,9.086151c-2.273987,2.224182 -4.48291,4.494476 -6.336365,6.957916c-0.710938,0.919434 -1.555664,1.812439 -1.902466,2.867737c-0.228516,0.695313 -1.809265,-0.060425 -1.105835,-0.513123z"/>
      <path id="svg_48" fill="#13bcf9" fill-rule="nonzero" stroke-width="1px" d="m179.205078,491.029724c-1.049255,-0.072083 -2.106689,-0.173584 -3.165833,-0.232422c-3.276184,0.025055 -6.468323,0.796692 -9.569946,1.566895c-6.180359,1.997192 -11.658203,5.034973 -16.979675,8.176758c-7.234192,4.407043 -13.550598,9.648834 -18.349457,15.801514c-3.553406,4.365417 -0.208435,9.200195 -1.524597,13.624817c0.497925,0.583008 0.99585,1.165894 1.493774,1.74884c0.250122,0.292847 -0.274231,0.573364 -0.522949,0.279724l0,0c-0.516357,-0.609558 -1.032715,-1.219116 -1.549072,-1.828674c-6.211914,-3.775269 -2.535156,-9.904907 1.447632,-14.159607c5.115448,-6.05307 11.265167,-11.465088 18.628082,-15.86792c5.367249,-3.168152 10.893555,-6.229523 17.127686,-8.24176c3.108765,-1.151794 6.282471,-2.149048 9.666138,-2.663635c1.174438,-0.152069 2.423279,-0.311646 3.56665,-0.027954c1.562134,0.387573 1.362183,1.935486 -0.268433,1.823425z"/>
      <path id="svg_49" fill="#13bcf9" fill-rule="nonzero" stroke-width="1px" d="m207.217377,535.407532c1.092194,-0.936157 2.239838,-1.843018 3.448761,-2.689697c3.303406,-2.133545 6.151184,-4.60199 9.103882,-7.029846c3.024292,-3.14624 6.891357,-5.736877 10.536163,-8.427368c4.561813,-3.127136 8.615219,-3.944885 14.466049,-2.944458c0.825256,-0.491882 1.650513,-0.983704 2.475769,-1.475525c0.356628,-0.212585 0.735535,0.187561 0.378906,0.399902l0,0c-0.835449,0.49762 -1.670898,0.995117 -2.506409,1.492737c-1.402893,4.779907 -4.268982,7.150635 -10.054565,8.868408c-4.592758,1.183655 -8.987198,2.706482 -13.52858,3.990601c-3.774414,1.493774 -7.481079,3.030518 -10.426941,5.480713c-1.020813,0.906433 -2.022278,1.790771 -2.513611,2.962585c-0.354919,0.846497 -2.143341,0.026611 -1.379425,-0.628052z"/>
      <path id="svg_50" fill="#13bcf9" fill-rule="nonzero" stroke-width="1px" d="m267.047638,443.349182c-0.956787,-0.407532 -1.891235,-0.87384 -2.854858,-1.286133c-2.205017,-1.222656 -4.623352,-2.178223 -7.057007,-3.07605c-2.408401,-0.968201 -4.943008,-1.729309 -7.243912,-2.858154c-1.943726,-0.904327 -3.23645,-2.124512 -3.767029,-3.852661c0.358765,-2.614258 4.15033,-2.874329 6.78949,-3.25824c3.565445,-0.645813 7.206497,-0.591309 10.829605,-0.435608c2.525635,0.090454 4.837891,0.498108 6.73291,1.870117c1.881226,2.050842 -0.471069,3.332703 -2.866821,3.757141c-0.425171,0.134186 -0.85022,0.268372 -1.275391,0.402527c-0.414429,0.130798 -0.647339,-0.335266 -0.232422,-0.465088l0,0c0.404053,-0.126465 0.808105,-0.25293 1.21228,-0.379395c0.818115,-0.680847 1.533203,-1.259827 1.509033,-2.205841c-1.249878,-1.362762 -3.025757,-2.058014 -5.157593,-2.365143c-3.523865,-0.415771 -7.106934,-0.253296 -10.596878,0.306335c-1.964722,0.510925 -3.97168,0.984406 -4.913269,2.544739c0.300842,1.304077 1.159058,2.253723 2.555847,3.078064c2.1875,1.181763 4.503418,2.192841 6.919571,3.050842c2.400757,0.961426 4.818054,1.917938 7.345764,2.654114c1.079956,0.40332 2.262085,0.691956 3.18457,1.307251c1.022949,0.682312 0.063599,1.712769 -1.113892,1.211182z"/>
     </g>
    </g>
   </g>
  </g>
  <g id="svg_981">
   <g id="svg_973">
    <path fill="#97ea44" fill-rule="evenodd" clip-rule="evenodd" id="svg_980" d="m550.677795,288.904724c0.983643,2.285004 2.758484,3.159821 2.303223,5.75296c-0.515076,2.932434 -1.081055,5.180359 -0.002991,8.164276c2.227173,6.164124 9.272705,8.780945 15.093628,11.801514c3.090271,1.603424 5.38739,3.898071 7.705322,6.225952c2.490967,2.501678 5.439148,4.796814 7.385071,7.648529c1.913635,2.80426 3.133484,5.97113 4.78186,8.894135c1.897034,3.364227 3.707825,6.672272 4.883789,10.282288c0.904358,2.775879 1.253662,5.630035 1.214966,8.505188c0.991516,-3.156006 -1.621582,-7.761688 -2.504272,-10.769684c-1.362305,-4.644684 -2.724915,-9.289001 -4.087524,-13.933746c4.871094,6.429688 9.74231,12.859344 14.613464,19.289032c-1.987488,-4.481873 -5.928284,-7.890167 -8.815857,-11.911713c-3.079468,-4.289032 -5.124268,-9.143677 -7.862915,-13.604065c3.732544,4.028503 8.152588,7.317017 12.707275,10.625732c-0.028381,-0.813751 0.465515,-1.647186 0.07959,-2.368927c-0.412842,-0.771515 -1.651611,-1.191376 -2.144104,-2.030426c-1.664001,-2.834259 -2.868896,-4.945831 -5.306885,-7.468048c-5.153687,-5.332031 -10.475952,-10.004791 -13.872742,-16.372925c-1.684814,-3.159149 -3.327393,-6.333984 -5.282166,-9.377838c-1.92804,-3.002228 -4.331604,-5.417694 -6.43396,-8.269409c-1.725342,-2.339966 -2.650146,-3.873901 -5.361206,-5.414337c-1.895142,-1.077087 -6.348389,-0.626923 -7.981934,0.676819c-0.753357,0.601013 -0.893555,1.815155 -1.588501,2.30127c-1.006348,0.703918 -3.082458,0.145966 -4.050476,1.014984c1.409851,0.412018 3.051636,0.288239 4.527344,0.33844"/>
    <path fill="#97ea44" stroke="#000000" stroke-width="0.3806" stroke-linecap="square" stroke-miterlimit="10" id="svg_979" d="m550.677795,288.904724c0.983643,2.285004 2.758484,3.159821 2.303223,5.75296c-0.515076,2.932434 -1.081055,5.180359 -0.002991,8.164276c2.227173,6.164124 9.272705,8.780945 15.093628,11.801514c3.090271,1.603424 5.38739,3.898071 7.705322,6.225952c2.490967,2.501678 5.439148,4.796814 7.385071,7.648529c1.913635,2.80426 3.133484,5.97113 4.78186,8.894135c1.897034,3.364227 3.707825,6.672272 4.883789,10.282288c0.904358,2.775879 1.253662,5.630035 1.214966,8.505188c0.991516,-3.156006 -1.621582,-7.761688 -2.504272,-10.769684c-1.362305,-4.644684 -2.724915,-9.289001 -4.087524,-13.933746c4.871094,6.429688 9.74231,12.859344 14.613464,19.289032c-1.987488,-4.481873 -5.928284,-7.890167 -8.815857,-11.911713c-3.079468,-4.289032 -5.124268,-9.143677 -7.862915,-13.604065c3.732544,4.028503 8.152588,7.317017 12.707275,10.625732c-0.028381,-0.813751 0.465515,-1.647186 0.07959,-2.368927c-0.412842,-0.771515 -1.651611,-1.191376 -2.144104,-2.030426c-1.664001,-2.834259 -2.868896,-4.945831 -5.306885,-7.468048c-5.153687,-5.332031 -10.475952,-10.004791 -13.872742,-16.372925c-1.684814,-3.159149 -3.327393,-6.333984 -5.282166,-9.377838c-1.92804,-3.002228 -4.331604,-5.417694 -6.43396,-8.269409c-1.725342,-2.339966 -2.650146,-3.873901 -5.361206,-5.414337c-1.969604,-1.119293 -6.255554,-0.566895 -7.981934,0.676819c-0.165344,0.11908 -0.332703,0.267883 -0.476563,0.406128"/>
    <path fill="#97ea44" stroke="#000000" stroke-width="0.3806" stroke-linecap="square" stroke-miterlimit="10" id="svg_978" d="m551.313049,285.656158c-0.381042,0.542267 -0.741211,1.907715 -1.479614,1.997681c-1.189392,0.145111 -2.891418,0.202087 -3.682678,0.912445c1.409546,0.411804 3.051331,0.288239 4.527039,0.338257"/>
    <path fill="#97ea44" fill-rule="evenodd" clip-rule="evenodd" id="svg_977" d="m559.731628,318.21051c0.906738,-0.418365 1.812195,-0.844635 2.780029,-1.150513c-0.282104,0.063141 -0.829102,0.343353 -1.032776,0.406097c-0.082336,-0.027161 0.160278,-0.139465 0.079651,-0.135468c0.081177,0.282501 0.179688,0.647552 0.238403,1.082977c0.985413,-1.81897 0.818542,-1.81842 3.097412,-1.624237c1.85675,0.158142 2.376038,0.400085 3.971497,1.286011c-0.802429,-1.582886 -2.209167,-1.913361 -3.971497,-1.218506c0.540833,-1.521484 2.827942,-1.896179 4.447449,-2.030304c-1.933838,-0.786041 -3.564148,1.03537 -5.281372,1.522766c-1.58551,0.450195 -3.479248,0.430786 -4.328796,1.861176"/>
    <path fill="#97ea44" stroke="#000000" stroke-width="0.3806" stroke-linecap="square" stroke-miterlimit="10" id="svg_976" d="m559.731628,318.21051c0.906738,-0.418365 1.812195,-0.844635 2.780029,-1.150513c-0.282104,0.063141 -0.829102,0.343353 -1.032776,0.406097c-0.082336,-0.027161 0.160278,-0.139465 0.079651,-0.135468c0.081177,0.282501 0.179688,0.647552 0.238403,1.082977c0.985413,-1.81897 0.818542,-1.81842 3.097412,-1.624237c1.85675,0.158142 2.376038,0.400085 3.971497,1.286011c-0.802429,-1.582886 -2.209167,-1.913361 -3.971497,-1.218506c0.540833,-1.521484 2.827942,-1.896179 4.447449,-2.030304c-1.933838,-0.786041 -3.564148,1.03537 -5.281372,1.522766c-1.58551,0.450195 -3.479248,0.430786 -4.328796,1.861176"/>
    <path fill="#97ea44" fill-rule="evenodd" clip-rule="evenodd" id="svg_975" d="m559.731628,314.826569c0.916382,-0.423157 1.844849,-0.826447 2.780029,-1.218079c-0.27417,0.057678 -0.739441,0.362335 -1.032776,0.473785c0.5354,0.138245 0.107056,0.115356 0.31781,0.947296c1.004089,-1.852966 0.806274,-1.820251 3.097351,-1.624268c1.773987,0.151733 2.461792,0.287079 3.971497,1.21817c-0.798828,-1.65213 -2.25116,-1.723938 -3.971497,-1.21817c0.622192,-1.490234 2.806702,-1.827087 4.447632,-1.962769c-1.77832,-0.854584 -3.716492,0.895844 -5.281494,1.489075c-1.503418,0.569977 -3.559998,0.389465 -4.328552,1.894958"/>
    <path fill="#97ea44" stroke="#000000" stroke-width="0.3806" stroke-linecap="square" stroke-miterlimit="10" id="svg_974" d="m559.731628,314.826569c0.916382,-0.423157 1.844849,-0.826447 2.780029,-1.218079c-0.27417,0.057678 -0.739441,0.362335 -1.032776,0.473785c0.5354,0.138245 0.107056,0.115356 0.31781,0.947296c1.004089,-1.852966 0.806274,-1.820251 3.097351,-1.624268c1.773987,0.151733 2.461792,0.287079 3.971497,1.21817c-0.798828,-1.65213 -2.25116,-1.723938 -3.971497,-1.21817c0.622192,-1.490234 2.806702,-1.827087 4.447632,-1.962769c-1.77832,-0.854584 -3.716492,0.895844 -5.281494,1.489075c-1.503418,0.569977 -3.559998,0.389465 -4.328552,1.894958"/>
   </g>
  </g>
 </g>
</svg>