<?xml version="1.0" encoding="utf-8"?>
<!-- Generator: Adobe Illustrator 16.0.0, SVG Export Plug-In . SVG Version: 6.00 Build 0)  -->
<!DOCTYPE svg PUBLIC "-//W3C//DTD SVG 1.1//EN" "http://www.w3.org/Graphics/SVG/1.1/DTD/svg11.dtd">
<svg version="1.1" id="Layer_1" xmlns="http://www.w3.org/2000/svg" xmlns:xlink="http://www.w3.org/1999/xlink" x="0px" y="0px"
	 viewBox="0 0 5.094 4.798" enable-background="new 0 0 5.094 4.798" xml:space="preserve">
<g>
	<g>
		<path fill="#F64747" d="M1.095,1.058C0.122,1.537-0.277,2.716,0.203,3.69c0.48,0.973,1.66,1.373,2.633,0.892
			c0.972-0.481,1.373-1.66,0.891-2.632C3.247,0.977,2.069,0.577,1.095,1.058z M2.714,4.334c-0.837,0.413-1.85,0.069-2.262-0.767
			c-0.413-0.837-0.07-1.85,0.766-2.262c0.837-0.413,1.85-0.07,2.262,0.766C3.894,2.908,3.55,3.921,2.714,4.334z"/>
		<polygon fill="#F64747" points="0.805,1.287 0.071,0.791 0.362,0.389 1.149,0 1.645,0.013 1.593,0.898 		"/>
	</g>
</g>
<g>
	<g>
		<path fill="#231F20" d="M3.869,1.013C2.864,0.604,1.716,1.088,1.308,2.092C0.899,3.097,1.381,4.245,2.387,4.653
			c1.005,0.41,2.152-0.074,2.561-1.079C5.358,2.569,4.874,1.422,3.869,1.013z M2.491,4.396c-0.863-0.351-1.279-1.336-0.927-2.2
			C1.916,1.333,2.9,0.917,3.765,1.27c0.864,0.351,1.279,1.336,0.927,2.2C4.34,4.334,3.355,4.749,2.491,4.396z"/>
		<polygon fill="#231F20" points="3.504,0.948 3.389,0.069 3.882,0.021 4.695,0.351 5.016,0.731 4.317,1.279 		"/>
	</g>
</g>
<g>
	<path fill="#EC1C24" d="M2.882,4.582C3.127,4.461,3.299,4.276,3.55,4.01L3.504,3.957L3.193,4.008
		C3.059,4.171,2.898,4.255,2.715,4.345c-0.284,0.14-0.598,0.188-0.892,0.164C1.774,4.505,1.664,4.492,1.664,4.483v0.28
		C2.088,4.82,2.51,4.765,2.882,4.582z"/>
</g>
</svg>
