<svg height="288px" style="enable-background:new 0 0 360 288;" version="1.1" viewBox="0 0 360 288" width="360px" x="0px" xml:space="preserve" xmlns="http://www.w3.org/2000/svg" xmlns:xlink="http://www.w3.org/1999/xlink" y="0px">
 <g id="base-layer">
  <path d="M269.916,123.307h-0.317v0.448l-30.581,5.541   c-5.026-1.586-10.45-1.284-16.572,0.924c-0.62-0.073-1.6,0.373-3.416,1.332c-0.285,0.172-0.55,0.344-0.83,0.525   c-1.226,0.795-2.493,1.618-4.195,1.745l0.032,0.228v0.004l0,0l-0.077-0.221l-8.591,1.553c-1.768-0.004-3.371-0.485-4.922-0.95   c-2.136-0.64-4.338-1.301-7.019-0.769c5.959-9.227,3.734-19.084,1.144-27.632c1.713-2.698,1.304-5.578,0.944-8.122   c-0.105-0.736-0.204-1.431-0.255-2.111l-0.316,0.012l0.316-0.018c-0.229-2.109-1.725-4.205-4.004-5.604   c-1.913-1.175-4.242-1.76-6.572-1.653c-1.092-0.668-2.31-1.108-3.488-1.535c-1.144-0.414-2.225-0.805-3.149-1.379   c-1.862-1.158-4.672-2.905-7.579-2.97c-1.518-0.334-2.535-1.173-3.518-1.985c-1.084-0.895-2.197-1.814-3.969-2.074   c0.329-0.166,0.523-0.417,0.895-0.935l0.039-0.053c1.236,0.234,2.488,0.256,3.58,0.064c1.866,2.755,3.915,2.623,8.297,2.339   l0.285-0.018l0.414-0.027l-0.145-0.28c-0.348-0.672-0.859-1.068-1.239-1.299c0.206-0.017,0.472-0.039,0.802-0.071   c1.393,1.118,8.35,2.043,10.262,1.536l0.459-0.122l-0.342-0.251c-0.273-0.202-0.681-0.419-1.113-0.65   c-0.759-0.405-1.798-0.96-1.768-1.338c0.008-0.102,0.108-0.205,0.3-0.305c2.096,1.066,5.185,1.12,6.162,0.569l0.401-0.225   l-0.457-0.16c-0.097-0.033-0.195-0.066-0.301-0.101c-1.151-0.382-2.45-0.813-1.774-2.663c0.914,0.259,1.857,0.232,2.636-0.084   c0.953-0.386,1.551-1.138,1.643-2.064l0.036-0.373l-0.479,0.147c-0.943,0.291-2.257,0.545-3.155,0.104   c-0.804-0.394-1.178-1.287-1.113-2.652l0.002-0.047l-0.023-0.043c-0.354-0.657-1.239-0.921-2.095-1.176   c-1.035-0.309-2.107-0.627-2.458-1.648c-0.17-0.444-0.124-0.986-0.077-1.559c0.051-0.615,0.104-1.251-0.101-1.837   c-0.128-0.379-0.387-0.767-0.636-1.142c-0.34-0.512-0.692-1.042-0.676-1.507c0.01-0.274,0.172-0.54,0.343-0.82   c0.315-0.515,0.668-1.092,0.134-1.828c0.343-0.042,0.562,0.029,0.844,0.24l0.375,0.279l0.158-0.371   c0.05-0.118,0.111-0.215,0.17-0.31c0.041-0.064,0.081-0.128,0.117-0.198c0.007,0.005,0.014,0.01,0.02,0.016   c0.149,0.121,0.305,0.246,0.387,0.345l0.347,0.421l0.226-0.462c0.863-1.772-0.794-2.811-2.256-3.728   c-1.449-0.909-2.708-1.697-2.048-3.084c0.101,0,0.192-0.002,0.282-0.004c0.271-0.005,0.505-0.01,0.869,0.042   c1.181,0.545,2.891,0.778,4.215-0.182c0.914-0.652,0.941-0.828,0.952-1.775l0.003-0.245v-0.012c0-0.001-0.002-0.013-0.002-0.013   c-0.235-1.69-0.896-2.377-1.99-3.516l-0.481-0.504c0.001,0-0.314-0.33-0.314-0.33c-0.459-0.476-1.087-1.128-1.511-1.754   l-0.285,0.099l0.253-0.137c-0.131-0.125-0.36-0.666-0.528-1.061c-0.17-0.401-0.331-0.78-0.471-0.978   c-0.427-0.608-1.396-1.506-1.793-1.864c-0.001,0-0.073-0.064-0.073-0.064c-0.458-0.408-0.977-0.87-0.982-1.365   c-0.006-0.428,0.155-0.555,0.401-0.749c0.168-0.132,0.377-0.297,0.529-0.57c0.377-0.678,0.278-1.369,0.183-2.038   c-0.058-0.403-0.117-0.82-0.066-1.22c0.091-0.713-0.023-1.326-0.134-1.919c-0.054-0.291-0.109-0.589-0.141-0.9   c1.258,0.259,2.691,1.136,2.953,1.857l0.229,0.63l0.368-0.595c0.306-0.495,0.027-1.915-0.475-2.85   c0.578,0.199,1.259,0.467,1.812,0.703l0.479,0.205l0.001-0.4c0.007-2.151-3.063-4.233-5.857-4.728   c2.708-5.382,5.718-11.463,5.68-17.843l-0.002-0.334l-0.433,0.123c-4.447,1.27-7.961,4.791-9.926,7.181   c-0.459-4.288-4.504-8.112-8.424-11.816c-0.726-0.687-1.477-1.396-2.178-2.085L162.982,0l-0.262,0.187   c-5.799,4.135-9.08,9.614-12.2,14.952c-1.547-1.587-3.582-3.257-5.063-4.413c-1.925-1.501-4.248-2.588-6.494-3.638   c-0.64-0.299-1.303-0.609-1.942-0.922l-0.379-0.186l-0.108,0.32c-1.655,4.902-2.544,8.939-2.786,12.661   c-5.286-2.285-10.783-3.029-16.593-3.815l-0.059,0.224l0,0l0,0c0,0,0,0,0,0l-0.059,0.224c0.016,0.002,0.032,0.004,0.047,0.007   c-0.144,4.187,2.927,7.609,5.204,11.519l0.149,0.006l-0.091,0.093c0.025,0.044,0.051,0.089,0.077,0.134   c-0.067-0.002-0.135-0.004-0.203-0.007l-0.091,0.094c-0.019-0.033-0.038-0.066-0.057-0.099c-4.853-0.167-10.057-0.505-14.973,0.512   c-0.008-0.011-0.016-0.022-0.023-0.034l-0.286,0.1l-0.286,0.1c2.464,3.652,8.446,5.552,13.723,7.229   c1.061,0.336,2.067,0.656,3.023,0.982c-0.386,0.517-1.091,1.579-1.146,2.504c-0.066,1.127,0.81,4.622,1.322,5.576   c0.508,0.958,0.76,1.542,0.025,2.41c-2.818,3.728-2.897,6.934-2.065,11.196c-1.388,1.705-2.751,4.979-0.682,6.804   c0.37,0.975,0.317,1.688-0.982,2.423l-0.327,0.185l0.335,0.178c0.841,0.446,1.889,0.355,2.997,0.259   c0.331-0.028,0.672-0.058,1.015-0.074l0.094-0.004l0.075-0.04c0.72-0.384,1.524-0.888,2.027-1.601   c0.014,0.394-0.072,0.761-0.412,1.083l-0.458,0.435l0.753-0.071c1.514-0.143,3.186-0.38,4.238-1.344   c0.154,0.736-0.699,1.776-1.461,2.347c-1.131,0.839-2.833,0.992-4.479,1.14l-0.656,0.061c-1.987,0.197-4.118,0.353-6.177,0.503   c-1.75,0.128-3.561,0.261-5.28,0.418c-2.867,0.26-5.316,0.823-7.911,1.419l-1.36,0.31c-3.12-2.446-13.794,0.912-16.297,2.017   c-1.871,0.827-7.652,4.543-8.837,5.68c-0.928,0.893-1.51,1.733-2.126,2.623c-0.24,0.347-0.487,0.704-0.761,1.07   c-4.273,0.376-8.616,1.532-13.647,3.634l0.16,0.197l-0.186-0.185c-1.562,0.809-3.217,1.588-4.818,2.342   c-5.62,2.645-11.431,5.381-14.702,10.047c-0.244,0.373-0.626,0.65-1.032,0.944c-0.591,0.429-1.203,0.872-1.409,1.62   c-0.238,0.877-0.218,1.919-0.2,2.838l0.009,0.707c-0.365,4.888,0.22,9.989,1.69,14.738l0.31-0.049l-0.305,0.064l1.392,3.357   l1.493,3.402c0,0,1.77,4.004,1.77,4.004c2.41,5.47,4.902,11.125,7.616,16.601c0.106,0.408,0.2,0.813,0.292,1.205   c0.228,0.981,0.444,1.908,0.833,2.883c0.096,0.242,0.215,0.52,0.34,0.813c0.213,0.498,0.433,1.013,0.583,1.447h-0.021   c0.029,0.461-0.154,0.882-0.348,1.327c-0.158,0.363-0.323,0.738-0.381,1.159c-0.173,1.207-0.053,2.556,0.337,3.796   c0.14,0.446,0.29,0.86,0.436,1.261c-5.008,0.932-8.664,1.625-11.176,2.12l0,0c-6.171,1.158-23.942,5.232-30.048,8.116   c-1.06-0.986-2.662-1.343-4.655-1.032c-3.961,0.618-8.444,3.795-9.05,6.413l0.313,0.038l-0.246,0.145   c2.341,2.052,8.43,3.198,12.292,2.313c1.943-0.444,3.083-1.327,3.317-2.561c7.321,0.315,25.544-2.519,31.685-3.724l0,0   c2.988-0.558,7.111-1.349,11.634-2.232c0.746,1.02,1.995,1.631,3.461,1.686c1.674,0.063,3.395-0.608,4.492-1.729   c0.882,0.754,1.829,1.169,2.819,1.235c1.66,0.11,3.083-0.753,4.156-1.451c1.063,0.551,2.411,0.76,3.659,0.559   c1.251-0.201,2.303-0.799,2.993-1.694c1.018,0.428,1.986,0.513,2.882,0.25c2.212-0.647,3.26-3.229,3.644-4.474   c8.003-1.634,21.7-4.467,25.324-5.445c0.17,0.058,0.451,0.075,0.913-0.011c0.483-0.09,0.79-0.22,0.9-0.376   c0.243-0.115,0.402-0.36,0.473-0.729l2.574-0.481c-0.553,0.74-1.517,2.053-1.271,3.036c-0.498,0.924-0.889,1.992-2.099,5.528   c-0.259,1.019-0.432,2.102-0.517,3.231c-0.488,6.982,0.878,19.768,15.513,26.989c3.036,2.087,6.165,4.051,8.553,5.53   c0,0,4.358,2.676,4.358,2.676c2.273,1.325,4.547,2.701,6.765,4.095c0.993,0.62,2.074,1.31,3.304,2.106   c1.56,0.953,3.167,1.896,4.722,2.807l3.819,2.259c0.933,0.558,1.873,1.137,2.794,1.722l0.014,0.008l0.014,0.008   c1.093,0.549,2.125,1.326,3.125,2.077c0.706,0.53,1.436,1.079,2.197,1.559l-0.003,0.002c7.359,6.617,12.034,14.52,13.521,22.853   c0.254,1.416,0.411,2.845,0.467,4.249c0.044,1.027-0.029,2.065-0.217,3.086c-0.335,0.911-0.767,1.834-1.282,2.744   c-0.503,0.891-1.107,1.796-1.794,2.691c-5.559,8.46-19.043,12.821-36.08,11.679c-1.918-0.154-3.845-0.378-5.723-0.667   c-5.57-0.855-11.071-2.313-15.908-4.216c-1.173-0.55-2.371-1.18-3.54-1.861c-2.314-1.344-4.443-2.825-6.326-4.403   c-0.566-0.748-1.029-1.52-1.415-2.359c-0.392-0.853-0.706-1.782-0.936-2.764c10.217-5.669,10.474-17.787,9.711-24.528   c-1.046-9.254-5.189-19.506-10.074-24.931c-0.937-0.88-1.937-1.762-2.985-2.635c-2.042-1.7-4.333-3.423-7.005-5.268l-0.49,0.283   c2.859,3.342,4.422,6.403,4.645,9.099c0.206,2.521-1.358,3.933-3.169,5.566c-0.921,0.832-1.875,1.692-2.691,2.775   c-0.187,0.27-4.346,6.317-4.235,8.354c-3.882,2.071-10.284,8.917-11.051,13.703c-0.22,1.372,0.015,2.508,0.698,3.39   c-5.06-0.989-15.822,2.21-19.986,3.689c-1.805-0.598-3.631-0.41-5.034-0.172c-1.039,0.079-2.961,0.561-4.189,1.158   c-5.556,2.351-17.552,6.042-21.375,4.326c-1.864-0.895-2.62-2.479-3.419-4.156c-0.54-1.132-1.099-2.303-2.035-3.298l-0.263,0.128   l-0.314-0.035c-0.232,1.076-0.274,2.17-0.122,3.252c0.143,1.019,0.468,2.068,0.967,3.121c0.652,1.131,1.37,2.229,2.141,3.278   c0.764,1.049,1.621,2.104,2.547,3.138c4.135,4.939,10.183,9.291,17.024,12.247c1.737,0.751,3.53,1.412,5.327,1.967   c1.534,0.465,3.138,0.857,4.769,1.165c5.061,0.872,12.013-0.258,17.599-1.165c1.566-0.255,3.046-0.495,4.31-0.661l-0.057-0.224l0,0   l0.079,0.221c0.891-0.163,2.34-0.334,4.846-0.569c4.051-0.513,11.002,1.528,14.736,2.625l1.38,0.4   c2.939,1.344,5.736,2.846,8.825,4.527c9.712,6.119,22.206,10.367,37.118,12.617c1.443,0.213,3.008,0.407,4.787,0.596   C158.773,288,165.452,288,171.344,288h0.01c0.02,0,0.029,0,0.029,0c8.801-0.396,16.957-1.181,25.669-2.469   c1.617-0.242,3.253-0.505,5.001-0.805c10.634-1.568,19.096-6.509,25.279-10.637l-0.216-0.167l0.224,0.161   c2.721-1.95,5.066-4.042,6.972-6.218c0.978-1.114,1.854-2.271,2.604-3.439c0.729-0.963,1.361-1.993,1.871-3.051   c0.484-0.991,0.879-2.024,1.205-3.159c1.285-3.969,1.441-7.85,1.593-11.604l0.064-1.55l-0.317-0.007l0,0h-0.007h0.002l-0.313-0.008   l-0.065,1.552c-0.149,3.73-0.305,7.588-1.577,11.519c-0.322,1.12-0.709,2.134-1.185,3.106c-0.499,1.035-1.117,2.043-1.839,2.997   c-0.748,1.163-1.611,2.303-2.574,3.4c-1.881,2.146-4.196,4.212-6.883,6.138v0.001c-9.092,6.068-16.795,9.313-24.977,10.52   c-1.752,0.3-3.382,0.563-4.991,0.804c-8.682,1.283-16.811,2.064-25.581,2.459c-5.875,0-12.534,0-18.903-0.523   c-1.757-0.187-3.311-0.38-4.74-0.59c-14.802-2.233-27.199-6.447-36.846-12.524c-3.126-1.703-5.941-3.214-8.909-4.57l-0.025-0.012   c-0.003-0.001-0.03-0.009-0.03-0.009l-1.402-0.406c-3.793-1.113-10.854-3.187-15.073-2.653c-2.509,0.235-3.979,0.409-4.897,0.576   c-1.274,0.168-2.755,0.409-4.322,0.663c-5.522,0.897-12.395,2.014-17.306,1.168c-1.595-0.301-3.17-0.687-4.675-1.143   c-1.77-0.546-3.536-1.198-5.249-1.938c-6.754-2.918-12.725-7.214-16.813-12.097c-0.921-1.027-1.769-2.071-2.523-3.109   c-0.762-1.037-1.472-2.122-2.109-3.226c-0.477-1.007-0.792-2.022-0.93-3.007c-0.116-0.83-0.114-1.667,0.004-2.497   c0.628,0.821,1.069,1.745,1.498,2.645c0.799,1.675,1.625,3.406,3.676,4.392c4.3,1.93,16.948-2.162,22.058-4.324   c1.156-0.562,2.996-1.024,3.934-1.092l0.021-0.002l0.021-0.003c1.339-0.229,3.092-0.413,4.771,0.183l0.142,0.051l0.141-0.051   c5.937-2.13,16.767-4.953,20.557-3.458l0.152-0.2l0.238-0.151c-1.035-0.842-1.429-2.078-1.173-3.675   c0.76-4.735,7.16-11.532,10.935-13.46l0.155-0.079l-0.024-0.135c-0.249-1.454,2.914-6.431,4.154-8.227   c0.785-1.04,1.72-1.885,2.625-2.701c1.813-1.637,3.526-3.182,3.306-5.878c-0.196-2.372-1.392-5.008-3.561-7.854   c1.96,1.401,3.705,2.741,5.295,4.065c1.041,0.867,2.033,1.741,2.948,2.6c8.552,9.499,17.995,39.326,0.345,48.916l0.192,0.182l0,0   c17.359-9.432,8.706-39.252-0.285-49.236c-0.934-0.876-1.918-1.743-2.959-2.61c-1.844-1.535-3.867-3.066-6.104-4.639   c0.196,0.242,0.385,0.483,0.568,0.723c-0.27-0.192-0.543-0.387-0.822-0.582c2.042,2.532,3.824,5.528,4.065,8.45   c0.318,3.901-3.473,5.247-5.898,8.465c-0.914,1.323-4.463,6.73-4.184,8.354c-4.678,2.39-14.12,12.822-10.223,17.09   c-0.147-0.04-0.301-0.075-0.46-0.106c0.079,0.102,0.163,0.199,0.254,0.295c-4.725-1.191-15.875,2.083-20.238,3.648   c-1.632-0.579-3.321-0.483-4.984-0.201c-0.946,0.068-2.844,0.529-4.063,1.123c-5.372,2.272-17.683,6.142-21.721,4.33   c-3.14-1.507-3.265-4.819-5.288-7.226c0.016-0.087,0.033-0.173,0.052-0.26l-0.314-0.034l-0.263,0.128   c0.067,0.07,0.132,0.143,0.195,0.216c-0.172,0.967-0.183,1.916-0.052,2.85c0.146,1.041,0.476,2.067,0.952,3.071   c0.635,1.1,1.339,2.182,2.121,3.245c0.774,1.063,1.625,2.107,2.533,3.121c4.096,4.892,10.045,9.203,16.921,12.174   c1.721,0.744,3.498,1.401,5.289,1.953c1.549,0.471,3.13,0.854,4.724,1.154c6.413,1.104,16.076-1.081,21.771-1.829v-0.001v0.001   c0.896-0.165,2.362-0.338,4.883-0.575c4.73-0.598,13.271,2.199,16.305,3.048c3.016,1.378,5.937,2.952,8.871,4.55   c10.54,6.639,23.625,10.559,36.991,12.576c1.581,0.232,3.175,0.424,4.768,0.593c6.222,0.511,12.584,0.524,18.94,0.524h0.02   c8.717-0.392,16.889-1.172,25.625-2.464c1.677-0.251,3.34-0.521,4.991-0.803c9.714-1.433,17.892-5.745,25.137-10.582l0,0   c2.673-1.917,4.996-3.975,6.927-6.179c0.966-1.1,1.828-2.236,2.584-3.413c0.749-0.99,1.365-2.003,1.86-3.03   c0.502-1.026,0.89-2.071,1.193-3.13c1.454-4.49,1.454-8.798,1.651-13.114l0,0l0,0h-0.005l0.313-0.025l-0.397-2.623   c-0.56-3.752-1.14-7.632-2.249-11.326c-0.302-1.32-0.589-2.395-0.902-3.371c-0.369-1.172-0.782-2.254-1.265-3.306   c-0.003-0.005-0.377-0.761-0.377-0.761c-2.737-5.532-5.102-10.31-8.467-15.688c-3.074-4.912-6.556-9.267-10.241-13.876l-2.73-3.433   c-2.522-3.097-10.14-10.933-14.075-14.037l0,0c-5.094-4.223-9.712-7.226-14.53-9.445c-3.052-2.329-4.009-5.172-5.022-8.182   l-0.228-0.672c-0.172-0.51-1.381-3.876-1.854-5.148c10.266,2.545,20.647-1.878,28.267-5.124c1.825-0.776,3.312-1.313,4.676-1.689   c0.81-0.224,1.114-0.156,1.575-0.053c0.34,0.075,0.759,0.169,1.438,0.173c2.982,1.251,6.379,1.283,8.211,0.663   c0.718-0.243,1.2-0.583,1.414-0.991c1.534,0.43,4.126,0.552,5.926,0.048c0.713-0.2,1.222-0.477,1.517-0.824   c2.724,1.027,4.131-0.023,5.618-1.134c0.169-0.127,0.343-0.256,0.521-0.384c1.603,0.629,2.874,0.534,3.67,0.333   c1.227-0.307,1.945-0.986,2.085-1.248l-0.297-0.082l-0.006-0.004l0,0l0.313,0.037c0.132-0.583,0.36-1.205,0.581-1.806   c0.355-0.969,0.723-1.97,0.725-2.883c0.532-1.225,0.795-2.441-0.575-3.203c0.718-0.134,26.713-4.985,26.935-5.026l0.314,0.4   c0.057,0.129,0.254,0.285,0.894,0.219c0.013-0.001,1.149-0.121,1.397-0.48c0.095-0.047,0.177-0.114,0.241-0.199l10.09-2.092   c0.013,0.005,0.026,0.01,0.04,0.014c0.352,0.111,1.037-0.037,1.328-0.19c0.092-0.049,0.152-0.1,0.189-0.148   c0.123-0.06,0.21-0.148,0.271-0.243c1.58,1.176,2.761,2.703,4.006,4.312c1.955,2.529,3.978,5.144,7.747,6.457   c2.354,0.665,4.821,0.652,6.805,0.641l0.832-0.002c1.694-0.018,3.437-0.064,5.333-0.142c1.716-0.07,3.468-0.163,5.355-0.283   c15.376-1.146,28.199-2.513,40.36-4.302l0.912-0.134l-0.836-0.294c-1.712-0.602-3.445-1.26-5.121-1.896   c-6.772-2.569-13.776-5.225-21.731-5.214l0.001,0.229l-0.289,0.094c0.232,0.367,0.472,0.771,0.725,1.198   c0.936,1.579,1.981,3.344,3.317,4.395c-1.247,0.021-2.726,0.056-4.275,0.093c-5.138,0.124-11.531,0.277-15.206,0.025   c-7.682-0.122-12.212-1.619-13.869-4.577c-0.329-0.638-0.503-1.369-0.46-1.951l0.002-0.024l-0.006-0.024   c-0.273-1.215,0.942-1.549,2.948-1.992l0.607-0.136v0l27.55-6.27c0.057,0.595,0.002,1.387-0.056,2.219   c-0.091,1.319-0.185,2.683,0.149,3.483l0.039,0.094l0.135-0.014c2.422-0.247,5.08-0.941,7.902-2.062   c4.284-2.067,8.245-4.337,12.437-6.739c2.594-1.486,5.274-3.023,8.026-4.499l-0.095-0.091l0.019-0.113   c-3.393-0.294-6.769-0.664-10.033-1.021c-5.317-0.583-10.34-1.133-15.492-1.393c-3.218,0.036-6.003,0.385-8.293,1.039l-0.127,0.037   l0.031,0.096c0.266,0.813,1.289,1.957,2.279,3.062c0.631,0.706,1.232,1.377,1.597,1.917c0.049,0.073,0.094,0.144,0.134,0.212   l-28.3,4.438l-0.066-0.223l0,0h-0.001l-0.611,0.098c-2.052,0.337-3.34,0.485-3.945-0.672l-0.012-0.023l-0.019-0.021   c-0.439-0.487-0.797-1.181-0.956-1.858c-0.609-3.153,2.281-6.074,8.835-8.92c3.019-1.537,8.643-3.685,13.162-5.411   c1.392-0.531,2.719-1.038,3.829-1.474c-0.43,1.391-0.114,3.294,0.168,4.998c0.076,0.462,0.149,0.898,0.202,1.302l0.316-0.021   l0.157,0.198c6.895-2.832,11.116-7.633,15.199-12.275c1.021-1.161,2.078-2.362,3.154-3.506l0.521-0.555l-0.885,0.21   c-11.785,2.801-23.852,6.208-37.972,10.722c-1.6,0.53-3.229,1.091-4.845,1.669c-1.736,0.627-3.279,1.21-4.718,1.785   c-0.005,0.002-0.758,0.311-0.758,0.311c-1.718,0.699-3.856,1.57-5.405,2.968c-2.382,2.511-2.364,5.449-2.348,8.29   c0.011,1.813,0.021,3.53-0.55,5.114c-0.088-0.034-0.176-0.054-0.262-0.061c-0.066-0.036-0.159-0.067-0.284-0.082   c-0.375-0.044-1.023,0.074-1.268,0.289c-0.024,0.021-0.046,0.044-0.063,0.067l-10.186,1.798c-0.1-0.043-0.197-0.071-0.293-0.083   c-0.021-0.014-0.043-0.026-0.066-0.037c-0.381-0.176-1.258,0.017-1.643,0.159c-0.334,0.123-0.501,0.263-0.512,0.428   L269.916,123.307L269.916,123.307z M245.535,138.194c-0.005,0.012-0.01,0.023-0.015,0.035l0.015-0.07   C245.535,138.171,245.535,138.183,245.535,138.194L245.535,138.194z M232.059,145.24l0.371-0.094   c0.013,0.006,0.026,0.011,0.039,0.016c-0.04,0.07-0.088,0.138-0.144,0.203c-0.092-0.034-0.185-0.071-0.278-0.11   C232.051,145.25,232.055,145.245,232.059,145.24L232.059,145.24z M238.464,143.847c-0.071-0.028-0.143-0.057-0.215-0.088   l0.384-0.033C238.576,143.766,238.52,143.807,238.464,143.847L238.464,143.847z M128.914,197.608   c-0.006-0.004-0.012-0.009-0.018-0.013l0.04,0.023C128.928,197.615,128.921,197.611,128.914,197.608L128.914,197.608z    M182.346,252.644c0.002-0.005,0.004-0.011,0.006-0.016l-0.008,0.028C182.344,252.651,182.345,252.647,182.346,252.644   L182.346,252.644z M111.694,258.61c0.005,0.007,0.011,0.015,0.016,0.021l-0.037-0.039   C111.68,258.599,111.687,258.604,111.694,258.61L111.694,258.61z M99.398,197.044c-0.278-0.195-0.56-0.392-0.846-0.59l0.241-0.14   C98.996,196.553,99.198,196.796,99.398,197.044L99.398,197.044z M98.801,196.311l0.241-0.14c0.21,0.245,0.414,0.489,0.61,0.732   C99.372,196.706,99.088,196.509,98.801,196.311L98.801,196.311z M93.051,222.204c0.049-0.026,0.098-0.052,0.146-0.076l-0.131,0.214   C93.059,222.298,93.053,222.252,93.051,222.204L93.051,222.204z M62.711,242.986c0.048,0.016,0.096,0.032,0.144,0.05h-0.283   C62.618,243.02,62.664,243.003,62.711,242.986L62.711,242.986z M57.678,242.814c0.007-0.001,0.014-0.002,0.02-0.002l-0.042,0.005   C57.664,242.816,57.67,242.815,57.678,242.814L57.678,242.814z M101.628,269.732c-0.008-0.004-0.016-0.008-0.024-0.012l0.055,0.021   L101.628,269.732L101.628,269.732z M340.377,90.292c0.076-0.082,0.153-0.164,0.229-0.246l0.161,0.152   C340.637,90.229,340.507,90.261,340.377,90.292L340.377,90.292z M340.81,90.239l0.16,0.152c-0.13,0.031-0.26,0.062-0.39,0.092   C340.656,90.402,340.732,90.32,340.81,90.239L340.81,90.239z M356.57,133.538c0.134-0.02,0.268-0.039,0.4-0.059l-0.033,0.189   C356.815,133.625,356.692,133.581,356.57,133.538L356.57,133.538z M356.929,133.718l-0.033,0.189   c-0.123-0.043-0.246-0.087-0.369-0.13C356.661,133.757,356.795,133.737,356.929,133.718L356.929,133.718z M117.063,151.375   l-5.014,0.906c-0.282-0.24-0.558-0.369-0.822-0.384c-0.307-0.171-0.903-0.105-1.296,0.002c-0.384,0.104-0.547,0.235-0.609,0.35   c-2.32,0.316-13.629,2.291-23.854,4.106c-1.265-2.585-4.387-4.715-7.546-5.133c-2.584-1.864-4.367-4.03-5.45-6.616   c-0.478-1.142-0.814-2.347-1.029-3.685c-0.721-3.959-0.527-7.974-0.34-11.855c0.243-5.033,0.494-10.237-1.287-15.243   c-0.428-1.04-1.056-1.649-1.782-2.354c-0.262-0.254-0.532-0.517-0.815-0.819c-0.423-0.456-0.824-0.886-0.746-1.06   c0.071-0.157,0.613-0.321,1.133-0.461c2.39-0.636,5.04-0.765,7.603-0.891c1.618-0.079,3.291-0.161,4.908-0.367   c2.787-0.356,9.799-2.277,12.299-3.37c0.863-0.376,1.788-0.875,2.768-1.404c0.365-0.197,0.738-0.398,1.116-0.598   c-0.48,1.837,0.188,4.329,0.735,6.375c0.299,1.119,0.558,2.085,0.6,2.785c0.076,9.702,4.937,19.793,14.057,29.174l0.02,0.02   l0.024,0.017c3.721,2.484,4.173,4.849,4.746,7.843C116.644,149.559,116.812,150.432,117.063,151.375L117.063,151.375z    M66.809,171.184l0.247-0.01c0.026,0.023,0.051,0.046,0.077,0.068c-0.059,0.068-0.12,0.134-0.183,0.199   c-0.07-0.06-0.139-0.121-0.208-0.186C66.764,171.232,66.787,171.208,66.809,171.184L66.809,171.184z M80.327,169.944l0.364-0.071   c0.011,0.005,0.022,0.01,0.033,0.014c-0.047,0.069-0.096,0.137-0.146,0.203c-0.089-0.038-0.179-0.078-0.27-0.121   C80.314,169.961,80.32,169.952,80.327,169.944L80.327,169.944z M73.925,171.226c-0.074-0.039-0.147-0.079-0.218-0.12l0.415-0.009   C74.058,171.139,73.992,171.182,73.925,171.226L73.925,171.226z M55.317,162.053c-0.104,0.02-0.207,0.038-0.307,0.058L55,162.053   H55.317L55.317,162.053L55.317,162.053z M52.857,147.998c-0.001-0.006-0.003-0.011-0.004-0.017l0.013,0.034   C52.863,148.01,52.86,148.004,52.857,147.998L52.857,147.998z M74.716,83.738c0.055-0.005,0.11-0.01,0.165-0.014l-0.242,0.118   C74.665,83.807,74.69,83.772,74.716,83.738L74.716,83.738z M126.082,64.93h0.008c0.035,0.213,0.082,0.432,0.117,0.651   c-0.074,0.165-0.165,0.32-0.268,0.466c-0.006-0.159-0.028-0.323-0.056-0.489C125.978,65.361,126.044,65.152,126.082,64.93   L126.082,64.93z M130.037,65.778l0.193-0.005c0.029,0.042,0.053,0.084,0.074,0.128c-0.077,0.087-0.158,0.17-0.243,0.249   c-0.02-0.097-0.058-0.188-0.115-0.273C129.978,65.845,130.007,65.812,130.037,65.778L130.037,65.778z M126.202,67.225   c-0.05,0.061-0.105,0.121-0.167,0.18l-0.122-0.15C126.009,67.246,126.105,67.236,126.202,67.225L126.202,67.225z M125.859,67.189   l-0.12-0.148c0.086-0.008,0.173-0.017,0.259-0.025C125.958,67.074,125.912,67.132,125.859,67.189L125.859,67.189z M121.388,57.916   c0.02-0.024,0.039-0.047,0.058-0.07l-0.042,0.149C121.398,57.969,121.393,57.942,121.388,57.916L121.388,57.916z M150.654,15.5   l-0.162,0.011c-0.039-0.041-0.078-0.082-0.117-0.123c0.049-0.083,0.097-0.166,0.146-0.249c0.073,0.074,0.144,0.148,0.214,0.223   C150.708,15.407,150.681,15.454,150.654,15.5L150.654,15.5z M134.049,19.227l-0.163,0.062c-0.052-0.023-0.103-0.045-0.154-0.068   c0.005-0.086,0.01-0.173,0.016-0.26c0.104,0.044,0.207,0.09,0.31,0.135C134.054,19.14,134.052,19.184,134.049,19.227   L134.049,19.227z M183.528,7.243c0-0.031,0-0.063,0-0.094l0.118,0.058C183.607,7.218,183.568,7.23,183.528,7.243L183.528,7.243z    M183.846,7.303l0.117,0.057c-0.039,0.011-0.078,0.022-0.117,0.034C183.846,7.364,183.846,7.333,183.846,7.303L183.846,7.303z    M184.007,29.446c0.063,0.026,0.124,0.052,0.179,0.075l-0.166,0.068C184.017,29.541,184.013,29.493,184.007,29.446L184.007,29.446z    M183.867,29.651l-0.161,0.066c0-0.045-0.002-0.09-0.005-0.135C183.758,29.605,183.813,29.628,183.867,29.651L183.867,29.651z    M182.332,31.527c0.091,0.126,0.161,0.254,0.208,0.382l-0.271-0.016C182.307,31.799,182.327,31.674,182.332,31.527L182.332,31.527z    M182.201,31.889l-0.258-0.015c0.038-0.063,0.062-0.163,0.07-0.29C182.092,31.686,182.155,31.788,182.201,31.889L182.201,31.889z    M178.646,30.071l0.24-0.155c0.022,0.004,0.045,0.008,0.067,0.012c0.005,0.081,0.011,0.16,0.02,0.239   c-0.109-0.022-0.218-0.041-0.324-0.053C178.647,30.1,178.646,30.085,178.646,30.071L178.646,30.071z M181.209,51.265   c-0.018-0.008-0.035-0.016-0.053-0.024l0.109,0.033C181.246,51.27,181.228,51.268,181.209,51.265L181.209,51.265z M184.178,57.685   c0.06,0.055,0.113,0.109,0.156,0.162l-0.227,0.017C184.135,57.803,184.157,57.743,184.178,57.685L184.178,57.685z M183.978,57.873   l-0.216,0.015c0.025-0.05,0.047-0.1,0.067-0.149C183.883,57.784,183.933,57.829,183.978,57.873L183.978,57.873z M182.913,57.925   c0.036,0.024,0.071,0.049,0.107,0.076l-0.167,0.029C182.873,57.993,182.894,57.958,182.913,57.925L182.913,57.925z M182.653,58.064   l-0.165,0.029c0.014-0.034,0.029-0.067,0.045-0.098C182.573,58.016,182.613,58.039,182.653,58.064L182.653,58.064z M191.368,72.538   c0.006-0.037,0.011-0.074,0.015-0.112l0.137,0.07C191.469,72.51,191.419,72.524,191.368,72.538L191.368,72.538z M191.682,72.579   l0.143,0.073c-0.056,0.017-0.11,0.034-0.166,0.05C191.667,72.661,191.675,72.62,191.682,72.579L191.682,72.579z M189.335,77.461   c0.054-0.02,0.103-0.042,0.144-0.065l0.018,0.119C189.443,77.497,189.39,77.479,189.335,77.461L189.335,77.461z M189.516,77.65   l0.02,0.131c-0.064-0.022-0.132-0.045-0.203-0.069C189.398,77.692,189.46,77.672,189.516,77.65L189.516,77.65z M185.792,79.46   c0.057-0.011,0.11-0.023,0.159-0.036l-0.035,0.114C185.877,79.512,185.835,79.486,185.792,79.46L185.792,79.46z M185.871,79.68   l-0.037,0.117c-0.04-0.029-0.084-0.06-0.131-0.09C185.762,79.699,185.818,79.69,185.871,79.68L185.871,79.68z M187.46,74.472   l0.324-0.098c0.014,0.004,0.027,0.008,0.041,0.012c-0.032,0.076-0.061,0.149-0.087,0.22c-0.099-0.028-0.196-0.059-0.294-0.094   C187.45,74.499,187.455,74.485,187.46,74.472L187.46,74.472z M181.365,58.091l0.09-0.203c0.031-0.006,0.063-0.012,0.093-0.018   c0.064,0.071,0.122,0.14,0.171,0.208c-0.095,0.012-0.198,0.032-0.315,0.061C181.392,58.123,181.379,58.107,181.365,58.091   L181.365,58.091z M183.192,57.222l0.036-0.007c0.065,0.076,0.156,0.157,0.255,0.24c-0.022,0.098-0.059,0.184-0.101,0.264   c-0.082-0.067-0.166-0.135-0.242-0.203C183.172,57.431,183.192,57.336,183.192,57.222L183.192,57.222z M183.707,77.186   c-0.062-0.031-0.122-0.063-0.182-0.096l0.352,0.017C183.814,77.133,183.757,77.16,183.707,77.186L183.707,77.186z M174.62,78.404   c0.032-0.023,0.062-0.057,0.076-0.101c0.013-0.041,0.007-0.08-0.007-0.11c0.018-0.001,0.037-0.003,0.057-0.005   c0.003,0.002,0.006,0.003,0.009,0.005c0.09,0.046,0.213,0.109,0.353,0.194c-0.021,0.002-0.038,0.003-0.054,0.004   c-0.148,0.013-0.292,0.024-0.391,0.035C174.647,78.418,174.633,78.411,174.62,78.404L174.62,78.404z M184.685,88.539   c0.033,0.021,0.067,0.042,0.101,0.063l-0.234-0.056C184.596,88.543,184.64,88.541,184.685,88.539L184.685,88.539z M170.468,82.655   c0.013,0.003,0.026,0.006,0.039,0.008l-0.083-0.009C170.439,82.655,170.454,82.655,170.468,82.655L170.468,82.655z" style="fill-rule:evenodd;clip-rule:evenodd;">
  </path>
  <polygon points="329.886,113.459 301.653,117.887 301.652,117.887 301.72,118.11    301.787,118.333 330.245,113.87 330.178,113.647 330.11,113.424 329.886,113.459  " style="fill-rule:evenodd;clip-rule:evenodd;">
  </polygon>
  <path d="M26.328,241.316c0.093,0.108,0.182,0.218,0.267,0.33   c0.018-0.127,0.039-0.254,0.063-0.38c-0.084-0.1-0.171-0.198-0.262-0.294C26.371,241.088,26.349,241.202,26.328,241.316   L26.328,241.316z" style="fill-rule:evenodd;clip-rule:evenodd;">
  </path>
 </g>
</svg>