<?xml version="1.0" encoding="UTF-8"?>
<svg width="100px" height="50px" viewBox="0 0 100 50" version="1.1" xmlns="http://www.w3.org/2000/svg" xmlns:xlink="http://www.w3.org/1999/xlink">
    <!-- Generator: Sketch 42 (36781) - http://www.bohemiancoding.com/sketch -->
    <title>Built by devs</title>
    <desc>Created with Sketch.</desc>
    <defs>
        <polygon id="path-1" points="0 50 100 50 100 0 0 0"></polygon>
    </defs>
    <g id="Tour-Page" stroke="none" stroke-width="1" fill="none" fill-rule="evenodd">
        <g transform="translate(-543.000000, -2676.000000)" id="Support-for-Devs-by-Devs">
            <g transform="translate(503.000000, 2676.000000)">
                <g id="Built-by-devs" transform="translate(40.000000, 0.000000)">
                    <path d="M12.8613281,33.7859375 L12.8613281,38.2960937 L4.67265625,41.2292969 C2.72027812,41.9320703 1.4228043,43.7891016 1.43437461,45.8640625 L1.434375,48.9570312 L32.5984375,48.9570312 L32.5984375,45.8640625 C32.6099453,43.7889844 31.312293,41.9319531 29.3597656,41.2292969 L21.171875,38.2960937 L21.171875,33.4832031" id="Stroke-3" stroke="#FFFFFF" stroke-width="1.5" stroke-linecap="round" stroke-linejoin="round"></path>
                    <path d="M25.0128906,25.1734375 C25.0128906,30.6086953 21.3412773,35.0148438 16.8121094,35.0148438 C12.2829453,35.0148438 8.61132813,30.6086953 8.61132813,25.1734375 C8.61132813,19.7381797 12.2829453,15.3320313 16.8121094,15.3320313 C21.3412773,15.3320313 25.0128906,19.7381797 25.0128906,25.1734375 Z" id="Stroke-5" stroke="#FFFFFF" stroke-width="1.5" stroke-linecap="round" stroke-linejoin="round"></path>
                    <path d="M24.9375,24.3070312 C24.6640625,24.340625 24.46875,24.3007812 24.1929688,24.3535156 C21.3996094,24.8921875 19.6054688,23.8796875 18.0667969,21.1894531 C17.1445313,22.9585937 14.2605469,24.3535156 11.890625,24.3535156 C10.784918,24.3697969 9.69298828,24.1067266 8.71601563,23.5886719" id="Stroke-7" stroke="#FFFFFF" stroke-width="1.5" stroke-linecap="round" stroke-linejoin="round"></path>
                    <path d="M79.0386719,33.7859375 L79.0386719,38.2960937 L70.85,41.2292969 C68.8976172,41.9320703 67.6001562,43.7891016 67.6117187,45.8640625 L67.6117187,48.9570312 L98.7757812,48.9570312 L98.7757812,45.8640625 C98.7873047,43.7889844 97.4896484,41.9319531 95.5371094,41.2292969 L87.3488281,38.2960937 L87.3488281,33.4832031" id="Stroke-9" stroke="#FFFFFF" stroke-width="1.5" stroke-linecap="round" stroke-linejoin="round"></path>
                    <path d="M91.1898438,25.1734375 C91.1898438,30.6086953 87.5182422,35.0148438 82.9890625,35.0148438 C78.4598828,35.0148438 74.7882813,30.6086953 74.7882813,25.1734375 C74.7882813,19.7381797 78.4598828,15.3320313 82.9890625,15.3320313 C87.5182422,15.3320313 91.1898438,19.7381797 91.1898438,25.1734375 Z" id="Stroke-11" stroke="#FFFFFF" stroke-width="1.5" stroke-linecap="round" stroke-linejoin="round"></path>
                    <path d="M91.1148437,24.3070312 C90.8414062,24.340625 90.6460937,24.3007812 90.3703125,24.3535156 C87.5769531,24.8921875 85.7828125,23.8796875 84.2441406,21.1894531 C83.321875,22.9585937 80.4378906,24.3535156 78.0679687,24.3535156 C76.9622656,24.3698008 75.8703125,24.1067305 74.8933594,23.5886719" id="Stroke-13" stroke="#FFFFFF" stroke-width="1.5" stroke-linecap="round" stroke-linejoin="round"></path>
                    <path d="M38.290625,34 L62.7539063,34" id="Stroke-15" stroke="#FFFFFF" stroke-width="1.5" stroke-linecap="round" stroke-linejoin="round"></path>
                    <mask id="mask-2" fill="white">
                        <use xlink:href="#path-1"></use>
                    </mask>
                    <g id="Clip-18"></g>
                    <path d="M41.0539062,33.9117187 C41.0539062,35.1509062 40.0493359,36.1554687 38.8101523,36.1554687 C37.5709648,36.1554687 36.5664023,35.1509062 36.5664023,33.9117187 C36.5664023,32.6725312 37.5709648,31.6679688 38.8101523,31.6679688 C40.0493359,31.6679688 41.0539062,32.6725312 41.0539062,33.9117187 Z" id="Fill-17" fill="#FFFFFF" mask="url(#mask-2)"></path>
                    <path d="M66.5558594,33.9117187 C66.5558594,35.1509062 65.5512891,36.1554687 64.3121094,36.1554687 C63.0729297,36.1554687 62.0683594,35.1509062 62.0683594,33.9117187 C62.0683594,32.6725312 63.0729297,31.6679688 64.3121094,31.6679688 C65.5512891,31.6679688 66.5558594,32.6725312 66.5558594,33.9117187 Z" id="Fill-19" fill="#FFFFFF" mask="url(#mask-2)"></path>
                    <path d="M30.66875,13.1105469 L26.4351563,10.878125 C26.2715977,10.791875 26.169457,10.6219531 26.1700352,10.4370703 C26.1706094,10.2521484 26.2738047,10.0828906 26.4378945,9.99765625 L30.6691445,7.79882812 C30.8224336,7.71914062 31.0061953,7.72519531 31.1538828,7.81484375 C31.3015703,7.90449219 31.3917617,8.06472656 31.3917969,8.2375 L31.3918008,8.2375 C31.3918398,8.421875 31.2893008,8.59097656 31.1257852,8.67617187 L27.709375,10.4546875 L31.1257852,12.2332031 C31.2894492,12.3182969 31.3921523,12.4874102 31.3921914,12.671875 L31.3921914,12.671875 C31.3923008,12.8448711 31.302,13.0053477 31.1540742,13.0950469 C31.0061445,13.1847461 30.8220977,13.1906211 30.66875,13.1105469 Z" id="Fill-20" fill="#FFFFFF" mask="url(#mask-2)"></path>
                    <path d="M32.0019531,14.6207031 L35.1378906,6.78046875 C35.2196406,6.57621094 35.4174805,6.44222656 35.6375039,6.4421875 L35.6375,6.4421875 C35.8160078,6.44230469 35.9828516,6.53085938 36.0829336,6.67867188 C36.1830156,6.82648438 36.2033125,7.01429688 36.1371172,7.18007813 L33.0015625,15.0203125 C32.9198164,15.224582 32.7219766,15.3585391 32.5019531,15.3585938 L32.5019531,15.3585938 C32.3233828,15.358625 32.156418,15.2700977 32.0562461,15.1222656 C31.9560703,14.9744336 31.9357383,14.7865469 32.0019531,14.6207031 Z" id="Fill-21" fill="#FFFFFF" mask="url(#mask-2)"></path>
                    <path d="M37.3113281,12.7042969 L37.3113281,12.7042969 C37.3114531,12.5272109 37.4100703,12.3648984 37.5671875,12.2832031 L41.0828125,10.4546875 L37.5671875,8.62617187 C37.4093906,8.54421875 37.3106328,8.3809375 37.311332,8.203125 L37.3113281,8.203125 C37.3112891,8.03722656 37.3978672,7.88335937 37.5396719,7.79730469 C37.6814766,7.71121094 37.8579336,7.70542969 38.0050781,7.78203125 L42.3117188,10.0324219 C42.4762891,10.1183984 42.5791797,10.2889062 42.5785156,10.4745703 C42.5778516,10.6602344 42.47375,10.8300391 42.3085938,10.9148437 L38.0050781,13.125 C37.8579688,13.2013203 37.6817305,13.1954531 37.5400273,13.1095234 C37.3983242,13.0235898 37.3116484,12.8700195 37.3113281,12.7042969 Z" id="Fill-22" fill="#FFFFFF" mask="url(#mask-2)"></path>
                    <polyline id="Stroke-1" stroke="#FFFFFF" stroke-width="1.5" stroke-linecap="round" stroke-linejoin="round" mask="url(#mask-2)" points="18.0554687 9.48242188 18.0554687 1.171875 49.2195312 1.171875 49.2195312 19.8703125 41.9480469 19.8703125 33.6375 28.1808594 33.6375 19.8703125 28.3267771 19.8703125"></polyline>
                </g>
            </g>
        </g>
    </g>
</svg>