<?xml version="1.0" encoding="utf-8"?>
<!-- Generator: Adobe Illustrator 16.0.0, SVG Export Plug-In . SVG Version: 6.00 Build 0)  -->
<!DOCTYPE svg PUBLIC "-//W3C//DTD SVG 1.1//EN" "http://www.w3.org/Graphics/SVG/1.1/DTD/svg11.dtd">
<svg version="1.1" id="Layer_1" xmlns="http://www.w3.org/2000/svg" xmlns:xlink="http://www.w3.org/1999/xlink" x="0px" y="0px"
	 width="5.094px" height="4.798px" viewBox="0 0 5.094 4.798" enable-background="new 0 0 5.094 4.798" xml:space="preserve">
<path fill="#F64747" d="M4.468,0.552h-3.84c-0.27,0-0.488,0.219-0.488,0.488v2.718c0,0.271,0.218,0.488,0.488,0.488h3.84
	c0.271,0,0.486-0.218,0.486-0.488V1.04C4.954,0.771,4.739,0.552,4.468,0.552z M3.646,1.19c0-0.094,0.078-0.171,0.171-0.171h0.453
	c0.094,0,0.17,0.077,0.17,0.171v0.64c0,0.095-0.076,0.171-0.17,0.171H3.817c-0.094,0-0.171-0.076-0.171-0.171V1.19z M3.788,1.727
	V1.295c0-0.064,0.055-0.117,0.119-0.117h0.273c0.066,0,0.117,0.053,0.117,0.117v0.432c0,0.064-0.051,0.117-0.117,0.117H3.907
	C3.843,1.844,3.788,1.791,3.788,1.727z M4.464,2.506v0.047c0,0.036-0.023,0.065-0.063,0.069v0.002H2.939V2.622
	C2.898,2.62,2.873,2.591,2.873,2.553V2.506c0-0.038,0.025-0.068,0.066-0.07l0,0h0.002l0,0l0,0h1.454l0,0l0,0h0.006v0.002
	C4.44,2.439,4.464,2.469,4.464,2.506z M4.487,3.34v0.047c0,0.037-0.025,0.066-0.063,0.068v0.003H2.962V3.456
	c-0.04-0.001-0.065-0.032-0.065-0.069V3.34c0-0.038,0.025-0.068,0.065-0.069l0,0h0.002l0,0h0.001h1.453l0,0l0,0h0.006l0,0
	C4.462,3.273,4.487,3.303,4.487,3.34z M3.933,2.927v0.047c0,0.036-0.016,0.066-0.041,0.068v0.003H2.917V3.043
	C2.891,3.041,2.873,3.011,2.873,2.974V2.927c0-0.037,0.018-0.068,0.044-0.069V2.856h0.001l0,0l0,0h0.969l0,0l0,0h0.004v0.001
	C3.917,2.86,3.933,2.89,3.933,2.927z M2.304,1.043h0.047c0.037,0,0.066,0.009,0.069,0.021h0.002v0.486H2.42
	C2.418,1.564,2.388,1.573,2.351,1.573H2.304c-0.038,0-0.069-0.009-0.07-0.022l0,0l0,0l0,0V1.55V1.066l0,0l0,0V1.064h0.001
	C2.238,1.052,2.267,1.043,2.304,1.043z M2.304,1.745h0.047c0.037,0,0.066,0.008,0.069,0.021h0.002v0.486H2.42
	C2.418,2.266,2.388,2.274,2.351,2.274H2.304c-0.038,0-0.069-0.009-0.07-0.022l0,0l0,0l0,0l0,0V1.768l0,0l0,0V1.766h0.001
	C2.238,1.753,2.267,1.745,2.304,1.745z M2.304,2.446h0.047c0.037,0,0.066,0.008,0.069,0.021h0.002v0.487H2.42
	C2.418,2.968,2.388,2.976,2.351,2.976H2.304c-0.038,0-0.069-0.008-0.07-0.021l0,0V2.953l0,0l0,0V2.469l0,0l0,0V2.467h0.001
	C2.238,2.454,2.267,2.446,2.304,2.446z M2.304,3.163h0.047c0.037,0,0.066,0.008,0.069,0.021h0.002v0.487H2.42
	C2.418,3.685,2.388,3.693,2.351,3.693H2.304c-0.038,0-0.069-0.009-0.07-0.022l0,0V3.67l0,0l0,0V3.186l0,0l0,0V3.184h0.001
	C2.238,3.171,2.267,3.163,2.304,3.163z"/>
</svg>
