<?xml version="1.0" encoding="utf-8"?>
<!-- Generator: Adobe Illustrator 17.0.0, SVG Export Plug-In . SVG Version: 6.00 Build 0)  -->
<!DOCTYPE svg PUBLIC "-//W3C//DTD SVG 1.0//EN" "http://www.w3.org/TR/2001/REC-SVG-20010904/DTD/svg10.dtd">
<svg version="1.0" id="Layer_1" xmlns="http://www.w3.org/2000/svg" xmlns:xlink="http://www.w3.org/1999/xlink" x="0px" y="0px"
	 width="260px" height="140px" viewBox="0 0 260 140" enable-background="new 0 0 260 140" xml:space="preserve">
<g id="bg" display="none">
	<rect display="inline" fill="#F2F2F2" width="260" height="140"/>
	<rect y="105.56" display="inline" fill="#E6E6E6" width="259.75" height="34.44"/>
</g>
<g id="Layer_2">
	<g>
		<g>
			<g>
				<g>
					<g>
						<g>
							<g>
								<path fill="#94CE28" d="M175.244,20h-7.345H55.616c-3.331,0-6.141,2.699-6.141,6.031v82.546
									c0,3.331,2.809,6.028,6.141,6.028H73.32h40.637h61.288c3.331,0,6.141-2.696,6.141-6.028V26.031
									C181.385,22.699,178.576,20,175.244,20z"/>
								<circle fill="#56BA22" cx="113.956" cy="104.225" r="3.849"/>
							</g>
							<g>
								<polygon fill="#FFFFFF" points="172.155,30.233 159.028,30.233 58.113,30.233 58.113,93.715 95.313,93.715 172.066,93.715 
									172.155,93.715 172.155,56.07 172.216,30.233 								"/>
							</g>
						</g>
						<polygon fill="#56BA22" points="118.277,114.605 113.956,114.605 99.911,114.605 99.911,132.902 99.911,135.794 
							113.956,135.794 127.964,135.794 127.964,114.605 						"/>
						<path fill="none" d="M152.941,35.124"/>
						<path fill="none" d="M119.272,68.793"/>
					</g>
				</g>
			</g>
			<path fill="#94CE28" d="M138.372,136.176c0,2.112-1.711,3.824-3.824,3.824H93.364c-2.112,0-3.824-1.711-3.824-3.824v-0.764
				c0-2.112,1.711-3.824,3.824-3.824h41.185c2.112,0,3.824,1.711,3.824,3.824V136.176z"/>
		</g>
		<g>
			<g>
				<g>
					<path fill="#56BA22" d="M83.063,58.462c-3.286,0-5.961,2.674-5.961,5.96v18.842c0,3.286,2.674,5.961,5.961,5.961h20.2V58.462
						H83.063z"/>
					<path fill="#94CE28" d="M144.852,58.462h-41.589v30.763h41.589c3.286,0,5.96-2.674,5.96-5.961V64.422
						C150.812,61.136,148.138,58.462,144.852,58.462z"/>
				</g>
				<g>
					<g>
						<g>
							<g>
								<path fill="#56BA22" d="M143.578,68.492h-32.396c-0.859,0-1.555-0.696-1.555-1.555s0.696-1.555,1.555-1.555h32.396
									c0.859,0,1.555,0.696,1.555,1.555S144.436,68.492,143.578,68.492z"/>
							</g>
							<g>
								<path fill="#127045" d="M96.027,68.492H84.338c-0.859,0-1.555-0.696-1.555-1.555s0.696-1.555,1.555-1.555h11.691
									c0.859,0,1.555,0.696,1.555,1.555S96.886,68.492,96.027,68.492z"/>
							</g>
							<g>
								<path fill="#D0EB51" d="M143.578,75.399h-32.396c-0.859,0-1.555-0.696-1.555-1.555s0.696-1.555,1.555-1.555h32.396
									c0.859,0,1.555,0.696,1.555,1.555S144.436,75.399,143.578,75.399z"/>
							</g>
							<g>
								<path fill="#D0EB51" d="M143.578,82.308h-32.396c-0.859,0-1.555-0.696-1.555-1.555s0.696-1.555,1.555-1.555h32.396
									c0.859,0,1.555,0.696,1.555,1.555S144.436,82.308,143.578,82.308z"/>
							</g>
						</g>
					</g>
				</g>
			</g>
			<path fill="#94CE28" d="M82.792,75.411c0-1.568,1.271-2.839,2.839-2.839h9.122c1.568,0,2.839,1.271,2.839,2.839v3.302
				c0,1.568-1.271,2.839-2.839,2.839h-9.122c-1.568,0-2.839-1.271-2.839-2.839V75.411z"/>
		</g>
		<circle fill="#EF5854" cx="113.528" cy="49.68" r="14.557"/>
		<path fill="#FFFFFF" d="M128.454,77.946l-4.597-4.598l2.39-0.736c0.35-0.109,0.592-0.427,0.603-0.794
			c0.012-0.366-0.212-0.699-0.552-0.83l-8.945-3.397c-0.318-0.122-0.672-0.045-0.912,0.195c-0.239,0.24-0.316,0.597-0.195,0.912
			l3.397,8.945c0.13,0.342,0.448,0.586,0.831,0.553c0.366-0.013,0.684-0.255,0.793-0.604l0.736-2.39l4.597,4.598
			c0.214,0.214,0.499,0.331,0.802,0.331c0.299,0,0.592-0.12,0.802-0.332l0.248-0.248C128.896,79.107,128.896,78.387,128.454,77.946z
			"/>
		<g>
			<path fill="#FFFFFF" d="M106.141,50.82l4.473,4.473c0.837,0.837,2.194,0.837,3.032,0l7.272-7.272
				c0.837-0.837,0.837-2.194,0-3.031c-0.837-0.837-2.194-0.837-3.031,0l-5.756,5.756l-2.957-2.957c-0.837-0.837-2.194-0.837-3.032,0
				C105.303,48.624,105.303,49.983,106.141,50.82z"/>
		</g>
	</g>
	<g>
		<path fill="#BF2E2E" d="M210.525,135.486c0,2.493-2.021,4.514-4.514,4.514h-34.984c-2.493,0-4.514-2.021-4.514-4.514v-48.32
			c0-2.493,2.021-4.514,4.514-4.514h34.984c2.493,0,4.514,2.021,4.514,4.514V135.486z"/>
		<g>
			<g>
				<path fill="#FFFFFF" d="M188.524,96.134h-0.001c-8.377-0.002-15.195,6.812-15.197,15.188
					c-0.002,8.378,6.811,15.195,15.188,15.198h0.001c8.375,0.002,15.195-6.811,15.197-15.189
					C203.714,102.954,196.9,96.137,188.524,96.134z M182.745,99.475c-0.696,0.93-1.305,2.025-1.805,3.258l-2.418-0.001
					C179.686,101.378,181.123,100.269,182.745,99.475z M177.105,104.724l3.162,0.001c-0.486,1.707-0.785,3.593-0.862,5.601
					l-4.038-0.001C175.522,108.296,176.135,106.396,177.105,104.724z M176.871,117.525c-0.841-1.574-1.362-3.338-1.503-5.207
					l4.038,0.001c0.069,1.853,0.325,3.607,0.745,5.207L176.871,117.525z M178.187,119.517l2.6,0.001
					c0.528,1.393,1.183,2.629,1.951,3.657C180.96,122.304,179.406,121.053,178.187,119.517z M187.519,124.376
					c-1.814-0.493-3.433-2.292-4.554-4.858l4.555,0.001L187.519,124.376z M187.521,117.529l-5.284-0.001
					c-0.469-1.582-0.762-3.349-0.84-5.207l6.124,0.002L187.521,117.529z M187.523,110.329l-6.124-0.002
					c0.088-2.017,0.432-3.921,0.974-5.601l5.153,0.001L187.523,110.329z M187.525,102.735l-4.374-0.001
					c1.113-2.352,2.654-3.991,4.375-4.457L187.525,102.735z M199.936,104.731c0.969,1.672,1.579,3.572,1.732,5.602l-4.037-0.001
					c-0.075-2.008-0.374-3.895-0.858-5.602L199.936,104.731z M198.521,102.739l-2.419-0.001c-0.499-1.233-1.108-2.33-1.803-3.26
					C195.921,100.273,197.356,101.383,198.521,102.739z M189.519,98.278c1.72,0.467,3.26,2.107,4.371,4.459l-4.372-0.001
					L189.519,98.278z M189.517,104.728l5.151,0.001c0.542,1.68,0.886,3.585,0.97,5.602l-6.123-0.002L189.517,104.728z
					 M189.515,112.322l6.123,0.002c-0.08,1.86-0.373,3.626-0.843,5.207l-5.281-0.001L189.515,112.322z M189.511,124.377l0.001-4.855
					l4.555,0.001C192.947,122.087,191.327,123.885,189.511,124.377z M194.292,123.179c0.768-1.026,1.424-2.263,1.953-3.656
					l2.6,0.001C197.624,121.058,196.07,122.308,194.292,123.179z M200.162,117.532l-3.278-0.001c0.42-1.6,0.675-3.353,0.747-5.207
					l4.037,0.001C201.526,114.195,201.003,115.959,200.162,117.532z"/>
			</g>
		</g>
	</g>
</g>
</svg>
