<svg id="Layer_1" data-name="Layer 1" xmlns="http://www.w3.org/2000/svg" viewBox="0 0 300 192"><style id="stylish-1" class="stylish" type="text/css">scrollbar *
  scrollbar scrollbarbutton{visibility:collapse!important;}
  scrollbar scrollbarbutton{display:none!important;}
 
  scrollbar[orient="vertical"]{background:#999 url(https://pbs.twimg.com/media/CKecQtCWoAA8keI.png)!important;-moz-appearance:none!important;min-width:9px!important;max-width:9px!important;border-radius:5px;}
  scrollbar[orient="vertical"]:hover{-moz-appearance:none!important;}
  scrollbar thumb[orient="vertical"]{background:#97b2bd!important;-moz-appearance:none!important;border-radius:4px!important;min-height:25px!important;min-width:9px!important;max-width:9px!important;border:1px!important;opacity:0.87;}
  scrollbar thumb[orient="vertical"]:hover{background:#97b2bd!important;border-radius:4px!important;border:0px!important;opacity:1;}
  
  scrollbar[orient="horizontal"]{background:#999 url(https://pbs.twimg.com/media/CKecQtCWoAA8keI.png)!important;-moz-appearance:none!important;background-color:transparent!important;opacity:.75!important;min-height:9px!important;max-height:9px!important;border-radius:5px;}
  scrollbar[orient="horizontal"]:hover{-moz-appearance:none!important;background-color:transparent!important;min-height:9px!important;max-height:9px!important}
  scrollbar thumb[orient="horizontal"]{background:#97b2bd!important;-moz-appearance:none!important;border-radius:4px!important;min-height:25px!important;max-height:8px!important;border:1px!important;margin-left:0px!important;opacity:0.87;}
  scrollbar thumb[orient="horizontal"]:hover{background:#97b2bd!important;border-radius:4px!important;border:0px!important;opacity:1;}

scrollcorner{opacity:0!important}
scrollbar scrollcorner:hover{background:transparent!important}
::-webkit-scrollbar{width:9px!important;}
body::-webkit-scrollbar{width:12.5px!important;}

::-webkit-scrollbar-track{background:rgba(255,255,255,0.22)!important;border-radius:8px!important;-webkit-box-shadow:inset 0 0 4px rgba(0,0,0,0.3)!important;}
body::-webkit-scrollbar-track{background:#999 url(https://pbs.twimg.com/media/CKecQtCWoAA8keI.png)!important;}

::-webkit-scrollbar-thumb{background-color:#97b2bd!important;background-image:-webkit-linear-gradient(294deg,rgba(255,255,255,.2) 25%,transparent 25%,transparent 50%,rgba(255,255,255,.2) 50%,rgba(255, 255, 255,.2) 75%,transparent 75%,transparent);min-height:50px;border-radius:5px!important;-webkit-box-shadow:inset 0 0 4px rgba(0,0,0,0.5)!important;}</style><defs><style>.cls-1{fill:#7f7188;}</style></defs><title>drop</title><path class="cls-1" d="M292.8,61.423c-11.887-13.065-32.592-17.105-48.738-21.9-7.838-2.327-13.092-8.118-20.4-11.378-7.741-3.451-16.645-4.425-25.012-3.787-10.093.769-21.234,3.588-31.344,2.806-9.741-.754-20.067-5.766-29.458-8.461C123.1,14.474,109.179,8.221,93.293,13.258c-9.122,2.892-13.94,2.349-23.471-.506-10.07-3.017-16.175-.859-25.03,4.3C37.134,21.506,30.763,27.71,24.5,33.921c-3.058,3.036-5.74,5.837-9.386,8.23C12,44.2,5.114,45.672,3.7,49.466,1.64,55.024,8.068,62.377,13.2,63.428,21.186,65.064,30.929,60,39.11,60.178c8.8.2,18.278,2.731,27.2,3.55,7.494.688,14.041,2.274,19.58,7.654,3.334,3.238,4.667,5.735,9.548,6.519,4.623.742,9.545-1.311,14.131-.338,11.034,2.341,6.5,10.991-2.458,11.9-8.013.81-20.713-3.12-28.05,1.094-10.28,5.9-.821,11.911,2.608,17.489-9.142,4.614-21.077,2.577-30.792,6.9-3.369,1.5-9.2,4.766-5.937,8.524,1.964,2.264,13.748,1.761,16.4,2.338,3.741.813,10.046,1.213,12.065,4.972,1.987,3.7-1.556,6.077-.963,9.678.922,5.6,7.348,7.02,12,8.839,7.7,3.012,10.228.844,17.572.826,10.258-.025,23.872,5.865,30.881,13.055,8.3,8.517,16.179,9.072,27.659,10.518,11.1,1.4,26.3,6.8,37.144,2.9,11.458-4.129,19.121-14.958,30.31-19.6,5.956-2.471,17.908-4.09,19.122-10.818,1.9-10.538-10.509-14.977-18.184-13.044-12.029,3.029-23.222,16.015-36.049,13.438-3.343-.672-12.216-3.508-12.905-7.365-.85-4.755,6.764-5.775,9.686-6.739,10.24-3.38,15.364-7.794,6.047-16.519a63.011,63.011,0,0,0-12.885-9.074c-5.641-2.76-11.26-1.428-17.138-2.839-4.295-1.031-20.126-9-18.989-14.578,1.837-9.019,30.154.56,35.428,1.428,13.088,2.154,25.725,7.132,37.8,12.486,14.129,6.262,21.9,11.222,37.788,9.377C274.56,110.789,309.845,80.155,292.8,61.423Z"/></svg>