<?xml version="1.0" encoding="UTF-8" standalone="no"?>
<!-- Created with Inkscape (http://www.inkscape.org/) -->

<svg
   xmlns:dc="http://purl.org/dc/elements/1.1/"
   xmlns:cc="http://creativecommons.org/ns#"
   xmlns:rdf="http://www.w3.org/1999/02/22-rdf-syntax-ns#"
   xmlns:svg="http://www.w3.org/2000/svg"
   xmlns="http://www.w3.org/2000/svg"
   xmlns:sodipodi="http://sodipodi.sourceforge.net/DTD/sodipodi-0.dtd"
   xmlns:inkscape="http://www.inkscape.org/namespaces/inkscape"
   width="598"
   height="435.38623"
   viewBox="0 0 598.00001 435.38624"
   id="svg4971"
   version="1.1"
   inkscape:version="0.91 r13725"
   sodipodi:docname="earth.svg">
  <defs
     id="defs4973">
    <clipPath
       id="clipPath4152"
       clipPathUnits="userSpaceOnUse">
      <path
         inkscape:connector-curvature="0"
         id="path4154"
         d="m 0,869.743 846.084,0 L 846.084,0 0,0 0,869.743 Z" />
    </clipPath>
    <clipPath
       id="clipPath4160"
       clipPathUnits="userSpaceOnUse">
      <path
         inkscape:connector-curvature="0"
         id="path4162"
         d="m 86.6738,483.453 196.9462,0 0,-34.66 -196.9462,0 0,34.66 z" />
    </clipPath>
    <clipPath
       id="clipPath4164"
       clipPathUnits="userSpaceOnUse">
      <path
         inkscape:connector-curvature="0"
         id="path4166"
         d="m 283.62,466.123 c 0,-9.572 -44.089,-17.33 -98.473,-17.33 -54.386,0 -98.473,7.758 -98.473,17.33 0,9.572 44.087,17.33 98.473,17.33 54.384,0 98.473,-7.758 98.473,-17.33" />
    </clipPath>
    <radialGradient
       id="radialGradient4168"
       spreadMethod="pad"
       gradientTransform="matrix(98.472656,0,0,-17.329559,185.14697,466.12305)"
       gradientUnits="userSpaceOnUse"
       r="1"
       cy="0"
       cx="0"
       fy="0"
       fx="0">
      <stop
         id="stop4170"
         offset="0"
         style="stop-opacity:1;stop-color:#e6e6e6" />
      <stop
         id="stop4172"
         offset="0.8462886"
         style="stop-opacity:1;stop-color:#ffffff" />
      <stop
         id="stop4174"
         offset="1"
         style="stop-opacity:1;stop-color:#ffffff" />
    </radialGradient>
    <clipPath
       id="clipPath4194"
       clipPathUnits="userSpaceOnUse">
      <path
         inkscape:connector-curvature="0"
         id="path4196"
         d="m 113.49,728.196 c -20.381,0 -36.962,-16.58 -36.962,-36.962 l 0,0 0,-143.311 c 0,-20.382 16.581,-36.962 36.962,-36.962 l 0,0 143.313,0 c 20.381,0 36.962,16.58 36.962,36.962 l 0,0 0,54.581 c -15.547,-4.276 -30.718,-5.795 -44.415,-5.795 l 0,0 c -2.865,0 -5.661,0.07 -8.388,0.192 l 0,0 0,-33.137 -111.631,0 0,111.629 39.144,0 c -1.467,19.213 1.126,36.943 5.935,52.803 l 0,0 -60.92,0 z" />
    </clipPath>
    <linearGradient
       id="linearGradient4202"
       spreadMethod="pad"
       gradientTransform="matrix(-208.3076,-249.33868,-249.33868,208.3076,307.9209,766.53369)"
       gradientUnits="userSpaceOnUse"
       y2="0"
       x2="1"
       y1="0"
       x1="0">
      <stop
         id="stop4204"
         offset="0"
         style="stop-opacity:1;stop-color:#86c602" />
      <stop
         id="stop4206"
         offset="1"
         style="stop-opacity:1;stop-color:#40b002" />
    </linearGradient>
    <clipPath
       id="clipPath4254"
       clipPathUnits="userSpaceOnUse">
      <path
         inkscape:connector-curvature="0"
         id="path4256"
         d="m 190.435,747.665 c -9.544,-20.07 -14.411,-40.663 -14.468,-61.205 l 0,0 c -0.062,-22.7 5.791,-45.52 17.413,-67.962 l 0,0 c 8.616,8.83 23.397,25.963 34.383,49.139 l 0,0 c 9.482,20.005 14.338,40.589 14.426,61.178 l 0,0 c 0.1,22.745 -5.653,45.672 -17.113,68.287 l 0,0 c -8.694,-8.921 -23.588,-26.187 -34.641,-49.437" />
    </clipPath>
    <linearGradient
       id="linearGradient4262"
       spreadMethod="pad"
       gradientTransform="matrix(-208.30778,-249.33893,-249.33893,208.30778,278.69434,790.95117)"
       gradientUnits="userSpaceOnUse"
       y2="0"
       x2="1"
       y1="0"
       x1="0">
      <stop
         id="stop4264"
         offset="0"
         style="stop-opacity:1;stop-color:#86c602" />
      <stop
         id="stop4266"
         offset="1"
         style="stop-opacity:1;stop-color:#40b002" />
    </linearGradient>
    <clipPath
       id="clipPath4234"
       clipPathUnits="userSpaceOnUse">
      <path
         inkscape:connector-curvature="0"
         id="path4236"
         d="m 261.553,729.134 c -4.113,-2.834 -8.024,-5.818 -11.751,-8.93 l 0,0 c -3.187,-49.138 -31.138,-86.107 -47.185,-103.499 l 0,0 c 12.269,3.701 31.861,11.065 51.25,24.458 l 0,0 c 18.215,12.583 32.71,27.983 43.083,45.768 l 0,0 c 11.458,19.648 17.94,42.379 19.321,67.696 l 0,0 c -11.989,-3.379 -33.52,-10.885 -54.718,-25.493" />
    </clipPath>
    <linearGradient
       id="linearGradient4242"
       spreadMethod="pad"
       gradientTransform="matrix(-208.30791,-249.33907,-249.33907,208.30791,319.28418,757.04053)"
       gradientUnits="userSpaceOnUse"
       y2="0"
       x2="1"
       y1="0"
       x1="0">
      <stop
         id="stop4244"
         offset="0"
         style="stop-opacity:1;stop-color:#86c602" />
      <stop
         id="stop4246"
         offset="1"
         style="stop-opacity:1;stop-color:#40b002" />
    </linearGradient>
    <clipPath
       id="clipPath4214"
       clipPathUnits="userSpaceOnUse">
      <path
         inkscape:connector-curvature="0"
         id="path4216"
         d="m 299.24,675.674 c -27.332,-40.972 -70.036,-59.014 -92.627,-66.05 l 0,0 c 9.955,-2.342 25.107,-4.995 42.737,-4.995 l 0,0 c 24.309,0 46.695,4.929 66.535,14.65 l 0,0 c 23.025,11.283 42.544,29.076 58.13,52.97 l 0,0 c -9.859,2.51 -26.611,5.82 -46.369,5.82 l 0,0 c -9.807,0 -19.285,-0.811 -28.406,-2.395" />
    </clipPath>
    <linearGradient
       id="linearGradient4222"
       spreadMethod="pad"
       gradientTransform="matrix(-208.30818,-249.33939,-249.33939,208.30818,359.81836,723.17676)"
       gradientUnits="userSpaceOnUse"
       y2="0"
       x2="1"
       y1="0"
       x1="0">
      <stop
         id="stop4224"
         offset="0"
         style="stop-opacity:1;stop-color:#86c602" />
      <stop
         id="stop4226"
         offset="1"
         style="stop-opacity:1;stop-color:#40b002" />
    </linearGradient>
  </defs>
  <sodipodi:namedview
     id="base"
     pagecolor="#ffffff"
     bordercolor="#666666"
     borderopacity="1.0"
     inkscape:pageopacity="0.0"
     inkscape:pageshadow="2"
     inkscape:zoom="0.35"
     inkscape:cx="130.92937"
     inkscape:cy="-539.44973"
     inkscape:document-units="px"
     inkscape:current-layer="layer1"
     showgrid="false"
     fit-margin-top="0"
     fit-margin-left="0"
     fit-margin-right="0"
     fit-margin-bottom="0"
     inkscape:window-width="889"
     inkscape:window-height="373"
     inkscape:window-x="65"
     inkscape:window-y="677"
     inkscape:window-maximized="0"
     units="px" />
  <metadata
     id="metadata4976">
    <rdf:RDF>
      <cc:Work
         rdf:about="">
        <dc:format>image/svg+xml</dc:format>
        <dc:type
           rdf:resource="http://purl.org/dc/dcmitype/StillImage" />
        <dc:title />
      </cc:Work>
    </rdf:RDF>
  </metadata>
  <g
     inkscape:label="Capa 1"
     inkscape:groupmode="layer"
     id="layer1"
     transform="translate(451.64366,671.04522)">
    <g
       id="g5772">
      <g
         transform="matrix(1.25,0,0,-1.25,-384.07666,325.33229)"
         id="g4148">
        <g
           clip-path="url(#clipPath4152)"
           id="g4150">
          <g
             id="g4156">
            <g
               id="g4158" />
            <g
               id="g4176">
              <g
                 id="g4178"
                 clip-path="url(#clipPath4160)">
                <g
                   id="g4180">
                  <g
                     id="g4182"
                     clip-path="url(#clipPath4164)">
                    <g
                       id="g4184">
                      <g
                         id="g4186">
                        <path
                           inkscape:connector-curvature="0"
                           id="path4188"
                           style="fill:url(#radialGradient4168);stroke:none"
                           d="m 283.62,466.123 c 0,-9.572 -44.089,-17.33 -98.473,-17.33 -54.386,0 -98.473,7.758 -98.473,17.33 0,9.572 44.087,17.33 98.473,17.33 54.384,0 98.473,-7.758 98.473,-17.33" />
                      </g>
                    </g>
                  </g>
                </g>
              </g>
            </g>
          </g>
        </g>
      </g>
      <g
         transform="translate(163.227,0)"
         id="g4356">
        <g
           id="g4190"
           transform="matrix(1.25,0,0,-1.25,-547.30366,325.33229)">
          <g
             id="g4192"
             clip-path="url(#clipPath4194)">
            <g
               id="g4198">
              <g
                 id="g4200">
                <path
                   d="m 113.49,728.196 c -20.381,0 -36.962,-16.58 -36.962,-36.962 l 0,0 0,-143.311 c 0,-20.382 16.581,-36.962 36.962,-36.962 l 0,0 143.313,0 c 20.381,0 36.962,16.58 36.962,36.962 l 0,0 0,54.581 c -15.547,-4.276 -30.718,-5.795 -44.415,-5.795 l 0,0 c -2.865,0 -5.661,0.07 -8.388,0.192 l 0,0 0,-33.137 -111.631,0 0,111.629 39.144,0 c -1.467,19.213 1.126,36.943 5.935,52.803 l 0,0 -60.92,0 z"
                   style="fill:url(#linearGradient4202);stroke:none"
                   id="path4208"
                   inkscape:connector-curvature="0" />
              </g>
            </g>
          </g>
        </g>
        <g
           id="g4210"
           transform="matrix(1.25,0,0,-1.25,-547.30366,325.33229)">
          <g
             id="g4212"
             clip-path="url(#clipPath4214)">
            <g
               id="g4218">
              <g
                 id="g4220">
                <path
                   d="m 299.24,675.674 c -27.332,-40.972 -70.036,-59.014 -92.627,-66.05 l 0,0 c 9.955,-2.342 25.107,-4.995 42.737,-4.995 l 0,0 c 24.309,0 46.695,4.929 66.535,14.65 l 0,0 c 23.025,11.283 42.544,29.076 58.13,52.97 l 0,0 c -9.859,2.51 -26.611,5.82 -46.369,5.82 l 0,0 c -9.807,0 -19.285,-0.811 -28.406,-2.395"
                   style="fill:url(#linearGradient4222);stroke:none"
                   id="path4228"
                   inkscape:connector-curvature="0" />
              </g>
            </g>
          </g>
        </g>
        <g
           id="g4230"
           transform="matrix(1.25,0,0,-1.25,-547.30366,325.33229)">
          <g
             id="g4232"
             clip-path="url(#clipPath4234)">
            <g
               id="g4238">
              <g
                 id="g4240">
                <path
                   d="m 261.553,729.134 c -4.113,-2.834 -8.024,-5.818 -11.751,-8.93 l 0,0 c -3.187,-49.138 -31.138,-86.107 -47.185,-103.499 l 0,0 c 12.269,3.701 31.861,11.065 51.25,24.458 l 0,0 c 18.215,12.583 32.71,27.983 43.083,45.768 l 0,0 c 11.458,19.648 17.94,42.379 19.321,67.696 l 0,0 c -11.989,-3.379 -33.52,-10.885 -54.718,-25.493"
                   style="fill:url(#linearGradient4242);stroke:none"
                   id="path4248"
                   inkscape:connector-curvature="0" />
              </g>
            </g>
          </g>
        </g>
        <g
           id="g4250"
           transform="matrix(1.25,0,0,-1.25,-547.30366,325.33229)">
          <g
             id="g4252"
             clip-path="url(#clipPath4254)">
            <g
               id="g4258">
              <g
                 id="g4260">
                <path
                   d="m 190.435,747.665 c -9.544,-20.07 -14.411,-40.663 -14.468,-61.205 l 0,0 c -0.062,-22.7 5.791,-45.52 17.413,-67.962 l 0,0 c 8.616,8.83 23.397,25.963 34.383,49.139 l 0,0 c 9.482,20.005 14.338,40.589 14.426,61.178 l 0,0 c 0.1,22.745 -5.653,45.672 -17.113,68.287 l 0,0 c -8.694,-8.921 -23.588,-26.187 -34.641,-49.437"
                   style="fill:url(#linearGradient4262);stroke:none"
                   id="path4268"
                   inkscape:connector-curvature="0" />
              </g>
            </g>
          </g>
        </g>
      </g>
    </g>
  </g>
</svg>
