<svg height="500" width="500" xmlns="http://www.w3.org/2000/svg" viewBox="0 0 500 500">
  <path clip-rule="evenodd" d="M31.948 268.172c0 20.079 16.264 36.341 36.341 36.341h90.855v127.198c0 20.078 16.264 36.34 36.342 36.34 20.079 0 36.343-16.262 36.343-36.34V304.513h127.283c12.724 0 24.259-5.269 32.527-13.717l63.049-63.056c17.816-17.808 17.816-46.697 0-64.505l-63.049-63.056c-8.269-8.448-19.804-13.717-32.527-13.717H231.829V68.29c0-20.077-16.264-36.34-36.343-36.34-20.079 0-36.342 16.264-36.342 36.34v18.172H68.289c-20.077 0-36.341 16.264-36.341 36.341v145.369z" fill="#e18823" fill-rule="evenodd"/>
</svg>
