<?xml version="1.0" encoding="utf-8"?>
<!-- Generator: Adobe Illustrator 21.0.0, SVG Export Plug-In . SVG Version: 6.00 Build 0)  -->
<svg version="1.1" id="Layer_1" xmlns="http://www.w3.org/2000/svg" xmlns:xlink="http://www.w3.org/1999/xlink" x="0px" y="0px"
	 viewBox="0 0 48.6 54.8" style="enable-background:new 0 0 48.6 54.8;" xml:space="preserve">
<style type="text/css">
	.st0{clip-path:url(#SVGID_2_);fill:#FFFFFF;}
</style>
<polygon points="24.3,0.9 0.7,14.1 0.7,40.6 24.3,53.9 47.9,40.6 47.9,14.1 "/>
<g>
	<defs>
		<rect id="SVGID_1_" x="0.7" y="0.9" width="47.2" height="53"/>
	</defs>
	<clipPath id="SVGID_2_">
		<use xlink:href="#SVGID_1_"  style="overflow:visible;"/>
	</clipPath>
	<path class="st0" d="M26.8,31.6c-2.4,1.4-5.4,0.6-6.7-1.8c-1.4-2.4-0.6-5.4,1.8-6.7c2.4-1.4,5.4-0.6,6.7,1.8
		C29.9,27.3,29.1,30.3,26.8,31.6 M38.2,34.5l-1.3-0.8l0.7-0.2c0.4-0.2,0.6-0.6,0.5-1.1c-0.2-0.4-0.6-0.6-1.1-0.5l-2,0.7l-2.4-1.4
		l3.7-1.4c0.4-0.2,0.6-0.6,0.5-1.1c-0.2-0.4-0.6-0.6-1.1-0.5l-5,1.8l-0.4-0.2c0.7-1.6,0.7-3.4,0-5.1l0.4-0.2l5,1.8
		c0.4,0.2,0.9-0.1,1.1-0.5c0.2-0.4-0.1-0.9-0.5-1.1l-3.7-1.4l2.4-1.4l2,0.7c0.4,0.2,0.9-0.1,1.1-0.5c0.2-0.4-0.1-0.9-0.5-1.1
		l-0.7-0.2l1.3-0.8c0.4-0.2,0.5-0.7,0.3-1.1c-0.2-0.4-0.7-0.5-1.1-0.3l-1.3,0.8l0.1-0.7c0.1-0.4-0.2-0.9-0.7-0.9
		c-0.4-0.1-0.9,0.2-1,0.7l-0.4,2.1l-2.4,1.4l0.7-3.9c0.1-0.4-0.2-0.9-0.7-1c-0.4-0.1-0.9,0.2-1,0.7L30,23.2l-0.4,0.2
		c-1.1-1.4-2.7-2.3-4.4-2.5v-0.5l4.1-3.4c0.3-0.3,0.4-0.8,0.1-1.2s-0.8-0.4-1.2-0.1l-3.1,2.6v-2.8l1.6-1.3c0.3-0.3,0.4-0.8,0.1-1.2
		c-0.3-0.3-0.8-0.4-1.2-0.1l-0.5,0.5v-1.5c0-0.5-0.4-0.8-0.8-0.8c-0.5,0-0.8,0.4-0.8,0.8v1.6l-0.6-0.5c-0.3-0.3-0.9-0.2-1.2,0.1
		s-0.2,0.9,0.1,1.2l1.6,1.4v2.7l-3.1-2.6c-0.3-0.3-0.9-0.2-1.2,0.1s-0.2,0.9,0.1,1.2l4.1,3.4v0.5c-0.8,0.1-1.7,0.4-2.5,0.8
		c-0.8,0.5-1.4,1-1.9,1.7l-0.4-0.3l-0.9-5.3c-0.1-0.4-0.5-0.7-0.9-0.7c-0.4,0.1-0.7,0.5-0.7,1l0.7,3.9l-2.4-1.4l-0.4-2.1
		c-0.1-0.4-0.5-0.7-1-0.7c-0.4,0.1-0.7,0.5-0.7,0.9l0.1,0.7l-1.3-0.8c-0.4-0.2-0.9-0.1-1.1,0.3c-0.2,0.4-0.1,0.9,0.3,1.1l1.3,0.8
		l-0.7,0.2c-0.4,0.2-0.6,0.6-0.5,1.1c0.2,0.4,0.6,0.6,1.1,0.5l2-0.7l2.4,1.4l-3.7,1.4c-0.4,0.2-0.6,0.6-0.5,1.1
		c0.2,0.4,0.6,0.6,1.1,0.5l5-1.8l0.4,0.2c-0.7,1.6-0.7,3.4,0,5.1l-0.4,0.2l-5-1.8c-0.4-0.2-0.9,0.1-1.1,0.5
		c-0.2,0.4,0.1,0.9,0.5,1.1l3.7,1.4l-2.4,1.4l-2-0.7c-0.4-0.2-0.9,0.1-1.1,0.5c-0.2,0.4,0.1,0.9,0.5,1.1l0.7,0.2l-1.3,0.8
		c-0.4,0.2-0.5,0.7-0.3,1.1c0.2,0.4,0.7,0.5,1.1,0.3l1.3-0.8l-0.1,0.7c-0.1,0.4,0.2,0.9,0.7,0.9c0.4,0.1,0.9-0.2,1-0.7l0.4-2.1
		l2.4-1.4l-0.7,3.9c-0.1,0.4,0.2,0.9,0.7,0.9c0.4,0.1,0.9-0.2,0.9-0.7l0.9-5.3l0.4-0.3c1.1,1.4,2.7,2.3,4.4,2.5v0.5l-4.1,3.4
		C19,38.1,19,38.6,19.3,39s0.8,0.4,1.2,0.1l3.1-2.6v2.8l-1.6,1.3c-0.3,0.3-0.4,0.8-0.1,1.2s0.8,0.4,1.2,0.1l0.6-0.5V43
		c0,0.5,0.4,0.8,0.8,0.8c0.5,0,0.8-0.4,0.8-0.8v-1.5l0.5,0.5c0.3,0.3,0.9,0.2,1.2-0.1s0.2-0.9-0.1-1.2l-1.6-1.3v-2.8l3.1,2.6
		c0.3,0.3,0.9,0.2,1.2-0.1s-4.2-4.6-4.2-4.6v-0.5c0.8-0.1,1.7-0.4,2.5-0.8c0.8-0.5,1.4-1,2-1.7l0.4,0.2l0.9,5.3
		c0.1,0.4,0.5,0.7,1,0.7c0.4-0.1,0.7-0.5,0.7-1l-0.7-3.9l2.4,1.4l0.4,2.1c0.1,0.4,0.5,0.7,1,0.7c0.4-0.1,0.7-0.5,0.7-1l-0.1-0.7
		l1.3,0.8c0.4,0.2,0.9,0.1,1.1-0.3C38.7,35.2,38.6,34.7,38.2,34.5"/>
</g>
</svg>
