<?xml version="1.0" encoding="utf-8"?>
<!-- Generator: Adobe Illustrator 21.0.0, SVG Export Plug-In . SVG Version: 6.00 Build 0)  -->
<svg version="1.1" id="Layer_1" xmlns="http://www.w3.org/2000/svg" xmlns:xlink="http://www.w3.org/1999/xlink" x="0px" y="0px"
	 viewBox="0 0 48.6 54.8" style="enable-background:new 0 0 48.6 54.8;" xml:space="preserve">
<style type="text/css">
	.st0{fill:#FFFFFF;}
	
		.st1{clip-path:url(#SVGID_2_);fill:none;stroke:#000000;stroke-width:1.287;stroke-linecap:round;stroke-linejoin:round;stroke-miterlimit:22.926;}
</style>
<polygon class="st0" points="24.3,1.2 1,14.3 1,40.5 24.3,53.5 47.6,40.5 47.6,14.3 "/>
<g>
	<defs>
		<rect id="SVGID_1_" x="1" y="1.2" width="46.6" height="52.3"/>
	</defs>
	<clipPath id="SVGID_2_">
		<use xlink:href="#SVGID_1_"  style="overflow:visible;"/>
	</clipPath>
	<path class="st1" d="M21.7,27.6l5.2,2.8 M23.3,25.5l2-1.9l2-1.9l2-1.9l-0.5,2.7l-0.5,2.7l-0.5,2.7c-0.3,1.7-1.2,3.4-2.5,4.6l-2,1.9
		l-2,1.9l-2,1.9l0.5-2.7l0.5-2.7l0.5-2.7C21.2,28.4,22.1,26.7,23.3,25.5z M35.4,29h-2.1 M24.3,40.1V38 M13.2,29h2.1 M24.3,17.9V20
		 M24.3,11c-1.2,0-2.1,1-2.1,2.1s1,2.1,2.1,2.1c1.2,0,2.1-1,2.1-2.1S25.5,11,24.3,11z M24.3,15.6c7.4,0,13.4,6,13.4,13.4
		c0,7.4-6,13.4-13.4,13.4s-13.4-6-13.4-13.4C10.9,21.6,16.9,15.6,24.3,15.6z"/>
</g>
</svg>
