<?xml version="1.0" encoding="UTF-8" standalone="no"?>
<svg width="79px" height="79px" viewBox="0 0 79 79" version="1.1" xmlns="http://www.w3.org/2000/svg" xmlns:xlink="http://www.w3.org/1999/xlink" xmlns:sketch="http://www.bohemiancoding.com/sketch/ns">
    <!-- Generator: Sketch 3.2.2 (9983) - http://www.bohemiancoding.com/sketch -->
    <title>Imported Layers</title>
    <desc>Created with Sketch.</desc>
    <defs></defs>
    <g id="Frontpage" stroke="none" stroke-width="1" fill="none" fill-rule="evenodd" sketch:type="MSPage">
        <g id="Desktop" sketch:type="MSArtboardGroup" transform="translate(-289.000000, -3845.000000)" fill="#4A4A4A">
            <g id="process" sketch:type="MSLayerGroup" transform="translate(175.500000, 3607.000000)">
                <g id="plan" transform="translate(0.000000, 238.000000)" sketch:type="MSShapeGroup">
                    <path d="M192.333333,24.925 L192.333333,3.56 C192.333333,1.59333333 190.738333,0 188.771667,0 L167.41,0 C165.441667,0 163.848333,1.595 163.848333,3.56 L163.848333,12.4616667 C146.455,12.4616667 131.841667,24.4166667 127.685,40.53 L123.983333,39.8783333 C123.318333,39.7616667 122.645,40.03 122.243333,40.5716667 C121.843333,41.1133333 121.78,41.835 122.085,42.4383333 L125.941667,50.0533333 C119.181667,51.155 114,57.0216667 114,64.0916667 C114,71.945 120.39,78.3333333 128.243333,78.3333333 C135.493333,78.3333333 141.48,72.885 142.361667,65.8716667 L154.948333,65.8716667 L154.948333,69.4316667 C154.948333,70.1066667 155.33,70.7216667 155.931667,71.025 C156.535,71.325 157.256667,71.2616667 157.798333,70.8566667 L164.021667,66.1866667 C165.04,73.0466667 170.953333,78.3333333 178.09,78.3333333 C185.943333,78.3333333 192.333333,71.945 192.333333,64.0916667 C192.333333,56.8416667 186.883333,50.8533333 179.87,49.9733333 L179.87,37.3866667 L183.431667,37.3866667 C184.105,37.3866667 184.721667,37.005 185.023333,36.4033333 C185.325,35.8016667 185.261667,35.0783333 184.855,34.5383333 L180.315,28.4866667 L188.77,28.4866667 C190.738333,28.485 192.333333,26.89 192.333333,24.925 L192.333333,24.925 Z M128.243333,71.2116667 C124.316667,71.2116667 121.121667,68.0166667 121.121667,64.0916667 C121.121667,60.1666667 124.316667,56.97 128.243333,56.97 C132.17,56.97 135.363333,60.165 135.363333,64.0916667 C135.363333,68.0183333 132.17,71.2116667 128.243333,71.2116667 L128.243333,71.2116667 Z M185.213333,64.0916667 C185.213333,68.0183333 182.018333,71.2116667 178.091667,71.2116667 C174.165,71.2116667 170.971667,68.0166667 170.971667,64.0916667 C170.971667,60.1666667 174.165,56.97 178.091667,56.97 C182.018333,56.97 185.213333,60.165 185.213333,64.0916667 L185.213333,64.0916667 Z M171.158333,36.4016667 C171.46,37.005 172.076667,37.385 172.75,37.385 L176.311667,37.385 L176.311667,49.9716667 C169.988333,50.7666667 164.953333,55.715 164.021667,61.995 L157.796667,57.325 C157.256667,56.92 156.535,56.8566667 155.931667,57.1566667 C155.33,57.46 154.948333,58.075 154.948333,58.75 L154.948333,62.31 L142.361667,62.31 C141.555,55.8716667 136.44,50.765 129.998333,49.9683333 C130.003333,49.9266667 130.023333,49.8916667 130.023333,49.8483333 L130.023333,49.83 L135.411667,44.785 C135.903333,44.325 136.091667,43.625 135.901667,42.9783333 C135.706667,42.3316667 135.168333,41.85 134.503333,41.7316667 L131.198333,41.15 C135.053333,26.7066667 148.21,16.0216667 163.85,16.0216667 L163.85,24.9233333 C163.85,26.89 165.443333,28.4833333 167.411667,28.4833333 L175.866667,28.4833333 L171.326667,34.5366667 C170.92,35.0766667 170.856667,35.7983333 171.158333,36.4016667 L171.158333,36.4016667 Z M170.97,7.12166667 L185.213333,7.12166667 L185.213333,21.3633333 L170.97,21.3633333 L170.97,7.12166667 Z" id="Imported-Layers"></path>
                </g>
            </g>
        </g>
    </g>
</svg>