<?xml version="1.0" encoding="utf-8"?>
<!-- Generator: Adobe Illustrator 20.1.0, SVG Export Plug-In . SVG Version: 6.00 Build 0)  -->
<svg version="1.1" xmlns="http://www.w3.org/2000/svg" xmlns:xlink="http://www.w3.org/1999/xlink" x="0px" y="0px"
	 viewBox="0 0 219.7 219.7" style="enable-background:new 0 0 219.7 219.7;" xml:space="preserve">
<style type="text/css">
	.st0{display:none;}
	.st1{display:inline;}
	.st2{fill:none;stroke:#000;stroke-width:5;stroke-linecap:round;stroke-linejoin:round;stroke-miterlimit:10;}
	.st3{fill:none;stroke:#000;stroke-width:5;stroke-linejoin:round;stroke-miterlimit:10;}
	.st4{fill:none;stroke:#000;stroke-width:5;stroke-linecap:round;stroke-linejoin:round;stroke-miterlimit:10;}
	.st5{fill:none;stroke:#000;stroke-width:5;stroke-linejoin:round;stroke-miterlimit:10;}
	.st6{fill:none;stroke:#000;stroke-width:5;stroke-linecap:round;stroke-linejoin:round;stroke-miterlimit:10;}
	.st7{fill:#000;}
	.st8{fill:none;stroke:#000;stroke-width:5;stroke-linejoin:round;stroke-miterlimit:10;}
	.st9{fill:#000;}
	.st10{fill:none;stroke:#000;stroke-miterlimit:10;}
</style>
<g id="Layer_1" class="st0">
</g>
<g id="Cover_x5F_Compass" class="st0">
	<g class="st1">
		<g>
			<path class="st2" d="M108.6,60.8v169.7 M196.2-10.6l-87.6,44.3L21-10.6 M108.6,60.8L218.1,6.1v169.7l-109.5,54.7L-0.9,175.8V6.1
				L108.6,60.8z"/>
			<path class="st3" d="M166.8,121.4c-13.2,2.9-26,30.2-26,62l50-24.3C190.7,127.4,180,118.9,166.8,121.4z"/>
		</g>
		<polygon class="st2" points="125,73.1 201.7,34.8 201.7,153.6 125,191.9 125,153.6 125,111.5 		"/>
		<g>
			<path class="st3" d="M177.4,98.3c0,11.7-5.3,21.2-11.8,21.2s-11.8-9.5-11.8-21.2c0-11.7,5.3-21.2,11.8-21.2
				S177.4,86.6,177.4,98.3z"/>
		</g>
	</g>
</g>
<g id="Cover_x5F_Compass_x5F_negativ" class="st0">
	<g class="st1">
		<g>
			<path class="st4" d="M109.3,60.8v169.7 M196.9-10.6l-87.6,44.3L21.7-10.6 M109.3,60.8L218.8,6v169.7l-109.5,54.7L-0.2,175.8V6
				L109.3,60.8z"/>
			<path class="st5" d="M167.5,121.4c-13.2,2.9-26,30.2-26,62l50-24.3C191.5,127.3,180.7,118.9,167.5,121.4z"/>
		</g>
		<polygon class="st4" points="125.8,73.1 202.4,34.8 202.4,153.6 125.8,191.9 125.8,153.6 125.8,111.4 		"/>
		<g>
			<path class="st5" d="M178.2,98.2c0,11.7-5.3,21.2-11.8,21.2s-11.8-9.5-11.8-21.2c0-11.7,5.3-21.2,11.8-21.2
				S178.2,86.5,178.2,98.2z"/>
		</g>
	</g>
</g>
<g id="Survey_x5F_Scripting" class="st0">
	<g class="st1">
		<path class="st6" d="M225.8,145c0-11.3-9.2-20.6-20.6-20.6H9.9c-11.3,0-20.6,9.3-20.6,20.6v61.7c0,11.3,9.3,20.6,20.6,20.6h195.3
			c11.3,0,20.6-9.3,20.6-20.6V145z"/>
		<g>
			<g>
				<g>
					<path class="st7" d="M92.3,144.9v0.3H92v-0.3H92.3 M97.3,139.9H87v10.3h10.3V139.9L97.3,139.9z"/>
				</g>
			</g>
		</g>
		<g>
			<g>
				<g>
					<path class="st7" d="M123.1,144.9v0.3h-0.3v-0.3H123.1 M128.1,139.9h-10.3v10.3h10.3V139.9L128.1,139.9z"/>
				</g>
			</g>
		</g>
		<g>
			<g>
				<g>
					<path class="st7" d="M154,144.9v0.3h-0.3v-0.3H154 M159,139.9h-10.3v10.3H159V139.9L159,139.9z"/>
				</g>
			</g>
		</g>
		<g>
			<g>
				<g>
					<path class="st7" d="M184.8,144.9v0.3h-0.3v-0.3H184.8 M189.8,139.9h-10.3v10.3h10.3V139.9L189.8,139.9z"/>
				</g>
			</g>
		</g>
		<g>
			<g>
				<g>
					<path class="st7" d="M61.5,144.9v0.3h-0.3v-0.3H61.5 M66.5,139.9H56.2v10.3h10.3V139.9L66.5,139.9z"/>
				</g>
			</g>
		</g>
		<g>
			<g>
				<g>
					<path class="st7" d="M30.6,144.9v0.3h-0.3v-0.3H30.6 M35.6,139.9H25.3v10.3h10.3V139.9L35.6,139.9z"/>
				</g>
			</g>
		</g>
		<g>
			<g>
				<g>
					<path class="st7" d="M92.3,165.5v0.3H92v-0.3H92.3 M97.3,160.5H87v10.3h10.3V160.5L97.3,160.5z"/>
				</g>
			</g>
		</g>
		<g>
			<g>
				<g>
					<path class="st7" d="M123.1,165.5v0.3h-0.3v-0.3H123.1 M128.1,160.5h-10.3v10.3h10.3V160.5L128.1,160.5z"/>
				</g>
			</g>
		</g>
		<g>
			<g>
				<g>
					<path class="st7" d="M154,165.5v0.3h-0.3v-0.3H154 M159,160.5h-10.3v10.3H159V160.5L159,160.5z"/>
				</g>
			</g>
		</g>
		<g>
			<g>
				<g>
					<path class="st7" d="M184.8,165.5v0.3h-0.3v-0.3H184.8 M189.8,160.5h-10.3v10.3h10.3V160.5L189.8,160.5z"/>
				</g>
			</g>
		</g>
		<g>
			<g>
				<g>
					<path class="st7" d="M61.5,165.5v0.3h-0.3v-0.3H61.5 M66.5,160.5H56.2v10.3h10.3V160.5L66.5,160.5z"/>
				</g>
			</g>
		</g>
		<g>
			<g>
				<g>
					<path class="st7" d="M30.6,165.5v0.3h-0.3v-0.3H30.6 M35.6,160.5H25.3v10.3h10.3V160.5L35.6,160.5z"/>
				</g>
			</g>
		</g>
		<g>
			<g>
				<g>
					<path class="st7" d="M92.3,186v0.3H92V186H92.3 M97.3,181H87v10.3h10.3V181L97.3,181z"/>
				</g>
			</g>
		</g>
		<g>
			<g>
				<g>
					<path class="st7" d="M123.1,186v0.3h-0.3V186H123.1 M128.1,181h-10.3v10.3h10.3V181L128.1,181z"/>
				</g>
			</g>
		</g>
		<g>
			<g>
				<g>
					<path class="st7" d="M154,186v0.3h-0.3V186H154 M159,181h-10.3v10.3H159V181L159,181z"/>
				</g>
			</g>
		</g>
		<g>
			<g>
				<g>
					<path class="st7" d="M184.8,186v0.3h-0.3V186H184.8 M189.8,181h-10.3v10.3h10.3V181L189.8,181z"/>
				</g>
			</g>
		</g>
		<g>
			<g>
				<g>
					<path class="st7" d="M61.5,186v0.3h-0.3V186H61.5 M66.5,181H56.2v10.3h10.3V181L66.5,181z"/>
				</g>
			</g>
		</g>
		<g>
			<g>
				<g>
					<path class="st7" d="M30.6,186v0.3h-0.3V186H30.6 M35.6,181H25.3v10.3h10.3V181L35.6,181z"/>
				</g>
			</g>
		</g>
		<path class="st6" d="M20.2,124.5v-10.3c0-17,13.8-30.8,30.8-30.8h138.8c19.9,0,36-16.1,36-36c0-19.9-16.1-36-36-36H123
			c-8.5,0-15.4-6.9-15.4-15.4v-5.1"/>
		<line class="st8" x1="35.6" y1="206.7" x2="179.5" y2="206.7"/>
	</g>
</g>
<g id="Survey_x5F_Scripting_x5F_negativ" class="st0">
	<g class="st1">
		<path class="st4" d="M225.8,145c0-11.3-9.2-20.6-20.6-20.6H9.9c-11.3,0-20.6,9.3-20.6,20.6v61.7c0,11.3,9.3,20.6,20.6,20.6h195.3
			c11.3,0,20.6-9.3,20.6-20.6V145z"/>
		<g>
			<g>
				<g>
					<path class="st9" d="M92.3,144.9v0.3H92v-0.3H92.3 M97.3,139.9H87v10.3h10.3V139.9L97.3,139.9z"/>
				</g>
			</g>
		</g>
		<g>
			<g>
				<g>
					<path class="st9" d="M123.1,144.9v0.3h-0.3v-0.3H123.1 M128.1,139.9h-10.3v10.3h10.3V139.9L128.1,139.9z"/>
				</g>
			</g>
		</g>
		<g>
			<g>
				<g>
					<path class="st9" d="M154,144.9v0.3h-0.3v-0.3H154 M159,139.9h-10.3v10.3H159V139.9L159,139.9z"/>
				</g>
			</g>
		</g>
		<g>
			<g>
				<g>
					<path class="st9" d="M184.8,144.9v0.3h-0.3v-0.3H184.8 M189.8,139.9h-10.3v10.3h10.3V139.9L189.8,139.9z"/>
				</g>
			</g>
		</g>
		<g>
			<g>
				<g>
					<path class="st9" d="M61.5,144.9v0.3h-0.3v-0.3H61.5 M66.5,139.9H56.2v10.3h10.3V139.9L66.5,139.9z"/>
				</g>
			</g>
		</g>
		<g>
			<g>
				<g>
					<path class="st9" d="M30.6,144.9v0.3h-0.3v-0.3H30.6 M35.6,139.9H25.3v10.3h10.3V139.9L35.6,139.9z"/>
				</g>
			</g>
		</g>
		<g>
			<g>
				<g>
					<path class="st9" d="M92.3,165.5v0.3H92v-0.3H92.3 M97.3,160.5H87v10.3h10.3V160.5L97.3,160.5z"/>
				</g>
			</g>
		</g>
		<g>
			<g>
				<g>
					<path class="st9" d="M123.1,165.5v0.3h-0.3v-0.3H123.1 M128.1,160.5h-10.3v10.3h10.3V160.5L128.1,160.5z"/>
				</g>
			</g>
		</g>
		<g>
			<g>
				<g>
					<path class="st9" d="M154,165.5v0.3h-0.3v-0.3H154 M159,160.5h-10.3v10.3H159V160.5L159,160.5z"/>
				</g>
			</g>
		</g>
		<g>
			<g>
				<g>
					<path class="st9" d="M184.8,165.5v0.3h-0.3v-0.3H184.8 M189.8,160.5h-10.3v10.3h10.3V160.5L189.8,160.5z"/>
				</g>
			</g>
		</g>
		<g>
			<g>
				<g>
					<path class="st9" d="M61.5,165.5v0.3h-0.3v-0.3H61.5 M66.5,160.5H56.2v10.3h10.3V160.5L66.5,160.5z"/>
				</g>
			</g>
		</g>
		<g>
			<g>
				<g>
					<path class="st9" d="M30.6,165.5v0.3h-0.3v-0.3H30.6 M35.6,160.5H25.3v10.3h10.3V160.5L35.6,160.5z"/>
				</g>
			</g>
		</g>
		<g>
			<g>
				<g>
					<path class="st9" d="M92.3,186v0.3H92V186H92.3 M97.3,181H87v10.3h10.3V181L97.3,181z"/>
				</g>
			</g>
		</g>
		<g>
			<g>
				<g>
					<path class="st9" d="M123.1,186v0.3h-0.3V186H123.1 M128.1,181h-10.3v10.3h10.3V181L128.1,181z"/>
				</g>
			</g>
		</g>
		<g>
			<g>
				<g>
					<path class="st9" d="M154,186v0.3h-0.3V186H154 M159,181h-10.3v10.3H159V181L159,181z"/>
				</g>
			</g>
		</g>
		<g>
			<g>
				<g>
					<path class="st9" d="M184.8,186v0.3h-0.3V186H184.8 M189.8,181h-10.3v10.3h10.3V181L189.8,181z"/>
				</g>
			</g>
		</g>
		<g>
			<g>
				<g>
					<path class="st9" d="M61.5,186v0.3h-0.3V186H61.5 M66.5,181H56.2v10.3h10.3V181L66.5,181z"/>
				</g>
			</g>
		</g>
		<g>
			<g>
				<g>
					<path class="st9" d="M30.6,186v0.3h-0.3V186H30.6 M35.6,181H25.3v10.3h10.3V181L35.6,181z"/>
				</g>
			</g>
		</g>
		<path class="st4" d="M20.2,124.5v-10.3c0-17,13.8-30.8,30.8-30.8h138.8c19.9,0,36-16.1,36-36c0-19.9-16.1-36-36-36H123
			c-8.5,0-15.4-6.9-15.4-15.4v-5.1"/>
		<line class="st5" x1="35.6" y1="206.7" x2="179.5" y2="206.7"/>
	</g>
</g>
<g id="Telephone_Interview" class="st0">
	<g class="st1">
		<g>
			<path class="st2" d="M165.4,171.1h20.5c11.3,0,20.5-9.2,20.5-20.5V89c0-11.3-9.2-20.5-20.5-20.5h-20.5V171.1z M206.4,140.3
				c11.3,0,20.5-9.2,20.5-20.5s-9.2-20.5-20.5-20.5 M52.4,171.1H31.9c-11.3,0-20.5-9.2-20.5-20.5V89c0-11.3,9.2-20.5,20.5-20.5h20.5
				V171.1z M134.6,212.2c0,8.5-6.9,15.4-15.4,15.4s-15.4-6.9-15.4-15.4s6.9-15.4,15.4-15.4S134.6,203.7,134.6,212.2z M134.6,212.2
				h20.5c19.9,0,35.9-10.9,35.9-30.8v-10.9 M11.3,140.3c-11.3,0-20.5-9.2-20.5-20.5S0,99.3,11.3,99.3"/>
			<path class="st3" d="M37,68.5c0-39.7,32.2-71.9,71.9-71.9c39.7,0,71.9,32.2,71.9,71.9"/>
		</g>
	</g>
</g>
<g id="Telephone_Interview_x5F_negativ" class="st0">
	<g class="st1">
		<g>
			<path class="st4" d="M165.4,171.1h20.5c11.3,0,20.5-9.2,20.5-20.5V89c0-11.3-9.2-20.5-20.5-20.5h-20.5V171.1z M206.4,140.3
				c11.3,0,20.5-9.2,20.5-20.5s-9.2-20.5-20.5-20.5 M52.4,171.1H31.9c-11.3,0-20.5-9.2-20.5-20.5V89c0-11.3,9.2-20.5,20.5-20.5h20.5
				V171.1z M134.6,212.2c0,8.5-6.9,15.4-15.4,15.4s-15.4-6.9-15.4-15.4s6.9-15.4,15.4-15.4S134.6,203.7,134.6,212.2z M134.6,212.2
				h20.5c19.9,0,35.9-10.9,35.9-30.8v-10.9 M11.3,140.3c-11.3,0-20.5-9.2-20.5-20.5S0,99.3,11.3,99.3"/>
			<path class="st5" d="M37,68.5c0-39.7,32.2-71.9,71.9-71.9c39.7,0,71.9,32.2,71.9,71.9"/>
		</g>
	</g>
</g>
<g id="Personal_x5F_Interviews" class="st0">
	<g class="st1">
		<g>
			<path class="st2" d="M171,144.2V73.6c0-7.8,6.3-14.1,14.1-14.1h5.5 M189.8,130.1H218 M189.8,195.9H218 M218,200.7
				c0,7.8-6.3,14.1-14.1,14.1c-7.8,0-14.1-6.3-14.1-14.1V64.2c0-7.8,6.3-14.1,14.1-14.1c7.8,0,14.1,6.3,14.1,14.1V200.7z
				 M48.7,125.4l4.7,4.7l18.8-18.8 M48.7,87.8l4.7,4.7l18.8-18.8 M86.3,167.7H124 M86.3,130.1H124 M86.3,92.5H124 M142.8,54.8
				c15.6,0,28.2-12.6,28.2-28.2c0-15.6-12.6-28.2-28.2-28.2H29.9 M29.9,148.9H1.6V26.6C1.6,11,14.3-1.6,29.9-1.6S58.1,11,58.1,26.6
				c0,15.6-12.6,28.2-28.2,28.2V36h26.3 M142.8,214.8H29.9V54.8h112.9V214.8z"/>
		</g>
	</g>
</g>
<g id="Personal_x5F_Interviews_x5F_negativ" class="st0">
	<g class="st1">
		<g>
			<path class="st4" d="M171,144.2V73.6c0-7.8,6.3-14.1,14.1-14.1h5.5 M189.8,130.1H218 M189.8,195.9H218 M218,200.7
				c0,7.8-6.3,14.1-14.1,14.1c-7.8,0-14.1-6.3-14.1-14.1V64.2c0-7.8,6.3-14.1,14.1-14.1c7.8,0,14.1,6.3,14.1,14.1V200.7z
				 M48.7,125.4l4.7,4.7l18.8-18.8 M48.7,87.8l4.7,4.7l18.8-18.8 M86.3,167.7H124 M86.3,130.1H124 M86.3,92.5H124 M142.8,54.8
				c15.6,0,28.2-12.6,28.2-28.2c0-15.6-12.6-28.2-28.2-28.2H29.9 M29.9,148.9H1.6V26.6C1.6,11,14.3-1.6,29.9-1.6S58.1,11,58.1,26.6
				c0,15.6-12.6,28.2-28.2,28.2V36h26.3 M142.8,214.8H29.9V54.8h112.9V214.8z"/>
		</g>
	</g>
</g>
<g id="Focus_x5F_Groups" class="st0">
	<g class="st1">
		<g>
			<path class="st2" d="M77.3,65.4h64.3 M77.3,47h64.3 M77.3,28.5h64.3 M146.4,222.3H72.6c0-20.4,16.5-36.9,36.9-36.9
				S146.4,202,146.4,222.3z M132.6,162.4c0,12.7-10.3,23.1-23.1,23.1s-23.1-10.3-23.1-23.1c0-12.7,10.3-23.1,23.1-23.1
				S132.6,149.7,132.6,162.4z M77.3,194.7H3.5c0-20.4,16.5-36.9,36.9-36.9S77.3,174.3,77.3,194.7z M63.4,134.7
				c0,12.7-10.3,23.1-23.1,23.1s-23.1-10.3-23.1-23.1c0-12.7,10.3-23.1,23.1-23.1S63.4,122,63.4,134.7z M215.6,194.7h-73.8
				c0-20.4,16.5-36.9,36.9-36.9C199.1,157.8,215.6,174.3,215.6,194.7z M201.8,134.7c0,12.7-10.3,23.1-23.1,23.1
				c-12.7,0-23.1-10.3-23.1-23.1c0-12.7,10.3-23.1,23.1-23.1C191.4,111.7,201.8,122,201.8,134.7z M49.6,83.9c0,5.1,4.1,9.2,9.2,9.2
				H68l27.7,27.7V93.1h64.6c5.1,0,9.2-4.1,9.2-9.2V19.3c0-5.1-4.1-9.2-9.2-9.2H58.8c-5.1,0-9.2,4.1-9.2,9.2V83.9z"/>
		</g>
	</g>
</g>
<g id="Focus_x5F_Groups_x5F_negativ" class="st0">
	<g class="st1">
		<g>
			<path class="st4" d="M77.3,65.4h64.3 M77.3,47h64.3 M77.3,28.5h64.3 M146.4,222.3H72.6c0-20.4,16.5-36.9,36.9-36.9
				S146.4,202,146.4,222.3z M132.6,162.4c0,12.7-10.3,23.1-23.1,23.1s-23.1-10.3-23.1-23.1c0-12.7,10.3-23.1,23.1-23.1
				S132.6,149.7,132.6,162.4z M77.3,194.7H3.5c0-20.4,16.5-36.9,36.9-36.9S77.3,174.3,77.3,194.7z M63.4,134.7
				c0,12.7-10.3,23.1-23.1,23.1s-23.1-10.3-23.1-23.1c0-12.7,10.3-23.1,23.1-23.1S63.4,122,63.4,134.7z M215.6,194.7h-73.8
				c0-20.4,16.5-36.9,36.9-36.9C199.1,157.8,215.6,174.3,215.6,194.7z M201.8,134.7c0,12.7-10.3,23.1-23.1,23.1
				c-12.7,0-23.1-10.3-23.1-23.1c0-12.7,10.3-23.1,23.1-23.1C191.4,111.7,201.8,122,201.8,134.7z M49.6,83.9c0,5.1,4.1,9.2,9.2,9.2
				H68l27.7,27.7V93.1h64.6c5.1,0,9.2-4.1,9.2-9.2V19.3c0-5.1-4.1-9.2-9.2-9.2H58.8c-5.1,0-9.2,4.1-9.2,9.2V83.9z"/>
		</g>
	</g>
</g>
<g id="Product_x5F_Pilot" class="st0">
	<g class="st1">
		<g>
			<path class="st3" d="M217.2,151.8c0,36.1-29.3,65.3-65.3,65.3c-36.1,0-65.3-29.2-65.3-65.3c0-36.1,29.2-65.3,65.3-65.3
				C187.9,86.5,217.2,115.8,217.2,151.8z"/>
			<path class="st2" d="M67.8,2.5v37.3 M133.2,39.8H2.5L39.8,2.5h56L133.2,39.8z M58.5,142.5h-56V39.8h130.7v18.7"/>
			<path d="M150.3,172.7h8.2v8.2h-8.2V172.7z M150.7,166.5c0-1,0-1.7,0-2.1c0-2.8,0.4-5.3,1.2-7.3c0.6-1.5,1.5-3.1,2.8-4.7
				c1-1.1,2.7-2.8,5.2-5c2.5-2.2,4.1-3.9,4.9-5.2c0.7-1.3,1.1-2.7,1.1-4.3c0-2.8-1.1-5.2-3.3-7.4c-2.2-2.1-4.8-3.2-8-3.2
				c-3.1,0-5.6,1-7.7,2.9c-2,1.9-3.4,4.9-4,9l-7.4-0.9c0.7-5.4,2.6-9.6,5.9-12.5c3.3-2.9,7.6-4.3,13-4.3c5.7,0,10.3,1.5,13.7,4.7
				c3.4,3.1,5.1,6.9,5.1,11.3c0,2.6-0.6,4.9-1.8,7.1c-1.2,2.2-3.5,4.8-7,7.8c-2.3,2.1-3.9,3.6-4.6,4.6c-0.7,1-1.3,2.1-1.6,3.4
				c-0.3,1.3-0.5,3.4-0.6,6.2H150.7z"/>
			<path d="M150.3,172.7h8.2v8.2h-8.2V172.7z M150.7,166.5c0-1,0-1.7,0-2.1c0-2.8,0.4-5.3,1.2-7.3c0.6-1.5,1.5-3.1,2.8-4.7
				c1-1.1,2.7-2.8,5.2-5c2.5-2.2,4.1-3.9,4.9-5.2c0.7-1.3,1.1-2.7,1.1-4.3c0-2.8-1.1-5.2-3.3-7.4c-2.2-2.1-4.8-3.2-8-3.2
				c-3.1,0-5.6,1-7.7,2.9c-2,1.9-3.4,4.9-4,9l-7.4-0.9c0.7-5.4,2.6-9.6,5.9-12.5c3.3-2.9,7.6-4.3,13-4.3c5.7,0,10.3,1.5,13.7,4.7
				c3.4,3.1,5.1,6.9,5.1,11.3c0,2.6-0.6,4.9-1.8,7.1c-1.2,2.2-3.5,4.8-7,7.8c-2.3,2.1-3.9,3.6-4.6,4.6c-0.7,1-1.3,2.1-1.6,3.4
				c-0.3,1.3-0.5,3.4-0.6,6.2H150.7z"/>
		</g>
	</g>
</g>
<g id="Product_x5F_Pilot_x5F_negativ">
	<g>
		<g>
			<path class="st5" d="M217.2,151.8c0,36.1-29.3,65.3-65.3,65.3c-36.1,0-65.3-29.2-65.3-65.3c0-36.1,29.2-65.3,65.3-65.3
				C187.9,86.5,217.2,115.8,217.2,151.8z"/>
			<path class="st4" d="M67.8,2.5v37.3 M133.2,39.8H2.5L39.8,2.5h56L133.2,39.8z M58.5,142.5h-56V39.8h130.7v18.7"/>
			<path class="st10" d="M150.3,172.7h8.2v8.2h-8.2V172.7z M150.7,166.5c0-1,0-1.7,0-2.1c0-2.8,0.4-5.3,1.2-7.3
				c0.6-1.5,1.5-3.1,2.8-4.7c1-1.1,2.7-2.8,5.2-5c2.5-2.2,4.1-3.9,4.9-5.2c0.7-1.3,1.1-2.7,1.1-4.3c0-2.8-1.1-5.2-3.3-7.4
				c-2.2-2.1-4.8-3.2-8-3.2c-3.1,0-5.6,1-7.7,2.9c-2,1.9-3.4,4.9-4,9l-7.4-0.9c0.7-5.4,2.6-9.6,5.9-12.5c3.3-2.9,7.6-4.3,13-4.3
				c5.7,0,10.3,1.5,13.7,4.7c3.4,3.1,5.1,6.9,5.1,11.3c0,2.6-0.6,4.9-1.8,7.1c-1.2,2.2-3.5,4.8-7,7.8c-2.3,2.1-3.9,3.6-4.6,4.6
				c-0.7,1-1.3,2.1-1.6,3.4c-0.3,1.3-0.5,3.4-0.6,6.2H150.7z"/>
			<path class="st10" d="M150.3,172.7h8.2v8.2h-8.2V172.7z M150.7,166.5c0-1,0-1.7,0-2.1c0-2.8,0.4-5.3,1.2-7.3
				c0.6-1.5,1.5-3.1,2.8-4.7c1-1.1,2.7-2.8,5.2-5c2.5-2.2,4.1-3.9,4.9-5.2c0.7-1.3,1.1-2.7,1.1-4.3c0-2.8-1.1-5.2-3.3-7.4
				c-2.2-2.1-4.8-3.2-8-3.2c-3.1,0-5.6,1-7.7,2.9c-2,1.9-3.4,4.9-4,9l-7.4-0.9c0.7-5.4,2.6-9.6,5.9-12.5c3.3-2.9,7.6-4.3,13-4.3
				c5.7,0,10.3,1.5,13.7,4.7c3.4,3.1,5.1,6.9,5.1,11.3c0,2.6-0.6,4.9-1.8,7.1c-1.2,2.2-3.5,4.8-7,7.8c-2.3,2.1-3.9,3.6-4.6,4.6
				c-0.7,1-1.3,2.1-1.6,3.4c-0.3,1.3-0.5,3.4-0.6,6.2H150.7z"/>
		</g>
	</g>
</g>
<g id="Data_x5F_Delivery" class="st0">
	<g class="st1">
		<g>
			<rect x="-3.8" y="153.7" class="st8" width="37.7" height="66"/>
			<path class="st6" d="M33.9,210.3h160.3c0-14.1-33-28.3-70.7-28.3h-66"/>
			<path class="st8" d="M33.9,163.1h33c22.2,0,33,14.1,37.7,18.9"/>
		</g>
		<g>
			<g>
				<rect x="109.4" y="78.2" class="st6" width="103.7" height="37.7"/>
				<polyline class="st6" points="109.4,78.2 109.4,2.8 213.1,2.8 213.1,78.2 				"/>
				<line class="st6" x1="128.2" y1="59.4" x2="137.7" y2="59.4"/>
				<line class="st6" x1="156.5" y1="59.4" x2="166" y2="59.4"/>
				<line class="st6" x1="128.2" y1="21.6" x2="137.7" y2="21.6"/>
				<line class="st6" x1="156.5" y1="21.6" x2="166" y2="21.6"/>
				<line class="st6" x1="128.2" y1="97.1" x2="137.7" y2="97.1"/>
				<line class="st6" x1="156.5" y1="97.1" x2="166" y2="97.1"/>
			</g>
			<line class="st6" x1="109.4" y1="40.5" x2="213.1" y2="40.5"/>
		</g>
	</g>
</g>
<g id="Dashboards" class="st0">
	<g class="st1">
		<path class="st6" d="M125.2,139.4c0,7.3-5.9,13.2-13.2,13.2s-13.2-5.9-13.2-13.2c0-7.3,5.9-13.2,13.2-13.2
			S125.2,132.1,125.2,139.4z"/>
		<line class="st6" x1="121.3" y1="130.1" x2="165" y2="86.4"/>
		<line class="st6" x1="28.1" y1="143.8" x2="45.8" y2="143.8"/>
		<line class="st6" x1="195.8" y1="143.8" x2="178.2" y2="143.8"/>
		<line class="st6" x1="189.4" y1="107.3" x2="173.1" y2="114.1"/>
		<line class="st6" x1="144" y1="62" x2="137.3" y2="78.3"/>
		<line class="st6" x1="112" y1="55.6" x2="112" y2="73.2"/>
		<line class="st6" x1="79.9" y1="62" x2="86.6" y2="78.3"/>
		<line class="st6" x1="52.7" y1="80.1" x2="65.1" y2="92.6"/>
		<line class="st6" x1="34.5" y1="107.3" x2="50.8" y2="114.1"/>
		<path class="st6" d="M112,37.9c-56.1,0-101.5,45.4-101.5,101.5v39.7h203v-39.7C213.5,83.4,168,37.9,112,37.9z"/>
	</g>
</g>
<g id="Mystery_x5F_Shopping" class="st0">
	<g class="st1">
		<path class="st3" d="M222.5,175.8c0,26.9-21.8,48.6-48.6,48.6c-26.9,0-48.6-21.8-48.6-48.6c0-26.8,21.8-48.6,48.6-48.6
			S222.5,148.9,222.5,175.8z"/>
		<path class="st2" d="M64.9,136.9h45.5 M207.7,103.3l14.7-44.2H46.6 M-1.2,0.8h34l38.9,165.3h38.9 M57.1,180.7
			c0,8.1,6.5,14.6,14.6,14.6c8.1,0,14.6-6.5,14.6-14.6c0-8.1-6.5-14.6-14.6-14.6C63.7,166.1,57.1,172.6,57.1,180.7z"/>
		<path d="M171.8,192.8h6.8v6.8h-6.8V192.8z M172.2,187.6c0-0.8,0-1.4,0-1.8c0-2.3,0.3-4.4,1-6.1c0.5-1.3,1.3-2.6,2.4-3.9
			c0.8-1,2.2-2.3,4.3-4.2c2.1-1.8,3.4-3.3,4-4.4c0.6-1.1,0.9-2.3,0.9-3.5c0-2.3-0.9-4.4-2.7-6.1c-1.8-1.8-4-2.6-6.7-2.6
			c-2.5,0-4.7,0.8-6.4,2.4c-1.7,1.6-2.8,4.1-3.3,7.5l-6.1-0.7c0.6-4.5,2.2-8,4.9-10.4c2.7-2.4,6.3-3.6,10.8-3.6
			c4.7,0,8.5,1.3,11.4,3.9c2.8,2.6,4.2,5.7,4.2,9.4c0,2.1-0.5,4.1-1.5,5.9c-1,1.8-2.9,4-5.8,6.5c-1.9,1.7-3.2,3-3.8,3.8
			c-0.6,0.8-1,1.8-1.3,2.8c-0.3,1.1-0.5,2.8-0.5,5.2H172.2z"/>
		<path d="M171.8,192.8h6.8v6.8h-6.8V192.8z M172.6,187.7c0-0.8-0.1-1.4-0.1-1.8c0-2.3,0.2-4.4,0.9-6.1c0.5-1.3,1.2-2.6,2.3-3.9
			c0.8-1,2.2-2.4,4.2-4.2c2-1.9,3.3-3.3,3.9-4.4c0.6-1.1,0.9-2.3,0.9-3.6c0-2.3-1-4.3-2.8-6.1c-1.8-1.7-4.1-2.6-6.7-2.5
			c-2.5,0.1-4.6,0.9-6.3,2.5c-1.7,1.6-2.7,4.1-3.2,7.5l-6.1-0.6c0.5-4.5,2-8,4.7-10.5c2.7-2.5,6.3-3.7,10.7-3.8
			c4.7-0.1,8.6,1.1,11.4,3.7c2.9,2.5,4.4,5.6,4.4,9.3c0,2.1-0.4,4.1-1.4,5.9c-1,1.8-2.9,4-5.7,6.6c-1.9,1.8-3.2,3.1-3.7,3.9
			c-0.6,0.8-1,1.8-1.3,2.8c-0.3,1.1-0.4,2.8-0.4,5.2L172.6,187.7z"/>
	</g>
</g>
<g id="Online_x5F_Data_x5F_Collection" class="st0">
	<g class="st1">
		<line class="st2" x1="16.1" y1="163.5" x2="108.9" y2="163.5"/>
		<line class="st3" x1="21.7" y1="53.4" x2="195.9" y2="53.4"/>
		<g>
			<path class="st2" d="M115.5,7.8c27.7,30,41.2,64.5,40.8,100.7 M102.1,7.8c-55,59.6-54.1,137.2,1,210.6 M103.1,218.4
				c-55.6-3-99.8-49-99.8-105.4C3.3,54.8,50.5,7.5,108.8,7.5c56.7,0,103.1,44.8,105.5,100.9 M214.3,108.4H3.4"/>
			<path class="st3" d="M195.9,156.6c0,16.5-12.3,29.8-27.5,29.8c-15.2,0-27.5-13.4-27.5-29.8c0-16.5,12.3-29.8,27.5-29.8
				C183.6,126.8,195.9,140.1,195.9,156.6z M195.5,151.5c-4.6,4.6-17.7,4.4-22.7-4.8c-9.2,9.2-24.1,9.2-31.5,3.9 M182.2,182.4v13.2
				l23.1,6.6c4.9,1.4,9,6.7,9,11.7v4.6h-91.7V214c0-5,4.1-10.3,9-11.7l23.1-6.6v-13.2"/>
		</g>
	</g>
</g>
<g id="Tracking_x5F_Studies" class="st0">
	<g class="st1">
		<g>
			<path class="st2" d="M31.5,107.1l42.6-35.5 M205.5,17.8c0,5.3-4.3,9.5-9.5,9.5c-5.3,0-9.5-4.3-9.5-9.5c0-5.3,4.3-9.5,9.5-9.5
				C201.2,8.2,205.5,12.5,205.5,17.8z M148.2,84.6c0,5.3-4.3,9.5-9.5,9.5c-5.3,0-9.5-4.3-9.5-9.5c0-5.3,4.3-9.5,9.5-9.5
				C143.9,75,148.2,79.3,148.2,84.6z M91,65.5c0,5.3-4.3,9.5-9.5,9.5c-5.3,0-9.5-4.3-9.5-9.5c0-5.3,4.3-9.5,9.5-9.5
				C86.7,55.9,91,60.2,91,65.5z M33.7,113.2c0,5.3-4.3,9.5-9.5,9.5c-5.3,0-9.5-4.3-9.5-9.5c0-5.3,4.3-9.5,9.5-9.5
				C29.4,103.6,33.7,107.9,33.7,113.2z M210.2,84.6h-28.6v143.2h28.6V84.6z M153,151.4h-28.6v76.3H153V151.4z M95.7,132.3H67.1v95.4
				h28.6V132.3z M38.5,180H9.8v47.7h28.6V180z M0.3,227.7h219.5"/>
		</g>
		<line class="st3" x1="90.4" y1="68.5" x2="129.9" y2="81.6"/>
		<line class="st2" x1="189.7" y1="25" x2="144.9" y2="77.3"/>
	</g>
</g>
<g id="Layer_31" class="st0">
	<g class="st1">
		<g>
			<path class="st2" d="M24.7,95.9L70.2,58 M210.5,0.5c0,5.6-4.6,10.2-10.2,10.2c-5.6,0-10.2-4.6-10.2-10.2
				c0-5.6,4.6-10.2,10.2-10.2C206-9.7,210.5-5.1,210.5,0.5z M149.4,71.9c0,5.6-4.6,10.2-10.2,10.2c-5.6,0-10.2-4.6-10.2-10.2
				c0-5.6,4.6-10.2,10.2-10.2C144.8,61.7,149.4,66.2,149.4,71.9z M88.2,51.5c0,5.6-4.6,10.2-10.2,10.2c-5.6,0-10.2-4.6-10.2-10.2
				c0-5.6,4.6-10.2,10.2-10.2C83.7,41.3,88.2,45.9,88.2,51.5z M27.1,102.4c0,5.6-4.6,10.2-10.2,10.2c-5.6,0-10.2-4.6-10.2-10.2
				c0-5.6,4.6-10.2,10.2-10.2C22.5,92.2,27.1,96.8,27.1,102.4z M215.6,76.9H185v152.8h30.6V76.9z M154.5,148.2h-30.6v81.5h30.6
				V148.2z M93.3,127.8H62.8v101.9h30.6V127.8z M32.2,178.8H1.6v50.9h30.6V178.8z M-8.6,229.7h234.4"/>
		</g>
		<line class="st3" x1="87.7" y1="54.7" x2="129.8" y2="68.7"/>
		<line class="st2" x1="193.7" y1="8.3" x2="145.8" y2="64.1"/>
	</g>
</g>
<g id="Audience_x5F_Analytics" class="st0">
	<g class="st1">
		<g>
			<path class="st2" d="M107.7,209.1V230 M76.4,230H139"/>
		</g>
		<line class="st3" x1="24.3" y1="188.3" x2="191.2" y2="188.3"/>
		<g>
			<path class="st2" d="M87,89l20.7-15.5l21,15.6 M107.7,125.5v-52 M191.2,73.5l-51.8,52 M191.2,99.6V73.5h-26.1 M24.3,73.5l51.8,52
				 M133.8,52.7H81.7c0-17.3,11.7-31.3,26.1-31.3S133.8,35.4,133.8,52.7z M123.4,5.7c0,8.6-7,15.6-15.6,15.6s-15.6-7-15.6-15.6
				c0-8.6,7-15.6,15.6-15.6S123.4-2.9,123.4,5.7z M222.5,52.7h-52.2c0-17.3,11.7-31.3,26.1-31.3C210.8,21.4,222.5,35.4,222.5,52.7z
				 M212.1,5.7c0,8.6-7,15.6-15.6,15.6c-8.6,0-15.6-7-15.6-15.6c0-8.6,7-15.6,15.6-15.6C205.1-9.9,212.1-2.9,212.1,5.7z M45.2,52.7
				H-7c0-17.3,11.7-31.3,26.1-31.3S45.2,35.4,45.2,52.7z M34.7,5.7c0,8.6-7,15.6-15.6,15.6S3.4,14.4,3.4,5.7c0-8.6,7-15.6,15.6-15.6
				S34.7-2.9,34.7,5.7z M24.3,99.6V73.5h26.1 M191.2,120.5v73c0,8.6-7,15.6-15.6,15.6H39.9c-8.7,0-15.6-7-15.6-15.6v-73"/>
		</g>
	</g>
</g>
<g id="Audience_x5F_Analytics_x5F_weiß" class="st0">
	<g class="st1">
		<g>
			<path class="st4" d="M107.9,207.7v20.7 M76.8,228.4H139"/>
		</g>
		<line class="st5" x1="25" y1="187" x2="190.8" y2="187"/>
		<g>
			<path class="st4" d="M87.3,88.4L107.9,73l20.9,15.5 M107.9,124.6V73 M190.8,73l-51.5,51.7 M190.8,98.9V73h-25.9 M25,73l51.5,51.7
				 M133.8,52.2H82c0-17.2,11.6-31.1,25.9-31.1S133.8,35.1,133.8,52.2z M123.4,5.6c0,8.6-7,15.5-15.5,15.5s-15.5-7-15.5-15.5
				c0-8.6,7-15.5,15.5-15.5S123.4-3,123.4,5.6z M221.9,52.2h-51.8c0-17.2,11.6-31.1,25.9-31.1C210.3,21.2,221.9,35.1,221.9,52.2z
				 M211.5,5.6c0,8.6-7,15.5-15.5,15.5c-8.6,0-15.5-7-15.5-15.5c0-8.6,7-15.5,15.5-15.5C204.6-9.9,211.5-3,211.5,5.6z M45.7,52.2
				H-6.1c0-17.2,11.6-31.1,25.9-31.1S45.7,35.1,45.7,52.2z M35.3,5.6c0,8.6-7,15.5-15.5,15.5c-8.6,0-15.5-7-15.5-15.5
				c0-8.6,7-15.5,15.5-15.5C28.4-9.9,35.3-3,35.3,5.6z M25,98.9V73h25.9 M190.8,119.6v72.5c0,8.6-7,15.5-15.5,15.5H40.5
				c-8.6,0-15.5-7-15.5-15.5v-72.5"/>
		</g>
	</g>
</g>
<g id="PDF" class="st0">
	<g class="st1">
		<polygon class="st6" points="202.8,226.5 12.3,226.5 12.3,-4.2 142.6,-4.2 202.8,56 		"/>
		<path class="st6" d="M102.5,176.3v-50.1h10c11.6,0,20.1,10.7,20.1,25.1c0,14.4-8.5,25.1-20.1,25.1H102.5z"/>
		<polyline class="st6" points="152.7,176.3 152.7,126.2 177.7,126.2 		"/>
		<line class="st6" x1="152.7" y1="146.2" x2="167.7" y2="146.2"/>
		<path class="st6" d="M52.4,176.3v-50.1h12.5c6.9,0,12.5,5.6,12.5,12.5c0,6.9-5.6,12.5-12.5,12.5H52.4"/>
	</g>
</g>
<g id="Wifi" class="st0">
	<g class="st1">
		<path class="st6" d="M25.7,83.5c44.6-44.6,117-44.7,161.7,0"/>
		<path class="st6" d="M219.7,39.8c-62.5-62.5-163.8-62.6-226.4,0"/>
		<path class="st6" d="M58,127.3c26.8-26.8,70.2-26.8,97.1,0"/>
		<path class="st6" d="M187.4,83.5c-44.6-44.6-117-44.7-161.7,0"/>
		<path class="st6" d="M155.1,127.3c-26.8-26.8-70.2-26.8-97.1,0"/>
		<circle class="st6" cx="106.5" cy="187.3" r="22.9"/>
	</g>
</g>
</svg>
