<?xml version="1.0" encoding="utf-8"?>
<!-- Generator: Adobe Illustrator 22.1.0, SVG Export Plug-In . SVG Version: 6.00 Build 0)  -->
<svg version="1.1" id="Layer_1" xmlns="http://www.w3.org/2000/svg" xmlns:xlink="http://www.w3.org/1999/xlink" x="0px" y="0px"
	 viewBox="0 0 213 194" style="enable-background:new 0 0 213 194;" xml:space="preserve">
<style type="text/css">
	.st0{fill:#F3F2F2;}
	.st1{fill:#50E4EF;}
	.st2{fill:#FF8676;}
	.st3{fill:#0F8FFF;}
	.st4{fill:#FFFFFF;}
	.st5{fill:#FFBD72;}
	.st6{fill:#135577;}
</style>
<title>raffle_king_icon</title>
<desc>Created with Sketch.</desc>
<g id="promo">
	<g id="promo_lp" transform="translate(-119.000000, -768.000000)">
		<g id="Oval-Copy-2_1_" transform="translate(100.000000, 733.000000)">
			<g id="Group-14" transform="translate(19.000000, 35.236074)">
				<g id="raffle_king_icon">
					<g id="Oval-Copy-2">
						<ellipse class="st0" cx="66" cy="85.2" rx="66" ry="64.6"/>
					</g>
					<g id="Oval-Copy-9">
						<ellipse class="st0" cx="193.5" cy="12.2" rx="12.5" ry="12.2"/>
					</g>
					<g id="Oval-Copy-10">
						<ellipse class="st0" cx="129" cy="184" rx="9" ry="8.8"/>
					</g>
					<g id="Group-5" transform="translate(51.000000, 4.763926)">
						<g id="Group-4" transform="translate(20.519608, 0.000000)">
							<g id="Fill-37">
								<path class="st1" d="M20.9,56.9h78.9c0.8,0,1.5,1,1.5,2.2V138c0,1.2-0.7,2.2-1.5,2.2H7c-0.8,0-1.5-1-1.5-2.2V59.1
									c0-1.2,0.7-2.2,1.5-2.2H20.9"/>
							</g>
							<g id="Fill-39">
								<path class="st2" d="M115.6,66.6c1.2-0.6,2.8-1.3,3.6-2.4c0.8-1.1,0.8-2.5,0.7-3.8c-0.8-0.9-1.9-1.4-3.1-1.4
									c-2.3,0-4.2,1.9-4.2,4.3c0,1.8,1.1,3.3,2.7,3.9C115.3,66.9,115.3,66.7,115.6,66.6"/>
							</g>
							<g id="Fill-41">
								<path class="st2" d="M101.1,106.5v24.2c3.2-1,5.5-3.9,5.5-7.4v-9.4C106.6,110.4,104.2,107.4,101.1,106.5"/>
							</g>
							<g id="Fill-43">
								<path class="st3" d="M19.6,113.8h-6.1c-0.6,0-1-0.5-1-1v-4.2c0-0.6,0.5-1,1-1h6.1c0.6,0,1,0.5,1,1v4.2
									C20.6,113.3,20.1,113.8,19.6,113.8"/>
							</g>
							<g id="Fill-45">
								<path class="st4" d="M19.6,130.1h-6.1c-0.6,0-1-0.5-1-1v-4.2c0-0.6,0.5-1,1-1h6.1c0.6,0,1,0.5,1,1v4.2
									C20.6,129.6,20.1,130.1,19.6,130.1"/>
							</g>
							<g id="Fill-47">
								<path class="st3" d="M91.1,114.7h-38c-0.6,0-1-0.5-1-1V109c0-0.6,0.5-1,1-1h38c0.6,0,1,0.5,1,1v4.6
									C92.2,114.2,91.7,114.7,91.1,114.7"/>
							</g>
							<g id="Fill-49">
								<path class="st3" d="M91.1,130.6h-38c-0.6,0-1-0.5-1-1v-4.6c0-0.6,0.5-1,1-1h38c0.6,0,1,0.5,1,1v4.6
									C92.2,130.1,91.7,130.6,91.1,130.6"/>
							</g>
							<g id="Fill-51">
								<path class="st4" d="M90.7,95H14.2c-0.6,0-1.2-0.5-1.2-1.2v-27c0-0.6,0.5-1.2,1.2-1.2h76.4c0.6,0,1.2,0.5,1.2,1.2v27
									C91.8,94.5,91.3,95,90.7,95"/>
							</g>
							<g id="Fill-53">
								<path class="st5" d="M51.4,13.8l-8.3,18.3l-12.3-6.4l-2.7,0.2l3.5,26.7c0.1,0.7,1.1,0.7,1.8,0.7h36.7c0.7,0,2.4,0,2.4-0.7
									l3.3-25.4l-0.1-1.4L61,32.9l-7.9-19.3"/>
							</g>
							<g id="Fill-55">
								<path class="st5" d="M53.3,13.7c0.3-0.6,0.6-0.9,1.2-1.3c1.2-1,2-1.6,2.5-3.1C57.7,6.8,57.7,4,55.8,2
									c-0.1-0.1-0.2-0.3-0.2-0.4c-0.6-0.2-1.3-0.4-2.1-0.4c-3.5,0-6.4,2.9-6.4,6.4c0,3.5,2.7,6.2,6.1,6.4
									C53.3,13.9,53.3,13.8,53.3,13.7"/>
							</g>
							<g id="Fill-57">
								<path class="st5" d="M30.5,26.8c0.2-2.8,1.4-5.4,0.4-8.1c0-0.1-0.1-0.3,0-0.4c-0.6-0.2-1.2-0.3-1.8-0.3c-2.8,0-5,2.3-5,5
									c0,2.8,2.2,5,5,5c0.7,0,1.4-0.2,2-0.4C30.8,27.5,30.4,27.2,30.5,26.8"/>
							</g>
							<g id="Fill-59">
								<path class="st5" d="M76.6,27.4c3.9-1,5.2-5.2,3.5-8.6c-0.1-0.1-0.1-0.3-0.1-0.4c-0.6-0.2-1.2-0.4-1.8-0.4c-2.8,0-5,2.3-5,5
									c0,2.1,1.3,3.9,3,4.6C76.3,27.5,76.4,27.4,76.6,27.4"/>
							</g>
							<g id="Stroke-63">
								<path class="st6" d="M99.8,140.7h-7.3c-0.3,0-0.6-0.2-0.6-0.6s0.2-0.6,0.6-0.6h7.3c0.5,0,1-0.7,1-1.7V55.2
									c0-1-0.5-1.7-1-1.7H8.7c-0.3,0-0.6-0.2-0.6-0.6s0.2-0.6,0.6-0.6h91.1c1.2,0,2.1,1.3,2.1,2.9v82.7
									C102,139.5,101,140.7,99.8,140.7z M89.4,140.7h-87c-1.2,0-2.1-1.3-2.1-2.9V55.2c0-1.6,0.9-2.9,2.1-2.9h3.2
									c0.3,0,0.6,0.2,0.6,0.6s-0.2,0.6-0.6,0.6H2.3c-0.5,0-1,0.7-1,1.7v82.7c0,1,0.5,1.7,1,1.7h87c0.3,0,0.6,0.2,0.6,0.6
									S89.7,140.7,89.4,140.7z"/>
							</g>
							<g id="Stroke-65">
								<path class="st6" d="M90.9,95.8H11.3c-1,0-1.7-0.8-1.7-1.7V63.9c0-1,0.8-1.7,1.7-1.7h79.5c1,0,1.7,0.8,1.7,1.7v11.2
									c0,0.3-0.2,0.6-0.6,0.6s-0.6-0.2-0.6-0.6V63.9c0-0.3-0.3-0.6-0.6-0.6H11.3c-0.3,0-0.6,0.3-0.6,0.6V94c0,0.3,0.3,0.6,0.6,0.6
									h79.5c0.3,0,0.6-0.3,0.6-0.6V81.5c0-0.3,0.2-0.6,0.6-0.6s0.6,0.2,0.6,0.6V94C92.6,95,91.8,95.8,90.9,95.8z"/>
							</g>
							<g id="Stroke-67">
								<rect x="37.2" y="62.8" class="st6" width="1.1" height="31.8"/>
							</g>
							<g id="Stroke-69">
								<rect x="64.6" y="62.8" class="st6" width="1.1" height="31.8"/>
							</g>
							<g id="Stroke-71">
								<path class="st6" d="M91,114.6H50c-0.9,0-1.6-0.7-1.6-1.6v-6.9c0-0.9,0.7-1.6,1.6-1.6h41c0.9,0,1.6,0.7,1.6,1.6v6.9
									C92.6,113.9,91.9,114.6,91,114.6z M50,105.6c-0.3,0-0.5,0.2-0.5,0.5v6.9c0,0.3,0.2,0.5,0.5,0.5h41c0.3,0,0.5-0.2,0.5-0.5
									v-6.9c0-0.3-0.2-0.5-0.5-0.5H50z"/>
							</g>
							<g id="Stroke-73">
								<path class="st6" d="M91,130.7H50c-0.9,0-1.6-0.7-1.6-1.6v-6.9c0-0.9,0.7-1.6,1.6-1.6h41c0.9,0,1.6,0.7,1.6,1.6v6.9
									C92.6,129.9,91.9,130.7,91,130.7z M50,121.7c-0.3,0-0.5,0.2-0.5,0.5v6.9c0,0.3,0.2,0.5,0.5,0.5h41c0.3,0,0.5-0.2,0.5-0.5
									v-6.9c0-0.3-0.2-0.5-0.5-0.5H50z"/>
							</g>
							<g id="Stroke-75">
								<path class="st6" d="M19.5,114.6h-8.3c-0.9,0-1.6-0.7-1.6-1.6v-6.9c0-0.9,0.7-1.6,1.6-1.6h8.3c0.9,0,1.6,0.7,1.6,1.6v6.9
									C21.1,113.9,20.4,114.6,19.5,114.6z M11.2,105.6c-0.3,0-0.5,0.2-0.5,0.5v6.9c0,0.3,0.2,0.5,0.5,0.5h8.3
									c0.3,0,0.5-0.2,0.5-0.5v-6.9c0-0.3-0.2-0.5-0.5-0.5H11.2z"/>
							</g>
							<g id="Stroke-77">
								<path class="st6" d="M19.5,130.7h-8.3c-0.9,0-1.6-0.7-1.6-1.6v-6.9c0-0.9,0.7-1.6,1.6-1.6h8.3c0.9,0,1.6,0.7,1.6,1.6v6.9
									C21.1,129.9,20.4,130.7,19.5,130.7z M11.2,121.7c-0.3,0-0.5,0.2-0.5,0.5v6.9c0,0.3,0.2,0.5,0.5,0.5h8.3
									c0.3,0,0.5-0.2,0.5-0.5v-6.9c0-0.3-0.2-0.5-0.5-0.5H11.2z"/>
							</g>
							<g id="Stroke-79">
								<path class="st6" d="M115.1,118.3h-6.1c-0.3,0-0.6-0.2-0.6-0.6s0.2-0.6,0.6-0.6h5.5V67.9c0-0.3,0.2-0.6,0.6-0.6
									s0.6,0.2,0.6,0.6v49.9C115.7,118.1,115.4,118.3,115.1,118.3z"/>
							</g>
							<g id="Stroke-81">
								<path class="st6" d="M115.2,67.4c-3,0-5.4-2.4-5.4-5.5c0-3,2.4-5.5,5.4-5.5c3,0,5.4,2.5,5.4,5.5
									C120.6,64.9,118.2,67.4,115.2,67.4z M115.2,57.6c-2.4,0-4.3,2-4.3,4.4c0,2.4,1.9,4.4,4.3,4.4c2.4,0,4.3-2,4.3-4.4
									C119.5,59.5,117.6,57.6,115.2,57.6z"/>
							</g>
							<g id="Stroke-83">
								<path class="st6" d="M101,130.7v-1.1c4,0,7.2-3.2,7.2-7.2v-9.4c0-4-3.2-7.2-7.2-7.2v-1.1c4.6,0,8.3,3.7,8.3,8.3v9.4
									C109.3,127,105.6,130.7,101,130.7z"/>
							</g>
							<g id="Stroke-85">
								<polygon class="st6" points="40.9,31.8 29.9,26.1 30.4,25.1 40.3,30.3 48.4,12.5 49.4,13 								"/>
							</g>
							<g id="Stroke-87">
								<polygon class="st6" points="60.3,31.7 52.4,13 53.4,12.5 60.9,30.2 71.9,24.8 72.4,25.8 								"/>
							</g>
							<g id="Stroke-89">
								<path class="st6" d="M72.8,53.1C72.8,53.1,72.8,53.1,72.8,53.1c-0.4,0-0.6-0.3-0.6-0.6l2.2-17.3c0-0.3,0.3-0.5,0.6-0.5
									c0.3,0,0.5,0.3,0.5,0.6l-2.2,17.3C73.3,52.9,73.1,53.1,72.8,53.1z M75.5,32.7C75.4,32.7,75.4,32.7,75.5,32.7
									c-0.4,0-0.6-0.3-0.6-0.6l0.7-5.2c0-0.3,0.3-0.5,0.6-0.5c0.3,0,0.5,0.3,0.5,0.6L76,32.2C76,32.5,75.7,32.7,75.5,32.7z"/>
							</g>
							<g id="Stroke-91">
								<path class="st6" d="M29.2,52.6c-0.3,0-0.5-0.2-0.5-0.5l-1.5-11c0-0.3,0.2-0.6,0.5-0.6c0.3,0,0.6,0.2,0.6,0.5l1.5,11
									C29.8,52.2,29.5,52.5,29.2,52.6C29.2,52.6,29.2,52.6,29.2,52.6z M27.3,38.4c-0.3,0-0.5-0.2-0.5-0.5l-1.5-11
									c0-0.3,0.2-0.6,0.5-0.6c0.3,0,0.6,0.2,0.6,0.5l1.5,11C27.9,38.1,27.7,38.4,27.3,38.4C27.4,38.4,27.3,38.4,27.3,38.4z"/>
							</g>
							<g id="Stroke-93">
								<path class="st6" d="M73.6,46.1h-7c-0.3,0-0.6-0.2-0.6-0.6s0.2-0.6,0.6-0.6h7c0.3,0,0.6,0.2,0.6,0.6S73.9,46.1,73.6,46.1z
									 M63.4,46.1H28.6c-0.3,0-0.6-0.2-0.6-0.6s0.2-0.6,0.6-0.6h34.8c0.3,0,0.6,0.2,0.6,0.6S63.7,46.1,63.4,46.1z"/>
							</g>
							<g id="Stroke-95">
								<path class="st6" d="M51.1,13.5c-3.8,0-6.9-3.1-6.9-7c0-0.8,0.1-1.6,0.4-2.3c0.1-0.3,0.4-0.4,0.7-0.3
									c0.3,0.1,0.4,0.4,0.3,0.7c-0.2,0.6-0.3,1.3-0.3,2c0,3.2,2.6,5.9,5.8,5.9s5.8-2.6,5.8-5.9s-2.6-5.9-5.8-5.9
									c-1.4,0-2.8,0.5-3.9,1.5c-0.2,0.2-0.6,0.2-0.8,0c-0.2-0.2-0.2-0.6,0-0.8c1.3-1.2,2.9-1.8,4.6-1.8c3.8,0,6.9,3.1,6.9,7
									S54.9,13.5,51.1,13.5z"/>
							</g>
							<g id="Stroke-97">
								<path class="st6" d="M26.6,27.5C23.5,27.5,21,25,21,22c0-0.5,0.1-1,0.2-1.6c0.1-0.3,0.4-0.5,0.7-0.4
									c0.3,0.1,0.5,0.4,0.4,0.7c-0.1,0.4-0.2,0.8-0.2,1.2c0,2.5,2,4.5,4.4,4.5c2.5,0,4.4-2,4.4-4.5c0-2.5-2-4.5-4.4-4.5
									c-1,0-1.9,0.3-2.7,0.9c-0.2,0.2-0.6,0.1-0.8-0.1c-0.2-0.2-0.1-0.6,0.1-0.8c1-0.8,2.2-1.2,3.4-1.2c3.1,0,5.6,2.5,5.6,5.6
									C32.1,25,29.6,27.5,26.6,27.5z"/>
							</g>
							<g id="Stroke-99">
								<path class="st6" d="M75.6,27.5c-3.1,0-5.6-2.5-5.6-5.6c0-0.5,0.1-1.1,0.2-1.6c0.1-0.3,0.4-0.5,0.7-0.4
									c0.3,0.1,0.5,0.4,0.4,0.7c-0.1,0.4-0.2,0.8-0.2,1.2c0,2.5,2,4.5,4.4,4.5c2.5,0,4.4-2,4.4-4.5c0-2.5-2-4.5-4.4-4.5
									c-1,0-1.9,0.3-2.7,0.9c-0.2,0.2-0.6,0.1-0.8-0.1c-0.2-0.2-0.1-0.6,0.1-0.8c1-0.8,2.2-1.2,3.4-1.2c3.1,0,5.6,2.5,5.6,5.6
									C81.2,25,78.7,27.5,75.6,27.5z"/>
							</g>
							<g id="Fill-101">
								<path class="st5" d="M23.7,70.1c4.9,0,8.8,4,8.8,8.9s-4,8.9-8.8,8.9s-8.8-4-8.8-8.9S18.9,70.1,23.7,70.1"/>
							</g>
							<g id="Fill-103">
								<path class="st4" d="M25.8,77.9c-0.3,1.1-1.9,0.5-2.5,0.4l0.5-1.9C24.4,76.5,26.1,76.7,25.8,77.9 M25.5,81
									c-0.3,1.2-2.3,0.5-2.9,0.4l0.5-2.1C23.8,79.4,25.8,79.7,25.5,81 M27.7,77.9c0.2-1.2-0.7-1.8-1.9-2.2l0.4-1.6l-1-0.2
									l-0.4,1.5c-0.3-0.1-0.5-0.1-0.8-0.2l0.4-1.5l-1-0.2L23.1,75c-0.2,0-0.4-0.1-0.6-0.1l0,0l-1.3-0.3l-0.3,1
									c0,0,0.7,0.2,0.7,0.2c0.4,0.1,0.5,0.4,0.4,0.6l-0.4,1.8c0,0,0.1,0,0.1,0l-0.1,0L21,80.6c0,0.1-0.2,0.3-0.4,0.2
									c0,0-0.7-0.2-0.7-0.2l-0.5,1.1l1.2,0.3c0.2,0.1,0.5,0.1,0.7,0.2l-0.4,1.6l1,0.2l0.4-1.6c0.3,0.1,0.5,0.1,0.8,0.2l-0.4,1.6
									l1,0.2l0.4-1.6c1.6,0.3,2.9,0.2,3.4-1.3c0.4-1.2,0-1.9-0.9-2.3C27.1,79.2,27.6,78.7,27.7,77.9"/>
							</g>
							<g id="Fill-105">
								<path class="st5" d="M51.3,70.1c4.9,0,8.8,4,8.8,8.9s-4,8.9-8.8,8.9s-8.8-4-8.8-8.9S46.4,70.1,51.3,70.1"/>
							</g>
							<g id="Fill-107">
								<path class="st4" d="M53.4,77.9c-0.3,1.1-1.9,0.5-2.5,0.4l0.5-1.9C51.9,76.5,53.6,76.7,53.4,77.9 M53.1,81
									c-0.3,1.2-2.3,0.5-2.9,0.4l0.5-2.1C51.3,79.4,53.4,79.7,53.1,81 M55.2,77.9c0.2-1.2-0.7-1.8-1.9-2.2l0.4-1.6l-1-0.2
									l-0.4,1.5c-0.2-0.1-0.5-0.1-0.8-0.2l0.4-1.5l-1-0.2L50.7,75c-0.2,0-0.4-0.1-0.6-0.1l0,0l-1.3-0.3l-0.3,1
									c0,0,0.7,0.2,0.7,0.2c0.4,0.1,0.5,0.4,0.4,0.6l-0.4,1.8c0,0,0.1,0,0.1,0l-0.1,0l-0.6,2.5c0,0.1-0.2,0.3-0.4,0.2
									c0,0-0.7-0.2-0.7-0.2l-0.5,1.1l1.2,0.3c0.2,0.1,0.5,0.1,0.7,0.2l-0.4,1.6l1,0.2l0.4-1.6c0.3,0.1,0.5,0.1,0.8,0.2l-0.4,1.6
									l1,0.2l0.4-1.6c1.6,0.3,2.9,0.2,3.4-1.3c0.4-1.2,0-1.9-0.9-2.3C54.6,79.2,55.1,78.7,55.2,77.9"/>
							</g>
							<g id="Fill-109">
								<path class="st5" d="M78.3,70.1c4.9,0,8.8,4,8.8,8.9s-4,8.9-8.8,8.9c-4.9,0-8.8-4-8.8-8.9S73.4,70.1,78.3,70.1"/>
							</g>
							<g id="Fill-111">
								<path class="st4" d="M80.3,77.9c-0.3,1.1-1.9,0.5-2.5,0.4l0.5-1.9C78.9,76.5,80.6,76.7,80.3,77.9 M80,81
									c-0.3,1.2-2.3,0.5-2.9,0.4l0.5-2.1C78.3,79.4,80.4,79.7,80,81 M82.2,77.9c0.2-1.2-0.7-1.8-1.9-2.2l0.4-1.6l-1-0.2l-0.4,1.5
									c-0.3-0.1-0.5-0.1-0.8-0.2l0.4-1.5l-1-0.2L77.6,75c-0.2,0-0.4-0.1-0.6-0.1l0,0l-1.3-0.3l-0.3,1c0,0,0.7,0.2,0.7,0.2
									c0.4,0.1,0.5,0.4,0.4,0.6l-0.4,1.8c0,0,0.1,0,0.1,0l-0.1,0l-0.6,2.5c0,0.1-0.2,0.3-0.4,0.2c0,0-0.7-0.2-0.7-0.2l-0.5,1.1
									l1.2,0.3c0.2,0.1,0.5,0.1,0.7,0.2l-0.4,1.6l1,0.2l0.4-1.6c0.3,0.1,0.5,0.1,0.8,0.2l-0.4,1.6l1,0.2l0.4-1.6
									c1.6,0.3,2.9,0.2,3.4-1.3c0.4-1.2,0-1.9-0.9-2.3C81.6,79.2,82.1,78.7,82.2,77.9"/>
							</g>
						</g>
						<g id="Line">
							<path class="st6" d="M161,140.8h-21.6c-0.3,0-0.6-0.2-0.6-0.6s0.2-0.6,0.6-0.6H161c0.3,0,0.6,0.2,0.6,0.6
								S161.3,140.8,161,140.8z M136.2,140.8H0c-0.3,0-0.6-0.2-0.6-0.6s0.2-0.6,0.6-0.6h136.2c0.3,0,0.6,0.2,0.6,0.6
								S136.5,140.8,136.2,140.8z"/>
						</g>
					</g>
				</g>
			</g>
		</g>
	</g>
</g>
</svg>
