<?xml version="1.0" encoding="UTF-8" standalone="no"?>
<svg width="52px" height="60px" viewBox="0 0 52 60" version="1.1" xmlns="http://www.w3.org/2000/svg" xmlns:xlink="http://www.w3.org/1999/xlink">
    <!-- Generator: Sketch 43.2 (39069) - http://www.bohemiancoding.com/sketch -->
    <title>Page 1</title>
    <desc>Created with Sketch.</desc>
    <defs></defs>
    <g id="Kundservice" stroke="none" stroke-width="1" fill="none" fill-rule="evenodd">
        <g id="-Kundservice2-Desktop-HD" transform="translate(-505.000000, -630.000000)" fill="#00394D">
            <g id="Page-1" transform="translate(505.000000, 629.000000)">
                <path d="M29.7737556,11.0208119 L29.7737556,3.58607381 C29.7737556,2.60716905 29.2248667,1.71395476 28.3567556,1.27533571 C27.4857556,0.833811905 26.4443111,0.928216667 25.6643111,1.51207381 L1.62875556,19.5288595 C0.975866667,20.0168595 0.593088889,20.7866214 0.593088889,21.6028595 C0.593088889,22.42055 0.975866667,23.1888595 1.62875556,23.6768595 L25.6643111,41.6921929 C26.1178667,42.03205 26.6580889,42.2048833 27.2026444,42.2048833 C27.5955333,42.2048833 27.9913111,42.111931 28.3567556,41.928931 C29.2248667,41.4903119 29.7737556,40.5956452 29.7737556,39.6181929 L29.7737556,32.5116929 C36.5366444,33.4746214 41.6687556,38.1541929 41.6687556,43.7908833 C41.6687556,50.1276214 35.1933111,55.2646929 27.2026444,55.2646929 L27.2026444,60.4380738 C40.8107556,60.4380738 51.8419778,49.3447881 51.8419778,35.6633595 C51.8419778,22.8504548 42.1728667,12.3148833 29.7737556,11.0208119" id="Fill-4"></path>
            </g>
        </g>
    </g>
</svg>