<?xml version="1.0"?><svg width="935" height="1070" xmlns="http://www.w3.org/2000/svg">
 <title>USMC violet</title>
 <g>
  <title>Layer 1</title>
  <path id="svg_1" fill="#FAFAFA" fill-rule="evenodd" stroke="#FAFAFA" stroke-width="1px" d="m264,702l0,1l-1,1l-1,1l0,1l0,1l-1,0l0,1l-1,0l0,0l0,-1l0,0l-1,0l0,-1l0,0l-1,0l0,0l0,0l0,-1l0,0l-1,-1q-1,-1 -9,-10q-9,-10 -16,-14q-7,-4 -22,-7l-14,-3l0,0l0,0l-1,0l0,0l0,-1l1,0l0,-1l0,-1l1,-1l1,-1l0,0l0,-1l0,0l0,0l6,-6q6,-6 18,-12q12,-6 33,-14q21,-6 34,-8q13,-2 -6,38q-19,39 -19,40zm-23,-37l-1,-2l2,-4q1,-3 6,-3q5,0 6,1q2,1 1,5q-1,4 -2,5q-1,1 -5,1q-4,0 -5,-1q-1,0 -2,-2z"/>
  <path id="svg_3" fill="#FCFCFC" fill-rule="evenodd" stroke="#FCFCFC" stroke-width="1px" d="m525,624l1,0l0,0l0,0l0,1l0,0l1,0l0,1l0,0l1,0l0,0l0,0l0,1l0,0l0,1l0,2l0,0l0,0l0,1l0,0l-1,0l0,1l-8,3q-9,4 -19,24q-12,20 -12,27q0,6 6,13q5,7 6,7q1,2 1,2l1,0l0,0l0,0l0,1l0,0l1,0l0,1l0,0l1,0l0,1l0,1l1,0l0,0l0,1l1,0l0,1l0,1l-2,0l-2,-1l-2,0l-1,0l-1,-1l-1,-1l0,0l-1,0l0,0q0,0 -5,-7q-5,-6 -8,-8q-3,-1 -9,-2q-6,-1 -12,1q-7,2 -11,4l-3,3l-1,0l0,1l0,0l-1,0l0,2l0,1l0,2l0,2l0,1l0,2l1,0l0,0l19,8q20,8 29,16q9,8 19,10q10,2 32,4q21,2 29,5q8,3 15,10q8,6 11,10q4,3 17,9q12,4 13,5l1,1l0,0l0,0l1,1l1,1l0,0l0,0l0,1l0,0l-1,1l-1,1l0,0l0,1l-11,12q-11,12 -15,18q-5,6 -14,14q-8,7 -17,21q-9,13 -18,21q-9,7 -11,10q-2,3 -4,11q0,8 -1,9l-1,2l0,1l0,1l-1,0l0,0l0,1l-1,0l0,0l0,1l-2,0l-2,0l0,-1l0,0l-1,0l0,-1l0,0l-1,0l0,0l0,0l0,-1l0,0l-1,0l0,-1l0,0l-1,0l0,-1l0,-1l-1,-1q-1,-1 -1,-4q-2,-3 -2,-16q0,-13 2,-29q4,-15 4,-26q0,-10 0,-13q-2,-3 -9,-10q-8,-7 -12,-13q-5,-7 -5,-14q0,-7 3,-16q4,-10 -1,-14q-5,-6 -17,-13q-13,-8 -27,-12q-14,-3 -25,-7q-11,-4 -15,-8q-4,-4 -17,-18q-12,-14 -15,-14q-3,0 -6,0l-3,2l0,-1l-1,0l-1,-6q-1,-6 -1,-17q0,-10 2,-16q2,-5 1,-14q-1,-9 -1,-12q-2,-4 -1,-9q1,-5 7,-10q6,-5 22,-11q15,-8 20,-7q6,1 9,7q3,7 5,7q3,-1 6,-2q2,-1 6,-1q4,0 4,10q0,11 2,14q2,3 8,6q7,4 15,4q8,0 9,-1q2,-1 1,-11q-1,-10 1,-10q1,0 9,3q8,3 14,8q6,5 6,5z"/>
  <path id="svg_5" fill="#26211F" fill-rule="evenodd" stroke="#26211F" stroke-width="1px" d="m241,665l-1,-2l2,-4q1,-3 6,-3q5,0 6,1q2,1 1,5q-1,4 -2,5q-1,1 -5,1q-4,0 -5,-1q-1,0 -2,-2z"/>
  <path id="svg_11" fill="#F9F9F9" fill-rule="evenodd" stroke="#F9F9F9" stroke-width="1px" d="m413,1053l-2,1l-1,0l-2,0l0,-2l0,-3l1,-3q1,-2 2,-8q1,-7 14,-12q13,-6 20,-11l7,-5l1,0l0,0l0,-1l1,0l0,-1l0,-1l1,0l0,-1l0,0l1,0l0,-1l0,-1l1,-1l0,-1l-23,1q-22,1 -24,0q-1,0 -5,-14q-4,-13 27,-11q32,2 54,2q21,0 6,17q-14,17 -26,27q-12,10 -26,18q-14,8 -20,9q-5,1 -7,2z"/>
  <path id="svg_2" fill="#7f7f7f" fill-rule="evenodd" stroke="#1F1A17" stroke-width="1px" d="m815,264.5l0,3l1,0l0,1l0,0l1,0l0,2l0,3l-1,0l0,1l0,0q-1,0 -7,3q-6,3 -13,5q-7,2 -13,4q-5,2 -17,4q-12,0 -15,2q-2,2 -12,2q-11,0 -38,-6q-28,-6 -28,-2q0,4 -5,4q-4,0 -21,-4q-16,-4 -16,-3q0,1 -6,1q-6,0 -6,4l-1,4l-1,0l-1,0l-1,-1q-2,-1 -6,-3l-5,-2l0,0l-1,0l0,0q0,0 0,4q0,3 -8,1q-8,-2 -8,2l-1,4l-1,0q-2,-1 -8,-3l-5,-2l-1,-1l-1,-1l-1,0l-2,0l0,1l0,1l2,2q0,1 1,2l1,2l0,1l0,1l-1,0l0,0l-2,0l-2,0l-1,0q-1,0 -6,-2l-4,-2l0,4q0,3 -1,4l0,1l-1,0q-2,-1 -3,-1q-1,0 -5,-1l-4,0l-1,2q-1,2 -1,3l0,1l0,7q0,7 5,12q4,6 16,16q13,10 15,16q4,6 3,10q-1,3 -1,4q-2,1 -2,5q-1,3 -6,4q-6,1 -6,3q-2,3 -5,2q-3,-2 -4,-2l-1,0l0,-1l0,0l-1,0l0,-1l-1,0l-1,0l-1,-1l-2,-1l-1,0l-1,0l0,1l0,0l1,0l0,1l0,0l1,0l0,0l0,0l1,1l1,1l1,0l1,0l1,1l1,1l18,10q17,12 28,20q11,9 11,10q0,1 7,7q6,6 7,6l0,1l0,0l1,0l0,0l0,0l0,1l0,0l1,0l0,1l0,0l1,0l0,0l0,0l0,1l0,0l1,0l0,1l0,0l1,0l0,0l0,0l0,1l0,0l1,0l0,1l0,0l1,0l0,-1l0,-1l-1,-1l-1,-1l0,-1l0,-1l-1,0l0,0l0,-1l-1,0l-16,-35q-16,-34 -18,-40q-2,-7 0,-12q3,-4 11,-8q8,-4 15,-6q6,0 12,4q5,4 14,14q8,10 24,31q16,21 17,21l0,0l0,1l1,0l0,1l0,1l1,0l0,1l0,0l1,0l0,0l0,0l0,1l0,0l1,0l0,1l1,0l1,0l2,-14q3,-13 7,-21q4,-7 4,-9q1,-1 2,-2q2,0 2,-1q0,-1 11,-7q11,-6 15,-8q4,0 16,0q11,0 19,4q9,4 13,7q4,3 10,11q6,9 8,16q2,8 2,20q0,12 -5,22q-5,10 -11,16q-7,6 -16,9q-10,3 -22,3q-13,0 -18,0q-4,-2 -6,-2l-1,0l-1,-1l-2,-1l-1,0l-1,0l0,1l0,0l1,1l1,1l0,1l0,1l1,1l1,1l0,1q0,1 7,13q6,11 21,43q14,31 16,37q2,6 -2,10q-4,4 -15,9q-11,4 -16,4q-5,0 -11,-6q-6,-7 -32,-42l-26,-35l0,0l0,-1l0,0l0,0l-1,-1l-1,-1l0,0l0,0l0,-1l0,0l-1,-1l-1,-1l0,0l0,-1l0,0l0,0l0,2l0,1l0,1l0,2l1,2q1,2 1,4q0,1 5,22q5,22 5,45q0,23 0,31q-2,9 -6,26q-4,16 -12,32q-6,15 -18,31q-12,16 -24,28q-14,12 -28,21q-14,9 -28,15q-15,7 -34,11q-18,4 -46,4q-29,0 -42,-4q-14,-2 -28,-8q-15,-6 -30,-16q-14,-10 -27,-22q-13,-12 -27,-27l-13,-15l-3,2q-4,2 -16,11q-12,10 -14,15q-2,5 -2,14q0,10 5,24q5,13 11,22q7,8 8,10q0,1 12,10q13,8 28,14q14,6 22,8q8,2 10,3l3,1l3,0l3,0l0,1l1,0l0,-1l0,-2l-1,-2l-1,-1l0,-1q0,-1 -6,-14l-4,-14l-1,-2l-1,-1l0,-1l0,-2l2,0l1,0l1,1l2,1l21,3q21,3 27,4q7,1 47,1l40,0l0,1l-1,0l0,1l0,1l-1,0l0,1l0,0l-1,0l0,1l0,1l-1,0l0,0l-15,20q-16,20 -27,31q-11,11 -25,19q-15,8 -32,14q-17,6 -18,7l-2,1l-1,0l-1,0l-1,0l-1,0l0,0l0,0l-1,0l0,0l0,-1l1,0l0,-5q0,-6 2,-18l1,-11l-1,0q-2,-1 -14,-1q-11,-2 -26,-4q-14,-2 -32,-9q-18,-7 -35,-15q-17,-10 -38,-25q-21,-15 -35,-24q-14,-9 -26,-14q-12,-5 -36,-7l-24,-4l0,0l0,0l1,0l0,0l0,-1l1,0l0,-1l0,-1l1,-1l1,-1l0,0l0,-1l0,0q0,0 6,-7q5,-7 12,-20q8,-12 10,-23q4,-11 4,-61q2,-50 5,-67q3,-17 11,-36l8,-20l1,-1l1,-1l0,-1l0,-1l-3,0q-3,0 -11,-2l-7,-2l-1,0l-2,0l0,-2l0,-3l1,-1q1,-2 4,-7q3,-5 15,-14q12,-10 28,-18q15,-9 36,-15q21,-8 35,-9q14,-1 23,0l8,1l1,1l1,1l0,0l0,0l1,0l0,0l0,1l-1,0l0,1l0,1l-26,50q-24,50 -25,51q0,2 -13,-2q-12,-4 -16,-4q-3,0 -9,8q-7,8 -11,20q-4,12 -4,27q0,15 4,25q4,11 10,18q6,8 14,12q8,4 21,4q13,0 25,-3q12,-3 10,-21q-2,-19 -1,-44q1,-25 5,-44q4,-19 10,-34q6,-15 16,-29q9,-13 22,-28q14,-15 36,-27q21,-14 22,-14q1,0 2,-1l1,-1l1,0l1,0l0,-1l1,0l0,-2l0,-2l-1,0l-1,-1l-1,0l-1,0l0,-1q0,0 -1,-1q-1,-2 -6,-3q-6,-1 -7,-5q0,-4 -2,-4q-2,-1 -1,-5q1,-4 7,-13q6,-10 14,-17q8,-7 14,-14q6,-7 6,-13l0,-5l0,0l0,-1l0,0l0,0l-1,0l0,0l-1,-1q-1,-1 -8,-1q-7,0 -8,-3q0,-4 -6,-2l-7,3l-1,0l-1,0l0,-4q1,-3 1,-4l0,-1l1,-1l0,-2l-1,0l-2,0l-1,1q-1,1 -6,3l-5,2l-2,0q-1,0 -2,-3q0,-4 -8,-2l-7,2l0,-1q1,-2 0,-4l0,-2l-1,0l-1,0l-1,1q-1,1 -7,2q-6,1 -6,-2q-1,-3 -7,-3q-6,1 -6,-2q-1,-2 -6,0q-5,2 -20,5l-15,4l0,-3q1,-4 1,-5l0,-1l-2,0q-3,0 -23,6q-20,4 -34,6q-14,0 -19,-1q-5,-1 -16,-2q-12,-1 -16,-3q-4,-3 -13,-5q-8,-1 -10,-3q-3,-2 -7,-5l-4,-3l-1,0l0,0l0,-1l-1,0l0,-2l0,-2l1,-1l1,-1l0,-1l0,-1l5,-3q5,-4 59,-26q55,-22 94,-40q40,-18 56,-22q17,-4 32,-4q14,0 18,2q4,2 5,6q1,4 2,20q1,16 3,20q3,4 10,4q6,0 12,-5q6,-5 6,-6q0,-1 1,-1q1,0 4,-6q3,-7 3,-14q0,-8 -3,-12q-3,-4 -11,-6q-9,-2 -13,-3q-3,-1 -18,-10q-14,-9 -20,-14q-5,-5 -9,-12q-4,-7 -4,-15q-2,-7 1,-12q3,-5 7,-8q5,-2 18,-5q12,-3 24,-2q13,1 58,5q46,4 68,3q21,-1 28,-3q6,-3 8,-4q2,-2 2,2q1,5 6,4q4,0 2,4q-3,4 -9,7q-6,3 -13,5q-6,2 -31,1q-25,-1 -65,-5q-39,-4 -58,-4q-18,0 -24,3q-6,3 -6,9q0,5 4,10q5,6 17,16q12,10 25,6q12,-4 24,-4q13,0 22,3q9,3 14,9q6,5 8,17q4,12 6,25q4,13 7,18q3,4 11,4q8,0 11,-2q3,-2 3,-12q0,-10 0,-20q0,-10 1,-12q1,-3 7,-6q6,-2 18,-2q11,0 28,4q16,6 39,16q23,10 71,32q48,22 76,32q29,9 29,10q1,1 1,4zm-305,172l1,0l0,0l0,0l0,1l0,0l1,0l0,1l0,0l1,0l0,0l0,0l0,1l0,0l0,1l0,2l0,0l0,0l0,1l0,0l-1,0l0,1l-8,3q-9,4 -19,24q-12,20 -12,27q0,6 6,13q5,7 6,7q1,2 1,2l1,0l0,0l0,0l0,1l0,0l1,0l0,1l0,0l1,0l0,1l0,1l1,0l0,0l0,1l1,0l0,1l0,1l-2,0l-2,-1l-2,0l-1,0l-1,-1l-1,-1l0,0l-1,0l0,0q0,0 -5,-7q-5,-6 -8,-8q-3,-1 -9,-2q-6,-1 -12,1q-7,2 -11,4l-3,3l-1,0l0,1l0,0l-1,0l0,2l0,1l0,2l0,2l0,1l0,2l1,0l0,0l19,8q20,8 29,16q9,8 19,10q10,2 32,4q21,2 29,5q8,3 15,10q8,6 11,10q4,3 17,9q12,4 13,5l1,1l0,0l0,0l1,1l1,1l0,0l0,0l0,1l0,0l-1,1l-1,1l0,0l0,1l-11,12q-11,12 -15,18q-5,6 -14,14q-8,7 -17,21q-9,13 -18,21q-9,7 -11,10q-2,3 -4,11q0,8 -1,9l-1,2l0,1l0,1l-1,0l0,0l0,1l-1,0l0,0l0,1l-2,0l-2,0l0,-1l0,0l-1,0l0,-1l0,0l-1,0l0,0l0,0l0,-1l0,0l-1,0l0,-1l0,0l-1,0l0,-1l0,-1l-1,-1q-1,-1 -1,-4q-2,-3 -2,-16q0,-13 2,-29q4,-15 4,-26q0,-10 0,-13q-2,-3 -9,-10q-8,-7 -12,-13q-5,-7 -5,-14q0,-7 3,-16q4,-10 -1,-14q-5,-6 -17,-13q-13,-8 -27,-12q-14,-3 -25,-7q-11,-4 -15,-8q-4,-4 -17,-18q-12,-14 -15,-14q-3,0 -6,0l-3,2l0,-1l-1,0l-1,-6q-1,-6 -1,-17q0,-10 2,-16q2,-5 1,-14q-1,-9 -1,-12q-2,-4 -1,-9q1,-5 7,-10q6,-5 22,-11q15,-8 20,-7q6,1 9,7q3,7 5,7q3,-1 6,-2q2,-1 6,-1q4,0 4,10q0,11 2,14q2,3 8,6q7,4 15,4q8,0 9,-1q2,-1 1,-11q-1,-10 1,-10q1,0 9,3q8,3 14,8q6,5 6,5zm-261,78l0,1l-1,1l-1,1l0,1l0,1l-1,0l0,1l-1,0l0,0l0,-1l0,0l-1,0l0,-1l0,0l-1,0l0,0l0,0l0,-1l0,0l-1,-1q-1,-1 -9,-10q-9,-10 -16,-14q-7,-4 -22,-7l-14,-3l0,0l0,0l-1,0l0,0l0,-1l1,0l0,-1l0,-1l1,-1l1,-1l0,0l0,-1l0,0l0,0l6,-6q6,-6 18,-12q12,-6 33,-14q21,-6 34,-8q13,-2 -6,38q-19,39 -19,40zm149,351l-2,1l-1,0l-2,0l0,-2l0,-3l1,-3q1,-2 2,-8q1,-7 14,-12q13,-6 20,-11l7,-5l1,0l0,0l0,-1l1,0l0,-1l0,-1l1,0l0,-1l0,0l1,0l0,-1l0,-1l1,-1l0,-1l-23,1q-22,1 -24,0q-1,0 -5,-14q-4,-13 27,-11q32,2 54,2q21,0 6,17q-14,17 -26,27q-12,10 -26,18q-14,8 -20,9q-5,1 -7,2z"/>
 </g>
</svg>