<?xml version="1.0" encoding="UTF-8"?>
<!-- Generator: Adobe Illustrator 16.0.0, SVG Export Plug-In . SVG Version: 6.00 Build 0)  -->
<!DOCTYPE svg PUBLIC "-//W3C//DTD SVG 1.1//EN" "http://www.w3.org/Graphics/SVG/1.1/DTD/svg11.dtd">
<svg version="1.1" id="Layer_1" xmlns="http://www.w3.org/2000/svg" xmlns:xlink="http://www.w3.org/1999/xlink" x="0px" y="0px" width="338.848px" height="361.705px" viewBox="0 0 338.848 361.705" enable-background="new 0 0 338.848 361.705" xml:space="preserve">
<g>
	<path fill="none" d="M116.133,117.415h82.695c6.784,0,12.275-5.497,12.275-12.278v-28.61c0-6.78-5.498-12.277-12.275-12.277   h-82.695c-6.787,0-12.285,5.497-12.285,12.277v28.61C103.849,111.918,109.346,117.415,116.133,117.415z"/>
	<path fill="none" d="M286.465,108.165c0-0.352-0.16-0.675-0.457-0.879l-13.851-9.567v10.151c0,3.273,2.658,5.92,5.926,5.92h8.382   V108.165L286.465,108.165z"/>
	<rect x="104.172" y="139.134" fill="none" width="106.61" height="7.474"/>
	<path d="M219.611,51.571l-0.561-0.022c0.397,0.201,0.798,0.422,1.18,0.653L219.611,51.571z" fill="currentColor"/>
	<path d="M250.931,65.595l-2.879-2.879l-0.503,0.503c0.092,0.058,0.184,0.098,0.276,0.163L250.931,65.595z" fill="currentColor"/>
	<path d="M148.506,285.265l1.312-0.013c15.655-0.208,39.473-4.485,55.146-15.873l4.79-3.479l4.887,3.354   c2.565,1.756,5.369,3.259,8.267,4.658v-91.438h5.785c7.18,0,13.03,5.832,13.03,13.017v35.646c0,17.49,14.229,31.713,31.714,31.713   c17.488,0,31.721-14.223,31.721-31.713V108.165c0-5.827-2.586-11.307-6.979-15.036c-0.502-0.428-1.005-0.85-1.548-1.22   l-29.782-20.581c-2.77-1.908-6.21-2.116-9.088-0.85l-6.827-4.885l-3.104-2.22c-0.094-0.063-0.186-0.104-0.276-0.162   c-2.077-1.277-4.812-0.769-6.244,1.244c-1.127,1.583-1.134,3.618-0.167,5.173c0.312,0.508,0.733,0.977,1.253,1.346l9.852,7.042   c-0.354,3.294,1.068,6.665,3.988,8.688l6.949,4.803v16.349c0,8.219,6.688,14.902,14.908,14.902h8.383v108.36   c0,7.18-5.833,13.029-13.025,13.029c-7.174,0-13.022-5.851-13.022-13.029v-35.635c0-17.488-14.228-31.715-31.719-31.715h-5.798   v-35.442c3.543-3.186,5.792-7.787,5.792-12.926V67.104c0-3.271-0.919-6.318-2.492-8.931c-1.469-2.457-3.525-4.505-5.977-5.978   c-0.382-0.231-0.78-0.45-1.18-0.653c-2.336-1.168-4.962-1.838-7.755-1.838h-31.551h-76.099c-9.602,0-17.389,7.787-17.389,17.395   v48.299c0,5.139,2.236,9.741,5.78,12.925v141.021l2.213,1.526C109.704,281.485,132.412,285.265,148.506,285.265z M278.083,113.796   c-3.268,0-5.926-2.653-5.926-5.92V97.725l13.851,9.567c0.297,0.202,0.457,0.526,0.457,0.879v5.625H278.083z M210.778,146.608   H104.171v-7.474h106.61v7.474H210.778z M103.849,76.533c0-6.782,5.497-12.279,12.285-12.279h82.695   c6.786,0,12.276,5.498,12.276,12.279v28.609c0,6.782-5.499,12.278-12.276,12.278h-82.695c-6.787,0-12.285-5.497-12.285-12.278   V76.533L103.849,76.533z" fill="currentColor"/>
	<path d="M330.787,274.545c-17.638,12.812-43.757,17.25-60.475,17.472c-16.712,0.23-42.461-3.515-60.42-15.841   c-17.625,12.8-43.258,17.25-59.959,17.47c-16.725,0.22-42.461-3.526-60.427-15.851c-17.621,12.797-43.258,17.238-59.964,17.492   c-8.215,0.117-14.708-0.983-20.107-2.601l0.45,32.881c5.314,1.502,11.794,2.543,20.107,2.426   c16.706-0.219,42.339-4.682,59.959-17.502c17.96,12.348,43.702,16.104,60.427,15.884c16.696-0.229,42.332-4.681,59.959-17.513   c17.967,12.347,43.703,16.126,60.42,15.896c16.706-0.231,42.329-4.683,59.977-17.504   C330.985,307.417,330.787,274.545,330.787,274.545z" fill="currentColor"/>
</g>
</svg>