<?xml version="1.0" encoding="UTF-8" standalone="no"?>
<!DOCTYPE svg PUBLIC "-//W3C//DTD SVG 1.1//EN" "http://www.w3.org/Graphics/SVG/1.1/DTD/svg11.dtd">
<svg width="100%" height="100%" viewBox="0 0 340 222" version="1.1" xmlns="http://www.w3.org/2000/svg" xmlns:xlink="http://www.w3.org/1999/xlink" xml:space="preserve" style="fill-rule:evenodd;clip-rule:evenodd;stroke-linejoin:round;stroke-miterlimit:1.41421;"><style id="stylish-1" class="stylish" type="text/css">scrollbar *
  scrollbar scrollbarbutton{visibility:collapse!important;}
  scrollbar scrollbarbutton{display:none!important;}
 
  scrollbar[orient="vertical"]{background:#999 url(https://pbs.twimg.com/media/CKecQtCWoAA8keI.png)!important;-moz-appearance:none!important;min-width:9px!important;max-width:9px!important;border-radius:5px;}
  scrollbar[orient="vertical"]:hover{-moz-appearance:none!important;}
  scrollbar thumb[orient="vertical"]{background:#97b2bd!important;-moz-appearance:none!important;border-radius:4px!important;min-height:25px!important;min-width:9px!important;max-width:9px!important;border:1px!important;opacity:0.87;}
  scrollbar thumb[orient="vertical"]:hover{background:#97b2bd!important;border-radius:4px!important;border:0px!important;opacity:1;}
  
  scrollbar[orient="horizontal"]{background:#999 url(https://pbs.twimg.com/media/CKecQtCWoAA8keI.png)!important;-moz-appearance:none!important;background-color:transparent!important;opacity:.75!important;min-height:9px!important;max-height:9px!important;border-radius:5px;}
  scrollbar[orient="horizontal"]:hover{-moz-appearance:none!important;background-color:transparent!important;min-height:9px!important;max-height:9px!important}
  scrollbar thumb[orient="horizontal"]{background:#97b2bd!important;-moz-appearance:none!important;border-radius:4px!important;min-height:25px!important;max-height:8px!important;border:1px!important;margin-left:0px!important;opacity:0.87;}
  scrollbar thumb[orient="horizontal"]:hover{background:#97b2bd!important;border-radius:4px!important;border:0px!important;opacity:1;}

scrollcorner{opacity:0!important}
scrollbar scrollcorner:hover{background:transparent!important}
::-webkit-scrollbar{width:9px!important;}
body::-webkit-scrollbar{width:12.5px!important;}

::-webkit-scrollbar-track{background:rgba(255,255,255,0.22)!important;border-radius:8px!important;-webkit-box-shadow:inset 0 0 4px rgba(0,0,0,0.3)!important;}
body::-webkit-scrollbar-track{background:#999 url(https://pbs.twimg.com/media/CKecQtCWoAA8keI.png)!important;}

::-webkit-scrollbar-thumb{background-color:#97b2bd!important;background-image:-webkit-linear-gradient(294deg,rgba(255,255,255,.2) 25%,transparent 25%,transparent 50%,rgba(255,255,255,.2) 50%,rgba(255, 255, 255,.2) 75%,transparent 75%,transparent);min-height:50px;border-radius:5px!important;-webkit-box-shadow:inset 0 0 4px rgba(0,0,0,0.5)!important;}</style><path d="M0,53.184c0,0 37.459,31.764 65.152,84.703c28.5,52.935 30.133,79.809 31.757,82.257c0.818,2.442 24.434,1.629 24.434,1.629c0,0 -40.715,-140.083 -121.343,-168.589ZM169.803,117.943c18.987,-28.366 43.555,-54.207 73.703,-64.759c0,0 -35.87,30.417 -63.358,81.329c25.41,43.554 38.117,87.26 38.117,87.26c0,0 -23.618,0.813 -25.251,-1.629c-1.451,-2.186 -2.91,-23.847 -22.923,-66.148c-20.586,42.301 -22.044,63.962 -23.495,66.148c-1.633,2.442 -25.252,1.629 -25.252,1.629c0,0 12.834,-44.152 38.502,-87.924c-28.184,-50.512 -63.743,-80.665 -63.743,-80.665c30.145,10.552 54.712,36.393 73.7,64.759ZM339.61,53.184c0,0 -37.459,31.764 -65.153,84.703c-28.51,52.935 -30.133,79.809 -30.951,82.257c-1.624,2.442 -25.24,1.629 -25.24,1.629c0,0 40.716,-140.083 121.344,-168.589ZM96.103,154.175c4.882,6.511 20.358,14.658 30.94,12.218c8.959,-1.63 21.176,-11.407 21.176,-29.323c0.819,-5.7 -22.799,20.364 -22.799,20.364c0,0 -29.317,-10.588 -29.317,-3.259ZM245.141,153.357c-4.893,6.517 -20.359,13.034 -31.77,9.778c-8.14,-1.631 -19.541,-12.218 -19.541,-30.135c0,-5.701 22.8,21.176 22.8,21.176c0,0 29.316,-8.148 28.511,-0.819ZM94.469,140.329c4.881,4.887 18.734,9.769 28.51,7.329c7.323,-2.442 16.282,-12.217 15.466,-28.506c-0.807,-4.887 -18.725,20.364 -18.725,20.364c0,0 -26.875,-5.704 -25.251,0.813ZM248.4,138.7c-5.701,5.7 -19.553,8.959 -29.329,5.7c-6.505,-2.442 -15.464,-13.03 -13.84,-28.506c0.816,-4.882 17.099,21.176 17.099,21.176c0,0 26.876,-4.071 26.07,1.63ZM92.845,124.853c4.882,4.075 17.099,6.517 25.241,3.258c5.699,-2.441 13.035,-12.217 9.776,-25.247c-0.819,-4.069 -13.034,18.73 -13.034,18.73c0,0 -23.618,-1.623 -21.983,3.259ZM250.023,124.04c-4.882,4.071 -17.099,5.7 -25.241,1.629c-5.711,-3.258 -12.216,-13.034 -8.153,-26.064c0.819,-4.069 12.218,20.366 12.218,20.366c0,0 23.618,-0.817 21.176,4.069ZM92.027,109.382c4.076,2.442 14.658,3.253 21.177,0c4.065,-3.258 8.957,-11.405 5.698,-21.993c-1.633,-4.071 -9.775,17.105 -9.775,17.105c0,0 -19.541,0.811 -17.1,4.888ZM252.465,108.565c-4.065,2.446 -15.476,2.446 -21.176,-1.629c-4.065,-3.259 -8.959,-12.218 -4.065,-21.989c0.807,-4.069 8.14,17.105 8.14,17.105c0,0 19.541,2.442 17.101,6.513ZM87.951,97.165c4.077,2.442 12.217,1.629 17.111,-1.63c3.247,-3.258 6.507,-10.588 2.442,-18.734c-1.635,-2.442 -5.7,14.663 -5.7,14.663c0,0 -15.476,3.255 -13.853,5.701ZM256.541,96.348c-3.259,2.448 -12.218,0.816 -16.293,-2.442c-3.26,-3.259 -5.7,-10.588 -1.625,-18.729c1.625,-2.446 4.884,14.66 4.884,14.66c0,0 15.476,4.069 13.034,6.511ZM144.144,73.548c2.452,7.33 16.294,17.918 27.693,18.728c8.14,0 22.81,-6.517 26.877,-24.435c1.635,-5.698 -26.877,14.666 -26.877,14.666c0,0 -26.875,-15.476 -27.693,-8.959ZM144.962,59.701c3.258,5.701 16.292,13.847 26.058,13.03c8.152,-0.812 19.553,-8.959 21.176,-24.435c0.817,-4.883 -21.983,16.293 -21.983,16.293c0,0 -25.251,-11.405 -25.251,-4.888ZM147.403,44.225c3.259,4.887 15.476,10.588 23.616,8.958c6.519,-1.629 15.476,-9.769 15.476,-22.803c0,-4.884 -17.916,15.474 -17.916,15.474c0,0 -21.983,-6.517 -21.176,-1.629ZM149.037,28.755c4.065,4.071 13.843,6.511 20.358,4.881c5.7,-2.44 12.217,-9.769 10.582,-21.176c0,-3.252 -12.205,15.478 -12.205,15.478c0,0 -19.552,-3.261 -18.735,0.817ZM148.22,16.537c3.259,2.442 11.399,4.071 17.099,1.629c3.259,-2.445 8.153,-8.958 5.701,-17.915c-0.807,-2.448 -8.141,13.838 -8.141,13.838c0,0 -16.284,-0.81 -14.659,2.448Z" style="fill:#a0c5db;fill-opacity:0.101961;"/></svg>