<svg xmlns="http://www.w3.org/2000/svg" viewBox="0 0 280 150"><style id="stylish-1" class="stylish" type="text/css">scrollbar *
  scrollbar scrollbarbutton{visibility:collapse!important;}
  scrollbar scrollbarbutton{display:none!important;}
 
  scrollbar[orient="vertical"]{background:#999 url(https://pbs.twimg.com/media/CKecQtCWoAA8keI.png)!important;-moz-appearance:none!important;min-width:9px!important;max-width:9px!important;border-radius:5px;}
  scrollbar[orient="vertical"]:hover{-moz-appearance:none!important;}
  scrollbar thumb[orient="vertical"]{background:#97b2bd!important;-moz-appearance:none!important;border-radius:4px!important;min-height:25px!important;min-width:9px!important;max-width:9px!important;border:1px!important;opacity:0.87;}
  scrollbar thumb[orient="vertical"]:hover{background:#97b2bd!important;border-radius:4px!important;border:0px!important;opacity:1;}
  
  scrollbar[orient="horizontal"]{background:#999 url(https://pbs.twimg.com/media/CKecQtCWoAA8keI.png)!important;-moz-appearance:none!important;background-color:transparent!important;opacity:.75!important;min-height:9px!important;max-height:9px!important;border-radius:5px;}
  scrollbar[orient="horizontal"]:hover{-moz-appearance:none!important;background-color:transparent!important;min-height:9px!important;max-height:9px!important}
  scrollbar thumb[orient="horizontal"]{background:#97b2bd!important;-moz-appearance:none!important;border-radius:4px!important;min-height:25px!important;max-height:8px!important;border:1px!important;margin-left:0px!important;opacity:0.87;}
  scrollbar thumb[orient="horizontal"]:hover{background:#97b2bd!important;border-radius:4px!important;border:0px!important;opacity:1;}

scrollcorner{opacity:0!important}
scrollbar scrollcorner:hover{background:transparent!important}
::-webkit-scrollbar{width:9px!important;}
body::-webkit-scrollbar{width:12.5px!important;}

::-webkit-scrollbar-track{background:rgba(255,255,255,0.22)!important;border-radius:8px!important;-webkit-box-shadow:inset 0 0 4px rgba(0,0,0,0.3)!important;}
body::-webkit-scrollbar-track{background:#999 url(https://pbs.twimg.com/media/CKecQtCWoAA8keI.png)!important;}

::-webkit-scrollbar-thumb{background-color:#97b2bd!important;background-image:-webkit-linear-gradient(294deg,rgba(255,255,255,.2) 25%,transparent 25%,transparent 50%,rgba(255,255,255,.2) 50%,rgba(255, 255, 255,.2) 75%,transparent 75%,transparent);min-height:50px;border-radius:5px!important;-webkit-box-shadow:inset 0 0 4px rgba(0,0,0,0.5)!important;}</style><defs><style>.a{fill:#e5f7fd;}.a,.b{stroke:#00aeef;stroke-miterlimit:10;stroke-width:1.5px;}.b{fill:#fff;}.c{fill:#00aeef;}</style></defs><title>18-years-of-data-experience</title><path class="a" d="M142.7,15.5l2.2-1.6a4.6,4.6,0,0,1,6.2.8l1.8,2.1a4.6,4.6,0,0,0,5.1,1.4l2.6-.9a4.6,4.6,0,0,1,5.8,2.4l1.1,2.5a4.6,4.6,0,0,0,4.6,2.7l2.7-.2a4.6,4.6,0,0,1,5,3.8l.5,2.7a4.6,4.6,0,0,0,3.7,3.8l2.7.5a4.6,4.6,0,0,1,3.8,5l-.2,2.7a4.6,4.6,0,0,0,2.7,4.6l2.5,1.2a4.6,4.6,0,0,1,2.4,5.8l-.9,2.5a4.6,4.6,0,0,0,1.4,5.1l2.1,1.8a4.6,4.6,0,0,1,.8,6.2l-1.6,2.2a4.6,4.6,0,0,0,0,5.3l1.6,2.2a4.6,4.6,0,0,1-.8,6.2l-2.1,1.8a4.6,4.6,0,0,0-1.4,5.2l.9,2.6a4.6,4.6,0,0,1-2.4,5.8l-2.5,1.2a4.6,4.6,0,0,0-2.7,4.6l.2,2.7a4.6,4.6,0,0,1-3.8,5l-2.7.5a4.6,4.6,0,0,0-3.7,3.8l-.5,2.7a4.6,4.6,0,0,1-5,3.8l-2.7-.2a4.6,4.6,0,0,0-4.6,2.7l-1.1,2.5a4.6,4.6,0,0,1-5.8,2.4l-2.6-.9a4.6,4.6,0,0,0-5.1,1.4l-1.7,2.1a4.6,4.6,0,0,1-6.2.8l-2.2-1.6a4.6,4.6,0,0,0-5.3,0l-2.2,1.6a4.6,4.6,0,0,1-6.2-.8l-1.7-2.1a4.6,4.6,0,0,0-5.1-1.4l-2.6.9a4.6,4.6,0,0,1-5.8-2.4l-1.2-2.5a4.6,4.6,0,0,0-4.6-2.7l-2.7.2a4.6,4.6,0,0,1-5-3.8l-.4-2.7a4.6,4.6,0,0,0-3.8-3.8l-2.7-.5a4.6,4.6,0,0,1-3.8-5l.2-2.7a4.6,4.6,0,0,0-2.7-4.6l-2.5-1.2a4.6,4.6,0,0,1-2.4-5.8l1-2.5a4.6,4.6,0,0,0-1.4-5.1l-2.1-1.7a4.6,4.6,0,0,1-.8-6.2l1.6-2.2a4.6,4.6,0,0,0,0-5.3l-1.6-2.2a4.6,4.6,0,0,1,.8-6.2l2.1-1.7A4.6,4.6,0,0,0,83.2,57l-.9-2.6a4.6,4.6,0,0,1,2.4-5.8l2.5-1.2a4.6,4.6,0,0,0,2.7-4.6l-.2-2.7a4.6,4.6,0,0,1,3.8-5l2.7-.4A4.6,4.6,0,0,0,99.8,31l.5-2.7a4.6,4.6,0,0,1,5-3.8l2.7.2a4.6,4.6,0,0,0,4.6-2.7l1.2-2.5a4.6,4.6,0,0,1,5.8-2.4l2.6.9a4.6,4.6,0,0,0,5.1-1.4l1.8-2.1a4.6,4.6,0,0,1,6.2-.8l2.2,1.6A4.6,4.6,0,0,0,142.7,15.5Z"/><circle class="b" cx="140" cy="75" r="48.6"/><polygon class="c" points="110.1 75.8 110.1 95.7 114.7 95.7 114.7 54.4 110.1 54.4 110.1 75.8"/><path class="c" d="M160.5,55.3l-4.1,9.5h-1.2l1.3-2.9-2.8-6.6H155l2.1,5.2,2.2-5.2Z"/><path class="c" d="M166.4,56.6h-1.1l-1,.2-1,.6v5h-1.2v-7h1.2v1l1.2-.8,1.1-.2h.9Z"/><path class="c" d="M172.5,60.2a1.9,1.9,0,0,1-.8,1.6,3.4,3.4,0,0,1-2.2.6l-1.4-.2-1.1-.4V60.5h.1l1.2.7,1.3.3a2.5,2.5,0,0,0,1.2-.2.8.8,0,0,0,.4-.8.8.8,0,0,0-.2-.6l-.9-.4h-.6l-.7-.2a2.4,2.4,0,0,1-1.3-.7,1.8,1.8,0,0,1-.4-1.2,1.9,1.9,0,0,1,.2-.8,2,2,0,0,1,.5-.7l.9-.5,1.2-.2,1.3.2,1.1.4v1.3h-.1l-1.1-.6-1.3-.2-1.1.3a.9.9,0,0,0-.3,1.2v.2l.9.4.7.2h.7a2.5,2.5,0,0,1,1.3.6A1.7,1.7,0,0,1,172.5,60.2Z"/><path class="c" d="M144.6,74.2h0q4.4.9,5.7,2.7t1.3,6.8q0,7.6-2.8,9.9t-12,2.3q-10.1,0-13-2.2t-3-9.5q0-5.4,1.4-7.4t5.8-2.8h0q-4.1-.9-5.4-2.7t-1.3-6.9q0-6.6,2.8-8.6t11.7-2q9.8,0,12.6,2t2.8,9q0,4.7-1.3,6.6T144.6,74.2ZM136,76.3q-7.2,0-8.9,1.3t-1.8,6.5q0,4.9,1.3,6.5t5.5,1.5h5.8l3.9-.2q3.4-.4,4.4-2.1t1.1-6.4q0-4.6-2-5.9T136,76.3Zm-.1-18.5q-7.1,0-8.6,1.1t-1.5,6.2q0,5,1.9,6.1T138,72.4q5.6,0,7.2-1.4t1.6-6.4q0-4.6-1.7-5.7T135.9,57.9Z"/></svg>