<?xml version="1.0" encoding="UTF-8" standalone="no"?>
<!DOCTYPE svg PUBLIC "-//W3C//DTD SVG 1.1//EN" "http://www.w3.org/Graphics/SVG/1.1/DTD/svg11.dtd">
<svg width="100%" height="100%" viewBox="0 0 64 64" version="1.1" xmlns="http://www.w3.org/2000/svg" xmlns:xlink="http://www.w3.org/1999/xlink" xml:space="preserve" xmlns:serif="http://www.serif.com/" style="fill-rule:evenodd;clip-rule:evenodd;stroke-linejoin:round;stroke-miterlimit:1.41421;">
    <g id="Layer_4">
        <g transform="matrix(1.11111,0,0,1.11111,-3.60832,-3.55556)">
            <path d="M32.745,54.117C32.247,54.39 31.762,54.4 31.254,54.117C19.852,47.408 12.893,32.491 15.892,16.471C15.979,16.099 15.94,15.949 16.142,15.844C21.352,14.564 30.311,10.342 31.789,9.663C31.883,9.62 31.949,9.607 31.981,9.602L32.02,9.602C32.051,9.606 32.117,9.62 32.211,9.663C33.688,10.341 42.649,14.564 47.857,15.844C48.058,15.948 48.019,16.099 48.107,16.471C51.105,32.491 44.148,47.408 32.745,54.117Z" style="fill:url(#_Linear1);fill-rule:nonzero;"/>
        </g>
        <g transform="matrix(1.11111,0,0,1.11111,-3.60832,-3.55556)">
            <path d="M46.76,18.171C46.682,17.836 46.716,17.699 46.533,17.605C41.824,16.45 33.54,12.698 32.205,12.086C32.113,12.044 32.055,12.026 32.026,12.02C32.017,12.018 31.989,12.018 31.97,12.022C31.935,12.031 31.872,12.05 31.794,12.086C30.458,12.697 22.175,16.45 17.465,17.605C17.282,17.699 17.318,17.835 17.239,18.171C15.893,32.641 20.841,45.748 31.126,52.26C31.795,52.628 32.203,52.628 32.872,52.26C43.157,45.748 48.105,32.641 46.76,18.171Z" style="fill:rgb(253,253,253);fill-rule:nonzero;"/>
        </g>
        <g transform="matrix(0.820622,0,0,0.911026,5.68714,2.08519)">
            <path d="M46.76,18.171C46.682,17.836 46.716,17.699 46.533,17.605C41.824,16.45 22.175,16.45 17.465,17.605C17.282,17.699 17.318,17.835 17.239,18.171C15.893,32.641 20.841,45.748 31.126,52.26C31.795,52.628 32.203,52.628 32.872,52.26C43.157,45.748 48.105,32.641 46.76,18.171Z" style="fill:rgb(44,62,80);fill-rule:nonzero;"/>
        </g>
    </g>
    <g transform="matrix(1.11111,0,0,1.11111,-3.60832,-3.55556)">
        <path d="M32.02,9.5L32,9.5L32.003,54.5C32.252,54.499 32.499,54.428 32.75,54.289C44.217,47.539 51.215,32.529 48.199,16.411C48.111,16.037 48.15,15.886 47.947,15.78C42.708,14.492 33.697,10.244 32.212,9.562C32.118,9.519 32.051,9.505 32.02,9.5" style="fill:url(#_Linear2);fill-rule:nonzero;"/>
    </g>
    <g transform="matrix(1.70637,0,0,1.70637,-7.83139,-51.5538)">
        <path d="M31.979,34.381L35.691,36.525L35.691,40.811L31.979,42.954L28.266,40.811L28.266,36.525L31.979,34.381Z" style="fill:url(#_Linear3);"/>
    </g>
    <g transform="matrix(0.533355,0,0,0.533355,41.4024,9.09435)">
        <path d="M15.871,5.936C15.372,5.437 14.563,5.437 14.065,5.936L8.645,11.355L5.936,8.646C5.437,8.147 4.628,8.147 4.129,8.646C3.63,9.144 3.63,9.953 4.129,10.452L7.741,14.064C8.24,14.563 9.049,14.563 9.548,14.064L15.87,7.742C16.37,7.243 16.37,6.435 15.871,5.936Z" style="fill:white;fill-rule:nonzero;"/>
    </g>
    <g transform="matrix(0.800732,0,0,0.800732,4.98818,-10.135)">
        <g transform="matrix(1,0,0,1,-27.0857,27.8498)">
            <path d="M57.91,16.622L57.91,17.654L55.786,17.654L55.786,24.71L54.55,24.71L54.55,17.654L52.438,17.654L52.438,16.622L57.91,16.622Z" style="fill:rgb(126,225,173);fill-rule:nonzero;"/>
            <path d="M60.286,23.618L63.598,23.618L63.598,24.71L59.05,24.71L59.05,16.622L60.286,16.622L60.286,23.618Z" style="fill:rgb(126,225,173);fill-rule:nonzero;"/>
            <path d="M69.178,16.946L69.178,18.17C68.642,17.834 68.034,17.666 67.354,17.666C66.914,17.666 66.568,17.764 66.316,17.96C66.064,18.156 65.938,18.414 65.938,18.734C65.938,19.054 66.062,19.31 66.31,19.502C66.558,19.694 66.938,19.902 67.45,20.126C67.786,20.27 68.048,20.394 68.236,20.498C68.424,20.602 68.64,20.748 68.884,20.936C69.128,21.124 69.308,21.348 69.424,21.608C69.54,21.868 69.598,22.166 69.598,22.502C69.598,23.214 69.346,23.774 68.842,24.182C68.338,24.59 67.686,24.794 66.886,24.794C65.998,24.794 65.262,24.622 64.678,24.278L64.678,22.994C65.31,23.466 66.042,23.702 66.874,23.702C67.314,23.702 67.662,23.6 67.918,23.396C68.174,23.192 68.302,22.91 68.302,22.55C68.302,22.334 68.226,22.136 68.074,21.956C67.922,21.776 67.758,21.64 67.582,21.548C67.406,21.456 67.142,21.33 66.79,21.17C66.582,21.074 66.436,21.006 66.352,20.966C66.268,20.926 66.13,20.854 65.938,20.75C65.746,20.646 65.604,20.558 65.512,20.486C65.42,20.414 65.306,20.314 65.17,20.186C65.034,20.058 64.936,19.93 64.876,19.802C64.816,19.674 64.76,19.524 64.708,19.352C64.656,19.18 64.63,18.994 64.63,18.794C64.63,18.106 64.88,17.562 65.38,17.162C65.88,16.762 66.526,16.562 67.318,16.562C68.046,16.562 68.666,16.69 69.178,16.946Z" style="fill:rgb(126,225,173);fill-rule:nonzero;"/>
        </g>
        <g transform="matrix(1,0,0,1,-3.08855,22.7732)">
            <path d="M31.29,36.087L31.29,35.067L33.15,33.939L34.038,33.939L34.038,41.787L33.102,41.787L33.102,34.971L31.29,36.087Z" style="fill:rgb(89,196,245);fill-rule:nonzero;"/>
            <path d="M35.442,41.679C35.306,41.543 35.238,41.375 35.238,41.175C35.238,40.975 35.306,40.807 35.442,40.671C35.578,40.535 35.746,40.467 35.946,40.467C36.146,40.467 36.314,40.535 36.45,40.671C36.586,40.807 36.654,40.975 36.654,41.175C36.654,41.375 36.586,41.543 36.45,41.679C36.314,41.815 36.146,41.883 35.946,41.883C35.746,41.883 35.578,41.815 35.442,41.679Z" style="fill:rgb(89,196,245);fill-rule:nonzero;"/>
            <path d="M38.706,40.959L42.354,40.959L42.354,41.787L37.398,41.787L37.398,40.983C39.878,39.111 41.118,37.551 41.118,36.303C41.118,35.807 40.974,35.425 40.686,35.157C40.398,34.889 40.01,34.755 39.522,34.755C38.89,34.755 38.266,34.991 37.65,35.463L37.65,34.515C38.218,34.075 38.87,33.855 39.606,33.855C40.31,33.855 40.902,34.059 41.382,34.467C41.862,34.875 42.102,35.455 42.102,36.207C42.102,37.623 40.97,39.207 38.706,40.959Z" style="fill:rgb(89,196,245);fill-rule:nonzero;"/>
        </g>
    </g>
    <g transform="matrix(1,0,0,1,25.368,22.4183)">
        <path d="M1.152,-0.87L1.152,-0.924C1.148,-1.038 1.117,-1.129 1.059,-1.196C1.001,-1.263 0.918,-1.296 0.81,-1.296C0.71,-1.296 0.624,-1.26 0.552,-1.187C0.48,-1.114 0.435,-1.008 0.417,-0.87L1.152,-0.87ZM1.341,-0.345L1.341,-0.081C1.229,-0.017 1.081,0.015 0.897,0.015C0.661,0.015 0.473,-0.056 0.333,-0.198C0.193,-0.34 0.123,-0.526 0.123,-0.756C0.123,-1 0.187,-1.192 0.315,-1.331C0.443,-1.47 0.606,-1.539 0.804,-1.539C0.998,-1.539 1.152,-1.479 1.266,-1.358C1.38,-1.237 1.437,-1.062 1.437,-0.834C1.437,-0.772 1.431,-0.707 1.419,-0.639L0.42,-0.639C0.44,-0.507 0.496,-0.406 0.588,-0.336C0.68,-0.266 0.796,-0.231 0.936,-0.231C1.098,-0.231 1.233,-0.269 1.341,-0.345Z" style="fill:white;fill-rule:nonzero;"/>
        <path d="M2.076,-1.521L2.076,-1.26C2.166,-1.448 2.324,-1.542 2.55,-1.542C2.7,-1.542 2.819,-1.496 2.907,-1.404C2.995,-1.312 3.039,-1.187 3.039,-1.029L3.039,0L2.745,0L2.745,-0.96C2.745,-1.066 2.719,-1.147 2.666,-1.203C2.613,-1.259 2.542,-1.287 2.454,-1.287C2.35,-1.287 2.261,-1.247 2.187,-1.166C2.113,-1.085 2.076,-0.971 2.076,-0.825L2.076,0L1.782,0L1.782,-1.521L2.076,-1.521Z" style="fill:white;fill-rule:nonzero;"/>
        <path d="M3.654,-0.753C3.658,-0.599 3.705,-0.473 3.795,-0.374C3.885,-0.274 4.011,-0.225 4.173,-0.225C4.293,-0.225 4.405,-0.258 4.509,-0.324L4.509,-0.06C4.411,0 4.286,0.03 4.134,0.03C3.896,0.03 3.706,-0.045 3.564,-0.195C3.422,-0.345 3.351,-0.532 3.351,-0.756C3.351,-0.974 3.423,-1.16 3.566,-1.316C3.709,-1.471 3.902,-1.548 4.146,-1.548C4.278,-1.548 4.399,-1.52 4.509,-1.464L4.509,-1.194C4.411,-1.256 4.3,-1.287 4.176,-1.287C4.018,-1.287 3.892,-1.237 3.797,-1.137C3.702,-1.037 3.654,-0.909 3.654,-0.753Z" style="fill:white;fill-rule:nonzero;"/>
        <path d="M5.142,-1.521L5.142,-1.254C5.216,-1.442 5.349,-1.536 5.541,-1.536C5.569,-1.536 5.6,-1.533 5.634,-1.527L5.634,-1.239C5.592,-1.257 5.545,-1.266 5.493,-1.266C5.391,-1.266 5.307,-1.221 5.241,-1.131C5.175,-1.041 5.142,-0.934 5.142,-0.81L5.142,0L4.848,0L4.848,-1.521L5.142,-1.521Z" style="fill:white;fill-rule:nonzero;"/>
        <path d="M6.285,-0.033L5.679,-1.521L6.006,-1.521L6.195,-1.026L6.432,-0.384C6.45,-0.444 6.522,-0.658 6.648,-1.026L6.819,-1.521L7.131,-1.521L6.582,-0.042C6.436,0.348 6.213,0.543 5.913,0.543C5.859,0.543 5.813,0.538 5.775,0.528L5.775,0.276C5.807,0.284 5.841,0.288 5.877,0.288C6.071,0.288 6.207,0.181 6.285,-0.033Z" style="fill:white;fill-rule:nonzero;"/>
        <path d="M8.079,-0.237C8.197,-0.237 8.294,-0.283 8.37,-0.377C8.446,-0.47 8.484,-0.6 8.484,-0.768C8.484,-0.926 8.447,-1.052 8.373,-1.145C8.299,-1.238 8.205,-1.284 8.091,-1.284C7.977,-1.284 7.879,-1.243 7.795,-1.16C7.713,-1.077 7.671,-0.945 7.671,-0.765C7.671,-0.589 7.713,-0.457 7.795,-0.369C7.879,-0.281 7.973,-0.237 8.079,-0.237ZM7.671,-1.521L7.671,-1.287C7.775,-1.457 7.931,-1.542 8.139,-1.542C8.339,-1.542 8.497,-1.47 8.613,-1.325C8.729,-1.18 8.787,-0.995 8.787,-0.771C8.787,-0.541 8.727,-0.352 8.609,-0.203C8.49,-0.054 8.331,0.021 8.133,0.021C7.931,0.021 7.777,-0.063 7.671,-0.231L7.671,0.582L7.377,0.582L7.377,-1.521L7.671,-1.521Z" style="fill:white;fill-rule:nonzero;"/>
        <path d="M9.498,-1.293L9.498,-0.456C9.498,-0.31 9.568,-0.237 9.708,-0.237C9.79,-0.237 9.859,-0.259 9.915,-0.303L9.915,-0.039C9.849,-0.003 9.768,0.015 9.672,0.015C9.358,0.015 9.201,-0.144 9.201,-0.462L9.201,-1.293L8.964,-1.293L8.964,-1.521L9.201,-1.521L9.201,-1.893L9.498,-1.893L9.498,-1.521L9.897,-1.521L9.897,-1.293L9.498,-1.293Z" style="fill:white;fill-rule:nonzero;"/>
        <path d="M11.184,-0.87L11.184,-0.924C11.18,-1.038 11.149,-1.129 11.091,-1.196C11.033,-1.263 10.95,-1.296 10.842,-1.296C10.742,-1.296 10.656,-1.26 10.584,-1.187C10.512,-1.114 10.467,-1.008 10.449,-0.87L11.184,-0.87ZM11.373,-0.345L11.373,-0.081C11.261,-0.017 11.113,0.015 10.929,0.015C10.693,0.015 10.505,-0.056 10.365,-0.198C10.225,-0.34 10.155,-0.526 10.155,-0.756C10.155,-1 10.219,-1.192 10.347,-1.331C10.475,-1.47 10.638,-1.539 10.836,-1.539C11.03,-1.539 11.184,-1.479 11.298,-1.358C11.412,-1.237 11.469,-1.062 11.469,-0.834C11.469,-0.772 11.463,-0.707 11.451,-0.639L10.452,-0.639C10.472,-0.507 10.528,-0.406 10.62,-0.336C10.712,-0.266 10.828,-0.231 10.968,-0.231C11.13,-0.231 11.265,-0.269 11.373,-0.345Z" style="fill:white;fill-rule:nonzero;"/>
        <path d="M12.429,-0.237C12.545,-0.237 12.643,-0.281 12.723,-0.369C12.803,-0.457 12.843,-0.591 12.843,-0.771C12.843,-0.945 12.801,-1.074 12.718,-1.158C12.635,-1.242 12.542,-1.284 12.438,-1.284C12.32,-1.284 12.223,-1.238 12.147,-1.145C12.071,-1.052 12.033,-0.919 12.033,-0.747C12.033,-0.595 12.07,-0.472 12.145,-0.378C12.221,-0.284 12.315,-0.237 12.429,-0.237ZM12.843,-2.121L13.14,-2.121L13.14,0L12.843,0L12.843,-0.231C12.737,-0.063 12.582,0.021 12.378,0.021C12.178,0.021 12.02,-0.055 11.904,-0.206C11.788,-0.357 11.73,-0.539 11.73,-0.753C11.73,-0.991 11.791,-1.182 11.913,-1.326C12.035,-1.47 12.192,-1.542 12.384,-1.542C12.582,-1.542 12.735,-1.458 12.843,-1.29L12.843,-2.121Z" style="fill:white;fill-rule:nonzero;"/>
    </g>
    <defs>
        <linearGradient id="_Linear1" x1="0" y1="0" x2="1" y2="0" gradientUnits="userSpaceOnUse" gradientTransform="matrix(2.81546e-15,-45.9799,45.9799,2.81546e-15,15.1945,54.3255)"><stop offset="0" style="stop-color:rgb(40,184,115);stop-opacity:1"/><stop offset="1" style="stop-color:rgb(105,211,251);stop-opacity:1"/></linearGradient>
        <linearGradient id="_Linear2" x1="0" y1="0" x2="1" y2="0" gradientUnits="userSpaceOnUse" gradientTransform="matrix(16.9004,0,0,16.9004,32,32)"><stop offset="0" style="stop-color:rgb(65,64,66);stop-opacity:0.0431373"/><stop offset="1" style="stop-color:rgb(65,64,66);stop-opacity:0"/></linearGradient>
        <linearGradient id="_Linear3" x1="0" y1="0" x2="1" y2="0" gradientUnits="userSpaceOnUse" gradientTransform="matrix(-2.00068,8.51536,-8.51536,-2.00068,33.9797,34.4386)"><stop offset="0" style="stop-color:rgb(101,209,243);stop-opacity:1"/><stop offset="1" style="stop-color:rgb(46,204,113);stop-opacity:1"/></linearGradient>
    </defs>
</svg>
