<?xml version="1.0" encoding="utf-8"?>
<svg version="1.0" xmlns="http://www.w3.org/2000/svg" xmlns:xlink="http://www.w3.org/1999/xlink" x="0px" y="0px"
	 viewBox="0 0 256 256" style="enable-background:new 0 0 256 256;" xml:space="preserve">
<style type="text/css">
	.st4{fill:#097893;}
</style>
<g id="_x33__x5F_portes">
	<g>
		<g>
			<path class="st4" d="M156.7,90.1c3.1,0.6,5.6,2,7.6,4.5c1.9,2.4,2.9,5.4,2.9,8.9c0,2.4-0.5,4.5-1.4,6.4c-0.9,1.9-2.2,3.5-3.9,4.9
				c-1.7,1.3-3.7,2.4-6.1,3.1c-2.4,0.7-5.1,1.1-8.1,1.1c-3.8,0-7.2-0.6-10.1-1.8c-2.9-1.2-5.4-3-7.4-5.4l5.7-7.2
				c1.3,1.7,2.9,2.9,4.7,3.8c1.8,0.9,4.1,1.4,6.8,1.4c3.1,0,5.4-0.6,7-1.8c1.6-1.2,2.4-3.1,2.4-5.6c0-2.6-0.9-4.6-2.8-6
				c-1.9-1.4-4.7-2.1-8.4-2.1h-2.1v-7.5h2.3c3.1,0,5.5-0.7,7.2-2.1c1.7-1.4,2.6-3.2,2.6-5.3c0-2.1-0.7-3.6-2.1-4.6
				c-1.4-1-3.2-1.5-5.5-1.5c-2.3,0-4.4,0.5-6.2,1.6c-1.8,1.1-3.3,2.5-4.5,4.4l-6.3-7.1c0.8-1.2,1.8-2.2,3-3.1
				c1.3-0.9,2.7-1.7,4.3-2.4c1.6-0.7,3.3-1.2,5.2-1.6c1.9-0.4,3.8-0.6,5.7-0.6c2.6,0,4.9,0.3,7,1c2.1,0.7,3.9,1.6,5.5,2.7
				c1.5,1.1,2.7,2.5,3.5,4.2c0.8,1.6,1.2,3.5,1.2,5.5c0,1.5-0.2,2.9-0.7,4.3c-0.5,1.4-1.1,2.6-2,3.7c-0.9,1.1-1.9,2-3.1,2.8
				C159.4,89.3,158.1,89.8,156.7,90.1z"/>
		</g>
		<g>
			<path class="st4" d="M233,44.5c-4.8-9.6-14.4-15.5-25.1-15.5h-87.2C104,29,88.1,36.2,77,48.6L34.7,96.2
				C25.2,106.9,20,120.7,20,135.6l7.5,58.1h0c1.1,8.3,4.9,16.2,10.9,22.1c7.2,7.2,16.8,11.2,27,11.2H218c9.9,0,18-8.1,18-18V57.1
				C236,52.7,235,48.4,233,44.5z M227,209c0,5-4,9-9,9H65.5c-7.8,0-15.1-3-20.7-8.6c-4.5-4.5-7.5-10.5-8.3-16.9L29,135
				c0-12.1,4.4-23.8,12.5-32.9l42.2-47.5c9.4-10.6,22.9-16.6,37-16.6h87.2c7.3,0,13.8,4,17.1,10.5c1.3,2.6,2,5.6,2,8.5V209L227,209z
				"/>
			<path class="st4" d="M207.9,47h-87.2c-11.6,0-22.6,5-30.3,13.6l-42.3,47.5c-5.3,6-10.2,13.1-10.2,24.4c0,2.5,2,4.5,4.5,4.5h171
				c2.5,0,4.5-2,4.5-4.5V57.1c0-1.6-0.4-3.1-1.1-4.5C215.2,49.1,211.8,47,207.9,47z M209,128H47.4c0.8-4.8,3.1-8.9,7.6-13.9
				l42.2-47.5c6-6.7,14.6-10.6,23.5-10.6h87.2c0.4,0,0.8,0.2,1.1,1.1V128L209,128z"/>
			<path class="st4" d="M213.5,155h-27c-2.5,0-4.5,2-4.5,4.5c0,2.5,2,4.5,4.5,4.5h27c2.5,0,4.5-2,4.5-4.5C218,157,216,155,213.5,155
				z"/>
			<path class="st4" d="M213.5,182h-162c-2.5,0-4.5,2-4.5,4.5c0,2.5,2,4.5,4.5,4.5h162c2.5,0,4.5-2,4.5-4.5
				C218,184,216,182,213.5,182z"/>
		</g>
	</g>
</g>
</svg>