<?xml version="1.0" encoding="utf-8"?>
<!-- Generator: Adobe Illustrator 22.0.1, SVG Export Plug-In . SVG Version: 6.00 Build 0)  -->
<svg version="1.1" id="Layer_1" xmlns="http://www.w3.org/2000/svg" xmlns:xlink="http://www.w3.org/1999/xlink" x="0px" y="0px"
	 viewBox="0 0 236.6 297.2" style="enable-background:new 0 0 236.6 297.2;" xml:space="preserve">
<style type="text/css">
	.st0{fill:url(#SVGID_1_);}
	.st1{fill:url(#SVGID_2_);}
	.st2{fill:url(#SVGID_3_);}
</style>
<g>
	<linearGradient id="SVGID_1_" gradientUnits="userSpaceOnUse" x1="17.9187" y1="150.2811" x2="225.9873" y2="150.2811">
		<stop  offset="1.702724e-02" style="stop-color:#D8A872"/>
		<stop  offset="0.3507" style="stop-color:#B6AD54"/>
		<stop  offset="1" style="stop-color:#6BB710"/>
	</linearGradient>
	<path class="st0" d="M225.7,248L192.5,168c-0.8-2-3.2-3-5.2-2.2c-2,0.8-3,3.2-2.2,5.2l30,72.4l-27.4-7.9c-1.8-0.5-3.7,0.3-4.6,1.9
		l-13.7,24.9l-32.2-77.7c37.1-7.2,65.3-39.9,65.3-79.1c0-44.4-36.1-80.6-80.6-80.6s-80.6,36.1-80.6,80.6c0,18,5.9,34.6,15.9,48
		L18.2,248c-0.6,1.4-0.3,3.1,0.7,4.2c1,1.1,2.6,1.6,4.1,1.2l32.3-9.3l16.2,29.4c0.7,1.3,2,2.1,3.5,2.1c0.1,0,0.1,0,0.2,0
		c1.5-0.1,2.9-1,3.5-2.5l31-74.8c0.8-2-0.1-4.4-2.2-5.2c-2-0.8-4.4,0.1-5.2,2.2l-27.8,67.1l-13.7-24.9c-0.9-1.6-2.8-2.4-4.6-1.9
		l-27.4,7.9l34.3-82.9c14.7,15.7,35.6,25.6,58.8,25.6c2.4,0,4.8-0.1,7.1-0.3l36.2,87.3c0.6,1.4,1.9,2.4,3.5,2.5c0.1,0,0.1,0,0.2,0
		c1.4,0,2.8-0.8,3.5-2.1l16.2-29.4l32.3,9.3c1.5,0.4,3.1,0,4.1-1.2C226,251.1,226.3,249.5,225.7,248L225.7,248z M49.4,105.6
		c0-40,32.6-72.6,72.6-72.6s72.6,32.6,72.6,72.6c0,40-32.6,72.6-72.6,72.6S49.4,145.6,49.4,105.6L49.4,105.6z M49.4,105.6"/>
	<linearGradient id="SVGID_2_" gradientUnits="userSpaceOnUse" x1="75.5612" y1="101.311" x2="168.3442" y2="101.311">
		<stop  offset="1.702724e-02" style="stop-color:#D8A872"/>
		<stop  offset="0.3507" style="stop-color:#B6AD54"/>
		<stop  offset="1" style="stop-color:#6BB710"/>
	</linearGradient>
	<path class="st1" d="M168.1,90.6c-0.5-1.4-1.7-2.5-3.1-2.7l-26.9-4.5l-12.6-24.2c-0.7-1.3-2.1-2.2-3.5-2.2c-1.5,0-2.9,0.8-3.5,2.2
		l-12.6,24.2l-26.9,4.5c-1.5,0.2-2.7,1.3-3.1,2.7c-0.5,1.4-0.1,3,1,4l19.1,19.5l-4,27c-0.2,1.5,0.4,2.9,1.6,3.8
		c1.2,0.9,2.8,1,4.1,0.3L122,133l24.4,12.2c0.6,0.3,1.2,0.4,1.8,0.4c0.8,0,1.7-0.3,2.4-0.8c1.2-0.9,1.8-2.3,1.6-3.8l-4-27l19.1-19.5
		C168.2,93.5,168.6,92,168.1,90.6L168.1,90.6z M141,109.9c-0.9,0.9-1.3,2.2-1.1,3.4l3.2,21.4l-19.3-9.6c-0.6-0.3-1.2-0.4-1.8-0.4
		c-0.6,0-1.2,0.1-1.8,0.4l-19.3,9.6l3.2-21.4c0.2-1.2-0.2-2.5-1.1-3.4L87.8,94.5l21.3-3.6c1.2-0.2,2.3-1,2.9-2.1l10-19.2l10,19.2
		c0.6,1.1,1.6,1.9,2.9,2.1l21.3,3.6L141,109.9z M141,109.9"/>
	<linearGradient id="SVGID_3_" gradientUnits="userSpaceOnUse" x1="121.6889" y1="41.0024" x2="121.6889" y2="170.1306">
		<stop  offset="1.702724e-02" style="stop-color:#D8A872"/>
		<stop  offset="0.3507" style="stop-color:#B6AD54"/>
		<stop  offset="1" style="stop-color:#6BB710"/>
	</linearGradient>
	<path class="st2" d="M182.5,109.6c-2.2-0.3-4.2,1.2-4.5,3.4c-3.7,28-27.8,49.1-56.1,49.1c-31.2,0-56.6-25.4-56.6-56.6
		C65.4,74.4,90.8,49,122,49c28.3,0,52.4,21.1,56.1,49.1c0.3,2.2,2.3,3.7,4.5,3.4c2.2-0.3,3.7-2.3,3.4-4.5c-4.2-31.9-31.7-56-64-56
		c-35.6,0-64.6,29-64.6,64.6c0,35.6,29,64.6,64.6,64.6c32.3,0,59.8-24.1,64-56C186.2,111.9,184.7,109.9,182.5,109.6L182.5,109.6z
		 M182.5,109.6"/>
</g>
</svg>
