<?xml version="1.0" encoding="utf-8"?>
<!-- Generator: Adobe Illustrator 22.0.1, SVG Export Plug-In . SVG Version: 6.00 Build 0)  -->
<svg version="1.1" id="Layer_1" xmlns="http://www.w3.org/2000/svg" xmlns:xlink="http://www.w3.org/1999/xlink" x="0px" y="0px"
	 viewBox="0 0 236.6 297.2" style="enable-background:new 0 0 236.6 297.2;" xml:space="preserve">
<style type="text/css">
	.st0{fill:url(#SVGID_1_);}
	.st1{fill:url(#SVGID_2_);}
</style>
<g>
	<linearGradient id="SVGID_1_" gradientUnits="userSpaceOnUse" x1="42.7952" y1="113.7601" x2="187.3355" y2="113.7601">
		<stop  offset="1.702724e-02" style="stop-color:#D8A872"/>
		<stop  offset="0.3507" style="stop-color:#B6AD54"/>
		<stop  offset="1" style="stop-color:#6BB710"/>
	</linearGradient>
	<path class="st0" d="M186.6,83c-1.1-1.9-3.6-2.2-5.2-0.8L145,117.6l-47-23.9c-1.1-0.6-2.5-0.3-3.4,0.6l-50.4,43.9
		c-1.6,1.4-2,4.1-0.9,6c0.7,1.4,1.8,1.9,2.9,1.9c0.7,0,1.4-0.3,2-0.8l48.8-42.6l47.2,23.9c1.1,0.5,2.7,0.3,3.6-0.5l38-36.8
		C187.5,88,187.8,84.9,186.6,83L186.6,83z M186.6,83"/>
	<linearGradient id="SVGID_2_" gradientUnits="userSpaceOnUse" x1="16.6183" y1="169.5041" x2="220" y2="169.5041">
		<stop  offset="1.702724e-02" style="stop-color:#D8A872"/>
		<stop  offset="0.3507" style="stop-color:#B6AD54"/>
		<stop  offset="1" style="stop-color:#6BB710"/>
	</linearGradient>
	<path class="st1" d="M217.1,212.4h-14.2v-88.8c0-1.7-1.3-3.1-3.1-3.1h-28.2c-1.7,0-3.1,1.3-3.1,3.1v88.8h-10.4v-58.1
		c0-1.7-1.3-3.1-3.1-3.1h-28.4c-1.7,0-3.1,1.3-3.1,3.1v58.1h-10.4v-62.7c0-1.7-1.3-3.1-3.1-3.1H82c-1.7,0-3.1,1.3-3.1,3.1v62.7H68.6
		v-44.7c0-1.7-1.3-3.1-3.1-3.1H37.1c-1.7,0-3.1,1.3-3.1,3.1v44.7H19.7c-1.7,0-3.1,1.3-3.1,3.1c0,1.7,1.3,3.1,3.1,3.1h197.2
		c1.7,0,3.1-1.3,3.1-3.1C220.2,213.7,218.8,212.4,217.1,212.4L217.1,212.4z M62.3,212.4H40.2v-41.6h22.1V212.4z M107.2,212.4H85.1
		v-59.7h22.1V212.4z M151.9,212.4h-22.1v-55.1h22.1V212.4z M196.8,212.4h-22.1v-85.8h22.1V212.4z M196.8,212.4"/>
</g>
</svg>
