<?xml version="1.0" encoding="utf-8"?>
<!-- Generator: Adobe Illustrator 23.0.1, SVG Export Plug-In . SVG Version: 6.00 Build 0)  -->
<svg version="1.2" baseProfile="tiny" id="Layer_1" xmlns="http://www.w3.org/2000/svg" xmlns:xlink="http://www.w3.org/1999/xlink"
	 x="0px" y="0px" viewBox="0 0 900 600" xml:space="preserve">
<g>
	<path d="M787.28,201.32c0.12-0.25,0.19-0.19-0.1-0.1L787.28,201.32z"/>
	<path d="M891.75,559.42l0.1-0.1C891.72,559.31,891.75,559.29,891.75,559.42z"/>
	<path d="M771.11,241.29c5.46-3.6,11.13-7.01,14.32-11.02c11.02-5.87,20.3-11.54,29.67-16.69c2.58,8.76,4.53,17.62,12.05,23.59
		c11.33-1.34,20.65-6.86,28.74-14.32c1.87-1.73,19.03-17.95,20.6-20.4c7.14-11.09,14.07-9.16,19.57-20.09
		c1.39-2.76,2.06-5.87,3.91-7.93c0.21-2.58-2.06-2.27-3.19-3.19c0.52-2.27-0.31-3.61-2.47-3.91c-0.31-1.03,0.31-2.06-0.62-3.09
		c-2.16-0.31-3.91-1.85-5.77-3.61c-1.96,1.34-4.33-0.21-6.28,0.93c-1.65,1.44-1.96,3.81-3.61,5.25c-2.58,2.26-3.53,5.25-3.4,8.65
		c0.2,5.33-1.81,14.03-8.34,17.31c-5.64,2.83-10.89,6.43-15.97,10.2c-3.79,2.81-8.45,3.4-12.77,5.05
		c-1.85-5.67-1.96-11.23-2.47-16.59c0.62-1.34,1.65-2.16,2.47-3.19c7.19-9.01,18.08-9.47,22.77-25.86c0.53-1.85,0.62-3.81,2.88-4.64
		c0.49,0.49,1.48,1.23,2.16,0.82c1.85-3.81,1.83-3.8-0.1-7.11c-0.84-1.44-1.85-2.68-2.47-4.33c-0.31-1.03-1.13-1.85-2.88-1.85
		c-2.47,1.44-5.87,2.16-8.55,5.46c3.91-0.1,6.18-2.78,9.17-3.19c0.93,0.62,1.55,1.24,1.44,2.47c-4.27,2.14-4.61,2.23-4.84,3.4
		c2.47,0.41,4.02-1.44,6.18-1.96c5.38,9.22-1.87-0.36-4.33,10.41c-3.56,15.59-11.66,12.4-22.66,25.45
		c-23.98,28.43-19.27,21.29-41.93,34.61c-2.79,1.64-6.28,1.13-8.45,3.81c-4.64-3.61-6.08-9.07-9.27-13.29
		c-0.21-0.21-0.21-0.52-0.21-0.72c-2.41-17.69-2.29-7.73-2.06-47.49c0.02-3.3-1.36-6.18-2.27-9.27c-0.63-2.16-1.75-2.16-3.4-0.41
		c1.1,5.14,4.33,3.3,3.81,9.17c-0.96,10.84,0.52,17.45-0.72,19.47c-5.56,2.16-12.06,0.53-16.17-1.13c-3.3-1.33-5.46-4.33-6.9-7.73
		c4.15-9.82,10.79-16.16,12.88-20.09c2.73-5.13,7.36-8.2,11.54-11.85c6.4-5.58,18.92-15.35,26.68-11.95
		c6.39,8.65,4.35,15.83,3.09,27.82c-0.62,0.1-1.03-0.72-1.85-0.1c-0.31,3.3-0.82,6.7,0,10.1c0.98,5.25-2.03,8.97-2.27,23.9
		c-4.38,2.24-8.94,4.38-11.44,8.99c2.68-0.86,4.8-2.75,7.11-4.25c9.43-6.14,8.02-2.6,14.73-6.9c4.83-3.1,26.21-17.47,28.95-22.56
		c7.33-13.63,3.27-17.95,6.18-20.3c2.68-2.16,5.67-3.71,9.37-4.84c-1.65,2.68-4.95,2.27-6.9,4.95c4.53,0.1,7.11-2.58,9.79-4.02
		c1.65-0.31,2.16,1.24,3.3,1.13c0.52-0.52,0.52-1.13,0.21-1.65c-1.13-2.47-4.22-1.03-5.56-3.09c-7.1,3.34-12.59,3.69-13.5,13.8
		c-0.33,3.73-3.54,15.21-7.01,15.87c0-9.42-0.69-20.4-8.65-25.45c0.31-2.78,5.05-11.85,7.62-14.53c1.85,1.03,3.92,0.43,5.87,0.1
		c4.64-0.78,5.77-2.68,4.43-7.31c0.21-0.93,1.34-1.34,1.24-2.58c-1.1-2.76-0.82-1.22,0.72-3.91c-0.21-1.24-0.82-2.37-0.41-3.81
		c1.44-1.03,3.61-1.75,3.09-4.64c-1.34-2.37-3.3-4.74-3.4-7.31c0.21-1.24,1.44-1.03,1.34-1.96c-0.21-0.62-1.24,0.1-1.24-1.03
		c4.33-3.64,1.9-9.21-2.37-19.37c-4.8-11.43-32.17-14.28-37.6-9.68c-3.81,3.22-8.58,5.51-9.58,8.76c-1.22,3.95-1.43-0.41-7.01,0
		c-2.07,0.15-4.02,0.53-6.08,0.82c-7.62,1.09-11.07,8.64-9.99,15.25c1.7,10.43,5.37,21.77-1.85,29.77c-1.85-1.85-2.9-3.91-3.81-6.18
		c-0.95-2.36-0.72-4.74-0.72-7.42c-1.85,2.27-2.09,2.58-2.06,4.64c0.05,4.22,2.37,7.52,4.95,10.71c-1.34,1.03-2.47,1.75-4.02,2.06
		c-3.5-3.09-2.37-7.01-1.75-11.13c-1.85,1.75-2.17,3.71-2.37,5.56c-0.64,6.02,6.5,8.27-5.67,4.12c-2.28-0.78-3.81-2.99-6.28-3.81
		c0.21,0.62,0.21,0.93,0.31,1.03c2.78,2.78,5.56,5.58,9.48,6.9c0.93,0.31,13.29,1.44,14.11,1.24c1.55-0.39,4.66-1.75,5.98-2.47
		c10.06-4.8,6.21-11.56,8.76-12.26c1.13,3.19,0.21,6.39-0.52,10.3c6.14-6.42,2.42-21.6,5.36-9.68c2.8,11.36-15.25,14.42-17.2,16.38
		c13.01-0.21,23.12-8.6,18.34-20.91c-0.72-1.85-0.82-1.85-0.1-4.74c5.31,12.75,9.07,9.08,9.37,16.17c-4.9,7.35-0.67,2.08-12.26,6.49
		c-8.04,3.06-16.6,7.84-22.25,14.42c-2.85,3.31-14.16,12.84-20.4,29.15c-2.81,7.36,1.5-3.28-11.44,21.84
		c-9.15,17.77-13.74,17.76-15.35,19.37c-14.6,11.05-14.3,8.32-21.94,15.97c-2.37,2.37-4.22,5.15-6.59,7.52
		c-17.01,17.01-13.66,48.14,6.49,53.57c2.27,0.61,4.53,1.75,6.28,3.4c5.04,4.74,10.92,8.55,16.48,12.67
		c17.7,13.12,32.51,13.79,35.13,15.45c6.47,4.11,18.91,7.03,24.42,13.91c-19.72,21.7-23.74,22.84-28.54,58.72
		c-3.48,26.02-3.05,16.54-4.33,24.21c-1.9,11.36-3.9,12.68-7.01,19.78c-8.23,4.99-3.58,10.47-6.39,13.19
		c-2.98,2.88-1.11,6.33-2.88,8.55c-5.36,1.75-11.85,0.1-16.48,4.84c-0.21,5.36-0.62,10.71-0.1,16.17
		c5.98-0.21,11.85-1.12,17.62-0.31c4.42,0.62,37.29,0.23,50.17,1.03c-1.9,13.67,0.55,34.1-0.1,41.11
		c-1.06,11.37,0.07,24.59-0.93,26.58c-31.33,0-27.93-1.81-28.33,11.74c-11.95-1.24-23.49-1.44-34.51,2.88
		c-1.03,7.11-0.93,14.01-0.62,21.22c8.92,0.69,11.83-0.84,16.69,0.31c4.93,1.16,5.96-0.31,11.44,0.93
		c21.85,4.95,26.7,1.09,57.07,3.71c44.25,3.82,56.12,0.13,60.06,2.68c1.85-0.72,3.5-1.55,4.53-2.68c1.03-6.9,0.31-13.5,1.24-20.09
		c-0.52-0.52-1.13-0.52-1.75-0.52c-25.63-1.9-20.94-2.48-48.21-3.4c-5.46-0.18-10.82-1.24-16.28-2.06c0-3.19-0.31-6.08,0.21-9.07
		c5.05,0.41,9.68-0.31,14.11-1.34c2.16-7.56-0.48-11.57,1.03-21.02c0.99-6.17-0.98-6.8-0.1-49.04c0.02-1.16,1.48-0.81,12.57,0
		c-0.31,4.84-0.62,9.48,0.31,14.01c0.62-4.64-0.52-9.48,1.03-13.91c1.13-0.31,1.85-0.52,2.68,0.31c-1.51,17.57,0.1,57.46-0.62,61.61
		c-0.49,2.79-1.03,6.08,1.24,8.55c-0.68,0.4-15.73,0.7,5.46,1.85c16.22,0.88,7.75,0.75,22.46,1.44c1.65,0.08,2.99-0.82,4.53-0.82
		c4.02,0,8.14,0,12.36,0c-1.02,1.6-8.89,1.44,11.23,1.44c0.02-2.1,1.45-1.37,1.42-1.27c-0.16,0,0.1,1.16,0.12,1.27
		c1.84,0.2,1.86-1.65,0.15-1.32c0.93-0.63,2.08-0.47,3.13-0.53c-1.09,21.95-0.08,17.98-3.34,20.38c-0.23-0.74-1.22-0.9-1.39-1.53
		c-0.1-1.44-0.21-2.88-0.31-4.43c-1.03,1.65-0.62,3.4-1.55,4.84c-4.29,0.18-8.85,0.21-14.01,0.93c-2.16,0.3-4.64-0.93-6.59,0.82
		c0.41,0.93,0.93,1.13,1.55,1.13c2.88,0,5.67,0.31,8.55-0.21c7.58-1.37,10.96-0.2,13.39-1.1c0,0.4,0.11,0.9,0.62,1.1
		c5.24-1.38,4.64-0.53,4.64-22.46c-0.68,0.2-1.08,0.38-1.47,0.49c-0.11-0.45-0.31-0.82-0.69-1.11c-19.78,1.44-39.46-0.82-59.03-2.16
		c-2.15-3.58,0.11-9.04-0.21-15.14c-0.33-6.49-0.43-13.08-0.31-19.68c0.58-32.54-0.73-32.65,0.82-34.2
		c16.94-1.3,20.41-0.69,26.48-2.68c5.26-1.73,10.71-2.38,15.97-4.02c17.48-5.43,17.24-4,17.82-5.56c-1.34-4.43,0.72-8.96-0.21-13.91
		c-8.04-0.31-16.17,0.72-24.21,0.72c-73.44,0-42.95,1.09-37.29-5.98c-0.82-2.06-1.34-4.02-1.44-5.98c-0.52-0.41-0.92-1.04-1.44-1.13
		c-2.28-0.4-19.58-8.01-23.39-9.89c-3.83-1.89-4.45-4.16-8.55-10.3c-0.7-1.05-0.1-2.78-0.93-3.09c-1.86-0.71-2.47,0.72-3.5,0.52
		c-0.31-1.13,0.11-1.85,0.52-2.58c2.6-4.62,4.51-9.49,7.42-13.91c2.18-3.32,2.59-1.88,12.47-22.36
		c4.23-8.76,10.23-16.47,13.29-25.96c5.33-16.54,7.78-11.6,9.07-33.79c0.08-1.44-0.19-2.9-1.24-4.02c-3.14-3.35-6.08-7.01-9.37-10.3
		c-7.93-7.93-16.15-15.68-23.08-24.52c-11.38-14.53-30.33-27.81-41.83-31.63c-1.64-0.54-3.09-1.44-4.53-2.68
		C763.18,248.4,766.58,244.28,771.11,241.29z M895.25,169.69c-1,4.01-2.68,7.42-6.81,7.42c0.75-3.31,4.14-5.09,5.06-8.14
		C894.37,168.67,894.77,169.21,895.25,169.69z M892.36,165.98c-0.21,2.06-0.6,4.15-2.47,5.46c-1.87,1.3-2.26,5.73-4.28,3.63
		c-0.38-0.39-0.63-1.17-0.56-1.17C889.11,167.3,890,163.98,892.36,165.98z M888.46,164.85c-1.86,2.78-1.76,6.18-4.75,7.93
		c-1.2-2.39-0.69-2.58-0.52-5.03C885.09,166.14,887.11,165.12,888.46,164.85z M833.45,193.59c0,4.72,0.04,7.32,0.82,9.79
		c3.33,10.48-1.81,12.82-0.42,16.24c0,0.21,1.75-1.62,3.19-9.27c0-0.58,7.63-2.5,7.74-2.53c9.17-2.63,5.11-3.75,23.39-14.22
		c3.03-1.73,4.97-3.62,5.87-7.01c5.21-19.58-1.34-9.25,8.14-23.49c1.34-0.82,2.99,0,4.53-1.55c0.17,3.18-1.68,3.08-2.52,3.97
		c-0.88,0.92-0.89,2.12-1.18,2.42c-2.93,2.53-3.81,9.87,0.41,12.68c1.43-2.96-2.39-4.5-1.27-7.23c0.06-0.19,1.06,1.35,5.18,4.76
		c1.85,1.53,4.47,0.41,6.08,3.09c0.44-2.11-2.28-2.72-0.61-3.57c0.4-0.21,0.98-0.44,1.12-0.55c-0.1-1.85,1.44-2.78,2.27-3.91
		c1.27-0.38,1.87,0.35,2.58,0.82c-1.83,0.82-2.89,2.67-4.84,3.09c-0.67,2,1.17,1.04,1.75,1.24c0,0.21,0.21,0.52,0.1,0.62
		c-2.07,4.59-5.09,8.26-9.14,11.17c-12.9,9.26-9.92,9.82-18.71,17.6c-15.42,13.64-2.81,6.56-25.21,22.14
		c-4.5,3.13-9.89,3.81-14.83,5.46c-4.64-7.52-9.99-14.32-11.23-23.27C817.26,212.06,830.87,197.88,833.45,193.59z M767.91,128.58
		c1.13-1.65,2.16-0.82,3.61,0.21C770.08,129.1,769.05,129.1,767.91,128.58z M802.53,161.24c0.3,1.18,0.53,2.25-0.1,3.19
		C801.91,163.41,802.01,162.37,802.53,161.24z M805.31,189.57c-0.53,0.63-1.54,0.72-2.37,0.72c-0.7-1.68-1.62-3.28-1.56-5.12
		c0.09-2.46,3.62-17.51,3.62-27.43c0-0.64-0.2-1.13,0.72-1.75C806.36,167.24,803.04,178.41,805.31,189.57z M805,134.59
		c0-1,0.94,1.27,1.24,1.62C805.07,135.67,805,135.13,805,134.59z M818.91,179.48c0-3.91-0.82-7.83,0.82-11.64
		C819.63,171.65,820.04,175.66,818.91,179.48z M819.42,148.98c0.72,1.03,1.03,1.65,0.93,2.37
		C819.63,150.63,819.63,150.63,819.42,148.98z M829.73,152.28c1.51,6.1,1.86,12.21,2.16,18.65c-3.09,2.58-6.08,5.05-9.99,6.9
		c-1.34-9.99,1.85-19.78-0.41-29.77C822.24,143.3,828.06,150.9,829.73,152.28z M835.5,79.13c-1.55-1.03-2.88-2.37-4.02-3.91
		c-0.72,0-1.55-0.21-1.96-1.24c0.9,0,1.41,0.51,1.96,1.24C833.64,75.73,834.57,77.49,835.5,79.13z M831.79,71.92
		c-1.85,0-3.24-1.36-4.95-2.16C828.9,69.76,830.45,70.58,831.79,71.92z M827.67,76.35c-2.27-0.21-4.33-1.13-6.08-2.47
		C823.96,74.09,825.81,75.12,827.67,76.35z M822.1,69.45c0.1,0.03,3.7,0.15,1.63,0.55C823.1,70.12,822.6,69.85,822.1,69.45
		c-3.81,0.1-7.52-1.03-11.23-1.03C814.69,68.11,818.39,67.7,822.1,69.45z M805.74,70.46c1.38-1.16,2.28-0.93,5.03-0.49
		c-2.63,1.44-2.47,1.22-2.24,1.27c9.11,2,11.59-0.21,12.23,3.16c-9.16,0-8.52-1.2-16.3-2.67C804.33,71.68,805.64,70.55,805.74,70.46
		z M805.31,85.93c-0.63-0.39-11.09-5.37-9.18-6.14c1.07-0.5,2.15,0.37,1.87-0.08c-1.14-1.68-4.36-0.39,3.8-6.45
		c4.43,0.93,9.17,0.91,13.6,2.37c0.62,0.2,1.23,0.51,1.75,0.31c2.52-0.96,3.62,0.56,4.39,2.68c0.25,0.7-4.12-0.7-5.07-0.81
		c-0.09,0-0.52,0.84-0.56,0.92c-0.31-0.1-0.72-0.11-1.03-0.21c-13.39-4.2-12.43-4.25-14.94-1.75c-0.33,0.33,7.4,0.77,18.03,4.43
		c-0.51,0.62-1.16,0.6-1.58,0.94c-1.57,1.29,3.31,1.91,7.65,0.5c0.75,0.53,0.16,1.12,0,1.75c-3.5-0.41-6.9,0.92-10.41,1.13
		c-5.32,0.32-12.4-4.81-14.63-5.25c2.73,3.72,11.73,7.04,15.56,7.83c-4.29,2.53-14.48-0.37-18.54-3.91
		c-0.93-0.82-1.03-0.82-1.24-2.88C797.41,82.6,800.95,85.82,805.31,85.93z M824.16,85.73c-1.36,1.85-3.01,1.78-5.05,1.55
		C820.66,86.55,822,85.21,824.16,85.73z M793.98,83.77c7.03,5.59,20.29,10.78,12.05,5.98c3.14,0,4.51,1.21,6.59,1.85
		c1.95,0.6,3.31-0.41,6.39-0.41c-0.62,1.13-1.65,1.15-2.47,1.34c-8.01,1.87-11.33,1.34-19.16-2.47c-0.31,0.31-0.62,0.62-1.03,0.93
		c-0.51-0.33-3.29-1.9-3.29-2.76C793.16,86.84,793.29,85.45,793.98,83.77z M812.93,97.16c-0.62,0.41-1.13,0.31-1.65,0.1
		C811.8,96.85,812.32,96.96,812.93,97.16z M776.47,125.29c-4.07-1.02,0.73-2.33,4.33-7.83
		C780.27,120.61,779.59,121.57,776.47,125.29z M777.29,118.28c-2.32,2.72,1.33-4.92-0.52-14.11c-2.51-12.51-6.76-19.82,4.42-23.39
		c-3.8,4.86-5.36,7.42-5.36,13.19c0.14-1.38,0.92-2.26,1.34-3.61c0.08,0.17,0.27,0.34,0.72,1.24c1.17-1.94,1.94-4.39,4.08-6.52
		c3.58-3.56-4.79,5.62-1.91,15.17c0.38-4.12,0.64-7.31,1.75-10.3c2.4,2.4,2.19,8.77,2.47,11.33
		C785.05,108.14,781.69,113.12,777.29,118.28z M785.33,92.22c-1.69-1.27-1.27-3.41-2.88-4.02c0.79-2.14,1.96-3.62,3.4-5.36
		c0.99,0.99,0.6,1.08,1.11,1.03c0.79-0.08,0.55-0.95,1.25-1.65c0.21,0.1,0.52,0.31,1.13,0.52
		C787.08,85.52,785.43,88.41,785.33,92.22z M790.27,106.02c-0.1-3.61-0.62-7.21,0-10.71C791.4,98.91,791.61,102.42,790.27,106.02z
		 M791.2,86.45c-5.44,7.42-1.61,29.45-3.3,29.45c0-0.28-0.21-0.58-0.21-0.62c-0.01-0.1-0.91-21.08-0.91-21.18
		c0.09-3.13,1.3-8.94,4.2-10.14C791.82,84.61,791.81,85.61,791.2,86.45z M791.92,83.26c-1.55-1.13-3.71-2.89-1.78-2.94
		c0.79-0.02,1.3,0.94,1.49,0.74c0.36-0.42,0-1.31,1.11-1.31C792.74,80.39,793.26,80.58,791.92,83.26z M795.83,107.26
		c0.82,0.21,1.24,0.72,1.75,1.55C796.14,108.91,795.94,108.19,795.83,107.26z M798.51,110.14c0.7-1.06,1.8,0.68,2.54,0.02
		c1.03-0.91-1.08-0.54-2.61-2.35c-0.68-0.8-0.14-1.27-0.14-1.9c-2.26-2.41-5.25-4.11-5.25-7.73c0.93-0.93,1.65,0.72,2.47-0.21
		c-1.03-1.37-2.77-2.13-3.4-4.64c2.68,1.65,4.64,3.61,8.14,3.71c-2.22-1.78-6.23-2.49-7.21-6.28c2.27,1.75,5.05,1.53,7.62,2.16
		c3.29,0.81,6.81,1.88,7.52,2.06c-0.21,0.93-0.72,0.83-1.55,0.62c-3.61-0.92-5.92,0.73-6.7,4.33c-0.29,1.34,0,2.88-1.13,3.61
		c0.1,2.68,2.47,3.91,2.58,6.08c0.82,0.62,1.44,1.34,1.75,2.78C801.4,111.89,799.75,111.48,798.51,110.14z M808.09,132.8
		c-2.55-5.32-5.73-5.31-5.43-5.6c1.02-1.52,2.13-2.55,2.54-4.39c-1.43-7.13,1.94-3.82-4.02-8.86c3.81-0.32,3.88-0.01,5.46,2.88
		c3.3,0,3.3,0,3.61-2.58c-3.41-1.3,0.21,6.39-9.48-9.27c0.92-0.71,1.46,0,2.06,0c0.61,2.04,0.42,4.62,3.61,5.05
		c1.03-2.82-3.93-4.84,0.72-7.93c1.85,1.34-0.31,1.96-0.41,3.3c0.87,1.61,1.46,3.6,1.55,4.22c1.34-0.31,1.75-1.13,2.16-1.75
		c0-1.55-1.65-1.55-2.06-2.58c1.48-3.87,0.26-4.84-3.71-6.9c-1.96,0.72-1.75,2.99-3.09,4.22c-0.1-3.26,0.62-4.07,3.81-5.98
		c3.74,0.19,3.7,7.94,9.89,3.61c-1.31-0.72-2.87,0.73-4.03-0.72c4.53-0.31,7.21-4.02,10.41-5.56c1.65-4.33,4.84-7.62,4.22-12.05
		c-1.29-0.4-2.56,0.62-3.71-0.21c6.41-4.27,6.53,1.19,9.37-1.65c-0.21-1.24-1.65-1.13-1.96-2.06c0.61-0.94,1.5,0.36,5.87,3.19
		c1.13-1.44,3.09-0.1,4.53-1.24c2.5,1.17,2.17,1.25,5.36,14.01c-0.57,2.29-3.7,1.57-2.68,5.87c1.87,7.88,4.02,7.69,4.02,9.58
		c-2.49,3.21-2.9-1.47-5.56,1.96c0.3,0.68,0.85,0.53,1.34,0.53c1.13,0-0.17,2.19,1.44,3.8c-1.85,2.68-4.43,0.82-6.7,1.55
		c1.27,2.94,4.69-0.19,5.77,2.58c0.1,1.24-1.24,1.44-1.65,2.78c0.41,1.44,1.85,3.4-0.21,5.05c-4.02,2.06-8.04,0-11.95,0.21
		c-0.72,0.82,0.53,1.45,0,2.37c-3.43,6.02-5.98,12.77-11.02,17.82c-2.07,2.07-2.11,4.69-2.47,7.31c1.35-0.94,1.28-2.37,1.96-3.5
		c1.44,1.68-1.69,21.35-1.65,24.42c0.05,3.5-0.52,6.48-3.91,8.55c-0.57,0.35-3.41,4.31-3.94,2.61c-0.17-0.44,0.63-3.68-0.36-2.23
		c-0.35,0.51-0.46,1.22-1.27,1.37c-0.65-12.29,1.65-22.21,1.13-33.58c1.79,0.38,2.21,2.49,4.23,2.78c-1.64-5.73-6.47-0.31-4.53-16.9
		c0.77-6.6-4.6-7.42-6.59-10.41C804.6,127.97,804.55,132.14,808.09,132.8z M803.25,102.83c0.41-1.75,0.72-2.58,1.96-2.88
		C805.72,101.49,804.69,101.9,803.25,102.83z M860.84,557.56c-0.75,0.47-1.28,0.25-2.06,0C859.4,557.56,860.12,557.56,860.84,557.56
		z M848.06,556.84c4.24,0,3.81-0.04,3.81,0.1C847.63,556.94,848.06,556.99,848.06,556.84z M747.1,179.48
		c1.13,1.03,2.37,1.96,3.3,3.19c3.05,4.07,13.48,5.81,18.34,4.74c4.7-1.04,2.41,0.45,3.4,13.91c0.23,3.12,1.37,5.51,2.48,13.3
		c-3.71-0.93-7.42-3.81-15.04-11.64c-3.53,4.59,11.15,13.72,17.72,15.25c1.44,3.61,3.71,6.8,6.39,9.89
		c-11.81,0.72-29.5-12.97-38.43-21.33c-3.71-3.47-6.88-10.03-6.76-10.21C741.16,190.84,743.12,184.7,747.1,179.48z M702.19,290.94
		c-0.11-0.05-8.82-4.83-10.43-6.17c-13.49-11.31-8.91-34.84,4.04-46.16c4.52-3.95,1.08-3.14,10.82-10.71
		c4.73,2.55,9.2,10.15,17.1,16.08c1.18-1.52,3.33,2.85,6.08,4.22c1.71,2.53,4.26,4.6,6.4,6.86c0.87,0.92,0.69,0.31-0.32,2
		c-2.14-1.28-1.41-1.19-2.68,0.93c0.76,2.18,1.97,3.03,4.02,2.06c2.2,2.2,5.48,2.9,7.93,4.74c-7.21,2.68-13.38,6.94-20.3,9.58
		c-6.27,2.4-10.81,7.32-15.14,12.26C703.98,293.15,704.67,292.24,702.19,290.94z M717.95,236.76c2.16,0.82,3.5,2.78,4.95,4.53
		C721.3,240.79,716.36,237.26,717.95,236.76z M738.66,256.23c0.31,0.12,3.46,1.26,4.64,1.74c1.55-0.21,2.58-1.24,4.33-0.72
		c-0.72,1.44-1.34,2.58-2.06,4.02C742.88,260.14,740,259.63,738.66,256.23z M744.53,439.81c0.31-0.72-0.21-1.44,0.21-2.16
		c4.21-7.38,4.55-14.87,4.74-15.25c3.73-6.14,4.07-28.83,7.62-43.58c6.1-25.28,14.8-24.71,23.69-39.25
		c0.94-1.53,2.63-1.36,4.33-1.85c-1.24-1.24-1.74-2.6-3.3-3.3c-4.63-2.07-3.65-5.06-15.45-9.58c-9.88-3.78-3.93-3.24-9.68-4.95
		c-3.87-1.15-19.18-3.21-35.44-15.66c-2.68-2.05-5.45-3.71-7.73-6.28c-1.64-1.86-4.02-2.99-6.08-4.43c0-0.92,11.36-12.66,21.43-17.2
		c2.67-1.21,18.4-10.48,18.44-10.51c11.13,6.7,22.15,13.19,30.8,23.18c0.09,0.1,13.86,15.58,14.42,15.87
		c6.4,3.28,10.62,10.99,13.29,12.77c1.21,0.81,4.15,8.95,3.71,14.53c-0.57,7.21-3.4,13.7-7.83,18.96
		c-4.43,5.25-5.96,11.54-8.55,17.41c-8.88,20.1-21.84,31.55-28.12,54.19c-2.19,7.87-2.27,2.34-2.27,10.1
		c-5.37,3.59-11.26,6.55-15.97,10.92c-0.75-0.19-1.71-1.45-2.99-1.34c-1.03,1.03,1.13,1.75,0.21,2.88
		c-1.39-0.46-1.57-1.95-1.96-2.99C742.57,441.05,743.4,440.22,744.53,439.81z M779.66,415.29c-3.09,9.44-4.47,12.32-7.83,12.77
		c-0.72,1.65-1.44,3.4-2.16,5.05c-1.85,0-1.75-1.75-2.68-2.58c-0.62,0.21-1.24,0.31-1.85,0.52c-1.02-3.06,0.55-3.84,1.24-6.39
		c3.45-12.82,6.03-15.89,8.14-18.96c4.11-5.97,8.61-15.23,14.42-23.69C789.61,386.07,789.16,386.26,779.66,415.29z M734.54,455.47
		c5.27-3.51,1.26-8.36,4.95-12.05c5.63,7.05,2.34,5.68,26.73-10.16c0.14-0.07,3.32,2.02,4.38,4.59c-1.96,1.75-4.94,2.58-5.77,5.77
		c2.94,1.04,4.77-1.86,8.04-2.68c-1.02,2.56-3.91,3.65-3.91,6.49c3.19,0,5.19-2,7.52-4.33c1.4,0.4,2.5,1.1,3.32,2.27
		c0.92,0.01,1.43,0.72,2.14,1.13c-0.31,1.13-1.75,1.44-1.75,2.78c1.85,2.39,3.81-0.75,5.15-0.3c0.1,1.34-1.96,1.03-1.65,2.37
		c0.66,1.02,1.61,0.39,2.89,0.38c2.34-0.01,0.99,0.39,15.65,4.46c0.93,0.41,1.65,1.24,2.06,2.47c-0.52,1.65-1.75,3.3-1.55,5.36
		c-9.75,4.01-12.97,3.12-36.16,4.01c-8.32,0.32-7.23-3.57-25.98,0.65c-0.13,0.03-0.81,0.26-0.81,0.15
		c-1.46-2.06-3.82-1.25-5.83-1.56C730.05,466.68,733.96,466.4,734.54,455.47z M772.03,552.72c4.36,0,8.27,0.2,9.69,0.61
		c0,1.03-0.72,1.12-1.44,1.13C746.95,555.08,753.09,552.73,772.03,552.72z M756.46,556.44c0.18-1.26,16.61-0.23,24.64-1.04
		c0.98,2.7,0.49,6.79-0.31,9.58c-8.38-0.32-16.5-0.64-24.72-2.37C756.17,560.52,756.27,558.61,756.46,556.44z M866.92,573.94
		c0,4.24-0.86,10.88-0.31,16.69c-1.24,0.41-2.06,0.93-3.3,0.82c-0.83-5.39-0.7-11.23-0.21-16.69
		C864.14,573.74,865.37,573.74,866.92,573.94z M823.34,569.31c18.79,0.11,19.87,1.31,38.53,2.78c0.96,0,1.68,0.17,0.95,0.87
		c-2.04,1.95-4.6-0.49-7.02,0.46c0.18,0,3.34,0.92,6.07,1.55c-0.82,5.36-1.24,10.61-0.21,16.07c-7.46,1.08-13.06-0.03-25.06,0.02
		c-18.33,0.08-9.81,0.36-33.66-1.77c-28.86-2.58-35,0.58-54.19-3.71h-0.01c-8.16-1.83-24.66-0.47-28.94-1.03
		c-0.05-2.96-0.89-18.34,1.65-18.34c5.36,1.34,40.97,1.85,47.29,1.85c-2.36-1.26-1.85-0.68-13.5-0.72
		c-5.14-0.02-2.67-0.43-10.61-0.82c-4.82-0.24-2.7,0.09-12.47-0.62c-2.06-0.15-4.02,0.52-6.39-0.31
		c13.64-4.71,30.09,0.56,50.38,0.93c1.65,0.03,3.3,0,5.36,0.93c-3.77,1.24-7.14-0.41-10.41,0.3c3.09,1.34,6.28,1.65,9.58,1.65
		c1.34,0,1.96-0.82,2.47-1.75c0.64-30.88,0.95-42.06,1.08-45.45c0-0.33-0.01-0.72-0.01-1.2c-0.04-7.99-1.76-23.77-0.35-38.01
		c4.22,0.62,8.45,0.31,12.98,0.52c0.41,6.8-1.24,13.29-0.21,19.78c0.41-6.39,1.34-12.88,1.13-19.26c0.98-0.44,3.09-0.61,3.09,0.62
		c-2,14.71,0.35,35.31,0.25,46.25c-0.01,0.96-1.13,12.7-0.02,14.92c0.53,3.83,0.2,17.32,0.2,20.84c0.62,0.41,0.82,0.82,1.13,0.82
		C805.3,567.44,816.79,569.27,823.34,569.31z M816.24,529.13c0.55,3.91-1.47,8.48-0.1,18.85c1,7.63-2.9,3.65-12.47,4.64
		c-2.17-8.9-0.3-14.29-0.91-31.63c-0.26-7.3-0.83-15.49-0.54-34.41c0.06-3.57-1.44-2.82,14.53-2.16
		C816.49,488.94,814.53,516.98,816.24,529.13z M825.4,461.24c0.67,0.34,36.4,0.34,53.26,0.1c5.56-0.08,11.13-1.13,16.9-0.72
		c-0.11,3.72-1.12,7.68-0.52,11.74c-4.04,0.67-9.9,2.08-17,4.53c-5.35,1.85-11.49,1.58-16.79,4.53
		c-0.35-13.17-0.01-11.44-1.24-11.44c-1.32,1.98-0.19,11.84-0.82,11.86c-54.55,1.28-62.16-2.99-85.09-1.86
		c-10.41,0.51-20.7-0.54-31.11,0.31c-2.78,0.23-5.56-0.14-8.24-0.41c-12.89-1.33-7.97-0.21-17.72-0.21
		c-0.66-1.88-0.41-10.27-0.41-12.26c4.25-3.61,9.26-2.37,13.8-3.71c0.84,6.71-7.18,2.11-11.95,4.02c0.02,0,0.05,0.01,0.07,0.01
		c10.47,1.95,9.78-0.18,13.94,1.12c12.46,3.89,15.1,0.07,27.4,0.93c23.58,1.65,35.06-0.31,36.68-0.31c1.95-2.47,5.3-2.07,7.63-3.81
		c-0.1-1.73,2.13-3.07,1.16-5.08C805.19,460.25,813.48,459,825.4,461.24z M797.89,426.11c0.83,1.66,2,3.44,3.3,4.74
		c-1.06,1.17-7.66,5.12-6.17,5.75c3.35,1.41,5.2-2.15,8.03-2.76c0.52,2.62-3.19,2.49-3.09,5.05c2.45,2.2,4.68-2.62,5.95-1.35
		c0.9,1.06-1.23,2.74,0.27,3.34c1.81,0.47,2.41-2.49,4.07-1.33c0.81,0.56,0.89,2.17,1.28,2.09c1.74-0.35,1.39-0.51,1.64-0.26
		c1.04,1.07-2.04,1.83,0.47,2.86c1.24,0.51,3.02-1.82,10.53,1.03c2.56,0.97,4.84,2.58,7.73,2.99c0,0.13,0.7,3.34,1.03,4.74
		c-8.62,5.54-18.26,4.59-27.51,4.43c-1.17-0.02-0.94-2.81-1.92-3.67c-1.27-1.27-6.75,0.33-10.34-2.1
		c-25.05-16.97-16.19-8.11-21.84-16.59c0.31-0.72,0.62-1.34,0.62-2.06C774.96,431.43,772.71,446.26,797.89,426.11z M767.19,259.11
		c1.13-0.21,1.66,0.4,2.16,0.82c5.58,4.7,11.86,8.44,17.72,12.77c21.35,15.8,18.42,22.57,35.54,37.09c2.17,1.84,4.19,3.94,5.98,6.18
		c2.23,2.81,5.67,4.53,7.62,7.42c2.27,15.47-3.94,19.05-8.45,31.63c-13.09,36.54-36.73,66.06-35.75,72.94
		c-3.19,2.06-5.98,4.43-9.89,5.46c-0.59-2.44-2.16-2.75-2.16-5.98c-1.75,0.93-1.75,0.93-2.37,2.68c0.1,0.1,2.84,3.55,2.74,3.65
		c-0.93,1.08-2.14,0.99-3.36,0.99c-1.32-1.02-2.34-2.24-2.96-3.75c-0.27-0.54,4.56-4.24,8.83-18.71c2.31-7.81,8.06-21.64,8.34-28.74
		c0.38-9.47,2.73-7.16,6.71-20.3c0.93-3.09,0.86-2.64,10.92-20.5c2.38-4.23,1.85-7.55,3.2-8.48c0.26-0.18-0.1,0.06,0.34-3.4
		c0.32-2.5,1.91,2.89,5.53,1.68c-1.96-1.44-2.68-4.02-5.56-3.71c-1.34-8.24-5.44-14.65-11.85-19.57c-3.9-3-6.89-6.92-10.1-10.61
		c-27.32-31.44-27.16-24.37-33.69-30.91C759.88,264.37,764.31,262.41,767.19,259.11z M765.55,257.67c-3.41,3.2-8.04,5.3-10.79,9.02
		c-0.32,0.32-7.87-4.7-8.17-4.9c4.13-1.83,7.96-8.74,10.65-8.74C758.5,253.72,763.72,256.66,765.55,257.67z M755.24,250.05
		c-1.65,3.09-5.36,3.5-8.14,5.46c-2.49-0.31-9.54-1.99-11.02-4.12c-2.49-3.59-6.46-5.69-9.07-8.96
		c-4.55-5.73-11.79-11.83-17.51-16.48c2.78-1.96,5.36-3.81,8.04-5.67c4.21-2.92,1.76-3.31,8.04-7.31
		c6.42-4.1,10.14-12.43,11.36-13.08c0.67-0.36,0.98,1.38,1.21,1.85c3.47,7.14,6.19,6.98,16.17,15.87c7.3,6.5,16.17,10.41,25.45,13.7
		c-1.75,2.06-4.22,3.4-6.18,4.84C757.46,246.4,764.26,246.13,755.24,250.05z"/>
	<path d="M784.24,522.18C784.29,526.73,784.42,517.72,784.24,522.18L784.24,522.18z"/>
	<path d="M446.93,22.15C446.93,22.15,446.93,22.15,446.93,22.15C446.95,22.15,446.95,22.15,446.93,22.15z"/>
	<path d="M446.08,434.45c11.04,0.38,15.79-2.05,26.79-2.47c5.36-0.21,9.89-2.27,14.73-4.53c-0.41-1.96,1.96-3.4,0.52-5.67
		c2.33,0,17.28-1.47,24.11-4.64c9.11-4.22,4.7-3.56,4.33-9.48c-1.49-2.24,1.92,0.28-24.83-9.48c-5.25-1.91-10.57-10.17-11.54-13.29
		c-2.58,0-3.5,2.27-5.56,3.3c0.31-1.85-0.38-3.59,0.41-5.05c2.78-5.1,3.61-10.92,5.77-16.17c0.93-2.27,2.28-4.42,3.09-6.8
		c9.37-27.52,11.09-24.31,10.82-28.02c-0.48-6.52,2.19,0.74,7.01-32.35c1.13-7.77,4.08-3.92,3.09-16.48
		c-0.13-1.65-0.93-2.78-2.27-3.81c-7.5-5.12-31.18-44-44.5-53.26c-26.14-18.17-27.53-18.33-28.12-22.46
		c-0.93-1.13-2.06-0.41-3.09-0.93c4.22-6.59,8.32-13.11,14.11-18.44c4.72-4.35,9.89-8.34,12.57-13.19
		c9.79-6.7,18.03-14.01,26.68-20.3c4.02,8.14,7.11,16.59,15.66,21.63c16.67-6.67,18.74-8.05,41.41-38.12
		c3.59-4.77,3.76-8.46,11.23-15.14c8.13-7.28,6.55-10.61,10.1-19.26c0.3-0.73-0.1-1.44-0.82-2.06c-0.72-0.1-1.55-0.31-2.78-0.62
		c0.72-2.58-0.93-3.4-2.88-3.71c-0.31-1.13-0.31-2.16-1.44-2.99c-2.27,0.52-3.81-1.44-5.98-2.47c-1.75,1.24-4.12,0.41-6.18,1.75
		c-4.34,9.04-5.95,10.41-4.94,14.01c1.07,3.83,0.88,14.55-5.98,19.37c-16.72,11.76-7.55,10.56-25.96,19.06
		c-2.58-5.36-3.61-10.82-4.84-16.28c5.16-12.4,18.85-14.34,20.91-32.66c0.84-7.48,3.22-2.61,4.74-4.43
		c0.21-1.13,0.72-2.27,0.62-4.02c-2.47-2.68-3.91-6.59-7.73-8.45c-2.88,2.16-5.98,3.5-8.34,6.9c5.19-0.68,8.68-7.63,10.41-2.47
		c-1.03,1.75-3.5,1.96-4.33,4.33c2.68,0.1,3.81-2.16,6.08-2.78c0.72,1.24,2.27,1.96,2.16,3.71c-0.64,1.5-5.09,0.9-4.84,5.67
		c0.18,3.61-1.31,6.71-2.37,9.99c-0.9,2.79-2.56,5.06-4.84,6.9c-8.83,7.12-11.29,12.57-24.72,33.17
		c-3.89,5.97-6.83,7.78-16.79,15.35c-2.69,2.04-5.28,4.09-8.04,5.98c-2.08,1.42-4.94,1.65-6.39,4.22
		c-5.05-3.19-7.73-8.34-11.33-12.47c-1.85-6.49-4.31-12.88-5.15-19.68c-4.13-33.54-3.94-28.85-7.62-36.47
		c-0.74-1.23-2.47-1.67-3.19,0.31c0.93,4.33,4.49,2.84,5.05,7.93c1.51,13.75,2.88,17.64,2.58,20.09
		c-10.1,4.64-19.57,2.37-24.42-5.77c5.4-15.42,7.39-15.05,11.23-24.21c0.82-1.96,2.16-3.71,3.71-5.25
		c3.77-3.77,18.03-23,28.95-21.02c3.91,3.5,6.07,8.14,6.7,13.39c0.16,1.33,0.95,13.06,0.31,13.7c-0.41,0-0.93,0-1.75-0.1
		c0.41,3.5,0.28,6.77,1.44,9.99c1.77,4.93-0.41,13.07,1.44,24.21c-3.65,2.87-8.79,5.86-10.03,10.73c4.07-2.03,7.93-8.11,13.12-10.01
		c3.18-1.17,5.78-2.88,8.14-5.05c4.13-3.79,22.57-20.62,24.31-25.55c4.73-13.41,1.15-16.51,2.78-20.6c2.37-2.37,5.15-4.74,9.17-6.28
		c-1.75,2.68-4.53,3.09-6.49,5.46c4.74,0.21,6.8-3.5,9.17-4.84c1.65-0.72,2.47,0.93,3.71,0.21c-0.52-4.33-4.74-1.34-6.18-3.61
		c-7.42,5.05-11.32,6.14-11.23,11.64c0.29,17.4-5.42,24.12-5.36,19.06c0.08-6.45-3.82-18.52-11.64-22.25
		c-0.21-3.09,3.09-12.36,5.46-15.35c3.11,0.62,13.79-1.57,9.07-8.76c1.36-2.38,1.12-2.08-0.1-4.53c0.31-0.72,1.03-1.24,0.93-2.16
		c0-1.24-1.03-2.16-0.82-3.71c0.72-0.72,2.06-1.34,2.58-2.68c0.79-3.45-2.57-3.07-4.74-9.27c-0.1-1.13,1.55-0.93,1.24-2.06
		c-0.41-0.52-1.24,0.41-1.44-0.82c3.4-3.86,1.25-8.78-5.46-19.16c-5.78-8.95-32.08-10.37-38.94-3.09c-2.2,2.34-9.05,9.68-12.67,9.68
		c-8.69-0.51-10.85,3.17-12.98,10.61c-2.81,8.04-7.06,4-6.8,12.05c0.11,3.3-0.21,6.7-1.44,9.58c-5.46,3.4-11.64,3.19-17.82,4.84
		c7.9,0.42,11.9,2.33,22.15-2.99c0.89-0.39,1.69-1.25,2.84-0.96c-0.57,0.11,0.63,0.77-1.09,2.19c-12.88,10.62-19.37,6.73-22.56,9.07
		c7.83,0.72,14.22-1.65,21.02-5.87c-1.55,2.99-1.75,5.46-2.27,7.93c-6.9,3.61-14.32,3.4-21.74,3.5c7.31,2.06,14.63,0.93,21.84-1.24
		c1.21,5.65,1.45,2.86-7.62,8.45c3.19-0.31,5.87-1.85,8.65-3.3c2.27,4.09,1.67,4.51,3.09,4.94c-1.44-5.46-1.44-5.46-0.1-6.8
		c1.13,1.34,0.72,3.3,1.96,4.53c0.21-1.24-0.62-2.16-0.52-3.19c0.1-0.93-0.82-2.06,0.41-2.78c3.09,7.83,3.09,7.83,5.25,9.07
		c0.21-2.27-0.21-4.33-1.65-6.59c1.15,0.29,1.42,1.29,2.2,1.33c0.74,2.17,2.57,2.68,4.7,2.48c-0.62-2.06-2.88-3.09-3.3-5.77
		c2.78,1.75,5.05,3.3,7.83,4.33c-12.08,7.99-14.23,14.08-16.59,17c-6.33,7.85-12.11,20.29-12.98,24.11
		c-3.45,15.17-3.2,9.51-5.56,16.9c-7.26,22.67-8.57,24.82-12.05,28.43c-4.05,4.2-10.88,12.13-17.1,16.28
		c-19.39,18.63-28.93,49.24-5.46,62.43c6.01,3.38,2.23,0.99,19.78,18.54c16.64,16.64,31.45,19.25,33.69,21.22
		c8.01,7.06,9.6,3.93,24,18.34c0.41,0.41,0.52,1.03,0.93,1.65c-1.03,1.75-1.97,3.59-3.19,5.15c-25.33,32.38-13.46,53.53-15.66,77.37
		c-0.01,0.14-1.32,21.32-5.77,24.21c-7.55,4.9-1.89,10.24-6.08,14.42c-1.55,1.33,0.34,3.93-2.06,11.13
		c-0.31,0.93-0.72,1.75-0.1,3.09C433.18,439.4,428.78,433.85,446.08,434.45z M554.77,99.84c0.95-0.6,1.65-0.41,2.58,0.21
		c-1.38,1.29-2.12,3.22-4.18,3.74C553.41,102.28,554.15,101.06,554.77,99.84z M551.84,96c0.18-1.37-0.47-0.43,1.79,0.13
		c0,3.62-1.61,7.74-5.24,8.34C547.89,101.14,551.39,99.33,551.84,96z M550.34,92.84c0.21,2.26,0.06,4.27-1.55,5.87
		c-1.34,1.34-1.13,3.4-2.47,4.53c-0.76,0.16-1.46-0.06-1.84-0.75c-0.36-0.65-0.58,0.4,2.98-8.31
		C547.96,92.94,547.97,92.94,550.34,92.84z M495.94,129.31c0,4.67,3.36,11.7,4.74,16.17c-0.62,2.78-1.44,5.67-0.62,9.17
		c0.95-2.85,1.75-4.57,1.75-10.1c2.27-1.13,4.75-2.35,7.21-3.4c8.39-3.56,4.32-3.8,21.43-17.62c1.72-1.39,5.06-4.22,4.33-6.59
		c-0.4-1.31,2.07-4.58,0.93-11.95c-0.77-5,1.32-7.5,4.02-13.5c1.24-0.72,2.99-0.62,4.22-1.75c1.19,2.38-2.08,3.28-2.68,5.77
		c0.2-0.15,5.15-3.58,4.9-3.2c-1.06,2.49-1.46,7.64-3.47,8.65c-1.78-1.16-1.03-2.99-1.44-4.22c-0.78,0.7-4.51,7.6,2.16,11.95
		c1.29-2.57-3.07-3.86-2.37-6.8c0.22,0.22,2.83,2.3,5.87,4.02c2.05,1.15,4.53,0,6.39,1.65c0.45-1.34-1.44-1.45-1.44-2.58
		c0.27-0.27,0.67-0.54,1.05-0.86c0,1.89,1.75,0.59,2.25,0.76c0.29,0.1,0.27,0.57,0.2,0.71c-3.22,11.6-10.27,11.97-18.44,25.55
		c-4.13,6.86-7.78,8.77-13.08,17.82c-2.77,4.73-8.23,9.01-12.16,13.08c-4.69,4.86-11.46,6.82-15.35,8.76
		c-5.67-6.7-11.95-12.67-14.53-21.43C487.18,143.21,491.61,136.41,495.94,129.31z M419.09,71c-0.1-2.37-1.13-4.22,1.55-4.94
		C420.94,67.8,420.53,69.14,419.09,71z M418.98,64.2c0-2.78,1.03-5.15,2.47-7.31C421.13,62.55,421.2,62.49,418.98,64.2z
		 M460.91,104.37c-0.39-0.96-0.43-1.85,0-2.78C461.22,102.63,461.52,103.36,460.91,104.37z M465.34,130.03
		c-4.26-6.81-0.51-12.07-2.57-32.86c-0.1-0.3,0.1-0.73,0.1-1.03c2.47,10.71,0.93,22.05,4.64,32.86
		C467.2,129.51,466.37,129.82,465.34,130.03z M479.46,117.66c-0.82-4.22-1.55-7.73-0.93-11.74
		C479.77,110.35,480.18,114.16,479.46,117.66z M485.95,88.3c1.8,1.15,4.84,16.26,5.23,18.36c0.05,0.14-4.93,5.72-8.74,8.12
		c-2.6-5.2-1.37-22.71-5.05-29.26c0.52-0.82,0.72-1.34,1.44-1.55C481.33,83.98,483.71,86.87,485.95,88.3z M481.52,15.35
		c-1.55-0.1-1.65-1.55-2.68-2.16C480.32,13.32,480.79,14.26,481.52,15.35z M477.82,16.09c1.34,0,2.47,0.82,3.81,1.34
		c1.13-1.03,2.78-1.24,4.22-1.85c3.41,0.97,2.73,3.6,7.52,13.19c-0.42,0.62-0.73,1.23-1.14,1.55c-4.7,3.56,4.12,12.4,4.12,13.39
		c-0.4,3.13-4.07-0.06-4.8,2.53c-0.25,1.23,1.07,0.23,1.71,0.97c0,1.2,0.61,2.36,1.44,3.19c-1.34,2.5-3.59,1.73-6.28,2.27
		c1.34,2.27,3.09,0.82,4.53,0.82c0.72,0.1,1.13,0.72,1.65,1.24c0.28,0.85-1.06,1.46-1.21,2.54c-0.13,0.99,2.59,3.06,0.18,5.59
		c-2.37,0.72-4.84,2.06-7.73,1.34c-1.45-0.36-3.77,0.37-3.87,0.72c-0.13,0.69,0.84,1.18,0.47,2.06c-2.63,6.41-4,13.51-8.34,19.16
		c-1.68,2.19-1.32,4.56-1.52,7.4c-0.13,1.82,1.66-3.57,2.04-4.1c1.39,10.86,1.17,24.34,1.85,30.49c-2.47,2.06-3.71,4.94-5.87,7.11
		c-1.86-1.14-0.01-5.84-2.06-0.52c-2.75-11.59-1.88-23.26-4.02-34.2c1.86,0,2.42,2.38,4.53,2.16c-0.86-3.15-6.29-2.49-6.39-10.82
		c-0.18-15.62-4.24-9.93-8.44-14.73c2.38-0.4,3.93,0.68,4.88,2.57c0.11,0.21-0.04,0.07,0.67,0.31c2.24,0.75,2.18,1.1,1.66,0.21
		c-2.45-4.17-6.13-3.84-5.58-4.85c3.17-5.83,0.85-4.38,0.54-9.45c-1.17-1.64-3.41-1.87-4.53-3.61c4.35,0,4.46,0.4,6.18,2.58
		c2.88-0.52,2.88-0.52,3.3-3.09c-0.88-0.1-1.27,1.04-2.37,1.24c-3.5-2.06-5.56-5.87-8.45-8.76c0.67-1.01,1.31-0.51,2.06-0.41
		c0.22,0.4,0.39,0.83,0.76,1.67c1.71,3.87,4.72,2.94,3.52,1.08c-0.52-0.81-1.45-1.18-1.93-2.83c-0.59-2.05,0.63-2.06,1.14-3.42
		c0.73-0.24,0.86,0.24,1.03,0.41c0.62,1.04-0.72,1.7-0.72,2.78c1.01,0.91,1.45,2.49,2.27,3.91c1.24-0.31,1.55-1.34,1.85-2.27
		c-0.27-1.29-1.87-1.15-2.37-2.06c0.48-3.35,0.51-4.17-4.53-6.29c-2.16,0.82-1.44,3.4-2.88,4.84c-0.5-2.85,0.64-5,3.09-6.59
		c2.97,0,3.35,3.19,6.7,4.02c1.97,0.49,3.19-0.62,3.09-2.58c-0.8,1.14-1.95,1.28-3.3,0.93c0.96-0.72,3.08-1.38,3.09-1.39
		c1.68-2.77,4.87-3.9,6.28-6.13c1.13-4.33,3.4-8.04,2.16-12.47c-0.02,0-0.05,0.01-0.07,0.02c-3.71,0.76-3.54,1.06-2.75,0.02
		c3.48-4.57,7.24,1.05,8.77-3.38C477.8,15.99,477.82,16.02,477.82,16.09z M448.96,50.91c2.06,0.1,3.81-0.31,4.95,1.44
		C451.92,52.35,450.5,52.34,448.96,50.91z M452.98,43.39c0.1-1.24,0.21-2.47,1.65-3.09C455.14,41.94,453.81,42.56,452.98,43.39z
		 M466.06,26.28c1.96-2.16,2.47-2.47,5.05-2.58C469.88,25.56,468.07,25.65,466.06,26.28z M476.88,8.77
		c-1.03,0.72-1.75-0.21-2.58-0.41c-0.82-0.21-1.55-0.52-2.47-0.93C474.51,7.33,474.51,7.32,476.88,8.77z M467.17,12.6
		c0.36-1-0.06-0.84,9.51,2.25c0.56,0.18,1.01,0.45,1.09,1.02C465.87,12.36,467.05,12.93,467.17,12.6z M462.42,7.24
		c1.43-0.03,2.95,0.07,4.57,0.3C446.43,9.49,460.21,7.28,462.42,7.24z M454.84,9.8c0.59,0.5-0.42,0.92,0.21,1.75
		c6.85,0.55,10.41-1.65,11.13,1.34c-2.68,0.1-5.26,1.16-8.04,0.41c-3.59-0.97-8.34-0.54-8.09-0.92
		C451.43,9.71,451.78,9.48,454.84,9.8z M445.34,16.5c2.19-2.65,1.39-2.15,3.62-2.12c4.16,0.05,8.44-0.44,12.57,0.37
		c0.5,0,1.08,0.18,1.44,0c2.28-0.94,3.82-0.21,4.94,2.06c-1.84,1.02-4.13-1.32-5.78,0.82c-13.37-2.23-16.08-2.27-15.87,0.52
		c5.98,0,11.74,0.41,17.41,1.44c0.31,1.03-0.93,1.34-0.52,2.37c2.84,0.57,5.08-0.55,7.77-1.68c0.37-0.15,0.63,0.84-0.04,1.78
		c-1.22-0.17-2.92,0.22-4.29,0.71c-6.09,2.2-5.91,3.4-19.63-0.71c0,2.03,4.24,1.91,7.21,3.6c-4.3-0.02-13.52-3.32-10.7-4.87
		c1.21,1.17,3.3,1.34,3.45,1.36c0.16-0.01-0.96-1.09-3.39-1.49C442.19,19.2,442.85,19.5,445.34,16.5z M453.91,26.7
		c0.3-0.1,0.21-0.71,0.31-1.02c2.47,1.11,5.34,0.41,8.01,1.33c-6,3.46-18.63,1.39-20.91-3.91C443,23.57,448.42,26.82,453.91,26.7z
		 M441.34,26.08c10.25,5.14,11.9,4.45,12.77,4.74c0.11-0.76-3.94-2.69,6.18,0.01c2.37,0.63,4.53-1.24,6.9-1.24
		c-0.99,1.73-8.85,6.22-21.63,1.96c-0.31,0.41-0.62,0.82-0.82,1.13C441.02,30.96,440.1,31.03,441.34,26.08z M440.62,33.19
		c5.56,0.62,10.82,1.13,16.07,1.65c-0.25,0.73-0.42,1.08-1.44,0.93c-3.39-0.5-5.64,1.33-5.98,4.84c-0.14,1.44,0.31,3.09-0.52,4.22
		c1.14,3.75,7.63,7.73-1.85,2.99c1.68-1.33,1.55-0.8,0.05-1.78c-2.41-1.59-4.52-3.47-5.41-6.67c1.02-0.21,1.94,1.21,3.36,0.43
		c0.21-0.21-2.98-0.94-4.39-4.04c2.75,0.92,4.8,2.73,8.13,2.17C449.86,37.63,443.01,37.18,440.62,33.19z M426.42,26.26
		c-0.11,0.11,0.45-5.43,6.16-5.03c9.4,0.67,7.75-4.36,6.59,3.61c-0.65,4.46,0.45,4.43-1.65,4.43c0.31,4.12-2.37,6.39-5.77,9.07
		c0.74-2.7,2.98-3.59,3.71-5.78c-1.75-0.51-2.12,1.19-3.29,1.55c2.62-5.03,6.75-4.32,6.08-6.8c-2.36-1.43-4.72-1.03-12.35,2.21
		c-0.1,0.05,0.59-3.34,10.9-5.91C434.64,21.65,433.1,21.96,426.42,26.26z M428.05,56.68c0.35,0.61,0.58,1.2,1.03,1.96
		c-2.06,0.62-0.52,3.4-2.68,4.22C425.37,60.49,426.2,58.63,428.05,56.68z M427.95,47.3c0.82,1.75,0.82,3.3,1.03,5.67
		C427.74,50.91,427.23,49.36,427.95,47.3z M428.05,41.12c-2.47-0.27,0.92-4.17,2.47-4.95C429.7,37.82,428.87,39.47,428.05,41.12z
		 M433.41,40.19c0.31,2.68-0.41,5.05-2.99,10.2C428.97,44.33,429.1,43.67,433.41,40.19z M426.68,33.31
		c0.46-0.45,4.06-2.01,5.08-2.49c0,1.07-0.61,1.53-1.25,2.17c-6.39,8.07-4.68,9.94-7.19,10.55
		C423.54,41.45,419.56,37.46,426.68,33.31z M420.01,36.17c0.6,0.8,0.21,1.17,0.1,1.96c-0.93,0.52-1.85,0.93-3.09,1.55
		C417.44,37.62,418.88,37.1,420.01,36.17z M417.54,41.43c0.82-1.44,1.85-1.65,2.99-1.55c1.13,1.13,0.71,3.25,2.69,3.78
		c0.09,0.59,0.08,1.08-0.32,1.58C412.89,55.84,418.21,45.73,417.54,41.43z M421.56,48.85c1.66-1.66,3.62-4.32,2.36-1.75
		C423.44,48.06,422.6,48.53,421.56,48.85z M422.28,68.01c-0.41-1.13,0.21-1.65,0.41-2.16C423.11,66.77,423.11,66.77,422.28,68.01z
		 M421.88,52.29c0.24-1.5,1.35-2.21,2.77-2.93C424.17,51.17,423.25,52.01,421.88,52.29z M430.6,73.89c-0.85,0.75-1.16-0.6-1.85-0.46
		c-0.02-0.35-0.09-0.9-0.09-1.18c-1.94-1.6-3.4-3.16-3.3-5.67c1.58,1.32,2.57,3.68,3.5,5.36C429.53,72.27,430.27,73.4,430.6,73.89z
		 M428.99,63.11c0.19,0-0.25,2.61,2.15,4.19c-0.38,0.71,0.52,1.23,0.41,2.35C425.95,65.37,426.53,64.51,428.99,63.11z M433.94,69.73
		c-2.14-2.14-1.87-2.12-2.71-2.4c-0.57-3.09-2.14-4.06-2.14-4.27c0.14-0.41-0.28-1.17,0.62-1.96
		C433.81,69.3,436.62,71.65,433.94,69.73z M437.32,67.39c1.99,0,3.6,1.74,6.08,0.92c-6.08-2.06-9.89-5.77-11.95-11.64
		c0.82-3.19,1.26-6.79,2.58-10.1c0.94-2.36,2.16-4.84,0.82-7.62c4.2-4.53,3.72-6.14,3.84-5.39c1.57,9.82,4.61,19.29,12.85,24.86
		c1.94,1.31,2.05,1.3,3.19,5.15c-0.93,1.65-1.44,3.3-2.68,4.64c-3.28,1.23-7.06,1.75-10.24,4.18
		C441.71,72.49,442.06,72.72,437.32,67.39z M479.46,388.5c0.62,2.16,2.27,3.19,3.3,4.64c-0.6,1.21-4.6,3.01-5.87,5.77
		c2.47,1.24,3.45,0.21,7.42-2.78c0.62,0.12,1.06,0.85,1,0.98c-0.75,1.49-3.34,1.81-3.17,4.28c2.68,1.24,3.81-2.06,5.98-2.16
		c1.03,1.24-0.93,2.37,0.31,3.5c1.55,0.52,1.96-1.65,3.19-1.75c1.65,0,1.55,1.34,1.96,2.16c0.82,0.52,1.24-0.72,1.96-0.52
		c0.93,0.82-0.72,1.65,0.1,2.68c0.21,0.1,0.62,0.52,0.82,0.41c4.22-1.65,8.16-0.77,12.05,0.82c7.82,3.19,5.51-0.34,7.52,6.49
		c-11.78,5.89-1.02,3.33-27.51,7.11c-1.24-1.24-0.52-3.19-1.85-4.43c-3.57-1.19-6.74,0.85-10.92-1.55
		c-22.7-13.01-18.32-8.52-22.36-14.73c-0.38-0.59,0.06-1.28,0.64-2.14c0.39-0.53,2.46,3.2,6.88,3.48
		C468.18,398.98,473.84,393.5,479.46,388.5z M453.08,392.21c-0.17,0.34-1.2,3.91-1.55,4.94c-1.85,0.62-2.28-1.27-2.99-2.16
		c-0.73,0.27-1.4,0.62-1.75,0.62c-0.41-0.21-0.62-0.52-0.52-0.82c2.31-11.57,0.67-14.17,6.28-26.17c3.6-7.69,3.13-9.15,9.89-24.93
		c1.06,6.61,0.91,0.33-3.91,35.44c-0.41,2.99-1.13,5.87-1.85,8.76C456.14,390.1,454.76,391.57,453.08,392.21z M442.35,217.72
		c2.88,1.85,8.79,7.85,11.87,9.66c14.35,8.46,33.22,41.95,48.32,54.38c0.91,5,1.76,8.64-0.52,12.77
		c-3.67,6.67-0.95,8.78-10.92,41.11c-0.96,3.11-12.15,28.82-16.69,44.2c-0.87,2.94-3.7,6.88-0.52,9.89
		c-3.58,3.49-11.61,8.96-14.94,8.96c-2.16-1.44-2.16-1.44-3.61-3.81c3.61-6.39,4.97-13.49,5.87-20.71
		c0.92-7.35,4.69-23.37,2.99-30.7c-1.27-5.44,1.7-6.63,3.5-19.57c0.21-0.93,0.22-1.95,0.62-2.78c2.8-5.92,4.13-12.26,6.49-18.23
		c2.68-6.8,0.47-9.91,1.84-8.97c0.66,0.45,0.64,1.73,1.45,1.86c0.41-0.82,0.41-1.75,0.31-2.68c-0.82-0.62-1.75-1.03-1.96-2.27
		c-0.41-2.47-1.67-4.73-2.16-7.11c-0.97-4.63-3.73-8.02-6.59-11.23c-4.65-5.21-5.49-8.22-20.81-30.39c-4.57-6.62-10.54-11.35-17-17
		c3.91-3.19,8.55-4.64,12.26-7.52C442.23,217.64,442.29,217.68,442.35,217.72z M408.79,126.93c5.85,4.68,6.36,4.98,8.14,5.25
		c8.92,1.4,9.95,0.75,17.31-0.82c1.13,4.43,1.03,9.17,2.27,13.6c1.24,4.43,3.5,8.45,4.43,12.88c-5.01,0-12.15-5.64-16.28-8.96
		c-3.37,1.87,7.08,11.19,19.57,12.47c4.5,7.58,8.94,8.78,7.46,8.9c-7.03,0.99-11.15-0.96-18.69-3.54c-3.51-1.21-6.99-2.5-10.1-4.53
		c-13-8.5-13.84-7.3-20.5-16.69C404.89,136.57,404.89,134.72,408.79,126.93z M388.08,167.74c1.81-4.55,5-0.94,13.29-19.26
		c5.61,9.81,11.73,9.63,17.2,13.7c8.55,6.36,23.88,11.21,29.57,11.33c0.62,3.22-12.21,7.11-22.87,28.42
		c-3.37,0-13.1,2.82-25.45-8.65c0.41-1.44,1.75-3.09,0.21-5.36c-0.74,2.23-0.44,3.41-1.55,4.33c-6.7-4.43-13.08-9.48-20.3-13.39
		C378.33,177.25,386.29,172.23,388.08,167.74z M375.2,241.7c-14.75-9.5-15.09-12.32-17.41-21.02c-2.05-7.66,2.7-20.31,7.73-26.48
		c3.11-3.82,2-4.72,9.89-13.6c4.6,3.07,6.27,3.83,7.83,5.77c0.65,0.81,3.13,2.16,3.23,2.16c2.92-0.04,2.79-0.67,6.66,3.19
		c0.62,0.41,1.44,0.62,1.85,1.44c-0.21,0.41-0.61,0.21-0.93,0.21c-0.12,0.12,0.08,0.32-0.93-1.44c-0.57-0.57-1.19-0.15-3.09-1.46
		c-0.62-0.43-1.46-1.19-2.28-1.83c-0.36,0-1.15,0.1-1.34,0.1c3.49,3.32,7.22,4.94,7.11,4.94c2.19,2.63,2.09,2.26,1.42,1.97
		c-6.05-2.65-12.2-6.07-18.33-7.94c1.36,2.18,9.89,4.47,17.2,8.86c7.43,3.84,8.09,6.45,8.27,5.89c0.7-1.78-2.28-2.32-1.06-4.24
		c3.35,1.43,5.7,5.24,9.89,6.08c8.77,1.75,11.45,0.56,11.29,1.03c-1.06,3.13-4.19,4.78-4.7,8.45c2.31-0.29,5.41-1.98,7.62-4.74
		c-1.81,0.1-2.81,1.66-4.84,2.27c1.13-3.09,4.22-4.22,5.87-7.01c0.09,0.1,4.3,5.46,4.5,5.53c3.83,1.26,6.28,4.5,9.82,6.42
		c-4.51,3.24-7.52,3.1-12.05,7.62c-4.53-3.5-8.65-7.11-13.19-9.79c-1.89-2.98-2.62-6.35-5.17-8.68c-0.48-0.44-0.62-1.09,1.67,4.25
		c0.1,1.03-0.82,1.34-1.13,1.85c-0.53,0.09-0.74-0.83-1.44-0.62c2.37,3.81,5.87,6.59,10.2,9.37c-7.73,1.85-14.42,5.05-21.53,6.7
		c-9.21,2.13-14.62,8.7-22.64,14.71C375.21,241.69,375.21,241.69,375.2,241.7z M446.8,303.82c0.61-1.34,1.85-2.27,2.27-3.81
		c-1.61-3.75-9.64-12.41-15.14-15.76c-1.06-0.64-3.18-1.68-4.68-2.57c-3.87-2.29-3.65-3.65-5.07-4.49
		c-2.45-1.44-18.1-4.27-38.67-25.29c-2.55-2.6-4.74-5.56-7.62-7.83c0-1.13,0.93-1.44,1.55-1.85c8.45-5.74,11.69-8.93,22.66-12.67
		c6.96-2.37,18.76-7.51,19.06-7.62c28.79,23.03,26.7,27.27,41.83,49.24c3.26,4.73,4.54,2.5,7.21,9.48c1.7,4.45,2.25,9.07,3.71,13.5
		c1.57,4.76-4.27,18.66-5.67,19.78c-1.33,0.93-1.07,1.98-4.43,16.79c-3.91,17.24-15.06,33.97-18.23,56.04
		c-0.33,2.26-0.31,4.53-1.03,6.7c-0.41,1.24-0.62,2.47,0.72,3.5c-4.54,3.47-13.2,9.18-16.59,12.57c-0.67-0.67-1.49-2.54-1.13-3.3
		c3.27-6.94,1.07-16.03,3.09-17.72c0.52-0.31,0.41-1.03,0.41-1.65C425.88,319.75,436.36,326.87,446.8,303.82z M427.64,399.84
		c0.82,0.92-0.19,1.33-0.52,2.06C426.92,401.07,426.71,400.35,427.64,399.84z M426.92,411.58c-1.97-0.98-2.01-1.23-2.88-3.5
		C425.28,407.14,424.96,407.11,426.92,411.58z M438.24,432.38c-20.72,4.75-16.13,1.45-22.23,1.44c-0.28,0,2.34-8.38,1.52-11.64
		c2.71-1.99,2.78-4.59,2.78-7.73c0-2.48-0.5-2.01,1.24-4.53c2.11,1.06,3.3,6.59,9.27,1.03c5.28-4.91,11.44-8.65,16.9-13.19
		c2.16,1.13,3.91,2.27,4.94,4.43c-1.18,1.18-4.75,2.58-5.56,6.39c3.1,0,5.4-2.54,8.34-4.12c-1.28,3.21-3.71,4.25-3.91,6.7
		c2.03,0,2.16,1.47,7.42-4.33c1.09,0.4,2.17,1,2.99,1.96c0.93-0.1,1.55,0.62,2.16,0.93c0.3,1.19-3.13,3.46-0.1,3.91
		c1.3,0.2,4.01-2.31,4.01-1.44c-0.01,1.37-1.64,0.87-1.64,2.28c0.78,2.06,3.24-1.62,6.9,1.02c3.76,2.71,7.73,2.78,11.95,2.68
		c1.28,2.57,1.26,5.11,0.93,7.93c-7.59,4.25-14.14,4.39-40.69,7.01C443.39,431.66,440.92,431.77,438.24,432.38z"/>
	<path d="M451.02,143.01l0.1,0.1C451.22,142.82,451.22,142.94,451.02,143.01z"/>
	<path d="M195.43,227.38c0.1-0.62,0.1-1.24,0.21-1.96c1.65-0.82,2.47-2.06,2.06-4.12c2.68-0.62,2.37-3.09,3.09-5.05
		c2.27-0.31,4.64-0.72,5.05-3.71c-2.62-10.1,0.98-8.36,1.44-9.27c0.31-0.72-0.93-0.62-0.72-1.44c3.09-1.34,4.62-4.02,4.84-7.31
		c0.75-11.23,1.35-17.64-4.74-22.87c-6.5-5.58-13.13-11.63-24-13.29c-1.34-0.2-2.57-0.28-3.91,0.21c-3.28,1.19-6.8,1.44-9.58,2.88
		c-6.78-3.7-10.75-7.52-16.28-2.47c-6.5,5.94-9.69,5.64-11.02,12.47c-1.7,8.65-0.41,8.28-1.34,11.64
		c-3.66,13.25-1.42,21.91-10.82,31.22c-2.9,2.87-6.18,5.36-8.24,9.17c-5.15,0.62-9.69,2.97-14.22,5.36
		c-15.9,8.4-17.34,3.37-37.6,13.5c-17.58,8.79-24.4,6.64-28.33,15.14c-3.68,7.96-11.87,21.69-14.01,30.18
		c-1.08,4.3-7.96,24.04-12.67,28.12c-0.1,1.13-0.1,2.16-0.21,3.4C9.89,325.25,4.12,330.4,0,337.1c1.99,2.72-1.01,9.17,5.67,13.08
		c-0.1,2.99,0.1,3.19,3.19,3.71c1.85,2.99,3.5,3.3,8.55,1.75c1.68,0.37-0.47,5.21,5.77-3.61c1.03-1.46,0.34-4.18,1.03-5.25
		c5.06-7.84,2.23-16.11,6.39-28.23c5.19-15.15,17.31-25.16,30.08-51.61c11.74-2.58,24-2.06,36.16-3.61
		c-0.35,2.62-0.16-2.72-9.37,17.2c-7.64,16.52-9.46,18.62-12.77,21.33c-5.62,4.59-10.92,9.68-17.41,13.08
		c-0.55,0.55-12.82,8.23-21.43,25.45c-4.33,8.65-4.65,17.66-0.93,26.68c3.59,8.69,10.85,9.86,14.22,15.04
		c3.57,5.49,7.85,10.28,11.85,15.35c7.77,9.85,16.98,17.86,28.23,23.28c4.36,2.1,0.89,1.52,10.82,8.76
		c5.43,3.96,9.76,8.98,13.91,14.22c1.39,1.76-1.1,4.37-3.3,6.59c-25.71,26-19.66,38.52-25.76,83.55c-0.24,1.79-0.15,1.68-4.53,11.64
		c-0.54,1.23-1.04,2.46-2.37,3.09c-3.42,1.62-5.12,4.33-5.46,8.14c-0.58,6.39-3.1,3.92-3.5,8.45c-0.46,5.14-3.12,8.63-2.99,10.82
		c7.39,2.55,12,3.79,18.54,3.19c12.94-1.18,12.84,1.43,26.68,1.13c21.94-0.46,16.01,1.13,29.05-2.78c0.21-2.06,1.85-3.4,1.55-5.56
		c6.85,0,26.92,0.52,30.49-5.36c-0.72-1.85-1.03-3.91-1.03-5.36c-1.13-2.37-3.38-1.88-4.84-2.78c-11.79-7.3-21.14-8.13-25.03-16.17
		c-0.6-1.24-1.33-2.58-2.16-3.71c-0.92-1.24-0.21-3.09-1.85-4.12c-2.06,0-3.09,1.96-5.25,2.58c0.52-1.85,0-3.71,0.93-5.05
		c2.99-4.33,4.5-9.39,6.9-14.11c1.32-2.59,3.22-4.73,4.43-7.31c3.69-7.89,7.46-15.73,12.36-22.97c0.83-1.23,1.66-2.68,1.75-4.22
		c0.25-4.29,3.33-6.13,6.08-15.25c5.56-18.44,5.08-18.23,6.18-19.37c3.25-3.35,3.12-7.62,3.4-11.74c0.12-1.75-0.4-3.21-1.85-4.43
		c-4.53-3.8-22.14-36.92-30.29-48.83c-4.07-5.95-5.93-8.05-29.05-27.92c-6.66-5.73-1.67-8.5-7.62-7.42
		c1.03,2.99,2.37,5.67,5.77,7.11c2.47,1.65,4.22,4.53,6.28,6.8c-4.22,2.24-8.55,2.56-12.16,5.77
		c-15.14-14.34-11.72-10.69-13.7-15.97c-0.62-1.65-1.03-3.4-2.58-4.64c1.8,5.86,1.67,4.9,1.12,5.41c-1.79,1.67-1.95,0.3-1.58,1.27
		c1.53,3.98,4.89,6.41,8.18,9.5c-6.23,0.48-14.42,3.25-22.25,4.02c-8.66,0.85-20.1,10-24.21,12.05c-4.02-3.19-7.72-6.8-11.02-10.71
		c-6.2-7.35-5.72-25.03,7.62-38.22c4.67-4.62,1.05-3.42,10.71-11.33c6.18,4.43,10.51,10.92,16.59,15.56
		c-3.94-1.18-11.01-7.05-16.69-8.76c6.79,4.72,18.75,11.24,23.69,16.9c0.77-1.12-1.17-1.95-0.58-2.92c1.41-2.29,4.4,4.86,9.54,6.52
		c3.6,1.16,7.31,1.96,11.13,2.27c-1.34,2.98-4.74,4.26-5.88,7.93c3.46-0.2,5.86-1.93,8.76-4.02c-2.21-0.4-7.38,3.45-4.95,0.59
		c1.95-2.29,4.57-3.43,6.49-5.43c14.18-20.26,21.8-16.48,38.43-37.91c9.38,4.69,21.19-4.86,23.9-10.61
		c6.33-13.41,3.02-17.96,2.99-21.94c-0.01-1.3-0.46-26.04,0-27.61c3.29-1.83,3.15-5.79,3.5-10.61c0.16-2.17-1.24-3.71-2.47-5.25
		c2.58-2.78,4.43-5.77,7.21-8.04C180.14,226.59,193.21,236.57,195.43,227.38z M80.15,550.45c0.41,1.24,0.82,2.47,1.34,4.33
		C79.53,553.44,79.12,552.2,80.15,550.45z M138.87,576.31c-7.5,3.75-22.51,2.06-41.41,2.06c-3.4-3.4-9.37-0.16-21.12-0.52
		c-2.68-0.08-5.25-1.44-8.04-2.27c0.89-3.08,2.8-6.98,2.87-11.09c0.01-0.34,1.79-0.95,2.89-3.51c1.18-2.75,0.55-4.68,1.07-6.47
		c0.35-1.2,1.53-2.63,2.02-1.7c2.37,4.48,4.31,4.92,8.45,1.85c5.74-4.26,12.36-7.21,18.34-11.23c1.85,1.34,3.5,2.68,4.33,4.95
		c-3.15,1.89-5.27,2.57-6.18,5.68c3.27,0.63,9.1-3.88,8.33-2.47c-1.34,2.48-4.21,3.29-4.21,6.28c3.4,0.1,5.46-2.06,7.62-4.02
		c1,0.5,2,0.91,2.34,1.97c-0.01-0.02-0.03-0.02-0.07-0.02c0.02,0.04,0.04,0.07,0.06,0.11c0.06,0,0.06-0.01,0.03-0.03
		c-0.01-0.03-0.02-0.05-0.02-0.07c0,0,0,0,0,0c1.2,0.12,1.91,0.93,2.81,1.43c0,1.24-1.85,1.65-1.65,2.88
		c1.96,0.82,1.96,0.82,4.94-0.1c0.61,1.18-1.16,0.89-1.49,1.86c-0.81,2.35,3.15-1.16,8.81,3.8
		C135.29,570.7,141.81,563.1,138.87,576.31z M102.61,540.46c2.06-6.18,2.92-12.76,5.56-18.85c0.05-0.11,14.55-27.09,14.73-27.4
		c0.31-0.72,0.41-1.65,1.65-1.96c0.5,4.46,0.26,2.32-7.83,33.48c-0.8,3.1-1.85,6.18-3.09,9.17c-0.62,1.75-1.85,3.3-3.91,3.61
		c-1,2.42-1.63,3.81-2.27,5.15c-1.65-0.41-2.06-1.55-2.27-2.58c-1.03-0.52-1.55,0.31-2.37,0.31
		C102.81,541.08,102.51,540.67,102.61,540.46z M135.96,538.2c0.1,0,2.16,3.33,3.12,4.83c-1.96,1.86-5.53,2.68-6.49,5.56
		c4.65,1.6,7.5-4.66,8.52-1.51c0.26,0.81-3.09,1.67-3.75,3.7c-0.01,0.03-0.02,0.05-0.03,0.08c2.47,2.06,4.02-1.34,6.18-1.24
		c1.22,1.11-1.22,2.42,0,3.5c1.55,0.41,2.16-1.24,3.3-1.44c1.85,0.1,1.34,1.75,1.96,2.58c0.72,0.1,1.24-0.82,2.06-0.31
		c0.17,0.66-0.6,1.21-0.6,2c0,1.92,4.28-0.01,6.37,0.78c2.16,0.82,4.35,1.2,6.28,2.37c8.09,4.89,5.42,0.04,6.49,5.88
		c0.12,0.66,0.31,1.08,0.62,1.54c-9.32,4.34-8.89,3.61-28.64,3.61c-0.42-0.47-0.36-1.2-0.36-1.93c0-3.49-2.12-2.72-6.34-3.22
		c-4.61-0.56-3.96-1.85-17.62-11.13c-3.53-2.4-5.91-2.75-7.93-8.14c0-0.84,0.82-1.13,0.93-1.96c1.13,0.38,1.43,1.33,2.04,1.94
		C118.02,551.65,129.08,543.09,135.96,538.2z M119.19,363.99c2.72,2.01,8.08,8.9,11.01,11.12c0.17,0,4.15,3.01,9.05,9.93
		c17.41,24.62,18.87,34.81,32.49,49.62c0.99,15.84-0.22,3.87-7.09,26c-0.85,1.7,0.25,2.17-10.22,26.01
		c-1.07,2.44-15.56,27.53-21.84,42.24c-0.94,2.2-4.66,7.05-1.56,9.27c-4.69,3.91-8.23,5.95-15.96,7.53
		c-1.65-1.03-2.47-2.37-3.19-4.12c1.13-2.37,2.6-3.49,3.93-6.55c4.28-9.88,8.65-30.85,9.68-31.87c0-4.2,1.34-4.61,1.34-12.66
		c-0.69-3.93,2.43-5.47,5.77-18.23c1.41-5.38,11.85-21.73,11.85-28.73c1.27,0.29,0.68,2.16,1.75,2.16c0.62-0.72,0.62-1.65,0.72-2.47
		c-0.1-0.72-0.82-0.72-1.65-1.03c0.2-3.97-1.3-7.9-1.95-11.38c0-2.46-3.47-7.56-4.96-9.52c-3.55-4.67-7.15-13.97-16.48-31.32
		c-5.11-9.5-12.31-16.02-15.66-19.88C110.49,367.48,115.37,366.4,119.19,363.99z M54.6,380.68c16.82-8.61,8.13-5.52,43.13-14.93
		c0.56,0,16.22,14.95,24.54,30.89c0,0.1,10.39,20.98,11.34,22.67c2.78,4.96,4.68,3.59,6.27,10.49c0,13.93,6.17,10.55-3.85,29.95
		c-2.59,5.02-2.12,0.12-4.7,7.97c-7.42,22.64-5.93,15.81-23.12,49.51c-3.94,7.72-5.94,19.26-7.17,21.79
		c-0.91,1.86,0.21,3.4,0.21,3.5c-5.87,3.61-12.05,6.28-17.51,10.61c-0.72-1.03-0.82-2.06-0.93-2.99c4.42-8.35,3.27-17.72,5.56-17.72
		c4.26-24.88-2.02-47.72,16.72-70.17c4.1-4.92,7.57-10.18,11.2-15.43c0.2-1.11-0.2-2.05-0.82-2.99c-2.05-2.06-4.42-8.75-12.83-15.15
		c-5.47-4.17-6.43-4.17-6.84-6.18c-0.55-2.68-17.22-6.2-32.55-25.76c-2.17-2.77-4.74-5.25-6.28-8.55c0-0.01-0.01-0.02-0.01-0.02
		C54.4,382.57,49.38,383.35,54.6,380.68z M204.29,172.88c-1.75-0.62-1.75-0.62-3.61-3.5C202.13,170.31,203.36,171.34,204.29,172.88z
		 M205.11,181.64c-1.91-0.41-1.13-1.54-1.03-2.99C204.5,179.89,205.11,180.4,205.11,181.64z M196.56,167.11
		c0.64,1.28-1.47,0.45-2.01-0.64C194.44,166.37,195.85,166.91,196.56,167.11z M189.95,163.86c4.36,0.77,7.33,5.33-0.2-0.04
		C189.83,163.83,189.89,163.85,189.95,163.86z M144.13,185.66c-0.4,0-1.19,8.15-4.74,15.25c0.26-2.18,0.51-7.74,1.55-12.16
		c2.82-12.03-0.07-18.38,9.48-25.55c1.16-0.87,6.23-1.72,9.27-1.03c0.46,0.37,0.43,0.81,0.41,1.21c1.51-0.52,3.23,1.31,4.16,0.84
		c1.71-0.24-0.33-1.98-0.77-2.87c-1.44-0.52-2.88-0.93-4.43-1.44c-1.5,0-2.72,1.15-4.39,0.94c-0.28-0.06,4.39-3.84,9.03,0.3
		c1.43,0.32,2.64,1.08,3.71,2.06c-6.56,5.79-9.38,3.65-12.88,10.41c-10.66,20.63-6.41,21.41-11.23,29.98
		c-0.38-2.17,1.24-3.85,0.93-6.39c-2.83,6.52-4.68,11.38-7.83,15.45c4.86-9.11,7.84-19.62,9.79-29.67
		C144.94,183.73,145.68,185.55,144.13,185.66z M159.78,197.81c0.28,0.37,1.84,1.68,1.24,2.89c-1.85-1.34-3.61-2.47-3.92-4.84
		c-0.93-0.62-1.64-1.24-1.13-2.58c0.7,0.7,1.13,1.56,1.13,2.58c5.53,4.15,0.58-0.6,0.3-3.09c0.21-0.62,0.62,0,1.13-0.21
		c-0.21-3.52-2.44-1.8-1.96-9.99c1.2-0.09,1.43,1.49,2.37,1.55c1.2-0.4-1.52-1.83-1.25-5.62c0-1.08,2.65,4.47,5.44,5.89
		c4.27,2.17-4.85-4.02-3.78-8.3c4.23,3.8,9.08,6.38,13.4,10.09c-1.89,0.95-2.48-1.65-4.02-1.65c-4.64,0.66-4.22,0.6-4.29,0.7
		c-1.5,1.94-2.44,4.16-4.27,5.79C159.18,195.1,162.09,197.24,159.78,197.81z M150.35,208.26c0.13-0.98,1.61-2.31,3.15-2.31
		c0.32,3.19-1.71,6.53-4.12,8.76C149.76,212.49,150.06,210.45,150.35,208.26z M150.59,198c-0.03,0.31-0.12,0.64-0.28,1.05
		C149.78,196.96,150.7,196.64,150.59,198z M151.03,206.06c-0.19-1.77,0.39-2.9,1.13-4.33c0.64-1.23,0.41-2.78,1.85-4.22
		C154.3,201.34,153.24,203.84,151.03,206.06z M152.68,195.86c-0.91-1.83-1.46-3-1.13-5.15c0.95-6.16,2.89-13.1,6.39-18.34
		c0.21,0.1,0.41,0.31,0.62,0.41C154.12,179.79,154.22,187.92,152.68,195.86z M148.97,188.54c0.37,1.1-2.15,15.75-3.91,28.12
		c-1.65,1.03-4.02,0.52-6.39,1.85c0-4.29,5.7-8.05,9.27-26.58c0.09-0.47,0.23-0.94,0.72-1.13
		C148.56,190.09,148.45,189.37,148.97,188.54z M138.05,212.85c-0.2,4.19-0.79,5.49-3.65,7.81
		C134.92,217.74,136.72,215.76,138.05,212.85z M134.34,216.29c0.11,1.76-1.34,2.79-1.34,4.3c0.42,0.16,0.77,0.27,1.1,0.35
		c-0.85,1.63-2.46,1.5-4.41,1.5C132.12,219.24,134.34,215.92,134.34,216.29z M132.48,214.61c-0.34,1.54-1.16,2.88-2.06,4.17
		c-2.84,4.06-2.26,3.86-2.38,3.86c-1.24,0.52-2.36,0.82-3.8,0.82C126.51,219.76,129.7,217.39,132.48,214.61z M17.51,351.31
		c-0.31-1.34-0.1-2.37,1.03-3.4C18.75,349.46,18.23,350.28,17.51,351.31z M65.93,263.95c-11.5,0.53-8.11,8.88-19.06,22.97
		c-5.82,7.48-10.37,15.68-15.14,23.8c-6.18,10.51-4.85,29.51-8.65,33.69c-0.58,2.12-1.06,4.53-1.03,6.73
		c0.01,0.92-2.26,2.53-3.4,4.19c-0.93-2.73,2.55-5.09,1.44-8.65c0.93-0.93,1.66-1.85,2.78-2.37c-0.15-0.44,0.35-1.11-0.52-1.86
		c-3.26,2.17-6.08,5.02-6.9,8.86c-0.31,1.44-2.34,1.86-1.96,3.71c1.23,0.71,1.38-1.97,2.78-1.03c-0.82,1.34-1.03,1.56-2.37,1.75
		c-1.65,0.23-3.09,0-3.91-1.96c0.3-1.2,2.66-4.82,2.07-8.86c-2.16,2.58-1.65,5.77-3.3,7.93c-3.85,0.55,0.6-5.12-1.34-10.82
		c-1.44,2.58-1.03,4.84-1.75,7.01c-2.47-2.47-0.32-5.53-1.65-7.93c-0.34-0.89-1.85-0.3-1.85-1.24c0-0.96,0-1.93,0-2.99
		c5.21-7.23,13.5-13.62,13.66-18.2c0.06-1.66-0.39-2.04-0.23-2.12c5.53-4.74,7.39-11.41,10.05-17.79
		c2.58-6.18,4.87-12.45,7.01-18.75c2.05-6.06,6.58-11.73,8.34-17.72c0.82-2.78,3.19-5.05,3.91-8.04c1.75-0.72,3.5-1.34,5.46-1.44
		c3.1,0,19.58-7.18,22.36-8.65c13.1-6.97,19.68-4.13,37.91-14.32c10.63-5.94,20.24-4.77,26.58-6.18c1.24-0.82,0.1-2.88,2.58-2.58
		c14.99,12.01-4.26,42.03-5.14,45.44c-0.54,2.69-13.9,11.98-30.29,6.49c-2.69-0.9-4.43-3.5-6.28-5.77
		c3.03-6.06,2.77-3.45,16.17-8.24c0.82,1.55,0.93,2.99,1.96,4.02c1.29,1.29,3.22,3.58,3.07,1.6c-0.07-0.9-1.58-3.86-1.63-3.97
		c0.85-0.85,3.06,0.15,4.33-0.31c-0.18-1.29-1.75-1.24-2.16-2.16c0,0,0,0,0,0c1.7,0,3.11-0.09,4.62-1.13
		c-1.21,0-4.13-1.36-4.63,1.13C110.9,254.72,110.06,261.93,65.93,263.95z M68.41,328.86c1.96,0.21,3.19,1.13,3.61,3.09
		C70.78,330.92,69.54,329.89,68.41,328.86z M77.16,337.1c-4.83-5.91-1.91-2.89,0.62-0.62C77.57,336.69,77.37,336.89,77.16,337.1z
		 M104.36,346.47c-9.34,0-17.04-2.74-24.42-11.54c0.86-1.72,1.73-3.13,1.13-5.15c-1.06,0.8-1,2.49-1.85,3.5
		c-0.87,1.03-10.32-9.32-19.36-15.44c-0.14,0,3.91-2.61,6.88-5.06c7.85-5.75,0.73-2.71,8.96-8.34c5.54-3.8,10.2-12.67,10.82-13.5
		c1.18,0.74,2.3,6.39,8.76,10.3c9.05,5.49,11.25,12.19,35.13,19.88C127.29,325.08,111.08,332.69,104.36,346.47z M168.44,281.36
		c2.06,11.97-5.4,27.18-18.96,27.71c-2.34,0.09-4.74,0.91-7.11-0.21c-0.31,0.38-6.71,7.89-8.14,9.58
		c-9.45-1.26-20.44-5.88-31.22-14.73c-7.51-6.17-9.51-6.21-14.83-15.97c3.71-9.35,3.39-9.8,8.14-17.72
		c5.07,5.58,10.02,9.67,25.86,7.21c7.1-1.1,14.27-7.16,14.94-9.07c3.34-9.53,13.22-21.1,10.2-38.32c-1.59-9.05-7.26-9.61-4.29-10.35
		c1.41-0.5,2.68,0.24,4.29,0.15c8.88,10.21,3.72,19.94,4.02,34.51c0.2,9.6-2.47,13.66-2.47,20.19c0,15.15,18.13,9.3,18.65-4.33
		c0.11-2.99,0.74-5.98,0.31-8.96c-0.19-1.36,0.42-2.78,0.82-4.22C169.52,273.85,167.09,273.52,168.44,281.36z M167.2,237.79
		c1.44,1.03,1.44,1.75,1.03,2.78C167.92,239.74,167.72,239.13,167.2,237.79z M171.12,244.59c-1.13-2.78-0.1-5.67-1.55-8.04
		C172.24,238.92,172.66,241.09,171.12,244.59z M191.41,230.06c-2.94-0.74-5.56-0.97-7.73-2.88c-0.57-0.5-4.5-2.5-6.44-1.66
		c-1.79,0.78-3.95,3.89-9.74,9.9c-2.45,2.54-3.61,6.21-3.61,9.27c2.82-1.69,3.87-17.78,0.62,26.68c0,2.43-1.34,9.2-7.31,8.86
		c0.1-1.85,0.21-3.81,0.31-6.39c-1.44,2.17-1.78,4.8-2.68,6.7c-7.17,1.43-1.32-18.09-1.03-35.03c0.29-17.22,2.04-18.86-5.05-27.51
		c0.21-1.5,5.54-1.69,6.39-7.42c0.19-1.3,1.53-4.2,1.96-4.4c1.26-0.58,3.16,0.28,3.71-1.89c-1.34-0.62-2.78-1.24-3.19-2.37
		c-1.23-0.41-0.23,1.36-1.56,0.62c-0.42-1.27,0.01-3.13-0.21-4.43c2.06,1.55,3.3,3.4,5.36,4.43c0.21,1.13,0.52,2.37,0.72,3.61
		c1.27,0.51,2.85,1.13,4.24,0.61c-0.78,4.41-2.45,5.77,8.23,13.4c-1.91-3.91-5.65-5.6-7.19-9.12c-0.16-0.37-0.25,0.27,0.44-3.72
		c0.08-0.47,0.22-0.28-1-0.74l0.02-0.02c-0.18,0,0.17-0.89,0.3-1.55c-0.93-0.82-1.55,0.72-2.99-0.31
		c-1.37-2.64-1.59-5.42-2.68-11.95c1.24-0.31,1.55,0.41,2.16,0.82c-0.52,2.16-1.24,4.43,1.34,6.08c2.08-1.91-0.72-4.56,1.86-6.59
		c0.21-0.1,1.03-0.52,1.75-0.93c1.79,0.89-0.04,1.78-1.55,3.3c0.58,1.74,0.04,2.71-0.21,4.64c1.26,0.18,2.23-0.34,2.99-1.34
		c0.22-1.28-1.03-1.86-1.03-2.68c2.63-3.36,2.29-4.53-0.93-8.24c-2.06,0.72-2.06,0.72-4.33,2.78c0.46-3.07,2.51-3.88,5.67-4.22
		c1.34,0.52,1.76,1.75,1.96,3.09c0.39,2.64,3.17,6.26,5.88,4.06c0.83-0.67-2.32-0.26-2.89-1.79c4.22,0.31,8.04-1.44,11.95-1.85
		c2.86-3.47,7.31-5.48,8.55-10.2c-0.48-0.58-0.97,0.2-1.45,0.21c-0.52-0.82-2.61-0.58-2.05-2.06c-1.02,0.23-1.7-0.21-2.16-1.13
		c1.13-0.38,1.71,0.09,2.16,1.13c7.36-0.25,7.13,3.56,9.35,2.75c1.81-0.65-1.52-2.45-1.52-4.5c-2.66-1.06-6.78-7.07-10.1-5.46
		c-0.01,0.04,0,0.18-0.09-0.05c-0.85-1.43-2.16-1.48-2.16-1.37c0.53,2.13,2.29,1.38,2.23,1.65c-0.22,1.72,1.59,2.37,1.47,3.3
		c0.11,0,1.24,0.17,1.34,0.19c-0.16-0.46-0.4-0.86-0.7-1.21c0.72,0.74,1.15,1.61,1.52,2.54c-1.74,0.17-1.77-1.15-2.06-1.3
		c-4.36-1.75-1.42,1.21-10.91-6.43c-0.76-0.61-4.95-3.78-5.88-3.47c-4.63,1.26,3.25,2.36,13.71,12.13c-0.93,0.52-2.58-0.1-2.06,1.85
		c0.74,0.23,6.69,2.83,7.82,1.7c0,0.78-0.39,1.35-1.12,2c-5.54-3.79-9.25,0.72-17.61-8.55c-2.67-2.97-2.79-4.09-4.54-4.64
		c0.96,3.85,9.47,11.33,12.89,13.38c-3.64,0.11-6.19-1.5-8.96-2.68c1.37,2.75,3.92,2.47,4.12,4.84c2.47,0.72,4.64,1.34,7.21,2.06
		c-2.4,1.53-5.98-0.93-10.3-0.93c-2.11-0.18-8.99-6.75-10.61-8.45c-1.61,0.81-0.98,1.29-3.61-3c0.51-1.65,1.46-3,2.68-4.22
		c2.22,3.23,5.63,9.17,8.22,9.17c1.14,0,3.08,0.81-0.38-2.07c-2.99-1.44-4.22-4.43-5.98-6.9c-0.48-0.77-0.5-1.45,0.42-2.2
		c0.67-0.55,2.58,5.29,9.78,9.73c-0.73-2.33-11.32-10.66-7.3-11.33c0.06,1.18,1.53,2.43,1.54,2.27c0.03-1.6-1.74-2.31-1.37-2.31
		c0.47-0.12-0.19-0.6,0.38-1.27c0.67-0.78,5.3-2,6.76-2.2c3.87,1.69,8.06,5,11.74,6.28c-0.99-1.98-7.38-5.99-8.55-6.8
		c2.64-1.68,3.54-1.44,6.49,0.52c-2.3,0.49-1.86,0.35-3.19,0.62c0.02,0.02,5.34,2.85,6.9,3.5c3.49,1.46,6.03,4.07,8.65,6.59
		c0.42,0.4,0.62,1.03,0.41,1.65c4.26,1.71,4.04,5.12,6.8,7.52c1.44-0.31,2.78,1.03,4.53,0.82c3.34,3.34-0.24,6.03,0,15.66
		c-0.79,0.39-1.21,0.78-1.6,0.81c-4.46,0-4.45,7.82-3.66,11.96c0.1,0.83,0.65,2.42-0.83,2.8c-1.65,0.42-3.21-2.77-5.04-0.84
		c-0.21,1.03,0.82,0.93,1.55,1.34c-0.31,1.24-1.34,2.37-0.41,3.71c-2.85,2.15-4.66-0.62-7.01-1.03c0,3.3,4.64,1.87,4.53,5.15
		c-0.31,1.03-1.85,0.72-2.37,1.65C193.68,228.2,193.68,228.2,191.41,230.06z M164.63,191.84c0.72-1.13,1.44-2.16,3.19-2.27
		C167.42,191.68,165.87,191.32,164.63,191.84z M185.64,182.98c2.27-0.32,3.81-0.61,5.98,0.4
		C189.04,184.83,187.29,183.6,185.64,182.98z"/>
	<path d="M552.19,564.88c-6.9,0.47-13.7-0.82-20.6-1.96c-0.21-3.09-0.31-6.08,0.1-8.96c4.84,0.41,9.37-0.31,13.91-1.24
		c1.58-3,1.23-9.93,0.93-13.29c-0.38-4.23,0.6-8.34,0.31-12.57c-1.32-19.06-0.94-28.44,0-44.71c4.43-0.52,8.45,0.72,12.57,0.52
		c-0.93,7.01-0.72,11.44,0.93,14.22c-0.82-5.15-0.93-9.58,0.21-13.91c0.82-0.62,1.44-0.41,2.68-0.21
		c-0.82,23.18-0.31,46.26-0.41,69.02c0.52,0.31,1.34,0,1.24,1.13c-1.65,0.62-3.4-0.82-5.25,0.41c1.13,1.03,2.37,0.72,3.5,0.82
		c30.6,2.7,30.84,2.75,33.38,1.13c8.34,0.31,16.07,2.06,24.21,1.24c0.1,3.19-1.24,5.98,0.1,8.65c0.21-3.09,1.13-6.08,0.31-9.17
		c-0.72-0.31-1.24-0.52-1.96-0.72c4.84-0.21,4.84-0.21,6.59-1.75c-20.3,1.65-40.07-0.82-59.85-2.16c-1.72-4.02,0.54-10.06,0.1-14.53
		c-1.45-14.94,0.31-33.91-0.31-51.51c-0.1-0.93-0.21-1.96,0.93-2.99c7.21-0.41,14.73-0.82,22.25-1.24
		c5.98-2.68,12.67-2.8,18.85-4.95c6.28-2.18,12.77-3.71,19.47-5.36c-1.85-4.84,0.41-9.48-0.31-13.91
		c-2.82-1.81-26.93,0.48-66.76,0.1c-4.84-0.05-0.15-0.6-33.48-2.47c-34.5-1.93-26.43,0.34-30.8-1.03
		c-3.42-1.07-11.43,1.29-15.14,2.16c-26.27,6.16-31.45,2.91-36.57,8.04c-0.1,5.36-1.24,10.92-0.1,16.28
		c5.36,0.1,10.31-1.17,15.35-0.52c5.26,0.68,10.51,0.92,15.76,0.62c12.86-0.74,24.08,1.07,32.25,0.52c7.04-0.47,2.82,0.97,3.5,15.25
		c1.65,34.75-0.04,33.45,0.21,51.2c0.02,1.6,0.54,1.24-6.8,1.24c-5.15,0-10.3,0.48-15.45,0c-2.37-0.22-4.33,0.93-6.28,2.37
		c0,3.09,0,6.08,0,9.27c-11.95-0.93-23.59-1.34-34.61,2.99c-1.03,7.11-1.13,14.11-0.62,20.81c1.28,1.79,5.83-0.45,13.19,0.41
		c6.6,0.77,13.39,0.21,19.88,2.16c4.73,1.42,20.33,1.75,28.23,1.65c20.81-0.28,40.53,3.3,55.12,2.68c9.2-0.39,16.1,0.7,24.42,0.1
		c1.54-0.11,2.99,0,4.22,1.03c1.96-0.72,3.71-1.44,5.05-2.99c0.72-6.7,0.1-13.29,1.03-19.78
		C596.36,567.73,554.19,564.74,552.19,564.88z M544.26,550.04c-4.22,0-8.14,0-12.57,0.1c-2.53-18.34,0.13-14.07-0.62-30.7
		c-0.14-3.16-1.91-36.11,0.31-38.01c5.01,0,6.71,0.12,13.5,0.72c0.69,3.92-0.51,0.67-0.93,24.42
		C543.94,507.02,544.91,544.13,544.26,550.04z M497.7,477.52c-48.94,0.23-33.53-1.19-52.54,0c-0.62-16.94-4.44-14.1,25.95-17.93
		c4.25-0.54,5.69-1.58,19.47-4.74c3.33-0.76,84.46,7.22,133.41,2.68c0,4.27-0.91,7-0.63,10.44c0.29,3.59,2.27-0.54-16.68,6.25
		c-5.46,1.96-11.54,1.75-16.9,4.43c-0.96-3.73,0.45-7.46-1.23-11.13c-1.43,3.75-0.93,7.83-0.82,11.95
		C525.05,481.18,540.47,477.32,497.7,477.52z M510.05,550.76c0.16,1.56-0.42,1.13-23.4,1.34c-0.58,0.01-1.15,0.05-1.64-0.82
		C488.21,550.04,506.45,549.73,510.05,550.76z M484.86,556.18c0.34-3.81-2.74-2.47,24.99-3.15c0.52,3.3,0.21,6.39-0.21,9.48
		c-8.65-0.1-16.9-0.82-25.24-2.27C484.6,558.78,484.74,557.47,484.86,556.18z M589.69,588.06c-1.72,1.72-19.75-0.09-28.33,0.62
		c-7.65,0.63-33.88-2.76-52.54-3.09c-1.48-0.03-19.72,0.9-34.2-2.88c-3-0.78-3.59-0.41-26.27-0.41
		c-0.93-11.59,0.41-17.29,0.41-18.34c18.32,0.8,30.02,1.75,49.35,1.75c-5.65-2.74-7.8,0.04-19.26-1.34
		c-10.48-1.26-19.7-0.55-24.52-1.03c8.19-4.51,30.76-1.33,39.97,0.1c2.14,0.33,17.68,0.41,15.72,1.59
		c-1.9,1.14-4.59-0.75-10.05,0.16c3.72,1.55,6.19,1.3,9.99,1.55c3.77-2,1.14-20.81,2.58-41.72c0.94-13.72-2-32.27-0.21-44.81
		c4.33,0.72,8.45,0.41,12.67,0.62c0.93,6.63-0.82,12.93-0.1,19.37c0.97-5.29,1.55-18.85,1.55-18.96c0.93-0.31,1.85-0.31,2.88,0.21
		c-1.98,15.83,0.21,19.39,0.21,76.96c0,2.06-0.21,4.22,0.82,6.49c20.4,2.47,41,1.96,61.09,4.84c-2.48,2.9-13.74-0.53-1.24,2.78
		C589.17,577.86,589.38,583.01,589.69,588.06z M595.15,587.86c-1.03,0.82-2.06,1.13-3.3,1.13c-0.8-5.46-0.93-11.2-0.21-16.69
		c1.03-1.03,2.27-0.93,3.61-1.03C595.75,576.94,594.12,582.4,595.15,587.86z"/>
	<path d="M292.48,567.45c-3.2-0.29-6.28-1.44-9.68-1.13c0-3.19,0-6.18,0-9.27c4.95,0.41,9.58-0.41,14.11-1.34
		c1.38-3.14,0.89-13.01,0.72-15.14c-0.22-2.78,0.72-5.56,0.52-8.24c-2.13-27.89-0.31-35.88-0.31-47.29
		c4.53-0.41,8.55,0.82,12.57,0.52c0.66,3.28-1.36,2.68,0.41,14.22c0.82-7.58-0.83-16.72,3.71-13.7
		c-0.93,22.97-0.21,46.15-0.52,69.23c0.82,0.1,1.44,0,1.34,1.13c-1.54,0.34-4.76-0.45-5.49-0.59c1.93-4.58,0.13-8.95-0.38-13.42
		c0,3.81,0.21,7.52-0.72,11.23c-0.29,0.87-0.03,1.73,0.93,2.17c0.89,1.78-1.47,1.21,14.11,2.26c6.28,0.42,12.47,1.34,18.85,1.34
		c3.2,0-2.33-0.82,17.2-0.82c-0.52,1.13-1.65,0.41-2.06,1.44c18.88,0,12.13,0.33,13.7-1.24c1.13-1.13,2.99-0.1,4.84-1.96
		c-20.6,1.34-40.28-0.82-59.85-2.27c-2.51-2.72,0.31-7.99-0.52-19.06c-1.08-14.51,0.19-28.45-0.1-46.15
		c-0.08-4.72,0.49-3.61,2.47-3.91c8.22-1.25,16.68-0.03,24.72-2.68c4.42-1.46,9.16-1.78,13.6-3.19c20.17-6.41,19.47-4.74,20.29-6.39
		c-1.55-4.43,0.62-8.96-0.1-13.39c-1.85-1.03-3.81-0.81-5.67-0.62c-13.68,1.43-31.99,0.17-51.2,1.13
		c-13.04,0.65-66.07-7.36-88.6-1.55c-23.38,6.04-31.97,2.4-37.09,8.45c-0.1,5.15-0.72,10.61-0.1,15.97
		c20.64-0.76,61.19,0.41,61.3,0.41c9.49-0.15,5.09-2.19,5.98,18.54c1.13,26.5,0.36,2.48,0.1,46.57c-0.01,0.93,0.31,1.96-0.62,2.99
		c-6.8-0.52-13.7,0.26-20.6-0.21c-2.78-0.19-5.15,0.52-7.21,2.16c0.1,3.19,0,6.28-0.41,9.48c-11.74-1.24-23.39-1.34-34.41,2.99
		c-0.82,7.11-1.34,14.01-0.41,21.33c13.19,0,13.47-0.4,16.69,0.21c5.92,1.1,5.8-0.37,11.33,0.82c22.73,4.91,27.77,0.73,57.79,3.71
		c40.26,3.99,55.81-0.77,59.03,2.99c1.85-1.13,3.61-1.75,4.94-3.19c1.31-18.78,0.29-14.47,1.24-20.4
		C298.38,566.98,306.89,568.75,292.48,567.45z M339.32,558.21c1.07,0.02,0.53,0.52-0.69,0.28
		C338.84,558.27,339.08,558.21,339.32,558.21z M329.36,557.56c-0.61,0.31-1.04,0.29-1.55,0
		C328.33,557.56,328.84,557.56,329.36,557.56z M296.29,489.88c-1.44,16.33-0.23,40.87-0.21,42.14c0.05,3.09-0.69,6.18-0.52,9.27
		c0.57,10.3,0.29,10.76-0.31,11.96c-4.02,0-7.93,0-12.16,0c-1.89-26.97,0.55-13.28-0.62-32.54c-0.35-5.83-1.32-32.19-0.02-36.31
		c0.07-0.13,7.9,0.4,13.62,0.67C296.8,486.79,296.42,488.35,296.29,489.88z M253.64,480.81c-10.3,0.49-20.71-0.49-31.11,0.31
		c-2.78,0.21-5.67-0.09-8.55-0.41c-10.46-1.17-8.97-0.21-17.41-0.21c0-17.89-5.07-12.55,26.88-17.71c6.42-1.04,11.32-3.5,18.44-4.53
		c4.15-0.6,6.13,0.5,16.69,0.93c32.36,1.3,37.73,1.36,46.87,2.68c6.51,0.94,69.63-0.53,69.74-0.52c0.07,3.14-1.27,9.59-0.52,11.85
		c-4.18,0.55-8.08,1.57-12.07,2.82c-15.65,4.9-16.65,3.4-21.72,6.04c-1.02-4.09,0.52-5.96-1.24-11.23
		c-1.47,4.19-0.75,11.85-0.72,11.95C287.6,485.01,273.17,479.89,253.64,480.81z M261.47,553.85c0.15,1.49,1.15,1.44-25.03,1.44
		C239.23,553.32,257.89,552.84,261.47,553.85z M236.33,556.74c21.7-0.53,21.06-0.02,25.03-0.93c0,0.11,0.18,9.8-0.6,9.79
		c-8.42-0.1-16.74-0.62-24.95-2.27C235.95,562.03,236.33,556.77,236.33,556.74z M341.09,591.86c-41.82,1.35-60.5-3.31-88.91-2.99
		c-8.04,0.09-15.97-0.72-23.8-2.47c-7.95-1.78-23.99-0.62-28.85-1.03c-0.2-6.07-0.4-11.94,0.11-17.92c0.52-0.31,1.03-0.72,1.34-0.62
		c6.56,1.78,22.55,0.66,29.26,1.75c5.25,0.86,10.81-0.12,15.89-0.22c-13.58-0.19-32.17-2.04-40.51-2.04
		c13.14-4.93,28.93-0.25,50.68,0.93c4.74,0.26,4.33,1.02,4.84,1.02c-3.91,1.13-7.21-0.62-10.51,0.31c3.6,1.2,12.36,3.24,11.95-0.72
		c-0.4-3.92,0.41-7.83,0.41-11.74c0-35.01,0.85-26.62,0.72-32.97c-0.63-30.26-1.12-7.98-0.52-39.56c4.65,0.97,13.08,0.3,13.08,0.8
		c0,0.1-0.34,25.05,0.18,17.94c1.27-17.68,0.32-18.82,3.33-17.81c1.82,1.21-1.82,6.17,0.41,35.44c0.98,12.92-1,17.42,0.62,30.08
		c0.49,3.82-0.4,7.63-0.1,11.44c0.16,2.06,0.41,4.22,0.31,6.7c2.75,0,14.93,2.36,21.53,1.75c3.02-0.28,40.22,2.86,40.15,3.07
		c-1.06,3.14-4.53,0.4-6.97,1.15C346.39,578.14,338.95,568.87,341.09,591.86z M346.46,591.04c-1.02,1.02-3.3,1.32-3.3,1.22
		c-0.29-2.36-1.65-16.31,0.48-17.37c0.94-0.46,1.88-0.35,2.92-0.12C346.97,580.23,345.53,585.58,346.46,591.04z"/>
	<path d="M246.14,568.36c0.73,0.01,1.44,0.02,2.14,0.02C247.58,568.35,246.86,568.35,246.14,568.36z"/>
	<path d="M371.39,560.14l0.1-0.1C371.33,560.03,371.39,560.01,371.39,560.14z"/>
	<path d="M375.51,576.62c-0.52,0.72-1.24,1.13-2.06,1.44c-0.62-0.31-1.13-0.72-1.75-1.13c-0.1-1.55-0.21-2.99-0.31-4.74
		c-1.13,1.65-0.93,3.4-1.55,5.05c-6.28-0.41-12.26,1.36-18.34,0.82c-1.03-0.09-1.89,0.25-2.72,0.69c0.72,0.97,1.73,1.29,3.03,1.27
		c2.89-0.05,5.67,0.01,8.55-0.41c11.9-1.73,12.03-0.01,13.6,0.31c1.16-0.46,2.93-1.17,3.4-2.27c1.13-7.21,1.24-17.93-0.1-20.81
		C375.1,563.74,376.75,570.34,375.51,576.62z"/>
	<path d="M348.52,578.89c0.33-0.2,0.3-0.07,0.21-0.21L348.52,578.89z"/>
	<path d="M622.04,574.87c-2.88-1.03-1.24-3.71-2.06-5.56c-1.44,1.34-0.31,3.4-1.44,4.74c-3.5,0.1-7.01,0-10.41,0.72
		c-3.4,0.72-7.01-0.41-10.61,0.82c2.74,3.96,17.08-1.55,25.45,1.24c1.24-0.52,2.27-1.03,3.19-2.27c1.03-10.41,1.03-17.82-0.41-20.71
		C623.28,562.12,626.35,574.87,622.04,574.87z"/>
	<path d="M558.16,552.2c2.06-4.84,0.62-9.48-0.52-14.22C558.89,542.73,557.44,547.47,558.16,552.2z"/>
	<path d="M830.04,555.29c1.75-5.36-0.1-10.2-0.72-15.04C829.31,555.33,828.2,553.88,830.04,555.29z"/>
	<path d="M891.23,568.69c1.37-9.23,1.12-8.99,0.41-9.27C890.71,562.4,890.82,565.6,891.23,568.69z"/>
	<path d="M371.7,560.14c-1.44,2.68-0.82,5.67-0.41,8.55C371.08,565.8,372.32,563.02,371.7,560.14z"/>
	<path d="M427.74,105.71c-1.13-1.34-1.85-3.19-4.33-3.3C424.14,104.89,426.09,104.99,427.74,105.71z"/>
	<path d="M781.62,215.64c1.34,1.85,1.34,1.85,3.91,2.16C784.4,216.87,783.88,215.02,781.62,215.64z"/>
	<path d="M447.73,158.05c1.24,1.96,2.68,1.96,4.22,1.65C450.92,158.67,450.1,157.33,447.73,158.05z"/>
	<path d="M461.33,151.25c-3.09,0.82-3.09,0.82-3.3,2.78C459.57,153.62,460.3,152.48,461.33,151.25z"/>
	<path d="M830.45,509.86c0-7.68,0.09-6.9-0.21-6.9C830.24,510.63,830.15,509.86,830.45,509.86z"/>
	<path d="M310.4,509.76c0-2.27,0-4.53,0-6.7C309.99,505.23,309.99,507.49,310.4,509.76z"/>
	<path d="M557.75,527.99c0,6.75-0.04,6.08,0.1,6.08C557.86,527.32,557.9,527.99,557.75,527.99z"/>
	<path d="M791.71,212.75c2.06,0.41,2.78-0.82,3.5-1.96C793.88,211,792.54,211.1,791.71,212.75z"/>
	<path d="M768.12,159.7c-0.41-1.24-0.72-2.47-2.47-2.68C765.44,158.98,766.58,159.49,768.12,159.7z"/>
	<path d="M846.42,155.88c0.72-1.03,1.03-2.16,1.03-3.3C846.11,154.13,846.11,154.13,846.42,155.88z"/>
	<path d="M559.3,498.63c-0.41,1.65-0.41,2.68,0,3.91C559.3,501.42,559.3,500.28,559.3,498.63z"/>
	<path d="M503.26,89.64c0.41-1.34,1.13-2.27,0.72-4.22C502.64,87.07,502.64,88.2,503.26,89.64z"/>
	<path d="M829.73,530.88c0-1.39-0.02-1.97-0.04-2.03c0.01-0.01,0.02-0.01,0.04-0.03c-0.08,0-0.1,0.06-0.05,0.04
		c-0.03,0.11-0.05,0.93-0.05,2.02H829.73z"/>
	<path d="M786.87,201.55c-1.26,0.33-1.65,1.14-1.75,2.54C786.3,203.41,786.92,202.71,786.87,201.55z"/>
	<path d="M786.97,201.52l-0.1-0.1C786.87,201.59,786.84,201.56,786.97,201.52z"/>
	<path d="M450.2,145.79c0.72-0.72,1.03-1.55,1.03-2.47C450.3,143.83,449.27,144.35,450.2,145.79z"/>
	<path d="M500.27,107.16c0.62,0.1,1.03,1.44,1.96,0.31C501.81,106.54,501.3,106.23,500.27,107.16z"/>
	<path d="M892.98,558.08c0.15-0.04,0.1,0.02,0.1-0.1L892.98,558.08z"/>
	<path d="M840.65,172.37c0.41,1.13,1.03,1.44,1.96,0.93C842.4,172.47,841.99,171.96,840.65,172.37z"/>
	<path d="M373.24,560.03c0.62-0.1,1.03-0.21,1.24-1.34C373.35,558.8,372.83,558.9,373.24,560.03z"/>
	<path d="M501.81,98.71c-0.1,0.62-0.31,1.13,0,1.85C502.02,99.94,502.12,99.43,501.81,98.71z"/>
	<path d="M395.39,62.75c-0.62-0.21-1.13-0.41-1.65,0C394.36,62.86,394.88,62.96,395.39,62.75z"/>
	<path d="M843.02,166.8c0.62-0.31,0.52-0.82,0.31-1.34C843.02,165.88,842.6,166.19,843.02,166.8z"/>
	<path d="M621.52,556.43c0.93,0.82,1.34,0.31,1.75-0.41C622.66,555.71,622.04,555.5,621.52,556.43z"/>
	<path d="M170.6,179.37c0.83,1.59,2.19,2.65,3.66,3.53c0.7,0.42,1.11,1.02-2.83-3.64C171.18,179.27,170.8,179.28,170.6,179.37z"/>
	<path d="M774.71,325.35c-7.01-4.53-14.63-7.52-22.66-9.48C751.77,317.83,750.85,315.27,774.71,325.35z"/>
	<path d="M801.4,341.63c0.75,0,0.03-0.34,2.16-3.19c-0.17-4.83-0.42-4.77-2.37-6.08c0.1,1.75,0.21,3.4,0.31,4.84
		c-0.41,1.13-1.55,1.75-1.44,3.09C800.37,340.7,800.47,341.53,801.4,341.63z"/>
	<path d="M777.19,326.69c-0.19,2.84,1.24,3.33,6.18,5.87C781.82,329.06,779.97,327.21,777.19,326.69z"/>
	<path d="M781.51,354.1c2.25-2.15,3.85-4.63,3.76-7.76C785.22,344.4,785.63,343.25,781.51,354.1z"/>
	<path d="M786.15,338.54c-0.93,1.03-0.84,1.66-0.31,2.16c1.11,1.06,1.85,2.68,4.12,2.58C789.55,340.87,788.27,339.5,786.15,338.54z"
		/>
	<path d="M793.26,313.61c-2.16-2.99-4.84-5.25-7.93-7.01C787.14,308.81,789.45,311.02,793.26,313.61z"/>
	<path d="M796.45,344.31c-0.1,2.37,0.93,4.43,2.58,6.18C798.72,348.12,798,346.06,796.45,344.31z"/>
	<path d="M758.54,399.94c-2.37,2.99-2.47,3.4-1.85,6.18C757.79,404.46,757.62,402.45,758.54,399.94z"/>
	<path d="M779.66,357.8c-1.47,0.95-2.03,1.94-1.65,3.61C778.63,360.38,779.86,359.56,779.66,357.8z"/>
	<path d="M754.52,409.73c-0.99,1.43-1.43,2.47-1.03,4.43C754.45,412.63,755.06,411.44,754.52,409.73z"/>
	<path d="M786.05,336.79c0.72-0.82,0.31-1.34-0.41-1.85C784.81,335.86,785.22,336.38,786.05,336.79z"/>
	<path d="M777.29,364.71c-1.3,0.31-1.35,0.32-1.44,1.65C776.44,365.87,777.07,365.43,777.29,364.71z"/>
	<path d="M761.12,393.35c-0.72,0.31-0.82,0.72-0.41,1.34C761.22,394.38,761.42,393.96,761.12,393.35z"/>
	<path d="M800.68,344.52c-0.1,0-0.31,0.31-0.41,0.41c0.1,0.1,0.21,0.31,0.21,0.41C800.9,345.77,801.47,344.52,800.68,344.52z"/>
	<path d="M798.1,569.31c-0.08-1.34,1.62-1.14,1.55-2.27c-0.62-0.52-1.13,0.41-1.75,0c-2.05-7.07-0.01-7.13-0.41-27.61
		c-1.21,7.67-1.88,21.81-0.82,29.46c-1.52,1.52-6.48,1.85,15.45,1.85C807.06,568.79,802.43,570.03,798.1,569.31z"/>
	<path d="M797.28,515.01c0,5.36,0,10.61,0,15.76C798.92,525.5,797.69,520.46,797.28,515.01z"/>
	<path d="M815.39,571.92c0.76,0.01,0.22-0.31-0.6-0.97C815.02,571.49,815.08,571.92,815.39,571.92z"/>
	<path d="M832.61,339.05c1.75-2.16,2.21-4.64,2.58-7.21c0.09-0.62-0.52-1.24-1.44-1.24c-1.09,0.12-1.6,1.07-1.34,1.75
		C833.28,334.61,832.61,336.79,832.61,339.05z"/>
	<path d="M819.73,358.94c-1.21,3.3-2.42,5.28-3.71,8.45C819.73,363.57,820.56,361.72,819.73,358.94z"/>
	<path d="M822.31,346.47c-0.59,4.13-1.55,7.61-0.82,9.27C823.24,350.59,823.55,348.22,822.31,346.47z"/>
	<path d="M810.05,376.14c1.85-0.72,2.88-1.85,2.37-3.91C811.6,373.57,810.77,374.8,810.05,376.14z"/>
	<path d="M812.01,334.32c0.21,0.82-0.21,2.06,0.52,3.19c1.13-1.13,1.34-2.16,0.82-3.5C812.83,334.11,812.42,334.21,812.01,334.32z"
		/>
	<path d="M786.25,413.13c1.44-3.19,1.44-3.19,1.24-4.94C786.06,409.61,786.65,411.42,786.25,413.13z"/>
	<path d="M782.34,421.57c0.7-0.7,2.26-1.25,1.34-2.88C782.58,419.46,781.93,420.28,782.34,421.57z"/>
	<path d="M780.17,426c0.86-0.95,1.4-1.63,0.82-2.78C779.11,424.8,779.16,424.77,780.17,426z"/>
	<path d="M785.11,416.42c0.58-1.39,1.29-2.04,1.03-3.4C784.85,414.68,784.8,414.52,785.11,416.42z"/>
	<path d="M857.34,468.76c-1.96-0.41-47.08,0.31-48.73,0.82C824.58,469.38,840.65,471.02,857.34,468.76z"/>
	<path d="M870.01,466.08c-3.09,0.72-5.87,0.93-8.45,2.27C864.54,469.03,867.48,467.83,870.01,466.08z"/>
	<path d="M889.48,462.16c-0.93,0-1.85,0-2.88,0C887.62,462.68,888.55,462.27,889.48,462.16z"/>
	<path d="M882.16,463.33c0.31-0.4,0.01,0.18-1.96,0.18C880.89,463.7,881.66,463.98,882.16,463.33z"/>
	<path d="M882.37,463.29c0.62-0.1,1.44-0.21,2.47-0.21C883.73,462.59,883.04,462.75,882.37,463.29z"/>
	<path d="M822.81,125.4c-3.75-3.75-9.8-3.74-10.59-6.85c-0.28-1.11-0.19-2.25-1.36-3.25C810.04,121.83,812.53,121.73,822.81,125.4z"
		/>
	<path d="M831.68,100.05c2.14-0.33,3.08,1.94,5.56,2.27c-0.61-2,0.61-3.16,1.75-4.64C835.81,96.85,833.85,98.5,831.68,100.05z"/>
	<path d="M840.85,96.54c-2.78-4.02-7.62-4.22-10.51-0.72c1.78,0.18,2.73-1.24,4.33-1.13C836.73,95.1,838.48,96.44,840.85,96.54z"/>
	<path d="M817.57,124.57c-0.83,2.09-0.28,3.45,1.03,5.36C818.51,127.65,819.09,126.08,817.57,124.57z"/>
	<path d="M818.91,134.56c0,0.31,0.31,0.62,0.72,0.41c0.41-0.93,0.52-1.75,0-2.78C818.39,132.91,818.7,133.74,818.91,134.56z"/>
	<path d="M730.21,253.03c0.09-1.73-1.03-2.47-1.55-3.5c0.85-0.43,1.19-1.17,1.1-1.26c-2.74-1.39-4.69-5.56-6.05-4.2
		c0.1,0.1,0.73,0.85,0.78,0.92c1.13,1.42,2.03,2.48,2.7,3.23c-2.49-2.27-8.47-7.1-18.83-12.91c-0.61-0.34-1.3-1.14-2.47-0.62
		C714.24,240.46,723.41,245,730.21,253.03z"/>
	<path d="M725.68,251.08c-4.43-3.91-9.89-5.98-14.73-8.65c-0.29-0.87,0.51-1.43,0.55-2.11c0.04-0.84-0.49-1.12-1.22,0.03
		c-1.96,3.1-3.08-0.61-6.44,0.03c2.43,1.21,4.64,2.27,4.64,2.47c0,0.71-1.26,4.22,0.77,1.31
		C710.36,242.55,710.04,243.26,725.68,251.08z"/>
	<path d="M721.25,255.4c-3.5-3.61-7.31-1.13-10.92-1.03c0.44,0.15-0.61,0.1,8.65,0.1c1.75,2.16,4.33,2.17,6.59,2.06
		c2.65-0.12,3.74,1.57,7.21-0.52C728.56,255.81,724.85,255.09,721.25,255.4z"/>
	<path d="M698.38,243.35c3.09,1.96,6.28,1.96,9.17,3.4c0.21-0.62,0.31-1.13,0.52-1.55C706.21,245.73,702.7,243.35,698.38,243.35z"/>
	<path d="M716.82,255.51c-0.72,0-1.13,0-1.55,0C715.73,255.85,716.25,255.67,716.82,255.51z"/>
	<path d="M756.58,247.88c1.39-3.33,4.53-4.96,5.66-8.04C759.67,241.8,756.07,242.94,756.58,247.88z"/>
	<path d="M728.05,242.94c2.27-3.09,1.55-5.77,1.34-8.45C728.03,236.9,727.9,239.94,728.05,242.94z"/>
	<path d="M764.51,236.96c1.24-1.24,2.58-2.37,3.81-3.5C766.47,233.97,765.03,235,764.51,236.96z"/>
	<path d="M729.18,222.74c-0.44,1-0.47,1.78,0.52,2.27C730.42,223.8,730.14,223.18,729.18,222.74z"/>
	<path d="M877.01,191.84c0.53-0.14,1.03,0.19,1.36,0.24c0.96,0.14,0.76-1.36-1.35-1.99c-0.82,1.24-2.78,1.75-2.88,3.81
		C875.78,193.69,876.29,192.25,877.01,191.84z"/>
	<path d="M884.74,179.99c-0.31,2.06-1.44,3.19-0.72,5.05C885.15,183.49,885.77,182.36,884.74,179.99z"/>
	<path d="M872.17,195.75c-1.26,0.29-2.06,0.67-2.16,1.96C871.14,197.5,871.86,197.09,872.17,195.75z"/>
	<path d="M882.27,187.41c-0.24,0.16-0.66,0.35-0.86,0.52C880.44,188.73,882.63,189.42,882.27,187.41z"/>
	<path d="M761.31,455.71c0-0.14,0.9,1.51,1.77,2.35c1.29,1.24,2.63,0.98,6.48-0.11c0.22-3.12,0.08-4.81-0.74-5.82
		c-1.42-1.75-4.67-2.43-7.81,2.11c-5.31-6.19-11.18,0.35-7.11,4.43C756.26,460.5,759.36,460.32,761.31,455.71z M763.18,454.44
		c0.41-2.63,4.75-2.91,4.95,0.62c-0.72,0.62-1.55-0.31-1.85,0.1c-0.62,1.03,0.21,1.44,0,2.06
		C765.65,458.04,762.77,457.06,763.18,454.44z M754.64,454.06c1.78-2.29,5.93-0.1,4.04,2.97
		C756.88,459.93,752.6,456.68,754.64,454.06z"/>
	<path d="M746.28,459.69c1.44-0.33,0.21-2.16,1.65-2.58c1.77,0.13,2.21,3.25,3.5,1.96c0.41-0.93-0.82-1.44-0.72-2.27
		c1.34-2.16,1.45-2.79,0.82-3.81c-0.8-1.3-2.09-1.24-3.5-1.24c-0.88,0-1.64-0.2-2.58,0.41
		C745.46,459.33,745.35,459.91,746.28,459.69z M747,453.51c1.38-0.21,2.6-0.57,3.19,0.82c-0.72,1.55-1.96,0.82-2.78,0.93
		C746.81,454.66,747,454.25,747,453.51z"/>
	<path d="M779.83,445.44l0.04,0.04c-0.01-0.03-0.07-0.1-0.1-0.1l0.05,0.05c-0.03-0.02-0.07-0.03-0.07,0.05h0.02
		C779.84,445.49,779.84,445.46,779.83,445.44z"/>
	<path d="M779.74,445.46c-3.18-0.46-5.54,1.06-6.36,3.93C777.22,450.61,779.74,447.76,779.74,445.46z"/>
	<path d="M805,80.68c-0.82-0.71-1.44-1.22-2.58-0.82C803.25,80.27,803.87,81.09,805,80.68z"/>
	<path d="M434.32,281.26c3.07,2.03,3.18,2.71,5.05,2.47c-3.91-2.93-9.34-7.34-20.7-11.45C422.7,274.88,433.42,280.36,434.32,281.26z
		"/>
	<path d="M467.92,301.86c0.52-1.13,1.03-2.37,1.55-3.61c-0.8-1.6-0.29-4.49-3.19-5.56c-0.44,1.63,0.59,2.85,0.73,4.58
		C467.19,299.6,464.76,299.86,467.92,301.86z"/>
	<path d="M442.37,286.1c-0.41,2.58,0.21,3.4,5.15,6.18C445.98,290.02,445.67,286.93,442.37,286.1z"/>
	<path d="M452.26,307.94c-0.62,3.09-1.24,6.08-1.85,9.07C453.39,312.89,453.81,310,452.26,307.94z"/>
	<path d="M457,305.99c-2.16-3.91-2.88-4.33-5.56-3.5C452.77,304.34,454.22,305.68,457,305.99z"/>
	<path d="M466.89,311.03c-0.93-2.06-1.65-4.12-3.61-5.36C464.06,307.86,464.99,309.73,466.89,311.03z"/>
	<path d="M456.83,271.96c0.74,1.56,1.85,2.62,2.85,3.12c-0.43-2.01-2.4-3.58-2.51-3.46c-0.82-1.51-2.04-2.63-3.46-3.65
		C454.74,270.39,456.62,272.07,456.83,271.96z"/>
	<path d="M448.96,322.16c-1.37,0.91-1.49,2.15-0.94,3.71C448.55,324.43,449.17,323.5,448.96,322.16z"/>
	<path d="M432.89,376.97c-0.52,1.75-0.72,2.99-0.41,4.94C433.49,380.1,433.62,378.96,432.89,376.97z"/>
	<path d="M434.64,372.85c0.09-1.41,0.52-3.17-0.21-5.05c-0.22,0.81-0.52,1.25-0.52,1.74C433.92,372.37,433.67,372.85,434.64,372.85z
		"/>
	<path d="M449.48,295.68c-0.72,0.8-0.44,1.31,0.21,1.96C450.56,296.77,450.59,296.18,449.48,295.68z"/>
	<path d="M447.31,328.75c-0.21,0.52-1.65,0.82-0.62,1.85C447.21,330.09,447.83,329.78,447.31,328.75z"/>
	<path d="M498,294.56c1.78-3.67,2.44-6.32-0.1-8.86c-0.92,0.31-1.7,0.98-1.03,2.25C497.9,289.9,497.72,292.23,498,294.56z"/>
	<path d="M459.06,393.45c1.61,0.6,2.24,2.91,4.43,2.27c-0.1-2.42-2.58-3.47-2.58-5.77C459.47,391.39,459.47,391.41,459.06,393.45z"
		/>
	<path d="M489.24,303.51c-0.1,3.09-0.1,5.87,0.41,8.65C490.89,308.46,490.79,305.57,489.24,303.51z"/>
	<path d="M482.44,290.33c-2.02-0.67-2.99-2.88-5.36-3.18C477.81,290.12,479.25,290.94,482.44,290.33z"/>
	<path d="M488.83,316.39c-0.62,2.78-1.85,5.46-2.16,8.45C488.21,322.37,490.17,319.79,488.83,316.39z"/>
	<path d="M484.09,330.5c-1.34,1.13-1.44,2.68-1.65,4.12C483.82,333.36,484.55,332.32,484.09,330.5z"/>
	<path d="M462.14,384.28c1.44-0.72,1.44-1.96,1.34-3.19C462.3,381.99,461.53,382.87,462.14,384.28z"/>
	<path d="M461.63,385.41c-1.55,2.06-1.55,2.06-0.93,3.4C461.76,387.88,461.8,386.81,461.63,385.41z"/>
	<path d="M464.11,378.82c0.72-1.24,0.82-2.16,0.52-3.4C463.59,376.45,463.08,377.28,464.11,378.82z"/>
	<path d="M465.24,372.74c0-0.82,0.94-1.66,0-2.47C464.42,370.99,464.71,371.79,465.24,372.74z"/>
	<path d="M381.59,192.16c-0.93,0.52-0.82,2.08-1.55,2.16c-1.28,0.16-5.69-1.17-4.95-0.43c1.73,1.56,6.06,0.26,3.61,4.35
		c-1.47-0.05-9.84-1.51-8.67-0.73c2.93,1.52,5.84,1.06,8.37,1.76c1.44-0.82,1.55-2.58,2.88-3.3c5.61,1.37,11.23,3.96,15.97,5.14
		c-4.84-2.99-10.3-4.22-15.25-6.08C381.18,194,382.92,193.09,381.59,192.16z"/>
	<path d="M407.63,209.03c0.63,0.4,1.67,0.21,1.67,0.1c0.21-1.44-0.72-2.27-1.96-4.11c1.23,3.3-1.24,0.72-1.24,2.27
		C406.63,207.75,406.95,208.61,407.63,209.03z"/>
	<path d="M421.15,215.02c1.75-0.1,2.68-0.82,3.81-1.96C423.31,213.16,422.07,213.37,421.15,215.02z"/>
	<path d="M462.25,54.1c-0.49,7.17,5.37,8.24,12.67,8.24c-3.19-2.16-7.42-1.55-10.3-3.91C463.8,57.19,463.8,55.75,462.25,54.1z"/>
	<path d="M480.59,36.59c2.37-1.44,3.4,1.85,5.67,1.13c0.14-2-0.08-3.33,2.06-4.52C484.51,32.57,482.86,34.73,480.59,36.59z"/>
	<path d="M489.24,31.34c-3.99-2.93-7.81-2.9-10.51,1.13c1.65,0,2.68-1.44,4.53-1.65C487.85,31.4,488.12,32.58,489.24,31.34z"/>
	<path d="M471.73,68.11c0.44-2.36,0.02-3.81-1.34-5.46C469.69,64.93,470.6,66.2,471.73,68.11z"/>
	<path d="M473.49,70.41c-0.93-0.49-0.81,1.51-0.01,2.44C474.27,72.07,473.85,70.6,473.49,70.41z"/>
	<path d="M423.31,197.92c3.83-3.93,6.44-8.19,9.07-12.98C428.36,188.54,424.14,191.94,423.31,197.92z"/>
	<path d="M438.25,176.18c-1.41,0.34-1.68,1.22-2.38,2.47C437.29,178.04,437.8,177.38,438.25,176.18z"/>
	<path d="M400.03,185.66c0.5-0.75,0.52-1.28-0.31-1.65C399,184.73,398.9,185.25,400.03,185.66z"/>
	<path d="M400.14,179.63c-0.56-0.56-1.5,0.9-0.42,1.8C400.47,180.77,400.53,180.2,400.14,179.63z"/>
	<path d="M539.31,120.54c0.41-0.31,1.13,0.82,1.34-0.31c-0.46-0.69-1.15-0.95-1.96-1.13c-0.93,1.13-2.27,2.06-2.47,4.12
		C538.08,122.82,538.21,121.37,539.31,120.54z"/>
	<path d="M544.57,113.03c1.75-2.88,1.75-2.88-0.1-4.43C544.78,110.23,543.93,111.46,544.57,113.03z"/>
	<path d="M534.06,125.6c-0.65,0.28-1.12,0.79-1.34,1.55C534.06,126.83,534.06,126.83,534.06,125.6z"/>
	<path d="M543.43,115.91c-0.67,0.25-1.01,0.43-0.72,1.24C543.23,116.94,543.95,116.84,543.43,115.91z"/>
	<path d="M448.78,422.1c1.53,0.44,3.32-0.05,5.13-0.53c0.15-1.41,0.41-2.81,0.24-4.04c-0.44-3.03-4.83-5.36-8.68,0.23
		c-5.07-6.76-11.61,0.89-7.11,4.33c2.4,1.84,5.14,1.57,7.39-3.04C445.94,418.63,446.21,421.36,448.78,422.1z M449.27,415.91
		c2.91-0.49,3.59,2.23,3.1,2.59c-0.64,0.51-1.41-0.35-1.86,0.21c-0.72,0.72,0.52,1.34-0.1,2.06
		C446.85,420.97,446.61,416.35,449.27,415.91z M441.13,421.57c-3.44,0-3.56-5.05-0.1-5.05
		C444.48,416.77,444.13,421.34,441.13,421.57z"/>
	<path d="M429.6,415.71c0.05,2.53-0.09,4.86,0.31,7.2c2.18,0,0.79-1.56,1.96-2.47c1.96-0.1,1.96,2.27,3.71,2.16
		c0.69-1.01-0.75-1.73-0.52-2.67C439.62,414.4,429.57,414.48,429.6,415.71z M431.66,418.59c-0.52-0.52-0.31-0.94-0.31-1.65
		c1.47-0.2,2.59-0.6,3.19,0.82C433.72,419.1,432.69,418.79,431.66,418.59z"/>
	<path d="M461.94,408.8c0,0.04,0,0.07,0,0.11C462.1,408.91,462.02,408.91,461.94,408.8z"/>
	<path d="M461.95,409.02c0-0.2-4.65-0.18-5.99,4.32c0.01,0,0.02,0.01,0.04,0.01C459.42,414.32,462.13,412.28,461.95,409.02z"/>
	<path d="M451.74,21.03c-1.54-0.2-2.39-1.03-3.5-0.62C449.45,21.07,450.24,21.41,451.74,21.03z"/>
	<path d="M456.28,30.92c-0.72,0-1.55-0.1-2.27-0.1C454.73,31.54,455.56,31.44,456.28,30.92z"/>
	<path d="M93.31,418.78c8.24,4.9,12.85,10.03,15.79,11.14c-5.91-5.91-12.02-10.71-19.57-14.42C90.44,417,91.84,417.91,93.31,418.78z
		"/>
	<path d="M135.88,448.87c0.41-0.52,0.72-1.13,1.03-1.65c-0.83-4.77-0.84-4.74-2.68-5.56c-0.41,1.64,0.63,2.93,0.52,4.53
		c-1.55,2.78-1.55,2.78,0.1,4.43C135.58,450.31,135.47,449.49,135.88,448.87z"/>
	<path d="M116.62,439.4c-1.2-1.5-4.55-10.96-5.98-5.98C112.77,436.86,113.62,437.56,116.62,439.4z"/>
	<path d="M115.69,464.22c2.53-2.74,3.9-5.63,2.99-9.27C117.65,458.04,116.62,461.13,115.69,464.22z"/>
	<path d="M123.52,453.3c-1.28-3.35-2.32-5.48-5.05-3.61C119.93,451.55,121.05,452.83,123.52,453.3z"/>
	<path d="M125.07,415.7c0.93,2.58,3.19,5.98,5.15,7.83C129.08,420.44,127.64,418.28,125.07,415.7z"/>
	<path d="M132.9,459.59c-0.72-2.06-1.24-4.22-2.99-5.87C130.11,455.98,131.15,457.94,132.9,459.59z"/>
	<path d="M94.68,511.61c-1.75,1.85-1.44,3.91-1.55,5.77C94.37,515.74,94.47,513.88,94.68,511.61z"/>
	<path d="M90.66,525.53c1.03-1.24,1.34-2.37,1.03-4.43C90.39,522.96,90.32,524.24,90.66,525.53z"/>
	<path d="M112.29,471.85c1.13-0.93,1.34-2.06,1.55-3.3C112.6,469.17,112.09,470.2,112.29,471.85z"/>
	<path d="M117.44,444.34c0.82-0.72,0.93-1.34-0.21-2.06C116.83,443.12,116.72,443.73,117.44,444.34z"/>
	<path d="M110.03,476.79c1.19-0.32,1.36-0.85,1.86-1.85C110.54,475.04,110.33,475.66,110.03,476.79z"/>
	<path d="M96.66,505.19c-0.4,0.89-0.26,0.84,0.29,0.56C97.93,505.23,97.31,503.74,96.66,505.19z"/>
	<path d="M45.23,259.62c3.24-2.77,7.18-2.41,5.98-5.67C48.8,255.74,46.02,256.44,45.23,259.62z"/>
	<path d="M27.99,311.49c-0.92,1.72-1.53,3.49-1.31,5.42c1.2-1.58,1.8-2.79,2.07-4.88C29.14,308.99,29.16,309.31,27.99,311.49z"/>
	<path d="M120.53,230.88c2.65-0.31,6-2.5,6.9-3.4C124.76,227.79,122.49,228.93,120.53,230.88z"/>
	<path d="M42.03,265.19c2.16-1.24,3.4-3.09,3.09-5.67C42.89,260.74,43.06,263.23,42.03,265.19z"/>
	<path d="M137.02,228c2.45,1.63,0.24,0.34,5.49,2.35C142.61,230.4,141.32,226.68,137.02,228z"/>
	<path d="M5.46,338.64c2.06-0.62,1.65-2.06,1.75-3.3C5.9,336.11,5.38,337.05,5.46,338.64z"/>
	<path d="M8.34,333.39c1.34-0.1,1.55-0.82,1.75-2.06C8.65,331.64,8.45,332.36,8.34,333.39z"/>
	<path d="M11.95,330.09c0.55-0.99,1.32-1.44,0.72-2.68C11.59,328.18,11.25,328.8,11.95,330.09z"/>
	<path d="M131.66,227.69c-0.82-0.62-1.55-0.93-2.37,0C130.07,228.55,130.74,228.38,131.66,227.69z"/>
	<path d="M120.53,230.88c-0.72,0.1-1.44,0.31-1.44,1.34C119.79,231.89,120.43,231.74,120.53,230.88z"/>
	<path d="M122.29,269.72c-0.1,1.34-0.1,1.34,1.13,1.55C123.52,270.44,123.01,270.03,122.29,269.72z"/>
	<path d="M13.7,337.1c0.82-0.52,1.44-0.82,0.93-1.75C13.8,335.45,13.5,335.96,13.7,337.1z"/>
	<path d="M10.92,340.09c1.08,0.28,1.46-0.16,1.13-1.13C11.33,339.05,10.82,339.36,10.92,340.09z"/>
	<path d="M165.76,446.81c1.96-2.37,1.75-4.94,2.27-7.31c0.42-1.45-2.36-2.23-2.81-0.55c0,0.97,0.58,1.23,0.56,4.04
		C165.76,444.29,165.66,445.2,165.76,446.81z"/>
	<path d="M117.86,537.27c-1.54,0.39-2.07,1.3-2.37,2.78c1.11,1.32,2.05,2.81,3.65,3.57c0.08,0.04,0.68-0.42,0.68-0.59
		C120.02,540.77,117.55,539.64,117.86,537.27z"/>
	<path d="M150.73,475.79c2.33-2.67,4.02-5.06,3.28-8.49C149.79,477.49,150.03,476.59,150.73,475.79z"/>
	<path d="M156.49,459.28c0.21-1.5,1.02-3.12-0.62-5.05c-0.07,2.4-0.9,6.55-0.62,9.68C156.8,462.27,156.39,460.62,156.49,459.28z"/>
	<path d="M151.44,440.84c-2.44-0.91-3.3-3.3-5.56-3.81C145.99,440.36,148.06,441.01,151.44,440.84z"/>
	<path d="M145.05,484.83c2-0.64,2.77-2.01,2.27-4.02C146.6,482.15,145.77,483.49,145.05,484.83z"/>
	<path d="M119.61,532.22c1.34-1.13,1.96-2.06,1.75-3.5C120.12,529.44,119.3,530.26,119.61,532.22z"/>
	<path d="M118.78,532.84c-0.93,1.03-2.06,1.75-1.03,3.81C118.78,534.69,118.78,534.69,118.78,532.84z"/>
	<path d="M123.73,521.92c0.26-1.56,1.45-2.56,0.82-4.02C123.21,518.93,123.52,520.06,123.73,521.92z"/>
	<path d="M122.49,526.24c0.45-1.12,1.13-1.84,0.72-2.99C122.08,524.7,122.08,524.7,122.49,526.24z"/>
	<path d="M137.84,491.73c0.31-0.08,0.68-0.16,0.7-0.45C138.59,490.67,137.84,490.8,137.84,491.73z"/>
	<path d="M129.7,306.09c-3.19-0.21-6.39-0.92-8.96-2.99c-3.82-3.08-8.34-5.46-11.13-9.68c-3.79,1.92,4.76,9.54,12.57,13.08
		c7.02,3.19,18.17,0.77,21.84-3.81C135.27,305.87,135.82,306.49,129.7,306.09z"/>
	<path d="M195.43,201.63c0.12,1.44,0.93,2.06,2.27,2.47c0.21-1.85,1.34-2.78,3.81-3.3c-3.4-1.85-4.02-1.85-8.24-1.03
		C193.28,201.21,195.34,200.49,195.43,201.63z"/>
	<path d="M198.42,196.37c0.47,0.47,2.31,1.98,2.41,2.07c0.78,0.72,1.36,1.74,2.95,1.53c-3.7-6.3-6.9-6.03-10.1-4.43
		C195.02,196.37,196.67,195.44,198.42,196.37z"/>
	<path d="M155.15,219.96c-0.47,2.43-1.31,4.5,0.31,7.21C156.07,218.88,156.2,219.96,155.15,219.96z"/>
	<path d="M165.35,221.82c1.06-3.05,1.54-3.74,0.31-5.67C164.94,217.8,164.94,219.45,165.35,221.82z"/>
	<path d="M156.28,241.29c1.72,1.9,1.55,2.3,3.4,3.41C159.27,242.32,158.86,242.01,156.28,241.29z"/>
	<path d="M61.61,335.55c10.32,4.09,14.73,8.12,14.85,6.81c0.04-1.31-12.15-6.62-14.54-7.74c-0.72-1.13,1.24-1.96,0-3.09
		c-0.72,0.93-1.55,1.75-2.27,2.68C57.76,339.87,60.03,335.34,61.61,335.55z"/>
	<path d="M58.93,337.1c0.01-0.04,0.02-0.07,0.02-0.1C58.78,336.99,58.8,336.97,58.93,337.1z"/>
	<path d="M49.86,335.86c0.46,0.15,3.23,1.59,8.76,2.37c0,0,0.16-1.1,0.21-1.24C57.36,337.88,52.9,335.07,49.86,335.86z"/>
	<path d="M102.51,357.29c-1.55,0.1-2.78,0-3.81,2.06C100.34,358.73,101.48,358.53,102.51,357.29z"/>
	<path d="M59.55,334.21c-0.84-1.05-2.06-1.43-3.4-1.24C57.05,333.66,58.42,334.31,59.55,334.21z"/>
	<path d="M83.86,348.43c0.41,0.72,0.72,1.44,1.44,1.85c0-0.05,0.01-0.1,0.01-0.15c0.04,1.03,0.47,1.91,1.95,1.81
		c0.59-1.84-0.35-3.04-1.55-4.64c-0.05,0.35-0.22,1-0.33,1.71c0.01-0.09,0.02-0.18,0.02-0.27
		C84.89,348.74,84.68,347.81,83.86,348.43z"/>
	<path d="M113.53,330.4c-4.43,1.34-9.68,7.31-10.61,11.64C106.83,338.75,110.23,334.83,113.53,330.4z"/>
	<path d="M119.5,322.16c-1.9,1.9-1.54,0.92-3.19,3.4C118.68,324.32,118.68,324.32,119.5,322.16z"/>
	<path d="M81.18,323.19c0.93-0.72,0.93-1.44,0.41-2.47C80.87,321.64,80.36,322.26,81.18,323.19z"/>
	<path d="M116.21,325.56c-0.72,0.21-1.13,0.72-1.03,1.55C115.93,326.78,116.31,326.37,116.21,325.56z"/>
	<path d="M80.67,325.56c-0.41,0.72-0.52,1.24,0.1,1.65C81.7,326.8,81.59,326.28,80.67,325.56z"/>
	<path d="M103.95,562.61c-6.02-0.12-5.53,8.04-0.31,8.04c1.2,0,2.3-0.41,4.02-0.1c-0.61-1.54,0-2.48,0.21-3.5
		C108.07,564.57,106.52,562.66,103.95,562.61z M104.46,567.04c-1.55,0.36,0,1.54-1.03,2.16c-2.16-0.62-2.47-2.06-2.06-3.81
		c2.17-2.72,4.7-0.57,4.8,0.9C106.31,568.41,104.95,566.93,104.46,567.04z"/>
	<path d="M93.65,561.89c-1.99,0.43-3.17,1.81-3.17,4.42c0.36,2.99,4,4.21,5.93,3.29c1.03-0.49,1.86-1.65,2.8-3.7
		C97.66,562.51,96.11,561.36,93.65,561.89z M95.53,568.1c-2.27,1.69-5.98-3.16-0.86-4.87C97.86,565.02,97.96,566.3,95.53,568.1z"/>
	<path d="M88.91,561.68c-1.57,0-3.99-1.18-5.25-0.1c-0.52,2.16-0.62,4.43-0.21,6.8c0.21,0.21,0.19,0.14,0.52,0.31
		c1.23-0.11,0.41-1.84,1.75-2.16c1.55,0.3,1.5,2.68,3.5,2.59c0.31-0.93-0.82-1.65-0.62-2.68C89.94,565.08,90.66,563.64,88.91,561.68
		z M85.82,564.88c-1.67-0.34-1.23-3.74,2.37-1.34C87.88,565.18,86.85,565.18,85.82,564.88z"/>
	<path d="M116.05,555.93c-2.62,0.44-4.72,1.47-6.03,4c0.69,0,3.36,2.36,6.79-2.42c0.17-0.22,0.19,0.03-0.45-1.24
		C116.12,555.81,116.21,555.93,116.05,555.93z"/>
	<path d="M149.59,173.91c3.91-6.18,3.91-6.18,10.3-10.2c0.11,0,0.1-0.19,0.1-0.31C154.63,164.13,149.69,169.07,149.59,173.91z"/>
	<path d="M160.09,163.37c-0.03,0.01-0.07,0.02-0.1,0.03C160.12,163.53,160.09,163.55,160.09,163.37z"/>
	<path d="M190.07,174.12l0.1,0.1C190.21,174.12,190.16,174.12,190.07,174.12z"/>
	<path d="M190.48,174.43l-0.1-0.1C190.43,174.46,190.41,174.39,190.48,174.43z"/>
	<path d="M528.19,564.36c-0.69,0.1-1.29,0.1-1.97,0.2c-0.14,0-0.8-6.99-0.81-7.1c0-0.1,1.1-14.19,0.82-23.08
		c-0.72,9.99-2.31,19.86-1.24,29.77c0.12,1.13,0.1,2.16-1.13,2.88c2.29,0.92,10.9,1.57,16.15,0.75c3.19-0.5-13.48-0.82-13.58-0.86
		C526.33,565.49,528.19,565.57,528.19,564.36z"/>
	<path d="M525.4,512.13c0.52,5.36,0.62,10.71,0.62,15.97C526.54,522.74,527.05,517.38,525.4,512.13z"/>
	<path d="M524.85,466.45c-1.31,0.02-4.49,0.6-11.78,0.63c-7.59,0.03-17.9-1.03-18.26-1.21c-11.23-1.57-7.05-0.73-44.61-1.13
		c0.1,0-2.1-0.36-3.4,0.52c2.1,1.68,15.93,1,18.43,0.82c7.84-0.55,14.99,1.2,18.97,0.21c3.21-0.8,15.11,1.79,23.17,1.85
		C518.28,468.22,533.09,466.34,524.85,466.45z"/>
	<path d="M585.07,466.01c-2.09-0.89-13.26,0.82-20.52,0.48c-10.2-0.47-20.4-0.1-30.39,0c8.24,2.37,16.89,0.15,25.45,1.13
		C566.26,468.39,586.48,466.71,585.07,466.01z"/>
	<path d="M590.1,466.58c5.31-0.54,8.49-3.05,8.76-3.18c-1.17,0.29-6.73,1.5-9.07,2.06C590.12,466.44,589.88,466.58,590.1,466.58z"/>
	<path d="M619.87,459.38c-0.64-0.36-1.18-0.08-1.79-0.08C617.58,459.3,618.06,459.65,619.87,459.38z"/>
	<path d="M615.86,459.9c-1.24,0-1.85,0-3.09,0.1C614,460.31,614.62,460.31,615.86,459.9z"/>
	<path d="M608.85,461.17c0.23-0.31,0.31,0-2.16,0.28C607.66,461.83,608.34,461.84,608.85,461.17z"/>
	<path d="M609.06,461.13c0.62-0.1,1.44-0.1,2.68-0.1C610.68,460.49,609.93,460.62,609.06,461.13z"/>
	<path d="M277.31,569.47c0.73-0.36,2.65-1.36,1.99-1.83c-0.97-0.82-2.28,3.15-2.51-6.22c-0.17-6.68,0.65-3.29,0.65-22.5
		C277.13,542.15,274.2,570.51,277.31,569.47z"/>
	<path d="M275.06,570.63c4.97,1.4,9.12,0.85,14.18,0.73C296.15,571.2,280.41,569.6,275.06,570.63z"/>
	<path d="M277.13,517.18c0,4.74,0,9.48,0,14.22C277.95,526.66,277.74,521.92,277.13,517.18z"/>
	<path d="M262.19,470.41c-7.93,0.37-15.66-1.43-23.49-2.16c-8.17-0.76-30.58,0.54-38.53-0.41c-0.72-0.09-1.44-0.21-2.16,1.03
		c9.36,1.27,19.86-0.21,28.33,0.41c3.51,0.26,6.9,1.13,10.3-0.1c0.85-0.24,10.16,1.4,18.52,2.04
		C260.88,472.03,296.25,468.8,262.19,470.41z"/>
	<path d="M311.2,469.57c-3.34-0.47-37.5-0.05-15.29,1.05c15.28,0.76,37.42-0.17,40.22-1.46C334.5,467.85,319.01,470.66,311.2,469.57
		z"/>
	<path d="M340.89,469.58c3.5,0.1,6.28-1.34,9.17-2.68C345.5,467.37,342.98,467.6,340.89,469.58z"/>
	<path d="M365.83,463.09c0.72,0,1.16,0,1.94-0.04C369.81,462.95,366.85,462.58,365.83,463.09z"/>
	<path d="M359.7,464.59c0.77-0.05,1.55-0.05,1.8-0.68C361.4,463.96,358.59,464.72,359.7,464.59z"/>
	<path d="M363.57,463.72c0.17,0,0.11-0.79-2.07,0.3C362.19,463.92,362.88,463.82,363.57,463.72z"/>
</g>
</svg>
