<?xml version="1.0" encoding="utf-8"?>
<!-- Generator: Adobe Illustrator 21.0.0, SVG Export Plug-In . SVG Version: 6.00 Build 0)  -->
<svg version="1.2" baseProfile="tiny" id="Layer_2" xmlns="http://www.w3.org/2000/svg" xmlns:xlink="http://www.w3.org/1999/xlink"
	 x="0px" y="0px" viewBox="0 0 900 600" xml:space="preserve">
<g>
	<path d="M889.9,372.6c-2.9-0.9-5.7-1.8-8.6-2.8c-0.5-0.2-1-0.3-1.7-0.1c0.4,0.4,0.9,0.8,1.3,1.1c4.7,3.2,6.5,7.9,6.9,13.4
		c0,0.5,0,1-0.1,1.4c-0.4,3.6-2.8,5.1-6.5,4.1c-0.3,0.5-0.5,1.1-0.9,1.5c-0.7,0.9-1.4,1.9-2.3,2.7c-0.6,0.7-1.5,1.2-2.1,1.9
		c-2,2.1-3.5,2.4-6.2,1.2c-1.6,1.2-3,2.7-4.8,3.7c-1.7,0.9-3.7,1.3-5.7,2c-0.1,0.3-0.3,0.8-0.5,1.3c-0.2,0-0.5,0-0.5-0.1
		c-0.7-0.9-1.7-1.2-2.8-1.4c-3.4-0.5-6.5-1.5-8.4-4.6c-0.2-0.4-0.6-0.7-1-1.2c-1.6,1.7-3.3,2.3-5.4,1.3c-2.5-1.1-4.5-2.9-6-5.3
		c-2-3.1-1.7-5.9,0.5-8.9c0.5-0.6,1-1.2,1.5-1.8c-1.1-0.5-5-0.9-6.5-0.8c-0.5,0-1.1,0.1-1.6-0.1c-1.8-0.6-3.6-1.3-5.4-1.9
		c-4.1-1.4-7.4-3.8-10.5-6.8c-2-1.9-3.9-3.9-5.8-6c-1.7-1.9-3.8-3.1-6.3-3.6c-5.6-1.2-11.2-2.2-16.9-2.1c-1.6,0-3.2,0.2-4.7,0.3
		c-0.5,0.1-1,0.3-1.5,0.5c-0.6,0.2-1.1,0.6-1.7,0.8c-3.4,0.6-6.1,2.5-8.6,4.8c-2.4,2.1-4.2,4.7-5.7,7.7c1.1,1,0.8,2.1,0.5,3.4
		c-1.1,3.6-1.1,7.3-0.5,11c1.1,6.1,2.1,12.2,2.5,18.3c0.1,0.9,0.3,1.7,0.3,2.6c0,1.1-0.2,2.1-0.4,3.2c-0.1,0.9-0.3,1.7-0.3,2.6
		c-0.3,4.9-1.4,9.7-3.4,14.2c-1.2,2.7-2.3,5.5-3.4,8.3c-3.2,8.3-8.9,14.5-16.3,19.2c-5,3.2-9.2,7.2-12.4,12.2
		c-1.9,3-4.1,5.8-6.5,8.4c-3.9,4.3-7.5,8.9-11.2,13.5c-4.8,6-9.9,11.5-15.7,16.5c-0.5,0.5-1.1,1-1.7,1.3c-3.7,2.2-5.8,5.8-8.2,9.2
		c-3,4.3-6.5,8.4-9.9,12.5c-3.3,4-7,7.6-11.6,10.1c-8,4.3-16.4,7.6-25.5,8.3c-6.4,0.5-12.5,2.1-18.6,3.6c-4.8,1.1-9.6,2.1-14.3,3.2
		c-1.4,0.3-2.7,0.8-4.1,1.3c-2.2,0.8-4.4,1-6.8,0.8c-2.5-0.2-5.1,0-7.6-0.1c-1.6,0-3.1-0.3-4.7-0.4c-1.1,0-2.1,0.1-3.4,0.2
		c-0.2,2.4-1.9,3.7-3.5,5.1c-4,3.6-8.5,6.6-12.1,10.6c-0.7,0.8-1.8,1.3-2.8,1.7c-2.6,1-5.2,1.9-7.8,2.8c-0.5,0.2-1.1,0.2-1.6,0.2
		c-1.9,0-3.8,0.1-5.7,0.1c-1.8,0-3.5-0.5-5.3-1.2c-6-2.4-12-4.5-18.4-5.5c-3.3-0.5-6.5-1.1-9.8-1.8c-3.7-0.8-6.8-2.9-10-4.8
		c-1.5-0.9-1.5-1.8-0.7-3.5c0.4-0.8,0.8-1.5,1.3-2.5c-0.7-0.4-1.4-0.8-2.1-1.2c-9.7-5.1-19.6-10.1-29.2-15.3
		c-5.8-3.2-11.4-6.8-17.1-10.3c-3.2-1.9-6.2-4-9.4-6c-1.6-1-3.4-1.6-5.1-2.5c-2.3-1.3-4.5-2.7-6.7-4c-1.9-1.1-3.8-2.4-5.7-3.4
		c-10.6-5.8-21.2-11.7-31.9-17.3c-5.4-2.8-11-5.3-16.5-7.8c-2.5-1.1-5.2-1.7-7.9-2.4c-5.1-1.2-9.9-3.2-14.6-5.5
		c-3.1-1.5-5.9-3.4-8.9-5c-2.2-1.1-4.4-2-6.7-3c-0.2-0.1-0.5-0.2-0.7-0.1c-1.8,0.9-3.3-0.1-4.7-0.8c-5.4-2.8-10.8-5.7-16.1-8.7
		c-3-1.7-5.5-4-7.6-6.8c-0.6-0.8-1.5-1.4-2.3-1.9c-1.6-1-3.3-1.9-4.9-2.9c-1.2-0.7-2.5-1.5-3.8-2c-2.7-1-4.9-2.8-7.2-4.4
		c-1.9-1.3-4.1-2.6-6.3-3.2c-3.4-0.9-5.9-2.6-7.3-5.8c-0.1-0.2-0.3-0.4-0.4-0.6c-2.6,1.6-5.3,0.7-7.8,0c-4.8-1.5-9.6-3.3-14.4-4.8
		c-2.2-0.7-4.6-1.1-7.2-1.7c-1,0.9-2.5,0.7-4,0.6c-3.6-0.1-7.3-0.2-10.9-0.3c-1.4,0-2.8,0.1-4.3,0c-1.6,0-2.1-0.5-2.3-2.1
		c-0.1-1-0.2-2-0.2-2.9c-7.2-0.6-14.2-1-21.1-2.6c-8.9-2-18-3.6-27-5.3c-3.9-0.8-7.8-1.5-11.7-2.2c-0.8-0.1-1.7,0.1-2.5,0.1
		c-0.9,0-1.7,0.1-2.6,0c-9.2-1.7-18.4-3.3-27.7-4.1c-4.4-0.4-8.8-1.4-13.1-2c-2.3-0.3-4.6-0.6-6.9-0.6c-1.5,0-2.9,0.6-4.4,0.8
		c-5.1,0.7-10.3,0.8-15.4,0.2c-5.2-0.6-10.3-1.5-15.5-2.1c-4.3-0.4-8.7-0.4-13-0.6c-3.6-0.1-7.3-0.1-10.9-0.1c-1,0-2.1-0.1-3,0.3
		c-4.1,1.6-8.4,2.6-12.6,4.2c-3.7,1.5-7.8,1.7-11.8,1.5c-1.5-0.1-3.2-0.5-4.5-1.2c-2.9-1.5-5.7-0.7-8.5,0.3
		c-1.4,0.5-2.9,1.5-4.2,0.3c-1.4-1.3-1.7-3.2-1.3-5c0.2-0.8,0.5-1.7,0.9-2.5c0.8-1.8,1.7-3.6,2.6-5.3c1-1.9,2.4-3.4,4.7-4.1
		c2-0.6,4-1.5,6-2.1c0.9-0.3,1.3-0.8,1.7-1.5c0.8-1.5,1.7-3.1,2.7-4.5c1.7-2.4,3.8-4.3,6.7-4.9c0.2,0,0.3-0.1,0.5-0.1
		c4.6-2.3,9.6-2.7,14.6-2.8c4.6-0.2,9.2,0.3,13.8,0.3c3.2,0,6.2-0.4,8.9-2.5c3.7-2.9,7.6-5.5,11.3-8.3c1.5-1.1,2.9-2.2,4.3-3.4
		c3.5-3.2,7.6-5.5,11.9-7.2c4.5-1.8,8.9-0.8,12.9,1.9c1.1,0.7,2.1,1.7,2,3.3c0,0.4,0.3,0.9,0.5,1.3c0.7,1,1.4,2.1,2.2,3
		c1.7,1.9,3.3,4.1,5.4,5.3c2.1,1.2,4.8,1.2,7.3,1.8c0.4,0.1,0.9,0.3,1.1,0.1c1.7-0.8,3.3-0.1,4.9,0.1c3.6,0.3,7.3,0.7,10.9,0.7
		c4.7,0,9.5-0.2,14.2-0.5c6.6-0.4,13.2-1,19.8-2.4c4.1-0.8,8.3-1.3,12.4-2c3.9-0.7,7.7-1.7,11.6-2.5c6.9-1.4,13.8-2,20.8-1.3
		c3.2,0.3,6.1,1.4,9.2,2.8c0.5-0.8,0.3-1.6,0.2-2.5c-0.1-0.9-0.1-1.9,0.1-2.8c0.1-0.4,0.7-1,1.1-1c0.4,0,0.9,0.4,1.4,0.7
		c0.1,0,0.1,0.1,0.1,0.2c0.2,2.3,2.1,2.9,3.8,3.7c4.4,2.1,8.8,4.3,13.2,6.5c1.4,0.7,2.9,1.4,4.4,1.8c1,0.3,2.2,0.4,3.2,0.3
		c1.7-0.3,3.3-0.3,4.6,0.9c3.6-1.5,5.9,1,8.5,2.7c4-1.5,8.3-1.8,12.7-2.2c5.5-0.5,11.1-0.7,16.6-1c2.1-0.1,4.3-0.4,6.4-0.5
		c9.3-0.4,18.7-0.4,28-1.1c4.4-0.3,8.9-1.6,13.2-2.8c12.8-3.6,25.7-6.8,38.8-9.1c2.9-0.5,5.8-0.6,8.7-0.8c2.4-0.2,4.7-0.2,7.1-0.3
		c1.3,0,1.3,0,2.8,1c-1.3,0.3-2.4,0.6-3.4,0.6c-8,0-15.8,1.3-23.5,3.2c-9.8,2.4-19.6,4.9-29.4,7.5c-5.1,1.3-10.3,2.5-15.6,2.8
		c-6.2,0.3-12.3,0.9-18.5,1.4c-6.9,0.5-13.7,1-20.6,1.5c-5.3,0.4-10.6,0.8-15.9,1.2c-2.4,0.2-4.9,0.2-7.3,0.6
		c-1.6,0.2-3.2,0.8-4.6,1.2c-1,2.7,0.2,5.2-0.3,7.7c-1.1-1.2-0.9-2.8-1.2-4.2c-0.3-1.4-1.1-2.8-0.5-4.4c1-0.3,1.9-0.5,3.2-0.9
		c-1.3-0.6-2.2-1-3.2-1.5c-0.8,0.5-1.5,1-2.3,1.5c1,6.5,0.7,12.9-0.8,19.6c4.3,0.4,8.6,0.9,12.9,1.3c4.3,0.4,8.4,1.1,12.6,2.2
		c-0.8,0.9-1.7,0.7-2.5,0.6c-9.7-1.9-19.5-2.3-29.2-3.3c-5.5-0.5-11-1.1-16.5-1.8c-2.6-0.3-5.1-1-7.6-1.6c-0.1-1,0.5-1.1,1.2-0.9
		c9,2.2,18.2,2.1,27.3,3.3c0.1,0,0.3-0.1,0.5-0.1c0.8-1.3,0.9-2.8,0.8-4.3c-0.1-3.9-0.2-7.8-0.3-11.6c0-1.1,0.1-2.2,0.2-3.5
		c-0.3-0.6-0.8-1.3-1.2-2.1c-1.1,0.1-2.3,0.2-3.5,0.1c-2.3-0.1-4.3-1-6.3-2c-3.6-1.8-7.2-3.7-10.7-5.6c-1.7-0.9-3.5-1.8-5.4-2.7
		c-0.2,0.4-0.4,0.7-0.3,0.9c0.4,3.5-0.6,6.9-1.2,10.3c-0.8,4.8-1.9,9.5-2.7,14.2c-1.2,7.4-3.2,14.7-3.7,22.2
		c-0.1,1.6-0.7,3.2-0.9,4.9c-0.3,1.9-0.4,3.7-0.5,5.9c1.6-0.1,2.9-0.2,4.2-0.2c1.7,0,3.5,0,5.2,0.2c4.3,0.5,8.6,1.3,13,1.4
		c5.2,0.2,10.2,1.1,15,3.2c3.7,1.7,7.5,2.1,11.8,2.5c-0.9-2.9-0.6-5.7-0.2-8.8c3.5-4,10.7-2.9,14.7,2.6c1.4-1.9,3.5-1.9,5.5-2.2
		c3.9-0.6,7.7-0.3,11.4,1.2c3.2,1.3,6.4,2.2,9.5,3.8c0.6,0.3,1.3,0.4,1.7,0.8c1.6,1.5,3.6,1.3,5.4,0.8c2.6-0.8,5.2-1.9,7.7-3.1
		c4.9-2.5,9.7-5.4,14.7-7.7c3-1.4,6.3-2.1,9.5-3c1.3-0.4,2.7-0.7,4.1-1c1.7-0.5,3.4-0.6,5.1,0c3.7,1.3,6.9,3.3,9.1,6.8
		c3.5,5.4,5.5,11.4,7.8,17.3c0.6,1.5,1,3,1.6,4.5c0.4,1.1,1.1,1.7,2.3,1.7c0.1,0,0.2,0,0.2,0c5.8,0.1,11.6,0.5,17.3,0.2
		c4.2-0.2,8.4-1.2,12.6-2c6.6-1.2,13.2-2.4,19.8-3.8c6-1.3,12-2.9,18-4.3c1-0.2,2-0.3,3.2-0.5c-0.3-0.6-0.5-1.1-0.8-1.4
		c-1.4-1.6-2.8-3.3-4.3-4.7c-3.6-3.3-6.6-7.1-9.5-10.9c-5.9-7.6-11-15.7-14.9-24.5c-0.9-2.1-2-4.1-3.1-6.2c-1.2,0.3-2.3,0.6-3.4,1
		c-0.1,0.4,0,1-0.3,1.2c-0.4,0.3-1,0.5-1.5,0.6c-1.4,0.2-2.8,0.2-4.3,0.4c-0.9,0.1-1.7,0.3-2.5,0.6c-1,0.4-2,0.6-2.9-0.5
		c2.3-0.6,4.7-1.2,7.1-2c2.3-0.8,4.5-1.8,7-2.9c-5.2-10-8.1-20.6-11.1-31.3c-0.4,1.4-0.8,2.8-1.2,4.1c1.8,3.1,2.8,6.4,3.9,9.8
		c-0.2,0.1-0.3,0.1-0.5,0.2c-1.3-2.4-2.5-4.7-3.8-7.1c-0.9-1.7-0.9-1.8-2.9-2.1c0.2-0.5,0.3-1,0.5-1.5c0.4-1.1,0.8-2.2,1.3-3.3
		c0.5-1,0.9-2.1,1.7-2.7c0.8-0.7,1.1-1.5,1.1-2.5c0.7-7.5,2.6-14.7,6.3-21.2c4.3-7.7,9.6-14.7,17.5-18.9c3.9-2.1,7.5-4.6,10.9-7.4
		c4.9-4.1,10.8-6.5,16.8-8.7c0.6-0.2,1.2-0.4,1.8-0.5c2.3-0.4,4.6-0.9,6.8-1.8c1.3-0.5,2.8-0.6,4.2-0.6c3.8,0.1,7.6,0.4,11.4,0.6
		c7.5,0.5,15,0.8,22.5,0.6c6.6-0.2,13.1,0.1,19.7,0.1c1.5,0,3-0.2,4.8-0.4c0.6,0.7,1.7,0.6,2.9,0.2c7.8-2.7,15.6-5.3,23.4-8
		c6.5-2.2,13-4.2,19.4-6.4c2.1-0.7,4.1-1.7,6-2.9c7.7-4.8,16.1-7.7,25-9.1c3.3-0.5,6.6-0.8,9.9-0.5c0.5,0,1.1,0.1,1.6-0.1
		c3.2-0.8,6.4-0.9,9.7-0.9c5-0.1,10-0.2,15-0.3c0.5-1.6,1.6-1.8,2.9-2c2.5-0.4,5.1-0.8,7.3-2c5.5-2.9,11.4-3.8,17.4-4
		c4.5-0.2,9-0.2,13.3,1.6c1.4-1.6,2.7-3.1,4.1-4.6c-0.3-2.5-0.4-4.9,1-7.2c0.2-0.3,0-0.9-0.1-1.4c-1.5-8.2-1.5-16.5-0.8-24.9
		c0.4-5.4,0.6-10.7,1.1-16.1c0.8-8.4,1.1-16.7,1.1-25.1c0-2,0.5-4.1,0.7-6.1c0.3-2.9,0.7-5.8,0.9-8.7c0.2-2.8,0.4-5.5,0.6-8.3
		c0-0.3,0-0.6,0.1-0.9c1.6-4.1,1.7-8.5,2.5-12.7c1.5-8.6,4.1-16.9,6.6-25.2c1.7-5.5,2.9-11,3.6-16.7c0.2-1.7,0.8-3.4,1.2-5.1
		c1.2-5.2,1.3-10.3,0.4-15.5c-0.5-3.1-2.1-5.5-3.4-8.2c-0.2-0.3-0.5-0.8-0.8-0.9c-1.5-0.4-2.1-1.7-2.9-2.7c-2.1-2.5-4.2-5-6.3-7.4
		c-0.3-0.3-0.6-0.6-0.7-0.9c-1.4-3-4.2-4.5-6.7-6.4c-0.6-0.5-1.2-1-1.7-1.6c-1.5-1.6-3-3.3-4.4-4.9c-1.3-1.5-1.1-2.7,0.7-3.5
		c1.7-0.8,3.6-0.8,5.3-0.3c1.5,0.5,3.1,0.9,4.4,1.7c1.5,1.1,2.7,2.6,4,4c1.2,1.2,2.2,2.5,3.6,3.4c1.1,0.7,2.5,0.9,3.8,1.1
		c1.1,0.2,2.2-0.8,2.4-2.1c0.4-2,0.6-4.1,0.9-6.1c0.5-3.5,1.2-7,1.7-10.5c0.3-2,0.5-4.1,0.8-6.1c0.3-2.3,0.6-4.7,1.1-7
		c0.2-1.2,0.9-2.2,1.4-3.4c2.8-0.7,3.7-0.1,3.7,2.6c0,2.9,0,5.8,0.1,8.8c0.1,2.8,0.5,5.7,0.8,8.5c0.1,0.7,0.2,1.4,0.2,2.1
		c0,0.4-0.4,1-0.7,1c-0.3,0-0.9-0.3-1.1-0.6c-0.3-0.4-0.3-0.9-0.4-1.3c-0.3-3.1-0.5-6.3-0.8-9.4c-0.2-1.8-0.4-3.6-0.5-5.4
		c0-0.9,0.1-1.9,0.2-2.8c0.1-0.6,0.3-1.3-0.4-1.6c-0.2,0.1-0.4,0.1-0.5,0.2c-0.8,4.1-1.4,8.2-1.8,12.4c-0.4,4.2-1.2,8.4-1.8,12.7
		c0,0.2-0.1,0.5-0.1,0.7c-0.5,3.2-0.8,6.6-2.8,9.6c0.1-0.1,0.1,0,0,0c-2-0.2-4-0.3-5.9-0.8c-2-0.5-3.5-1.7-4.7-3.4
		c-0.8-1.2-1.9-2.3-2.8-3.5c-1.9-2.3-6.3-4.1-9.4-1.5c2.3,2.1,4.6,4.2,6.8,6.4c2,2,3.9,4.1,5.8,6.3c1.3,1.5,2.3,3.2,4.2,4.1
		c0.3,0.1,0.6,0.5,0.8,0.9c1.4,2.9,3.8,5.1,5.7,7.5c0.7,0.9,1.4,1.9,1.9,2.9c0.9,2.1,1.5,4.2,2.3,6.7c0-1-0.1-1.8,0-2.4
		c0.1-0.4,0.5-1.1,0.9-1.1c0.8-0.2,1.1,0.5,1,1.2c-0.1,1.6-0.3,3.1-0.5,5c-0.6-0.4-0.9-0.7-1.4-1c0,1.1,0,2.2,0,3.2
		c0.1,6-0.8,12-1.9,17.9c-0.9,4.7-1.5,9.5-2.5,14.2c-1,4.4-2.3,8.7-3.4,13.1c-1.6,6.2-3.3,12.4-4.7,18.6c-0.5,2.3-0.4,4.7-0.6,7.1
		c-0.2,3.3-0.4,6.6-0.7,10c-0.2,2.2-0.4,4.4-0.6,6.6c-0.2,2.7-0.6,5.4-0.6,8c0,8.6-0.6,17.2-1.4,25.8c-1.1,11.4-2.1,22.9-1.7,34.4
		c0.1,3.1,0.3,6.2,0.5,9.2c0,0.4,0.1,0.8,0.2,1.1c0.7,1.8-0.1,3.2-1.4,4.4c-1.1,1.1-2.3,2.2-3.5,3.3c2.8,1.5,5.5,2.8,8.2,4.2
		c3.6-2.8,4.9-7.5,8.2-10.8c0.1-2.7,2.1-4.8,3.3-7.4c0.1,3-0.7,5.5-2.8,7.8c0.5,1.5-0.1,2.8-0.8,4.2c-0.3,0.6-0.6,1.2-0.7,1.8
		c-0.3,3.1-2.3,5.1-4.3,7.1c0.1,0.1,0.1,0.3,0.2,0.4c5.5,5,11,10,17.5,13.9c2.1,1.2,4,2.8,5.8,4.5c3.2,3,7.2,4.2,11.3,5.6
		c0.4-0.8,0.8-1.5,1-2.2c1.1-3.7,2.2-7.4,3.2-11.2c0.3-1.1,0.1-2.4,0.2-3.5c0.1-1.9,0.4-3.8,0.5-5.7c0.3-6.7-1.1-13.2-2.9-19.6
		c-1.1-4-2.3-7.9-3.5-11.8c-0.5-1.5-1.2-2.9-1.8-4.4c-2.8-7-4-14.3-4.1-21.7c-0.1-4.7,0.2-9.5,0.4-14.2c0-1.3,0.2-2.5,0.1-3.8
		c-0.6-5.4,0.4-10.7,0.7-16.1c0.1-1.3,0.1-2.7,0.3-4c0.1-1.3,0.3-2.7,0.5-4c0.6-3.5,1.2-7,1.8-10.5c0.2-1,0.4-2,0.4-3.1
		c0.1-2.4,0.3-4.7,0.2-7.1c-0.2-3.6-0.6-7.1-1-10.6c-0.1-0.7-0.1-1.5-0.5-2.1c-1.6-2.4-1.9-5.2-2.2-7.9c-0.9-6.8-0.5-13.6,0.2-20.4
		c0.5-4.4,0.8-8.8,1.2-13.2c0.4-4.3,0.8-8.7,1.2-13c0.1-1.3,0.2-2.7,0.1-4c0-1.4,0.3-2.5,1.4-3.3c0.3-0.2,0.5-0.6,0.7-0.9
		c1.2-2.4,2.5-4.8,3.6-7.2c1-2.1,1.9-4.3,2.3-6.7c0.9-5,2.3-9.8,4.5-14.5c0.7-1.5,1.1-3.1,1.6-4.7c0.1-0.5,0-1-0.5-1.7
		c-0.6,0.9-1.1,1.8-1.7,2.7c-1.7,2.8-3.4,5.7-5.2,8.5c-0.5,0.7-1.1,1.3-1.8,1.9c-0.6,0.6-1.3,0.9-2.1,0.5c-0.2-0.8-0.4-1.6-0.5-2.3
		c0-0.5,0.1-1.1,0.3-1.6c0.9-2.5,1.8-5.1,2.7-7.6c1.6-4.3,1.4-8.9,1.4-13.4c0-0.5-0.4-1-0.7-1.6c-0.2,0-0.3,0.1-0.5,0.1
		c-0.2,1.7-0.4,3.3-0.7,5c-0.1,0.8,0,1.6-0.3,2.3c-1.4,4.3-2.9,8.5-5.4,12.3c-1.1,1.7-2.1,1.6-3.2-0.2c1.6,0.2,2.1-0.8,2.5-1.9
		c1.3-3.1,2.6-6.2,3.9-9.4c0.3-0.7,0.4-1.5,0.5-2.3c0.2-1.9,0.4-3.8,0.6-5.6c0.1-0.9,0.3-1.8,1.3-2.1c1.1-0.3,2.3-0.4,3,0.6
		c0.5,0.7,1.1,1.5,1.1,2.3c0,3.3,0.1,6.6-0.3,9.9c-0.3,2.3-1.3,4.5-2,6.8c-0.3,1-0.5,2-0.8,3c-0.1,0.2-0.2,0.3-0.1,0.1
		c0,0.2,0,0,0-0.2c0.4-0.5,1-1,1.3-1.5c1-1.8,2-3.6,2.9-5.4c1-2.1,2.6-3.3,5-3.9c1.4,1.3,1.3,3.2,1.2,4.9c-0.1,1.2-0.6,2.5-1.1,3.6
		c-2.4,4.7-3.7,9.8-4.7,14.9c-0.8,4-2.4,7.5-4.2,11c-0.4,0.8-0.8,1.5-1.2,2.3c-1.5,2.7-2.4,5.5-2.5,8.7c-0.3,6.9-1.2,13.9-1.6,20.8
		c-0.4,7.8-0.5,15.7-0.7,23.5c0,1.1,0.2,2.2,0.7,3.2c1.7,3.9,2.6,8,2.7,12.2c0.1,4,0.3,8.1,0.4,12.1c0,0.7,0.1,1.4-0.1,2.1
		c-0.8,4.7-1.7,9.5-2.6,14.2c-0.3,1.9-0.7,3.7-0.8,5.6c-0.4,5.8-1.1,11.7-1.1,17.5c0,8.1,0.3,16.1,0.9,24.2c0.3,4.3,1.3,8.6,2,12.9
		c0.1,0.7,0.4,1.4,0.7,2c4.1,7.2,6.1,15.1,8,23c1.5,6.4,2.3,13,1.1,19.6c-0.8,4.6-2.3,9-3.6,13.5c-0.9,3-1.4,7.7-1,10.6
		c4.1,2.4,8,4.8,12,6.9c1.4,0.8,3.1,1.1,4.7,1.3c7.7,1.3,7.7,1.3,15.2,0c0.5-0.1,1.1-0.3,1.7-0.4c0.1-0.5,0.2-1.1,0.4-1.5
		c0.3-0.4,0.8-0.7,1.3-1c0.2-2.4,0.5-4.8,0.5-7.3c0.1-3.4,0-6.8,0.1-10.2c0.1-2.2,0.5-4.3,2.3-6c2.3-2.2,5-2.3,7.6-1.4
		c2.1,0.7,3.7,1,5.4-0.7c0.7-0.8,1.8-1,2.9-0.5c1.1,0.5,2.2,0.9,3.4,1.4c0.8-0.9,1.6-1.9,2.5-2.9c2.1,0.4,4,0.8,5.9,1.1
		c2.3,0.4,2.9,0.1,3.8-2.1c0.2-0.6,0.5-1.2,0.8-1.7c1.6-2.6,3.9-3.1,6.4-1.3c2,1.4,3.8,3.1,5.9,4.4c3,1.9,6.1,3.6,9.3,5.1
		c2,0.9,4.2,0.7,6.3,0.3c2-0.4,4-0.4,6.1-0.1c2.6,0.4,5.4,0.3,8,0.7c4.1,0.6,8.1,1.5,12.1,2.3c1.6,0.3,3.2,0.9,4.7,1.5
		c3.5,1.4,5.8,4.3,8.3,6.9c1.1,1.2,2,2.6,3,4c2.3,3.2,2.9,7,3.9,10.6c1.9,7.3,2.6,14.8,2.6,22.3c0,7.1-1.5,13.8-4.2,20.3
		c-0.8,1.9-1.9,3.7-2.8,5.5c-0.7,1.5-1.8,2.8-1.8,4.6c0,0.5-0.4,1-0.7,1.5c-0.7,1.2-1.4,2.3-2.2,3.7c1.9,0.7,3.7,1.2,5.4,1.9
		C886.8,370.7,888.3,371.8,889.9,372.6L889.9,372.6z M479.1,516.3c1-0.4,1.8,0,2.7,0.5c1.5,0.8,3,1.5,4.5,2c2.2,0.8,4.5,1.4,6.8,2
		c3.1,0.9,6.2,1.8,9.5,2c3.6,0.3,7,1.4,9.8,3.8c0.7,0.6,1.3,0.9,2.3,0.6c0.3-0.9,0.6-1.9,1-3.1c-0.9-0.7-1.8-1.3-2.7-1.9
		c-0.6-0.4-1.2-0.8-1.7-1.3c-2.4-2.4-5.2-4.1-8.2-5.6c-2.2-1.1-4.3-2.3-6.5-3.4c-1.9-1-2.4-2.6-2.2-4.6c0.1-0.8,0.1-1.5,0.1-2.3
		c0-1.8,1-2.7,2.8-2.6c3.3,0.3,6.6,1.1,9.6,2.6c0.5,0.3,1,0.4,1.5,0.6c2,0.8,3.9,1.6,5.9,2.4c0.9,0.4,1.7,0.9,2.6,1.4
		c0.1-0.1,0.2-0.3,0.4-0.4c-1.1-1.6-2.2-3.1-3.3-4.8c-0.7-1.1-1.6-2.2-2-3.5c-0.4-1.2-1.1-2-2-2.8c-5.6-5-11.9-9.1-18.3-13.1
		c-1-0.6-2.1-1.1-3.3-1.4c-5.9-1.4-11.7-2.6-17.8-2.6c-3.2,0-6.3-0.2-9.4-1.1c-1-0.3-1.9-0.6-2.9-0.9c-3.8-0.9-7.8-1.3-11.5-2.8
		c-2.3-0.9-4.8-1.7-7.2-2.4c-6-1.5-11.9-3.2-17.6-5.7c-6.1-2.7-12.6-4.1-19.1-5.5c-3.2-0.7-6.4-1.6-9.6-2.6
		c-3.5-1.1-6.3-3.3-8.2-6.5c-0.4-0.7-0.9-1.3-1.2-1.8c-1.6-0.2-3-0.5-4.4-0.6c-1.4-0.1-2.8,0.1-4.1,0.2c2.3-1.7,5.2-1.3,8-1.9
		c-0.5-1-0.8-1.9-1.2-2.7l0.1,0.1c-0.8-3.1-1.6-6.3-2.3-9.4c0-0.2-0.1-0.3-0.2-0.4c-1.8-2.9-3.4-5.9-5.6-8.5
		c-3.1-3.6-6.7-5.6-11.6-4.8c-2.1,0.4-4.2,1-6.1,1.9c-6.9,3.3-13.7,6.6-20.5,10c-4.2,2.1-8.5,3.1-13.3,2.3c-7-1.1-14-1.2-21-0.1
		c-1.8,0.3-3.7,0.3-5.6,0.4c-0.2,0-0.4-0.2-1-0.5c1.6-0.6,2.8-1,4.1-1.5c0.9-0.4,1.9-1,2.8-1.1c2.9-0.4,5.8-0.7,8.7-0.8
		c1.1,0,2.4,0.4,3.4,0.9c1.1,0.6,2.1,0.4,3.2,0.1c-1-0.7-2.1-1.2-3.2-1.5c-4.3-1-8.7-1.7-13.1-2.1c-2.2-0.2-4.2,0.4-6.4,1.3
		c2,1.6,2,1.6,2.3,2.8c-0.1,0-0.2,0.1-0.2,0c-0.4-0.2-0.8-0.4-1.3-0.6c-2.5-1.2-5-0.5-6.6,1.7c-0.4,0.6-1,1.1-1.6,1.7
		c-0.4-0.4-0.8-0.7-0.7-0.9c0.3-1.2,0.6-2.3,0.9-3.5c-1.7-1-3-1.3-4.7-1c-1.5,0.2-2.1,0.8-1.9,2.2c0.4,2.8,1.3,5.3,4.3,6.5
		c5.6,2.4,11,5.1,15.9,8.8c3.5,2.7,7.3,4.8,10.9,7.5c5,3.8,10.4,6.9,16.3,9.2c2.9,1.1,5.9,2.3,8.8,3.5c3.7,1.6,7.5,3,11.1,4.9
		c7.5,4,14.9,8.2,23.1,10.9c5.8,1.9,11.4,4.2,17.1,6.3c1.4,0.5,3.2,0.5,3.9,2.2c0.1,0.2,0.5,0.3,0.8,0.4c3,1.6,6,3.1,9.1,4.7
		c5.5,2.8,10.9,5.9,16.6,8.3c7,3,13.5,6.7,19.9,10.6c5.9,3.7,11.6,7.7,17.4,11.5c2.3,1.5,4.5,3.2,6.9,4.6c3.1,1.8,6.4,3.5,9.6,5.2
		c4.1,2.2,8.2,4.4,12.3,6.6c1.3,0.7,2.5,1.4,3.8,2c4.3,1.9,8.5,3.8,12.8,5.7c0.8,0.3,1.6,0.6,2.6,1c0.8-1.9,1.5-3.6,2.2-5.3
		c-0.9-0.5-1.6-0.9-2.2-1.4c-0.7-0.5-1-1.3-0.6-2.1c0.9-1.9,2.1-3.6,4.3-4.1c0.7-0.2,1.4-0.3,2-0.4c0.2-1.3,0.5-2.4,0.7-3.6
		c-0.7-0.4-1.5-0.8-2.2-1.2c-0.9-0.5-1.9-1-2.5-1.7c-1.4-1.7-3.2-2.6-5.2-3.2c-2.3-0.8-4.6-1.7-6.5-3.2c-0.4-0.3-1-0.5-1.5-0.6
		c-1.1-0.3-1.6-1.1-1.6-2.1c0.1-1.1,0.5-2.2,0.8-3.5c0,0-0.2-0.2-0.4-0.3c-3.5-0.9-6.5-2.9-9.5-4.8
		C480.5,518.2,479.4,517.6,479.1,516.3L479.1,516.3z M877,294.3c-0.1-1.1-0.5-2-1.5-2.6c-0.2,0.1-0.3,0.2-0.5,0.4
		C875.7,292.8,876.4,293.5,877,294.3c0.4,0.9,0.7,1.9,1.1,2.8c1.4,2.7,3,5.4,4.3,8.2c1.2,2.4,1.9,4.9,1.9,7.9
		c-0.4-0.5-0.7-0.7-0.8-0.9c-0.3-0.5-0.6-1.1-0.9-1.7c-2.7-5.9-4.9-12-8.6-17.5c-1.5-2.3-3.4-4-6-4.7c-4.6-1.1-9.2-2.3-13.9-2.9
		c-3.7-0.5-7.6-0.9-11.3,0.3c-2.6,0.8-5,0.3-7.4-0.7c-0.8-0.3-1.6-0.7-2.3-1.2c-2.8-1.7-5.7-3.4-8.5-5.2c-1.6-1-3-2.3-4.6-3.4
		c-1.5-1-2.8-0.6-3.9,0.8c-0.7,1-1.2,2-1.8,3c-1.3,2-2.3,2.4-4.6,1.9c-1.6-0.4-3.2-0.8-4.9-1.2c-1,1.2-1.9,2.4-2,4
		c-0.1,2.4-0.3,4.9-0.5,7.3c0,0.5-0.3,1-0.5,1.5c-1.8-0.7-2.1-1.2-1.7-2.6c0.6-2.4,1.1-4.7,1.6-6.9c-2-1.8-3.7-2.4-5.9-0.7
		c-1.1,0.9-2.8,1-4.3,0.6c-1.5-0.4-3.1-0.8-4.7-0.9c-3.1-0.2-5,1.8-5,4.9c0,1.3,0,2.5,0.1,3.8c0,1.4-0.1,2.9,0.2,4.2
		c0.8,3.2,0.4,6.4,0.6,9.6c0,0.7-0.5,1.5-0.9,2.2c-0.2,0.4-0.7,0.7-0.8,1.1c-0.7,2.3-2.5,2.9-4.5,3.2c-1.2,0.2-2.7,0-3.7,0.6
		c-2.3,1.3-4.6,0.8-6.9,0.5c-1.3-0.2-2.7-0.6-4-0.6c-2.8,0.1-5.3-0.9-7.6-2.2c-2.8-1.6-5.5-3.4-8.3-5.1c-0.7-0.4-1.2-1-2.1-0.6
		c-0.9,0.4-1.5-0.2-1.9-1c-0.3-0.5-0.5-1.1-0.7-1.7c-0.3-0.1-0.6-0.2-0.9-0.3c-4-0.9-7.9-0.4-11.8,0.5c-7.9,1.8-14.1,6-17.7,13.5
		c-2.2,4.6-3.1,9.4-3.3,14.5c0,1.1,0.3,1.9,1.5,2.3c0.9-0.4,1.8-0.8,3.2-1.5c-0.7,1.3-1.2,2.2-1.6,3c1.3,2,2.5,3.8,3.7,5.7
		c-0.1,0-0.1,0.1-0.2,0.1c-2-1.6-4-3.2-6.1-4.8c-0.1,0.4-0.3,0.7-0.3,0.9c0.3,2.8,0.5,5.5,0.9,8.3c0.1,0.5,0.4,1,0.7,1.5
		c0.6,1.2,1.4,2.3,1.8,3.5c4.5,13.7,13.5,23.8,25.6,31.3c3.6,2.3,7.5,4,11.8,4.7c3.2,0.5,6.3,0.2,9.4-0.6c0.2-1.6,0.2-3.2,0.5-4.6
		c0.3-1.5,0.9-2.8,1.4-4.3c0.1-0.4,0.2-0.9,0.3-1.4c1.4-7.2,6.4-12.1,13.6-13.5c0.7-0.1,1.4-0.3,2.1-0.5c4.1-1.5,8.3-1.8,12.6-1.3
		c2.2,0.3,4.4,0.7,6.6,0.7c2.5,0,4.7,0.5,6.8,1.6c0.6,0.3,1.4,0.7,1.9,0.6c1-0.2,1.5,0.3,2.1,0.8c0.6,0.5,1,1.4,2.2,1.4
		c-0.2-0.9-0.3-1.6-0.4-2.4c-0.1-0.8-0.6-1.6,0.2-2.7c0.7,2.1,1.4,3.8,1.9,5.5c0.5,1.7,1.9,2.5,3.3,3.4c-1.1-3.6-2.2-7.1-2.3-10.9
		c0.5,0.4,0.8,0.9,0.9,1.5c0.3,1.3,0.5,2.6,0.7,4c0.2,0.9,0.6,1.5,1.5,1.5l-0.1-0.1c0.5,2,1,4,1.4,6c0.6,3,3,4.2,5.3,5.7
		c0.5-0.8,0.8-1.5,1.4-2.6c0.2,1.1,0.2,1.8,0.4,2.3c0.2,0.5,0.4,1.1,0.8,1.3c1.3,0.6,2.6,0.9,3.9,1.4c1.3-2.2-0.3-4.3,0.2-6.5
		c1.3,0.1,1.9,0.7,2.1,1.7c0.3,1.4,0.6,2.8,0.9,4.2c0.1,0.4,0.3,0.7,0.7,1.4c0.5-2.5,1.1-4.5,1.4-6.5c0.3-2.1,0.3-4.2,1.2-6.1
		c0.1,2.1,0,4.2-0.1,6.3c-0.1,1.2-0.1,2.4-0.8,3.6c-1,1.7,0.1,3.5,2.1,3.8c0.5,0.1,1.1-0.1,1.6-0.1c1.4,0,2.8,0,4.2,0.2
		c1.1,0.1,2.1,0.4,3.4,0.7c1-4,2.1-7.8,3-11.7c1-4.5,1.9-9,2.8-13.5c0.5-2.3,0.4-4.6-0.3-7.1c1.1,0.3,1.3,1.1,1.3,1.7
		c0.1,1.6,0.3,3.2,0.2,4.7c-0.1,4.4-0.9,8.8-2,13.1c-1.2,4.3-1.7,8.8-4.2,13c2.2,0,4.2,0,6.3,0c-0.4,0.7-0.7,1.2-1,1.8
		c1.2,0.2,2.1,0.1,2.5-0.7c0.4-0.8,0.9-1,1.6-1.2c1.1-0.4,2.2-0.8,3.3-1.4c0.7-0.4,1.5-1,1.8-1.7c1-2.3,1.8-4.7,2.6-7.1
		c1-2.9,2.2-5.8,2.3-8.9c0-0.2,0.3-0.3,0.7-0.8c0.2,2-0.3,3.6-0.6,5.2c-0.3,1.6-0.8,3.2-1.3,4.8c-0.5,1.5-1.6,2.8-1.7,4.7
		c1.3-0.4,1.9-1.4,2.3-2.4c1.5-3.7,3.1-7.3,4.5-11c1-2.6,2.2-5.1,2.4-7.9c0-0.1,0.3-0.1,0.6-0.2c0.3,3.2-0.8,6.1-1.8,9
		c-1,2.9-2.2,5.7-3.3,8.6c3.5-0.3,3.9-0.6,4.6-3.4c0.1-0.3,0.1-0.6,0.2-0.9c1-6.4,2.9-12.6,4.7-18.9c0.1-0.5,0.4-0.9,0.6-1.4
		c0.3,0.5,0.3,1,0.2,1.5c-0.6,2.9-1.3,5.7-1.9,8.6c-0.9,3.7-1.8,7.4-2.6,11.1c-0.2,0.7-0.6,1.5,0.5,2.4c0.8-1.2,1.8-2.3,2.1-3.5
		c0.9-3.4,1.4-6.8,2.1-10.2c0.3-1.5,0.6-2.9,1-4.3c0.1,0,0.2,0.1,0.4,0.1c0.1,1,0.2,2.1,0.2,3.1c0.1,0,0.3,0,0.4,0
		c0.7-3.6,1.3-7.3,2-10.9c0.3,0.4,0.3,0.8,0.3,1.1c-0.1,3.7-0.7,7.2-1.7,10.7c-0.9,3.2-1.9,6.4-2.8,9.6c-0.1,0.4,0,0.8,0,1.5
		c1.3-1,1.8-2,2.1-3.2c1-3.7,2.2-7.3,3.3-10.9c0.5-1.6,1.1-3.1,1.6-4.7c0.3,1.1,0.3,2.1,0.1,3.1c-0.7,2.6-1.4,5.2-2.2,7.8
		c-0.2,0.7-0.3,1.4-0.4,2.1c0.6-0.2,0.8-0.6,1-0.9c1.2-3.1,2.4-6.2,3.6-9.3c0.7-1.9,1.5-3.8,2.1-5.8c1.7-5.3,1.9-10.9,2.3-16.4
		c0.2-3.2-0.2-6.3-1-9.4c-0.8-3-1.2-6.2-2-9.2c-0.4-1.6-0.6-3.4-2.2-4.5c-0.7-0.5-1-1.6-1.5-2.4c-1.6-2.7-3.3-5.4-4.9-8.1
		C878,294.8,877.4,294.6,877,294.3z M516.8,334.6c-0.5-0.5-1-1.1-1.5-1.5c-6.1-4.7-12.9-8.2-19.9-11.4c-2.4-1.1-4.6-0.3-6.7,2.1
		c0.5,0.1,0.9,0.3,1.3,0.3c4.8,0.9,9.4,2,13.8,4.2c3.3,1.6,6.5,3.3,9.7,4.9C514.6,333.9,515.8,334.2,516.8,334.6
		c0,1.1-0.8,1.2-1.6,0.9c-1.3-0.5-2.5-1-3.7-1.7c-7.6-4.3-15.9-6.8-24.1-9.8c1.1-1.3,2.2-2.6,3.5-4c-3.9-1.1-7.5-2.2-11.6-3.4
		c0.9-0.2,1.4-0.3,1.8-0.3c4-0.1,8.1,0.1,12,1.3c0.8,0.2,1.6,0.7,2.7,0.1c-1-0.6-1.7-1.2-2.5-1.6c-1.1-0.5-2.4-0.9-3.5-1.4
		c-2.8-1.4-5.5-3.2-8.4-4.3c-4.2-1.7-8.6-3.2-12.9-4.6c-0.9-0.3-2-0.1-3.1-0.2c-1.2-0.1-2.4-0.3-4.1-0.5c-1.2,0.7-2.9,1.4-4.4,2.4
		c-3,1.9-5.9,3.9-8.9,5.9c-1.2,0.8-2.4,1.5-3.6,2.2c-2.8,1.8-5.8,3.3-8.2,5.5c-4.9,4.4-8.2,10-11.2,15.8c-2.5,4.8-4,10-5.4,15.2
		c-2,7-1.7,14.1,1.7,20.8c0.2,0.4,0.4,0.9,0.5,1.3c0.4,1.4,0.5,3,2,3.8c0.3,0.2,0.4,0.8,0.6,1.2c6.2,13.3,12.1,26.7,20.3,38.9
		c2.1,3.2,4.4,6.4,6.7,9.5c0.5,0.6,1.1,1.2,1.7,1.6c2.1,1.2,3.9,2.8,5.4,4.6c3.3,3.9,6.7,7.8,9.8,11.9c7.8,10.2,15.4,20.5,23.1,30.8
		c0.6,0.8,1.4,1.5,2.2,2.1c3.4,2.9,7,5.5,9.8,9c1.9,2.4,4.1,4.4,6.2,6.5c0.7,0.7,1.2,1.3,1.3,2.4c0.2,1,0.8,2.4,1.5,2.7
		c1.2,0.4,1.7,1.2,2.4,2.1c1.8,2.5,3.6,5,5.5,7.5c0.8,1,1.8,2,2.9,2.8c1.6,1.2,3.4,2.2,5.4,2.9c4.5,1.6,7.9,4.9,11.7,7.6
		c0.5,0.4,1,0.9,0.5,1.6c-0.5,0.7-1.1,0.5-1.7,0.1c-0.1-0.1-0.3-0.2-0.4-0.2c-1.2-0.7-2.2-2-4-1.5c-0.2,0.1-0.6-0.2-0.8-0.4
		c-2.5-2.1-5.4-3.3-8.4-4.3c-0.4-0.1-0.7-0.4-1-0.6c0.1-0.5,0.2-1,0.3-1.6c-0.7-0.3-1.4-1-2.2-1c-1.6,0-2.9-0.7-4.2-1.4
		c-2.2-1.2-4.4-2.5-6.6-3.8c-4-2.4-8.4-3-13-3c-1.2,0-1.6,0.8-2,1.8c-0.4,1.1,0.4,1.6,1.2,2c1,0.5,1.9,1.1,2.9,1.5
		c6.9,3.4,13.3,7.4,18.4,13.2c1.1,1.3,2.5,2.5,4,3.3c3.9,2.1,7.9,4,11.8,6c0.3,0.1,0.6,0.3,0.8,0.5c0.2,0.3,0.5,0.8,0.4,1
		c-0.2,0.3-0.8,0.7-1.1,0.6c-0.8-0.1-1.7-0.5-2.5-0.8c-3.3-1.2-6.7-2.5-10-3.7c-2.8-1-5.6-1.9-8.5-2.9c-1.5-0.5-3.1-0.8-4.5-1.4
		c-4.3-1.9-8.8-2.4-13.4-2.7c-2.2-0.1-3.3,1.3-3,3.7c1.1,0.4,2.3,0.8,3.5,1.3c3.1,1.1,6.2,2.3,9,4.1c2.3,1.5,4.7,2.8,7.1,4.2
		c1,0.6,2.1,1.1,3.2,1.6c1.5,0.6,2.9,1.2,4.4,1.6c4.9,1.3,9.8,2.5,14.7,3.8c1.7,0.4,2.7,1.5,2.7,3.6c-1,0.1-1.8,0.3-2.7,0.3
		c-2.1,0-4.1,0-6.2-0.1c-0.8,0-1.6,0-2.4-0.1c-1.9-0.4-3.7-0.9-5.5-1.2c-3.9-0.7-7.8-1.2-11.7-1.8c-1.6-0.2-2.9,0.9-3.8,3.1
		c1.5,0.3,2.9,0.5,4.4,0.8c0.8,0.1,1.8,0,2.5,0.4c3.7,1.6,7.4,3.3,11.1,4.9c1,0.4,2.1,0.8,3.1,0.9c1.9,0.1,3.8-0.1,5.7-0.1
		c3.3,0,6.6,0.1,10,0.1c3,0,6,0.2,8.9,0.9c1.8,0.4,3.6,0.6,5.4,0.6c5.6,0.1,11.2-0.5,16.8-0.9c4-0.3,8.1-0.2,12.1-0.9
		c3.2-0.5,6.5,0,9.6,1.2c0.9,0.3,1.8,0.4,2.7,0c3.9-1.7,8.1-2.7,12.3-3.5c4.3-0.8,8.7-1.6,13-2.5c5.1-1.1,10.2-2.3,15.3-3.3
		c6.8-1.2,13.3-3,19.2-6.6c0.6-0.4,1.2-0.8,1.9-0.9c2.8-0.6,4.7-2.5,6.6-4.4c1.8-1.7,3.5-3.5,5.1-5.3c2.8-2.9,5.5-5.9,8.3-8.8
		c1-1,1.9-2.1,2.7-3.3c3-4.5,6.2-8.8,10.4-12.2c1.8-1.5,3.6-3.2,5.2-4.9c7.8-8.4,15.9-16.6,22.4-26.1c1.2-1.8,2.7-3.5,4.1-5.3
		c0.9-1.2,2.2-2,2.5-3.7c0-0.3,0.5-0.5,0.8-0.8c4.5-3.6,8.8-7.5,13.5-10.8c7.5-5.2,11.9-12.7,14.9-20.9c2.4-6.4,3.3-13.2,3.6-20
		c0.2-4.3,0.1-8.7,0-13.1c0-0.8-0.1-1.7-0.2-2.7c-3.8,0-7.3,0-10.9,0c-0.4,0-0.9-0.1-1.2,0.1c-1.2,0.7-2.4,0.5-3.7,0.5
		c-8.3-0.4-16.4,0.6-24.4,2.9c-9.7,2.8-19.4,5.8-28.4,10.7c-1.7,0.9-3.2,2.1-4.9,2.9c-1.6,0.8-2.5,2-3.6,3.5
		c0.5,0.3,0.8,0.5,1.1,0.7c4.2,2,8.4,3.7,12.9,4.7c3,0.7,5.4,2.2,7.7,4.1c0.4,0.4,0.8,1.3,0.7,1.8c-0.2,0.8-1,1.2-1.9,0.8
		c-0.7-0.3-1.1,0-1.2,0.7c-0.4,0-0.8,0-1.2,0c-0.2-0.6-0.3-1.1-0.5-1.6c-0.4-1.3-1.3-2-2.5-2.3c-4.4-0.8-8.5-2.4-12.6-4.1
		c-7.3-3-14.7-5.9-21.9-9.1c-15.5-6.9-31.9-9.4-48.5-11.4c-5.6-0.7-11.4-0.6-17.1-0.5c-5.4,0.1-10.9,0.6-15.9,3.1
		c-5.2,2.6-10.6,5-15.8,7.5c-1,0.5-2,1-3,1.4c-1.1,0.4-2.2,0.5-3.5-0.1c0.9-0.9,1.6-1.8,2.5-2.5c1.1-0.8,2.2-1.5,3.4-2.2
		c1.8-1.1,3.7-2.1,5.6-3.1c2.1-1.1,4.1-2.5,6.3-3.4c1.9-0.8,3.1-1.9,4-3.7c1.9-3.6,3.9-7.3,6.1-10.7c2.4-3.7,5.3-7.1,7.9-10.6
		c0.2-0.2,0.5-0.3,0.8-0.5l-0.1-0.1c-0.7,1.2-1.4,2.5-2.1,3.7c-3,4.9-6.2,9.8-9.2,14.7c-1,1.6-1.7,3.3-2.7,5.3
		c0.7-0.1,1-0.1,1.2-0.2c5.4-1.3,10.9-1.8,16.5-1.6c3.2,0.1,6.5,0.4,9.7,0.4c8.2-0.2,16.3,0.1,24.4,1.5c8.1,1.3,16.1,3.2,23.8,6.4
		c6.5,2.8,13.1,5.7,19.6,8.5c0.9,0.4,1.7,0.7,2.6,1.1c0.6-0.6,1-1.2,1.6-1.6c1.5-1.2,2.9-2.5,4.6-3.3c1.2-0.6,2.4-1.1,3.4-2
		c0.7-0.6,1.5-1.1,2.4-1.6c6.1-3.5,12.5-6.4,19.3-8.6c8.9-2.8,17.9-4.8,27.3-4c0.6,0.1,1.3,0,1.9,0c5.9-0.5,11.9-0.7,17.8-0.4
		c0.4,0,0.8-0.1,1.3-0.1c0.1-2.9-0.8-5.4-1.3-8.1c-1.9,0-3.6,0.2-5.2,0c-3.8-0.5-7.6-1.3-11.2-2.7c-13.4-5.2-23.2-14.3-29.5-27.1
		c-0.6-1.2-0.8-2.7-2.3-3.4c-0.3-0.2-0.5-0.8-0.6-1.3c-1.7-6.3-3.9-12.6-4.6-19.1c-0.8-7.4,0.3-14.5,3.8-21.2
		c6.8-12.8,22.3-16.1,31.8-13.2c0.4,0.1,0.7,0.1,1.2,0.2c0.2-0.8,0.4-1.5,0.6-2.2c-2-0.6-3.8-1.4-5.6-1.5c-1.4-0.1-2.6-0.5-3.8-1.2
		c-1.8-1.1-3.7-2.1-5.4-3.4c-3.7-2.7-7.3-5.5-10.9-8.4c-3.5-2.8-6.9-5.6-10.3-8.4c-0.9-0.7-1.3-1.9-2.2-2.6c-2.9-2.3-6-4.4-9.7-5.4
		c-6.2-1.8-12.5-2.6-19-2.1c-5.2,0.4-10.2,1.5-14.8,4c-0.7,0.4-1.4,0.8-2.1,1c-4.2,1-8.4,2.3-12.8,2.2c-3.9-0.1-7.8-0.1-11.6-0.1
		c-2,0-4.1,0-6.2,0c-0.1,1.6-1.2,2-2.2,2.5c-0.9,0.5-1.9,0.7-2.2,1.9c-0.1,0.4-1,0.7-1.6,0.8c-4.8,1.1-9.4,2.6-13.7,5.2
		c-2.2,1.3-4.5,2.6-6.7,3.8c0.6-0.9,1.4-1.6,2.2-2c3.6-1.9,7.3-3.8,11-5.6c1.6-0.8,3.3-1.2,4.8-2c1.7-0.8,3.5-1.7,4-4.1
		c-1.1,0.1-2,0.2-2.9,0.4c-8.1,2-16.2,4.5-23.8,8.1c-4.8,2.2-9.6,4.6-14.5,6.4c-8.5,3.2-17.2,6-25.7,9.1c-7.5,2.7-15.4,3.5-23.3,4.2
		c-2.2,0.2-4.4-0.1-6.6,0c-5.7,0.1-11.4,0.5-17.1,0.5c-5.6,0-11.2-0.3-16.8-0.4c-3-0.1-6-0.6-9-0.3c-4.6,0.5-9,1.5-13.6,2.3
		c-0.8,0.2-1.6,0.5-2.5,0.8c0.1,0.2,0.2,0.3,0.2,0.3c9.1,2.4,17.4,6.7,25.7,11c1.9,1,3.7,2.1,5.5,3.3c4.7,3.3,9.4,6.8,14.1,10.1
		c0.4,0.3,1,0.6,1.5,0.5c1.3-0.3,2.5-0.8,3.9-1.3c-1.2-2-2.3-3.7-3.3-5.4c0.1-0.1,0.2-0.1,0.3-0.2c1.4,1.7,2.9,3.5,4.4,5.3
		c1-0.2,1.9-0.5,3.3-0.8c-3.7-6.4-7.2-12.5-10.8-18.7c5.4,5.2,8,12.3,12.3,18.1c1.3,0.3,2.5-0.6,3.8,0.3c-1,0.3-2,0.6-3.2,1
		c0.6,1.2,1.1,2.3,1.7,3.4c3.5,6.4,6.5,13,8.5,20.1c0.2,0.6,0.5,1.3,0.3,1.8c-0.3,0.8,0,1.3,0.4,2c6.4,10.8,11.2,22.3,14.6,34.4
		c0.5,1.7,1.2,3.4,1.9,5.4c0.7-0.9,1.2-1.4,1.6-2c3.4-5.7,6.9-11.4,10.3-17.1c2.4-4.2,4.7-8.4,7.1-12.6c0.4-0.7,1-1.3,1.6-2
		l-0.1-0.1c-0.2,0.6-0.2,1.3-0.5,1.8c-3.1,6.5-6.1,13.1-9.5,19.4c-2.8,5.1-6.1,10-9.4,15.2c2.5,7.4,4.7,15.4,6.5,23.4
		c2.4,10.7,5.1,21.4,7.8,32c3.8,14.7,6.9,29.6,8.9,44.6c0.5,3.3,1.2,6.6,1.9,9.9c0.1,0.3,0.2,0.6,0.4,0.8c1.7,2.5,3.4,4.9,5.1,7.4
		c0.6,0.9,1.5,1.6,2.2,2.5c2.5,3,4.9,6,7.5,8.9c2,2.2,4.4,3.8,7.2,4.9c0.9,0.4,1.6,0.5,2.5,0c3.8-2.2,7.8-4.2,11.5-6.7
		c6.5-4.5,13-9.1,20.3-12.1c0.7-0.3,1.4-0.7,2-1.2c3.1-2.6,6.7-4.1,10.6-5.2c0.9-0.2,1.5-0.5,2.2-1.2c2.5-2.4,5.3-4.5,7.8-6.9
		c1.2-1.1,2.2-2.5,3.2-3.8c1.7-2.3,3.4-4.5,5.1-6.8c0.5-0.7,1-1.4,1.4-2.2c2.1-4.4,4.1-8.7,6.2-13.1c3.9-8.5,8.4-16.7,14.3-24
		c3.9-4.8,8.2-9.3,12.2-13.9c0.7-0.8,1.2-1.6,1.8-2.5c0.6,0,1.2,0.1,1.7,0.1c0.6,1.5-0.3,2.3-0.9,3.2c-6,7.5-11.9,15-18,22.4
		c-1.5,1.8-2.8,3.8-3.9,5.9c-0.2,0.5-0.5,1-0.7,1.5c-3.3,6.8-6.5,13.7-10,20.5c-1.2,2.3-2.6,4.6-4.3,6.5c-1.6,1.7-2.7,3.7-3.8,5.6
		c-0.3,0.5-0.6,1.2-0.9,1.6c-0.3,0.4-0.8,1-1.2,1c-1.1,0.1-1.7,0.8-2.4,1.4c-1.4,1.3-2.9,2.5-4.8,3c-0.2,0.1-0.5,0.2-0.6,0.3
		c-0.2,0.1-0.3,0.3-0.3,0.3c1.8,0.3,3.7,0.6,5.5,0.9l-0.1-0.1c-0.1,1.8-0.1,1.8-1.6,1.9c-0.9,0.1-1.7,0.1-2.6,0.2
		c-6.2,0.9-11.6,3.7-17,6.8c-0.8,0.4-1.7,1.1-2.5,1c-1.2-0.2-2,0.3-2.8,0.9c-5,3.9-10,7.7-14.9,11.6c-0.2,0.2-0.3,0.4-0.6,0.7
		c0.3,0.1,0.5,0.2,0.6,0.3l-0.1-0.1c-0.8,0.5-1.6,1.2-2.5,1.6c-2.2,0.9-4.4,1.7-6.7,2.4c-2.4,0.8-4.8,1.4-7.1,1.2
		c-1.7-1.3-3.3-2.4-4.7-3.6c-5.8-4.6-10.2-10.3-14.3-16.3c-0.6-0.9-0.9-2-1.6-2.9c-0.7-0.9-1.5-1.8-2.4-2.5
		c-0.8-0.6-1.8-1.1-2.7-1.4c-2.2-0.8-3.9-2.1-5.4-3.7c-3.3-3.3-6.4-6.8-8.7-11.1c-1.6,0.5-2.6-0.5-3.4-1.5c-1-1.2-1.8-2.6-2.6-3.9
		c-0.8-1.3-1.4-2.6-2.3-4.4c-0.4,1.1-0.9,1.8-1,2.5c-0.3,1.7-0.5,3.4-0.6,5.2c-0.4,4.6,1.9,8.4,4.2,12c0.2,0.3,0.6,0.5,0.9,0.8
		c3.3,2.6,6.6,5.2,9.9,7.8c0.5,0.4,1,0.8,1.4,1.3c0.4,0.5,0.3,1-0.7,1.4c-1.2-0.8-2.6-1.7-3.6-2.4c-1.7,1-3.2,2-4.8,3
		c2.2,1.1,4.5-0.9,6.6,0.3c0,1.2-0.8,1.5-1.6,1.5c-1.3,0-2.5-0.1-3.8-0.2c-1.1-0.2-2.1-0.6-3.2-0.7c-3.7-0.5-7.4-0.7-11-1.5
		c-4.2-0.9-8.2-2.5-11.7-5.1c-1.1-0.8-2.4-1.5-3.7-2.1c-3.7-1.8-7.4-3.7-11.1-5.4c-1.4-0.7-2.9-1.2-4.8-1.9c0.1,0.1-0.2-0.2-0.3-0.5
		c-0.1-0.6-0.4-1.4-0.1-1.7c0.4-0.4,1.2-0.6,1.8-0.6c0.5,0,1.1,0.2,1.5,0.5c1.3,0.8,2.6,1.6,3.8,2.4c1.1,0.7,2.3,1.4,3.4,2.1
		c3.2,1.7,6.6,3.1,9.7,5c3.2,1.9,6.6,3.5,10,4.8c0.5,0.2,1,0.2,1.8,0.4c-0.1-1.1-0.1-1.9-0.2-2.8c-0.3-1.5-0.9-3-1.2-4.6
		c-0.1-0.4,0.4-0.9,0.6-1.4c0.4,0.3,1.1,0.6,1.1,0.9c0.3,1.5,0.5,3.1,0.6,4.7c0.1,1.2-0.1,2.3-0.2,3.6c2.6,0.5,5.1,1,7.6,1.4
		c0.3,0.1,0.7,0.1,0.9-0.1c2-1.1,4.2-1.9,6.2-3.7c-1.3-0.9-2.3-1.9-3.5-2.2c-1.4-0.4-2.4-1.1-3.3-2.1c-2.9-3.1-4.4-6.9-5.3-10.9
		c-0.6-2.7-0.1-5.3,0-8c0.1-2.4,1.2-4.2,2.6-6c0.8-1,1.6-1,2.3,0c0.4,0.5,0.6,1.1,0.9,1.7c1.3,2.4,2.5,4.8,3.8,7.1
		c0.3,0.6,0.9,1.2,1.5,1.3c0.9,0.2,1.3,0.8,1.8,1.3c2.6,2.9,5.1,5.8,7.7,8.7c1.7,1.9,4.9,3.9,6.8,4.3c0-1.1,0.2-2.2,0-3.3
		c-2.3-11.1-4.5-22.3-7.2-33.4c-2.7-11.2-5.7-22.2-8.7-33.3c-3.5-12.7-5.1-25.9-9.1-38.5c-2-6.5-4-13-6.3-19.4
		c-1.9-5.1-4.4-10-6.6-15c-3.4-7.6-7.8-14.5-13.6-20.4C521.7,338.4,519.5,336.2,516.8,334.6z M39.7,411.6c2.6-2.3,5.6-3.2,8.8-3.6
		c0.9-0.1,1.8-0.4,2.8-0.6c2.1-0.4,4.2-0.9,6.3-1c2.4-0.1,4.7,0.2,7.1,0.2c5.8,0.1,11.5,0,17.3,0.4c5.6,0.3,11.2,1,16.8,1.5
		c3.8,0.3,7.6,0.7,11.4,0.2c5.8-0.7,11.5-0.6,17.3,0.1c6.4,0.7,12.7,1.5,19.1,2.3c6.4,0.8,12.9,1.7,19.3,2.5c0.8,0.1,2,0.2,2.4,0.7
		c0.8,0.9,1.8,0.9,2.8,1c7.7,1.1,15.4,2.1,23,3.4c6.3,1.1,12.6,2.3,18.6,4.6c0.7,0.3,1.4,0.4,2.1,0.5c3.8,0.5,7.7,0.9,11.5,1.4
		c0.4,0,0.9-0.1,1.3-0.2c1-6.9,1.9-13.7,2.8-20.5c-4.6-1.1-9.3-1.6-13.9-3.5c2.6-1,4.9-0.1,7.2,0.1c2.4,0.2,4.8,0.7,7.3,1
		c1.4-9.1,3.9-18.1,4.7-27.4c-4.4-1.3-8.7-2-13.1-2.1c-6.2-0.2-12.3,0.7-18.4,1.5c-2.9,0.4-5.7,1.1-8.6,1.6c-9,1.5-18,2.8-26.9,4.4
		c-5.1,0.9-10.2,1.3-15.4,1.2c-2,0-4,0.1-5.9,0.1c-4,0-7.9,0.2-11.9,0c-6-0.3-11.7-1.9-16.4-5.9c-1-0.8-1-2-1.9-2.8
		c-2.3-1.8-3.4-4.3-4.1-7c-0.2-0.7-0.7-1.5-1.3-1.8c-3.9-2-7.9-2.5-12.1-0.6c-2.2,1-4,2.8-6.5,3.3c-0.5,0.1-1,0.7-1.4,1.2
		c-1,1.1-1.9,2.4-3,3.2c-4.2,3.2-8.6,6.3-12.8,9.5c-3.4,2.6-7.3,3.9-11.5,3.8c-4.8-0.1-9.6-0.5-14.5-0.9c-2.3-0.2-4.3-0.3-6.5,1
		c-2.9,1.8-6.4,2.8-9.6,4c-1,0.4-1.6,0.9-2.1,1.7c-1.2,2-2.5,4-3.9,5.9c-0.4,0.6-1.1,1.1-1.8,1.4c-2.4,0.9-4.7,1.8-7.2,2.4
		c-1.4,0.4-2.1,1.3-2.7,2.5c-1.1,2.5-2.2,5.1-3.2,7.7c-0.2,0.4-0.2,0.9-0.4,1.5c0.6-0.1,1.1,0,1.5-0.1c1.6-0.5,3.3-1.2,4.9-1.7
		c1-0.3,2-0.7,3-0.6c2.5,0.2,4.5-0.5,5.9-2.7c0.8-1.2,1.9-2.1,3.3-2.6c0.7-0.2,1.2-0.2,1.5,0.8c-1.2,1-2.4,1.9-3.5,3
		c-1.1,1.1-2.2,2.3-3.2,3.4c1.2,0.6,2.3,0.6,3.6,0c1.8-0.9,3.7-1.3,5.4,0.3C38.4,409.6,38.5,409.6,39.7,411.6z M461.3,442.4
		c-1.1,0.4-2.2,0.8-3.3,1.3c-1.4,0.5-2.7,1.2-4.2,1.7c-3,0.9-6.1,1.7-9.1,2.6c-11.9,3.6-24,5.7-36.4,5.7c-3.1,0-6.2,0.4-9.2,0.6
		c-1,0.1-1.9,0.3-2.6-0.6c-0.2-0.2-0.5-0.4-0.8-0.4c-2,0-3.9,0-5.9,0c1,1,2,1.7,3.2,2.1c2.7,1,5.5,2,8.3,2.9c3.2,1,6.3,2,9.5,2.9
		c2,0.6,3.9,1.3,5.9,1.8c4.4,1.2,8.9,2.3,13.3,3.6c4.8,1.4,9.5,2.9,14.3,4.5c4.6,1.5,9.1,3.1,13.7,4.7c1,0.3,1.8,1,2.8,1.3
		c3.4,0.9,7,1.5,10.5,1.5c4.7-0.1,9.3,1,13.9,1.8c1.8,0.3,3.4,1.1,5.1,1.7c1.4,0.5,2.8,0.9,4.5,1.5c-5.9-6.9-11.8-13.3-17.2-20
		C471.8,456.7,466.7,449.6,461.3,442.4z M503.7,563.7c1.6,0.7,3.3,1.5,5.1,2.2c2,0.8,4.2,1.5,6.2,2.4c3.8,1.8,7.8,3.2,11.9,4
		c6.2,1.2,12.4,2.3,18.7,3.4c2,0.4,4.1,0.7,6.1,0.9c1.4,0.2,2.5-0.1,3.6-1.3c1.2-1.3,2.7-2.5,4.3-3.2c2.4-1.1,4-3,6-4.5
		c3-2.3,5.9-4.7,9-7c0.7-0.6,1.5-1,1.7-2.2c-0.8,0.1-1.4,0-2,0.1c-5.3,1.6-10.8,1.4-16.2,1.3c-2.3,0-4.6-0.5-6.7-1.2
		c-4-1.3-8.1-1.2-12.2-1c-3.9,0.2-7.9,0.2-11.8,0.2c-0.5,0-0.9-0.1-1.4-0.3c-4.6-1.6-9.2-3.2-13.9-4.8c-1-0.4-2.1-0.6-3.1-0.9
		c-1.1,2.4-2,4.7-3.2,6.8C504.7,560.2,503.8,561.6,503.7,563.7z M861.6,399.2c-0.7-3.2-1.8-6-0.9-9.4c0.3,1.1,0.5,1.8,0.7,2.4
		c0.3,1.3,0.6,2.6,1,3.9c0.3,1,1.2,1.6,2.1,1.5c0.9-0.1,1.4-0.9,1.4-2.1c0-0.5-0.1-0.9-0.2-1.4c-0.4-3.1-0.9-6.3-1.3-9.4
		c0-0.1,0.1-0.3,0.4-0.7c1.2,1.7,1.1,3.7,1.6,5.4c0.5,1.7,0.7,3.6,1.1,5.4c0.2,0,0.4,0,0.6,0.1c0.8-1.5,1.5-3,2.5-4.8
		c1.4,2.4-0.3,4.2-0.2,6.1c2,0.2,2.7-0.2,3.1-1.7c0.2-1,0.2-2,0.3-3.1c0.1-0.5,0.2-1.1,0.3-1.6c1.7,0.5,0.8,2,1.7,2.7
		c1.5-1.2,3.1-2.3,3-4.7c-0.1-0.9,0.2-1.7,1.4-2c0.7,0.5,1.4,1,2.3,1.5c1,0.5,1.8,0.3,2.4-0.6c0-1.1-0.3-2.1-0.1-3.1
		c1.1-4.8-1.3-8.2-4.3-11.4c-0.5-0.5-1.3-0.8-1.9-1.1c0.4,1.2,1,2.1,1.6,3c1.2,1.9,1.2,1.9,1,3.2c-1.4-1.7-2.7-3.2-4.1-5
		c0.3,1,0.4,1.7,0.6,2.4c-1-0.3-1.5-1-2.2-1.5c-0.6-0.4-1.4-1.1-2-1c-2.9,0.2-5.6,1.3-7.9,2.8c0.7,0.9,1.3,1.6,2,2.3
		c0.4,0.4,0.9,0.6,1.4,0.9c1.9,1.2,2.6,3.9,1.6,6.1c-0.2-0.4-0.5-0.7-0.6-1.1c-0.9-2.9-2.9-4.9-5.1-6.7c-0.5-0.4-1.1-1-2-0.1
		c0.6,0.8,1.2,1.6,1.8,2.4c-0.1,0.1-0.2,0.2-0.2,0.2c-1-0.6-1.9-1.1-2.9-1.7c-0.4,0.4-0.7,0.6-0.7,0.9c-0.7,3-2.7,4.1-5.6,4.2
		c-1.7,0-2.8,0.8-2.9,2.7c0,0.1-0.3,0.1-0.4,0.1c-0.3-0.6-0.6-1.2-1-1.9c-1.4,1.1-0.4,2.7-1.3,4c-0.3-1.2-0.5-2.1-0.8-3.1
		c-0.9,0.1-1.6,0.2-2.3,0.2c0-0.1-0.1-0.2-0.1-0.4c0.7-0.4,1.3-0.8,2.1-1.3c-4-1-5.4-0.4-7,2.8c-0.3,0.6-0.5,1.1-0.8,1.7
		c-0.6,1.5-1.1,3.1-1.7,4.8c-0.2-0.8-0.4-1.5-0.6-2.1c-0.3-0.9-0.4-1.7,0.6-2.5c1.2-1,1.1-2.4,0.9-4.1c-1.7,1.1-3,2.4-4,3.9
		c-0.4,0.6-0.4,1.5-0.3,2.2c0.5,3.1,2.7,4.9,5.1,6.5c1.7,1.1,3.7,0.6,4.5-1c0.7-1.4,1.7-2.6,1.6-4.3c0-0.4,0.3-0.8,0.5-1.2
		c0.4,1.4,0.4,2.7,0.4,4.1c0,1.3,0.4,2.4,1.6,3c1.4,0.8,2.8,1.5,4.2,2.1c1.1,0.4,2.2,0.9,3.6,0.4c-0.1-1.4-0.3-2.7-0.3-4
		c0-1.4,0.1-2.8,0.1-4.3c0-1.3-0.2-2.5-0.4-4c1.2,0.4,1.2,1.2,1.2,1.8c0.2,2.7,0.4,5.4,0.6,8c0.1,0.8,0.1,1.5,0.2,2.5
		C859.5,399.3,860.4,399.3,861.6,399.2z M532.7,347.7c-0.9-4.4-7.5-19.1-9.6-21.5c-0.8,0.2-1.7,0.4-2.7,0.7c0.6,1.1,1.1,1.8,1.5,2.6
		c1.8,3.3,3.8,6.4,5.3,9.8C528.5,342.4,530.6,345,532.7,347.7z M533.9,546.1c-6.7-1.7-13.3-3.4-20.1-5.2c-0.5,0.7-1,1.4-1.6,2.2
		c0.6,0.2,1.1,0.4,1.7,0.5c2.6,0.5,5.3,0.8,7.9,1.6C525.7,546.6,529.8,546.6,533.9,546.1z M519.1,327.4c-1.4,0.6-2.6,1-4.1,1.6
		c2.8,2.4,5.2,4.5,7.6,6.7c0.3-0.6,0.2-1,0-1.3C521.5,332.1,520.4,329.9,519.1,327.4z M292.1,432.7c-1-1.5-2.8-3-4.5-3.4
		c-1.5-0.4-3-0.9-4.6-0.3c-0.8,0.3-1.4,0.5-1.3,1.6c2.7-0.2,5.1,0.4,7.2,1.9C289.8,433.1,290.9,433.4,292.1,432.7z M518.4,527
		c-0.3,1.3-0.3,1.3,1.3,1.4C519.3,528,518.9,527.6,518.4,527z M505.2,325.2c-0.1,0.1-0.1,0.2-0.2,0.3c0.3,0.2,0.6,0.3,0.9,0.5
		c0-0.1,0.1-0.3,0.1-0.3C505.7,325.5,505.5,325.3,505.2,325.2z"/>
	<path d="M723.4,44.2c1.5-0.7,1.9-1.9,2.1-3.3c0.3-3.5,0.7-6.9,1.3-10.3c0.5-3,1.2-6,1.9-9c0.2-0.9,0.8-1.7,1.3-2.5
		c0.6-0.8,2-1.1,2.8-0.8c0.9,0.4,1.2,1.2,1.2,2.1c0,1.6-0.1,3.2,0,4.7c0.1,1.2,0.3,2.5,0.5,3.7c0.1,0.6,0.3,1.3,0.2,1.9
		c-0.4,4.5-0.8,9-1.2,13.4c-0.1,1-0.4,1.9-0.6,2.9c-0.2,0-0.3,0.1-0.5,0.1c-0.3-0.4-0.7-0.7-0.8-1.2c-0.1-0.5,0-1.1,0-1.6
		c0.1-2.3,0.3-4.6,0.2-6.9c0-4.1-0.2-8.2-0.3-12.3c0-1.5,0.2-2.9,0.4-4.4c-0.7-0.4-1.2-0.4-1.3,0.4c-0.6,4.4-2.4,8.5-2.3,13
		c0,1.9-0.5,3.7-0.8,5.6c-0.1,1-0.3,2-0.2,3c0.2,1.1-0.2,1.7-1,2.2C725.4,45.4,724.4,45.6,723.4,44.2z"/>
	<path d="M313,408.7c6.2,0,12.5,0.2,18.7,0c11.9-0.4,23.9-1,35.8-1.6c0.9,0,1.7,0,2.6,0.1c-1.2,0.2-2.4,0.4-3.7,0.6
		c-1.3,0.2-2.7,0.3-4,0.4c-9.2,0.4-18.4,0.7-27.5,1.1c-3.5,0.1-7,0.3-10.4,0.3c-3.9-0.1-7.7-0.5-11.6-0.7
		C313,408.8,313,408.7,313,408.7z"/>
	<path d="M260.7,393.9c-0.2-1.6-0.5-3.2-0.5-4.9c0-1,0.3-2,1.5-2.4c0.2,0.1,0.3,0.2,0.4,0.3c0.1,0.1,0.2,0.3,0.2,0.4
		c0,0.3,0,0.6,0,0.9c-0.4,1.9-0.7,3.7-1.1,5.6C261.1,393.9,260.9,393.9,260.7,393.9z"/>
	<path d="M707.2,175.9c0.3-2.9,1.7-4.6,3.9-6C710.7,172.8,709.2,175.1,707.2,175.9z"/>
	<path d="M724.3,48.7c1.1-0.4,1.5,0.2,1.5,1.2c0.1,1.5,0,3,0,4.6C724.1,52.9,723.6,51,724.3,48.7z"/>
	<path d="M414.2,376c-1.3-2.6-2.9-5.1-3.7-8.4c1.6,0.7,1.6,1.7,1.9,2.6c0.4,1,0.7,1.9,1.2,2.9c0.4,0.9,0.9,1.8,1.3,2.7
		C414.7,375.8,414.4,375.9,414.2,376z"/>
	<path d="M732.2,55.4c1.3,1.5,0.2,2.3-0.2,3.2C731.4,57.6,731.4,56.7,732.2,55.4z"/>
	<path d="M710,60.7c0.9-0.1,1.8-0.2,2.4,0.8C711.2,62.2,710.6,61.4,710,60.7z"/>
	<path d="M718.1,167.1c-0.7,0.7-1.2,1.2-1.9,1.8C716,167.2,716,167.2,718.1,167.1z"/>
	<path d="M718.9,241.8c0.1,1.5,0.1,1.5-0.9,2.3C717.6,243.1,718,242.6,718.9,241.8z"/>
	<path d="M725.7,55.3c0.9,1.1,0.4,1.7-0.3,2.4C724.6,56.7,724.7,56.1,725.7,55.3z"/>
	<path d="M715.3,247.6c0.3-0.5,0.7-1.1,1-1.6c0.2,0.1,0.3,0.2,0.5,0.3c-0.3,0.6-0.6,1.2-0.8,1.8
		C715.7,247.9,715.5,247.8,715.3,247.6z"/>
	<path d="M718.9,167.5c0.2-1.3,0.2-1.3,1.5-1.3C719.8,166.7,719.4,167,718.9,167.5z"/>
	<path d="M718.7,94.6c0,0.5,0,1,0,1.5c-0.1,0-0.2,0-0.2,0c-0.1-0.5-0.1-1-0.2-1.4C718.4,94.6,718.5,94.6,718.7,94.6z"/>
	<path d="M718.3,90.5c0.1-0.3,0.1-0.6,0.2-0.8c0.1,0,0.4,0.1,0.4,0.1c0,0.2,0,0.5,0,0.8C718.7,90.5,718.5,90.5,718.3,90.5z"/>
	<path d="M410.3,396.6C410,396.6,410.1,396.6,410.3,396.6C410.1,396.6,410,396.6,410.3,396.6z"/>
	<path d="M725.6,59.7c0,0,0.1,0,0.1,0.1c-0.1,0-0.1,0.1-0.2,0.1C725.6,59.9,725.6,59.8,725.6,59.7z"/>
	<polygon points="408,397.1 408.1,397.1 407.9,397.2 	"/>
	<path d="M889.8,372.7c0.2,0,0.4,0.1,0.2,0C890.2,372.9,890,372.8,889.8,372.7L889.8,372.7z"/>
	<path d="M725.8,63.7c-0.1,0.1-0.1,0.2-0.2,0.4c0-0.1-0.2-0.1-0.1-0.2c0-0.1,0.1-0.2,0.2-0.4C725.7,63.6,725.8,63.6,725.8,63.7z"/>
	<path d="M561.9,313.3c0.4-0.7,0.7-1.5,1.2-2.2c5.2-7,11.7-12.5,19.4-16.5c2.7-1.4,5.6-2.6,8.4-3.9c1.6-0.8,3.2-1.8,4.8-2.6
		c0.8-0.4,1.7-0.9,2.8-0.1c-1.3,0.7-2.6,1.3-3.8,2c-1.2,0.6-2.3,1.4-3.5,1.9c-4.1,1.7-7.9,3.9-11.5,6.6c-5.6,4.1-10.5,8.9-15.5,13.7
		c-0.6,0.5-1.2,1-1.8,1.5C562.2,313.6,562,313.4,561.9,313.3z"/>
	<path d="M557.7,336.1c-1.9,11.1-4.3,22.1-8.7,32.6c-0.5,1.3-1.1,2.6-2.7,3.6c0.1-0.8,0.1-1.3,0.2-1.7c3.6-8.5,6-17.5,8.2-26.4
		c0.6-2.3,1.4-4.5,2.1-6.8C557.1,337,557.5,336.6,557.7,336.1L557.7,336.1z"/>
	<path d="M662.9,361c-0.4-0.7-0.5-0.8-0.5-0.9c0.6-3.3,1-6.7,1.8-10c0.9-3.8,2.8-7,6.2-9.2c0.9-0.6,1.8-1,2.7-0.4
		c0.3,1.1-0.3,1.4-0.9,1.8c-2.9,1.7-4.7,4.4-5.9,7.5c-1,2.7-1.7,5.5-2.6,8.3C663.4,358.9,663.2,359.7,662.9,361z"/>
	<path d="M609.9,377.9c-0.8,1.2-1.5,2.5-2.5,3.7c-3.9,4.7-7.9,9.3-11.8,13.9c-0.6,0.7-1.2,1.5-1.8,2.3c-1-0.6-0.7-1.4-0.3-2
		c0.8-1.2,1.5-2.4,2.5-3.5c4.3-4.7,8.6-9.3,12.9-13.9C609.2,378.2,609.6,378.1,609.9,377.9L609.9,377.9z"/>
	<path d="M660.6,286.9c-0.3-5,0.2-9.8,3.8-13.6c0.5-0.5,1-1,1.6-1.4c0.4-0.3,0.9-0.5,1.3-0.5c0.4,0,0.9,0.2,1.2,0.5
		c0.2,0.2,0.1,0.8-0.1,1.1c-0.2,0.4-0.6,0.7-0.9,1.1c-3.1,3.2-5.4,7-6.3,11.4C661.1,286,660.8,286.4,660.6,286.9z"/>
	<path d="M531.6,324c0.4-0.3,0.8-0.7,1.2-0.8c1-0.3,2.2-0.5,3.2-0.9c2.7-1.1,5.3-2.3,8-3.4c3.7-1.5,7.4-2.9,11-4.3
		c0.3-0.1,0.6,0,1,0c-1.6,1.3-19.6,9-23.2,10c-0.3,0.1-0.7-0.1-1.1-0.1C531.7,324.3,531.6,324.2,531.6,324z"/>
	<path d="M540.3,334.5c0.2,1.2,0.6,2.4,0.6,3.6c0.3,4.4,0.5,8.8,0.6,13.2c0,1.1-0.3,2.3-0.7,3.5c-0.3,0.9-0.9,1.5-2.1,0.8
		c1.5-1.9,1.5-4.1,1.4-6.3c-0.1-4.5-0.4-9-0.6-13.5c0-0.5,0.1-0.9,0.1-1.4C539.9,334.5,540.1,334.5,540.3,334.5z"/>
	<path d="M567.2,406.6c2.8-2.5,5.6-4.8,8.2-7.5c2.5-2.6,4.6-5.5,7.3-8c-0.2,0.4-0.3,0.8-0.6,1.1c-1.5,1.9-3,3.6-4.4,5.6
		c-2.3,3.4-5.4,6-8.6,8.5C568.7,406.6,568.2,407.3,567.2,406.6z"/>
	<path d="M556.4,400.3c3.3-5,6.5-10.1,10-15.5C565.2,388.7,558.9,398.7,556.4,400.3z"/>
	<path d="M613.5,387.4c-3.3,3.1-6.6,6.2-10.1,9.4c-0.4-1.1,0.2-1.6,0.8-2.2c2-1.8,4-3.5,6.1-5.3c0.9-0.8,1.9-1.5,2.9-2.3
		C613.3,387.2,613.4,387.3,613.5,387.4z"/>
	<path d="M660.6,299.7c-1.2-1.4-1.7-2.9-1.4-4.6c0.1-0.4,0.5-1.1,0.9-1.2c0.8-0.2,1.1,0.5,1.2,1.2
		C661.5,296.6,661.5,298.1,660.6,299.7z"/>
	<path d="M577.6,350.3c-1.3,2.3-2.6,4.7-3.9,7l0.1,0.1C574.9,355,575.8,352.4,577.6,350.3L577.6,350.3z"/>
	<path d="M662.6,369.2c0.9,1.1,0.4,2.2,0,3.3C661.2,370.8,661.2,370.2,662.6,369.2z"/>
	<path d="M661.7,301.5c1.5,1.2,1.5,1.5,0.2,3C661.1,303.2,661.1,303.2,661.7,301.5z"/>
	<path d="M610,377.9c0.8-1.1,1.5-2.1,2.3-3.2c0.2,0.1,0.3,0.3,0.5,0.4C611.8,376,610.9,377,610,377.9L610,377.9z"/>
	<path d="M664.5,379.8c-0.9-0.8-1.2-1.4-0.6-2.3C664.8,378,664.8,378.7,664.5,379.8z"/>
	<path d="M596.2,377c0.2-0.4,0.3-0.8,0.5-1.1c0.1,0.1,0.2,0.1,0.3,0.2C596.7,376.3,596.4,376.6,596.2,377L596.2,377z"/>
	<path d="M557.8,336.2c0-0.3,0-0.6,0-0.9c0.1,0,0.1,0,0.2,0C557.9,335.5,557.8,335.8,557.8,336.2L557.8,336.2z"/>
	<polygon points="562.2,321.7 562.2,321.9 562.1,321.8 	"/>
	<polygon points="561.7,323.3 561.7,323.1 561.7,323.2 	"/>
	<polygon points="558.4,333.7 558.3,333.7 558.4,333.6 	"/>
	<polygon points="558.8,332.2 558.9,332.2 558.8,332.4 	"/>
	<polygon points="559.4,330.9 559.2,330.9 559.3,330.7 	"/>
	<polygon points="559.9,329 559.7,329 559.8,328.8 	"/>
	<polygon points="561.3,324.6 561.2,324.8 561.2,324.6 	"/>
	<polygon points="560.3,327.5 560.3,327.7 560.2,327.5 	"/>
	<polygon points="560.7,326.2 560.7,326 560.8,326 	"/>
	<polygon points="597.8,374.6 597.8,374.4 597.9,374.6 	"/>
	<path d="M573.3,358.4c-0.2,0.3-0.3,0.6-0.5,0.9l0.1,0.1C573.1,359.1,573.2,358.8,573.3,358.4L573.3,358.4z"/>
	<path d="M573.8,357.4c-0.1,0.3-0.3,0.7-0.4,1l0.1,0.1C573.5,358.1,573.7,357.8,573.8,357.4L573.8,357.4z"/>
	<path d="M577.7,350.4c0.2-0.3,0.3-0.6,0.5-1l-0.1-0.1C577.9,349.7,577.8,350,577.7,350.4L577.7,350.4z"/>
	<path d="M578.2,349.4c0-0.2,0.1-0.4,0.1-0.7C578.2,349,578.2,349.2,578.2,349.4L578.2,349.4z"/>
	<path d="M495.8,372.4c0.5,0.9,0.8,1.4,1.1,2c2,4.6,3.8,9.4,6.2,13.9c5.5,10.5,10,21.3,14.3,32.3c1.2,3.2,2.6,6.5,3.6,9.8
		c1,3.1,1.6,6.3,2.4,9.4c0.3,1.1,0.6,2.1,1.1,3.1c2.4,5.1,5,10.1,7.2,15.2c2.9,6.9,5.7,13.9,8.2,21c1.6,4.4,2.4,9,3.6,13.5
		c0.1,0.3,0.1,0.7-0.2,1.1c-0.3-0.5-0.6-1.1-0.8-1.6c-0.6-1.7-1.2-3.4-1.7-5.2c-1.6-6.9-4.4-13.4-6.9-19.9
		c-3-7.7-6.1-15.5-10.4-22.6c-0.8-1.4-1.5-3-1.7-4.6c-0.6-4.3-2-8.3-3.4-12.3c-4-11-8.5-21.8-13.6-32.4c-2.3-4.7-4.7-9.3-6.9-14
		c-0.9-1.9-1.5-4-2.2-6C495.3,374.2,495.1,373.5,495.8,372.4z"/>
	<path d="M492,362.6c-0.2-0.4-0.5-0.8-0.6-1.2c-1.9-6.7-3.9-13.4-5.7-20.1c-0.7-2.6-0.8-5.3-0.2-8c0.2-0.8,0.2-1.6,1.3-2
		c0.1,0.4,0.4,0.8,0.3,1.2c-0.5,4.7,0.6,9.3,1.6,13.8c1.1,4.9,2.3,9.7,3.5,14.5c0.1,0.4,0.2,0.9,0.2,1.4
		C492.3,362.4,492.2,362.4,492,362.6z"/>
	<path d="M711.8,422.5c5.5,0.2,10.5,0.4,15.5,0.6c0.3,1.4-0.5,1.7-1.5,1.9C721.5,425.9,715.8,425.3,711.8,422.5z"/>
	<path d="M541.8,539.3c-4.1-3.2-5.7-5.5-5.2-8c0.4,0.1,0.9,0.1,1,0.3c1.5,2.4,3,4.9,4.5,7.4C542,539.1,541.9,539.2,541.8,539.3z"/>
	<path d="M703.1,420.2c2.9,0.5,5.8,0.2,8.1,2.2c-0.4,1.2-1,1.5-2,1.4C707.1,423.5,704.9,422.2,703.1,420.2z"/>
	<path d="M657.5,504.8c0.6-0.2,1.1-0.6,1.7-0.6c3.3-0.1,6.4,0.8,9.4,2.1c0.2,0.1,0.3,0.3,0.7,0.7c-0.7,0-1.2,0.1-1.7,0
		c-2.5-0.6-4.9-1.3-7.4-1.9C659.3,504.8,658.4,504.9,657.5,504.8L657.5,504.8z"/>
	<path d="M669.1,497.4c-1.5-3.3-1-6.6,1.1-7.8c0.7,1.4-0.3,2.6-0.5,3.8C669.6,494.6,669.4,495.9,669.1,497.4z"/>
	<path d="M544.1,539.6c2.3-0.3,3.9,0.8,5.6,1.9C546.9,542.4,545.1,541.8,544.1,539.6z"/>
	<path d="M551.2,528.3c1.8,0.9,3.4,1.7,5.4,2.7C553,531.3,551.5,530.6,551.2,528.3z"/>
	<path d="M554.3,542.8c-2.3,0.3-2.7,0.1-3.3-1.6C552.7,540.6,553,540.7,554.3,542.8z"/>
	<path d="M699.2,419c1.2-0.2,2.3-1.5,3.5,0.2C701.4,420.3,700.3,419.4,699.2,419z"/>
	<path d="M626.8,525.1c0.1-1.2,0.5-1.8,1.6-1.6c0.2,0,0.6,0.6,0.5,0.8C628.6,525.4,627.8,525.4,626.8,525.1z"/>
	<path d="M558.9,543.8c-1.5,0.6-2.4,0.5-3.5-0.4C556.6,542.8,557.6,542.9,558.9,543.8z"/>
	<path d="M732.7,422.3c-1.3,0.2-2.2,0.5-2.8-0.8C731.1,420.8,731.7,421.4,732.7,422.3z"/>
	<path d="M669.6,498.9c0.9,1.1,0.5,1.7-0.1,2.4C668.5,500.5,668.8,499.9,669.6,498.9z"/>
	<path d="M542,548c-1.1,0.6-1.8,0.7-2-0.2c-0.1-0.2,0.3-0.6,0.5-0.8C541,547.4,541.5,547.7,542,548z"/>
	<path d="M621.9,527c0.5-0.1,0.9-0.2,1.4-0.4c0,0.2,0.1,0.3,0.1,0.5c-0.4,0.2-0.9,0.3-1.3,0.5C622.1,527.4,622,527.2,621.9,527z"/>
	<path d="M616.1,528.1C616.3,527.9,616.4,527.8,616.1,528.1C616.5,527.9,616.3,528,616.1,528.1L616.1,528.1z"/>
	<path d="M811.2,338.6c-1.2,0.1-2,0.1-2.7,0.1c-4.3,0.3-7.5-1.6-9.8-5c-1.2-1.8-2.4-3.7-3.5-5.7c-0.7-1.2-1.3-2.5-1.8-3.9
		c-0.6-1.7-1.1-3.6-1.3-5.5c0.7,1.2,1.3,2.5,2.1,3.7c2.2,3.4,4.2,6.9,6.6,10.1c2.2,3,5.4,4.3,9.1,4.2c1.1,0,2.2,0.4,3.2,0.8
		c0.9,0.4,1,1.2,0.2,1.9c-0.7,0.6-1.6,1-2.3,1.6c-1.7,1.4-1.6,2.2-0.2,3.9c1.1,1.4,2.3,2.9,3,4.5c1.4,3.1,3.6,5.5,6.2,7.3
		c2.8,2,6.3,2,9.6,0.9c0.5-0.2,1-0.8,1.4-1.3c0.9-1.1,1.9-2.2,2.7-3.3c1.4-1.8,1.4-2.5,0.3-4.5c-0.4-0.6-1-1.2-0.8-2.1
		c1.6,0.8,3.3,3,3,4.6c-0.7,3.4-1.8,6.8-5.3,8.5c-0.9,0.4-1.8,0.7-2.7,1c-1,0.4-2,0.3-3-0.2c-0.9-0.4-1.9-0.8-2.9-1
		c-2.9-0.6-5-2.2-6.6-4.6c-1.5-2.2-3.5-4.1-4.4-6.7c-0.2-0.5-0.7-0.9-1.1-1.3c-2.6-2.7-2.5-4.5,0.2-6.9
		C810.6,339.5,810.7,339.3,811.2,338.6z"/>
	<path d="M829.4,348.3c-1-0.6-1.8-1.2-2.5-1.6c-1.3,0.7-2.3,1.4-3.4,1.9c-1.5,0.6-3,0.2-4.2-0.8c-0.7-0.6-0.9-1.2-0.1-1.9
		c2.9,2,4.4,1.9,5.8-0.3c-3.1,0.6-3.1,0.6-4.7-1.4c-3.6-0.3-3.7-0.4-3.3-3.2c1.3-0.1,2.5-0.4,3.9,0.2c1.5,0.7,0.7,2.6,2,3.4
		c0.8-0.3,1.7-0.5,2.5-0.8c0.4-1-0.2-1.4-0.7-1.9c-1.4-1.7-1.4-3.1,0-4.8c0.6-0.8,1.2-1.6,2.1-2.8c0.2,0.9,0.4,1.4,0.3,1.8
		c-0.1,2-0.4,4.1-0.5,6.1c-0.1,1.9,0.7,3.2,2.4,4.2c1.3,0.7,2.4,2,3.3,3.3c0.9,1.3,0.8,2.2-0.5,3.1c-1.9,1.3-4,2.7-6.1,3.5
		c-2,0.7-4.1,0.1-5.5-1.7c-1-1.3-2.3-2.3-2.2-4.3c0-0.6-0.8-1.4-1.4-2c-0.9-0.9-1.9-1.6-2.8-2.6c-1.1-1.3-0.7-2.3,1.3-3.3
		c-0.2,0.8-0.4,1.4-0.6,2.1c0.1,0.1,0.1,0.4,0.3,0.5c1.1,1.2,2.2,2.3,3.2,3.5c0.4,0.4,0.8,0.9,0.9,1.4c0.2,1.7,1.8,2.6,2.6,3.9
		c0.6,1,3.4,1.3,4.4,0.7c0.3-0.2,0.6-0.6,0.7-0.9c0.3-0.9,0.4-1.9,0.8-2.7C827.8,350,828.5,349.3,829.4,348.3z M828.3,353
		c1.3-0.6,2.5-0.9,2.9-2.4C829.7,350.2,829.2,350.6,828.3,353z"/>
	<path d="M861.9,315.9c1.3,0.2,1.4,0.9,1.5,1.8c0,2.1,0.1,4.1,0.2,6.2c0,0.8,0.3,1.5,0.4,2.3c0.1,0.4,0.2,0.8,0.2,1.2
		c-0.1,2.1,0.1,4.4-0.5,6.4c-0.8,2.5-1,5.1-1.5,7.6c-0.2,1.1-0.4,2.2-0.4,3.3c0.1,2.9-0.9,5.6-1.5,8.4c0,0.2-0.2,0.3-0.7,0.5
		c0.1-1.6,0.1-3.2,0.4-4.8c0.4-2.3,0.2-4.5-0.2-6.8c-1-6.3-1.1-12.6-0.3-18.9c0.3-1.9,1.3-3.6,1.3-5.6
		C860.9,316.8,861.6,316.3,861.9,315.9z M861.9,324.1c-0.1,0.7-0.1,1.4-0.2,2c-0.3,2.5-0.1,5-1.1,7.5c-0.6,1.5-0.4,3.3,0.2,5.5
		c0.3-0.8,0.4-1.2,0.5-1.5c0.3-1.8,0.5-3.6,1-5.3C863.1,329.5,862.7,326.8,861.9,324.1z"/>
	<path d="M870.3,295.6c2.5,2.6,3.2,6.1,4.5,9.7c-0.9-0.1-1.5-0.2-2.3-0.3c1.7,6.5,3.9,12.7,3.9,19.3c-0.2,0.1-0.4,0.1-0.6,0.2
		c-0.2-0.8-0.6-1.7-0.7-2.5c-0.3-2.5-1.2-4.7-2.3-6.9c-0.3-0.5-0.4-1-0.5-1.6c-1.1-4.1-2.3-8.2-3.4-12.3c-0.1-0.3-0.2-0.6-0.3-0.9
		C867.9,298.3,868.1,296.7,870.3,295.6z"/>
	<path d="M840.8,319.4c-2.7,2.7-3.7,6.1-4.8,9.7c0.4,0.1,0.6,0.1,0.8,0.1c0.1,0,0.3,0,0.5,0c-0.7,1.6-1.6,3.1-2.1,4.7
		c-0.5,1.6-0.6,3.4-0.9,5.4c-1-3.6-1-3.6-0.2-6.6c0.3-1.3,0.5-2.6,0.8-4.1c-1.4,0.3-1.8,1.2-2.1,2c-1.8,3.8-3.4,7.7-3.1,12
		c0,0.7,0.1,1.5-1.2,1.4c-0.6-0.9-1-2-1-3.2c0-2.4,0.1-4.7,1.5-6.8c0.4-0.6,0.5-1.3,0.8-2c0.5-1.3,1.2-2.3,2.5-3.2
		c1.7-1.3,3.8-2.5,4.4-5c0.3-1.2,1.1-2.2,1.8-3.3C838.9,319.7,839.6,319.2,840.8,319.4z"/>
	<path d="M833,293.5c0.6-2.3,0.6-2.3,4.2-1.8c1.4-0.5,1.9-2.3,3.5-2.5c0.1,0.3,0.2,0.5,0.2,0.6c-1.5,2.2-1.4,4.8-1.9,7.2
		c-0.4,1.7-0.9,3.5-2.3,5c-0.6-1.9,1.2-3.1,0.7-4.8c-1.2,1.5-1.4,3.5-2.9,4.8c-1-1.5-2.1-2.9-2.9-4.4
		C830.4,295.5,830.7,294.6,833,293.5z M833.8,299.5c1-0.1,1.3-0.5,0.6-1.4C834.2,298.7,834,299.1,833.8,299.5z"/>
	<path d="M853,320.1c0.9,0.5,0.8,1.2,0.7,1.9c-0.5,7.9,0.6,15.8,1.3,23.6c0.1,1.2,0.5,2.3,0.7,3.5c0.1,0.7,0.3,1.3,0,2.2
		c-0.3-0.3-0.8-0.5-0.9-0.8c-0.9-2.9-2-5.7-2.5-8.6c-0.7-5.1-1-10.2-0.6-15.4c0.1-1.9,0.5-3.7,0.8-5.6
		C852.6,320.6,852.9,320.4,853,320.1z"/>
	<path d="M800,337.4c-1.8,0.4-3.6,0-5.3-0.6c-5.3-1.9-10.5-4-15.7-6c-0.4-0.2-0.8-0.5-1.1-1c4.5,1.1,9,2,13.5,3.2
		c2.6,0.7,5.1,1.7,7.6,2.6C799.8,335.9,800.5,336.2,800,337.4z"/>
	<path d="M848.3,344.7c-0.2-1.7-0.6-3.5-0.6-5.2c-0.1-4.6-0.4-9.3,0.3-13.9c0.4-2.5,1-5,2.1-7.2c0.3-0.7,0.6-1.4,1.7-1.6
		c0,0.4,0.2,0.7,0.1,0.9c-2.7,4.9-2.9,10.3-3,15.6c-0.1,3.4,0.1,6.8,0.1,10.2c0,0.4-0.1,0.8-0.2,1.3
		C848.6,344.7,848.5,344.7,848.3,344.7z"/>
	<path d="M845.8,347.1c-1.8-8.2-3.2-16.4-2-24.9c0.1-0.6,0.1-1.5,1.4-1.7c-0.6,4.6-0.7,9-0.2,13.5c0.5,4.4,1,8.7,1.5,13.1
		C846.3,347.1,846.1,347.1,845.8,347.1z"/>
	<path d="M842.6,361.6c0.2,0.2,0.3,0.4,0.5,0.6c0.4-0.8,0.9-1.6,1.3-2.4c0.2,0,0.3,0.1,0.5,0.1c0,0.4,0.2,0.8,0.1,1.2
		c-1.3,4.8-2.7,9.5-4.1,14.3c-0.1,0.3-0.2,0.6-0.4,0.8c-0.4,0.5-1.2,0.3-1.3-0.3c-0.1-0.3-0.1-0.6,0-0.9
		C839.9,370.5,840.4,366,842.6,361.6z M841.3,369.7c0.4-1.2,0.7-2.4,1.1-3.6c-0.2,0-0.4-0.1-0.6-0.1
		C841.7,367.3,841.6,368.5,841.3,369.7c0,0.2-0.1,0.4,0,0.2C841.3,370.1,841.3,369.9,841.3,369.7z M842.5,364.6L842.5,364.6l0.1-0.2
		L842.5,364.6z"/>
	<path d="M845.6,304.1c0.2-0.5,0.3-1,0.6-1.5c1.3-1.8,1.5-3.8,1.2-5.9c-0.4-2.7-0.7-5.5-1.2-8.2c-0.1-0.7-0.1-1.3,0.6-1.5
		c0.8-0.2,1.5,0.2,1.6,1c0.4,3.1,0.9,6.2,1,9.4c0.1,2.8-1.5,5-3.3,7C846,304.3,845.8,304.2,845.6,304.1z"/>
	<path d="M847.1,316.7c-0.1,0.2-0.1,0.5-0.3,0.6c-2.8,1.6-4.1,4.3-5.1,7.2c-1.1,3.4-1.9,6.8-2.9,10.2c-0.2,0.8-0.5,1.6-1.2,2.4
		c0-0.6-0.2-1.1-0.1-1.7c0.7-4.9,1.5-9.8,4.1-14.2c0.9-1.6,2.2-3,3.5-4.4C845.7,316,845.9,316.1,847.1,316.7z"/>
	<path d="M878.8,308.5c-2.7-4.6-3.9-10-7.9-14.1c1.3-0.9,0.6-1.9,0.5-3c0.4,0.3,0.9,0.5,1.1,0.8
		C875.3,297.4,878.6,302.3,878.8,308.5z"/>
	<path d="M748.8,355.7c-2.8-5.9-5.5-11.8-8.4-18.1c1.8,1.2,2.9,2.1,3.6,3.6c1.7,4.2,3.4,8.5,5,12.8c0.2,0.5,0.1,1,0.2,1.6
		C749.1,355.6,748.9,355.6,748.8,355.7z"/>
	<path d="M887.1,339.6c-0.2-0.6-0.4-0.9-0.4-1.1c0.5-4.5-0.7-8.9-0.9-13.4c-0.1-1.3-0.1-2.7-0.1-4c0-0.3,0.3-0.7,0.4-1.1
		c0.3,0.2,0.6,0.4,0.7,0.5c0.4,3.1,1,6.2,1.2,9.4c0.2,2.8-0.1,5.7-0.2,8.5C887.7,338.6,887.4,338.9,887.1,339.6z"/>
	<path d="M857.5,338.1c-1.3-4.2-1.2-17.9,0.3-20.2c0.7,1.4,0.1,2.7,0.2,3.9c0.1,1.3,0,2.7,0,4c0,1.4,0,2.8,0,4.3c0,1.3,0,2.7,0,4
		c0,1.3,0,2.6,0,4C857.8,338.1,857.7,338.1,857.5,338.1z"/>
	<path d="M738.3,328.4c-0.7,0.5-1.4,0.5-1.7-0.2c-0.5-0.9-1-1.9-1.1-2.8c-0.2-2,0.3-3.9,1.3-5.7c0.4-0.7,1-1.4,1.9-0.9
		c0.9,0.5,0.7,1.3,0.4,2.1c-0.2,0.5-0.5,1-0.7,1.5c-0.6,1.4-1.2,2.7-0.2,4.2C738.4,327.1,738.3,327.8,738.3,328.4z"/>
	<path d="M794.6,348c3.9-0.4,7.7-0.2,11.3,0.9c0.3,0.1,0.7,0.2,0.8,0.4c0.2,0.4,0.4,0.9,0.3,1.2c-0.1,0.2-0.6,0.4-0.9,0.5
		c-0.1,0.1-0.3,0-0.5-0.1C802,350,798.3,349,794.6,348z"/>
	<path d="M855,378.4c3.8-4.5,4.5-10,6.3-15.3c0,0.6,0.1,1.1,0.1,1.7c-0.3,4.2-1.6,8-3.7,11.6C857.1,377.4,856.4,378.3,855,378.4z"/>
	<path d="M866.5,308.2c1.2,5.9,2.3,11.8,3.6,18.2C868,323.1,865.4,310.9,866.5,308.2z"/>
	<path d="M814.7,283.6c1.2,2.4,1.4,2.4,3.9,0.9c0.7,1.7,0.2,2.6-1.4,2.7c-2.9,0.2-4-1.3-3.2-4.1c0.5-1.7,1.3-3,2.5-4
		C817.3,280.8,817,281.5,814.7,283.6z"/>
	<path d="M824.3,371.9c-1.4-3.5-2.8-6.6-1.3-10.6c1.2,2,0.5,3.8,0.8,5.4C824.1,368.3,824.1,370,824.3,371.9z"/>
	<path d="M870.2,315c-1.2-4.1-2.3-7.7-3.3-11.3c0-0.1,0.2-0.2,0.2-0.4C868.7,304.7,870.2,310.3,870.2,315z"/>
	<path d="M740,315.5c-0.8-1.8,0-4.7,1.7-6.4c1,1.6,0.2,3.2-0.1,4.7C741.5,314.6,741.1,315.4,740,315.5z"/>
	<path d="M807.1,353.1c-0.8,1.9-1.7,3.7-2.5,5.6c-0.2,0-0.3-0.1-0.5-0.1c-0.1-0.3-0.3-0.7-0.3-1C804.1,356.4,805.5,354,807.1,353.1z
		"/>
	<path d="M866.1,321.9c0.5,3.4,1,6.8,1.4,10.2C866.8,328.7,865.5,325.5,866.1,321.9z"/>
	<path d="M753.9,370.6c1.8,0.6,2,1.2,1.1,3.4C753.6,373.3,753.3,372.3,753.9,370.6z"/>
	<path d="M770.9,327c1.7-0.1,3.2,0.2,4.5,1.7C773.4,329,772.2,327.9,770.9,327z"/>
	<path d="M819.5,364.2c-0.6-1.4-0.8-2.8,0-4.1C820,361.5,820,362.9,819.5,364.2z"/>
	<path d="M790,347.8c-0.9-0.4-1.9-0.8-3-1.2c2-0.7,2.2-0.7,3.2,0.8C790.1,347.5,790,347.6,790,347.8z"/>
	<path d="M884.3,340.7c1.1,1.7,0.1,3,0,4.3C884.3,343.8,884.3,342.5,884.3,340.7z"/>
	<path d="M854.2,372.2c-0.2,1.3-0.3,2.6-0.5,3.8c-0.2,0-0.4-0.1-0.6-0.1C853.5,374.7,853.9,373.5,854.2,372.2L854.2,372.2z"/>
	<path d="M750.1,361.5c0.3,0.8,0.6,1.7,1.1,2.9C749.9,363.3,749.9,363.3,750.1,361.5z"/>
	<path d="M809.2,352.4c0.4,0.9,0.4,1.5-0.6,1.8C808.1,353.3,808.5,352.9,809.2,352.4z"/>
	<path d="M799.6,354.7c0.3-0.3,0.6-0.6,0.8-0.9c0.1,0.1,0.2,0.2,0.3,0.3c-0.2,0.3-0.5,0.7-0.7,1C800,354.9,799.8,354.8,799.6,354.7z
		"/>
	<path d="M781.9,344.8c0.1,0.1,0.3,0.1,0.4,0.2c-0.1,0.1-0.1,0.3-0.2,0.4c-0.1,0-0.3-0.1-0.4-0.1C781.8,345.1,781.8,345,781.9,344.8
		z"/>
	<path d="M837.5,338.5c0,0.3,0,0.6-0.1,0.9c-0.1,0-0.1,0-0.2,0c0-0.3,0-0.6,0.1-0.9C837.4,338.5,837.4,338.5,837.5,338.5z"/>
	<path d="M854.7,370.3c0-0.5,0.1-0.9,0.1-1.4c0.1,0,0.2,0.1,0.3,0.1C855,369.4,854.8,369.8,854.7,370.3L854.7,370.3z"/>
	<path d="M854.6,370.2c-0.1,0.7-0.3,1.3-0.4,2l0.1,0.1C854.4,371.6,854.6,370.9,854.6,370.2L854.6,370.2z"/>
	<path d="M766.9,325.9c-0.2,0-0.5,0-0.7,0c0-0.1,0-0.1,0-0.2c0.2,0,0.5,0,0.7,0C766.9,325.8,766.9,325.8,766.9,325.9z"/>
	<path d="M813.9,363.2c0-0.2,0-0.5,0-0.7c0-0.1,0.1-0.3,0.3-0.4C814.1,362.5,814,362.8,813.9,363.2L813.9,363.2z"/>
	<path d="M760.5,323.6c-0.1,0-0.1-0.1-0.2-0.1c0.1,0,0.1-0.1,0.2-0.1c0.1,0,0.1,0.1,0.2,0.1C760.6,323.5,760.6,323.5,760.5,323.6z"
		/>
	<path d="M853.1,377.6c0,0-0.1,0-0.1-0.1c0-0.1,0-0.1,0-0.2c0,0,0.1,0,0.1,0.1C853.1,377.5,853.1,377.5,853.1,377.6z"/>
	<polygon points="855.4,366.9 855.5,367 855.4,367 	"/>
	<path d="M373.8,461.5c-0.7,0-1.4,0-2.1-0.2c-3.2-0.9-6.4-1.6-9.1-3.8c-0.6-0.4-1.2-0.8-1.8-1.2c-0.7-0.4-1.4-0.6-2.4-0.3
		c-1.4,0.5-3.1,0.4-4.6,0.7c-1.2,0.2-2.4,0.4-3.9,0.6c0.4-1.4,0.9-2.7,2.1-3.4c2-1.2,3.9-1.8,6.4-0.4c2.6,1.4,5.2,2.6,7.7,4.1
		c0.3,0.2,0.7,0.2,1.1,0.2C370.2,457.5,372.2,459,373.8,461.5z"/>
	<path d="M376.8,461.9c3.4,0.1,5.8,1.8,8.2,4.2c-0.6-0.1-1-0.2-1.4-0.3c-1.6-0.4-3.2-0.9-4.8-1.4
		C377.7,464.1,376.8,463.5,376.8,461.9z"/>
	<path d="M387.2,466.8c2.5,0,4.5,0.6,6.2,2.3C391.3,469.9,388.5,469,387.2,466.8z"/>
	<path d="M382.3,446.7c0.1,1.2-0.7,1.5-1.7,1.6c-1.4,0.2-2.7,0.3-4.2,0.5C378,446.8,380,446.4,382.3,446.7L382.3,446.7z"/>
	<path d="M479.2,516.2c-1.8-0.8-3.6-1.6-5.4-2.3c0.1-0.2,0.2-0.4,0.2-0.6c1.9,0.3,3.8,0.7,5.6,1.9
		C479.5,515.6,479.3,516,479.2,516.2L479.2,516.2z"/>
	<path d="M458.5,505.2c1.8,0,3.3,1.2,4,3.3C461.4,508.6,460.3,507.7,458.5,505.2z"/>
	<path d="M399,471.1c-1.2-0.5-2.5-0.9-3.9-1.5C397,468.5,398,468.8,399,471.1z"/>
	<path d="M403.1,471.7c2-0.5,2.6-0.3,3.7,1.3C405.1,473.6,404.5,473.4,403.1,471.7z"/>
	<path d="M327.1,444.5c-0.7-0.8-1.5-1.6-2.1-2.5c-0.2-0.3,0.1-0.8,0.2-1.2c0.4,0.1,1.1,0.1,1.2,0.4c0.5,1,0.8,2.1,1.2,3.2
		C327.4,444.3,327.3,444.4,327.1,444.5z"/>
	<path d="M467.1,510.3c0.9,0.2,1.8,0.4,3,0.7C468.7,512,468.7,512,467.1,510.3z"/>
	<path d="M332.1,440.5c0.1,0,0.3-0.1,0.3-0.1c0.1,0.1,0.1,0.2,0.2,0.3c-0.1,0-0.3,0.1-0.4,0.1C332.2,440.8,332.2,440.6,332.1,440.5z
		"/>
	<path d="M117.8,384.1c-0.9,0.1-1.2,0.2-1.5,0.2c-1.6-0.5-3.1,0-4.6,0.6c-1.2,0.5-2.6,0.7-3.9,1.1c-0.2,0.1-0.5,0-0.7,0
		c-1.4-0.1-2.4-0.6-2.4-1.5c0.1-1.3,1.2-1.2,2.2-1.3c2.3-0.3,4.7-0.6,7-0.9C115.4,382,116.4,382.9,117.8,384.1z"/>
	<path d="M118.8,404.9c-2.7,1.3-5.4,2.1-8.3,2.5c-0.6,0.1-1.4,0.2-1.5-0.6c0-0.4,0.5-1.2,0.9-1.3c0.9-0.3,2-0.5,3-0.6
		C114.8,404.8,116.7,404.9,118.8,404.9z"/>
	<path d="M41,401.7c-0.6,0.7-0.7,0.9-0.9,1c-1.6,0.9-3.2,1.8-4.8,2.6c-0.2,0.1-0.8-0.1-1-0.3c-0.2-0.2-0.1-0.8,0.1-1
		c0.2-0.4,0.6-0.7,1-1C36.9,401.8,38.7,401.7,41,401.7z"/>
	<path d="M214.8,400.6c-2.5,0.6-4.5-0.8-6.7-1.7c1.4-0.7,4.1-0.7,5.6,0C214.5,399.2,215.1,399.6,214.8,400.6z"/>
	<path d="M127.5,405.1c1.7-0.5,2.9-0.7,4.3,0.4C130.2,405.9,129,406.4,127.5,405.1z"/>
	<path d="M124.3,384.7c-1.3,0.3-2.7,0.7-4.2-0.5C121.9,383.3,123.1,383.9,124.3,384.7z"/>
	<path d="M53.1,401.1c-1.1,1.4-2.1,1-3.4,0.5C50.8,400.3,51.8,400.8,53.1,401.1z"/>
	<path d="M195.1,395.5c-0.6-0.4-1.2-0.8-1.8-1.2c1.1-0.5,1.7,0,2.2,0.7C195.3,395.1,195.2,395.3,195.1,395.5z"/>
	<path d="M128.1,385.3c0.7-1.1,1.4-0.9,2.6,0C129.5,385.3,128.8,385.3,128.1,385.3z"/>
	<path d="M137.3,386.5c-0.9,0.4-1.5,0.1-1.9-0.7C136.4,385.6,136.4,385.6,137.3,386.5z"/>
	<path d="M203,398.3c-0.7-0.3-1.5-0.7-2.4-1.1C202,397,202,397,203,398.3z"/>
	<path d="M47,402.3c-0.5-0.1-1-0.2-2-0.4c1-0.9,1.6-0.6,2.1-0.2C47.1,402,47,402.1,47,402.3z"/>
	<path d="M121,404.8c0.6-0.1,1.2-0.3,2.1-0.4c-0.6,1.2-1.3,1.1-1.9,1C121.1,405.2,121.1,405,121,404.8z"/>
	<path d="M871.7,375.8c4.5,2.6,7.1,7.5,5.9,10.9C876.4,382.5,874.8,378.8,871.7,375.8z"/>
	<path d="M878.2,380.3c-1.3-1.9-2.5-3.6-3.7-5.4C876.7,374.5,878.2,376.6,878.2,380.3z"/>
	<path d="M855.8,398c-1.2-1.8-0.7-3.7-0.2-5.5C856.6,394.3,856.3,396.2,855.8,398z"/>
	<polygon points="870.6,387.5 870.6,387.3 870.7,387.4 	"/>
	<path d="M860.2,387c0,0-0.1,0-0.1-0.1c0-0.1,0-0.1,0-0.2c0,0,0.1,0,0.1,0.1C860.3,386.9,860.3,387,860.2,387z"/>
</g>
</svg>
