<svg xmlns="http://www.w3.org/2000/svg" xmlns:xlink="http://www.w3.org/1999/xlink" viewBox="0 0 66 65" fill="#fff" fill-rule="evenodd" stroke="#000" stroke-linecap="round" stroke-linejoin="round">
	<use xlink:href="#B" x=".5" y=".5"/>
	<defs>
		<radialGradient id="A" cx="89%" cy="50%" r="105%" fx="89%" fy="50%">
			<stop offset="0%" stop-color="#f9be03"/>
			<stop offset="100%" stop-color="#cc7c19"/>
		</radialGradient>
	</defs>
	<symbol id="B" overflow="visible">
		<g stroke="none" fill-rule="nonzero">
			<path d="M64 52.8C64 59 59 64 52.8 64H11.2C5 64 0 59 0 52.8V11.2C0 5 5 0 11.2 0h41.6C59 0 64 5 64 11.2z" fill="#494949"/>
			<path d="M1e-13 1e-13L14.287 0l15.765 24.646-15.765 24.646H0l15.765-24.646L1e-13 1e-13" fill="url(#A)" transform="translate(19.885 7.354)"/>
		</g>
	</symbol>
</svg>
