<?xml version="1.0" encoding="utf-8"?>
<!-- Generator: Adobe Illustrator 19.0.0, SVG Export Plug-In . SVG Version: 6.00 Build 0)  -->
<svg version="1.1" id="Layer_1" xmlns="http://www.w3.org/2000/svg" xmlns:xlink="http://www.w3.org/1999/xlink" x="0px" y="0px"
	 viewBox="0 0 500 500" style="enable-background:new 0 0 500 500;" xml:space="preserve">
<style type="text/css">
	.st0{fill:url(#XMLID_36_);}
	.st1{fill:url(#XMLID_37_);}
	.st2{fill:url(#XMLID_41_);}
	.st3{fill:#FFFFFF;}
</style>
<g id="XMLID_1_">
	
		<linearGradient id="XMLID_36_" gradientUnits="userSpaceOnUse" x1="216.3251" y1="377.6819" x2="283.6785" y2="126.3175" gradientTransform="matrix(1 0 0 -1 0 502)">
		<stop  offset="0" style="stop-color:#F8E643"/>
		<stop  offset="1" style="stop-color:#BFA233"/>
	</linearGradient>
	<path id="XMLID_20_" class="st0" d="M94.3,163.5c-3.6,19-9.4,21.5-24.3,24.3v124.4c14.9,2,24,9.4,24.3,24.3h311.4
		c1.1-14.1,11.1-22.3,24.3-24.3V187.8c-14.9-1.1-23.2-8.6-24.3-24.3H94.3z"/>
	
		<linearGradient id="XMLID_37_" gradientUnits="userSpaceOnUse" x1="220.3021" y1="141.1735" x2="279.7013" y2="362.8525" gradientTransform="matrix(1 0 0 -1 0 502)">
		<stop  offset="0" style="stop-color:#F8E643"/>
		<stop  offset="1" style="stop-color:#BFA233"/>
	</linearGradient>
	<path id="XMLID_19_" class="st1" d="M108.8,174.9c-3.3,16.5-8.5,18.7-22,21.1v108c13.5,1.7,21.8,8.2,22,21.1h282.3
		c1-12.2,10-19.4,22-21.1V196c-13.5-1-21-7.4-22-21.1L108.8,174.9z"/>
	
		<linearGradient id="XMLID_41_" gradientUnits="userSpaceOnUse" x1="221.7211" y1="357.5468" x2="278.2761" y2="146.4762" gradientTransform="matrix(1 0 0 -1 0 502)">
		<stop  offset="0" style="stop-color:#F8E643"/>
		<stop  offset="1" style="stop-color:#BFA233"/>
	</linearGradient>
	<path id="XMLID_18_" class="st2" d="M112.4,179.5c-3.2,15.5-8.3,17.5-21.5,19.8v101.4c13.2,1.6,21.2,7.7,21.5,19.8h275.3
		c1-11.5,9.8-18.2,21.5-19.8V199.3c-13.2-0.9-20.5-7-21.5-19.8L112.4,179.5L112.4,179.5z"/>
	<path class="st3" d="M359.5,301.7c-3.2,0-6.1-0.7-8.9-2.1c-1.9-1-3.8-2.3-5.5-4l-0.9,3.5l-0.3,1.2h-1.2h-23.2h-1.5v-1.5v-99.5v-1.5
		h1.5h24.8h1.5v1.5v20c1.5-1.3,3-2.3,4.7-3c2.8-1.3,5.7-1.9,8.9-1.9c3.6,0,6.8,0.6,9.5,1.7c2.8,1.2,4.9,2.9,6.4,5
		c1.4,2.1,2.3,4.2,2.6,6.3c0.3,2,0.4,6,0.4,12V276c0,6.2-0.4,10.7-1.3,13.8c-0.9,3.2-3,6.1-6.2,8.4
		C367.8,300.5,363.9,301.7,359.5,301.7L359.5,301.7z M348.1,231.8c-1.3,0-1.5,0.5-1.6,0.7c-0.2,0.4-0.6,2-0.6,7.9v35.1
		c0,5.4,0.4,7.2,0.7,7.8c0.2,0.5,0.5,0.9,1.7,0.9c1.2,0,1.5-0.5,1.6-0.9c0.2-0.6,0.6-2.5,0.6-8.6v-34.2c0-5.2-0.4-7-0.7-7.6
		C349.6,232.2,349.2,231.8,348.1,231.8L348.1,231.8z M283.5,300.3h-32.6h-1.5v-1.5v-99.5v-1.5h1.5h19.3c12.7,0,21.1,0.6,25.7,1.8
		c4.7,1.2,8.3,3.3,10.8,6.1c2.5,2.8,4,6,4.6,9.5c0.6,3.3,0.9,9.6,0.9,19.2v34.9c0,9.1-0.4,15.1-1.3,18.3c-0.9,3.3-2.6,6-4.9,7.9
		c-2.3,1.8-5.1,3.1-8.4,3.9C294.5,299.9,289.8,300.3,283.5,300.3L283.5,300.3z M278.3,217.7v62.4c2.1-0.2,3.5-0.7,3.9-1.4
		c0.3-0.6,1.1-2.9,1.1-11.5v-38.7c0-5.4-0.2-7.5-0.4-8.3c-0.2-0.9-0.6-1.4-1.2-1.8C281.4,218.2,280.5,217.8,278.3,217.7L278.3,217.7
		z M242.2,300.3h-1.5h-22.6h-1.5v-1.5l-0.1-44.4l-6,44.6l-0.2,1.3H209h-16.1h-1.3l-0.2-1.3l-6.4-44.6l-0.1,44.4l0,1.5h-1.5h-22.6
		h-1.5v-1.5v-99.5v-1.5h1.5h33.5h1.3l0.2,1.3l1,7.2c0.6,4.3,1.3,8.9,2,14l2.1,14.2l4.5-35.3l0.2-1.3h1.4h33.7h1.5v1.5v99.5
		L242.2,300.3L242.2,300.3z M151.9,300.3h-1.5h-25.9H123v-1.5v-99.5v-1.5h1.5h25.9h1.5v1.5v99.5V300.3L151.9,300.3z"/>
	<rect id="XMLID_11_" x="124.5" y="199.2" width="25.9" height="99.5"/>
	<path id="XMLID_10_" d="M240.6,199.2v99.5h-22.6l-0.1-67.2l-9,67.2h-16.1l-9.4-65.7l-0.1,65.7h-22.6v-99.5h33.5
		c0.9,6,1.9,13.1,3.1,21.2l3.7,25.3l6-46.5H240.6z"/>
	<path d="M276.8,216.2v65.6c3.7,0,6-0.7,6.8-2.3c0.8-1.5,1.3-5.6,1.3-12.2v-38.7c0-4.5-0.1-7.4-0.4-8.7c-0.3-1.3-0.9-2.2-1.9-2.8
		C281.5,216.5,279.6,216.2,276.8,216.2 M250.9,199.2h19.3c12.5,0,20.9,0.6,25.3,1.7c4.4,1.2,7.7,3,10,5.7c2.3,2.6,3.7,5.5,4.3,8.8
		c0.6,3.2,0.9,9.5,0.9,19v34.9c0,8.9-0.4,14.9-1.3,17.9c-0.8,3-2.3,5.4-4.4,7.1c-2.1,1.7-4.7,2.9-7.7,3.6c-3.1,0.7-7.7,1-13.9,1
		h-32.6L250.9,199.2L250.9,199.2z"/>
	<path d="M352.1,240.4c0-4.2-0.3-6.9-0.8-8.2c-0.5-1.3-1.6-1.9-3.2-1.9c-1.5,0-2.5,0.6-3,1.7c-0.5,1.1-0.7,4-0.7,8.5v35.1
		c0,4.4,0.3,7.2,0.8,8.4c0.5,1.2,1.5,1.8,3.1,1.8c1.6,0,2.6-0.6,3.1-1.9c0.5-1.3,0.7-4.3,0.7-9.1L352.1,240.4L352.1,240.4z
		 M344.5,199.2v23.7c2.1-2.4,4.3-4.2,6.9-5.4c2.5-1.2,5.3-1.8,8.2-1.8c3.4,0,6.4,0.5,8.9,1.6c2.5,1.1,4.4,2.6,5.7,4.5
		c1.3,1.9,2.1,3.8,2.4,5.7c0.3,1.8,0.4,5.8,0.4,11.8V276c0,6-0.4,10.4-1.2,13.4c-0.8,2.9-2.7,5.5-5.6,7.6c-3,2.1-6.5,3.2-10.5,3.2
		c-2.9,0-5.7-0.6-8.2-1.9c-2.5-1.3-4.9-3.2-6.9-5.8l-1.6,6.2h-23.2v-99.5H344.5z"/>
	<path d="M386.5,210.6h1c1.1,0,2.1-0.4,2.1-1.4c0-0.7-0.5-1.5-2.1-1.5c-0.4,0-0.7,0-1,0.1V210.6z M386.5,215.3h-1.3v-8.4
		c0.7-0.1,1.4-0.2,2.4-0.2c1.3,0,2.1,0.3,2.6,0.6c0.5,0.4,0.8,0.9,0.8,1.7c0,1.1-0.7,1.8-1.6,2v0.1c0.7,0.1,1.2,0.8,1.4,2.1
		c0.2,1.3,0.4,1.8,0.5,2.1h-1.4c-0.2-0.3-0.4-1-0.6-2.1c-0.2-1.1-0.7-1.5-1.8-1.5h-0.9L386.5,215.3L386.5,215.3z M387.9,204.5
		c-3.3,0-6,2.9-6,6.4c0,3.6,2.7,6.4,6.1,6.4c3.4,0,6-2.8,6-6.4C394,207.3,391.3,204.5,387.9,204.5L387.9,204.5z M387.9,203.3
		c4.1,0,7.4,3.4,7.4,7.6c0,4.3-3.3,7.6-7.5,7.6c-4.1,0-7.5-3.3-7.5-7.6C380.4,206.7,383.8,203.3,387.9,203.3L387.9,203.3z"/>
</g>
</svg>
