<?xml version="1.0" encoding="utf-8"?>
<!-- Generator: Adobe Illustrator 18.1.1, SVG Export Plug-In . SVG Version: 6.00 Build 0)  -->
<svg version="1.1" id="Layer_1" xmlns="http://www.w3.org/2000/svg" xmlns:xlink="http://www.w3.org/1999/xlink" x="0px" y="0px"
	 viewBox="0 0 312.5 91.3" enable-background="new 0 0 312.5 91.3" xml:space="preserve">
<g>
	<path fill="#F37B20" d="M43.7,27.4v52l-5.1,3.1l-5.1-3.1V27.4l-13.2,8.2V80l18.4,11.2L57.2,80V35.5L43.7,27.4z M38.6,0L0,23.4v44.5
		l10,5.9V29.3l28.6-17.4l28.6,17.4l0.1,0.1l0,44.4l9.9-5.8V23.4L38.6,0z"/>
	<path fill="#FAB37C" d="M77.3,23.4L38.6,0L0,23.4l10,5.9l28.6-17.4l28.7,17.4L77.3,23.4z M43.7,27.4v16.4l13.4-8.2L43.7,27.4z
		 M20.3,35.6l13.2,8.1V27.4L20.3,35.6z"/>
	<polygon fill="#171113" points="136.3,66.2 133.6,32.2 120.1,66.4 115.7,66.4 102.2,32.2 99.6,66.2 94.2,66.2 97.6,23.5 
		104.8,23.5 118.1,58.5 131.4,23.5 138.5,23.5 141.9,66.2 	"/>
	<path fill="#171113" d="M164.4,51.2c-10.9,1.1-13.2,4-13.2,7.1c0,2.4,1.6,4,4.4,4c3.2,0,6.3-1.6,8.8-4.2V51.2z M165.4,66.2l-0.6-4
		c-2.4,2.4-5.6,4.6-10.4,4.6c-5.3,0-8.7-3.2-8.7-8.2c0-7.4,6.3-10.3,18.6-11.6v-1.2c0-3.7-2.2-5-5.6-5c-3.6,0-7,1.1-10.2,2.5
		l-0.7-4.8c3.5-1.4,6.9-2.5,11.5-2.5c7.2,0,10.7,2.9,10.7,9.5v20.7H165.4z"/>
	<path fill="#171113" d="M186.4,40.1c-3.7,0-6,2.9-6,6.4c0,3.4,2.4,6.1,6,6.1c3.8,0,6.1-2.8,6.1-6.3
		C192.5,42.7,190.1,40.1,186.4,40.1 M178.3,69.4c0,2.4,3,4.1,8.8,4.1c5.8,0,9-2,9-4.5c0-1.8-1.4-3-5.6-3.8l-3.5-0.6
		c-1.6-0.3-2.5-0.5-3.7-0.7C179.9,65.6,178.3,67.4,178.3,69.4 M201.5,36.2l0.8,5l-5.6,0.6c0.8,1.4,1.2,2.9,1.2,4.6
		c0,6.3-5.3,10.2-11.3,10.2c-0.7,0-1.5-0.1-2.2-0.2c-0.9,0.6-1.5,1.2-1.5,1.8c0,1.1,1,1.3,6.2,2.2l2.1,0.4
		c6.3,1.1,10.2,3.1,10.2,7.7c0,6.2-6.8,9.1-14.4,9.1c-7.7,0-13.8-2.4-13.8-7.6c0-3,2.1-5.4,6.3-7.6c-1.3-0.9-1.9-2-1.9-3.1
		c0-1.4,1.1-2.8,3.1-4c-3.3-1.6-5.5-4.8-5.5-8.8c0-6.4,5.3-10.3,11.3-10.3c3,0,5.6,0.9,7.6,2.5L201.5,36.2z"/>
	<path fill="#171113" d="M215.1,40.4c-3.4,0-6.3,2.4-7.2,7.5h14.2C221.5,43.1,219.4,40.4,215.1,40.4 M227.8,52h-20.1
		c0.2,6.9,3.5,10.1,8.6,10.1c4.3,0,7.4-1.7,10.6-4.2l0.8,5c-3.2,2.5-6.9,4-11.8,4c-7.7,0-13.7-4.6-13.7-15.5c0-9.5,5.6-15.3,13-15.3
		c8.6,0,12.6,6.6,12.6,14.8V52z"/>
	<path fill="#171113" d="M251,66.2V46.1c0-3-1.3-5.1-4.5-5.1c-2.9,0-5.9,1.9-8.5,4.8v20.4h-5.5V36.7h4.4l0.7,4.3
		c2.8-2.5,6.3-4.9,10.5-4.9c5.6,0,8.5,3.3,8.5,8.7v21.5H251z"/>
	<path fill="#171113" d="M272.8,66.7c-5.2,0-8.6-1.9-8.6-7.8V41.3h-4.5v-4.6h4.5v-9.8l5.4-0.8v10.7h6.4l0.7,4.6h-7.1v16.6
		c0,2.4,1,3.9,4.1,3.9c1,0,1.9-0.1,2.5-0.2l0.7,4.7C276,66.5,274.7,66.7,272.8,66.7"/>
	<path fill="#171113" d="M291.1,40.7c-5.3,0-8,4.6-8,10.8c0,6.1,2.8,10.8,8,10.8c5.4,0,8.2-4.6,8.2-10.8
		C299.2,45.4,296.4,40.7,291.1,40.7 M291.1,66.8c-7.9,0-13.6-5.6-13.6-15.4c0-9.7,5.7-15.4,13.6-15.4c7.9,0,13.7,5.7,13.7,15.4
		C304.8,61.2,299,66.8,291.1,66.8"/>
	<path fill="#171113" d="M308.7,35.6h-0.6v1.3h0.5c0.5,0,0.8-0.2,0.8-0.6C309.5,35.8,309.2,35.6,308.7,35.6 M309.8,39.3l-1.3-1.8
		h-0.4v1.8h-0.7V35h1.3c0.9,0,1.5,0.4,1.5,1.2c0,0.6-0.3,1-0.9,1.2l1.2,1.7L309.8,39.3z M308.7,33.8c-1.8,0-3.2,1.2-3.2,3.4
		c0,2.2,1.4,3.4,3.2,3.4c1.8,0,3.2-1.2,3.2-3.4C311.9,35.1,310.5,33.8,308.7,33.8 M308.7,41.1c-2.2,0-3.8-1.5-3.8-3.8
		c0-2.3,1.6-3.9,3.8-3.9c2.2,0,3.8,1.6,3.8,3.9C312.5,39.5,310.9,41.1,308.7,41.1"/>
</g>
</svg>
