<?xml version="1.0" encoding="UTF-8" standalone="no"?>
<svg width="256px" height="235px" viewBox="0 0 256 235" version="1.1" xmlns="http://www.w3.org/2000/svg" xmlns:xlink="http://www.w3.org/1999/xlink" preserveAspectRatio="xMidYMid">
    <g>
        <path d="M81.4007415,85.3744051 C103.935442,63.3980475 126.74373,69.6319406 126.74373,69.6319406 C162.198473,77.1695633 160.311276,109.804678 160.311276,109.804678 C169.981767,75.6732056 131.475682,60.338331 131.475682,60.338331 C175.71036,74.2466407 170.57361,110.390937 170.57361,110.390937 C169.177754,132.166292 149.847939,141.339858 149.847939,141.339858 C185.132388,133.243893 178.490905,92.8869024 178.490905,92.8869024 C185.724231,132.6688 165.548528,144.728996 154.381679,150.591592 C135.398037,160.362584 117.397077,148.347055 117.397077,148.347055 C144.097012,174.538898 174.040916,148.525725 174.040916,148.525725 C149.281221,172.174318 125.906216,163.712639 125.906216,163.712639 C92.9640131,153.662475 95.5156379,124.879923 95.5156379,124.879923 C85.5548092,158.771308 123.686805,173.285419 123.686805,173.285419 C95.0326718,166.331264 87.3805889,141.378942 87.3805889,141.378942 C77.6095965,103.132486 105.395507,92.8673604 105.395507,92.8673604 C70.5884406,100.379858 76.9507525,140.736848 76.9507525,140.736848 C70.2729771,112.917437 84.868048,96.1532056 84.868048,96.1532056 C109.714286,67.9569133 137.796118,85.3297377 137.796118,85.3297377 C111.651734,59.3472732 81.2388222,85.2655284 81.2388222,85.2655284 M154.940022,211.171744 C183.415485,208.659203 236.737186,200.563238 256,110.670109 C256,110.670109 230.59542,215.917655 147.123228,193.583958 C147.123228,193.583958 201.561614,185.208822 223.336968,140.541428 C223.336968,140.541428 265.770992,68.7944269 184.811341,0.955822805 C184.811341,0.955822805 262.97928,77.1695633 204.074155,138.308058 C204.074155,138.308058 234.503817,62.9318315 166.10687,16.8685818 C166.10687,16.8685818 123.672846,-16.3527922 57.2300981,10.447644 C57.2300981,10.447644 158.569248,-21.9362165 184.252999,62.0943179 C184.252999,62.0943179 132.327154,-1.27754688 55.8342421,36.4105665 C55.8342421,36.4105665 10.3293348,59.0234346 0,123.791155 C0,123.791155 25.6837514,18.8227803 107.480916,41.7148195 C107.480916,41.7148195 34.0588877,45.0648741 21.7753544,133.562148 C21.7753544,133.562148 15.912759,193.025616 70.6303162,232.388756 C70.6303162,232.388756 -7.53762268,157.850043 51.3675027,97.5490616 C51.3675027,97.5490616 23.1712105,163.99181 84.0305344,214.242628 C84.0305344,214.242628 125.906216,253.047426 198.490731,224.292791 C198.490731,224.292791 97.9890949,256.955823 71.4678299,171.808604 C71.1886587,172.087775 106.364231,215.638484 154.940022,211.171744" fill="#348DCC"/>
    </g>
</svg>