<?xml version="1.0" encoding="utf-8"?>
<!-- Generator: Adobe Illustrator 19.2.0, SVG Export Plug-In . SVG Version: 6.00 Build 0)  -->
<svg version="1.1" id="Layer_1" xmlns="http://www.w3.org/2000/svg" xmlns:xlink="http://www.w3.org/1999/xlink" x="0px" y="0px"
	 viewBox="0 0 100 50" style="enable-background:new 0 0 100 50;" xml:space="preserve">
<style type="text/css">
	.st0{fill:#010101;}
</style>
<g transform="matrix( 1, 0, 0, 1, 232.25,61.85) ">
	<g transform="matrix( 1, 0, 0, 1, 0,0) ">
		<g>
			<g id="canneslions_0_Layer0_0_FILL">
				<path class="st0" d="M-185.4-44.4h-0.2c-0.4,0.8-1.1,1.3-2.3,1.5c-0.6,0.8-1.2,1.3-1.8,1.5c-0.3,0.1-0.8,0.2-1.6,0.2v1.8
					c0,0.1,0.1,0.3,0.3,0.5c0.1,0.2,0.2,0.5,0.3,0.8l0.2,0.1c0-0.1,0.1-0.8,0.1-1.8c-0.2-0.3-0.2-0.5-0.1-0.5
					c0.1-0.1,0.8-0.5,2.1-1.3c0.1,0.2,0.2,0.4,0.1,0.5c-0.2,0.5-0.7,0.8-1.6,1.1v0.1c0.1,0,0.3,0,0.6-0.1c0.2,0,0.4,0,0.6,0.1
					c0,0.7-0.2,1.4-0.4,2.2l0.2,0l3.6-6.2V-44.4 M-193.1-40.7h0.2c-0.2-0.8-0.3-1.7-0.2-2.8h-0.2c-0.1,0.7-0.1,1.2-0.1,1.4
					C-193.4-41.6-193.3-41.1-193.1-40.7 M-192.5-40.4h-0.2c-0.3,1.2-0.5,2.6-0.7,4.3l0.1,0.1L-192.5-40.4 M-188.3-50l-1-0.5
					c-0.3-0.1-0.6-0.2-0.8-0.1c-0.3,0.1-0.6,0.2-0.7,0.4c-0.2,0.3-0.3,0.9-0.6,1.8c-0.1,0.3-0.2,0.5-0.4,0.8
					c-0.3,0.3-0.5,0.5-0.7,0.7c0.1,0,0.1,0,0.1,0.2c0.5-0.2,1-0.8,1.4-2c0.4-1,0.9-1.5,1.4-1.5l0.9,1.2c0.3,0.2,0.8,0.4,1.4,0.5
					c0.4,0.1,0.6,0.4,0.6,0.9c0,0.5-0.1,0.8-0.3,1c0.1,0,0.1,0,0.1,0.2l0.6-0.2c0.1-0.6,0.2-1,0.6-1.2c0.2-0.1,0.4-0.3,0.4-0.6
					c-0.2-0.5-0.4-0.8-0.6-0.9c-0.2-0.1-0.5-0.2-1.1-0.2C-187.4-49.6-187.9-49.7-188.3-50 M-185.3-53.2v-0.2c-1.3-0.6-2.1-0.9-2.6-1
					c-0.8-0.1-1.7,0.1-2.8,0.8c-0.4,0.3-1,0.5-1.8,0.8c-0.8,0.3-1.4,0.5-1.8,0.5c-1.5,0.5-2.5,0.9-2.9,1.2c-0.7,0.5-1.2,1.3-1.4,2.5
					c-0.4,1.9-1.2,3.6-2.4,5.1c-0.4,1.3-0.1,2.8,0.9,4.5c1,1.6,1.8,2.7,2.4,3.2c-0.1-0.2-0.4-1-1.1-2.2c-0.7-1.3-1.1-2.3-1.2-3.1
					c-0.1-0.6,0-1.1,0.2-1.5c0.2-0.5,0.8-1.1,1.6-1.6c0.6-0.8,1-2,1.4-3.5c0.3-1.3,0.7-2.2,1.2-2.7c0.5-0.5,1.4-0.8,2.8-1l0.1,0.2
					c-0.1,0.3-0.2,0.4-0.3,0.5c-0.2,0.2-0.4,1-0.8,2.2c-0.1,0.3-0.9,1.5-2.4,3.6c-1.1,1.5-1.5,2.8-1.2,4c0.1,0.2,0.5,1.2,1.4,3
					c0.1,0.4,0.1,1-0.1,1.7c-0.1,0.6-0.1,1.1-0.1,1.5c0.1,0.6,0.7,1.6,1.6,2.9h0.1c-0.3-0.6-0.4-1.2-0.4-1.8c0-0.2,0.2-0.9,0.5-1.9
					c0.1-0.4,0.2-1,0.1-2c-1-2.4-1.3-3.9-1.1-4.7c0.8-1.2,1.6-2.7,2.4-4.6c0.2-1.4,0.3-2.2,0.3-2.2c0-0.1,0.2-0.4,0.4-1.1
					c0.7-1.5,1.7-2.2,3-2.3c1.3-0.1,2.8,0.5,4.5,1.9c0.7,0.7,1,1.5,0.7,2.4c-0.2,0.5-0.5,1.4-1,2.6l0.2,0c0.1-0.6,0.4-1.1,1-1.7
					c0.2-0.2,0.4-0.6,0.6-1.1c0.2-0.6,0.3-1,0.4-1.2c0.1-0.1,0.1-0.3,0-0.4c-0.1-0.2-0.2-0.3-0.2-0.4c-0.3-0.3-0.8-0.6-1.3-0.8
					c-0.7-0.4-1.2-0.5-1.5-0.4c-0.9-0.5-1.5-0.8-1.8-0.9c-0.6-0.2-1.2-0.4-1.9-0.4v-0.2c1-0.5,1.7-0.7,2.2-0.8
					C-187-53.9-186.2-53.7-185.3-53.2 M-181.7-43.6c-0.3,0-0.4-0.4-0.4-1.2h-0.2l-0.2,0.2c-0.5,0.4-1.1,1.2-1.9,2.2
					c-0.7,1-1.6,2.5-2.7,4.4c-0.5,1.1-0.9,1.7-1.1,2c-0.4,0.6-0.8,0.9-1.1,0.9l-0.1,0.2c0.3,0,0.7-0.1,1.2-0.3
					c0.3-0.1,0.6-0.2,1.1-0.5c0.5,0.1,0.6,0.5,0.5,1.1c-0.8,0.6-1.5,0.9-2.2,0.8c-0.7,0-1.5-0.4-2.5-1l0.1-0.3
					c0.4-0.3,0.7-0.5,0.9-0.6l0-0.3l-0.8,0c-0.6-0.3-0.9-0.3-1-0.1c-0.2,0.4-0.6,0.6-1.2,0.6c0.2,0.5,0.5,0.8,0.9,1
					c0.3,0.1,0.7,0.3,1.3,0.5c0.7,0.1,0.9,0.6,0.7,1.7c-0.2,0.1-0.4,0.2-0.5,0.3c-1.7,0.4-2.7,1.4-3,3l0.2,0
					c0.8-1.1,2.1-1.7,4.1-1.9c-0.1,0.2-0.4,0.5-1,0.9c-0.9,0.6-1.4,0.9-1.6,1.1c-0.9,1-1.5,1.8-1.9,2.4c0,0.1,0,0.1,0.1,0.2l0.2-0.2
					c0.1-0.1,0.3-0.2,0.4-0.4c0.8-0.5,1.9-0.8,3.3-0.9c0.7-0.1,1.2-0.2,1.2-0.6c0.5-1.3,1.5-2.2,3-2.7l0,0.1
					c-0.5,0.3-0.9,0.6-1.2,0.8l-0.9,1.2v0.2h0.2c0.4-0.9,2.2-1.6,5.4-2.3l0.1,0.1c-0.7,0.4-1.3,0.7-1.7,0.9c-1.3,0.6-2.3,1.2-3,1.7
					l-0.8,0.8c0,0-0.6,0.4-1.7,1c-1.1,0.9-1.9,1.5-2.5,2c-1.5,1.3-2.6,2.3-3.4,2.9c-1.3,1.1-2.5,2-3.4,2.6c-1,0.5-1.9,0.8-2.8,1
					c-0.3,0-0.5,0-0.6-0.1c-0.8-0.3-1.4-0.5-1.7-0.5c-0.6,0-1.4,0.1-2.2,0.5v0.2l1.2-0.1c0,0.2-0.2,0.3-0.6,0.3
					c-0.7,0-1.2,0.3-1.6,0.8c-0.8,1.1-0.9,2-0.2,2.6c0.2,0.2,0.6,0.4,1.2,0.6l1.2,0.6c1.1-0.3,2.1-0.4,3-0.4
					c1.1,0.2,1.6,0.4,1.7,0.4c0.6,0.1,1.2,0,1.9-0.1c0.3-0.1,0.8-0.1,1.4,0c0.1-0.1,0.5-0.2,1-0.2c0.6,0,1.3,0,2,0.1
					c2.4-0.6,4.9-0.6,7.4,0.1c1.1,0,1.8,0,2.1,0.1l7,0c-0.1-0.1-0.2-0.2-0.2-0.2c0.4-0.1,1-0.2,1.8-0.2c2.3,0.1,4.3,0.2,6.1,0.2
					l1.5-0.1c0.3,0,0.7-0.1,1.3-0.2c0.6,0,1.6,0,3.2,0.1l2.7-0.3V-14c-1.5,0-3.9-0.1-6.9-0.3c-3.1-0.2-5.4-0.4-7-0.4l-0.1-0.2
					c1.8-0.5,4.3-0.8,7.4-0.8c0.4,0,3,0.1,7.8,0.1c0.2,0,0.8-0.1,1.9-0.2h1.2V-16c-6-0.4-9.9-0.6-11.5-0.6c-3-0.5-6.2-0.6-9.7-0.3
					c-1.3,0.1-4.4,0.6-9.2,1.4c-1.5-0.1-3.4,0-5.8,0.2c-0.2,0-0.2,0-0.2-0.1c0-0.3,0.2-0.7,0.6-1.1c0.4-0.4,0.9-0.8,1.4-1.1
					c0.8-0.4,1.7-0.8,2.8-1.2c0.9-0.3,1.6-0.5,2-0.6c2.2,0,3.5,0,3.9-0.1c0.5-0.1,1.2-0.3,2.1-0.8c0.7-0.3,1.2-0.6,1.4-1
					c0.2-0.2,0.3-0.7,0.4-1.6c0.2-0.4,0.4-0.7,0.6-0.8c0.8-0.4,2.2-0.4,4-0.2c1.4,0.1,2.6,0,3.7-0.4c1-0.4,1.8-1,2.3-1.9
					c0-0.5,0.1-0.9,0.3-1.4c0.2-0.5,0.5-0.8,0.8-0.9c0.1,0,0.2-0.1,0.2-0.3c-0.6-1-0.4-2.2,0.8-3.6l0.4-0.5v-0.2
					c-0.5,0.1-1.2,0.3-1.9,0.7c-1.7,0.9-3.4,2.6-5.1,5.2c-0.2,0.2-0.4,0.3-0.6,0.4c-0.1,0-0.4,0-0.9,0.1c-0.5,0.1-1.4,0.1-2.8,0.1
					c-1.2,0-2,0.1-2.4,0.2c-1.4,0.5-2.3,1.1-2.8,2c-0.1,0.3-0.3,0.8-0.5,1.6c-0.1,0.3-0.3,0.5-0.4,0.6c-0.2,0.2-0.6,0.4-1.1,0.5
					c-3.3,0.4-5.6,1-7.1,1.6c-0.5,0.2-1.2,0.7-2.3,1.5c-1.3,1-2.6,2.2-3.8,3.5c-1.1,0.9-2.7,1.1-4.9,0.5c-0.6,0.1-1,0-1.2-0.1
					c-0.1-0.1,0-0.3,0.1-0.6c0.7-0.1,2-0.5,3.8-1.2l0.1-0.1c-0.7,0.3-1.2,0.4-1.5,0.5c-0.2,0-0.9,0-2.2,0c-0.4,0.1-0.6,0.2-0.8,0.2
					c-0.1,0.2-0.2,0.6-0.4,1.2c-0.1,0.4-0.3,0.6-0.5,0.5c-0.3-0.6-0.4-1-0.3-1.2c0.2-0.5,0.8-0.9,1.7-1.2c1.8-0.3,3.7-0.9,5.5-1.8
					c2.3-1.2,5.2-3.4,8.7-6.7c1.6-1.3,3.6-2.6,6-4c1.9-1.1,3.5-1.9,4.8-2.4c2.5-1,4.4-1.6,5.6-2c0.8-0.2,1.9-0.5,3.4-0.7v-0.1
					c-1.4-0.1-2.3-0.2-2.8-0.2c-0.9,0-1.6,0.1-2.2,0.4c-1,0.4-2,0.7-3.2,0.9c0-0.2,0.1-0.5,0.2-1c0.3-0.8,0.5-1.2,0.6-1.5l0.1-0.6
					c0.1-0.1,0.1-0.2,0.2-0.5c0.7-0.7,1.2-1.3,1.3-1.7c0.2-0.7-0.2-1.4-1.1-2.1c-1.4-0.5-2.4-0.9-2.9-1.2c-0.8-0.4-1.5-1.2-2.2-2.2
					h-0.5L-181.7-43.6 M-182.2-41.9l0.3,0.1c0,0.8,0.2,1.6,0.6,2.3c0.2,0.4,0.4,0.7,0.6,1.1c0,0.1-0.1,0.2-0.2,0.4
					c-0.1,0.1-0.4,0.4-1.1,0.8l-1.2,2.3h-0.2v-4.3h-0.2c-0.7,0.8-1.2,1.3-1.3,1.5c-0.4,0.6-0.6,1.3-0.7,2.1c-0.3,0-0.7-0.1-1.2-0.3
					c0-0.3,0.1-0.7,0.3-1c0.1-0.2,0.4-0.5,0.9-0.9l1.6-1.8C-183.2-40.5-182.6-41.2-182.2-41.9 M-180.8-41.4c0.2,0.1,0.4,0.3,0.8,0.6
					c0.4,0.3,1.1,0.5,2,0.8c1.1,0.6,1.4,1.2,0.9,2c-0.6,0.3-0.9,0.6-1.2,0.9c-0.2,0.3-0.3,0.7-0.4,1.2c-0.1,0.6-0.2,1.1-0.4,1.5
					c-0.6,1.1-1.7,1.7-3.1,1.7l-0.3-0.2c0.1-0.1,0.3-0.3,0.7-0.7c0.3-0.2,0.4-0.5,0.4-0.9c0.1-0.7,0.5-1.1,1.2-1.3l0.9-0.3
					c0.3-0.3,0.5-0.5,0.5-0.8l0-1.1c-0.6-0.6-1-1.1-1.3-1.5C-180.6-40.3-180.8-40.9-180.8-41.4 M-206.1-15.5
					c-0.2,0.2-0.3,0.2-0.5,0.2c-0.3-0.4-0.3-0.8-0.1-1.1c0.2-0.3,0.5-0.5,1-0.6c0.2,0,0.5-0.1,0.9-0.2c0.3-0.1,0.5-0.1,0.6,0
					l-0.3,0.2c-0.6,0.3-1,0.7-1.2,1L-206.1-15.5 M-174.3-45.2c0.8,0.3,1.5,0.8,2.1,1.6c0.1,0.2,0.4,0.4,0.9,0.6
					c0.2,0.5,0.2,1.4,0.1,2.8c0.4,0,0.8,0,1-0.2c0.7-0.4,1.1-0.8,1-1.4c0-0.2-0.1-0.4-0.1-0.5c-1.4-1.1-2.3-1.7-2.7-2
					c-0.6-0.5-1-0.8-1.2-0.9s-0.6-0.2-1.1-0.2V-45.2 M-173.5-42.2c-0.2-0.3-0.5-1-0.8-2.2c-0.4-0.7-1.1-1-2-1
					c-0.4,0.4-1.3,0.4-2.8,0.1l-1.8,0.2c0.1,0.3,0.5,0.5,1.3,0.8c0.7,0.3,1.3,0.4,1.7,0.4c0.5-0.2,0.8-0.2,0.9-0.2
					c0.4,0,0.7,0.2,0.9,0.7c0.3,0.6,0.8,1.2,1.7,2c0.8,0.7,1.4,1.4,1.7,2c0.2,0.3,0.2,0.7,0.1,1.1c-0.1,0.2-0.2,0.5-0.3,0.9
					c-0.8,1.4-1.6,2.2-2.4,2.5c0,0.3-0.1,0.5-0.2,0.5v0.2c1-0.2,2-0.7,2.9-1.5c0.9-0.9,1.4-1.8,1.5-2.8c0.1-0.9-0.2-1.7-0.9-2.2
					C-172.7-41.3-173.3-41.8-173.5-42.2 M-172.5-50.4c-0.3-0.2-0.6-0.3-0.9-0.4c-0.4-0.2-0.8-0.2-1.1-0.1c-0.6-0.5-1.1-0.8-1.5-0.8
					c0.1,0.2,0.2,0.4,0.4,0.5c1.5,0.7,2.1,1.2,1.8,1.7c-0.8,0.4-1.3,0.7-1.5,0.9c-0.3,0.3-0.5,0.8-0.6,1.5c-0.9,0.2-1.5,0.3-1.7,0.4
					c-0.3,0.1-0.7,0.5-1.4,1.1l-0.1,0.1l0.6,0.2c0.4-0.1,0.9-0.2,1.5-0.6c0.6-0.2,1.5-0.2,2.6-0.1c0.2-0.3,0.4-0.5,0.4-0.7
					c0.1-0.2,0.1-0.6,0-1.1c0.6-0.4,1-0.8,1.2-1C-172.5-49.2-172.5-49.7-172.5-50.4 M-180.6-49.4c0.1-0.1,0.1-0.3,0.2-0.6
					c0.4-1,0.3-1.8-0.3-2.4c-0.5-0.5-1.2-0.7-2.2-0.7c-0.1,0.1-0.2,0.2-0.3,0.2l-1.6,0c0.1,0.4,0.5,0.6,1.3,0.6c0.5,0,1.1,0,1.8-0.1
					c0.6,1,0.5,1.9-0.2,2.8c-1,1.2-1.5,2.1-1.6,2.6h0.2c0.1-0.1,0.3-0.2,0.5-0.3c0.5,0,0.9-0.5,1.2-1.4c0.4-0.2,0.6-0.3,0.9-0.3
					L-180.6-49.4 M-178.9-49.8c0-0.6-0.1-1-0.5-1.2c-0.5,1.5-1.1,2.6-2.1,3.3c-0.7,0.4-1.2,0.7-1.6,0.9c-0.6,0.4-1,0.8-1.2,1.2
					c0.8-0.2,1.7-0.5,2.7-1.1c1-0.6,1.8-1.2,2.3-1.8C-179-48.8-178.9-49.3-178.9-49.8 M-179.9-53.8c-0.2,0-0.4,0-0.5,0
					c0.4,0.8,1.2,1.7,2.5,2.8c0.6,0.9,0.5,1.9-0.3,2.9c-0.6,0.9-1.5,1.5-2.6,2l0,0.2c0.7,0,1.5-0.2,2.3-0.6c0.9-0.4,1.7-0.8,2.2-1.2
					c0.7-0.7,0.8-1.5,0.2-2.4c-1.1-1.2-1.7-1.9-1.8-2C-178.7-53.2-179.4-53.7-179.9-53.8z"/>
			</g>
		</g>
	</g>
</g>
</svg>
