<?xml version="1.0" encoding="utf-8"?>
<!-- Generator: Adobe Illustrator 22.1.0, SVG Export Plug-In . SVG Version: 6.00 Build 0)  -->
<svg version="1.1" id="Layer_1" xmlns="http://www.w3.org/2000/svg" xmlns:xlink="http://www.w3.org/1999/xlink" x="0px" y="0px"
	 viewBox="0 0 30 30" style="enable-background:new 0 0 30 30;" xml:space="preserve">
<style type="text/css">
	.st0{fill:none;stroke:#3E4548;stroke-width:0.68;stroke-linecap:square;stroke-miterlimit:10;}
	.st1{fill:none;stroke:#6CC04A;stroke-width:0.68;stroke-linecap:square;stroke-miterlimit:10;}
</style>
<title>App_launcher/icon/RA</title>
<desc>Created with Sketch.</desc>
<g transform="translate(0, 0)">
	<polyline class="st0" points="19.1,7.7 23.5,7.7 23.5,25.4 6.5,25.4 6.5,7.7 10.9,7.7 	"/>
	<polyline class="st1" points="12.6,16.2 14.3,17.9 17.7,14.5 	"/>
	<path class="st0" d="M17.4,7c0-1.3-1.1-2.4-2.4-2.4S12.6,5.7,12.6,7h-1.7v2.7h8.2V7H17.4z"/>
	<circle class="st0" cx="15" cy="7" r="0.7"/>
	<polyline class="st1" points="21.1,11.1 21.1,23 8.9,23 8.9,11.1 	"/>
</g>
</svg>
