<?xml version="1.0" encoding="utf-8"?>
<!-- Generator: Adobe Illustrator 22.1.0, SVG Export Plug-In . SVG Version: 6.00 Build 0)  -->
<svg version="1.1" id="Layer_1" xmlns="http://www.w3.org/2000/svg" xmlns:xlink="http://www.w3.org/1999/xlink" x="0px" y="0px"
	 viewBox="0 0 30 30" style="enable-background:new 0 0 30 30;" xml:space="preserve">
<style type="text/css">
	.st0{fill:none;stroke:#30383B;stroke-width:0.3638;stroke-miterlimit:10;}
	.st1{fill:none;stroke:#6EBE4A;stroke-width:0.3638;stroke-miterlimit:10;}
	.st2{fill:none;stroke:#30383B;stroke-width:0.5093;stroke-miterlimit:10;}
	.st3{fill:none;stroke:#6EBE4A;stroke-width:0.5093;stroke-miterlimit:10;}
	.st4{fill:none;stroke:#6EBE4A;stroke-width:0.5093;stroke-linejoin:round;stroke-miterlimit:10;}
</style>
<title>App_launcher/icon/RA</title>
<desc>Created with Sketch.</desc>
<g>
	<path class="st0" d="M13.8,14V6.4c0-0.3,0.2-0.5,0.5-0.5h7.9c0.3,0,0.5,0.2,0.5,0.5v17.1c0,0.3-0.2,0.5-0.5,0.5H16"/>
	<path class="st1" d="M15.7,8.4H15c-0.2,0-0.3-0.1-0.3-0.3V7.4c0-0.2,0.1-0.3,0.3-0.3h0.7c0.2,0,0.3,0.1,0.3,0.3v0.7
		C16,8.3,15.8,8.4,15.7,8.4z"/>
	<path class="st1" d="M17.6,8.4h-0.7c-0.2,0-0.3-0.1-0.3-0.3V7.4c0-0.2,0.1-0.3,0.3-0.3h0.7c0.2,0,0.3,0.1,0.3,0.3v0.7
		C17.9,8.3,17.8,8.4,17.6,8.4z"/>
	<path class="st1" d="M19.5,8.4h-0.7c-0.2,0-0.3-0.1-0.3-0.3V7.4c0-0.2,0.1-0.3,0.3-0.3h0.7c0.2,0,0.3,0.1,0.3,0.3v0.7
		C19.8,8.3,19.7,8.4,19.5,8.4z"/>
	<path class="st1" d="M21.5,8.4h-0.7c-0.2,0-0.3-0.1-0.3-0.3V7.4c0-0.2,0.1-0.3,0.3-0.3h0.7c0.2,0,0.3,0.1,0.3,0.3v0.7
		C21.8,8.3,21.6,8.4,21.5,8.4z"/>
	<path class="st0" d="M15.7,10.3H15c-0.2,0-0.3-0.1-0.3-0.3V9.3C14.7,9.1,14.8,9,15,9h0.7C15.9,9,16,9.1,16,9.3V10
		C16,10.2,15.8,10.3,15.7,10.3z"/>
	<path class="st0" d="M17.6,10.3h-0.7c-0.2,0-0.3-0.1-0.3-0.3V9.3c0-0.2,0.1-0.3,0.3-0.3h0.7c0.2,0,0.3,0.1,0.3,0.3V10
		C17.9,10.2,17.8,10.3,17.6,10.3z"/>
	<path class="st0" d="M19.5,10.3h-0.7c-0.2,0-0.3-0.1-0.3-0.3V9.3c0-0.2,0.1-0.3,0.3-0.3h0.7c0.2,0,0.3,0.1,0.3,0.3V10
		C19.8,10.2,19.7,10.3,19.5,10.3z"/>
	<path class="st0" d="M21.5,10.3h-0.7c-0.2,0-0.3-0.1-0.3-0.3V9.3c0-0.2,0.1-0.3,0.3-0.3h0.7c0.2,0,0.3,0.1,0.3,0.3V10
		C21.8,10.2,21.6,10.3,21.5,10.3z"/>
	<path class="st1" d="M15.7,12.2H15c-0.2,0-0.3-0.1-0.3-0.3v-0.7c0-0.2,0.1-0.3,0.3-0.3h0.7c0.2,0,0.3,0.1,0.3,0.3V12
		C16,12.1,15.8,12.2,15.7,12.2z"/>
	<path class="st1" d="M17.6,12.2h-0.7c-0.2,0-0.3-0.1-0.3-0.3v-0.7c0-0.2,0.1-0.3,0.3-0.3h0.7c0.2,0,0.3,0.1,0.3,0.3V12
		C17.9,12.1,17.8,12.2,17.6,12.2z"/>
	<path class="st1" d="M19.5,12.2h-0.7c-0.2,0-0.3-0.1-0.3-0.3v-0.7c0-0.2,0.1-0.3,0.3-0.3h0.7c0.2,0,0.3,0.1,0.3,0.3V12
		C19.8,12.1,19.7,12.2,19.5,12.2z"/>
	<path class="st1" d="M21.5,12.2h-0.7c-0.2,0-0.3-0.1-0.3-0.3v-0.7c0-0.2,0.1-0.3,0.3-0.3h0.7c0.2,0,0.3,0.1,0.3,0.3V12
		C21.8,12.1,21.6,12.2,21.5,12.2z"/>
	<path class="st0" d="M14.7,13.9v-0.7c0-0.2,0.1-0.3,0.3-0.3h0.7c0.2,0,0.3,0.1,0.3,0.3v0.7"/>
	<path class="st0" d="M16.6,13.9v-0.7c0-0.2,0.1-0.3,0.3-0.3h0.7c0.2,0,0.3,0.1,0.3,0.3v0.7c0,0.2-0.1,0.3-0.3,0.3h-0.7"/>
	<path class="st0" d="M19.5,14.2h-0.7c-0.2,0-0.3-0.1-0.3-0.3v-0.7c0-0.2,0.1-0.3,0.3-0.3h0.7c0.2,0,0.3,0.1,0.3,0.3v0.7
		C19.8,14,19.7,14.2,19.5,14.2z"/>
	<path class="st0" d="M21.5,14.2h-0.7c-0.2,0-0.3-0.1-0.3-0.3v-0.7c0-0.2,0.1-0.3,0.3-0.3h0.7c0.2,0,0.3,0.1,0.3,0.3v0.7
		C21.8,14,21.6,14.2,21.5,14.2z"/>
	<path class="st1" d="M16.9,14.8h0.7c0.2,0,0.3,0.1,0.3,0.3v0.7c0,0.2-0.1,0.3-0.3,0.3h-0.7"/>
	<path class="st1" d="M19.5,16.1h-0.7c-0.2,0-0.3-0.1-0.3-0.3v-0.7c0-0.2,0.1-0.3,0.3-0.3h0.7c0.2,0,0.3,0.1,0.3,0.3v0.7
		C19.8,16,19.7,16.1,19.5,16.1z"/>
	<path class="st1" d="M21.5,16.1h-0.7c-0.2,0-0.3-0.1-0.3-0.3v-0.7c0-0.2,0.1-0.3,0.3-0.3h0.7c0.2,0,0.3,0.1,0.3,0.3v0.7
		C21.8,16,21.6,16.1,21.5,16.1z"/>
	<path class="st0" d="M16.9,16.7h0.7c0.2,0,0.3,0.1,0.3,0.3v0.7c0,0.2-0.1,0.3-0.3,0.3h-0.3"/>
	<path class="st0" d="M19.5,18h-0.7c-0.2,0-0.3-0.1-0.3-0.3V17c0-0.2,0.1-0.3,0.3-0.3h0.7c0.2,0,0.3,0.1,0.3,0.3v0.7
		C19.8,17.9,19.7,18,19.5,18z"/>
	<path class="st0" d="M21.5,18h-0.7c-0.2,0-0.3-0.1-0.3-0.3V17c0-0.2,0.1-0.3,0.3-0.3h0.7c0.2,0,0.3,0.1,0.3,0.3v0.7
		C21.8,17.9,21.6,18,21.5,18z"/>
	<path class="st1" d="M16.9,18.7h0.7c0.2,0,0.3,0.1,0.3,0.3v0.7c0,0.2-0.1,0.3-0.3,0.3h-0.7"/>
	<path class="st1" d="M19.5,20h-0.7c-0.2,0-0.3-0.1-0.3-0.3V19c0-0.2,0.1-0.3,0.3-0.3h0.7c0.2,0,0.3,0.1,0.3,0.3v0.7
		C19.8,19.8,19.7,20,19.5,20z"/>
	<path class="st1" d="M21.5,20h-0.7c-0.2,0-0.3-0.1-0.3-0.3V19c0-0.2,0.1-0.3,0.3-0.3h0.7c0.2,0,0.3,0.1,0.3,0.3v0.7
		C21.8,19.8,21.6,20,21.5,20z"/>
	<path class="st0" d="M16.9,20.6h0.7c0.2,0,0.3,0.1,0.3,0.3v0.7c0,0.2-0.1,0.3-0.3,0.3h-0.7"/>
	<path class="st0" d="M19.5,21.9h-0.7c-0.2,0-0.3-0.1-0.3-0.3v-0.7c0-0.2,0.1-0.3,0.3-0.3h0.7c0.2,0,0.3,0.1,0.3,0.3v0.7
		C19.8,21.8,19.7,21.9,19.5,21.9z"/>
	<path class="st0" d="M21.5,21.9h-0.7c-0.2,0-0.3-0.1-0.3-0.3v-0.7c0-0.2,0.1-0.3,0.3-0.3h0.7c0.2,0,0.3,0.1,0.3,0.3v0.7
		C21.8,21.8,21.6,21.9,21.5,21.9z"/>
	<path class="st2" d="M11.9,22.8H9.4c-0.2,0-0.4-0.2-0.4-0.4v-2.1c0-0.2,0.2-0.4,0.4-0.4h2.5c0.2,0,0.4,0.2,0.4,0.4v2.1
		C12.3,22.6,12.1,22.8,11.9,22.8z"/>
	<path class="st3" d="M16.5,15.1H8.2c-0.2,0-0.4-0.2-0.4-0.4v-0.2C7.8,14.2,8,14,8.2,14h8.3c0.2,0,0.4,0.2,0.4,0.4v0.2
		C17,14.9,16.8,15.1,16.5,15.1z"/>
	<path class="st3" d="M16.5,16H8.2"/>
	<g>
		<path class="st2" d="M7.7,16.3"/>
		<path class="st2" d="M16.9,16.7"/>
		<path class="st2" d="M7.7,18.6v4.3c0,0.7,0.6,1.2,1.2,1.2h4.4c0.1,0,0.2-0.1,0.2-0.2l0-3.7c0-0.2,0.2-0.4,0.4-0.4h1.4
			c0.2,0,0.4,0.2,0.4,0.4v3.7c0,0.1,0.1,0.2,0.3,0.2c0.6-0.1,1-0.6,1-1.2v-4.3"/>
	</g>
	<path class="st4" d="M11.7,16h1.2V18c0,0.3-0.3,0.6-0.6,0.6l0,0c-0.3,0-0.6-0.3-0.6-0.6L11.7,16L11.7,16z"/>
	<path class="st4" d="M13.8,16H15l0.2,2.1c0,0.3-0.3,0.6-0.6,0.6h0c-0.3,0-0.7-0.3-0.7-0.6L13.8,16z"/>
	<path class="st4" d="M10.9,16H9.7L9.5,18c0,0.3,0.3,0.6,0.6,0.6l0,0c0.3,0,0.7-0.3,0.7-0.6L10.9,16z"/>
	<path class="st4" d="M9.1,16H7.9l-0.5,1.9c0,0.1,0,0.3,0,0.4c0,0.2,0.2,0.4,0.4,0.4h0.1c0.3,0,0.6-0.2,0.7-0.5c0-0.1,0-0.2,0.1-0.3
		L9.1,16z"/>
	<path class="st4" d="M15.6,16h1.2l0.5,1.9c0,0.1,0,0.3,0,0.4c0,0.2-0.2,0.4-0.4,0.4h-0.1c-0.3,0-0.6-0.2-0.7-0.5
		c0-0.1,0-0.2-0.1-0.3L15.6,16z"/>
</g>
</svg>
