<?xml version="1.0" encoding="utf-8"?>
<!-- Generator: Adobe Illustrator 22.1.0, SVG Export Plug-In . SVG Version: 6.00 Build 0)  -->
<svg version="1.1" id="Layer_1" xmlns="http://www.w3.org/2000/svg" xmlns:xlink="http://www.w3.org/1999/xlink" x="0px" y="0px"
	 viewBox="0 0 64 64" style="enable-background:new 0 0 64 64;" xml:space="preserve">
<style type="text/css">
	.st0{fill:#30383B;}
	.st1{fill:none;stroke:#30383B;stroke-width:1.6827;stroke-linejoin:round;stroke-miterlimit:10;}
	.st2{fill:none;stroke:#6EBE4A;stroke-width:1.6827;stroke-linejoin:round;stroke-miterlimit:10;}
</style>
<g>
	<g>
		<path class="st0" d="M58.8,9.5c0.2,0,0.4,0.2,0.4,0.4v33.7c0,0.2-0.2,0.4-0.4,0.4H5.2c-0.2,0-0.4-0.2-0.4-0.4V9.9
			c0-0.2,0.2-0.4,0.4-0.4H58.8 M58.8,7.8H5.2C4,7.8,3.1,8.7,3.1,9.9v33.7c0,1.2,0.9,2.1,2.1,2.1h53.6c1.2,0,2.1-0.9,2.1-2.1V9.9
			C60.9,8.7,60,7.8,58.8,7.8L58.8,7.8z"/>
	</g>
	<path class="st1" d="M39.8,44.4L39.8,44.4c-1.9,4-0.3,8.8,3.6,10.8l2,1H21.1l2-1c3.9-2,5.5-6.8,3.6-10.8l0,0"/>
	<rect x="9.3" y="12.7" class="st2" width="45.7" height="5.9"/>
	<rect x="9.5" y="22.3" class="st1" width="19.4" height="18"/>
	<path class="st1" d="M40.1,29.9c0.8-0.8,1.3-2,1.3-3.2c0-2.5-2-4.6-4.6-4.6c-2.5,0-4.6,2-4.6,4.6c0,1.3,0.5,2.4,1.3,3.2"/>
	<path class="st2" d="M33.6,29.9"/>
	<path class="st2" d="M40.1,29.9"/>
	<path class="st2" d="M53,29.9c0.8-0.8,1.3-2,1.3-3.2c0-2.5-2-4.6-4.6-4.6c-2.5,0-4.6,2-4.6,4.6c0,1.3,0.5,2.4,1.3,3.2"/>
	<path class="st2" d="M46.6,29.9"/>
	<path class="st2" d="M53,29.9"/>
	<path class="st2" d="M40.1,40.7c0.8-0.8,1.3-2,1.3-3.2c0-2.5-2-4.6-4.6-4.6c-2.5,0-4.6,2-4.6,4.6c0,1.3,0.5,2.4,1.3,3.2"/>
	<path class="st2" d="M33.6,40.7"/>
	<path class="st2" d="M40.1,40.7"/>
	<path class="st1" d="M53,40.7c0.8-0.8,1.3-2,1.3-3.2c0-2.5-2-4.6-4.6-4.6c-2.5,0-4.6,2-4.6,4.6c0,1.3,0.5,2.4,1.3,3.2"/>
	<path class="st2" d="M46.6,40.7"/>
	<path class="st2" d="M53,40.7"/>
</g>
</svg>
