<?xml version="1.0" encoding="utf-8"?>
<!-- Generator: Adobe Illustrator 17.0.0, SVG Export Plug-In . SVG Version: 6.00 Build 0)  -->
<!DOCTYPE svg PUBLIC "-//W3C//DTD SVG 1.1//EN" "http://www.w3.org/Graphics/SVG/1.1/DTD/svg11.dtd">
<svg version="1.1" id="Capa_1" xmlns="http://www.w3.org/2000/svg" xmlns:xlink="http://www.w3.org/1999/xlink" x="0px" y="0px"
	 width="300px" height="300px" viewBox="0 0 300 300" enable-background="new 0 0 300 300" xml:space="preserve">
<g>
	<polygon fill="#1C1C1C" points="0,0.031 300,0 300,299.966 0,299.997 	"/>
	<g>
		<g>
			<g>
				<path fill="#444343" d="M101.455,61.452c0,0-0.119,75.697,2.792,84.51c2.862,8.663,15.92,30.514,45.774,33.161
					c28.865-2.36,43.227-22.485,46.09-31.146c2.912-8.813,2.474-86.526,2.474-86.526C177.898,35.229,122.145,35.229,101.455,61.452z
					"/>
				<path fill="#444343" d="M101.892,107.449c0,0-8.197-6.463-7.022,0c1.174,6.462,1.995,21.162,7.652,20.288L101.892,107.449z"/>
				<path fill="#3C3D3D" d="M198.357,107.339l-0.002,0.082c0.362-22.574,0.231-45.969,0.231-45.969
					c-10.422-13.21-29.74-19.762-48.994-19.663v122.406h-21.966l-3.12,19.377l0,0l-0.001,0.005l-2.253,13.995
					c-1.81,0.493-3.956,1.115-6.352,1.837c0.276,1.501,5.446,27.475,33.51,27.239c32.979-0.277,33.431-23.959,33.386-27.146
					c0-0.038-0.001-0.076-0.002-0.108l0,0c-0.02-0.006-0.041-0.011-0.06-0.017c-1.343-0.392-2.596-0.752-3.745-1.078
					c-0.048-0.013-0.099-0.029-0.146-0.042c-0.905-0.256-1.745-0.489-2.509-0.697l-1.295-7.164c0,0-1.059-6.212-1.17-6.824
					c0,0-0.019-0.001-0.047-0.001l-1.863-10.485c14.429-7.265,22.139-19.018,24.152-25.107c0.816-2.468,1.368-10.344,1.742-20.401
					c5.633,0.824,6.456-13.839,7.629-20.291C206.655,100.824,198.357,107.339,198.357,107.339z"/>
			</g>
			<path fill="#8F3184" d="M113.13,77.065c1.132-3.061,4.481-6.606,7.619-7.499c9.173-2.612,29.642-6.17,61.155,0.628
				c3.19,0.688,6.515,3.864,7.448,6.991l9.004,30.155c0,0,16.308-61.421,3.354-70.876c-30.36-22.158-76.23-34.271-123.954-4.333
				c0,0,36.579-2.901,20.882,9.705c-8.065,6.477-15.367,8.671-15.367,8.671l18.621,56.942L113.13,77.065z"/>
		</g>
		<path fill="#8F3184" d="M197.828,127.574c0,0-2.139,20.407-22.059,30.966c-2.618-2.904-9.504-8.069-25.382-8.077
			c-16.441-0.008-22.791,5.735-24.905,8.521c-21.274-10.081-22.903-31.609-22.903-31.609c-1.079,31.915,14.199,49.572,14.199,49.572
			c-0.019-1.115,0-3.903,0-3.903c3.183,13.542,33.974,32.06,33.974,32.06c12.682-6.97,29-26.206,29-26.206
			c0.863,3.624,0.863,5.017,0.863,5.017c11.211-13.66,10.061-27.043,10.923-26.763c0.863,0.278,1.15,3.314,1.15,3.314
			C201.242,142.194,197.828,127.574,197.828,127.574z M149.855,164.073c-4.917-0.067-9.324-0.568-13.274-1.403
			c1.678-2.533,6.099-7.608,14.561-7.541c8.628,0.069,12.284,4.949,13.599,7.47C160.384,163.606,155.447,164.149,149.855,164.073z"
			/>
	</g>
	<path fill="#8F3184" d="M254.905,230.461c-0.559-3.629-1.257-6.447-2.124-8.067c-0.323-0.603-0.841-1.212-1.531-1.825
		c-8.901-7.911-46.506-16.509-65.086-20.376c-0.751-0.157-1.467-0.304-2.153-0.444c-0.389-0.115-0.792-0.232-1.215-0.356
		c0,0.01,0,0.055,0,0.108c-0.001,0-0.002,0-0.004-0.001c0.06,2.718-0.32,26.995-33.381,27.147c-0.445,0.002-0.884-0.003-1.318-0.013
		c-0.143-0.003-0.282-0.011-0.426-0.016c-0.289-0.01-0.577-0.019-0.861-0.035c-0.165-0.009-0.325-0.023-0.489-0.034
		c-0.255-0.017-0.511-0.033-0.76-0.054c-0.174-0.015-0.344-0.035-0.516-0.051c-0.235-0.024-0.471-0.045-0.702-0.073
		c-0.174-0.02-0.345-0.045-0.517-0.068c-0.223-0.03-0.448-0.057-0.667-0.091c-0.173-0.026-0.342-0.055-0.513-0.084
		c-0.214-0.035-0.429-0.07-0.641-0.108c-0.17-0.031-0.337-0.065-0.506-0.099c-0.206-0.041-0.412-0.081-0.615-0.125
		c-0.167-0.036-0.33-0.076-0.494-0.114c-0.2-0.046-0.4-0.092-0.597-0.141c-0.161-0.04-0.318-0.084-0.477-0.126
		c-0.194-0.052-0.39-0.103-0.581-0.159c-0.157-0.045-0.311-0.092-0.466-0.139c-0.188-0.057-0.376-0.114-0.561-0.173
		c-0.153-0.049-0.305-0.101-0.455-0.152c-0.182-0.061-0.363-0.124-0.542-0.187c-0.148-0.053-0.294-0.108-0.44-0.164
		c-0.177-0.067-0.354-0.134-0.529-0.204c-0.142-0.056-0.283-0.116-0.425-0.174c-0.173-0.072-0.345-0.143-0.515-0.218
		c-0.137-0.06-0.273-0.122-0.409-0.183c-0.169-0.077-0.336-0.154-0.501-0.232c-0.132-0.062-0.263-0.127-0.393-0.191
		c-0.165-0.081-0.327-0.163-0.489-0.247c-0.127-0.065-0.253-0.132-0.379-0.2c-0.16-0.086-0.318-0.172-0.475-0.259
		c-0.123-0.069-0.244-0.137-0.364-0.208c-0.156-0.09-0.309-0.18-0.462-0.272c-0.118-0.071-0.234-0.142-0.35-0.214
		c-0.151-0.094-0.302-0.189-0.45-0.286c-0.112-0.073-0.223-0.145-0.334-0.218c-0.148-0.098-0.294-0.197-0.439-0.298
		c-0.107-0.074-0.214-0.148-0.319-0.223c-0.143-0.102-0.286-0.206-0.427-0.309c-0.102-0.076-0.204-0.15-0.305-0.227
		c-0.141-0.107-0.28-0.215-0.419-0.324c-0.095-0.076-0.191-0.15-0.286-0.226c-0.139-0.113-0.276-0.225-0.412-0.339
		c-0.09-0.075-0.179-0.149-0.268-0.225c-0.136-0.117-0.27-0.234-0.403-0.352c-0.085-0.075-0.17-0.149-0.253-0.225
		c-0.134-0.122-0.265-0.244-0.396-0.366c-0.078-0.074-0.157-0.146-0.234-0.22c-0.132-0.127-0.262-0.255-0.391-0.383
		c-0.073-0.072-0.145-0.143-0.217-0.215c-0.131-0.133-0.26-0.266-0.388-0.4c-0.064-0.069-0.131-0.136-0.195-0.205
		c-0.131-0.14-0.26-0.281-0.388-0.423c-0.057-0.063-0.117-0.127-0.173-0.191c-0.132-0.148-0.261-0.297-0.389-0.446
		c-0.049-0.057-0.1-0.115-0.149-0.173c-0.134-0.159-0.265-0.317-0.394-0.477c-0.04-0.049-0.082-0.098-0.122-0.147
		c-0.14-0.174-0.276-0.348-0.411-0.523c-0.028-0.035-0.055-0.07-0.082-0.105c-0.152-0.199-0.301-0.397-0.446-0.596
		c-0.008-0.011-0.017-0.024-0.026-0.035c-0.934-1.279-1.74-2.565-2.431-3.815c-0.01-0.018-0.019-0.036-0.03-0.053
		c-0.104-0.188-0.206-0.377-0.305-0.563c-0.016-0.03-0.031-0.06-0.047-0.09c-0.091-0.174-0.181-0.347-0.268-0.518
		c-0.019-0.039-0.039-0.078-0.058-0.117c-0.082-0.163-0.163-0.324-0.24-0.485c-0.02-0.042-0.04-0.084-0.06-0.127
		c-0.075-0.156-0.149-0.311-0.22-0.465c-0.021-0.046-0.042-0.092-0.063-0.138c-0.069-0.147-0.135-0.295-0.201-0.44
		c-0.023-0.05-0.044-0.099-0.065-0.148c-0.062-0.141-0.124-0.28-0.182-0.42c-0.023-0.052-0.043-0.102-0.065-0.155
		c-0.056-0.134-0.113-0.267-0.166-0.399c-0.021-0.052-0.042-0.104-0.063-0.157c-0.052-0.13-0.104-0.259-0.155-0.386
		c-0.02-0.051-0.039-0.101-0.059-0.151c-0.048-0.125-0.096-0.25-0.142-0.371c-0.019-0.051-0.038-0.101-0.056-0.151
		c-0.045-0.12-0.088-0.238-0.131-0.355c-0.018-0.05-0.036-0.099-0.053-0.148c-0.041-0.116-0.081-0.229-0.12-0.341
		c-0.016-0.048-0.033-0.096-0.049-0.144c-0.038-0.111-0.075-0.219-0.109-0.325c-0.015-0.047-0.031-0.093-0.046-0.139
		c-0.035-0.105-0.068-0.209-0.1-0.31c-0.014-0.044-0.028-0.088-0.042-0.132c-0.032-0.101-0.062-0.2-0.092-0.297
		c-0.013-0.042-0.026-0.083-0.038-0.125c-0.029-0.094-0.055-0.186-0.082-0.276c-0.012-0.042-0.025-0.083-0.036-0.124
		c-0.025-0.086-0.048-0.17-0.072-0.253c-0.011-0.042-0.024-0.083-0.035-0.124c-0.021-0.08-0.043-0.157-0.063-0.231
		c-0.01-0.037-0.02-0.075-0.03-0.111c-0.02-0.077-0.039-0.15-0.058-0.223c-0.008-0.032-0.016-0.064-0.025-0.095
		c-0.017-0.071-0.035-0.138-0.051-0.204c-0.007-0.029-0.014-0.058-0.021-0.087c-0.014-0.06-0.029-0.118-0.042-0.174
		c-0.007-0.032-0.015-0.063-0.021-0.093c-0.011-0.047-0.02-0.091-0.031-0.135c-0.007-0.033-0.015-0.065-0.021-0.096
		c-0.009-0.042-0.017-0.08-0.026-0.119c-0.005-0.025-0.011-0.05-0.015-0.074c-0.007-0.034-0.013-0.063-0.019-0.093
		c-0.005-0.027-0.011-0.053-0.015-0.077c-0.004-0.019-0.007-0.035-0.01-0.052c-0.005-0.027-0.01-0.053-0.015-0.076
		c-0.001-0.007-0.002-0.012-0.003-0.018c-0.005-0.028-0.01-0.053-0.013-0.073c-0.344,0.079-0.633,0.137-0.939,0.206
		c0.004-0.001,0.008-0.002,0.012-0.003c-17.358,3.527-60.539,12.911-68.887,21.441c-0.441,0.45-0.789,0.898-1.026,1.343
		c-5.02,9.373-4.353,58.841-4.039,73.499c0.055,2.592,0.1,4.104,0.1,4.104h72.406h7.166h22.969h10.515h22.969h7.166h72.406
		c0,0,0.045-1.511,0.1-4.104c0.003-0.143,0.006-0.296,0.009-0.445C257.09,282.918,257.549,247.623,254.905,230.461z"/>
</g>
</svg>
