<svg xmlns="http://www.w3.org/2000/svg" xmlns:xlink="http://www.w3.org/1999/xlink" viewBox="3746 11155 48 30">
  <defs>
    <style>
      .cls-1 {
        fill: url(#linear-gradient);
      }

      .cls-2 {
        fill: #b2917b;
      }

      .cls-3 {
        fill: #ed1c24;
      }

      .cls-4 {
        fill: #faa61a;
      }

      .cls-5 {
        fill: #003375;
      }

      .cls-6 {
        fill: #fff;
      }
    </style>
    <linearGradient id="linear-gradient" x1="0.5" x2="0.5" y2="1" gradientUnits="objectBoundingBox">
      <stop offset="0" stop-color="#fff"/>
      <stop offset="1" stop-color="#f2dcc4"/>
    </linearGradient>
  </defs>
  <g id="creditcards_master-94df290d56a3c6424296953282e18e46895ba94bdef368640eb52f8349915610" transform="translate(3746 11155)">
    <g id="Group_6047" data-name="Group 6047">
      <path id="Path_33258" data-name="Path 33258" class="cls-1" d="M48,27a3.009,3.009,0,0,1-3,3H3a3.009,3.009,0,0,1-3-3V3A3.009,3.009,0,0,1,3,0H45a3.009,3.009,0,0,1,3,3Z"/>
      <g id="Group_6046" data-name="Group 6046">
        <path id="Path_33259" data-name="Path 33259" class="cls-2" d="M45,.1A2.9,2.9,0,0,1,47.9,3V27A2.9,2.9,0,0,1,45,29.9H3A2.9,2.9,0,0,1,.1,27V3A2.9,2.9,0,0,1,3,.1H45M45,0H3A3.009,3.009,0,0,0,0,3V27a3.009,3.009,0,0,0,3,3H45a3.009,3.009,0,0,0,3-3V3a3.009,3.009,0,0,0-3-3Z"/>
      </g>
    </g>
    <g id="Group_6055" data-name="Group 6055" transform="translate(9.002 6.026)">
      <g id="Group_6054" data-name="Group 6054">
        <g id="Group_6050" data-name="Group 6050">
          <g id="Group_6049" data-name="Group 6049">
            <circle id="Ellipse_400" data-name="Ellipse 400" class="cls-3" cx="8.974" cy="8.974" r="8.974"/>
            <g id="Group_6048" data-name="Group 6048" transform="translate(12.25)">
              <path id="Path_33260" data-name="Path 33260" class="cls-4" d="M40.651,9.039a8.944,8.944,0,0,0-6.025,2.323,9.1,9.1,0,0,0-.905.95h1.813a9.183,9.183,0,0,1,.684.951H33.036a9.137,9.137,0,0,0-.517.951h4.215a8.985,8.985,0,0,1,.38.95H32.139a8.872,8.872,0,0,0-.261.95h5.5a9.057,9.057,0,0,1,.2,1.9,8.96,8.96,0,0,1-.462,2.851H32.139a9.054,9.054,0,0,0,.38.951h4.216a8.909,8.909,0,0,1-.518.951H33.036a8.952,8.952,0,0,0,.685.949h1.813a8.981,8.981,0,0,1-.907.951A8.974,8.974,0,1,0,40.651,9.039Z" transform="translate(-31.878 -9.039)"/>
            </g>
          </g>
        </g>
        <g id="Group_6053" data-name="Group 6053" transform="translate(0.573 6.67)">
          <g id="Group_6051" data-name="Group 6051" transform="translate(0 0.122)">
            <path id="Path_33261" data-name="Path 33261" class="cls-5" d="M22.825,22.906a1.727,1.727,0,0,0-.217-.015c-.552,0-.831.189-.831.564a.339.339,0,0,0,.349.377C22.522,23.832,22.808,23.454,22.825,22.906Zm.709,1.649h-.807l.019-.383a1.222,1.222,0,0,1-1.021.447.91.91,0,0,1-.89-1.011c0-.9.629-1.427,1.711-1.427a3.269,3.269,0,0,1,.4.029.915.915,0,0,0,.038-.24c0-.245-.169-.337-.625-.337a3.265,3.265,0,0,0-1.031.167l.135-.833a3.872,3.872,0,0,1,1.166-.2c.837,0,1.28.375,1.279,1.085a4.815,4.815,0,0,1-.079.733C23.74,23.126,23.558,24.276,23.534,24.556Z" transform="translate(-16.519 -19.742)"/>
            <path id="Path_33262" data-name="Path 33262" class="cls-5" d="M18.269,24.172h-.975l.559-3.5-1.247,3.5h-.663l-.083-3.479-.586,3.479h-.912l.761-4.552h1.4l.085,2.548.855-2.548h1.558Z" transform="translate(-14.362 -19.358)"/>
            <path id="Path_33263" data-name="Path 33263" class="cls-5" d="M45.847,22.906a1.718,1.718,0,0,0-.217-.015c-.553,0-.831.189-.831.564a.339.339,0,0,0,.349.377C45.544,23.832,45.83,23.454,45.847,22.906Zm.709,1.649h-.807l.018-.383a1.221,1.221,0,0,1-1.021.447.91.91,0,0,1-.89-1.011c0-.9.63-1.427,1.711-1.427a3.25,3.25,0,0,1,.4.029A.915.915,0,0,0,46,21.97c0-.245-.169-.337-.625-.337a3.274,3.274,0,0,0-1.032.167c.011-.061.136-.833.136-.833a3.871,3.871,0,0,1,1.165-.2c.837,0,1.28.375,1.279,1.085a4.649,4.649,0,0,1-.079.733C46.762,23.126,46.58,24.276,46.556,24.556Z" transform="translate(-24.193 -19.742)"/>
            <path id="Path_33264" data-name="Path 33264" class="cls-5" d="M30.643,24.261a2.225,2.225,0,0,1-.7.12.713.713,0,0,1-.77-.813,8.558,8.558,0,0,1,.133-.987c.057-.346.423-2.526.423-2.526H30.7l-.113.56h.585l-.131.89H30.45c-.113.7-.273,1.581-.275,1.7,0,.191.1.274.333.274a.8.8,0,0,0,.263-.035Z" transform="translate(-19.299 -19.503)"/>
            <path id="Path_33265" data-name="Path 33265" class="cls-5" d="M34.511,24.47a3.3,3.3,0,0,1-.993.15,1.472,1.472,0,0,1-1.649-1.651c0-1.265.719-2.2,1.695-2.2a1.238,1.238,0,0,1,1.309,1.339,3.958,3.958,0,0,1-.119.911H32.823c-.065.537.279.761.842.761a2.3,2.3,0,0,0,1.007-.233Zm-.545-2.195c.006-.077.1-.661-.451-.661-.308,0-.529.235-.619.661Z" transform="translate(-20.197 -19.742)"/>
            <path id="Path_33266" data-name="Path 33266" class="cls-5" d="M25.576,22.024a1.08,1.08,0,0,0,.742,1.033c.395.185.456.241.456.409,0,.231-.174.335-.559.335a2.746,2.746,0,0,1-.873-.147s-.128.816-.134.855a4.525,4.525,0,0,0,1.014.109c1.028,0,1.5-.391,1.5-1.237a1.014,1.014,0,0,0-.687-1.032c-.408-.187-.455-.229-.455-.4,0-.2.162-.3.477-.3a5.436,5.436,0,0,1,.7.055l.139-.859a6.6,6.6,0,0,0-.857-.072C25.95,20.771,25.572,21.34,25.576,22.024Z" transform="translate(-17.977 -19.742)"/>
            <path id="Path_33267" data-name="Path 33267" class="cls-5" d="M40.748,20.354a1.855,1.855,0,0,1,.871.246l.159-.988a2.865,2.865,0,0,0-1.071-.385,1.941,1.941,0,0,0-1.591.857c-.565-.187-.8.191-1.083.569l-.253.059a1.89,1.89,0,0,0,.031-.372h-.9c-.122,1.146-.339,2.307-.508,3.453l-.044.249h.975c.163-1.057.251-1.734.306-2.192l.367-.2c.055-.2.226-.273.571-.265a4.169,4.169,0,0,0-.069.759c0,1.211.654,1.965,1.7,1.965a3.036,3.036,0,0,0,.861-.133l.171-1.037a1.894,1.894,0,0,1-.827.233c-.567,0-.909-.418-.909-1.109C39.511,21.056,40.02,20.354,40.748,20.354Z" transform="translate(-21.696 -19.227)"/>
            <path id="Path_33268" data-name="Path 33268" class="cls-5" d="M53.006,19.62l-.217,1.315a1.217,1.217,0,0,0-.93-.6,1.509,1.509,0,0,0-1.232.921,7.994,7.994,0,0,1-.829-.229v0a5.353,5.353,0,0,0,.043-.557h-.895c-.121,1.146-.339,2.307-.508,3.453l-.045.249h.975c.131-.854.232-1.565.307-2.127.333-.3.5-.563.836-.546a3.168,3.168,0,0,0-.236,1.2c0,.925.468,1.536,1.177,1.536a1.147,1.147,0,0,0,.9-.409l-.046.344h.922l.742-4.551Zm-1.218,3.7c-.331,0-.5-.246-.5-.73,0-.727.314-1.243.755-1.243.335,0,.516.255.516.725C52.56,22.8,52.241,23.317,51.788,23.317Z" transform="translate(-25.706 -19.358)"/>
          </g>
          <g id="Group_6052" data-name="Group 6052" transform="translate(0.28)">
            <path id="Path_33269" data-name="Path 33269" class="cls-6" d="M18.689,23.767h-.974l.559-3.5-1.247,3.5h-.664l-.082-3.479-.587,3.479h-.912l.762-4.551h1.4l.039,2.817.945-2.817h1.513Z" transform="translate(-14.782 -19.101)"/>
            <path id="Path_33270" data-name="Path 33270" class="cls-6" d="M23.245,22.5a1.609,1.609,0,0,0-.217-.015c-.552,0-.832.189-.832.563a.341.341,0,0,0,.349.377C22.943,23.427,23.229,23.049,23.245,22.5Zm.709,1.649h-.807l.019-.383a1.224,1.224,0,0,1-1.021.447.911.911,0,0,1-.89-1.011c0-.9.629-1.427,1.711-1.427a3.269,3.269,0,0,1,.4.029.923.923,0,0,0,.038-.241c0-.245-.169-.336-.625-.336a3.231,3.231,0,0,0-1.031.166l.135-.833a3.872,3.872,0,0,1,1.166-.2c.837,0,1.28.376,1.279,1.085a4.815,4.815,0,0,1-.079.733C24.161,22.721,23.979,23.871,23.954,24.151Z" transform="translate(-16.939 -19.485)"/>
            <path id="Path_33271" data-name="Path 33271" class="cls-6" d="M43.273,19.281l-.159.988a1.864,1.864,0,0,0-.87-.246c-.727,0-1.237.7-1.237,1.705,0,.691.343,1.108.909,1.108a1.885,1.885,0,0,0,.827-.233l-.171,1.037a3.029,3.029,0,0,1-.861.133c-1.049,0-1.7-.754-1.7-1.965,0-1.627.9-2.765,2.195-2.765A3.37,3.37,0,0,1,43.273,19.281Z" transform="translate(-23.191 -19.044)"/>
            <path id="Path_33272" data-name="Path 33272" class="cls-6" d="M46.267,22.5a1.594,1.594,0,0,0-.217-.015c-.552,0-.831.189-.831.563a.34.34,0,0,0,.349.377C45.965,23.427,46.251,23.049,46.267,22.5Zm.709,1.649h-.807l.018-.383a1.223,1.223,0,0,1-1.021.447.91.91,0,0,1-.89-1.011c0-.9.629-1.427,1.71-1.427a3.25,3.25,0,0,1,.4.029.923.923,0,0,0,.038-.241c0-.245-.169-.336-.625-.336a3.235,3.235,0,0,0-1.031.166l.135-.833a3.872,3.872,0,0,1,1.166-.2c.837,0,1.28.376,1.279,1.085a4.649,4.649,0,0,1-.079.733C47.183,22.721,47,23.871,46.976,24.151Z" transform="translate(-24.613 -19.485)"/>
            <path id="Path_33273" data-name="Path 33273" class="cls-6" d="M31.064,23.857a2.227,2.227,0,0,1-.7.121.713.713,0,0,1-.77-.813,8.6,8.6,0,0,1,.134-.987c.056-.346.423-2.526.423-2.526h.969l-.113.56h.5l-.132.889h-.5c-.113.7-.273,1.581-.275,1.7,0,.191.1.274.334.274a.785.785,0,0,0,.263-.035Z" transform="translate(-19.719 -19.247)"/>
            <path id="Path_33274" data-name="Path 33274" class="cls-6" d="M34.931,24.066a3.323,3.323,0,0,1-.994.15,1.472,1.472,0,0,1-1.649-1.651c0-1.266.719-2.2,1.695-2.2a1.237,1.237,0,0,1,1.309,1.34,3.994,3.994,0,0,1-.119.91H33.243c-.065.537.279.761.841.761a2.3,2.3,0,0,0,1.007-.233Zm-.544-2.2c.005-.077.1-.661-.451-.661-.308,0-.529.235-.619.661Z" transform="translate(-20.617 -19.485)"/>
            <path id="Path_33275" data-name="Path 33275" class="cls-6" d="M26,21.619a1.082,1.082,0,0,0,.742,1.034c.395.185.455.241.455.409,0,.231-.174.335-.559.335a2.744,2.744,0,0,1-.873-.146s-.128.816-.133.854a4.508,4.508,0,0,0,1.013.11c1.028,0,1.5-.391,1.5-1.237a1.013,1.013,0,0,0-.687-1.031c-.409-.188-.455-.229-.455-.4,0-.2.162-.3.477-.3a5.456,5.456,0,0,1,.7.056l.139-.859a6.613,6.613,0,0,0-.857-.073C26.37,20.365,25.992,20.935,26,21.619Z" transform="translate(-18.397 -19.484)"/>
            <path id="Path_33276" data-name="Path 33276" class="cls-6" d="M54.586,23.767h-.921l.046-.345a1.148,1.148,0,0,1-.9.409c-.708,0-1.177-.61-1.177-1.536,0-1.231.726-2.269,1.585-2.269a1.1,1.1,0,0,1,.931.5l.216-1.315h.961Zm-1.437-.855c.454,0,.773-.514.773-1.247,0-.471-.181-.726-.516-.726-.442,0-.755.516-.755,1.244C52.649,22.667,52.817,22.912,53.149,22.912Z" transform="translate(-27.067 -19.101)"/>
            <path id="Path_33277" data-name="Path 33277" class="cls-6" d="M49.367,20.471c-.122,1.146-.339,2.306-.508,3.453l-.044.249h.975c.349-2.264.433-2.705.979-2.651a3.618,3.618,0,0,1,.37-1.073c-.408-.085-.636.145-.935.584a3.357,3.357,0,0,0,.059-.561h-.9Z" transform="translate(-26.126 -19.507)"/>
            <path id="Path_33278" data-name="Path 33278" class="cls-6" d="M37.337,20.471c-.123,1.146-.339,2.306-.509,3.453l-.044.249h.975c.349-2.264.433-2.705.979-2.651a3.634,3.634,0,0,1,.371-1.073c-.408-.085-.636.145-.934.584a3.355,3.355,0,0,0,.058-.561h-.9Z" transform="translate(-22.116 -19.507)"/>
          </g>
        </g>
      </g>
    </g>
  </g>
</svg>
