<?xml version="1.0" encoding="UTF-8" standalone="no"?>
<!DOCTYPE svg PUBLIC "-//W3C//DTD SVG 1.1//EN" "http://www.w3.org/Graphics/SVG/1.1/DTD/svg11.dtd">
<svg preserveAspectRatio="xMinYMid" viewBox="0 0 64 64" version="1.1" xmlns="http://www.w3.org/2000/svg" xmlns:xlink="http://www.w3.org/1999/xlink" xml:space="preserve" style="fill-rule:evenodd;clip-rule:evenodd;stroke-linejoin:round;stroke-miterlimit:1.41421;"><style id="stylish-1" class="stylish" type="text/css">scrollbar *
  scrollbar scrollbarbutton{visibility:collapse!important;}
  scrollbar scrollbarbutton{display:none!important;}
 
  scrollbar[orient="vertical"]{background:#999 url(https://pbs.twimg.com/media/CKecQtCWoAA8keI.png)!important;-moz-appearance:none!important;min-width:9px!important;max-width:9px!important;border-radius:5px;}
  scrollbar[orient="vertical"]:hover{-moz-appearance:none!important;}
  scrollbar thumb[orient="vertical"]{background:#97b2bd!important;-moz-appearance:none!important;border-radius:4px!important;min-height:25px!important;min-width:9px!important;max-width:9px!important;border:1px!important;opacity:0.87;}
  scrollbar thumb[orient="vertical"]:hover{background:#97b2bd!important;border-radius:4px!important;border:0px!important;opacity:1;}
  
  scrollbar[orient="horizontal"]{background:#999 url(https://pbs.twimg.com/media/CKecQtCWoAA8keI.png)!important;-moz-appearance:none!important;background-color:transparent!important;opacity:.75!important;min-height:9px!important;max-height:9px!important;border-radius:5px;}
  scrollbar[orient="horizontal"]:hover{-moz-appearance:none!important;background-color:transparent!important;min-height:9px!important;max-height:9px!important}
  scrollbar thumb[orient="horizontal"]{background:#97b2bd!important;-moz-appearance:none!important;border-radius:4px!important;min-height:25px!important;max-height:8px!important;border:1px!important;margin-left:0px!important;opacity:0.87;}
  scrollbar thumb[orient="horizontal"]:hover{background:#97b2bd!important;border-radius:4px!important;border:0px!important;opacity:1;}

scrollcorner{opacity:0!important}
scrollbar scrollcorner:hover{background:transparent!important}
::-webkit-scrollbar{width:9px!important;}
body::-webkit-scrollbar{width:12.5px!important;}

::-webkit-scrollbar-track{background:rgba(255,255,255,0.22)!important;border-radius:8px!important;-webkit-box-shadow:inset 0 0 4px rgba(0,0,0,0.3)!important;}
body::-webkit-scrollbar-track{background:#999 url(https://pbs.twimg.com/media/CKecQtCWoAA8keI.png)!important;}

::-webkit-scrollbar-thumb{background-color:#97b2bd!important;background-image:-webkit-linear-gradient(294deg,rgba(255,255,255,.2) 25%,transparent 25%,transparent 50%,rgba(255,255,255,.2) 50%,rgba(255, 255, 255,.2) 75%,transparent 75%,transparent);min-height:50px;border-radius:5px!important;-webkit-box-shadow:inset 0 0 4px rgba(0,0,0,0.5)!important;}</style>
    <g transform="matrix(1.875,0,0,-1.875,-5.78125,59.5258)">
        <path d="M29.667,25.267L26.867,28.067C26.667,28.267 26.367,28.367 26.167,28.367C25.867,28.367 25.667,28.267 25.467,28.067C25.067,27.667 25.067,27.067 25.467,26.667L26.567,25.567L24.267,25.567C17.609,25.567 16.788,16.1 9.2,16.1C8.6,16.1 8.2,15.7 8.2,15.1C8.2,14.5 8.6,14.1 9.2,14.1C18.078,14.1 18.968,23.567 24.267,23.567L26.567,23.567L25.467,22.467C25.067,22.067 25.067,21.467 25.467,21.067C25.867,20.667 26.467,20.667 26.867,21.067L29.667,23.867C30.067,24.167 30.067,24.867 29.667,25.267Z" style="fill:rgb(148,219,252);fill-rule:nonzero;"/>
    </g>
    <g transform="matrix(1.875,0,0,-1.875,-5.78125,59.3535)">
        <path d="M31.8,15.7L29,18.5C28.8,18.7 28.5,18.8 28.3,18.8C28,18.8 27.8,18.7 27.6,18.5C27.2,18.1 27.2,17.5 27.6,17.1L28.7,16L10.307,16C8.307,16 7.707,14 10.307,14L28.7,14L27.6,12.9C27.2,12.5 27.2,11.9 27.6,11.5C28,11.1 28.6,11.1 29,11.5L31.8,14.3C32.2,14.6 32.2,15.3 31.8,15.7Z" style="fill:rgb(255,186,89);fill-rule:nonzero;"/>
    </g>
    <g transform="matrix(1.875,0,0,1.875,-5.78125,2.8438)">
        <path d="M30.2,25.267L27.4,28.067C27.2,28.267 26.9,28.367 26.7,28.367C26.4,28.367 26.2,28.267 26,28.067C25.6,27.667 25.6,27.067 26,26.667L27.1,25.567L24.8,25.567C18.142,25.567 16.788,16.1 9.2,16.1C8.6,16.1 8.2,15.7 8.2,15.1C8.2,14.5 8.6,14.1 9.2,14.1C18.078,14.1 19.501,23.567 24.8,23.567L27.1,23.567L26,22.467C25.6,22.067 25.6,21.467 26,21.067C26.4,20.667 27,20.667 27.4,21.067L30.2,23.867C30.6,24.167 30.6,24.867 30.2,25.267Z" style="fill:rgb(102,221,170);fill-rule:nonzero;"/>
    </g>
</svg>