<?xml version="1.0" encoding="UTF-8"?>
<!-- Generator: Adobe Illustrator 16.0.0, SVG Export Plug-In . SVG Version: 6.00 Build 0)  -->
<!DOCTYPE svg PUBLIC "-//W3C//DTD SVG 1.1//EN" "http://www.w3.org/Graphics/SVG/1.1/DTD/svg11.dtd">
<svg preserveAspectRatio="xMinYMid" version="1.1" id="Layer_2_1_" xmlns="http://www.w3.org/2000/svg" xmlns:xlink="http://www.w3.org/1999/xlink" x="0px" y="0px" viewBox="0 0 64 64" enable-background="new 0 0 64 64" xml:space="preserve"><style id="stylish-1" class="stylish" type="text/css">scrollbar *
  scrollbar scrollbarbutton{visibility:collapse!important;}
  scrollbar scrollbarbutton{display:none!important;}
 
  scrollbar[orient="vertical"]{background:#999 url(https://pbs.twimg.com/media/CKecQtCWoAA8keI.png)!important;-moz-appearance:none!important;min-width:9px!important;max-width:9px!important;border-radius:5px;}
  scrollbar[orient="vertical"]:hover{-moz-appearance:none!important;}
  scrollbar thumb[orient="vertical"]{background:#97b2bd!important;-moz-appearance:none!important;border-radius:4px!important;min-height:25px!important;min-width:9px!important;max-width:9px!important;border:1px!important;opacity:0.87;}
  scrollbar thumb[orient="vertical"]:hover{background:#97b2bd!important;border-radius:4px!important;border:0px!important;opacity:1;}
  
  scrollbar[orient="horizontal"]{background:#999 url(https://pbs.twimg.com/media/CKecQtCWoAA8keI.png)!important;-moz-appearance:none!important;background-color:transparent!important;opacity:.75!important;min-height:9px!important;max-height:9px!important;border-radius:5px;}
  scrollbar[orient="horizontal"]:hover{-moz-appearance:none!important;background-color:transparent!important;min-height:9px!important;max-height:9px!important}
  scrollbar thumb[orient="horizontal"]{background:#97b2bd!important;-moz-appearance:none!important;border-radius:4px!important;min-height:25px!important;max-height:8px!important;border:1px!important;margin-left:0px!important;opacity:0.87;}
  scrollbar thumb[orient="horizontal"]:hover{background:#97b2bd!important;border-radius:4px!important;border:0px!important;opacity:1;}

scrollcorner{opacity:0!important}
scrollbar scrollcorner:hover{background:transparent!important}
::-webkit-scrollbar{width:9px!important;}
body::-webkit-scrollbar{width:12.5px!important;}

::-webkit-scrollbar-track{background:rgba(255,255,255,0.22)!important;border-radius:8px!important;-webkit-box-shadow:inset 0 0 4px rgba(0,0,0,0.3)!important;}
body::-webkit-scrollbar-track{background:#999 url(https://pbs.twimg.com/media/CKecQtCWoAA8keI.png)!important;}

::-webkit-scrollbar-thumb{background-color:#97b2bd!important;background-image:-webkit-linear-gradient(294deg,rgba(255,255,255,.2) 25%,transparent 25%,transparent 50%,rgba(255,255,255,.2) 50%,rgba(255, 255, 255,.2) 75%,transparent 75%,transparent);min-height:50px;border-radius:5px!important;-webkit-box-shadow:inset 0 0 4px rgba(0,0,0,0.5)!important;}</style>
<g>
	<path fill="#444444" d="M10.015,34.203h6.285v4.495c0,1.82-0.157,3.255-0.47,4.306s-0.906,1.994-1.778,2.829   c-0.872,0.836-1.979,1.491-3.321,1.969L9.5,45.207c1.267-0.417,2.169-0.992,2.706-1.723c0.537-0.729,0.82-1.729,0.85-2.996h-3.042   V34.203z"/>
	<path fill="#888888" d="M27.594,23.981l-5.703-1.028c0.641-2.296,1.745-3.996,3.31-5.1c1.566-1.104,3.892-1.655,6.978-1.655   c2.804,0,4.891,0.332,6.263,0.995c1.372,0.664,2.337,1.507,2.896,2.527c0.559,1.021,0.839,2.896,0.839,5.625l-0.067,7.336   c0,2.089,0.101,3.627,0.302,4.619s0.578,2.055,1.13,3.188h-6.218c-0.165-0.417-0.366-1.037-0.604-1.856   c-0.104-0.373-0.179-0.618-0.224-0.738c-1.073,1.043-2.222,1.826-3.444,2.349c-1.222,0.522-2.527,0.782-3.914,0.782   c-2.446,0-4.373-0.663-5.782-1.99c-1.409-1.328-2.113-3.005-2.113-5.032c0-1.343,0.32-2.539,0.961-3.59   c0.641-1.052,1.54-1.856,2.695-2.416c1.155-0.559,2.821-1.047,4.999-1.465c2.938-0.551,4.974-1.065,6.106-1.543v-0.626   c0-1.208-0.299-2.069-0.896-2.584c-0.596-0.514-1.722-0.771-3.377-0.771c-1.118,0-1.99,0.221-2.617,0.66   C28.489,22.106,27.981,22.879,27.594,23.981z M36.004,29.081c-0.806,0.269-2.08,0.59-3.825,0.962   c-1.744,0.373-2.885,0.738-3.422,1.096c-0.82,0.581-1.23,1.319-1.23,2.215c0,0.88,0.328,1.641,0.984,2.281   c0.656,0.641,1.491,0.961,2.505,0.961c1.132,0,2.214-0.372,3.243-1.118c0.761-0.566,1.261-1.26,1.499-2.08   c0.164-0.536,0.246-1.558,0.246-3.063V29.081z"/>
	<path fill="#444444" d="M48.215,34.203H54.5v4.495c0,1.82-0.156,3.255-0.47,4.306s-0.906,1.994-1.778,2.829   c-0.872,0.836-1.979,1.491-3.321,1.969l-1.229-2.595c1.267-0.417,2.169-0.992,2.706-1.723c0.536-0.729,0.819-1.729,0.85-2.996   h-3.042V34.203z"/>
</g>
</svg>