<?xml version="1.0" encoding="UTF-8" standalone="no"?>
<!DOCTYPE svg PUBLIC "-//W3C//DTD SVG 1.1//EN" "http://www.w3.org/Graphics/SVG/1.1/DTD/svg11.dtd">
<svg preserveAspectRatio="xMinYMid" viewBox="0 0 64 64" version="1.1" xmlns="http://www.w3.org/2000/svg" xmlns:xlink="http://www.w3.org/1999/xlink" xml:space="preserve" style="fill-rule:evenodd;clip-rule:evenodd;stroke-miterlimit:1.41421;"><style id="stylish-1" class="stylish" type="text/css">scrollbar *
  scrollbar scrollbarbutton{visibility:collapse!important;}
  scrollbar scrollbarbutton{display:none!important;}
 
  scrollbar[orient="vertical"]{background:#999 url(https://pbs.twimg.com/media/CKecQtCWoAA8keI.png)!important;-moz-appearance:none!important;min-width:9px!important;max-width:9px!important;border-radius:5px;}
  scrollbar[orient="vertical"]:hover{-moz-appearance:none!important;}
  scrollbar thumb[orient="vertical"]{background:#97b2bd!important;-moz-appearance:none!important;border-radius:4px!important;min-height:25px!important;min-width:9px!important;max-width:9px!important;border:1px!important;opacity:0.87;}
  scrollbar thumb[orient="vertical"]:hover{background:#97b2bd!important;border-radius:4px!important;border:0px!important;opacity:1;}
  
  scrollbar[orient="horizontal"]{background:#999 url(https://pbs.twimg.com/media/CKecQtCWoAA8keI.png)!important;-moz-appearance:none!important;background-color:transparent!important;opacity:.75!important;min-height:9px!important;max-height:9px!important;border-radius:5px;}
  scrollbar[orient="horizontal"]:hover{-moz-appearance:none!important;background-color:transparent!important;min-height:9px!important;max-height:9px!important}
  scrollbar thumb[orient="horizontal"]{background:#97b2bd!important;-moz-appearance:none!important;border-radius:4px!important;min-height:25px!important;max-height:8px!important;border:1px!important;margin-left:0px!important;opacity:0.87;}
  scrollbar thumb[orient="horizontal"]:hover{background:#97b2bd!important;border-radius:4px!important;border:0px!important;opacity:1;}

scrollcorner{opacity:0!important}
scrollbar scrollcorner:hover{background:transparent!important}
::-webkit-scrollbar{width:9px!important;}
body::-webkit-scrollbar{width:12.5px!important;}

::-webkit-scrollbar-track{background:rgba(255,255,255,0.22)!important;border-radius:8px!important;-webkit-box-shadow:inset 0 0 4px rgba(0,0,0,0.3)!important;}
body::-webkit-scrollbar-track{background:#999 url(https://pbs.twimg.com/media/CKecQtCWoAA8keI.png)!important;}

::-webkit-scrollbar-thumb{background-color:#97b2bd!important;background-image:-webkit-linear-gradient(294deg,rgba(255,255,255,.2) 25%,transparent 25%,transparent 50%,rgba(255,255,255,.2) 50%,rgba(255, 255, 255,.2) 75%,transparent 75%,transparent);min-height:50px;border-radius:5px!important;-webkit-box-shadow:inset 0 0 4px rgba(0,0,0,0.5)!important;}</style><g id="Expanded"><path d="M29.638,43c-9.374,0 -17,-7.626 -17,-17c0,-9.374 7.626,-17 17,-17c9.374,0 17,7.626 17,17c0,9.374 -7.626,17 -17,17Z" style="fill:#fff;fill-rule:nonzero;stroke-width:1.5px;stroke:#888;"/><path d="M29.638,47.99c-5.634,0 -11.268,-2.145 -15.557,-6.434l1.414,-1.414c7.799,7.797 20.487,7.799 28.284,0c7.797,-7.797 7.797,-20.486 0,-28.286l1.414,-1.414c8.578,8.578 8.578,22.536 0,31.114c-4.289,4.29 -9.922,6.434 -15.555,6.434Z" style="fill:#444;fill-rule:nonzero;"/><rect x="27.638" y="46.977" width="4" height="4.049" style="fill:#444;"/><path d="M43.875,56l-28.541,0c0,0 -0.501,-0.375 -0.064,-0.938c1.312,-1.687 5.094,-5.062 14.367,-5.062c9,0 12.828,3.18 14.245,4.909c0.529,0.648 -0.007,1.091 -0.007,1.091Z" style="fill:#444;fill-rule:nonzero;"/><path d="M13.374,43.264c-0.257,0 -0.513,-0.098 -0.707,-0.293c-0.392,-0.391 -0.392,-1.021 0,-1.414l2.828,-2.828c0.391,-0.391 1.022,-0.391 1.413,0c0.392,0.393 0.392,1.023 0,1.414l-2.827,2.828c-0.195,0.195 -0.451,0.293 -0.707,0.293Z" style="fill:#000;fill-rule:nonzero;"/><path d="M43.072,13.565c-0.256,0 -0.512,-0.098 -0.707,-0.293c-0.393,-0.391 -0.393,-1.023 0,-1.414l2.828,-2.828c0.391,-0.391 1.021,-0.391 1.414,0c0.391,0.391 0.391,1.023 0,1.414l-2.828,2.828c-0.195,0.196 -0.451,0.293 -0.707,0.293Z" style="fill:#000;fill-rule:nonzero;"/></g></svg>