<?xml version="1.0" encoding="UTF-8" standalone="no"?>
<!DOCTYPE svg PUBLIC "-//W3C//DTD SVG 1.1//EN" "http://www.w3.org/Graphics/SVG/1.1/DTD/svg11.dtd">
<svg preserveAspectRatio="xMinYMid" viewBox="0 0 64 64" version="1.1" xmlns="http://www.w3.org/2000/svg" xmlns:xlink="http://www.w3.org/1999/xlink" xml:space="preserve" style="fill-rule:evenodd;clip-rule:evenodd;stroke-miterlimit:1.41421;"><style id="stylish-1" class="stylish" type="text/css">scrollbar *
  scrollbar scrollbarbutton{visibility:collapse!important;}
  scrollbar scrollbarbutton{display:none!important;}
 
  scrollbar[orient="vertical"]{background:#999 url(https://pbs.twimg.com/media/CKecQtCWoAA8keI.png)!important;-moz-appearance:none!important;min-width:9px!important;max-width:9px!important;border-radius:5px;}
  scrollbar[orient="vertical"]:hover{-moz-appearance:none!important;}
  scrollbar thumb[orient="vertical"]{background:#97b2bd!important;-moz-appearance:none!important;border-radius:4px!important;min-height:25px!important;min-width:9px!important;max-width:9px!important;border:1px!important;opacity:0.87;}
  scrollbar thumb[orient="vertical"]:hover{background:#97b2bd!important;border-radius:4px!important;border:0px!important;opacity:1;}
  
  scrollbar[orient="horizontal"]{background:#999 url(https://pbs.twimg.com/media/CKecQtCWoAA8keI.png)!important;-moz-appearance:none!important;background-color:transparent!important;opacity:.75!important;min-height:9px!important;max-height:9px!important;border-radius:5px;}
  scrollbar[orient="horizontal"]:hover{-moz-appearance:none!important;background-color:transparent!important;min-height:9px!important;max-height:9px!important}
  scrollbar thumb[orient="horizontal"]{background:#97b2bd!important;-moz-appearance:none!important;border-radius:4px!important;min-height:25px!important;max-height:8px!important;border:1px!important;margin-left:0px!important;opacity:0.87;}
  scrollbar thumb[orient="horizontal"]:hover{background:#97b2bd!important;border-radius:4px!important;border:0px!important;opacity:1;}

scrollcorner{opacity:0!important}
scrollbar scrollcorner:hover{background:transparent!important}
::-webkit-scrollbar{width:9px!important;}
body::-webkit-scrollbar{width:12.5px!important;}

::-webkit-scrollbar-track{background:rgba(255,255,255,0.22)!important;border-radius:8px!important;-webkit-box-shadow:inset 0 0 4px rgba(0,0,0,0.3)!important;}
body::-webkit-scrollbar-track{background:#999 url(https://pbs.twimg.com/media/CKecQtCWoAA8keI.png)!important;}

::-webkit-scrollbar-thumb{background-color:#97b2bd!important;background-image:-webkit-linear-gradient(294deg,rgba(255,255,255,.2) 25%,transparent 25%,transparent 50%,rgba(255,255,255,.2) 50%,rgba(255, 255, 255,.2) 75%,transparent 75%,transparent);min-height:50px;border-radius:5px!important;-webkit-box-shadow:inset 0 0 4px rgba(0,0,0,0.5)!important;}</style>
    <path d="M54.5,40.977C54.5,43.186 52.777,44.977 50.654,44.977L13.345,44.977C11.222,44.977 9.5,43.186 9.5,40.977L9.5,23.024C9.5,20.815 11.222,19.024 13.345,19.024L50.656,19.024C52.779,19.024 54.501,20.815 54.501,23.024L54.5,40.977Z" style="fill:white;fill-rule:nonzero;stroke-width:1.5px;stroke:rgb(189,189,189);"/>
    <g>
        <path d="M19.311,33.688L18.639,36.11L16.426,36.11L19.311,26.671L22.113,26.671L25.04,36.11L22.743,36.11L22.014,33.688L19.311,33.688ZM21.707,32.089L21.119,30.086C20.951,29.525 20.783,28.825 20.643,28.266L20.615,28.266C20.475,28.826 20.335,29.54 20.181,30.086L19.62,32.089L21.707,32.089Z" style="fill:rgb(86,175,177);fill-rule:nonzero;"/>
        <path d="M29.124,26.794C29.685,26.683 30.819,26.599 31.884,26.599C33.186,26.599 33.985,26.725 34.672,27.131C35.33,27.481 35.807,28.125 35.807,28.98C35.807,29.821 35.317,30.605 34.251,30.998L34.251,31.025C35.33,31.319 36.128,32.131 36.128,33.35C36.128,34.204 35.736,34.877 35.149,35.354C34.462,35.901 33.315,36.208 31.439,36.208C30.388,36.208 29.604,36.141 29.127,36.066L29.124,26.794L29.124,26.794ZM31.239,30.408L31.94,30.408C33.061,30.408 33.663,29.946 33.663,29.246C33.663,28.531 33.116,28.153 32.15,28.153C31.688,28.153 31.421,28.18 31.239,28.209L31.239,30.408ZM31.239,34.598C31.449,34.625 31.701,34.625 32.066,34.625C33.032,34.625 33.887,34.261 33.887,33.266C33.887,32.314 33.033,31.936 31.968,31.936L31.239,31.936L31.239,34.598Z" style="fill:rgb(86,175,177);fill-rule:nonzero;"/>
        <path d="M47.341,35.843C46.949,36.039 46.067,36.249 44.918,36.249C41.654,36.249 39.973,34.219 39.973,31.529C39.973,28.307 42.272,26.514 45.128,26.514C46.234,26.514 47.075,26.738 47.453,26.934L47.019,28.628C46.582,28.446 45.982,28.278 45.226,28.278C43.531,28.278 42.212,29.3 42.212,31.401C42.212,33.293 43.332,34.483 45.235,34.483C45.881,34.483 46.594,34.343 47.014,34.175L47.341,35.843Z" style="fill:rgb(86,175,177);fill-rule:nonzero;"/>
    </g>
</svg>