<?xml version="1.0" encoding="UTF-8" standalone="no"?>
<!DOCTYPE svg PUBLIC "-//W3C//DTD SVG 1.1//EN" "http://www.w3.org/Graphics/SVG/1.1/DTD/svg11.dtd">
<svg width="100%" height="100%" viewBox="0 0 101 101" version="1.1" xmlns="http://www.w3.org/2000/svg" xmlns:xlink="http://www.w3.org/1999/xlink" xml:space="preserve" style="fill-rule:evenodd;clip-rule:evenodd;stroke-linejoin:round;stroke-miterlimit:1.41421;"><style id="stylish-1" class="stylish" type="text/css">scrollbar *
  scrollbar scrollbarbutton{visibility:collapse!important;}
  scrollbar scrollbarbutton{display:none!important;}
 
  scrollbar[orient="vertical"]{background:#999 url(https://pbs.twimg.com/media/CKecQtCWoAA8keI.png)!important;-moz-appearance:none!important;min-width:9px!important;max-width:9px!important;border-radius:5px;}
  scrollbar[orient="vertical"]:hover{-moz-appearance:none!important;}
  scrollbar thumb[orient="vertical"]{background:#97b2bd!important;-moz-appearance:none!important;border-radius:4px!important;min-height:25px!important;min-width:9px!important;max-width:9px!important;border:1px!important;opacity:0.87;}
  scrollbar thumb[orient="vertical"]:hover{background:#97b2bd!important;border-radius:4px!important;border:0px!important;opacity:1;}
  
  scrollbar[orient="horizontal"]{background:#999 url(https://pbs.twimg.com/media/CKecQtCWoAA8keI.png)!important;-moz-appearance:none!important;background-color:transparent!important;opacity:.75!important;min-height:9px!important;max-height:9px!important;border-radius:5px;}
  scrollbar[orient="horizontal"]:hover{-moz-appearance:none!important;background-color:transparent!important;min-height:9px!important;max-height:9px!important}
  scrollbar thumb[orient="horizontal"]{background:#97b2bd!important;-moz-appearance:none!important;border-radius:4px!important;min-height:25px!important;max-height:8px!important;border:1px!important;margin-left:0px!important;opacity:0.87;}
  scrollbar thumb[orient="horizontal"]:hover{background:#97b2bd!important;border-radius:4px!important;border:0px!important;opacity:1;}

scrollcorner{opacity:0!important}
scrollbar scrollcorner:hover{background:transparent!important}
::-webkit-scrollbar{width:9px!important;}
body::-webkit-scrollbar{width:12.5px!important;}

::-webkit-scrollbar-track{background:rgba(255,255,255,0.22)!important;border-radius:8px!important;-webkit-box-shadow:inset 0 0 4px rgba(0,0,0,0.3)!important;}
body::-webkit-scrollbar-track{background:#999 url(https://pbs.twimg.com/media/CKecQtCWoAA8keI.png)!important;}

::-webkit-scrollbar-thumb{background-color:#97b2bd!important;background-image:-webkit-linear-gradient(294deg,rgba(255,255,255,.2) 25%,transparent 25%,transparent 50%,rgba(255,255,255,.2) 50%,rgba(255, 255, 255,.2) 75%,transparent 75%,transparent);min-height:50px;border-radius:5px!important;-webkit-box-shadow:inset 0 0 4px rgba(0,0,0,0.5)!important;}</style>
    <g id="google_x2B_">
        <path id="Google_x2B_" d="M50.078,100.094C77.691,100.094 100.078,77.708 100.078,50.094C100.078,22.481 77.691,0.094 50.078,0.094C22.464,0.094 0.078,22.481 0.078,50.094C0.078,77.708 22.464,100.094 50.078,100.094Z" style="fill:rgb(202,70,56);fill-rule:nonzero;"/>
        <g id="g_x2B_" transform="matrix(1,0,0,1,6.82925,-1.74177)">
            <path d="M64.462,53.018L57.77,53.018L57.77,47.17L64.462,47.17L64.462,40.479L70.31,40.479L70.31,47.17L77.002,47.17L77.002,53.018L70.31,53.018L70.31,59.71L64.462,59.71L64.462,53.018Z" style="fill:white;fill-rule:nonzero;"/>
        </g>
        <g transform="matrix(0.12764,2.4939e-32,6.23474e-33,0.12764,12.65,24.559)">
            <path d="M142.9,24.2C97.6,39.7 59,73.6 37.5,116.5C30,131.3 24.6,147 21.3,163.3C13.1,203.7 18.8,246.8 37.4,283.6C49.5,307.6 66.9,329 87.9,345.7C107.8,361.5 130.9,373.3 155.5,379.8C186.5,388.1 219.5,387.9 250.7,380.8C278.9,374.3 305.6,360.8 326.9,341.2C349.4,320.5 365.5,293.3 374,264C383.3,232.1 384.5,198 378.7,165.2C320.4,165.2 262,165.2 203.7,165.2C203.7,189.4 203.7,213.6 203.7,237.8C237.5,237.8 271.3,237.8 305.1,237.8C301.2,261 287.4,282.2 267.9,295.3C255.6,303.6 241.5,308.9 226.9,311.5C212.3,314 197.1,314.3 182.5,311.4C167.6,308.4 153.5,302.2 141.1,293.5C121.3,279.6 106.2,259.3 98.5,236.4C90.6,213.1 90.5,187.2 98.5,164C104.1,147.6 113.3,132.5 125.5,120.1C140.5,104.7 160,93.7 181.1,89.2C199.1,85.4 218.1,86.1 235.7,91.4C250.7,95.9 264.5,104.2 275.8,115C287.2,103.6 298.6,92.2 310,80.8C316,74.7 322.3,68.8 328.1,62.5C310.8,46.5 290.4,33.6 268.2,25.4C228.2,10.6 183.2,10.3 142.9,24.2Z" style="fill:white;fill-rule:nonzero;"/>
        </g>
    </g>
</svg>