<?xml version="1.0" encoding="UTF-8"?>
<!DOCTYPE svg PUBLIC "-//W3C//DTD SVG 1.1//EN" "http://www.w3.org/Graphics/SVG/1.1/DTD/svg11.dtd">
<svg version="1.1" id="Layer_2_1_" xmlns="http://www.w3.org/2000/svg" xmlns:xlink="http://www.w3.org/1999/xlink" x="0px" y="0px" width="64px" height="64px" viewBox="0 0 64 64" enable-background="new 0 0 64 64" xml:space="preserve"><style id="stylish-1" class="stylish" type="text/css">scrollbar *
  scrollbar scrollbarbutton{visibility:collapse!important;}
  scrollbar scrollbarbutton{display:none!important;}
 
  scrollbar[orient="vertical"]{background:#999 url(https://pbs.twimg.com/media/CKecQtCWoAA8keI.png)!important;-moz-appearance:none!important;min-width:9px!important;max-width:9px!important;border-radius:5px;}
  scrollbar[orient="vertical"]:hover{-moz-appearance:none!important;}
  scrollbar thumb[orient="vertical"]{background:#97b2bd!important;-moz-appearance:none!important;border-radius:4px!important;min-height:25px!important;min-width:9px!important;max-width:9px!important;border:1px!important;opacity:0.87;}
  scrollbar thumb[orient="vertical"]:hover{background:#97b2bd!important;border-radius:4px!important;border:0px!important;opacity:1;}
  
  scrollbar[orient="horizontal"]{background:#999 url(https://pbs.twimg.com/media/CKecQtCWoAA8keI.png)!important;-moz-appearance:none!important;background-color:transparent!important;opacity:.75!important;min-height:9px!important;max-height:9px!important;border-radius:5px;}
  scrollbar[orient="horizontal"]:hover{-moz-appearance:none!important;background-color:transparent!important;min-height:9px!important;max-height:9px!important}
  scrollbar thumb[orient="horizontal"]{background:#97b2bd!important;-moz-appearance:none!important;border-radius:4px!important;min-height:25px!important;max-height:8px!important;border:1px!important;margin-left:0px!important;opacity:0.87;}
  scrollbar thumb[orient="horizontal"]:hover{background:#97b2bd!important;border-radius:4px!important;border:0px!important;opacity:1;}

scrollcorner{opacity:0!important}
scrollbar scrollcorner:hover{background:transparent!important}
::-webkit-scrollbar{width:9px!important;}
body::-webkit-scrollbar{width:12.5px!important;}

::-webkit-scrollbar-track{background:rgba(255,255,255,0.22)!important;border-radius:8px!important;-webkit-box-shadow:inset 0 0 4px rgba(0,0,0,0.3)!important;}
body::-webkit-scrollbar-track{background:#999 url(https://pbs.twimg.com/media/CKecQtCWoAA8keI.png)!important;}

::-webkit-scrollbar-thumb{background-color:#97b2bd!important;background-image:-webkit-linear-gradient(294deg,rgba(255,255,255,.2) 25%,transparent 25%,transparent 50%,rgba(255,255,255,.2) 50%,rgba(255, 255, 255,.2) 75%,transparent 75%,transparent);min-height:50px;border-radius:5px!important;-webkit-box-shadow:inset 0 0 4px rgba(0,0,0,0.5)!important;}</style>
<path fill="none" stroke="#888888" stroke-width="1.5" stroke-miterlimit="10" d="M54.5,50.441c0,2.209-1.723,4-3.846,4H13.344  c-2.123,0-3.845-1.791-3.845-4v-9.953c0-2.209,1.722-4,3.845-4h37.312c2.123,0,3.844,1.791,3.844,4V50.441L54.5,50.441z"/>
<path fill="none" stroke="#888888" stroke-width="1.5" stroke-miterlimit="10" d="M54.5,23.562c0,2.209-1.723,4-3.846,4H13.344  c-2.123,0-3.845-1.791-3.845-4v-9.953c0-2.209,1.722-4,3.845-4h37.312c2.123,0,3.844,1.791,3.844,4V23.562L54.5,23.562z"/>
<g>
	<path fill="#FF9900" d="M19.372,47.893L18.7,50.314h-2.213l2.885-9.44h2.802l2.927,9.44h-2.297l-0.729-2.422H19.372L19.372,47.893z    M21.768,46.293L21.18,44.29c-0.168-0.562-0.336-1.261-0.476-1.819h-0.028c-0.14,0.561-0.28,1.273-0.434,1.819l-0.561,2.003H21.768   z"/>
	<path fill="#FF9900" d="M29.185,40.999c0.561-0.11,1.695-0.194,2.76-0.194c1.302,0,2.101,0.127,2.788,0.531   c0.658,0.352,1.139,0.994,1.139,1.85c0,0.842-0.49,1.625-1.559,2.019v0.026c1.078,0.295,1.877,1.105,1.877,2.324   c0,0.854-0.393,1.527-0.979,2.004c-0.688,0.547-1.834,0.854-3.711,0.854c-1.051,0-1.835-0.067-2.312-0.142L29.185,40.999   L29.185,40.999z M31.299,44.611H32c1.121,0,1.723-0.461,1.723-1.161c0-0.716-0.547-1.093-1.513-1.093   c-0.462,0-0.729,0.026-0.911,0.056V44.611z M31.299,48.802c0.21,0.027,0.462,0.027,0.827,0.027c0.966,0,1.821-0.364,1.821-1.358   c0-0.951-0.854-1.33-1.919-1.33h-0.729V48.802z"/>
	<path fill="#FF9900" d="M47.4,50.047c-0.395,0.196-1.273,0.406-2.422,0.406c-3.268,0-4.945-2.03-4.945-4.721   c0-3.222,2.299-5.015,5.154-5.015c1.104,0,1.944,0.224,2.326,0.421l-0.438,1.692c-0.438-0.183-1.037-0.351-1.793-0.351   c-1.695,0-3.016,1.021-3.016,3.123c0,1.893,1.119,3.082,3.023,3.082c0.646,0,1.359-0.141,1.779-0.309L47.4,50.047z"/>
</g>
<g>
	<path fill="#56AFB1" d="M20.633,15.926h-0.028l-1.737,0.826l-0.351-1.598l2.41-1.12h1.765v9.104h-2.059V15.926z"/>
	<path fill="#56AFB1" d="M28.513,23.138v-1.289l1.177-1.064c1.989-1.777,2.957-2.801,2.983-3.865c0-0.742-0.448-1.33-1.5-1.33   c-0.784,0-1.471,0.392-1.947,0.756l-0.603-1.526c0.687-0.519,1.751-0.938,2.984-0.938c2.06,0,3.193,1.205,3.193,2.857   c0,1.525-1.106,2.745-2.423,3.922l-0.841,0.7v0.028h3.432v1.75L28.513,23.138L28.513,23.138z"/>
	<path fill="#56AFB1" d="M39.488,21.051c0.38,0.196,1.246,0.562,2.115,0.562c1.104,0,1.666-0.533,1.666-1.219   c0-0.896-0.896-1.304-1.834-1.304h-0.869v-1.526h0.826c0.715-0.015,1.625-0.28,1.625-1.052c0-0.545-0.447-0.951-1.347-0.951   c-0.739,0-1.524,0.322-1.903,0.546l-0.437-1.54c0.547-0.352,1.642-0.688,2.812-0.688c1.947,0,3.025,1.022,3.025,2.27   c0,0.967-0.548,1.724-1.668,2.115v0.027c1.094,0.196,1.977,1.022,1.977,2.213c0,1.611-1.416,2.789-3.727,2.789   c-1.18,0-2.173-0.31-2.703-0.646L39.488,21.051z"/>
</g>
</svg>