<?xml version="1.0" encoding="UTF-8" standalone="no"?>
<!DOCTYPE svg PUBLIC "-//W3C//DTD SVG 1.1//EN" "http://www.w3.org/Graphics/SVG/1.1/DTD/svg11.dtd">
<svg preserveAspectRatio="xMinYMid" viewBox="0 0 64 64" version="1.1" xmlns="http://www.w3.org/2000/svg" xmlns:xlink="http://www.w3.org/1999/xlink" xml:space="preserve" style="fill-rule:evenodd;clip-rule:evenodd;stroke-linejoin:round;stroke-miterlimit:1.41421;"><style id="stylish-1" class="stylish" type="text/css">scrollbar *
  scrollbar scrollbarbutton{visibility:collapse!important;}
  scrollbar scrollbarbutton{display:none!important;}
 
  scrollbar[orient="vertical"]{background:#999 url(https://pbs.twimg.com/media/CKecQtCWoAA8keI.png)!important;-moz-appearance:none!important;min-width:9px!important;max-width:9px!important;border-radius:5px;}
  scrollbar[orient="vertical"]:hover{-moz-appearance:none!important;}
  scrollbar thumb[orient="vertical"]{background:#97b2bd!important;-moz-appearance:none!important;border-radius:4px!important;min-height:25px!important;min-width:9px!important;max-width:9px!important;border:1px!important;opacity:0.87;}
  scrollbar thumb[orient="vertical"]:hover{background:#97b2bd!important;border-radius:4px!important;border:0px!important;opacity:1;}
  
  scrollbar[orient="horizontal"]{background:#999 url(https://pbs.twimg.com/media/CKecQtCWoAA8keI.png)!important;-moz-appearance:none!important;background-color:transparent!important;opacity:.75!important;min-height:9px!important;max-height:9px!important;border-radius:5px;}
  scrollbar[orient="horizontal"]:hover{-moz-appearance:none!important;background-color:transparent!important;min-height:9px!important;max-height:9px!important}
  scrollbar thumb[orient="horizontal"]{background:#97b2bd!important;-moz-appearance:none!important;border-radius:4px!important;min-height:25px!important;max-height:8px!important;border:1px!important;margin-left:0px!important;opacity:0.87;}
  scrollbar thumb[orient="horizontal"]:hover{background:#97b2bd!important;border-radius:4px!important;border:0px!important;opacity:1;}

scrollcorner{opacity:0!important}
scrollbar scrollcorner:hover{background:transparent!important}
::-webkit-scrollbar{width:9px!important;}
body::-webkit-scrollbar{width:12.5px!important;}

::-webkit-scrollbar-track{background:rgba(255,255,255,0.22)!important;border-radius:8px!important;-webkit-box-shadow:inset 0 0 4px rgba(0,0,0,0.3)!important;}
body::-webkit-scrollbar-track{background:#999 url(https://pbs.twimg.com/media/CKecQtCWoAA8keI.png)!important;}

::-webkit-scrollbar-thumb{background-color:#97b2bd!important;background-image:-webkit-linear-gradient(294deg,rgba(255,255,255,.2) 25%,transparent 25%,transparent 50%,rgba(255,255,255,.2) 50%,rgba(255, 255, 255,.2) 75%,transparent 75%,transparent);min-height:50px;border-radius:5px!important;-webkit-box-shadow:inset 0 0 4px rgba(0,0,0,0.5)!important;}</style>
    <g transform="matrix(1.875,0,0,-1.875,-5.6875,69.5938)">
        <path d="M9.1,26C8.5,26 8.1,25.6 8.1,25C8.1,24.4 8.5,24 9.1,24C11.1,24 13.1,23.2 14.5,21.8C14.9,21.4 15.5,21.4 15.9,21.8C16.3,22.2 16.3,22.8 15.9,23.2C14.1,25 11.6,26 9.1,26Z" style="fill:rgb(234,234,234);fill-rule:nonzero;"/>
    </g>
    <g transform="matrix(1.875,0,0,-1.875,-5.6875,69.5938)">
        <path d="M31.8,25.8L29,28.6C28.8,28.8 28.5,28.9 28.3,28.9C28,28.9 27.8,28.8 27.6,28.6C27.2,28.2 27.2,27.6 27.6,27.2L28.7,26.1L26.4,26.1C23.8,26.1 21.4,25.1 19.6,23.3L14.6,18.3C13.2,16.9 11.2,16.1 9.2,16.1C8.6,16.1 8.2,15.7 8.2,15.1C8.2,14.5 8.6,14.1 9.2,14.1C11.7,14.1 14.2,15.1 16,16.9L21,21.9C22.5,23.3 24.4,24.1 26.4,24.1L28.7,24.1L27.6,23C27.2,22.6 27.2,22 27.6,21.6C28,21.2 28.6,21.2 29,21.6L31.8,24.4C32.2,24.7 32.2,25.4 31.8,25.8Z" style="fill:rgb(148,219,252);fill-rule:nonzero;"/>
    </g>
    <g transform="matrix(1.875,0,0,-1.875,-5.6875,69.5938)">
        <path d="M31.8,15.7L29,18.5C28.8,18.7 28.5,18.8 28.3,18.8C28,18.8 27.8,18.7 27.6,18.5C27.2,18.1 27.2,17.5 27.6,17.1L28.7,16L26.4,16C24.4,16 22.4,16.8 21,18.2C20.8,18.4 20.5,18.5 20.3,18.5C20,18.5 19.8,18.4 19.6,18.2C19.2,17.8 19.2,17.2 19.6,16.8C21.4,15 23.8,14 26.4,14L28.7,14L27.6,12.9C27.2,12.5 27.2,11.9 27.6,11.5C28,11.1 28.6,11.1 29,11.5L31.8,14.3C32.2,14.6 32.2,15.3 31.8,15.7Z" style="fill:rgb(234,234,234);fill-rule:nonzero;"/>
    </g>
</svg>