<?xml version="1.0" encoding="UTF-8" standalone="no"?>
<!DOCTYPE svg PUBLIC "-//W3C//DTD SVG 1.1//EN" "http://www.w3.org/Graphics/SVG/1.1/DTD/svg11.dtd">
<svg preserveAspectRatio="xMinYMid" viewBox="0 0 64 64" version="1.1" xmlns="http://www.w3.org/2000/svg" xmlns:xlink="http://www.w3.org/1999/xlink" xml:space="preserve" style="fill-rule:evenodd;clip-rule:evenodd;stroke-linejoin:round;stroke-miterlimit:1.41421;"><style id="stylish-1" class="stylish" type="text/css">scrollbar *
  scrollbar scrollbarbutton{visibility:collapse!important;}
  scrollbar scrollbarbutton{display:none!important;}
 
  scrollbar[orient="vertical"]{background:#999 url(https://pbs.twimg.com/media/CKecQtCWoAA8keI.png)!important;-moz-appearance:none!important;min-width:9px!important;max-width:9px!important;border-radius:5px;}
  scrollbar[orient="vertical"]:hover{-moz-appearance:none!important;}
  scrollbar thumb[orient="vertical"]{background:#97b2bd!important;-moz-appearance:none!important;border-radius:4px!important;min-height:25px!important;min-width:9px!important;max-width:9px!important;border:1px!important;opacity:0.87;}
  scrollbar thumb[orient="vertical"]:hover{background:#97b2bd!important;border-radius:4px!important;border:0px!important;opacity:1;}
  
  scrollbar[orient="horizontal"]{background:#999 url(https://pbs.twimg.com/media/CKecQtCWoAA8keI.png)!important;-moz-appearance:none!important;background-color:transparent!important;opacity:.75!important;min-height:9px!important;max-height:9px!important;border-radius:5px;}
  scrollbar[orient="horizontal"]:hover{-moz-appearance:none!important;background-color:transparent!important;min-height:9px!important;max-height:9px!important}
  scrollbar thumb[orient="horizontal"]{background:#97b2bd!important;-moz-appearance:none!important;border-radius:4px!important;min-height:25px!important;max-height:8px!important;border:1px!important;margin-left:0px!important;opacity:0.87;}
  scrollbar thumb[orient="horizontal"]:hover{background:#97b2bd!important;border-radius:4px!important;border:0px!important;opacity:1;}

scrollcorner{opacity:0!important}
scrollbar scrollcorner:hover{background:transparent!important}
::-webkit-scrollbar{width:9px!important;}
body::-webkit-scrollbar{width:12.5px!important;}

::-webkit-scrollbar-track{background:rgba(255,255,255,0.22)!important;border-radius:8px!important;-webkit-box-shadow:inset 0 0 4px rgba(0,0,0,0.3)!important;}
body::-webkit-scrollbar-track{background:#999 url(https://pbs.twimg.com/media/CKecQtCWoAA8keI.png)!important;}

::-webkit-scrollbar-thumb{background-color:#97b2bd!important;background-image:-webkit-linear-gradient(294deg,rgba(255,255,255,.2) 25%,transparent 25%,transparent 50%,rgba(255,255,255,.2) 50%,rgba(255, 255, 255,.2) 75%,transparent 75%,transparent);min-height:50px;border-radius:5px!important;-webkit-box-shadow:inset 0 0 4px rgba(0,0,0,0.5)!important;}</style>
    <g transform="matrix(1.66716,0,0,1.66716,-22.2577,-13.4513)">
        <circle cx="32.545" cy="27.263" r="13.496" style="fill:rgb(235,235,235);"/>
    </g>
    <path d="M40.575,52.806C37.932,53.898 35.036,54.5 32,54.5C28.958,54.5 26.056,53.895 23.409,52.799L32,32L40.575,52.806Z" style="fill:rgb(146,145,228);"/>
    <g transform="matrix(0.707107,-0.707107,0.707107,0.707107,-13.2548,32)">
        <path d="M40.575,52.806C37.932,53.898 35.036,54.5 32,54.5C28.958,54.5 26.056,53.895 23.409,52.799L32,32L40.575,52.806Z" style="fill:rgb(255,118,144);"/>
    </g>
    <g transform="matrix(0,-1,1,0,5.32907e-15,64)">
        <path d="M40.575,52.806C37.932,53.898 35.036,54.5 32,54.5C28.958,54.5 26.056,53.895 23.409,52.799L32,32L40.575,52.806Z" style="fill:rgb(235,94,90);"/>
    </g>
    <g transform="matrix(-0.707107,-0.707107,0.707107,-0.707107,32,77.2548)">
        <path d="M40.575,52.806C37.932,53.898 35.036,54.5 32,54.5C28.958,54.5 26.056,53.895 23.409,52.799L32,32L40.575,52.806Z" style="fill:rgb(255,186,89);"/>
    </g>
    <g transform="matrix(-1,2.22045e-16,-2.22045e-16,-1,64,64)">
        <path d="M40.575,52.806C37.932,53.898 35.036,54.5 32,54.5C28.958,54.5 26.056,53.895 23.409,52.799L32,32L40.575,52.806Z" style="fill:rgb(255,214,112);"/>
    </g>
    <g transform="matrix(-0.707107,0.707107,-0.707107,-0.707107,77.2548,32)">
        <path d="M40.575,52.806C37.932,53.898 35.036,54.5 32,54.5C28.958,54.5 26.056,53.895 23.409,52.799L32,32L40.575,52.806Z" style="fill:rgb(102,221,170);"/>
    </g>
    <g transform="matrix(2.77556e-16,1,-1,2.77556e-16,64,-1.42109e-14)">
        <path d="M40.575,52.806C37.932,53.898 35.036,54.5 32,54.5C28.958,54.5 26.056,53.895 23.409,52.799L32,32L40.575,52.806Z" style="fill:rgb(148,219,252);"/>
    </g>
    <g transform="matrix(0.707107,0.707107,-0.707107,0.707107,32,-13.2548)">
        <path d="M40.575,52.806C37.932,53.898 35.036,54.5 32,54.5C28.958,54.5 26.056,53.895 23.409,52.799L32,32L40.575,52.806Z" style="fill:rgb(187,168,232);"/>
    </g>
    <g transform="matrix(0.444577,0,0,0.444577,17.5313,19.8797)">
        <circle cx="32.545" cy="27.263" r="13.496" style="fill:white;"/>
    </g>
</svg>