<svg version="1.1" xmlns="http://www.w3.org/2000/svg" xmlns:xlink="http://www.w3.org/1999/xlink" viewBox="0 0 900 600">
	<title>Europe Rainbow Flag</title>
	<defs>
		<path id="Star" d="m0-100l22.4514 69.0983 72.6543 0-58.7781 42.7051 22.4509 69.0983-58.7785-42.7051-58.7785 42.7051 22.4509-69.0983-58.7781-42.7051 72.6543 0z"/>
	</defs>
	<g id="eurobowflag">
		<g id="rainbowflag">
			<title>The Gay Pride Rainbow Flag</title>
			<rect id="Red" fill="#F00" width="900" height="100"/>
			<rect id="Tan" fill="#FF9800" width="900" height="100" y="100"/>
			<rect id="Yellow" fill="#FF0" width="900" height="100" y="200"/>
			<rect id="Green" fill="#009800" width="900" height="100" y="300"/>
			<rect id="Blue" fill="#00F" width="900" height="100" y="400"/>
			<rect id="Purple" fill="#980098" width="900" height="100" y="500"/>
		</g>
		<g id="euroflag" transform="scale(0.166666666667) translate(1350,900)">
			<g id="EuropeanFlag" stroke="none" stroke-width="0">
				<title>Flag of Europe, by Adam Stanislav</title>
				<desc>The flag of Europe displays a circle of golden mullets (heraldic stars, not fish or hairdos) on an azure field. The number of the stars is twelve. It does not change when a new country joins the European Union, nor does it change if a country brexits the EU. That is because it is a flag of Europe, all of Europe, not just EU. The 12 stars are arranged like the hours of a clock, except they all point straight up, without being rotated at an angle around the clock. The dimensions of the flag are as follows (in relative units): It is two units high, three units wide, the center of the circle of the stars is in the center of the flag, the radius of the circle is 2/3 units (the circle is just a description of the arrangement of the stars, no actual circle is drawn on the flag), the stars are five-pointed and if we were to draw a circle connecting the points of any of the stars, its diameter would be 2/9 units, which is the same as saying its radius would be 1/9 units. Because all these dimensions are precisely defined, it is best to create a vector of the flag by coding it programmatically, like we are doing here, instead of trying to draw it in any drawing software. (See https://en.wikipedia.org/wiki/Flag_of_Europe#Design for those specifications.)</desc>
				<g id="AzureField" fill="#039">
					<rect x="-1350" y="-900" width="2700" height="1800"/>
				</g>
				<g id="GoldMullets" fill="#FC0">
					<use x="0" y="-600" xlink:href="#Star"/>
					<use x="300" y="-519.615" xlink:href="#Star"/>
					<use x="519.615" y="-300" xlink:href="#Star"/>
					<use x="600" y="0" xlink:href="#Star"/>
					<use x="519.615" y="300" xlink:href="#Star"/>
					<use x="300" y="519.615" xlink:href="#Star"/>
					<use x="0" y="600" xlink:href="#Star"/>
					<use x="-300" y="519.615" xlink:href="#Star"/>
					<use x="-519.615" y="300" xlink:href="#Star"/>
					<use x="-600" y="0" xlink:href="#Star"/>
					<use x="-300" y="-519.615" xlink:href="#Star"/>
					<use x="-519.615" y="-300" xlink:href="#Star"/>
				</g>
			</g>
		</g>
	</g>
</svg>
