<svg version="1.1" xmlns="http://www.w3.org/2000/svg" x="0px" y="0px" viewBox="0 0 204.1 123.6" xml:space="preserve">
	<g fill="#FE0000">
		<path d="M137.5,21.6c0-3.3-0.2-5.1-0.2-5.3C137.4,16.5,137.5,18.3,137.5,21.6L137.5,21.6z"/>
		<path d="M1.9,1.6v20h64.3c0-3.6,0.2-5.4,0.2-5.4l0.1-0.6h32.3h1.3h4.3h1.3H138l0,0.6c0,0,0.1,1.8,0.2,5.4h64.3v-20H1.9 z"/>
	</g>
	<g fill="#FF7A00">
		<polygon points="89.2,22 89.2,25.1 92.2,25.1 92.2,25.1 89.2,25.1 89.2,22"/>
		<path d="M137.1,41.6L137.1,41.6c0.5-9.2,0.5-15.8,0.5-20h0C137.6,25.8,137.5,32.4,137.1,41.6z"/>
		<path d="M137.7,41.6h64.8v-20h-64.3C138.3,25.8,138.2,32.4,137.7,41.6z"/>
		<path d="M66.2,21.6H1.9v20h64.8C66.2,32.4,66.1,25.8,66.2,21.6z"/>
	</g>
	<g fill="#FDF000">
		<path d="M67.5,53.6L67.5,53.6L67.4,53v0l0-0.2c-0.2-2-0.3-4-0.4-5.9l0-0.6l0-0.7c-0.1-1.4-0.2-2.7-0.2-3.9H1.9v20h67.6 C68.7,59,68,56.3,67.5,53.6z"/>
		<path d="M134.2,61.6c0.9-2.8,1.6-5.7,2.2-8.7C135.8,56,135,58.8,134.2,61.6L134.2,61.6z"/>
		<path d="M68,52.9c-0.2-2.3-0.3-4.6-0.4-6.7C67.7,48.3,67.8,50.6,68,52.9z"/>
		<path d="M136.8,46.2c0.1-1.6,0.2-3.1,0.3-4.6h0C137,43.1,136.9,44.6,136.8,46.2z"/>
		<path d="M137.5,45.6l0,0.7l0,0.6c-0.1,1.9-0.2,3.9-0.4,6l0,0.6h-0.1c-0.6,2.8-1.3,5.5-2.1,8.1h67.6v-20h-64.8 C137.7,42.9,137.6,44.2,137.5,45.6z"/>
	</g>
	<g fill="#3DA500">
		<path d="M125,81.6L125,81.6c3.6-5.7,6.9-12.4,9.2-20h0C131.8,69.2,128.5,75.9,125,81.6z"/>
		<path d="M125.8,81.6h76.8v-20h-67.6C132.5,69.2,129.3,75.8,125.8,81.6z"/>
		<path d="M69.5,61.6H1.9v20h76.8C75.1,75.8,71.9,69.2,69.5,61.6z"/>
	</g>
	<g fill="#0061A8">
		<path d="M108.4,101.6L108.4,101.6c4.6-4.2,10.9-10.9,16.5-20h0C119.3,90.7,113,97.4,108.4,101.6z"/>
		<path d="M78.6,81.6H1.9v20H95C90.3,97.2,84.1,90.5,78.6,81.6z"/>
		<path d="M109.4,101.6h93.1v-20h-76.8C120.3,90.5,114.1,97.2,109.4,101.6z"/>
	</g>
	<g fill="#880096">
		<path d="M105,104.6L105,104.6c1-0.8,2.1-1.8,3.4-3h0C107.1,102.8,106,103.8,105,104.6z"/>
		<path d="M99.4,101.6L99.4,101.6l0,3c1.8,1.5,2.8,2.2,2.8,2.2s0,0,0,0c0,0-1.1-0.8-2.8-2.2V101.6z"/>
		<path d="M105.7,104.9l-0.2,0.2l-1.1,0.9v0c-1.1,0.9-1.7,1.3-1.8,1.3l-0.4,0.3l-0.4-0.3c0,0-0.7-0.5-1.8-1.3v0l-1.1-0.9 l-0.2-0.2c-1.1-0.9-2.3-2-3.7-3.3H1.9v20h200.7v-20h-93.1C108,102.9,106.7,104,105.7,104.9z"/>
	</g>
	<path d="M66.7,41.6c0.1,1.3,0.1,2.6,0.2,3.9l0,0.7l0,0.6c0.1,1.9,0.2,3.8,0.4,5.9l0,0.2v0l0,0.6h0.1c0.6,2.8,1.3,5.5,2.1,8.1 c2.3,7.6,5.6,14.2,9.1,20c5.5,8.9,11.7,15.6,16.3,20c1.4,1.3,2.7,2.4,3.7,3.3l0.2,0.2l1.1,0.9v0c1.1,0.9,1.7,1.3,1.8,1.3l0.4,0.3 l0.4-0.3c0,0,0.7-0.5,1.8-1.3v0l1.1-0.9l0.2-0.2c1.1-0.9,2.3-2,3.7-3.3c4.7-4.4,10.9-11.1,16.3-20c3.5-5.8,6.8-12.4,9.1-20 c0.8-2.6,1.5-5.3,2.1-8.1h0.1l0-0.6c0.1-2.1,0.3-4.1,0.4-6l0-0.6l0-0.7c0.1-1.4,0.2-2.7,0.2-3.9c0.5-9.2,0.5-15.8,0.5-20 c0-3.6-0.2-5.4-0.2-5.4l0-0.6h-32.3h-1.3h-4.3h-1.3H66.4l-0.1,0.6c0,0-0.1,1.8-0.2,5.4C66.1,25.8,66.2,32.4,66.7,41.6z M99.4,16.3 L99.4,16.3h2.8h2.8h32.4c0,0,0,0,0,0c0,0.2,0.1,2,0.2,5.3c0.1,4.1,0,10.7-0.5,20c-0.1,1.5-0.2,3-0.3,4.6h0 c-0.1,2.1-0.3,4.3-0.4,6.7h0c0,0,0,0,0,0.1c-0.6,3-1.3,5.9-2.2,8.7c-2.4,7.6-5.6,14.2-9.2,20c-5.6,9.1-12,15.8-16.5,20 c-1.3,1.2-2.5,2.2-3.4,3v0c-1.8,1.4-2.8,2.2-2.8,2.2s0,0,0,0c0,0,0,0,0,0s-1.1-0.7-2.8-2.2C92.2,98.7,73.4,80.8,68,53 c0,0,0,0,0-0.1c-0.2-2.3-0.3-4.6-0.4-6.7c-1.2-20.5-0.5-30-0.5-30H99.4z"/>
	<path fill="#4278D3" d="M67.6,46.2h31.8v-30H67C67,16.3,66.3,25.8,67.6,46.2z M73.6,43.7h-1.3v0v-3h-3v-1.3h3v-3h1.3v3h3h0v1.3h0h-3 V43.7L73.6,43.7z M92.2,25.1L92.2,25.1v1.3h-3v3h0h-1.3h0v-3h-3h0v-1.3h0h3v-3h0h1.3h0v3H92.2z M79.7,31.1L79.7,31.1l0-1.3h0h3v-3 h0H84h0v3h3v1.3h-3v3h0v0h-1.3v-3H79.7z M89.2,39L89.2,39h-1.3v-3h-3v-1.3v0h3v-3v0h1.3v0h0v3h3V36h0h-3V39z M77.6,22h1.3v3h3v0 v1.3h-3v3h0h-1.3h0v-3h-3v-1.3h3V22z M77.6,34.7v-3v0h1.3v0v3h3V36h0h-3v3h-1.3v-3h-3v-1.3v0H77.6z M94.5,43.7L94.5,43.7l-1.3,0v0 v-3h-3h0v-1.3h0h3v-3h1.3v3h3v1.3h-3V43.7z M90.1,20.6h3v-3h1.3v3h3v1.3h-3v3h-1.3v-3h-3h0L90.1,20.6L90.1,20.6z M72.2,20.6v-3h1.3 v3h3v1.3v0h-3v3h-1.3v-3h-3v-1.3H72.2z"/>
	<g fill="#FEFEFE">
		<path d="M99.4,81.6v-20v-8.7H68c0,0,0,0,0,0.1c5.4,27.9,24.2,45.7,31.4,51.7v-3V81.6z"/>
		<path d="M105,46.2h31.8c0.1-1.6,0.2-3.1,0.3-4.6c0.5-9.2,0.5-15.8,0.5-20c0-3.3-0.1-5.1-0.2-5.3c0,0,0,0,0,0H105V46.2z"/>
		<path d="M105,104.6c1-0.8,2.1-1.8,3.4-3c4.6-4.2,10.9-10.9,16.5-20c3.6-5.7,6.9-12.4,9.2-20c0.9-2.8,1.6-5.7,2.2-8.7 c0,0,0,0,0-0.1H105V104.6z"/>
	</g>
	<path fill="#D8001D" d="M99.4,46.2H67.6c0.1,2.1,0.3,4.3,0.4,6.7h31.4h0v8.7v20v20v3c1.7,1.4,2.8,2.2,2.8,2.2c0,0,0,0,0,0 s1.1-0.7,2.8-2.2v0l0,0V52.9h31.4h0c0.2-2.3,0.3-4.6,0.4-6.7h0H105v-30h-2.8h-2.8h0V46.2z"/>
	<g fill="#FFF">
		<polygon points="74.5,26.4 77.6,26.4 77.6,29.4 77.6,29.4 78.9,29.4 78.9,26.4 78.9,26.4 81.9,26.4 81.9,25.1 78.9,25.1 78.9,25.1 78.9,22 77.6,22 77.6,25.1 74.5,25.1"/>
		<polygon points="89.2,22 87.9,22 87.8,22 87.8,25.1 84.8,25.1 84.8,25.1 84.8,26.4 84.8,26.4 87.8,26.4 87.8,29.4 87.9,29.4 89.2,29.4 89.2,26.4 89.2,26.4 92.2,26.4 92.2,25.1 89.2,25.1"/>
		<polygon points="74.5,34.7 74.5,36 77.6,36 77.6,39 78.9,39 78.9,36 81.9,36 81.9,36 81.9,34.7 78.9,34.7 78.9,31.6 78.9,31.6 77.6,31.6 77.6,31.6 77.6,34.7 74.5,34.7"/>
		<polygon points="92.2,36 92.2,34.7 89.2,34.7 89.2,34.7 89.2,31.6 89.2,31.6 87.8,31.6 87.8,31.6 87.8,34.7 84.8,34.7 84.8,34.7 84.8,36 87.8,36 87.8,39 89.2,39 89.2,36 89.2,36 92.2,36"/>
		<polygon points="84,34.2 84,34.2 84,31.1 84,31.1 87.1,31.1 87.1,29.8 84,29.8 84,29.8 84,26.8 82.7,26.8 82.7,26.8 82.7,29.8 79.7,29.8 79.7,29.8 79.7,31.1 79.7,31.1 82.7,31.1 82.7,34.2"/>
		<polygon points="90.1,21.9 90.1,21.9 93.2,21.9 93.2,24.9 94.5,24.9 94.5,21.9 97.5,21.9 97.5,20.6 94.5,20.6 94.5,17.5 93.2,17.5 93.2,20.6 90.1,20.6 90.1,20.6"/>
		<polygon points="73.6,40.6 76.6,40.6 76.6,40.6 76.6,39.3 76.6,39.3 73.6,39.3 73.6,36.3 72.2,36.3 72.2,39.3 69.2,39.3 69.2,40.6 72.2,40.6 72.2,43.7 72.2,43.7 73.6,43.7 73.6,43.7"/>
		<polygon points="69.2,21.9 72.2,21.9 72.2,24.9 73.6,24.9 73.6,21.9 76.6,21.9 76.6,21.9 76.6,20.6 73.6,20.6 73.6,17.5 72.2,17.5 72.2,20.6 69.2,20.6"/>
		<polygon points="97.5,40.6 97.5,39.3 94.5,39.3 94.5,36.3 93.2,36.3 93.2,39.3 90.1,39.3 90.1,39.3 90.1,40.6 90.1,40.6 93.2,40.6 93.2,43.7 93.2,43.7 94.5,43.7 94.5,43.7 94.5,40.6"/>
	</g>
</svg>
