<?xml version="1.0" encoding="utf-8"?>
<!-- Generator: Adobe Illustrator 19.1.0, SVG Export Plug-In . SVG Version: 6.00 Build 0)  -->
<svg version="1.1" id="Layer_1" xmlns="http://www.w3.org/2000/svg" xmlns:xlink="http://www.w3.org/1999/xlink" x="0px" y="0px"
	 viewBox="0 0 475.7 196.3" style="enable-background:new 0 0 475.7 196.3;" xml:space="preserve">
<style type="text/css">
	.st0{fill:#C74C28;}
</style>
<g>
	<path class="st0" d="M241.1,119.9v31.4h34.4v-31.4H241.1z M261.9,139.9c0-0.9,0.7-1.6,1.6-1.6c0.9,0,1.6,0.7,1.6,1.6v8.9h-3.3
		V139.9z M261.8,128.4h3.6v3.6h-3.6V128.4z M247,139.9c0-0.9,0.7-1.6,1.6-1.6c0.9,0,1.6,0.7,1.6,1.6v8.9H247V139.9z M246.9,128.4
		h3.6v3.6h-3.6V128.4z"/>
	<g>
		<rect x="394.3" y="127.2" class="st0" width="0.3" height="2.4"/>
		<rect x="392.9" y="127.2" class="st0" width="0.3" height="2.4"/>
		<rect x="391.5" y="127.2" class="st0" width="0.3" height="2.4"/>
		<rect x="390" y="127.2" class="st0" width="0.3" height="2.4"/>
		<rect x="388.6" y="127.2" class="st0" width="0.3" height="2.4"/>
		<rect x="387.1" y="127.2" class="st0" width="0.3" height="2.4"/>
		<rect x="385.7" y="127.2" class="st0" width="0.3" height="2.4"/>
		<rect x="384.3" y="127.2" class="st0" width="0.3" height="2.4"/>
		<rect x="382.8" y="127.2" class="st0" width="0.3" height="2.4"/>
		<rect x="381.4" y="127.2" class="st0" width="0.3" height="2.4"/>
		<rect x="379.9" y="127.2" class="st0" width="0.3" height="2.4"/>
		<rect x="378.5" y="127.2" class="st0" width="0.3" height="2.4"/>
		<rect x="377.1" y="127.2" class="st0" width="0.3" height="2.4"/>
		<rect x="375.6" y="127.2" class="st0" width="0.3" height="2.4"/>
		<rect x="374.2" y="127.2" class="st0" width="0.3" height="2.4"/>
		<rect x="372.7" y="127.2" class="st0" width="0.3" height="2.4"/>
		<rect x="371.3" y="127.2" class="st0" width="0.3" height="2.4"/>
		<rect x="369.9" y="127.2" class="st0" width="0.3" height="2.4"/>
		<rect x="368.4" y="127.2" class="st0" width="0.3" height="2.4"/>
		<rect x="367" y="127.2" class="st0" width="0.3" height="2.4"/>
		<rect x="365.6" y="127.2" class="st0" width="0.3" height="2.4"/>
		<rect x="364.1" y="127.2" class="st0" width="0.3" height="2.4"/>
		<rect x="362.7" y="127.2" class="st0" width="0.3" height="2.4"/>
		<rect x="361.2" y="127.2" class="st0" width="0.3" height="2.4"/>
		<rect x="359.8" y="127.2" class="st0" width="0.3" height="2.4"/>
		<rect x="358.4" y="127.2" class="st0" width="0.3" height="2.4"/>
		<rect x="356.9" y="127.2" class="st0" width="0.3" height="2.4"/>
	</g>
	<rect x="353.3" y="129.6" class="st0" width="42.5" height="0.9"/>
	<rect x="354.2" y="130.3" class="st0" width="41" height="0.8"/>
	<rect x="353.3" y="126.7" class="st0" width="42.8" height="0.9"/>
	<polygon class="st0" points="274.5,121.8 301.7,121.8 303,120 274.5,120 	"/>
	<rect x="274.5" y="119.3" class="st0" width="28.5" height="0.7"/>
	<rect x="293.9" y="114.9" class="st0" width="6.4" height="2.1"/>
	<rect x="274.5" y="114.9" class="st0" width="8.5" height="2.1"/>
	<rect x="271.1" y="114.7" class="st0" width="29.6" height="0.5"/>
	<g>
		<rect x="293.3" y="114.9" class="st0" width="0.3" height="2.4"/>
		<rect x="292.5" y="114.9" class="st0" width="0.3" height="2.4"/>
		<rect x="291.8" y="114.9" class="st0" width="0.3" height="2.4"/>
		<rect x="291" y="114.9" class="st0" width="0.3" height="2.4"/>
		<rect x="290.2" y="114.9" class="st0" width="0.3" height="2.4"/>
		<rect x="289.5" y="114.9" class="st0" width="0.3" height="2.4"/>
		<rect x="288.7" y="114.9" class="st0" width="0.3" height="2.4"/>
		<rect x="288" y="114.9" class="st0" width="0.3" height="2.4"/>
		<rect x="287.2" y="114.9" class="st0" width="0.3" height="2.4"/>
		<rect x="286.4" y="114.9" class="st0" width="0.3" height="2.4"/>
		<rect x="285.7" y="114.9" class="st0" width="0.3" height="2.4"/>
		<rect x="284.9" y="114.9" class="st0" width="0.3" height="2.4"/>
		<rect x="284.2" y="114.9" class="st0" width="0.3" height="2.4"/>
		<rect x="283.4" y="114.9" class="st0" width="0.3" height="2.4"/>
	</g>
	<g>
		<rect x="272" y="126" class="st0" width="2.3" height="19.5"/>
		<path class="st0" d="M271.3,144.8c0,0.2,0.2,0.3,0.5,0.3h2.7c0.3,0,0.5-0.1,0.5-0.3c0-0.2-0.2-0.3-0.5-0.3h-2.7
			C271.5,144.5,271.3,144.6,271.3,144.8z"/>
		<rect x="270.8" y="145.1" class="st0" width="4.7" height="0.7"/>
		<rect x="271.1" y="123.5" class="st0" width="4.1" height="0.7"/>
		<rect x="271.7" y="126" class="st0" width="2.8" height="0.5"/>
		<g>
			<polygon class="st0" points="271.5,124.2 274.8,124.2 274.3,126 272,126 			"/>
			<circle class="st0" cx="271.5" cy="124.9" r="0.7"/>
			<circle class="st0" cx="274.8" cy="124.9" r="0.7"/>
		</g>
	</g>
	<g>
		<rect x="267.2" y="126" class="st0" width="2.3" height="19.5"/>
		<path class="st0" d="M266.5,144.8c0,0.2,0.2,0.3,0.5,0.3h2.7c0.3,0,0.5-0.1,0.5-0.3c0-0.2-0.2-0.3-0.5-0.3H267
			C266.7,144.5,266.5,144.6,266.5,144.8z"/>
		<rect x="266.1" y="145.1" class="st0" width="4.7" height="0.7"/>
		<rect x="266.3" y="123.5" class="st0" width="4.1" height="0.7"/>
		<rect x="267" y="126" class="st0" width="2.8" height="0.5"/>
		<g>
			<polygon class="st0" points="266.7,124.2 270,124.2 269.6,126 267.2,126 			"/>
			<circle class="st0" cx="266.8" cy="124.9" r="0.7"/>
			<circle class="st0" cx="270" cy="124.9" r="0.7"/>
		</g>
	</g>
	<rect x="266.1" y="145.8" class="st0" width="9.4" height="3"/>
	<g>
		<rect x="257.9" y="126" class="st0" width="2.3" height="19.5"/>
		<path class="st0" d="M257.1,144.8c0,0.2,0.2,0.3,0.5,0.3h2.7c0.3,0,0.5-0.1,0.5-0.3c0-0.2-0.2-0.3-0.5-0.3h-2.7
			C257.4,144.5,257.1,144.6,257.1,144.8z"/>
		<rect x="256.7" y="145.1" class="st0" width="4.7" height="0.7"/>
		<rect x="257" y="123.5" class="st0" width="4.1" height="0.7"/>
		<rect x="257.6" y="126" class="st0" width="2.8" height="0.5"/>
		<g>
			<polygon class="st0" points="257.4,124.2 260.7,124.2 260.2,126 257.8,126 			"/>
			<circle class="st0" cx="257.4" cy="124.9" r="0.7"/>
			<circle class="st0" cx="260.6" cy="124.9" r="0.7"/>
		</g>
	</g>
	<g>
		<rect x="253.1" y="126" class="st0" width="2.3" height="19.5"/>
		<path class="st0" d="M252.4,144.8c0,0.2,0.2,0.3,0.5,0.3h2.7c0.3,0,0.5-0.1,0.5-0.3c0-0.2-0.2-0.3-0.5-0.3h-2.7
			C252.6,144.5,252.4,144.6,252.4,144.8z"/>
		<rect x="251.9" y="145.1" class="st0" width="4.7" height="0.7"/>
		<rect x="252.2" y="123.5" class="st0" width="4.1" height="0.7"/>
		<rect x="252.9" y="126" class="st0" width="2.8" height="0.5"/>
		<g>
			<polygon class="st0" points="252.6,124.2 255.9,124.2 255.5,126 253.1,126 			"/>
			<circle class="st0" cx="252.7" cy="124.9" r="0.7"/>
			<circle class="st0" cx="255.9" cy="124.9" r="0.7"/>
		</g>
	</g>
	<rect x="252" y="145.8" class="st0" width="9.4" height="3"/>
	<rect x="238.1" y="115.2" class="st0" width="37.1" height="8.2"/>
	<rect x="268.4" y="113.1" class="st0" width="6.4" height="2.1"/>
	<rect x="253.1" y="113.1" class="st0" width="6.4" height="2.1"/>
	<rect x="242.5" y="113.1" class="st0" width="1.8" height="2.1"/>
	<polygon class="st0" points="238.1,119.9 275.2,119.9 277,118.1 238.1,118.1 	"/>
	<rect x="238.1" y="121.3" class="st0" width="37.9" height="0.7"/>
	<rect x="238.1" y="117.4" class="st0" width="39" height="0.7"/>
	<g>
		<rect x="267.8" y="113.1" class="st0" width="0.3" height="2.4"/>
		<rect x="267.2" y="113.1" class="st0" width="0.3" height="2.4"/>
		<rect x="266.6" y="113.1" class="st0" width="0.3" height="2.4"/>
		<rect x="265.9" y="113.1" class="st0" width="0.3" height="2.4"/>
		<rect x="265.3" y="113.1" class="st0" width="0.3" height="2.4"/>
		<rect x="264.7" y="113.1" class="st0" width="0.3" height="2.4"/>
		<rect x="264.1" y="113.1" class="st0" width="0.3" height="2.4"/>
		<rect x="263.5" y="113.1" class="st0" width="0.3" height="2.4"/>
		<rect x="262.9" y="113.1" class="st0" width="0.3" height="2.4"/>
		<rect x="262.3" y="113.1" class="st0" width="0.3" height="2.4"/>
		<rect x="261.7" y="113.1" class="st0" width="0.3" height="2.4"/>
		<rect x="261.1" y="113.1" class="st0" width="0.3" height="2.4"/>
		<rect x="260.5" y="113.1" class="st0" width="0.3" height="2.4"/>
		<rect x="259.9" y="113.1" class="st0" width="0.3" height="2.4"/>
	</g>
	<g>
		<rect x="252.5" y="113.1" class="st0" width="0.3" height="2.4"/>
		<rect x="251.9" y="113.1" class="st0" width="0.3" height="2.4"/>
		<rect x="251.3" y="113.1" class="st0" width="0.3" height="2.4"/>
		<rect x="250.7" y="113.1" class="st0" width="0.3" height="2.4"/>
		<rect x="250.1" y="113.1" class="st0" width="0.3" height="2.4"/>
		<rect x="249.4" y="113.1" class="st0" width="0.3" height="2.4"/>
		<rect x="248.8" y="113.1" class="st0" width="0.3" height="2.4"/>
		<rect x="248.2" y="113.1" class="st0" width="0.3" height="2.4"/>
		<rect x="247.6" y="113.1" class="st0" width="0.3" height="2.4"/>
		<rect x="247" y="113.1" class="st0" width="0.3" height="2.4"/>
		<rect x="246.4" y="113.1" class="st0" width="0.3" height="2.4"/>
		<rect x="245.8" y="113.1" class="st0" width="0.3" height="2.4"/>
		<rect x="245.2" y="113.1" class="st0" width="0.3" height="2.4"/>
		<rect x="244.6" y="113.1" class="st0" width="0.3" height="2.4"/>
	</g>
	<rect x="275.2" y="117" class="st0" width="25.8" height="2.8"/>
	<polygon class="st0" points="300.5,131.3 356.5,131.3 359.3,129.5 300.5,129.5 	"/>
	<rect x="300.3" y="128.8" class="st0" width="57.3" height="0.7"/>
	<rect x="348.5" y="124.4" class="st0" width="6.4" height="2.1"/>
	<rect x="329.1" y="124.4" class="st0" width="8.5" height="2.1"/>
	<rect x="314.7" y="124.4" class="st0" width="2.5" height="2.1"/>
	<rect x="306" y="124.4" class="st0" width="2.5" height="2.1"/>
	<rect x="300.3" y="124.2" class="st0" width="55" height="0.5"/>
	<g>
		<rect x="347.8" y="124.4" class="st0" width="0.3" height="2.4"/>
		<rect x="347.1" y="124.4" class="st0" width="0.3" height="2.4"/>
		<rect x="346.3" y="124.4" class="st0" width="0.3" height="2.4"/>
		<rect x="345.6" y="124.4" class="st0" width="0.3" height="2.4"/>
		<rect x="344.8" y="124.4" class="st0" width="0.3" height="2.4"/>
		<rect x="344" y="124.4" class="st0" width="0.3" height="2.4"/>
		<rect x="343.3" y="124.4" class="st0" width="0.3" height="2.4"/>
		<rect x="342.5" y="124.4" class="st0" width="0.3" height="2.4"/>
		<rect x="341.8" y="124.4" class="st0" width="0.3" height="2.4"/>
		<rect x="341" y="124.4" class="st0" width="0.3" height="2.4"/>
		<rect x="340.2" y="124.4" class="st0" width="0.3" height="2.4"/>
		<rect x="339.5" y="124.4" class="st0" width="0.3" height="2.4"/>
		<rect x="338.7" y="124.4" class="st0" width="0.3" height="2.4"/>
		<rect x="338" y="124.4" class="st0" width="0.3" height="2.4"/>
	</g>
	<g>
		<rect x="475.5" y="146.4" class="st0" width="0.3" height="2.4"/>
		<rect x="474" y="146.4" class="st0" width="0.3" height="2.4"/>
		<rect x="472.6" y="146.4" class="st0" width="0.3" height="2.4"/>
		<rect x="471.1" y="146.4" class="st0" width="0.3" height="2.4"/>
		<rect x="469.7" y="146.4" class="st0" width="0.3" height="2.4"/>
		<rect x="468.2" y="146.4" class="st0" width="0.3" height="2.4"/>
		<rect x="466.7" y="146.4" class="st0" width="0.3" height="2.4"/>
		<rect x="465.3" y="146.4" class="st0" width="0.3" height="2.4"/>
		<rect x="463.8" y="146.4" class="st0" width="0.3" height="2.4"/>
		<rect x="462.4" y="146.4" class="st0" width="0.3" height="2.4"/>
		<rect x="460.9" y="146.4" class="st0" width="0.3" height="2.4"/>
		<rect x="459.5" y="146.4" class="st0" width="0.3" height="2.4"/>
		<rect x="458" y="146.4" class="st0" width="0.3" height="2.4"/>
		<rect x="456.5" y="146.4" class="st0" width="0.3" height="2.4"/>
		<rect x="455.1" y="146.4" class="st0" width="0.3" height="2.4"/>
		<rect x="453.6" y="146.4" class="st0" width="0.3" height="2.4"/>
		<rect x="452.2" y="146.4" class="st0" width="0.3" height="2.4"/>
		<rect x="450.7" y="146.4" class="st0" width="0.3" height="2.4"/>
		<rect x="449.2" y="146.4" class="st0" width="0.3" height="2.4"/>
		<rect x="447.8" y="146.4" class="st0" width="0.3" height="2.4"/>
		<rect x="446.3" y="146.4" class="st0" width="0.3" height="2.4"/>
		<rect x="444.9" y="146.4" class="st0" width="0.3" height="2.4"/>
		<rect x="443.4" y="146.4" class="st0" width="0.3" height="2.4"/>
		<rect x="442" y="146.4" class="st0" width="0.3" height="2.4"/>
		<rect x="440.5" y="146.4" class="st0" width="0.3" height="2.4"/>
		<rect x="439" y="146.4" class="st0" width="0.3" height="2.4"/>
		<rect x="437.6" y="146.4" class="st0" width="0.3" height="2.4"/>
		<rect x="436.1" y="146.4" class="st0" width="0.3" height="2.4"/>
		<rect x="434.7" y="146.4" class="st0" width="0.3" height="2.4"/>
		<rect x="433.2" y="146.4" class="st0" width="0.3" height="2.4"/>
		<rect x="431.8" y="146.4" class="st0" width="0.3" height="2.4"/>
		<rect x="430.3" y="146.4" class="st0" width="0.3" height="2.4"/>
		<rect x="428.8" y="146.4" class="st0" width="0.3" height="2.4"/>
		<rect x="427.4" y="146.4" class="st0" width="0.3" height="2.4"/>
		<rect x="425.9" y="146.4" class="st0" width="0.3" height="2.4"/>
		<rect x="424.5" y="146.4" class="st0" width="0.3" height="2.4"/>
		<rect x="423" y="146.4" class="st0" width="0.3" height="2.4"/>
		<rect x="421.6" y="146.4" class="st0" width="0.3" height="2.4"/>
		<rect x="420.1" y="146.4" class="st0" width="0.3" height="2.4"/>
		<rect x="418.6" y="146.4" class="st0" width="0.3" height="2.4"/>
		<rect x="417.2" y="146.4" class="st0" width="0.3" height="2.4"/>
		<rect x="415.7" y="146.4" class="st0" width="0.3" height="2.4"/>
		<rect x="414.3" y="146.4" class="st0" width="0.3" height="2.4"/>
		<rect x="412.8" y="146.4" class="st0" width="0.3" height="2.4"/>
		<rect x="411.4" y="146.4" class="st0" width="0.3" height="2.4"/>
		<rect x="409.9" y="146.4" class="st0" width="0.3" height="2.4"/>
		<rect x="408.4" y="146.4" class="st0" width="0.3" height="2.4"/>
		<rect x="407" y="146.4" class="st0" width="0.3" height="2.4"/>
		<rect x="405.5" y="146.4" class="st0" width="0.3" height="2.4"/>
		<rect x="404.1" y="146.4" class="st0" width="0.3" height="2.4"/>
		<rect x="402.6" y="146.4" class="st0" width="0.3" height="2.4"/>
		<rect x="401.2" y="146.4" class="st0" width="0.3" height="2.4"/>
		<rect x="399.7" y="146.4" class="st0" width="0.3" height="2.4"/>
		<rect x="398.2" y="146.4" class="st0" width="0.3" height="2.4"/>
		<rect x="396.8" y="146.4" class="st0" width="0.3" height="2.4"/>
		<rect x="395.3" y="146.4" class="st0" width="0.3" height="2.4"/>
		<rect x="393.9" y="146.4" class="st0" width="0.3" height="2.4"/>
	</g>
	<g>
		<rect x="475.2" y="117.8" class="st0" width="0.3" height="2.4"/>
		<rect x="473.7" y="117.8" class="st0" width="0.3" height="2.4"/>
		<rect x="472.3" y="117.8" class="st0" width="0.3" height="2.4"/>
		<rect x="470.9" y="117.8" class="st0" width="0.3" height="2.4"/>
		<rect x="469.4" y="117.8" class="st0" width="0.3" height="2.4"/>
		<rect x="468" y="117.8" class="st0" width="0.3" height="2.4"/>
		<rect x="466.5" y="117.8" class="st0" width="0.3" height="2.4"/>
		<rect x="465.1" y="117.8" class="st0" width="0.3" height="2.4"/>
		<rect x="463.6" y="117.8" class="st0" width="0.3" height="2.4"/>
		<rect x="462.2" y="117.8" class="st0" width="0.3" height="2.4"/>
		<rect x="460.8" y="117.8" class="st0" width="0.3" height="2.4"/>
		<rect x="459.3" y="117.8" class="st0" width="0.3" height="2.4"/>
		<rect x="457.9" y="117.8" class="st0" width="0.3" height="2.4"/>
		<rect x="456.4" y="117.8" class="st0" width="0.3" height="2.4"/>
		<rect x="455" y="117.8" class="st0" width="0.3" height="2.4"/>
		<rect x="453.5" y="117.8" class="st0" width="0.3" height="2.4"/>
		<rect x="452.1" y="117.8" class="st0" width="0.3" height="2.4"/>
		<rect x="450.7" y="117.8" class="st0" width="0.3" height="2.4"/>
		<rect x="449.2" y="117.8" class="st0" width="0.3" height="2.4"/>
		<rect x="447.8" y="117.8" class="st0" width="0.3" height="2.4"/>
		<rect x="446.3" y="117.8" class="st0" width="0.3" height="2.4"/>
		<rect x="444.9" y="117.8" class="st0" width="0.3" height="2.4"/>
		<rect x="443.4" y="117.8" class="st0" width="0.3" height="2.4"/>
		<rect x="442" y="117.8" class="st0" width="0.3" height="2.4"/>
		<rect x="440.5" y="117.8" class="st0" width="0.3" height="2.4"/>
		<rect x="439.1" y="117.8" class="st0" width="0.3" height="2.4"/>
		<rect x="437.7" y="117.8" class="st0" width="0.3" height="2.4"/>
		<rect x="436.2" y="117.8" class="st0" width="0.3" height="2.4"/>
		<rect x="434.8" y="117.8" class="st0" width="0.3" height="2.4"/>
		<rect x="433.3" y="117.8" class="st0" width="0.3" height="2.4"/>
		<rect x="431.9" y="117.8" class="st0" width="0.3" height="2.4"/>
		<rect x="430.4" y="117.8" class="st0" width="0.3" height="2.4"/>
		<rect x="429" y="117.8" class="st0" width="0.3" height="2.4"/>
		<rect x="427.6" y="117.8" class="st0" width="0.3" height="2.4"/>
		<rect x="426.1" y="117.8" class="st0" width="0.3" height="2.4"/>
		<rect x="424.7" y="117.8" class="st0" width="0.3" height="2.4"/>
		<rect x="423.2" y="117.8" class="st0" width="0.3" height="2.4"/>
		<rect x="421.8" y="117.8" class="st0" width="0.3" height="2.4"/>
		<rect x="420.3" y="117.8" class="st0" width="0.3" height="2.4"/>
		<rect x="418.9" y="117.8" class="st0" width="0.3" height="2.4"/>
		<rect x="417.5" y="117.8" class="st0" width="0.3" height="2.4"/>
		<rect x="416" y="117.8" class="st0" width="0.3" height="2.4"/>
		<rect x="414.6" y="117.8" class="st0" width="0.3" height="2.4"/>
		<rect x="413.1" y="117.8" class="st0" width="0.3" height="2.4"/>
		<rect x="411.7" y="117.8" class="st0" width="0.3" height="2.4"/>
		<rect x="410.2" y="117.8" class="st0" width="0.3" height="2.4"/>
		<rect x="408.8" y="117.8" class="st0" width="0.3" height="2.4"/>
		<rect x="407.4" y="117.8" class="st0" width="0.3" height="2.4"/>
		<rect x="405.9" y="117.8" class="st0" width="0.3" height="2.4"/>
		<rect x="404.5" y="117.8" class="st0" width="0.3" height="2.4"/>
		<rect x="403" y="117.8" class="st0" width="0.3" height="2.4"/>
		<rect x="401.6" y="117.8" class="st0" width="0.3" height="2.4"/>
		<rect x="400.1" y="117.8" class="st0" width="0.3" height="2.4"/>
		<rect x="398.7" y="117.8" class="st0" width="0.3" height="2.4"/>
		<rect x="397.3" y="117.8" class="st0" width="0.3" height="2.4"/>
		<rect x="395.8" y="117.8" class="st0" width="0.3" height="2.4"/>
		<rect x="394.4" y="117.8" class="st0" width="0.3" height="2.4"/>
	</g>
	<g>
		<rect x="329.5" y="124.4" class="st0" width="0.3" height="2.4"/>
		<rect x="328.7" y="124.4" class="st0" width="0.3" height="2.4"/>
		<rect x="327.9" y="124.4" class="st0" width="0.3" height="2.4"/>
		<rect x="327.2" y="124.4" class="st0" width="0.3" height="2.4"/>
		<rect x="326.4" y="124.4" class="st0" width="0.3" height="2.4"/>
		<rect x="325.7" y="124.4" class="st0" width="0.3" height="2.4"/>
		<rect x="324.9" y="124.4" class="st0" width="0.3" height="2.4"/>
		<rect x="324.1" y="124.4" class="st0" width="0.3" height="2.4"/>
		<rect x="323.4" y="124.4" class="st0" width="0.3" height="2.4"/>
		<rect x="322.6" y="124.4" class="st0" width="0.3" height="2.4"/>
		<rect x="321.9" y="124.4" class="st0" width="0.3" height="2.4"/>
		<rect x="321.1" y="124.4" class="st0" width="0.3" height="2.4"/>
		<rect x="320.3" y="124.4" class="st0" width="0.3" height="2.4"/>
		<rect x="319.6" y="124.4" class="st0" width="0.3" height="2.4"/>
	</g>
	<g>
		<rect x="318.9" y="124.4" class="st0" width="0.3" height="2.4"/>
		<rect x="318.1" y="124.4" class="st0" width="0.3" height="2.4"/>
		<rect x="317.3" y="124.4" class="st0" width="0.3" height="2.4"/>
		<rect x="316.6" y="124.4" class="st0" width="0.3" height="2.4"/>
		<rect x="315.8" y="124.4" class="st0" width="0.3" height="2.4"/>
		<rect x="315.1" y="124.4" class="st0" width="0.3" height="2.4"/>
		<rect x="314.3" y="124.4" class="st0" width="0.3" height="2.4"/>
		<rect x="313.5" y="124.4" class="st0" width="0.3" height="2.4"/>
		<rect x="312.8" y="124.4" class="st0" width="0.3" height="2.4"/>
		<rect x="312" y="124.4" class="st0" width="0.3" height="2.4"/>
		<rect x="311.3" y="124.4" class="st0" width="0.3" height="2.4"/>
		<rect x="310.5" y="124.4" class="st0" width="0.3" height="2.4"/>
		<rect x="309.7" y="124.4" class="st0" width="0.3" height="2.4"/>
		<rect x="309" y="124.4" class="st0" width="0.3" height="2.4"/>
	</g>
	<g>
		<rect x="308.3" y="124.4" class="st0" width="0.3" height="2.4"/>
		<rect x="307.5" y="124.4" class="st0" width="0.3" height="2.4"/>
		<rect x="306.7" y="124.4" class="st0" width="0.3" height="2.4"/>
		<rect x="306" y="124.4" class="st0" width="0.3" height="2.4"/>
		<rect x="305.2" y="124.4" class="st0" width="0.3" height="2.4"/>
		<rect x="304.5" y="124.4" class="st0" width="0.3" height="2.4"/>
		<rect x="303.7" y="124.4" class="st0" width="0.3" height="2.4"/>
		<rect x="302.9" y="124.4" class="st0" width="0.3" height="2.4"/>
		<rect x="302.2" y="124.4" class="st0" width="0.3" height="2.4"/>
		<rect x="301.4" y="124.4" class="st0" width="0.3" height="2.4"/>
		<rect x="300.7" y="124.4" class="st0" width="0.3" height="2.4"/>
		<rect x="299.9" y="124.4" class="st0" width="0.3" height="2.4"/>
		<rect x="299.1" y="124.4" class="st0" width="0.3" height="2.4"/>
		<rect x="298.4" y="124.4" class="st0" width="0.3" height="2.4"/>
	</g>
	<rect x="300.3" y="126.5" class="st0" width="55.3" height="2.8"/>
	<g>
		<rect x="394.9" y="126" class="st0" width="2.3" height="19.5"/>
		<path class="st0" d="M394.2,144.8c0,0.2,0.2,0.3,0.5,0.3h2.7c0.3,0,0.5-0.1,0.5-0.3c0-0.2-0.2-0.3-0.5-0.3h-2.7
			C394.4,144.5,394.2,144.6,394.2,144.8z"/>
		<rect x="393.8" y="145.1" class="st0" width="4.7" height="4.2"/>
		<rect x="394" y="123.5" class="st0" width="4.1" height="0.7"/>
		<rect x="394.7" y="126" class="st0" width="2.8" height="0.5"/>
		<g>
			<polygon class="st0" points="394.4,124.2 397.7,124.2 397.3,126 394.9,126 			"/>
			<circle class="st0" cx="394.5" cy="124.9" r="0.7"/>
			<circle class="st0" cx="397.7" cy="124.9" r="0.7"/>
		</g>
	</g>
	<g>
		<g>
			<rect x="387.5" y="132.8" class="st0" width="1.6" height="13.6"/>
			<path class="st0" d="M387,146c0,0.1,0.2,0.2,0.4,0.2h1.9c0.2,0,0.4-0.1,0.4-0.2c0-0.1-0.2-0.2-0.4-0.2h-1.9
				C387.1,145.8,387,145.8,387,146z"/>
			<rect x="386.6" y="146.1" class="st0" width="3.3" height="2.9"/>
			<rect x="386.8" y="131" class="st0" width="2.9" height="0.5"/>
			<rect x="387.3" y="132.8" class="st0" width="2" height="0.3"/>
			<g>
				<polygon class="st0" points="387.1,131.5 389.4,131.5 389.1,132.8 387.4,132.8 				"/>
				<circle class="st0" cx="387.1" cy="132" r="0.5"/>
				<circle class="st0" cx="389.4" cy="132" r="0.5"/>
			</g>
		</g>
		<g>
			<rect x="379.1" y="132.8" class="st0" width="1.6" height="13.6"/>
			<path class="st0" d="M378.6,146c0,0.1,0.2,0.2,0.4,0.2h1.9c0.2,0,0.4-0.1,0.4-0.2c0-0.1-0.2-0.2-0.4-0.2H379
				C378.8,145.8,378.6,145.8,378.6,146z"/>
			<rect x="378.3" y="146.1" class="st0" width="3.3" height="2.9"/>
			<rect x="378.5" y="131" class="st0" width="2.9" height="0.5"/>
			<rect x="378.9" y="132.8" class="st0" width="2" height="0.3"/>
			<g>
				<polygon class="st0" points="378.7,131.5 381.1,131.5 380.7,132.8 379.1,132.8 				"/>
				<circle class="st0" cx="378.8" cy="132" r="0.5"/>
				<circle class="st0" cx="381" cy="132" r="0.5"/>
			</g>
		</g>
		<g>
			<rect x="370.7" y="132.8" class="st0" width="1.6" height="13.6"/>
			<path class="st0" d="M370.2,146c0,0.1,0.2,0.2,0.4,0.2h1.9c0.2,0,0.4-0.1,0.4-0.2c0-0.1-0.2-0.2-0.4-0.2h-1.9
				C370.4,145.8,370.2,145.8,370.2,146z"/>
			<rect x="369.9" y="146.1" class="st0" width="3.3" height="2.9"/>
			<rect x="370.1" y="131" class="st0" width="2.9" height="0.5"/>
			<rect x="370.6" y="132.8" class="st0" width="2" height="0.3"/>
			<g>
				<polygon class="st0" points="370.4,131.5 372.7,131.5 372.4,132.8 370.7,132.8 				"/>
				<circle class="st0" cx="370.4" cy="132" r="0.5"/>
				<circle class="st0" cx="372.7" cy="132" r="0.5"/>
			</g>
		</g>
		<g>
			<rect x="362.4" y="132.8" class="st0" width="1.6" height="13.6"/>
			<path class="st0" d="M361.8,146c0,0.1,0.2,0.2,0.4,0.2h1.9c0.2,0,0.4-0.1,0.4-0.2c0-0.1-0.2-0.2-0.4-0.2h-1.9
				C362,145.8,361.8,145.8,361.8,146z"/>
			<rect x="361.5" y="146.1" class="st0" width="3.3" height="2.9"/>
			<rect x="361.7" y="131" class="st0" width="2.9" height="0.5"/>
			<rect x="362.2" y="132.8" class="st0" width="2" height="0.3"/>
			<g>
				<polygon class="st0" points="362,131.5 364.3,131.5 364,132.8 362.3,132.8 				"/>
				<circle class="st0" cx="362" cy="132" r="0.5"/>
				<circle class="st0" cx="364.3" cy="132" r="0.5"/>
			</g>
		</g>
	</g>
	<g>
		<rect x="402.6" y="126" class="st0" width="2.3" height="19.5"/>
		<path class="st0" d="M401.9,144.8c0,0.2,0.2,0.3,0.5,0.3h2.7c0.3,0,0.5-0.1,0.5-0.3c0-0.2-0.2-0.3-0.5-0.3h-2.7
			C402.1,144.5,401.9,144.6,401.9,144.8z"/>
		<rect x="401.4" y="145.1" class="st0" width="4.7" height="4.2"/>
		<rect x="401.7" y="123.5" class="st0" width="4.1" height="0.7"/>
		<rect x="402.3" y="126" class="st0" width="2.8" height="0.5"/>
		<g>
			<polygon class="st0" points="402.1,124.2 405.4,124.2 404.9,126 402.6,126 			"/>
			<circle class="st0" cx="402.1" cy="124.9" r="0.7"/>
			<circle class="st0" cx="405.4" cy="124.9" r="0.7"/>
		</g>
	</g>
	<g>
		<rect x="410.3" y="126" class="st0" width="2.3" height="19.5"/>
		<path class="st0" d="M409.5,144.8c0,0.2,0.2,0.3,0.5,0.3h2.7c0.3,0,0.5-0.1,0.5-0.3c0-0.2-0.2-0.3-0.5-0.3h-2.7
			C409.8,144.5,409.5,144.6,409.5,144.8z"/>
		<rect x="409.1" y="145.1" class="st0" width="4.7" height="4.2"/>
		<rect x="409.4" y="123.5" class="st0" width="4.1" height="0.7"/>
		<rect x="410" y="126" class="st0" width="2.8" height="0.5"/>
		<g>
			<polygon class="st0" points="409.8,124.2 413.1,124.2 412.6,126 410.2,126 			"/>
			<circle class="st0" cx="409.8" cy="124.9" r="0.7"/>
			<circle class="st0" cx="413" cy="124.9" r="0.7"/>
		</g>
	</g>
	<g>
		<rect x="417.9" y="126" class="st0" width="2.3" height="19.5"/>
		<path class="st0" d="M417.2,144.8c0,0.2,0.2,0.3,0.5,0.3h2.7c0.3,0,0.5-0.1,0.5-0.3c0-0.2-0.2-0.3-0.5-0.3h-2.7
			C417.4,144.5,417.2,144.6,417.2,144.8z"/>
		<rect x="416.7" y="145.1" class="st0" width="4.7" height="4.2"/>
		<rect x="417" y="123.5" class="st0" width="4.1" height="0.7"/>
		<rect x="417.7" y="126" class="st0" width="2.8" height="0.5"/>
		<g>
			<polygon class="st0" points="417.4,124.2 420.7,124.2 420.3,126 417.9,126 			"/>
			<circle class="st0" cx="417.5" cy="124.9" r="0.7"/>
			<circle class="st0" cx="420.7" cy="124.9" r="0.7"/>
		</g>
	</g>
	<g>
		<rect x="425.6" y="126" class="st0" width="2.3" height="19.5"/>
		<path class="st0" d="M424.9,144.8c0,0.2,0.2,0.3,0.5,0.3h2.7c0.3,0,0.5-0.1,0.5-0.3c0-0.2-0.2-0.3-0.5-0.3h-2.7
			C425.1,144.5,424.9,144.6,424.9,144.8z"/>
		<rect x="424.4" y="145.1" class="st0" width="4.7" height="4.2"/>
		<rect x="424.7" y="123.5" class="st0" width="4.1" height="0.7"/>
		<rect x="425.3" y="126" class="st0" width="2.8" height="0.5"/>
		<g>
			<polygon class="st0" points="425.1,124.2 428.4,124.2 427.9,126 425.5,126 			"/>
			<circle class="st0" cx="425.1" cy="124.9" r="0.7"/>
			<circle class="st0" cx="428.3" cy="124.9" r="0.7"/>
		</g>
	</g>
	<g>
		<rect x="433.2" y="126" class="st0" width="2.3" height="19.5"/>
		<path class="st0" d="M432.5,144.8c0,0.2,0.2,0.3,0.5,0.3h2.7c0.3,0,0.5-0.1,0.5-0.3c0-0.2-0.2-0.3-0.5-0.3H433
			C432.7,144.5,432.5,144.6,432.5,144.8z"/>
		<rect x="432.1" y="145.1" class="st0" width="4.7" height="4.2"/>
		<rect x="432.3" y="123.5" class="st0" width="4.1" height="0.7"/>
		<rect x="433" y="126" class="st0" width="2.8" height="0.5"/>
		<g>
			<polygon class="st0" points="432.7,124.2 436,124.2 435.6,126 433.2,126 			"/>
			<circle class="st0" cx="432.8" cy="124.9" r="0.7"/>
			<circle class="st0" cx="436" cy="124.9" r="0.7"/>
		</g>
	</g>
	<g>
		<rect x="440.9" y="126" class="st0" width="2.3" height="19.5"/>
		<path class="st0" d="M440.2,144.8c0,0.2,0.2,0.3,0.5,0.3h2.7c0.3,0,0.5-0.1,0.5-0.3c0-0.2-0.2-0.3-0.5-0.3h-2.7
			C440.4,144.5,440.2,144.6,440.2,144.8z"/>
		<rect x="439.7" y="145.1" class="st0" width="4.7" height="4.2"/>
		<rect x="440" y="123.5" class="st0" width="4.1" height="0.7"/>
		<rect x="440.7" y="126" class="st0" width="2.8" height="0.5"/>
		<g>
			<polygon class="st0" points="440.4,124.2 443.7,124.2 443.2,126 440.9,126 			"/>
			<circle class="st0" cx="440.4" cy="124.9" r="0.7"/>
			<circle class="st0" cx="443.7" cy="124.9" r="0.7"/>
		</g>
	</g>
	<g>
		<rect x="448.6" y="126" class="st0" width="2.3" height="19.5"/>
		<path class="st0" d="M447.8,144.8c0,0.2,0.2,0.3,0.5,0.3h2.7c0.3,0,0.5-0.1,0.5-0.3c0-0.2-0.2-0.3-0.5-0.3h-2.7
			C448.1,144.5,447.8,144.6,447.8,144.8z"/>
		<rect x="447.4" y="145.1" class="st0" width="4.7" height="4.2"/>
		<rect x="447.7" y="123.5" class="st0" width="4.1" height="0.7"/>
		<rect x="448.3" y="126" class="st0" width="2.8" height="0.5"/>
		<g>
			<polygon class="st0" points="448.1,124.2 451.4,124.2 450.9,126 448.5,126 			"/>
			<circle class="st0" cx="448.1" cy="124.9" r="0.7"/>
			<circle class="st0" cx="451.3" cy="124.9" r="0.7"/>
		</g>
	</g>
	<g>
		<rect x="456.2" y="126" class="st0" width="2.3" height="19.5"/>
		<path class="st0" d="M455.5,144.8c0,0.2,0.2,0.3,0.5,0.3h2.7c0.3,0,0.5-0.1,0.5-0.3c0-0.2-0.2-0.3-0.5-0.3H456
			C455.7,144.5,455.5,144.6,455.5,144.8z"/>
		<rect x="455" y="145.1" class="st0" width="4.7" height="4.2"/>
		<rect x="455.3" y="123.5" class="st0" width="4.1" height="0.7"/>
		<rect x="456" y="126" class="st0" width="2.8" height="0.5"/>
		<g>
			<polygon class="st0" points="455.7,124.2 459,124.2 458.6,126 456.2,126 			"/>
			<circle class="st0" cx="455.8" cy="124.9" r="0.7"/>
			<circle class="st0" cx="459" cy="124.9" r="0.7"/>
		</g>
	</g>
	<g>
		<rect x="463.9" y="126" class="st0" width="2.3" height="19.5"/>
		<path class="st0" d="M463.2,144.8c0,0.2,0.2,0.3,0.5,0.3h2.7c0.3,0,0.5-0.1,0.5-0.3c0-0.2-0.2-0.3-0.5-0.3h-2.7
			C463.4,144.5,463.2,144.6,463.2,144.8z"/>
		<rect x="462.7" y="145.1" class="st0" width="4.7" height="4.2"/>
		<rect x="463" y="123.5" class="st0" width="4.1" height="0.7"/>
		<rect x="463.6" y="126" class="st0" width="2.8" height="0.5"/>
		<g>
			<polygon class="st0" points="463.4,124.2 466.7,124.2 466.2,126 463.8,126 			"/>
			<circle class="st0" cx="463.4" cy="124.9" r="0.7"/>
			<circle class="st0" cx="466.6" cy="124.9" r="0.7"/>
		</g>
	</g>
	<g>
		<rect x="471.5" y="126" class="st0" width="2.3" height="19.5"/>
		<path class="st0" d="M470.8,144.8c0,0.2,0.2,0.3,0.5,0.3h2.7c0.3,0,0.5-0.1,0.5-0.3c0-0.2-0.2-0.3-0.5-0.3h-2.7
			C471.1,144.5,470.8,144.6,470.8,144.8z"/>
		<rect x="470.4" y="145.1" class="st0" width="4.7" height="4.2"/>
		<rect x="470.6" y="123.5" class="st0" width="4.1" height="0.7"/>
		<rect x="471.3" y="126" class="st0" width="2.8" height="0.5"/>
		<g>
			<polygon class="st0" points="471,124.2 474.3,124.2 473.9,126 471.5,126 			"/>
			<circle class="st0" cx="471.1" cy="124.9" r="0.7"/>
			<circle class="st0" cx="474.3" cy="124.9" r="0.7"/>
		</g>
	</g>
	<rect x="394" y="120.6" class="st0" width="80.7" height="2.8"/>
	<rect x="394" y="120.2" class="st0" width="81.8" height="0.9"/>
	<rect x="394" y="117.3" class="st0" width="81.7" height="0.9"/>
	<polygon class="st0" points="355.6,163.1 475.8,188 475.8,148.8 355.6,148.8 	"/>
	<rect x="393.8" y="145.9" class="st0" width="82" height="0.5"/>
	<g>
		<path class="st0" d="M317.3,118.4v6h14.6v-6H317.3z M320.6,123.2h-1.8v-3.5h1.8V123.2z M323.9,123.2H322v-3.5h1.8V123.2z
			 M327.1,123.2h-1.8v-3.5h1.8V123.2z M330.4,123.2h-1.8v-3.5h1.8V123.2z"/>
		<rect x="317" y="117.9" class="st0" width="15.3" height="0.5"/>
		<rect x="331.6" y="117.2" class="st0" width="0.7" height="1"/>
		<rect x="328" y="117.2" class="st0" width="0.7" height="1"/>
		<rect x="324.3" y="117.2" class="st0" width="0.7" height="1"/>
		<rect x="320.6" y="117.2" class="st0" width="0.7" height="1"/>
		<rect x="317" y="117.2" class="st0" width="0.7" height="1"/>
	</g>
	<g>
		<path class="st0" d="M335,144.5c2,0,2.8,1.3,3,1.8h-6C332.2,145.7,333,144.5,335,144.5z"/>
		<path class="st0" d="M344.7,144.5c2,0,2.8,1.3,3,1.8h-6C341.9,145.7,342.7,144.5,344.7,144.5z"/>
		<path class="st0" d="M317.7,139v24.1h11.2V139c0-3.1-2.5-5.6-5.6-5.6C320.2,133.4,317.7,135.9,317.7,139z M321.6,146
			c0-0.9,0.7-1.6,1.6-1.6c0.9,0,1.6,0.7,1.6,1.6v8.9h-3.3V146z M321.4,138.9c0-1.1,0.8-1.9,1.9-1.9c1,0,1.9,0.9,1.9,1.9
			c0,1-0.8,1.9-1.9,1.9C322.2,140.8,321.4,139.9,321.4,138.9z"/>
		<path class="st0" d="M300.5,131.3v31.8h16.5V139c0-3.4,2.8-6.2,6.2-6.2c3.4,0,6.2,2.8,6.2,6.2v24.1h27.9v-31.8H300.5z
			 M336.6,140.3h-3.3V137h3.3V140.3z M346.4,140.3h-3.3V137h3.3V140.3z M343.1,147.6h3.3v6.5h-3.3V147.6z M341.3,146.6l0.1-0.2
			c0,0,0.7-2.2,3.4-2.2c2.7,0,3.4,2.1,3.4,2.2l0.1,0.2H341.3z M333.3,147.6h3.3v6.5h-3.3V147.6z M331.5,146.6l0.1-0.2
			c0,0,0.7-2.2,3.4-2.2c2.7,0,3.4,2.1,3.4,2.2l0.1,0.2H331.5z M313,140.3h-3.3V137h3.3V140.3z M309.7,147.6h3.3v6.5h-3.3V147.6z
			 M307.9,146.6l0.1-0.2c0,0,0.7-2.2,3.4-2.2c2.7,0,3.4,2.1,3.4,2.2l0.1,0.2H307.9z"/>
		<path class="st0" d="M311.3,144.5c2,0,2.8,1.3,3,1.8h-6C308.6,145.7,309.3,144.5,311.3,144.5z"/>
	</g>
	<g>
		<path class="st0" d="M292.7,152.1h-7.8v11h7.8V152.1z M290.2,160.1h-2.9v-6h2.9V160.1z"/>
		<polygon class="st0" points="291.9,138.7 285.7,138.7 288.8,136.7 		"/>
		<path class="st0" d="M275.5,121.8v41.3h9.1v-11.3h8.4v11.3h8.7v-41.3H275.5z M290.6,132H287v-3.6h3.6V132z M287.2,139.9h3.3v8.9
			h-3.3V139.9z M284.6,139l4.2-2.7l4.2,2.7H284.6z"/>
	</g>
	<g>
		<g>
			<path class="st0" d="M267.5,152.1h-7.8v11h7.8V152.1z M265,160.1h-2.9v-6h2.9V160.1z"/>
		</g>
		<g>
			<path class="st0" d="M252.6,152.1h-7.8v11h7.8V152.1z M250.1,160.1h-2.9v-6h2.9V160.1z"/>
		</g>
		<g>
			<polygon class="st0" points="275.5,148.8 275.5,163.1 267.8,163.1 267.8,151.7 259.4,151.7 259.4,163.1 252.9,163.1 252.9,151.7 
				244.5,151.7 244.5,163.1 242.4,163.1 242.4,148.8 			"/>
		</g>
	</g>
</g>
<path class="st0" d="M200.7,119.9v31.4h41.1v-31.4H200.7z M214.2,148.8h-3.3v-8.9c0-0.9,0.7-1.6,1.6-1.6c0.9,0,1.6,0.7,1.6,1.6
	V148.8z M214.4,132h-3.6v-3.6h3.6V132z M229.1,148.8h-3.3v-8.9c0-0.9,0.7-1.6,1.6-1.6c0.9,0,1.6,0.7,1.6,1.6V148.8z M229.3,132h-3.6
	v-3.6h3.6V132z M239.7,148.8h-3.3v-8.9c0-0.9,0.7-1.6,1.6-1.6c0.9,0,1.6,0.7,1.6,1.6V148.8z M239.9,132h-3.6v-3.6h3.6V132z"/>
<path class="st0" d="M208.4,74.8v16.3h59.4V74.8H208.4z M210.4,87h-0.8V75.8h0.8V87z M214,85.2c-0.3,0-0.5,0.2-0.5,0.5h-0.8
	c0-0.3-0.2-0.5-0.5-0.5v-7.5c0.3,0,0.5-0.2,0.5-0.5h0.8c0,0.3,0.2,0.5,0.5,0.5V85.2z M216.7,87h-0.8V75.8h0.8V87z M220.2,85.2
	c-0.3,0-0.5,0.2-0.5,0.5H219c0-0.3-0.2-0.5-0.5-0.5v-7.5c0.3,0,0.5-0.2,0.5-0.5h0.8c0,0.3,0.2,0.5,0.5,0.5V85.2z M222.9,87h-0.8
	V75.8h0.8V87z M226.5,85.2c-0.3,0-0.5,0.2-0.5,0.5h-0.8c0-0.3-0.2-0.5-0.5-0.5v-7.5c0.3,0,0.5-0.2,0.5-0.5h0.8
	c0,0.3,0.2,0.5,0.5,0.5V85.2z M229.1,87h-0.8V75.8h0.8V87z M232.7,85.2c-0.3,0-0.5,0.2-0.5,0.5h-0.8c0-0.3-0.2-0.5-0.5-0.5v-7.5
	c0.3,0,0.5-0.2,0.5-0.5h0.8c0,0.3,0.2,0.5,0.5,0.5V85.2z M235.4,87h-0.8V75.8h0.8V87z M238.9,85.2c-0.3,0-0.5,0.2-0.5,0.5h-0.8
	c0-0.3-0.2-0.5-0.5-0.5v-7.5c0.3,0,0.5-0.2,0.5-0.5h0.8c0,0.3,0.2,0.5,0.5,0.5V85.2z M241.6,87h-0.8V75.8h0.8V87z M245.2,85.2
	c-0.3,0-0.5,0.2-0.5,0.5h-0.8c0-0.3-0.2-0.5-0.5-0.5v-7.5c0.3,0,0.5-0.2,0.5-0.5h0.8c0,0.3,0.2,0.5,0.5,0.5V85.2z M247.8,87H247
	V75.8h0.8V87z M251.4,85.2c-0.3,0-0.5,0.2-0.5,0.5h-0.8c0-0.3-0.2-0.5-0.5-0.5v-7.5c0.3,0,0.5-0.2,0.5-0.5h0.8
	c0,0.3,0.2,0.5,0.5,0.5V85.2z M254.1,87h-0.8V75.8h0.8V87z M257.6,85.2c-0.3,0-0.5,0.2-0.5,0.5h-0.8c0-0.3-0.2-0.5-0.5-0.5v-7.5
	c0.3,0,0.5-0.2,0.5-0.5h0.8c0,0.3,0.2,0.5,0.5,0.5V85.2z M260.3,87h-0.8V75.8h0.8V87z M263.9,85.2c-0.3,0-0.5,0.2-0.5,0.5h-0.8
	c0-0.3-0.2-0.5-0.5-0.5v-7.5c0.3,0,0.5-0.2,0.5-0.5h0.8c0,0.3,0.2,0.5,0.5,0.5V85.2z M266.5,87h-0.8V75.8h0.8V87z"/>
<g>
	<rect x="81.5" y="127.2" class="st0" width="0.3" height="2.4"/>
	<rect x="82.9" y="127.2" class="st0" width="0.3" height="2.4"/>
	<rect x="84.4" y="127.2" class="st0" width="0.3" height="2.4"/>
	<rect x="85.8" y="127.2" class="st0" width="0.3" height="2.4"/>
	<rect x="87.3" y="127.2" class="st0" width="0.3" height="2.4"/>
	<rect x="88.7" y="127.2" class="st0" width="0.3" height="2.4"/>
	<rect x="90.1" y="127.2" class="st0" width="0.3" height="2.4"/>
	<rect x="91.6" y="127.2" class="st0" width="0.3" height="2.4"/>
	<rect x="93" y="127.2" class="st0" width="0.3" height="2.4"/>
	<rect x="94.4" y="127.2" class="st0" width="0.3" height="2.4"/>
	<rect x="95.9" y="127.2" class="st0" width="0.3" height="2.4"/>
	<rect x="97.3" y="127.2" class="st0" width="0.3" height="2.4"/>
	<rect x="98.8" y="127.2" class="st0" width="0.3" height="2.4"/>
	<rect x="100.2" y="127.2" class="st0" width="0.3" height="2.4"/>
	<rect x="101.6" y="127.2" class="st0" width="0.3" height="2.4"/>
	<rect x="103.1" y="127.2" class="st0" width="0.3" height="2.4"/>
	<rect x="104.5" y="127.2" class="st0" width="0.3" height="2.4"/>
	<rect x="106" y="127.2" class="st0" width="0.3" height="2.4"/>
	<rect x="107.4" y="127.2" class="st0" width="0.3" height="2.4"/>
	<rect x="108.8" y="127.2" class="st0" width="0.3" height="2.4"/>
	<rect x="110.3" y="127.2" class="st0" width="0.3" height="2.4"/>
	<rect x="111.7" y="127.2" class="st0" width="0.3" height="2.4"/>
	<rect x="113.2" y="127.2" class="st0" width="0.3" height="2.4"/>
	<rect x="114.6" y="127.2" class="st0" width="0.3" height="2.4"/>
	<rect x="116" y="127.2" class="st0" width="0.3" height="2.4"/>
	<rect x="117.5" y="127.2" class="st0" width="0.3" height="2.4"/>
	<rect x="118.9" y="127.2" class="st0" width="0.3" height="2.4"/>
</g>
<rect x="80.4" y="129.6" class="st0" width="42.5" height="0.9"/>
<rect x="80.9" y="130.3" class="st0" width="41" height="0.8"/>
<rect x="80.1" y="126.7" class="st0" width="42.8" height="0.9"/>
<polygon class="st0" points="201.6,121.8 174.4,121.8 173.1,120 201.6,120 "/>
<rect x="173.1" y="119.3" class="st0" width="28.5" height="0.7"/>
<rect x="175.8" y="114.9" class="st0" width="6.4" height="2.1"/>
<rect x="193.1" y="114.9" class="st0" width="8.5" height="2.1"/>
<rect x="175.4" y="114.7" class="st0" width="29.6" height="0.5"/>
<g>
	<rect x="182.5" y="114.9" class="st0" width="0.3" height="2.4"/>
	<rect x="183.3" y="114.9" class="st0" width="0.3" height="2.4"/>
	<rect x="184.1" y="114.9" class="st0" width="0.3" height="2.4"/>
	<rect x="184.8" y="114.9" class="st0" width="0.3" height="2.4"/>
	<rect x="185.6" y="114.9" class="st0" width="0.3" height="2.4"/>
	<rect x="186.3" y="114.9" class="st0" width="0.3" height="2.4"/>
	<rect x="187.1" y="114.9" class="st0" width="0.3" height="2.4"/>
	<rect x="187.9" y="114.9" class="st0" width="0.3" height="2.4"/>
	<rect x="188.6" y="114.9" class="st0" width="0.3" height="2.4"/>
	<rect x="189.4" y="114.9" class="st0" width="0.3" height="2.4"/>
	<rect x="190.1" y="114.9" class="st0" width="0.3" height="2.4"/>
	<rect x="190.9" y="114.9" class="st0" width="0.3" height="2.4"/>
	<rect x="191.7" y="114.9" class="st0" width="0.3" height="2.4"/>
	<rect x="192.4" y="114.9" class="st0" width="0.3" height="2.4"/>
</g>
<g>
	<rect x="201.8" y="126" class="st0" width="2.3" height="19.5"/>
	<path class="st0" d="M204.9,144.8c0,0.2-0.2,0.3-0.5,0.3h-2.7c-0.3,0-0.5-0.1-0.5-0.3c0-0.2,0.2-0.3,0.5-0.3h2.7
		C204.6,144.5,204.9,144.6,204.9,144.8z"/>
	<rect x="200.7" y="145.1" class="st0" width="4.7" height="0.7"/>
	<rect x="200.9" y="123.5" class="st0" width="4.1" height="0.7"/>
	<rect x="201.6" y="126" class="st0" width="2.8" height="0.5"/>
	<g>
		<polygon class="st0" points="204.6,124.2 201.3,124.2 201.8,126 204.2,126 		"/>
		<circle class="st0" cx="204.6" cy="124.9" r="0.7"/>
		<circle class="st0" cx="201.4" cy="124.9" r="0.7"/>
	</g>
</g>
<g>
	<rect x="206.6" y="126" class="st0" width="2.3" height="19.5"/>
	<path class="st0" d="M209.6,144.8c0,0.2-0.2,0.3-0.5,0.3h-2.7c-0.3,0-0.5-0.1-0.5-0.3c0-0.2,0.2-0.3,0.5-0.3h2.7
		C209.4,144.5,209.6,144.6,209.6,144.8z"/>
	<rect x="205.4" y="145.1" class="st0" width="4.7" height="0.7"/>
	<rect x="205.7" y="123.5" class="st0" width="4.1" height="0.7"/>
	<rect x="206.3" y="126" class="st0" width="2.8" height="0.5"/>
	<g>
		<polygon class="st0" points="209.4,124.2 206.1,124.2 206.6,126 208.9,126 		"/>
		<circle class="st0" cx="209.3" cy="124.9" r="0.7"/>
		<circle class="st0" cx="206.1" cy="124.9" r="0.7"/>
	</g>
</g>
<rect x="200.7" y="145.8" class="st0" width="9.4" height="3"/>
<g>
	<rect x="216" y="126" class="st0" width="2.3" height="19.5"/>
	<path class="st0" d="M219,144.8c0,0.2-0.2,0.3-0.5,0.3h-2.7c-0.3,0-0.5-0.1-0.5-0.3c0-0.2,0.2-0.3,0.5-0.3h2.7
		C218.8,144.5,219,144.6,219,144.8z"/>
	<rect x="214.8" y="145.1" class="st0" width="4.7" height="0.7"/>
	<rect x="215.1" y="123.5" class="st0" width="4.1" height="0.7"/>
	<rect x="215.7" y="126" class="st0" width="2.8" height="0.5"/>
	<g>
		<polygon class="st0" points="218.8,124.2 215.5,124.2 215.9,126 218.3,126 		"/>
		<circle class="st0" cx="218.7" cy="124.9" r="0.7"/>
		<circle class="st0" cx="215.5" cy="124.9" r="0.7"/>
	</g>
</g>
<g>
	<rect x="220.7" y="126" class="st0" width="2.3" height="19.5"/>
	<path class="st0" d="M223.7,144.8c0,0.2-0.2,0.3-0.5,0.3h-2.7c-0.3,0-0.5-0.1-0.5-0.3c0-0.2,0.2-0.3,0.5-0.3h2.7
		C223.5,144.5,223.7,144.6,223.7,144.8z"/>
	<rect x="219.5" y="145.1" class="st0" width="4.7" height="0.7"/>
	<rect x="219.8" y="123.5" class="st0" width="4.1" height="0.7"/>
	<rect x="220.5" y="126" class="st0" width="2.8" height="0.5"/>
	<g>
		<polygon class="st0" points="223.5,124.2 220.2,124.2 220.7,126 223.1,126 		"/>
		<circle class="st0" cx="223.5" cy="124.9" r="0.7"/>
		<circle class="st0" cx="220.3" cy="124.9" r="0.7"/>
	</g>
</g>
<rect x="214.8" y="145.8" class="st0" width="9.4" height="3"/>
<g>
	<rect x="231.6" y="126" class="st0" width="2.3" height="19.5"/>
	<path class="st0" d="M234.6,144.8c0,0.2-0.2,0.3-0.5,0.3h-2.7c-0.3,0-0.5-0.1-0.5-0.3c0-0.2,0.2-0.3,0.5-0.3h2.7
		C234.4,144.5,234.6,144.6,234.6,144.8z"/>
	<rect x="230.4" y="145.1" class="st0" width="4.7" height="3.7"/>
	<rect x="230.7" y="123.5" class="st0" width="4.1" height="0.7"/>
	<rect x="231.3" y="126" class="st0" width="2.8" height="0.5"/>
	<g>
		<polygon class="st0" points="234.4,124.2 231.1,124.2 231.5,126 233.9,126 		"/>
		<circle class="st0" cx="234.3" cy="124.9" r="0.7"/>
		<circle class="st0" cx="231.1" cy="124.9" r="0.7"/>
	</g>
</g>
<rect x="200.9" y="115.2" class="st0" width="44.6" height="8.2"/>
<rect x="201.3" y="113.1" class="st0" width="6.4" height="2.1"/>
<rect x="216.6" y="113.1" class="st0" width="6.4" height="2.1"/>
<rect x="231.8" y="113.1" class="st0" width="1.8" height="2.1"/>
<polygon class="st0" points="238.1,119.9 200.9,119.9 199.1,118.1 238.1,118.1 "/>
<rect x="200.1" y="121.3" class="st0" width="37.9" height="0.7"/>
<rect x="199.1" y="117.4" class="st0" width="39" height="0.7"/>
<rect x="200.9" y="112.9" class="st0" width="74.5" height="0.5"/>
<g>
	<rect x="208.1" y="113.1" class="st0" width="0.3" height="2.4"/>
	<rect x="208.7" y="113.1" class="st0" width="0.3" height="2.4"/>
	<rect x="209.3" y="113.1" class="st0" width="0.3" height="2.4"/>
	<rect x="209.9" y="113.1" class="st0" width="0.3" height="2.4"/>
	<rect x="210.5" y="113.1" class="st0" width="0.3" height="2.4"/>
	<rect x="211.1" y="113.1" class="st0" width="0.3" height="2.4"/>
	<rect x="211.7" y="113.1" class="st0" width="0.3" height="2.4"/>
	<rect x="212.3" y="113.1" class="st0" width="0.3" height="2.4"/>
	<rect x="212.9" y="113.1" class="st0" width="0.3" height="2.4"/>
	<rect x="213.5" y="113.1" class="st0" width="0.3" height="2.4"/>
	<rect x="214.1" y="113.1" class="st0" width="0.3" height="2.4"/>
	<rect x="214.8" y="113.1" class="st0" width="0.3" height="2.4"/>
	<rect x="215.4" y="113.1" class="st0" width="0.3" height="2.4"/>
	<rect x="216" y="113.1" class="st0" width="0.3" height="2.4"/>
</g>
<g>
	<rect x="223.3" y="113.1" class="st0" width="0.3" height="2.4"/>
	<rect x="223.9" y="113.1" class="st0" width="0.3" height="2.4"/>
	<rect x="224.6" y="113.1" class="st0" width="0.3" height="2.4"/>
	<rect x="225.2" y="113.1" class="st0" width="0.3" height="2.4"/>
	<rect x="225.8" y="113.1" class="st0" width="0.3" height="2.4"/>
	<rect x="226.4" y="113.1" class="st0" width="0.3" height="2.4"/>
	<rect x="227" y="113.1" class="st0" width="0.3" height="2.4"/>
	<rect x="227.6" y="113.1" class="st0" width="0.3" height="2.4"/>
	<rect x="228.2" y="113.1" class="st0" width="0.3" height="2.4"/>
	<rect x="228.8" y="113.1" class="st0" width="0.3" height="2.4"/>
	<rect x="229.4" y="113.1" class="st0" width="0.3" height="2.4"/>
	<rect x="230" y="113.1" class="st0" width="0.3" height="2.4"/>
	<rect x="230.6" y="113.1" class="st0" width="0.3" height="2.4"/>
	<rect x="231.3" y="113.1" class="st0" width="0.3" height="2.4"/>
</g>
<g>
	<rect x="234" y="113.1" class="st0" width="0.3" height="2.4"/>
	<rect x="234.6" y="113.1" class="st0" width="0.3" height="2.4"/>
	<rect x="235.2" y="113.1" class="st0" width="0.3" height="2.4"/>
	<rect x="235.8" y="113.1" class="st0" width="0.3" height="2.4"/>
	<rect x="236.4" y="113.1" class="st0" width="0.3" height="2.4"/>
	<rect x="237" y="113.1" class="st0" width="0.3" height="2.4"/>
	<rect x="237.6" y="113.1" class="st0" width="0.3" height="2.4"/>
	<rect x="238.2" y="113.1" class="st0" width="0.3" height="2.4"/>
	<rect x="238.8" y="113.1" class="st0" width="0.3" height="2.4"/>
	<rect x="239.4" y="113.1" class="st0" width="0.3" height="2.4"/>
	<rect x="240" y="113.1" class="st0" width="0.3" height="2.4"/>
	<rect x="240.7" y="113.1" class="st0" width="0.3" height="2.4"/>
	<rect x="241.3" y="113.1" class="st0" width="0.3" height="2.4"/>
	<rect x="241.9" y="113.1" class="st0" width="0.3" height="2.4"/>
</g>
<rect x="175.1" y="117" class="st0" width="25.8" height="2.8"/>
<polygon class="st0" points="175.6,131.3 119.6,131.3 116.8,129.5 175.6,129.5 "/>
<rect x="118.5" y="128.8" class="st0" width="57.3" height="0.7"/>
<rect x="121.3" y="124.4" class="st0" width="6.4" height="2.1"/>
<rect x="138.6" y="124.4" class="st0" width="8.5" height="2.1"/>
<rect x="158.9" y="124.4" class="st0" width="2.5" height="2.1"/>
<rect x="167.7" y="124.4" class="st0" width="2.5" height="2.1"/>
<rect x="120.9" y="124.2" class="st0" width="55" height="0.5"/>
<g>
	<rect x="128" y="124.4" class="st0" width="0.3" height="2.4"/>
	<rect x="128.7" y="124.4" class="st0" width="0.3" height="2.4"/>
	<rect x="129.5" y="124.4" class="st0" width="0.3" height="2.4"/>
	<rect x="130.3" y="124.4" class="st0" width="0.3" height="2.4"/>
	<rect x="131" y="124.4" class="st0" width="0.3" height="2.4"/>
	<rect x="131.8" y="124.4" class="st0" width="0.3" height="2.4"/>
	<rect x="132.5" y="124.4" class="st0" width="0.3" height="2.4"/>
	<rect x="133.3" y="124.4" class="st0" width="0.3" height="2.4"/>
	<rect x="134.1" y="124.4" class="st0" width="0.3" height="2.4"/>
	<rect x="134.8" y="124.4" class="st0" width="0.3" height="2.4"/>
	<rect x="135.6" y="124.4" class="st0" width="0.3" height="2.4"/>
	<rect x="136.3" y="124.4" class="st0" width="0.3" height="2.4"/>
	<rect x="137.1" y="124.4" class="st0" width="0.3" height="2.4"/>
	<rect x="137.9" y="124.4" class="st0" width="0.3" height="2.4"/>
</g>
<g>
	<rect x="0.4" y="146.4" class="st0" width="0.3" height="2.4"/>
	<rect x="1.8" y="146.4" class="st0" width="0.3" height="2.4"/>
	<rect x="3.3" y="146.4" class="st0" width="0.3" height="2.4"/>
	<rect x="4.7" y="146.4" class="st0" width="0.3" height="2.4"/>
	<rect x="6.2" y="146.4" class="st0" width="0.3" height="2.4"/>
	<rect x="7.6" y="146.4" class="st0" width="0.3" height="2.4"/>
	<rect x="9.1" y="146.4" class="st0" width="0.3" height="2.4"/>
	<rect x="10.6" y="146.4" class="st0" width="0.3" height="2.4"/>
	<rect x="12" y="146.4" class="st0" width="0.3" height="2.4"/>
	<rect x="13.5" y="146.4" class="st0" width="0.3" height="2.4"/>
	<rect x="14.9" y="146.4" class="st0" width="0.3" height="2.4"/>
	<rect x="16.4" y="146.4" class="st0" width="0.3" height="2.4"/>
	<rect x="17.8" y="146.4" class="st0" width="0.3" height="2.4"/>
	<rect x="19.3" y="146.4" class="st0" width="0.3" height="2.4"/>
	<rect x="20.8" y="146.4" class="st0" width="0.3" height="2.4"/>
	<rect x="22.2" y="146.4" class="st0" width="0.3" height="2.4"/>
	<rect x="23.7" y="146.4" class="st0" width="0.3" height="2.4"/>
	<rect x="25.1" y="146.4" class="st0" width="0.3" height="2.4"/>
	<rect x="26.6" y="146.4" class="st0" width="0.3" height="2.4"/>
	<rect x="28" y="146.4" class="st0" width="0.3" height="2.4"/>
	<rect x="29.5" y="146.4" class="st0" width="0.3" height="2.4"/>
	<rect x="31" y="146.4" class="st0" width="0.3" height="2.4"/>
	<rect x="32.4" y="146.4" class="st0" width="0.3" height="2.4"/>
	<rect x="33.9" y="146.4" class="st0" width="0.3" height="2.4"/>
	<rect x="35.3" y="146.4" class="st0" width="0.3" height="2.4"/>
	<rect x="36.8" y="146.4" class="st0" width="0.3" height="2.4"/>
	<rect x="38.2" y="146.4" class="st0" width="0.3" height="2.4"/>
	<rect x="39.7" y="146.4" class="st0" width="0.3" height="2.4"/>
	<rect x="41.2" y="146.4" class="st0" width="0.3" height="2.4"/>
	<rect x="42.6" y="146.4" class="st0" width="0.3" height="2.4"/>
	<rect x="44.1" y="146.4" class="st0" width="0.3" height="2.4"/>
	<rect x="45.5" y="146.4" class="st0" width="0.3" height="2.4"/>
	<rect x="47" y="146.4" class="st0" width="0.3" height="2.4"/>
	<rect x="48.4" y="146.4" class="st0" width="0.3" height="2.4"/>
	<rect x="49.9" y="146.4" class="st0" width="0.3" height="2.4"/>
	<rect x="51.4" y="146.4" class="st0" width="0.3" height="2.4"/>
	<rect x="52.8" y="146.4" class="st0" width="0.3" height="2.4"/>
	<rect x="54.3" y="146.4" class="st0" width="0.3" height="2.4"/>
	<rect x="55.7" y="146.4" class="st0" width="0.3" height="2.4"/>
	<rect x="57.2" y="146.4" class="st0" width="0.3" height="2.4"/>
	<rect x="58.6" y="146.4" class="st0" width="0.3" height="2.4"/>
	<rect x="60.1" y="146.4" class="st0" width="0.3" height="2.4"/>
	<rect x="61.6" y="146.4" class="st0" width="0.3" height="2.4"/>
	<rect x="63" y="146.4" class="st0" width="0.3" height="2.4"/>
	<rect x="64.5" y="146.4" class="st0" width="0.3" height="2.4"/>
	<rect x="65.9" y="146.4" class="st0" width="0.3" height="2.4"/>
	<rect x="67.4" y="146.4" class="st0" width="0.3" height="2.4"/>
	<rect x="68.8" y="146.4" class="st0" width="0.3" height="2.4"/>
	<rect x="70.3" y="146.4" class="st0" width="0.3" height="2.4"/>
	<rect x="71.8" y="146.4" class="st0" width="0.3" height="2.4"/>
	<rect x="73.2" y="146.4" class="st0" width="0.3" height="2.4"/>
	<rect x="74.7" y="146.4" class="st0" width="0.3" height="2.4"/>
	<rect x="76.1" y="146.4" class="st0" width="0.3" height="2.4"/>
	<rect x="77.6" y="146.4" class="st0" width="0.3" height="2.4"/>
	<rect x="79" y="146.4" class="st0" width="0.3" height="2.4"/>
	<rect x="80.5" y="146.4" class="st0" width="0.3" height="2.4"/>
	<rect x="82" y="146.4" class="st0" width="0.3" height="2.4"/>
</g>
<g>
	<rect x="0.6" y="117.8" class="st0" width="0.3" height="2.4"/>
	<rect x="2.1" y="117.8" class="st0" width="0.3" height="2.4"/>
	<rect x="3.5" y="117.8" class="st0" width="0.3" height="2.4"/>
	<rect x="5" y="117.8" class="st0" width="0.3" height="2.4"/>
	<rect x="6.4" y="117.8" class="st0" width="0.3" height="2.4"/>
	<rect x="7.9" y="117.8" class="st0" width="0.3" height="2.4"/>
	<rect x="9.3" y="117.8" class="st0" width="0.3" height="2.4"/>
	<rect x="10.7" y="117.8" class="st0" width="0.3" height="2.4"/>
	<rect x="12.2" y="117.8" class="st0" width="0.3" height="2.4"/>
	<rect x="13.6" y="117.8" class="st0" width="0.3" height="2.4"/>
	<rect x="15.1" y="117.8" class="st0" width="0.3" height="2.4"/>
	<rect x="16.5" y="117.8" class="st0" width="0.3" height="2.4"/>
	<rect x="18" y="117.8" class="st0" width="0.3" height="2.4"/>
	<rect x="19.4" y="117.8" class="st0" width="0.3" height="2.4"/>
	<rect x="20.9" y="117.8" class="st0" width="0.3" height="2.4"/>
	<rect x="22.3" y="117.8" class="st0" width="0.3" height="2.4"/>
	<rect x="23.7" y="117.8" class="st0" width="0.3" height="2.4"/>
	<rect x="25.2" y="117.8" class="st0" width="0.3" height="2.4"/>
	<rect x="26.6" y="117.8" class="st0" width="0.3" height="2.4"/>
	<rect x="28.1" y="117.8" class="st0" width="0.3" height="2.4"/>
	<rect x="29.5" y="117.8" class="st0" width="0.3" height="2.4"/>
	<rect x="31" y="117.8" class="st0" width="0.3" height="2.4"/>
	<rect x="32.4" y="117.8" class="st0" width="0.3" height="2.4"/>
	<rect x="33.8" y="117.8" class="st0" width="0.3" height="2.4"/>
	<rect x="35.3" y="117.8" class="st0" width="0.3" height="2.4"/>
	<rect x="36.7" y="117.8" class="st0" width="0.3" height="2.4"/>
	<rect x="38.2" y="117.8" class="st0" width="0.3" height="2.4"/>
	<rect x="39.6" y="117.8" class="st0" width="0.3" height="2.4"/>
	<rect x="41.1" y="117.8" class="st0" width="0.3" height="2.4"/>
	<rect x="42.5" y="117.8" class="st0" width="0.3" height="2.4"/>
	<rect x="43.9" y="117.8" class="st0" width="0.3" height="2.4"/>
	<rect x="45.4" y="117.8" class="st0" width="0.3" height="2.4"/>
	<rect x="46.8" y="117.8" class="st0" width="0.3" height="2.4"/>
	<rect x="48.3" y="117.8" class="st0" width="0.3" height="2.4"/>
	<rect x="49.7" y="117.8" class="st0" width="0.3" height="2.4"/>
	<rect x="51.2" y="117.8" class="st0" width="0.3" height="2.4"/>
	<rect x="52.6" y="117.8" class="st0" width="0.3" height="2.4"/>
	<rect x="54" y="117.8" class="st0" width="0.3" height="2.4"/>
	<rect x="55.5" y="117.8" class="st0" width="0.3" height="2.4"/>
	<rect x="56.9" y="117.8" class="st0" width="0.3" height="2.4"/>
	<rect x="58.4" y="117.8" class="st0" width="0.3" height="2.4"/>
	<rect x="59.8" y="117.8" class="st0" width="0.3" height="2.4"/>
	<rect x="61.3" y="117.8" class="st0" width="0.3" height="2.4"/>
	<rect x="62.7" y="117.8" class="st0" width="0.3" height="2.4"/>
	<rect x="64.1" y="117.8" class="st0" width="0.3" height="2.4"/>
	<rect x="65.6" y="117.8" class="st0" width="0.3" height="2.4"/>
	<rect x="67" y="117.8" class="st0" width="0.3" height="2.4"/>
	<rect x="68.5" y="117.8" class="st0" width="0.3" height="2.4"/>
	<rect x="69.9" y="117.8" class="st0" width="0.3" height="2.4"/>
	<rect x="71.4" y="117.8" class="st0" width="0.3" height="2.4"/>
	<rect x="72.8" y="117.8" class="st0" width="0.3" height="2.4"/>
	<rect x="74.3" y="117.8" class="st0" width="0.3" height="2.4"/>
	<rect x="75.7" y="117.8" class="st0" width="0.3" height="2.4"/>
	<rect x="77.1" y="117.8" class="st0" width="0.3" height="2.4"/>
	<rect x="78.6" y="117.8" class="st0" width="0.3" height="2.4"/>
	<rect x="80" y="117.8" class="st0" width="0.3" height="2.4"/>
	<rect x="81.5" y="117.8" class="st0" width="0.3" height="2.4"/>
</g>
<g>
	<rect x="146.4" y="124.4" class="st0" width="0.3" height="2.4"/>
	<rect x="147.1" y="124.4" class="st0" width="0.3" height="2.4"/>
	<rect x="147.9" y="124.4" class="st0" width="0.3" height="2.4"/>
	<rect x="148.7" y="124.4" class="st0" width="0.3" height="2.4"/>
	<rect x="149.4" y="124.4" class="st0" width="0.3" height="2.4"/>
	<rect x="150.2" y="124.4" class="st0" width="0.3" height="2.4"/>
	<rect x="150.9" y="124.4" class="st0" width="0.3" height="2.4"/>
	<rect x="151.7" y="124.4" class="st0" width="0.3" height="2.4"/>
	<rect x="152.4" y="124.4" class="st0" width="0.3" height="2.4"/>
	<rect x="153.2" y="124.4" class="st0" width="0.3" height="2.4"/>
	<rect x="154" y="124.4" class="st0" width="0.3" height="2.4"/>
	<rect x="154.7" y="124.4" class="st0" width="0.3" height="2.4"/>
	<rect x="155.5" y="124.4" class="st0" width="0.3" height="2.4"/>
	<rect x="156.2" y="124.4" class="st0" width="0.3" height="2.4"/>
</g>
<g>
	<rect x="157" y="124.4" class="st0" width="0.3" height="2.4"/>
	<rect x="157.7" y="124.4" class="st0" width="0.3" height="2.4"/>
	<rect x="158.5" y="124.4" class="st0" width="0.3" height="2.4"/>
	<rect x="159.2" y="124.4" class="st0" width="0.3" height="2.4"/>
	<rect x="160" y="124.4" class="st0" width="0.3" height="2.4"/>
	<rect x="160.8" y="124.4" class="st0" width="0.3" height="2.4"/>
	<rect x="161.5" y="124.4" class="st0" width="0.3" height="2.4"/>
	<rect x="162.3" y="124.4" class="st0" width="0.3" height="2.4"/>
	<rect x="163" y="124.4" class="st0" width="0.3" height="2.4"/>
	<rect x="163.8" y="124.4" class="st0" width="0.3" height="2.4"/>
	<rect x="164.6" y="124.4" class="st0" width="0.3" height="2.4"/>
	<rect x="165.3" y="124.4" class="st0" width="0.3" height="2.4"/>
	<rect x="166.1" y="124.4" class="st0" width="0.3" height="2.4"/>
	<rect x="166.8" y="124.4" class="st0" width="0.3" height="2.4"/>
</g>
<g>
	<rect x="167.6" y="124.4" class="st0" width="0.3" height="2.4"/>
	<rect x="168.3" y="124.4" class="st0" width="0.3" height="2.4"/>
	<rect x="169.1" y="124.4" class="st0" width="0.3" height="2.4"/>
	<rect x="169.8" y="124.4" class="st0" width="0.3" height="2.4"/>
	<rect x="170.6" y="124.4" class="st0" width="0.3" height="2.4"/>
	<rect x="171.4" y="124.4" class="st0" width="0.3" height="2.4"/>
	<rect x="172.1" y="124.4" class="st0" width="0.3" height="2.4"/>
	<rect x="172.9" y="124.4" class="st0" width="0.3" height="2.4"/>
	<rect x="173.6" y="124.4" class="st0" width="0.3" height="2.4"/>
	<rect x="174.4" y="124.4" class="st0" width="0.3" height="2.4"/>
	<rect x="175.2" y="124.4" class="st0" width="0.3" height="2.4"/>
	<rect x="175.9" y="124.4" class="st0" width="0.3" height="2.4"/>
	<rect x="176.7" y="124.4" class="st0" width="0.3" height="2.4"/>
	<rect x="177.4" y="124.4" class="st0" width="0.3" height="2.4"/>
</g>
<rect x="120.6" y="126.5" class="st0" width="55.3" height="2.8"/>
<g>
	<g>
		<rect x="203.7" y="94.7" class="st0" width="1.5" height="12.3"/>
		<path class="st0" d="M205.6,106.5c0,0.1-0.1,0.2-0.3,0.2h-1.7c-0.2,0-0.3-0.1-0.3-0.2c0-0.1,0.1-0.2,0.3-0.2h1.7
			C205.5,106.3,205.6,106.4,205.6,106.5z"/>
		<rect x="203" y="106.7" class="st0" width="2.9" height="0.5"/>
		<rect x="203.2" y="93" class="st0" width="2.6" height="0.5"/>
		<rect x="203.6" y="94.7" class="st0" width="1.8" height="0.3"/>
		<g>
			<polygon class="st0" points="205.5,93.5 203.4,93.5 203.7,94.7 205.2,94.7 			"/>
			<circle class="st0" cx="205.5" cy="93.9" r="0.4"/>
			<circle class="st0" cx="203.4" cy="93.9" r="0.4"/>
		</g>
	</g>
	<g>
		<rect x="209.3" y="94.7" class="st0" width="1.5" height="12.3"/>
		<path class="st0" d="M211.2,106.5c0,0.1-0.1,0.2-0.3,0.2h-1.7c-0.2,0-0.3-0.1-0.3-0.2c0-0.1,0.1-0.2,0.3-0.2h1.7
			C211.1,106.3,211.2,106.4,211.2,106.5z"/>
		<rect x="208.6" y="106.7" class="st0" width="2.9" height="0.5"/>
		<rect x="208.8" y="93" class="st0" width="2.6" height="0.5"/>
		<rect x="209.2" y="94.7" class="st0" width="1.8" height="0.3"/>
		<g>
			<polygon class="st0" points="211.1,93.5 209,93.5 209.3,94.7 210.8,94.7 			"/>
			<circle class="st0" cx="211.1" cy="93.9" r="0.4"/>
			<circle class="st0" cx="209" cy="93.9" r="0.4"/>
		</g>
	</g>
	<g>
		<rect x="214.9" y="94.7" class="st0" width="1.5" height="12.3"/>
		<path class="st0" d="M216.9,106.5c0,0.1-0.1,0.2-0.3,0.2h-1.7c-0.2,0-0.3-0.1-0.3-0.2c0-0.1,0.1-0.2,0.3-0.2h1.7
			C216.7,106.3,216.9,106.4,216.9,106.5z"/>
		<rect x="214.2" y="106.7" class="st0" width="2.9" height="0.5"/>
		<rect x="214.4" y="93" class="st0" width="2.6" height="0.5"/>
		<rect x="214.8" y="94.7" class="st0" width="1.8" height="0.3"/>
		<g>
			<polygon class="st0" points="216.7,93.5 214.6,93.5 214.9,94.7 216.4,94.7 			"/>
			<circle class="st0" cx="216.7" cy="93.9" r="0.4"/>
			<circle class="st0" cx="214.7" cy="93.9" r="0.4"/>
		</g>
	</g>
	<g>
		<rect x="220.5" y="94.7" class="st0" width="1.5" height="12.3"/>
		<path class="st0" d="M222.5,106.5c0,0.1-0.1,0.2-0.3,0.2h-1.7c-0.2,0-0.3-0.1-0.3-0.2c0-0.1,0.1-0.2,0.3-0.2h1.7
			C222.3,106.3,222.5,106.4,222.5,106.5z"/>
		<rect x="219.8" y="106.7" class="st0" width="2.9" height="0.5"/>
		<rect x="220" y="93" class="st0" width="2.6" height="0.5"/>
		<rect x="220.4" y="94.7" class="st0" width="1.8" height="0.3"/>
		<g>
			<polygon class="st0" points="222.3,93.5 220.2,93.5 220.5,94.7 222,94.7 			"/>
			<circle class="st0" cx="222.3" cy="93.9" r="0.4"/>
			<circle class="st0" cx="220.3" cy="93.9" r="0.4"/>
		</g>
	</g>
	<g>
		<rect x="226.1" y="94.7" class="st0" width="1.5" height="12.3"/>
		<path class="st0" d="M228.1,106.5c0,0.1-0.1,0.2-0.3,0.2H226c-0.2,0-0.3-0.1-0.3-0.2c0-0.1,0.1-0.2,0.3-0.2h1.7
			C227.9,106.3,228.1,106.4,228.1,106.5z"/>
		<rect x="225.4" y="106.7" class="st0" width="2.9" height="0.5"/>
		<rect x="225.6" y="93" class="st0" width="2.6" height="0.5"/>
		<rect x="226" y="94.7" class="st0" width="1.8" height="0.3"/>
		<g>
			<polygon class="st0" points="227.9,93.5 225.8,93.5 226.1,94.7 227.6,94.7 			"/>
			<circle class="st0" cx="227.9" cy="93.9" r="0.4"/>
			<circle class="st0" cx="225.9" cy="93.9" r="0.4"/>
		</g>
	</g>
	<g>
		<rect x="231.7" y="94.7" class="st0" width="1.5" height="12.3"/>
		<path class="st0" d="M233.7,106.5c0,0.1-0.1,0.2-0.3,0.2h-1.7c-0.2,0-0.3-0.1-0.3-0.2c0-0.1,0.1-0.2,0.3-0.2h1.7
			C233.5,106.3,233.7,106.4,233.7,106.5z"/>
		<rect x="231" y="106.7" class="st0" width="2.9" height="0.5"/>
		<rect x="231.2" y="93" class="st0" width="2.6" height="0.5"/>
		<rect x="231.6" y="94.7" class="st0" width="1.8" height="0.3"/>
		<g>
			<polygon class="st0" points="233.5,93.5 231.4,93.5 231.7,94.7 233.2,94.7 			"/>
			<circle class="st0" cx="233.5" cy="93.9" r="0.4"/>
			<circle class="st0" cx="231.5" cy="93.9" r="0.4"/>
		</g>
	</g>
	<g>
		<rect x="237.3" y="94.7" class="st0" width="1.5" height="12.3"/>
		<path class="st0" d="M239.3,106.5c0,0.1-0.1,0.2-0.3,0.2h-1.7c-0.2,0-0.3-0.1-0.3-0.2c0-0.1,0.1-0.2,0.3-0.2h1.7
			C239.1,106.3,239.3,106.4,239.3,106.5z"/>
		<rect x="236.6" y="106.7" class="st0" width="2.9" height="0.5"/>
		<rect x="236.8" y="93" class="st0" width="2.6" height="0.5"/>
		<rect x="237.2" y="94.7" class="st0" width="1.8" height="0.3"/>
		<g>
			<polygon class="st0" points="239.1,93.5 237,93.5 237.3,94.7 238.8,94.7 			"/>
			<circle class="st0" cx="239.1" cy="93.9" r="0.4"/>
			<circle class="st0" cx="237.1" cy="93.9" r="0.4"/>
		</g>
	</g>
	<g>
		<rect x="242.9" y="94.7" class="st0" width="1.5" height="12.3"/>
		<path class="st0" d="M244.9,106.5c0,0.1-0.1,0.2-0.3,0.2h-1.7c-0.2,0-0.3-0.1-0.3-0.2c0-0.1,0.1-0.2,0.3-0.2h1.7
			C244.7,106.3,244.9,106.4,244.9,106.5z"/>
		<rect x="242.2" y="106.7" class="st0" width="2.9" height="0.5"/>
		<rect x="242.4" y="93" class="st0" width="2.6" height="0.5"/>
		<rect x="242.8" y="94.7" class="st0" width="1.8" height="0.3"/>
		<g>
			<polygon class="st0" points="244.7,93.5 242.6,93.5 242.9,94.7 244.4,94.7 			"/>
			<circle class="st0" cx="244.7" cy="93.9" r="0.4"/>
			<circle class="st0" cx="242.7" cy="93.9" r="0.4"/>
		</g>
	</g>
	<g>
		<rect x="248.5" y="94.7" class="st0" width="1.5" height="12.3"/>
		<path class="st0" d="M250.5,106.5c0,0.1-0.1,0.2-0.3,0.2h-1.7c-0.2,0-0.3-0.1-0.3-0.2c0-0.1,0.1-0.2,0.3-0.2h1.7
			C250.3,106.3,250.5,106.4,250.5,106.5z"/>
		<rect x="247.8" y="106.7" class="st0" width="2.9" height="0.5"/>
		<rect x="248" y="93" class="st0" width="2.6" height="0.5"/>
		<rect x="248.4" y="94.7" class="st0" width="1.8" height="0.3"/>
		<g>
			<polygon class="st0" points="250.3,93.5 248.2,93.5 248.5,94.7 250,94.7 			"/>
			<circle class="st0" cx="250.3" cy="93.9" r="0.4"/>
			<circle class="st0" cx="248.3" cy="93.9" r="0.4"/>
		</g>
	</g>
	<g>
		<rect x="254.1" y="94.7" class="st0" width="1.5" height="12.3"/>
		<path class="st0" d="M256.1,106.5c0,0.1-0.1,0.2-0.3,0.2H254c-0.2,0-0.3-0.1-0.3-0.2c0-0.1,0.1-0.2,0.3-0.2h1.7
			C255.9,106.3,256.1,106.4,256.1,106.5z"/>
		<rect x="253.4" y="106.7" class="st0" width="2.9" height="0.5"/>
		<rect x="253.6" y="93" class="st0" width="2.6" height="0.5"/>
		<rect x="254" y="94.7" class="st0" width="1.8" height="0.3"/>
		<g>
			<polygon class="st0" points="255.9,93.5 253.8,93.5 254.1,94.7 255.6,94.7 			"/>
			<circle class="st0" cx="255.9" cy="93.9" r="0.4"/>
			<circle class="st0" cx="253.9" cy="93.9" r="0.4"/>
		</g>
	</g>
	<g>
		<rect x="259.7" y="94.7" class="st0" width="1.5" height="12.3"/>
		<path class="st0" d="M261.7,106.5c0,0.1-0.1,0.2-0.3,0.2h-1.7c-0.2,0-0.3-0.1-0.3-0.2c0-0.1,0.1-0.2,0.3-0.2h1.7
			C261.5,106.3,261.7,106.4,261.7,106.5z"/>
		<rect x="259" y="106.7" class="st0" width="2.9" height="0.5"/>
		<rect x="259.2" y="93" class="st0" width="2.6" height="0.5"/>
		<rect x="259.6" y="94.7" class="st0" width="1.8" height="0.3"/>
		<g>
			<polygon class="st0" points="261.5,93.5 259.4,93.5 259.7,94.7 261.2,94.7 			"/>
			<circle class="st0" cx="261.5" cy="93.9" r="0.4"/>
			<circle class="st0" cx="259.5" cy="93.9" r="0.4"/>
		</g>
	</g>
	<g>
		<rect x="265.3" y="94.7" class="st0" width="1.5" height="12.3"/>
		<path class="st0" d="M267.3,106.5c0,0.1-0.1,0.2-0.3,0.2h-1.7c-0.2,0-0.3-0.1-0.3-0.2c0-0.1,0.1-0.2,0.3-0.2h1.7
			C267.1,106.3,267.3,106.4,267.3,106.5z"/>
		<rect x="264.6" y="106.7" class="st0" width="2.9" height="0.5"/>
		<rect x="264.8" y="93" class="st0" width="2.6" height="0.5"/>
		<rect x="265.2" y="94.7" class="st0" width="1.8" height="0.3"/>
		<g>
			<polygon class="st0" points="267.1,93.5 265,93.5 265.3,94.7 266.8,94.7 			"/>
			<circle class="st0" cx="267.1" cy="93.9" r="0.4"/>
			<circle class="st0" cx="265.1" cy="93.9" r="0.4"/>
		</g>
	</g>
	<g>
		<rect x="270.9" y="94.7" class="st0" width="1.5" height="12.3"/>
		<path class="st0" d="M272.9,106.5c0,0.1-0.1,0.2-0.3,0.2h-1.7c-0.2,0-0.3-0.1-0.3-0.2c0-0.1,0.1-0.2,0.3-0.2h1.7
			C272.7,106.3,272.9,106.4,272.9,106.5z"/>
		<rect x="270.2" y="106.7" class="st0" width="2.9" height="0.5"/>
		<rect x="270.4" y="93" class="st0" width="2.6" height="0.5"/>
		<rect x="270.8" y="94.7" class="st0" width="1.8" height="0.3"/>
		<g>
			<polygon class="st0" points="272.7,93.5 270.6,93.5 270.9,94.7 272.4,94.7 			"/>
			<circle class="st0" cx="272.7" cy="93.9" r="0.4"/>
			<circle class="st0" cx="270.7" cy="93.9" r="0.4"/>
		</g>
	</g>
</g>
<polygon class="st0" points="242.2,107.5 238.1,107.5 203,107.5 203,112.9 238.1,112.9 242.2,112.9 273.1,112.9 273.1,107.5 "/>
<rect x="202" y="107.1" class="st0" width="72.1" height="0.8"/>
<rect x="201.2" y="107.3" class="st0" width="73.8" height="0.5"/>
<rect x="202" y="90.4" class="st0" width="72.1" height="0.8"/>
<rect x="203.2" y="91.1" class="st0" width="69.8" height="2.1"/>
<rect x="208" y="73.2" class="st0" width="60.2" height="1.6"/>
<polygon class="st0" points="265.7,73.1 210.4,73.1 211,69.3 265.1,69.3 "/>
<polygon class="st0" points="265.7,73.1 210.4,73.1 211,69.3 265.1,69.3 "/>
<polygon class="st0" points="264.4,71.4 211.7,71.4 212.3,67.8 263.8,67.8 "/>
<rect x="207.4" y="72.4" class="st0" width="61.4" height="0.8"/>
<rect x="203" y="87.8" class="st0" width="70.1" height="0.4"/>
<g>
	<rect x="224.3" y="88.2" class="st0" width="0.9" height="2.7"/>
	<rect x="225.6" y="88.2" class="st0" width="0.9" height="2.7"/>
	<rect x="227" y="88.2" class="st0" width="0.9" height="2.7"/>
	<rect x="221.7" y="88.2" class="st0" width="0.9" height="2.7"/>
	<rect x="228.3" y="88.2" class="st0" width="0.9" height="2.7"/>
	<rect x="223" y="88.2" class="st0" width="0.9" height="2.7"/>
	<rect x="236.2" y="88.2" class="st0" width="0.9" height="2.7"/>
	<rect x="234.9" y="88.2" class="st0" width="0.9" height="2.7"/>
	<rect x="233.6" y="88.2" class="st0" width="0.9" height="2.7"/>
	<rect x="232.2" y="88.2" class="st0" width="0.9" height="2.7"/>
	<rect x="229.6" y="88.2" class="st0" width="0.9" height="2.7"/>
	<rect x="230.9" y="88.2" class="st0" width="0.9" height="2.7"/>
	<rect x="205.8" y="88.2" class="st0" width="0.9" height="2.7"/>
	<rect x="219" y="88.2" class="st0" width="0.9" height="2.7"/>
	<rect x="208.4" y="88.2" class="st0" width="0.9" height="2.7"/>
	<rect x="237.5" y="88.2" class="st0" width="0.9" height="2.7"/>
	<rect x="207.1" y="88.2" class="st0" width="0.9" height="2.7"/>
	<rect x="204.5" y="88.2" class="st0" width="0.9" height="2.7"/>
	<rect x="203.6" y="88.2" class="st0" width="0.5" height="2.7"/>
	<rect x="209.8" y="88.2" class="st0" width="0.9" height="2.7"/>
	<rect x="215.1" y="88.2" class="st0" width="0.9" height="2.7"/>
	<rect x="216.4" y="88.2" class="st0" width="0.9" height="2.7"/>
	<rect x="217.7" y="88.2" class="st0" width="0.9" height="2.7"/>
	<rect x="212.4" y="88.2" class="st0" width="0.9" height="2.7"/>
	<rect x="213.7" y="88.2" class="st0" width="0.9" height="2.7"/>
	<rect x="211.1" y="88.2" class="st0" width="0.9" height="2.7"/>
	<rect x="220.3" y="88.2" class="st0" width="0.9" height="2.7"/>
	<rect x="261.3" y="88.2" class="st0" width="0.9" height="2.7"/>
	<rect x="260" y="88.2" class="st0" width="0.9" height="2.7"/>
	<rect x="262.6" y="88.2" class="st0" width="0.9" height="2.7"/>
	<rect x="256" y="88.2" class="st0" width="0.9" height="2.7"/>
	<rect x="258.7" y="88.2" class="st0" width="0.9" height="2.7"/>
	<rect x="264" y="88.2" class="st0" width="0.9" height="2.7"/>
	<rect x="257.4" y="88.2" class="st0" width="0.9" height="2.7"/>
	<rect x="270.6" y="88.2" class="st0" width="0.9" height="2.7"/>
	<rect x="271.9" y="88.2" class="st0" width="0.7" height="2.7"/>
	<rect x="269.3" y="88.2" class="st0" width="0.9" height="2.7"/>
	<rect x="266.6" y="88.2" class="st0" width="0.9" height="2.7"/>
	<rect x="267.9" y="88.2" class="st0" width="0.9" height="2.7"/>
	<rect x="265.3" y="88.2" class="st0" width="0.9" height="2.7"/>
	<rect x="253.4" y="88.2" class="st0" width="0.9" height="2.7"/>
	<rect x="242.8" y="88.2" class="st0" width="0.9" height="2.7"/>
	<rect x="244.1" y="88.2" class="st0" width="0.9" height="2.7"/>
	<rect x="245.5" y="88.2" class="st0" width="0.9" height="2.7"/>
	<rect x="241.5" y="88.2" class="st0" width="0.9" height="2.7"/>
	<rect x="240.2" y="88.2" class="st0" width="0.9" height="2.7"/>
	<rect x="254.7" y="88.2" class="st0" width="0.9" height="2.7"/>
	<rect x="246.8" y="88.2" class="st0" width="0.9" height="2.7"/>
	<rect x="238.9" y="88.2" class="st0" width="0.9" height="2.7"/>
	<rect x="248.1" y="88.2" class="st0" width="0.9" height="2.7"/>
	<rect x="252.1" y="88.2" class="st0" width="0.9" height="2.7"/>
	<rect x="250.7" y="88.2" class="st0" width="0.9" height="2.7"/>
	<rect x="249.4" y="88.2" class="st0" width="0.9" height="2.7"/>
</g>
<rect x="201.2" y="90.6" class="st0" width="73.8" height="0.5"/>
<rect x="229" y="35.8" class="st0" width="18.2" height="3.9"/>
<rect x="231.6" y="31.6" class="st0" width="12.9" height="4.2"/>
<rect x="230.9" y="31.3" class="st0" width="14.3" height="0.6"/>
<rect x="230.9" y="19.2" class="st0" width="14.3" height="1.7"/>
<rect x="230.6" y="19.7" class="st0" width="14.9" height="0.6"/>
<rect x="227.7" y="35.1" class="st0" width="20.8" height="0.7"/>
<g>
	<rect x="231.6" y="20.9" class="st0" width="1.5" height="11"/>
	<rect x="234.5" y="20.9" class="st0" width="1.5" height="11"/>
	<rect x="237.3" y="20.9" class="st0" width="1.5" height="11"/>
	<rect x="240.1" y="20.9" class="st0" width="1.5" height="11"/>
	<rect x="243" y="20.9" class="st0" width="1.5" height="11"/>
</g>
<polygon class="st0" points="241.2,17 234.9,17 233.7,19.2 242.4,19.2 "/>
<rect x="235.3" y="13.7" class="st0" width="5.6" height="3.7"/>
<rect x="235.9" y="10.5" class="st0" width="4.4" height="3.4"/>
<polygon class="st0" points="239.3,1.6 236.8,1.6 236.2,11 239.9,11 "/>
<rect x="237.5" y="0.2" class="st0" width="1.1" height="2"/>
<g>
	<rect x="78.9" y="126" class="st0" width="2.3" height="19.5"/>
	<path class="st0" d="M81.9,144.8c0,0.2-0.2,0.3-0.5,0.3h-2.7c-0.3,0-0.5-0.1-0.5-0.3c0-0.2,0.2-0.3,0.5-0.3h2.7
		C81.7,144.5,81.9,144.6,81.9,144.8z"/>
	<rect x="77.7" y="145.1" class="st0" width="4.7" height="4.2"/>
	<rect x="78" y="123.5" class="st0" width="4.1" height="0.7"/>
	<rect x="78.6" y="126" class="st0" width="2.8" height="0.5"/>
	<g>
		<polygon class="st0" points="81.7,124.2 78.4,124.2 78.9,126 81.2,126 		"/>
		<circle class="st0" cx="81.7" cy="124.9" r="0.7"/>
		<circle class="st0" cx="78.4" cy="124.9" r="0.7"/>
	</g>
</g>
<g>
	<g>
		<rect x="87.1" y="132.8" class="st0" width="1.6" height="13.6"/>
		<path class="st0" d="M89.2,146c0,0.1-0.2,0.2-0.4,0.2h-1.9c-0.2,0-0.4-0.1-0.4-0.2c0-0.1,0.2-0.2,0.4-0.2h1.9
			C89,145.8,89.2,145.8,89.2,146z"/>
		<rect x="86.2" y="146.2" class="st0" width="3.3" height="2.9"/>
		<rect x="86.4" y="131" class="st0" width="2.9" height="0.5"/>
		<rect x="86.9" y="132.8" class="st0" width="2" height="0.3"/>
		<g>
			<polygon class="st0" points="89,131.5 86.7,131.5 87,132.8 88.7,132.8 			"/>
			<circle class="st0" cx="89" cy="132" r="0.5"/>
			<circle class="st0" cx="86.7" cy="132" r="0.5"/>
		</g>
	</g>
	<g>
		<rect x="95.4" y="132.8" class="st0" width="1.6" height="13.6"/>
		<path class="st0" d="M97.5,146c0,0.1-0.2,0.2-0.4,0.2h-1.9c-0.2,0-0.4-0.1-0.4-0.2c0-0.1,0.2-0.2,0.4-0.2h1.9
			C97.4,145.8,97.5,145.8,97.5,146z"/>
		<rect x="94.6" y="146.2" class="st0" width="3.3" height="2.9"/>
		<rect x="94.8" y="131" class="st0" width="2.9" height="0.5"/>
		<rect x="95.3" y="132.8" class="st0" width="2" height="0.3"/>
		<g>
			<polygon class="st0" points="97.4,131.5 95.1,131.5 95.4,132.8 97.1,132.8 			"/>
			<circle class="st0" cx="97.4" cy="132" r="0.5"/>
			<circle class="st0" cx="95.1" cy="132" r="0.5"/>
		</g>
	</g>
	<g>
		<rect x="103.8" y="132.8" class="st0" width="1.6" height="13.6"/>
		<path class="st0" d="M105.9,146c0,0.1-0.2,0.2-0.4,0.2h-1.9c-0.2,0-0.4-0.1-0.4-0.2c0-0.1,0.2-0.2,0.4-0.2h1.9
			C105.8,145.8,105.9,145.8,105.9,146z"/>
		<rect x="103" y="146.2" class="st0" width="3.3" height="2.9"/>
		<rect x="103.2" y="131" class="st0" width="2.9" height="0.5"/>
		<rect x="103.6" y="132.8" class="st0" width="2" height="0.3"/>
		<g>
			<polygon class="st0" points="105.8,131.5 103.5,131.5 103.8,132.8 105.4,132.8 			"/>
			<circle class="st0" cx="105.7" cy="132" r="0.5"/>
			<circle class="st0" cx="103.5" cy="132" r="0.5"/>
		</g>
	</g>
	<g>
		<rect x="112.2" y="132.8" class="st0" width="1.6" height="13.6"/>
		<path class="st0" d="M114.3,146c0,0.1-0.2,0.2-0.4,0.2H112c-0.2,0-0.4-0.1-0.4-0.2c0-0.1,0.2-0.2,0.4-0.2h1.9
			C114.1,145.8,114.3,145.8,114.3,146z"/>
		<rect x="111.3" y="146.2" class="st0" width="3.3" height="2.9"/>
		<rect x="111.5" y="131" class="st0" width="2.9" height="0.5"/>
		<rect x="112" y="132.8" class="st0" width="2" height="0.3"/>
		<g>
			<polygon class="st0" points="114.1,131.5 111.8,131.5 112.1,132.8 113.8,132.8 			"/>
			<circle class="st0" cx="114.1" cy="132" r="0.5"/>
			<circle class="st0" cx="111.8" cy="132" r="0.5"/>
		</g>
	</g>
</g>
<g>
	<rect x="71.2" y="126" class="st0" width="2.3" height="19.5"/>
	<path class="st0" d="M74.3,144.8c0,0.2-0.2,0.3-0.5,0.3H71c-0.3,0-0.5-0.1-0.5-0.3c0-0.2,0.2-0.3,0.5-0.3h2.7
		C74,144.5,74.3,144.6,74.3,144.8z"/>
	<rect x="70.1" y="145.1" class="st0" width="4.7" height="4.2"/>
	<rect x="70.3" y="123.5" class="st0" width="4.1" height="0.7"/>
	<rect x="71" y="126" class="st0" width="2.8" height="0.5"/>
	<g>
		<polygon class="st0" points="74,124.2 70.7,124.2 71.2,126 73.6,126 		"/>
		<circle class="st0" cx="74" cy="124.9" r="0.7"/>
		<circle class="st0" cx="70.8" cy="124.9" r="0.7"/>
	</g>
</g>
<g>
	<rect x="63.6" y="126" class="st0" width="2.3" height="19.5"/>
	<path class="st0" d="M66.6,144.8c0,0.2-0.2,0.3-0.5,0.3h-2.7c-0.3,0-0.5-0.1-0.5-0.3c0-0.2,0.2-0.3,0.5-0.3h2.7
		C66.4,144.5,66.6,144.6,66.6,144.8z"/>
	<rect x="62.4" y="145.1" class="st0" width="4.7" height="4.2"/>
	<rect x="62.7" y="123.5" class="st0" width="4.1" height="0.7"/>
	<rect x="63.3" y="126" class="st0" width="2.8" height="0.5"/>
	<g>
		<polygon class="st0" points="66.4,124.2 63.1,124.2 63.5,126 65.9,126 		"/>
		<circle class="st0" cx="66.3" cy="124.9" r="0.7"/>
		<circle class="st0" cx="63.1" cy="124.9" r="0.7"/>
	</g>
</g>
<g>
	<rect x="55.9" y="126" class="st0" width="2.3" height="19.5"/>
	<path class="st0" d="M58.9,144.8c0,0.2-0.2,0.3-0.5,0.3h-2.7c-0.3,0-0.5-0.1-0.5-0.3c0-0.2,0.2-0.3,0.5-0.3h2.7
		C58.7,144.5,58.9,144.6,58.9,144.8z"/>
	<rect x="54.7" y="145.1" class="st0" width="4.7" height="4.2"/>
	<rect x="55" y="123.5" class="st0" width="4.1" height="0.7"/>
	<rect x="55.7" y="126" class="st0" width="2.8" height="0.5"/>
	<g>
		<polygon class="st0" points="58.7,124.2 55.4,124.2 55.9,126 58.3,126 		"/>
		<circle class="st0" cx="58.7" cy="124.9" r="0.7"/>
		<circle class="st0" cx="55.5" cy="124.9" r="0.7"/>
	</g>
</g>
<g>
	<rect x="48.2" y="126" class="st0" width="2.3" height="19.5"/>
	<path class="st0" d="M51.3,144.8c0,0.2-0.2,0.3-0.5,0.3H48c-0.3,0-0.5-0.1-0.5-0.3c0-0.2,0.2-0.3,0.5-0.3h2.7
		C51,144.5,51.3,144.6,51.3,144.8z"/>
	<rect x="47.1" y="145.1" class="st0" width="4.7" height="4.2"/>
	<rect x="47.3" y="123.5" class="st0" width="4.1" height="0.7"/>
	<rect x="48" y="126" class="st0" width="2.8" height="0.5"/>
	<g>
		<polygon class="st0" points="51.1,124.2 47.8,124.2 48.2,126 50.6,126 		"/>
		<circle class="st0" cx="51" cy="124.9" r="0.7"/>
		<circle class="st0" cx="47.8" cy="124.9" r="0.7"/>
	</g>
</g>
<g>
	<rect x="40.6" y="126" class="st0" width="2.3" height="19.5"/>
	<path class="st0" d="M43.6,144.8c0,0.2-0.2,0.3-0.5,0.3h-2.7c-0.3,0-0.5-0.1-0.5-0.3c0-0.2,0.2-0.3,0.5-0.3h2.7
		C43.4,144.5,43.6,144.6,43.6,144.8z"/>
	<rect x="39.4" y="145.1" class="st0" width="4.7" height="4.2"/>
	<rect x="39.7" y="123.5" class="st0" width="4.1" height="0.7"/>
	<rect x="40.3" y="126" class="st0" width="2.8" height="0.5"/>
	<g>
		<polygon class="st0" points="43.4,124.2 40.1,124.2 40.6,126 42.9,126 		"/>
		<circle class="st0" cx="43.3" cy="124.9" r="0.7"/>
		<circle class="st0" cx="40.1" cy="124.9" r="0.7"/>
	</g>
</g>
<g>
	<rect x="32.9" y="126" class="st0" width="2.3" height="19.5"/>
	<path class="st0" d="M36,144.8c0,0.2-0.2,0.3-0.5,0.3h-2.7c-0.3,0-0.5-0.1-0.5-0.3c0-0.2,0.2-0.3,0.5-0.3h2.7
		C35.7,144.5,36,144.6,36,144.8z"/>
	<rect x="31.7" y="145.1" class="st0" width="4.7" height="4.2"/>
	<rect x="32" y="123.5" class="st0" width="4.1" height="0.7"/>
	<rect x="32.7" y="126" class="st0" width="2.8" height="0.5"/>
	<g>
		<polygon class="st0" points="35.7,124.2 32.4,124.2 32.9,126 35.3,126 		"/>
		<circle class="st0" cx="35.7" cy="124.9" r="0.7"/>
		<circle class="st0" cx="32.5" cy="124.9" r="0.7"/>
	</g>
</g>
<g>
	<rect x="25.3" y="126" class="st0" width="2.3" height="19.5"/>
	<path class="st0" d="M28.3,144.8c0,0.2-0.2,0.3-0.5,0.3h-2.7c-0.3,0-0.5-0.1-0.5-0.3c0-0.2,0.2-0.3,0.5-0.3h2.7
		C28.1,144.5,28.3,144.6,28.3,144.8z"/>
	<rect x="24.1" y="145.1" class="st0" width="4.7" height="4.2"/>
	<rect x="24.4" y="123.5" class="st0" width="4.1" height="0.7"/>
	<rect x="25" y="126" class="st0" width="2.8" height="0.5"/>
	<g>
		<polygon class="st0" points="28.1,124.2 24.8,124.2 25.2,126 27.6,126 		"/>
		<circle class="st0" cx="28" cy="124.9" r="0.7"/>
		<circle class="st0" cx="24.8" cy="124.9" r="0.7"/>
	</g>
</g>
<g>
	<rect x="17.6" y="126" class="st0" width="2.3" height="19.5"/>
	<path class="st0" d="M20.6,144.8c0,0.2-0.2,0.3-0.5,0.3h-2.7c-0.3,0-0.5-0.1-0.5-0.3c0-0.2,0.2-0.3,0.5-0.3h2.7
		C20.4,144.5,20.6,144.6,20.6,144.8z"/>
	<rect x="16.4" y="145.1" class="st0" width="4.7" height="4.2"/>
	<rect x="16.7" y="123.5" class="st0" width="4.1" height="0.7"/>
	<rect x="17.4" y="126" class="st0" width="2.8" height="0.5"/>
	<g>
		<polygon class="st0" points="20.4,124.2 17.1,124.2 17.6,126 20,126 		"/>
		<circle class="st0" cx="20.4" cy="124.9" r="0.7"/>
		<circle class="st0" cx="17.2" cy="124.9" r="0.7"/>
	</g>
</g>
<g>
	<rect x="9.9" y="126" class="st0" width="2.3" height="19.5"/>
	<path class="st0" d="M13,144.8c0,0.2-0.2,0.3-0.5,0.3H9.7c-0.3,0-0.5-0.1-0.5-0.3c0-0.2,0.2-0.3,0.5-0.3h2.7
		C12.7,144.5,13,144.6,13,144.8z"/>
	<rect x="8.8" y="145.1" class="st0" width="4.7" height="4.2"/>
	<rect x="9" y="123.5" class="st0" width="4.1" height="0.7"/>
	<rect x="9.7" y="126" class="st0" width="2.8" height="0.5"/>
	<g>
		<polygon class="st0" points="12.8,124.2 9.5,124.2 9.9,126 12.3,126 		"/>
		<circle class="st0" cx="12.7" cy="124.9" r="0.7"/>
		<circle class="st0" cx="9.5" cy="124.9" r="0.7"/>
	</g>
</g>
<g>
	<rect x="2.3" y="126" class="st0" width="2.3" height="19.5"/>
	<path class="st0" d="M5.3,144.8c0,0.2-0.2,0.3-0.5,0.3H2.1c-0.3,0-0.5-0.1-0.5-0.3c0-0.2,0.2-0.3,0.5-0.3h2.7
		C5.1,144.5,5.3,144.6,5.3,144.8z"/>
	<rect x="1.1" y="145.1" class="st0" width="4.7" height="4.2"/>
	<rect x="1.4" y="123.5" class="st0" width="4.1" height="0.7"/>
	<rect x="2" y="126" class="st0" width="2.8" height="0.5"/>
	<g>
		<polygon class="st0" points="5.1,124.2 1.8,124.2 2.3,126 4.6,126 		"/>
		<circle class="st0" cx="5" cy="124.9" r="0.7"/>
		<circle class="st0" cx="1.8" cy="124.9" r="0.7"/>
	</g>
</g>
<rect x="1.4" y="120.6" class="st0" width="80.7" height="2.8"/>
<rect x="0.4" y="120.2" class="st0" width="81.8" height="0.9"/>
<rect x="0.4" y="117.3" class="st0" width="81.7" height="0.9"/>
<polygon class="st0" points="120.6,163.1 0.4,190.3 0.4,148.8 120.6,148.8 "/>
<rect x="0.4" y="145.9" class="st0" width="82" height="0.5"/>
<g>
	<path class="st0" d="M144.2,118.4v6h14.6v-6H144.2z M147.5,123.2h-1.8v-3.5h1.8V123.2z M150.8,123.2H149v-3.5h1.8V123.2z
		 M154.1,123.2h-1.8v-3.5h1.8V123.2z M157.4,123.2h-1.8v-3.5h1.8V123.2z"/>
	<rect x="143.8" y="117.9" class="st0" width="15.3" height="0.5"/>
	<rect x="143.8" y="117.2" class="st0" width="0.7" height="1"/>
	<rect x="147.5" y="117.2" class="st0" width="0.7" height="1"/>
	<rect x="151.2" y="117.2" class="st0" width="0.7" height="1"/>
	<rect x="154.8" y="117.2" class="st0" width="0.7" height="1"/>
	<rect x="158.5" y="117.2" class="st0" width="0.7" height="1"/>
</g>
<g>
	<path class="st0" d="M141.1,144.5c-2,0-2.8,1.3-3,1.8h6C143.9,145.7,143.1,144.5,141.1,144.5z"/>
	<path class="st0" d="M131.4,144.5c-2,0-2.8,1.3-3,1.8h6C134.2,145.7,133.4,144.5,131.4,144.5z"/>
	<path class="st0" d="M152.9,133.4c-3.1,0-5.6,2.5-5.6,5.6v24.1l11.2,0V139C158.5,135.9,155.9,133.4,152.9,133.4z M154.5,154.9h-3.3
		V146c0-0.9,0.7-1.6,1.6-1.6c0.9,0,1.6,0.7,1.6,1.6V154.9z M152.9,140.8c-1,0-1.9-0.9-1.9-1.9c0-1.1,0.9-1.9,1.9-1.9
		c1,0,1.9,0.9,1.9,1.9C154.8,139.9,153.9,140.8,152.9,140.8z"/>
	<path class="st0" d="M118.8,131.3v31.8h27.9V139c0-3.4,2.8-6.2,6.2-6.2c3.4,0,6.2,2.8,6.2,6.2v24.1h16.5v-31.8H118.8z M139.5,137
		h3.3v3.3h-3.3V137z M129.8,137h3.3v3.3h-3.3V137z M133.1,154.1h-3.3v-6.5h3.3V154.1z M128,146.6l0.1-0.2c0,0,0.7-2.2,3.4-2.2
		c2.7,0,3.4,2.1,3.4,2.2l0.1,0.2H128z M142.8,154.1h-3.3v-6.5h3.3V154.1z M137.7,146.6l0.1-0.2c0,0,0.7-2.2,3.4-2.2
		c2.7,0,3.4,2.1,3.4,2.2l0.1,0.2H137.7z M163.1,137h3.3v3.3h-3.3V137z M166.4,154.1h-3.3v-6.5h3.3V154.1z M161.3,146.6l0.1-0.2
		c0,0,0.7-2.2,3.4-2.2c2.7,0,3.4,2.1,3.4,2.2l0.1,0.2H161.3z"/>
	<path class="st0" d="M164.8,144.5c-2,0-2.8,1.3-3,1.8h6C167.6,145.7,166.8,144.5,164.8,144.5z"/>
</g>
<path class="st0" d="M263.5,72.4c0.2-1.4,0.3-2.9,0.3-4.4c0-17.1-11.5-30.9-25.8-30.9S212.3,51,212.3,68c0,1.5,0.1,3,0.3,4.4H263.5z
	"/>
<g>
	<path class="st0" d="M183.4,163.1h7.8v-11h-7.8V163.1z M185.9,154.1h2.9v6h-2.9V154.1z"/>
	<polygon class="st0" points="184.2,138.7 190.5,138.7 187.3,136.7 	"/>
	<path class="st0" d="M174.4,121.8v41.3h8.7v-11.3h8.4v11.3h9.1v-41.3H174.4z M185.5,128.4h3.6v3.6h-3.6V128.4z M189,148.8h-3.3
		v-8.9h3.3V148.8z M183.2,139l4.2-2.7l4.2,2.7H183.2z"/>
</g>
<g>
	<path class="st0" d="M208.7,163.1h7.8v-11h-7.8V163.1z M211.1,154.1h2.9v6h-2.9V154.1z"/>
</g>
<g>
	<path class="st0" d="M223.6,163.1h7.8v-11h-7.8V163.1z M226,154.1h2.9v6H226V154.1z"/>
</g>
<g>
	<g>
		<polygon class="st0" points="200.7,148.8 200.7,163.1 208.4,163.1 208.4,151.7 216.8,151.7 216.8,163.1 223.2,163.1 223.2,151.7 
			231.7,151.7 231.7,163.1 233.9,163.1 233.9,151.7 242.9,151.7 242.9,148.8 		"/>
	</g>
	<g>
		<path class="st0" d="M234.2,163.1h7.8v-11h-7.8V163.1z M236.6,154.1h2.9v6h-2.9V154.1z"/>
	</g>
</g>
<g>
	<rect x="242.3" y="126" class="st0" width="2.3" height="19.5"/>
	<path class="st0" d="M241.5,144.8c0,0.2,0.2,0.3,0.5,0.3h2.7c0.3,0,0.5-0.1,0.5-0.3c0-0.2-0.2-0.3-0.5-0.3h-2.7
		C241.8,144.5,241.5,144.6,241.5,144.8z"/>
	<rect x="241.1" y="145.1" class="st0" width="4.7" height="3.7"/>
	<rect x="241.4" y="123.5" class="st0" width="4.1" height="0.7"/>
	<rect x="242" y="126" class="st0" width="2.8" height="0.5"/>
	<g>
		<polygon class="st0" points="241.8,124.2 245.1,124.2 244.6,126 242.2,126 		"/>
		<circle class="st0" cx="241.8" cy="124.9" r="0.7"/>
		<circle class="st0" cx="245" cy="124.9" r="0.7"/>
	</g>
</g>
<rect x="0.4" y="156.5" class="st0" width="475.6" height="40.1"/>
</svg>
