<?xml version="1.0" encoding="utf-8"?>
<!-- Generator: Adobe Illustrator 19.0.0, SVG Export Plug-In . SVG Version: 6.00 Build 0)  -->
<svg version="1.1" id="Layer_1" xmlns="http://www.w3.org/2000/svg" xmlns:xlink="http://www.w3.org/1999/xlink" x="0px" y="0px"
	 viewBox="0 0 841.9 841.9" style="enable-background:new 0 0 841.9 841.9;" xml:space="preserve">
<style type="text/css">
	.st0{fill:#175C92;}
</style>
<g id="XMLID_215_">
	<g id="XMLID_216_">
		<path id="XMLID_258_" class="st0" d="M300,482.9c0-35.9,0-71.9,0-107.9c0-1.6,0-3.1,0.1-4.7c0.1-1.2,0.8-1.7,1.9-2
			c0.8-0.1,1.7-0.1,2.5-0.1c1.7,0,3.5-0.1,5.1,0c5,0.1,8.2-2.1,9.9-6.7c1.3-3.4,2.8-6.6,4.2-9.9c0.4-0.9,0.7-1.9,1.1-2.8
			c1.2-2.5,3.4-3.5,6-2.7c2.1,0.7,4.3,1.6,6.4,2.4c3.4,1.3,6.6,2.7,10.2,3.5c2.8,0.7,5.1,0.1,7.2-1.7c3.6-3.2,7.1-6.6,10.6-10.1
			c2.5-2.5,3.1-5.6,2-9.1c-1.3-4.2-3.2-7.9-4.8-11.9c-0.4-0.9-0.9-1.7-1.2-2.7c-0.8-2.3,0-4.3,2-5.5c0.8-0.5,1.9-0.8,2.7-1.2
			c3.4-1.3,6.6-2.8,9.9-4.2c1.2-0.5,2.3-1.1,3.5-1.7c2.7-1.5,4.2-3.9,4.2-7c0-2.1,0-4.3,0.1-6.4s0.8-2.7,2.9-2.9
			c0.8-0.1,1.7,0,2.5,0c22.5,0,45,0,67.4,0c0.7,0,1.5,0,2.1,0c3.1,0.1,3.6,0.8,3.9,3.9c0.1,1.3,0,2.5,0,3.9c0,19.7,0,39.5,0,59.3
			c0,1.5,0,2.8,0,4.3c0.3,5.2,3.8,8.8,9,9.3c1.5,0.1,2.8,0,4.3,0c19.2,0,38.3,0,57.6,0c1.3,0,2.5,0,3.9,0c2.8,0.1,3.4,0.7,3.6,3.6
			c0,0.9,0,2,0,2.9c0,6.6,0,13.1,0,19.7c0,13,0.1,26,0.1,39.1c0,12.1,0,24,0,36.1c0,31.2,0,62.5,0,93.7c0,9.3-0.1,18.6-0.1,27.9
			c0,0.9,0,2-0.1,2.9c-0.8,5.5-5.4,9.9-10.9,9.8c-1.2,0-2.3,0-3.5,0c-70.8,0-141.6,0-212.4,0c-1.5,0-2.8,0-4.3,0
			c-5.8-0.4-9.8-4.4-10.1-10.3c0-1.5,0-2.8,0-4.3C300,554,300,518.4,300,482.9z M359,583.2c18.8,0.8,36.6-15,36.6-36.3
			c0.1-19.4-15.8-36.5-36.2-36.5c-20.5-0.1-36.6,16.9-36.6,36.1C322.7,568,340.4,583.7,359,583.2z M420.2,422.3c31,0,61.8,0,92.8,0
			c5.2,0,5.9-0.5,5.5-6.4c0-0.1,0-0.3,0-0.4c-0.3-1.3-0.9-2-2.3-2.1c-1.6-0.1-3.1-0.1-4.7-0.1c-60.6,0-121.1,0-181.7,0
			c-0.7,0-1.5,0-2.1,0c-4,0-5.1,0.7-5,5c0,0.7,0.1,1.5,0.1,2.1c0.1,1.1,0.9,1.9,2,1.9c1.6,0.1,3.1,0.1,4.7,0.1
			C359.8,422.3,390,422.3,420.2,422.3z M420.7,455.7c30.2,0,60.5,0,90.6,0c1.6,0,3.2,0,4.7-0.1c2-0.3,2.5-1.2,2.5-4.3
			c0-3.2-0.5-4.4-2.5-4.7c-0.7-0.1-1.5-0.1-2.1-0.1c-1.2,0-2.3,0-3.5,0c-59.9,0-120,0-179.9,0c-0.9,0-2,0-2.9,0
			c-4.3,0.1-5,0.8-4.8,5c0,0.5,0,1.2,0.1,1.7c0.3,1.5,1.1,2.3,2.5,2.4c1.6,0.1,3.1,0.1,4.7,0.1C360.2,455.7,390.5,455.7,420.7,455.7
			z M420.7,481c-5.4,0-10.6,0-16,0c-25.5,0-50.9,0-76.4,0c-5.4,0-6.6,1.5-5.6,6.8c0.3,1.5,0.9,2.3,2.5,2.4c1.7,0.1,3.5,0.1,5.1,0.1
			c55.4,0,110.7,0,166.2,0c5.5,0,10.9,0,16.4,0c5.2,0,5.8-0.8,5.5-6.2c0-0.1,0-0.3,0-0.4c-0.3-1.7-0.9-2.4-2.8-2.7
			c-1.6-0.1-3.1-0.1-4.7-0.1C480.9,481,450.7,481,420.7,481z"/>
		<path id="XMLID_250_" class="st0" d="M148.9,602.1c-37.9,0-75.9,0-113.8,0c-1.9,0-3.8-0.1-5.5-0.4c-1.1-0.1-1.9-0.9-1.9-2
			c0-2.5-0.1-5.1,0-7.8c0-1.3,0.8-1.9,2.3-2.1c1.3-0.1,2.5-0.1,3.9-0.1c0.9,0,2,0,2.9-0.3c0.9-0.1,1.5-0.8,1.7-1.7
			c0.1-0.7,0.1-1.5,0.1-2.1c0-1.5,0-2.8,0-4.3c0-58.5,0-116.9,0-175.4c0-1.7,0-3.5,0.1-5.1c0.1-1.3,0.8-2.1,2.1-2.3
			c1.1-0.1,2.3-0.3,3.4-0.3c28.4,0,56.7,0,85.1,0c5.2,0,5.6,0.4,5.6,5.6c0,1.3,0,2.5,0,3.9c0,58.2,0,116.4,0,174.4
			c0,1.7,0,3.5,0.1,5.1c0.1,1.3,0.8,2.1,2.1,2.1c3.4,0.1,6.6,0.1,9.9,0c1.5,0,2.1-0.7,2.3-2.1c0.1-1.1,0.1-2.3,0.1-3.5
			c0-6.4,0-12.9,0-19.3c0-5.5,0.4-5.9,5.9-5.9c2.3,0,4.6,0,6.8,0c3.1,0.1,3.6,0.8,3.8,3.9c0,0.9,0,2,0,2.9c0,6.2,0,12.3,0,18.5
			c0,0.8,0,1.7,0,2.5c0.1,1.9,0.8,2.7,2.5,2.8c2.8,0.1,5.8,0.1,8.6,0c1.3,0,2.1-0.8,2.3-2.1c0.1-1.1,0.1-2.3,0.1-3.5
			c0-6.4,0-12.9,0-19.3c0-5.4,0.5-5.9,5.9-5.9c2.5,0,5.1,0,7.8,0.1c1.9,0.1,2.5,0.8,2.8,2.7c0.1,1.1,0.1,2.3,0.1,3.5
			c0,6.7,0,13.4,0,20.2c0,4,0.4,4.4,4.4,4.4c2.1,0,4.3,0,6.4,0c2.7-0.1,3.2-0.7,3.4-3.5c0-1.2,0-2.3,0-3.5c0-6.3,0-12.6,0-18.9
			c0-4.6,0.4-5,4.8-5.1c2.5,0,5.1,0,7.8,0c2.9,0.1,3.6,0.8,3.9,3.9c0.1,1.2,0,2.3,0,3.5c0,6,0,12.1,0,18.1c0,5.4,0,5.4,5.6,5.4
			c3.2,0,6.3,0,9.5,0c2.1-0.1,2.7-0.7,2.8-2.9c0.1-1.2,0-2.3,0-3.5c0-42.8,0-85.7,0-128.4c0-1.5,0-2.8-0.1-4.3
			c-0.1-1.2-0.8-1.9-2-1.9c-1.5-0.1-2.8-0.1-4.3-0.1c-27.6,0-55.2,0-83,0c-1.6,0-3.2,0-4.7-0.1c-1.3-0.1-2.1-0.8-2.1-2.1
			c-0.1-2.4-0.1-4.8,0-7.2c0-1.3,0.8-2.1,2.1-2.3c1.6-0.1,3.1-0.3,4.7-0.3c19.7,0,39.5,0,59.3,0c12.2,0,24.4,0,36.5,0
			c1.5,0,2.8,0,4.3,0.1c2,0.3,2.8,1.1,2.9,3.1c0,3.1,0.5,6.3-0.7,9.4c-0.4,1.2-0.4,2.5-0.4,3.8c0,2.5,0,5.1,0,7.8
			c0,40.6,0,81.4,0,122c0,1.6,0,3.2,0.1,4.7c0.1,1.6,0.8,2.4,2.4,2.4c1.9,0.1,3.8,0.1,5.6,0.1c5.4,0,5.6,0.3,5.6,5.5
			c0,1.2,0,2.3,0,3.5c-0.1,2.3-0.8,2.9-3.2,3.2c-1.6,0.1-3.1,0.1-4.7,0.1C225.2,602.1,187.1,602.1,148.9,602.1z M87,433.3
			c8.8,0,17.7,0,26.5,0c1.2,0,2.3,0,3.5,0c1.9-0.1,2.4-0.8,2.5-2.7s0.1-3.8,0-5.6c0-5.9,0-5.9-6-5.9c-17.7,0-35.4,0-53.2,0
			c-0.9,0-2,0-2.9,0c-2.3,0.1-2.9,0.8-3.1,3.2c-0.1,2-0.1,4,0,6c0,4.8,0.3,5,5.2,5C68.8,433.3,77.9,433.3,87,433.3z M87.1,465.2
			c8.8,0,17.7,0,26.7,0c1.3,0,2.5,0,3.9-0.1c1.1-0.1,1.9-0.8,1.9-1.9c0.1-2.1,0.1-4.3,0.1-6.4c0-5.9,0-5.9-6-5.9
			c-17.7,0-35.5,0-53.2,0c-1.2,0-2.3,0-3.5,0.1c-1.6,0.1-2.4,0.9-2.4,2.5c-0.1,2.9-0.1,6,0,9c0.1,2,0.8,2.7,2.9,2.8
			c1.2,0.1,2.3,0,3.5,0C69.7,465.2,78.4,465.2,87.1,465.2z M87,514.7c-8.8,0-17.7,0-26.7,0c-1.2,0-2.3,0-3.5,0.1
			c-1.6,0.1-2.4,0.8-2.4,2.4c-0.1,2-0.1,4-0.1,6c0,5.8,0.1,5.9,6.2,5.9c17.7,0,35.5,0,53.2,0c1.2,0,2.3,0,3.5-0.1
			c1.6-0.1,2.3-0.8,2.4-2.4c0.1-2.4,0.1-4.8,0.1-7.2c0-4.3-0.3-4.4-4.7-4.6c-0.8,0-1.7,0-2.5,0C103.9,514.7,95.4,514.7,87,514.7z
			 M86.7,497c9,0,18,0,27.1,0c1.2,0,2.3,0,3.5-0.1c1.6-0.1,2.4-0.8,2.4-2.4c0.1-2,0.1-4,0.1-6c0-5.9,0-5.9-6-5.9
			c-17.7,0-35.5,0-53.2,0c-0.9,0-2,0-2.9,0.1c-2.1,0.1-2.8,0.8-2.9,2.9c-0.1,2.8-0.1,5.8,0,8.6c0.1,2,0.8,2.7,2.9,2.8
			c1.2,0.1,2.3,0,3.5,0C69.6,497,78.2,497,86.7,497z M87.1,561.6c8.7,0,17.4,0,26.1,0c1.3,0,2.5,0,3.9-0.1c1.6-0.1,2.4-0.8,2.4-2.4
			c0.1-3.1,0.1-6.3,0-9.4c0-1.5-0.8-2.1-2.1-2.3c-1.1-0.1-2.3-0.1-3.5-0.1c-18,0-36.1,0-54,0c-0.9,0-2,0-2.9,0.1
			c-1.6,0.1-2.4,0.8-2.4,2.4c-0.1,2.9-0.1,6,0,9c0,1.9,0.8,2.5,2.7,2.7c1.3,0.1,2.5,0.1,3.9,0.1C69.7,561.6,78.4,561.6,87.1,561.6z
			 M88.1,591.8L88.1,591.8c2.1,0,4.3,0.1,6.4,0c1.9-0.1,2.5-0.8,2.5-2.7c0.1-3.6,0.1-7.1,0-10.7c0-2-0.7-2.8-2.5-2.8
			c-4.4-0.1-8.8-0.1-13.3,0c-1.9,0-2.5,0.8-2.7,2.7c-0.1,3.6-0.1,7.1,0,10.7c0,2,0.8,2.7,2.9,2.8C83.8,591.9,85.9,591.8,88.1,591.8z
			"/>
		<path id="XMLID_242_" class="st0" d="M691.9,602.1c-38.1,0-76.3,0-114.4,0c-1.9,0-3.8-0.1-5.5-0.4c-1.1-0.1-1.9-0.9-1.9-2
			c-0.1-2.5-0.1-5.1,0-7.8c0-1.5,0.8-2,2.1-2.1s2.5,0,3.9,0c0.9,0,2,0,2.9-0.1c1.1-0.1,1.9-0.8,2-2c0.1-1.7,0.1-3.5,0.1-5.1
			c0-58.9,0-117.7,0-176.7c0-1.6,0-3.2,0.1-4.7c0.1-1.9,0.8-2.5,2.7-2.7c0.9-0.1,2-0.1,2.9-0.1c28.3,0,56.4,0,84.7,0
			c5.6,0,5.9,0.4,6,6.2c0,8.3,0,16.6,0,24.9c0,50.9,0,102,0,153c0,1.7,0,3.5,0.1,5.1c0.1,1.1,0.8,2,1.9,2c3.5,0.1,6.8,0,10.3,0
			c1.1,0,1.9-0.8,2-1.9c0.1-1.3,0.1-2.5,0.1-3.9c0-6.4,0-12.9,0-19.3c0-5.2,0.4-5.5,5.6-5.6c2.1,0,4.3,0,6.4,0
			c3.9,0.1,4.3,0.5,4.4,4.6c0,0.9,0,2,0,2.9c0,6,0,12.1,0,18.1c0,5,0.3,5.1,5.1,5.2c2.1,0,4.3,0,6.4-0.1c1.1,0,1.9-0.8,2-1.9
			c0.1-1.3,0.1-2.5,0.1-3.9c0-6.3,0-12.6,0-18.9c0-5.6,0.4-6,6.2-6c2.5,0,5.1,0,7.8,0.1c1.6,0.1,2.3,0.8,2.5,2.4
			c0.1,1.1,0.1,2.3,0.1,3.5c0,6.3,0,12.6,0,18.9c0,1.2,0,2.3,0.1,3.5c0.1,1.6,0.8,2.4,2.4,2.4c2.9,0.1,6,0.1,9,0
			c1.7,0,2.4-0.9,2.5-2.8c0.1-1.2,0-2.3,0-3.5c0-6,0-12.1,0-18.1c0-1.2,0-2.3,0.1-3.5c0.1-2.1,0.8-2.9,2.9-2.9
			c3.5-0.1,6.8-0.1,10.3,0c2.1,0,2.8,0.8,3.1,2.8c0.1,1.3,0.1,2.5,0.1,3.9c0,6.3,0,12.6,0,18.9c0,5,0.1,5.1,5.1,5.1
			c3.4,0,6.6,0,9.9,0c2.1-0.1,2.8-0.8,2.9-2.8c0.1-1.1,0.1-2.3,0.1-3.5c0-43,0-85.9,0-129c0-5.9,0-5.9-5.9-5.9
			c-27.8,0-55.6,0-83.4,0c-1.6,0-3.2,0-4.7-0.1c-1.3-0.1-2.1-0.8-2.1-2.1c-0.1-2.4-0.1-4.8,0-7.2c0-1.3,0.8-2.1,2.1-2.3
			c1.6-0.1,3.1-0.3,4.7-0.3c21.3,0,42.6,0,64.1,0c10.6,0,21.2,0,31.8,0c1.5,0,2.8,0,4.3,0.3c1.6,0.3,2.4,0.9,2.4,2.4
			c0.1,2.9,0.4,6-0.3,9c-0.4,2-0.5,4-0.5,5.9c0,43.4,0,86.9,0,130.2c0,5.5,0.1,5.6,5.5,5.6c2,0,4,0,6,0.1c1.1,0,1.9,0.8,2,1.9
			c0.4,2.7,0.4,5.4,0,8.2c-0.1,0.9-0.8,1.5-1.7,1.7c-0.8,0.1-1.7,0.3-2.5,0.4c-1.5,0-2.8,0-4.3,0
			C767.3,602.1,729.6,602.1,691.9,602.1z M629.4,433.3c8.7,0,17.4,0,26.1,0c0.9,0,2,0,2.9,0c2.9-0.1,3.4-0.5,3.5-3.6
			c0-1.6,0-3.1,0-4.7c0-5.9,0-5.9-6-5.9c-17.7,0-35.4,0-53.2,0c-0.8,0-1.7,0-2.5,0c-2.8,0.1-3.4,0.7-3.5,3.8c-0.1,1.9,0,3.8,0,5.6
			c0,4.8,0.3,5,5.2,5C611.2,433.3,620.3,433.3,629.4,433.3z M629.2,465.2c9,0,18,0,27.1,0c1.3,0,2.5,0,3.9-0.1
			c1.1-0.1,1.9-0.8,1.9-1.9c0.1-2.1,0.1-4.3,0.1-6.4c0-5.9,0-5.9-6-5.9c-17.7,0-35.5,0-53.2,0c-0.9,0-2,0-2.9,0.1
			c-2,0.1-2.8,0.9-2.9,2.9c-0.1,2.7-0.1,5.5,0,8.2c0.1,2.5,0.7,3.1,3.5,3.2c0.9,0,2,0,2.9,0C612,465.2,620.6,465.2,629.2,465.2z
			 M629.4,514.7c-8.8,0-17.7,0-26.7,0c-1.2,0-2.3,0-3.5,0.1c-1.6,0.1-2.3,0.8-2.4,2.4c-0.1,2-0.1,4-0.1,6c0,5.8,0.1,5.9,6.2,5.9
			c17.7,0,35.5,0,53.2,0c1.2,0,2.3,0,3.5-0.1c1.6-0.1,2.3-0.8,2.4-2.5c0.1-2.8,0.1-5.8,0-8.6c-0.1-2.7-0.7-3.1-3.5-3.2
			c-0.9,0-2,0-2.9,0C646.9,514.7,638.1,514.7,629.4,514.7z M629.3,497c8.8,0,17.7,0,26.5,0c1.2,0,2.3,0,3.5,0c2-0.1,2.5-0.7,2.7-2.5
			c0.1-2,0.1-4,0.1-6c0-5.6-0.1-5.8-5.8-5.8c-17.8,0-35.8,0-53.6,0c-0.9,0-2,0-2.9,0.1c-1.9,0.1-2.5,0.8-2.7,2.7c-0.1,2-0.1,4-0.1,6
			c0,5.5,0.1,5.6,5.5,5.6C611.3,497,620.3,497,629.3,497z M630,547.3c-9,0-18,0-27.1,0c-1.3,0-2.5,0-3.9,0.1
			c-1.3,0.1-2.1,0.8-2.1,2.1c-0.1,2.1-0.1,4.3-0.1,6.4c0,5.4,0.1,5.5,5.6,5.5c18.1,0,36.3,0,54.4,0c0.9,0,2,0,2.9-0.1
			c1.3-0.1,2-0.8,2.1-2.3c0.1-2.3,0.1-4.6,0.1-6.8c0-5-0.1-5.1-5.1-5.1C648.1,547.3,639.1,547.3,630,547.3z M630.4,575.6
			C630.4,575.4,630.4,575.4,630.4,575.6c-2.1,0-4.3-0.1-6.4,0s-2.8,0.8-2.9,2.9c-0.1,3.5-0.1,6.8,0,10.3c0.1,2.3,0.8,3.1,3.2,3.1
			c4.2,0.1,8.3,0,12.5,0c0.3,0,0.5,0,0.8-0.1c1.1-0.1,1.9-0.9,1.9-2c0.1-4,0.1-8,0-11.9c0-1.3-0.8-2.1-2.1-2.1
			C634.9,575.4,632.6,575.6,630.4,575.6z"/>
		<path id="XMLID_239_" class="st0" d="M377.8,289.5c0,2,0,4,0,6c0,1.6-0.8,2.8-2.1,3.5c-2.1,1.1-4.4,2.1-6.6,3.1
			c-3.1,1.3-6,2.5-9.1,3.6c-1.6,0.5-2.7,1.6-3.2,3.2c-0.1,0.4-0.3,0.8-0.5,1.2c-1.7,3.1-1.6,6.2,0,9.4c1.7,3.5,3.2,7,4.7,10.6
			c1.9,4.6,1.7,4.8-1.7,8.2c-2.3,2.1-4.7,4.3-6.8,6.4c-1.3,1.3-2.9,1.7-4.7,1.1c-1.5-0.5-2.9-1.1-4.4-1.6c-3.6-1.5-7.2-2.8-10.7-4.3
			c-1.7-0.7-3.4-0.8-5-0.1c-0.3,0.1-0.5,0.1-0.8,0.3c-6.2,2.4-5.1,1.9-7.1,7.1c-1.5,3.8-3.1,7.4-4.6,11.1c-1.1,2.8-2.9,4-5.9,4
			c-3.4-0.1-6.6-0.1-9.9,0c-2.4,0-4-1.1-5.1-3.2c-1.7-4-3.6-8.2-5.4-12.2c-2.1-4.8-1.3-4.2-6.3-6.3c-2.8-1.2-5.4-1.3-8.2,0.1
			c-3.5,1.7-7.1,3.1-10.6,4.6c-1.1,0.4-2.1,0.8-3.2,1.2c-1.5,0.5-2.8,0.3-3.9-0.9c-2.9-2.9-5.9-5.9-8.8-8.7
			c-1.2-1.1-1.5-2.4-0.8-3.9c1.3-3.4,2.5-6.7,3.9-10.1c0.7-1.6,1.2-3.2,2-4.7c1.1-2.1,0.9-4,0-6.2c-2.1-5-2-5.1-7.2-7
			c-4-1.5-8-3.1-12.1-4.7c-2.3-0.8-3.5-2.4-3.4-4.8c0.1-3.4,0.1-6.6,0-9.9c0-2.5,0.9-4.4,3.5-5.4c4-1.6,7.9-3.4,11.9-5
			c5.8-2.4,4.8-1.6,7.5-7.5c0.8-1.9,0.9-3.5,0-5.4c-1.1-2-1.9-4.2-2.8-6.3c-1.2-2.7-2.3-5.2-3.4-7.9c-0.9-2-0.7-3.8,1.1-5.4
			c2.7-2.4,5.2-5,7.6-7.5c1.6-1.7,3.4-2,5.5-1.2c4.3,1.6,8.6,3.2,12.9,5c5.1,2,5,1.9,10.2-0.1c2.1-0.9,3.6-2.1,4.3-4.4
			c0.9-2.5,2-5.1,2.9-7.6c0.7-1.7,1.5-3.4,2.1-5.2c1.1-2.9,3.1-4.2,6.3-4c3.5,0.1,6.8,0.1,10.3,0c1.9,0,3.4,0.8,4.2,2.5
			c1.7,3.8,3.5,7.5,5.1,11.4c2.7,6.2,1.3,5.4,8.3,8.2c1.9,0.8,3.5,0.7,5.4-0.1c3.6-1.6,7.4-3.2,11-4.7c1.1-0.4,2.1-0.8,3.2-1.2
			c2.3-0.9,4.2-0.4,5.8,1.3c2.4,2.4,4.8,5,7.4,7.2c1.9,1.7,2.1,3.6,1.2,5.8c-1.6,3.9-3.2,7.6-4.7,11.5c-2.3,5.8-2.5,4,0.1,10.5
			c0.8,2,2.1,3.2,4.2,4c4,1.5,8,2.9,12.1,4.6c0.9,0.4,1.9,0.8,2.8,1.2c1.7,0.8,2.5,2.1,2.5,4C377.8,285.8,377.8,287.6,377.8,289.5
			L377.8,289.5z M305.1,267.6c-10.2,0-16.8,3.9-21.3,11.3c-2.4,3.9-3.5,8.3-2.8,12.7c1.2,9.5,6.4,16.2,15.6,19.3
			c9.1,3.1,17.4,0.8,24.1-5.9c5.5-5.6,7.2-12.5,5.5-20.2C324.2,275.5,314.8,267.2,305.1,267.6z"/>
		<path id="XMLID_238_" class="st0" d="M467.9,321.2c0-9,0-18,0-27.1c0-1.2,0-2.3,0.1-3.5c0-0.7,0.1-1.5,0.9-1.7
			c0.8-0.3,1.3,0.3,1.9,0.8c2.5,2.5,5.1,5.1,7.5,7.6c5.2,5.5,10.5,11,15.8,16.4c13.4,13.8,26.9,27.6,40.4,41.6
			c1.6,1.6,3.1,3.4,4.6,5.1c0.5,0.5,0.1,1.6-0.5,1.7c-0.9,0.1-2,0.1-2.9,0.1c-18.4,0-36.6,0-55,0c-0.8,0-1.7,0-2.5-0.1
			c-5.2-0.5-9.3-4.4-9.9-9.8c-0.1-1.2-0.1-2.5-0.1-3.9C467.9,339.6,467.9,330.5,467.9,321.2z"/>
		<path id="XMLID_237_" class="st0" d="M699,372.4c16,0,31.8,0,47.7,0c1.5,0,2.8,0,4.3,0.1c1.3,0.1,2.1,0.9,2.3,2.3
			c0.1,1.1,0.1,2.3,0.1,3.5c0,13.9,0,27.8,0,41.7c0,5.6-0.3,5.9-6.2,6c-1.5,0-2.8,0-4.3-0.1c-2.1-0.1-2.8-0.9-2.9-2.9
			c0-0.5,0-1.2,0-1.7c0-9.7,0-19.2,0-28.8c0-5.2-0.1-5.4-5.2-5.4c-27.6,0-55.2,0-83,0c-1.5,0-2.8,0-4.3-0.1
			c-2.5-0.1-3.2-0.9-3.4-3.5c-0.1-2.4-0.1-4.8,0-7.2c0.1-2.8,0.8-3.5,3.6-3.8c1.3-0.1,2.5,0,3.9,0
			C667.5,372.4,683.3,372.4,699,372.4z"/>
		<path id="XMLID_236_" class="st0" d="M156.6,372.4c15.6,0,31.2,0,46.8,0c1.3,0,2.5,0,3.9,0c2.8,0.1,3.5,0.8,3.8,3.6
			c0,0.8,0,1.7,0,2.5c0,13.8,0,27.5,0,41.3c0,5.8-0.3,6-6,6c-1.7,0-3.5,0-5.1-0.3c-1.1-0.1-1.9-0.8-2-2c-0.1-1.3-0.1-2.5-0.1-3.9
			c0-9,0-18.1,0-27.1c0-1.2,0-2.3-0.1-3.5c-0.1-1.3-0.8-2-2.1-2.1c-1.6-0.1-3.1-0.1-4.7-0.1c-27.1,0-54.2,0-81.1,0
			c-1.5,0-2.8,0-4.3-0.1c-2.5-0.1-3.2-0.9-3.4-3.5c-0.1-2.4-0.1-4.8,0-7.2c0.1-2.9,0.8-3.6,4-3.8c1.3,0,2.5,0,3.9,0
			C125.3,372.4,140.9,372.4,156.6,372.4z"/>
		<path id="XMLID_235_" class="st0" d="M219.3,529.2c1.7,0,3.5-0.1,5.1,0c1.7,0.1,2.7,0.9,2.7,2.7c0.1,3.1,0.1,6.3,0,9.4
			c-0.1,2-0.9,2.8-2.9,2.9c-3.5,0.4-7.1,0.4-10.6,0c-1.7-0.1-2.5-1.1-2.7-2.8c-0.1-3.2-0.1-6.6,0-9.8c0-1.5,0.9-2.4,2.4-2.5
			C215.3,529,217.3,529.2,219.3,529.2L219.3,529.2z"/>
		<path id="XMLID_234_" class="st0" d="M700.8,529c1.7,0,3.5-0.1,5.1,0c1.9,0.1,2.7,0.9,2.8,2.7c0.1,3.2,0.1,6.6,0,9.8
			c0,1.7-0.9,2.5-2.8,2.7c-3.5,0.3-7.1,0.4-10.6,0c-2-0.3-2.8-1.1-2.8-3.1c-0.1-2.9-0.1-6,0-9c0.1-2.1,0.9-2.9,3.2-3.1
			C697.4,528.9,699,529,700.8,529L700.8,529z"/>
		<path id="XMLID_233_" class="st0" d="M158.1,529c1.7,0,3.5-0.1,5.1,0c2.1,0.1,2.9,0.9,3.1,3.2c0.1,2.9,0.1,6,0,9
			c-0.1,1.9-0.8,2.7-2.5,2.8c-3.6,0.4-7.4,0.4-11.1,0c-1.7-0.3-2.5-1.1-2.7-2.8c-0.1-3.1-0.1-6.3,0-9.4c0.1-2,0.9-2.8,2.9-2.9
			C154.7,528.9,156.3,529,158.1,529z"/>
		<path id="XMLID_232_" class="st0" d="M753.3,536.5c0-1.6-0.1-3.1,0-4.7c0.1-1.7,0.9-2.7,2.7-2.7c3.8-0.1,7.4-0.1,11.1,0
			c1.5,0,2.4,0.9,2.4,2.5c0.1,3.2,0.1,6.6,0,9.8c-0.1,1.7-0.9,2.5-2.7,2.7c-3.6,0.4-7.4,0.4-11.1,0c-1.6-0.1-2.3-0.9-2.4-2.5
			C753.2,540,753.3,538.3,753.3,536.5L753.3,536.5z"/>
		<path id="XMLID_231_" class="st0" d="M731.2,529c1.6,0,3.2-0.1,4.7,0c2.1,0.1,2.8,0.9,2.9,2.9c0.1,3.1,0.1,6.3,0,9.4
			c0,1.7-0.8,2.7-2.7,2.8c-3.6,0.4-7.1,0.4-10.7,0c-1.7-0.3-2.5-0.9-2.8-2.7c-0.4-3.2-0.4-6.6,0-9.8c0.3-1.7,1.1-2.4,2.9-2.5
			C727.6,528.9,729.3,529,731.2,529L731.2,529z"/>
		<path id="XMLID_230_" class="st0" d="M188.5,529.2c1.7,0,3.5-0.1,5.1,0c1.9,0.1,2.7,0.9,2.8,2.7c0.1,3.2,0.1,6.6,0,9.8
			c0,1.6-0.8,2.4-2.4,2.5c-3.8,0.4-7.4,0.4-11.1,0c-1.7-0.3-2.4-1.1-2.7-2.8c-0.4-3.1-0.4-6.3,0-9.4c0.3-2,1.1-2.7,3.1-2.8
			C185,528.9,186.7,529,188.5,529.2C188.5,529,188.5,529,188.5,529.2z"/>
		<path id="XMLID_229_" class="st0" d="M158.5,497.9c1.9,0,3.8-0.1,5.5,0c1.3,0.1,2.1,0.8,2.1,2.1c0.1,3.4,0.1,6.8,0,10.2
			c0,1.3-0.8,2.1-2.1,2.3c-3.9,0.4-7.6,0.3-11.5,0c-1.5-0.1-2.4-0.9-2.5-2.4c-0.1-3.2-0.1-6.6,0-9.8c0.1-1.7,0.9-2.4,2.8-2.5
			C154.7,497.8,156.6,497.8,158.5,497.9L158.5,497.9z"/>
		<path id="XMLID_228_" class="st0" d="M218.9,497.9c2,0,4,0,6,0c1.1,0,1.9,0.8,2,1.9c0.4,3.5,0.4,7.1,0,10.6
			c-0.1,1.3-1.1,2-2.3,2.1c-3.9,0.3-7.6,0.3-11.5,0c-1.3-0.1-2.3-0.9-2.3-2.1c-0.1-3.4-0.1-6.8,0-10.2c0-1.6,0.9-2.3,2.5-2.4
			C215.3,497.8,217.2,497.9,218.9,497.9L218.9,497.9z"/>
		<path id="XMLID_227_" class="st0" d="M700.5,512.7c-1.7,0-3.5,0.1-5.1,0c-2.1-0.1-2.9-0.9-3.1-2.8c-0.1-3.1-0.1-6.3,0-9.4
			c0.1-1.7,0.9-2.5,2.8-2.5c3.6-0.1,7.1-0.1,10.7,0c1.9,0,2.7,0.8,2.8,2.5c0.1,3.2,0.1,6.6,0,9.8c0,1.5-0.9,2.3-2.5,2.4
			C704.2,512.8,702.4,512.7,700.5,512.7L700.5,512.7z"/>
		<path id="XMLID_226_" class="st0" d="M761.4,497.9c2,0,4,0,6,0c1.1,0,1.9,0.8,2,1.9c0.4,3.5,0.4,7.1,0,10.6
			c-0.1,1.3-1.1,2-2.3,2.1c-3.9,0.3-7.6,0.3-11.5,0c-1.3-0.1-2.3-0.9-2.3-2.1c-0.1-3.4-0.1-6.8,0-10.2c0-1.6,0.9-2.3,2.5-2.4
			C757.7,497.8,759.6,497.8,761.4,497.9L761.4,497.9z"/>
		<path id="XMLID_225_" class="st0" d="M700.6,482.8c-1.7,0-3.5,0.1-5.1,0c-2.1-0.1-2.9-0.8-3.1-2.8c-0.1-3.1-0.1-6.3,0-9.4
			c0.1-1.6,0.9-2.4,2.4-2.5c3.8-0.1,7.4-0.1,11.1,0c1.6,0,2.5,0.8,2.5,2.4c0.1,3.4,0.1,6.6,0,9.9c0,1.7-0.9,2.4-2.8,2.5
			C704.1,482.8,702.4,482.8,700.6,482.8z"/>
		<path id="XMLID_224_" class="st0" d="M218.8,467.9c1.9,0,3.8-0.1,5.6,0c1.7,0.1,2.7,0.9,2.7,2.7c0.1,3.1,0.1,6.3,0,9.4
			c-0.1,1.7-1.1,2.5-2.8,2.5c-3.6,0.1-7.1,0.1-10.7,0c-1.7,0-2.5-0.9-2.7-2.7c-0.1-3.1-0.1-6.3,0-9.4c0-1.7,0.9-2.5,2.8-2.5
			C215.3,467.8,217,467.9,218.8,467.9L218.8,467.9z"/>
		<path id="XMLID_223_" class="st0" d="M158.3,482.8c-1.7,0-3.5,0.1-5.1,0c-2.3-0.1-3.1-0.9-3.2-3.2c-0.1-2.8-0.1-5.8,0-8.6
			c0.1-2,0.9-2.9,2.9-2.9c3.6-0.1,7.1-0.1,10.7,0c1.7,0,2.5,0.8,2.7,2.8c0.1,2.9,0.1,6,0,9c-0.1,2.3-0.9,2.9-3.2,3.1
			C161.4,482.9,159.8,482.8,158.3,482.8L158.3,482.8z"/>
		<path id="XMLID_222_" class="st0" d="M761.2,467.9c1.7,0,3.5-0.1,5.1,0c2.3,0.1,3.1,0.9,3.2,3.2c0.1,2.8,0.1,5.8,0,8.6
			c-0.1,2-0.9,2.9-2.9,2.9c-3.6,0.1-7.1,0.1-10.7,0c-1.7,0-2.5-0.9-2.5-2.8c-0.1-2.9-0.1-6,0-9c0.1-2.1,0.8-2.8,2.8-2.9
			C757.9,467.8,759.6,467.9,761.2,467.9L761.2,467.9z"/>
		<path id="XMLID_221_" class="st0" d="M730.5,482.6c-1.7,0-3.5,0.1-5.1,0c-1.7-0.1-2.5-0.9-2.8-2.7c-0.3-3.1-0.3-6.3,0-9.4
			c0.1-1.7,1.1-2.5,2.8-2.7c3.6-0.1,7.1-0.1,10.7,0c1.9,0,2.7,0.8,2.7,2.7c0.1,3.1,0.1,6.3,0,9.4c0,1.7-0.8,2.5-2.7,2.7
			C734.3,482.8,732.4,482.8,730.5,482.6C730.5,482.8,730.5,482.8,730.5,482.6z"/>
		<path id="XMLID_220_" class="st0" d="M188.2,497.9c1.9,0,3.8-0.1,5.6,0c1.6,0.1,2.4,0.8,2.5,2.4c0.1,3.5,0,6.8,0,10.3
			c0,1.1-0.8,1.7-1.9,2c-0.3,0.1-0.5,0.1-0.8,0.1c-3.5,0-6.8,0.1-10.3,0c-2.1-0.1-2.9-0.8-3.1-2.8c-0.3-3.1-0.4-6.3,0-9.4
			c0.3-1.7,0.9-2.4,2.8-2.5C184.9,497.8,186.5,497.8,188.2,497.9C188.2,497.8,188.2,497.9,188.2,497.9z"/>
		<path id="XMLID_219_" class="st0" d="M188.2,482.6c-1.9,0-3.8,0.1-5.6,0c-1.3-0.1-2.1-0.9-2.3-2.1c-0.5-3.4-0.4-6.8,0-10.2
			c0.1-1.2,0.9-2.1,2.3-2.3c3.9-0.1,7.8-0.1,11.5,0c1.5,0,2.3,0.9,2.3,2.5c0.1,3.1,0.1,6.3,0,9.4c0,1.9-0.8,2.5-2.7,2.7
			C192,482.8,190.1,482.8,188.2,482.6C188.2,482.8,188.2,482.6,188.2,482.6z"/>
		<path id="XMLID_218_" class="st0" d="M731.3,497.9c1.7,0,3.5-0.1,5.1,0c1.3,0.1,2.1,0.8,2.3,2.1c0.1,3.5,0.1,6.8,0,10.3
			c0,1.3-0.8,2.1-2.1,2.3c-3.9,0.4-7.8,0.3-11.5,0c-1.5-0.1-2.3-0.9-2.4-2.5c-0.3-3.1-0.3-6.3,0-9.4c0.3-2,1.1-2.7,3.2-2.8
			C727.7,497.8,729.6,497.8,731.3,497.9C731.3,497.8,731.3,497.9,731.3,497.9z"/>
		<path id="XMLID_217_" class="st0" d="M357.9,574.1c-7.5,0.4-13.7-3.9-16.4-11.5c-0.5-1.6-0.9-3.4-1.3-5c-0.4-1.3-0.9-2.4-2.4-2.7
			c-1.6-0.4-1.9-1.6-1.7-2.9c0.1-2,0.5-3.6,2.7-4.3c1.1-0.4,1.1-1.2,0.1-1.9c-0.7-0.5-1.5-0.8-1.6-1.7c-0.1-1.3-0.1-2.5,0.5-3.8
			c0.4-0.7,1.1-0.9,1.7-1.1c1.9-0.1,2.7-1.3,3.4-2.9c1.6-3.8,3.8-7.1,6.8-9.8c5-4.4,10.6-6.7,17.3-6c4.3,0.4,8,2.1,10.6,5.6
			c1.1,1.3,1.1,2.3,0,3.5s-2.3,2.3-3.5,3.2s-2.7,1.1-4,0.3c-0.5-0.3-0.9-0.7-1.5-0.9c-4-2.5-7.9-2-11.3,1.3c-1.1,1.1-2,2.1-2.4,3.5
			c-0.1,0.5,0.1,1.2,0.7,1.3c0.8,0.3,1.6,0.4,2.5,0.4c2.1,0,4.3,0,6.4,0c1.5,0,2.8,0.3,4.3,0.5c0.9,0.1,1.3,0.9,1.3,1.9
			c0,2.7-1.5,4.2-4.2,4.4c-1.1,0.1-2.3,0-3.5,0c-2.5,0-5.1,0-7.8,0c-0.7,0-1.5,0.1-2,0.7c-0.1,0.1-0.1,0.3-0.1,0.4
			c0,0.3,0.1,0.7,0.3,0.7c0.5,0.3,1.1,0.4,1.6,0.4c2.3,0,4.6,0,6.8,0.1c0.9,0,2,0.1,2.9,0.3c0.8,0.1,1.2,0.8,1.2,1.6
			c0.1,2.7-1.2,4.6-3.6,5c-0.7,0.1-1.5,0.1-2.1,0.1c-1.2,0-2.3,0-3.5,0c-4.2-0.1-5,0.5-3.1,4.7c1.7,4.2,5.4,5.5,9.5,3.8
			c1.5-0.7,2.7-1.6,4-2.5c1.2-0.8,2.4-0.8,3.6,0.3c1.1,0.9,2,2,2.9,3.1s0.8,1.9-0.1,3.1c-3.1,3.9-7.2,5.9-12.1,6.6
			C360.2,574.1,359,573.9,357.9,574.1z"/>
	</g>
</g>
</svg>
