<?xml version="1.0" encoding="utf-8"?>
<!-- Generator: Adobe Illustrator 21.1.0, SVG Export Plug-In . SVG Version: 6.00 Build 0)  -->
<svg version="1.1" id="Layer_1" xmlns="http://www.w3.org/2000/svg" xmlns:xlink="http://www.w3.org/1999/xlink" x="0px" y="0px"
	 viewBox="0 0 300 300" style="enable-background:new 0 0 300 300;" xml:space="preserve">
<style type="text/css">
	.st0{fill:#FFFFFF;}
	.st1{fill:#4A555F;}
	.st2{fill:#FFD552;}
	.st3{fill:#71CDE1;}
	.st4{fill:#F68F6F;}
	.st5{fill:#E0E0E0;}
</style>
<g>
	<g>
		<g>
			<g>
				<polygon class="st0" points="125.8,99.6 91.6,122.7 91.6,200.2 169.1,200.2 169.1,200.2 203.3,177.2 203.3,145.9 203.3,99.6 
					180.7,99.6 				"/>
			</g>
		</g>
		<g>
			<g>
				<polygon class="st0" points="162.7,65.8 162.7,65.8 179.3,54.6 179.3,39.3 179.3,16.7 168.3,16.7 141.5,16.7 124.8,28 
					124.8,65.8 				"/>
			</g>
		</g>
		<g>
			<g>
				<polygon class="st0" points="136.9,234.2 120.2,245.4 120.2,283.3 158,283.3 158,283.2 174.7,272 174.7,256.7 174.7,234.2 
					163.6,234.2 				"/>
			</g>
		</g>
		<g>
			<g>
				<polygon class="st0" points="25.3,125.4 8.6,136.6 8.6,174.5 46.4,174.5 46.4,174.4 63.1,163.2 63.1,147.9 63.1,125.4 
					52.1,125.4 				"/>
			</g>
		</g>
		<g>
			<g>
				<polygon class="st0" points="280.4,118 253.6,118 236.9,129.3 236.9,167.1 274.7,167.1 274.7,167.1 291.4,155.9 291.4,140.6 
					291.4,118 				"/>
			</g>
		</g>
	</g>
	<g>
		<g>
			<path class="st1" d="M247.4,106.2c-0.5-1.1-1.1-2.2-1.6-3.2l3.2-1.7c0.6,1.1,1.1,2.2,1.7,3.3L247.4,106.2z M244,99.8
				c-0.6-1-1.2-2.1-1.8-3.1l3.1-1.9c0.6,1.1,1.3,2.1,1.9,3.2L244,99.8z M240.3,93.7c-0.7-1-1.3-2-2-3l3-2.1c0.7,1,1.4,2,2.1,3.1
				L240.3,93.7z M236.1,87.8c-0.7-1-1.5-1.9-2.2-2.8l2.9-2.3c0.8,1,1.5,1.9,2.3,2.9L236.1,87.8z M231.6,82.2
				c-0.8-0.9-1.6-1.8-2.4-2.7l2.7-2.5c0.8,0.9,1.7,1.8,2.5,2.8L231.6,82.2z M226.8,76.8c-0.8-0.9-1.7-1.7-2.6-2.5l2.5-2.6
				c0.9,0.9,1.8,1.7,2.6,2.6L226.8,76.8z M221.6,71.9c-0.9-0.8-1.8-1.6-2.7-2.4l2.4-2.8c0.9,0.8,1.9,1.6,2.8,2.4L221.6,71.9z
				 M216.1,67.2c-0.9-0.7-1.9-1.5-2.9-2.2l2.2-2.9c1,0.7,2,1.5,3,2.3L216.1,67.2z M210.3,62.9c-1-0.7-2-1.3-3-2l2-3.1
				c1,0.7,2.1,1.4,3.1,2.1L210.3,62.9z M204.2,59c-1-0.6-2.1-1.2-3.1-1.8l1.8-3.2c1.1,0.6,2.2,1.2,3.2,1.9L204.2,59z M197.9,55.6
				c-1.1-0.5-2.1-1.1-3.2-1.6l1.6-3.3c1.1,0.5,2.2,1.1,3.3,1.6L197.9,55.6z M191.4,52.5c-1.1-0.5-2.2-0.9-3.3-1.4l1.3-3.4
				c1.2,0.5,2.3,0.9,3.4,1.4L191.4,52.5z"/>
		</g>
	</g>
	<g>
		<g>
			<path class="st1" d="M43.2,116.3l-3.4-1.3c0.4-1.2,0.9-2.3,1.3-3.5l3.4,1.4C44,114.1,43.6,115.2,43.2,116.3z M45.8,109.7
				l-3.4-1.5c0.5-1.1,1-2.3,1.6-3.4l3.3,1.6C46.8,107.5,46.3,108.6,45.8,109.7z M49,103.2l-3.2-1.7c0.6-1.1,1.2-2.2,1.8-3.3l3.2,1.8
				C50.1,101,49.5,102.1,49,103.2z M52.5,96.9L49.4,95c0.6-1.1,1.3-2.1,2-3.1l3.1,2C53.8,94.8,53.1,95.9,52.5,96.9z M56.4,90.8
				l-3-2.1c0.7-1,1.4-2,2.2-3l2.9,2.2C57.8,88.9,57.1,89.9,56.4,90.8z M60.8,85.1l-2.9-2.3c0.8-1,1.6-1.9,2.4-2.9l2.8,2.4
				C62.3,83.2,61.5,84.1,60.8,85.1z M65.5,79.6l-2.7-2.5c0.8-0.9,1.7-1.8,2.6-2.7L68,77C67.1,77.8,66.3,78.7,65.5,79.6z M70.5,74.4
				L68,71.8c0.9-0.9,1.8-1.7,2.7-2.5l2.5,2.7C72.2,72.8,71.3,73.6,70.5,74.4z M75.8,69.6l-2.4-2.8c0.9-0.8,1.9-1.6,2.9-2.4l2.3,2.9
				C77.7,68.1,76.7,68.8,75.8,69.6z M81.5,65.2l-2.2-2.9c1-0.7,2-1.5,3-2.2l2.1,3C83.4,63.7,82.4,64.4,81.5,65.2z M87.4,61.1l-2-3.1
				c1-0.7,2.1-1.3,3.2-2l1.9,3.1C89.4,59.8,88.4,60.4,87.4,61.1z M93.6,57.4l-1.8-3.2c1.1-0.6,2.2-1.2,3.3-1.8l1.7,3.3
				C95.7,56.2,94.6,56.8,93.6,57.4z M100,54.1l-1.6-3.3c1.1-0.5,2.2-1,3.4-1.5l1.5,3.4C102.1,53.1,101.1,53.6,100,54.1z M106.6,51.2
				l-1.3-3.4c1.2-0.5,2.3-0.9,3.5-1.3l1.2,3.4C108.8,50.3,107.7,50.8,106.6,51.2z M113.3,48.8l-1.1-3.5l0.4-0.1l1.1,3.5L113.3,48.8z
				"/>
		</g>
	</g>
	<g>
		<g>
			<path class="st1" d="M110.8,263c-1.2-0.4-2.3-0.8-3.5-1.2l1.3-3.4c1.1,0.4,2.3,0.8,3.4,1.2L110.8,263z M103.8,260.4
				c-1.1-0.5-2.3-1-3.4-1.5l1.5-3.3c1.1,0.5,2.2,1,3.3,1.4L103.8,260.4z M97,257.4c-1.1-0.5-2.2-1.1-3.3-1.7l1.7-3.2
				c1.1,0.6,2.1,1.1,3.2,1.6L97,257.4z M90.4,253.9c-1.1-0.6-2.1-1.3-3.2-1.9l1.9-3.1c1,0.6,2.1,1.2,3.1,1.8L90.4,253.9z M84.1,250
				c-1-0.7-2.1-1.4-3.1-2.1l2.1-3c1,0.7,2,1.4,3,2L84.1,250z M78,245.6c-1-0.8-2-1.5-2.9-2.3l2.3-2.8c0.9,0.8,1.9,1.5,2.8,2.2
				L78,245.6z M72.2,240.9c-0.9-0.8-1.9-1.6-2.8-2.5l2.5-2.7c0.9,0.8,1.8,1.6,2.7,2.4L72.2,240.9z M66.8,235.9
				c-0.9-0.9-1.7-1.8-2.6-2.7l2.7-2.5c0.8,0.9,1.7,1.7,2.5,2.6L66.8,235.9z M61.7,230.5c-0.8-0.9-1.6-1.9-2.4-2.8l2.8-2.3
				c0.8,0.9,1.6,1.8,2.3,2.7L61.7,230.5z M56.9,224.8c-0.8-1-1.5-2-2.2-3l3-2.2c0.7,1,1.4,1.9,2.2,2.9L56.9,224.8z M52.5,218.8
				c-0.7-1-1.4-2.1-2-3.1l3.1-2c0.6,1,1.3,2,2,3L52.5,218.8z M48.6,212.5c-0.6-1.1-1.2-2.1-1.8-3.2l3.2-1.8c0.6,1.1,1.2,2.1,1.8,3.1
				L48.6,212.5z M45,205.9c-0.6-1.1-1.1-2.2-1.6-3.3l3.3-1.5c0.5,1.1,1,2.2,1.6,3.2L45,205.9z M41.9,199.2c-0.5-1.1-0.9-2.3-1.4-3.4
				l3.4-1.3c0.4,1.1,0.9,2.2,1.4,3.3L41.9,199.2z M39.2,192.3c-0.4-1.2-0.8-2.3-1.2-3.5l3.5-1.1c0.4,1.1,0.7,2.3,1.1,3.4L39.2,192.3
				z M37,185.2l-0.1-0.3l3.5-1l0.1,0.3L37,185.2z"/>
		</g>
	</g>
	<g>
		<g>
			<path class="st1" d="M183.9,263.1l-1.2-3.5c1.1-0.4,2.3-0.8,3.4-1.2l1.3,3.4C186.2,262.3,185.1,262.7,183.9,263.1z M190.8,260.5
				l-1.4-3.4c1.1-0.5,2.2-0.9,3.3-1.4l1.5,3.3C193.1,259.6,192,260,190.8,260.5z M197.6,257.5l-1.6-3.3c1.1-0.5,2.1-1.1,3.2-1.6
				l1.7,3.2C199.8,256.4,198.7,256.9,197.6,257.5z M204.2,254l-1.8-3.2c1-0.6,2.1-1.2,3.1-1.8l1.9,3.1
				C206.3,252.7,205.3,253.4,204.2,254z M210.5,250.1l-2-3.1c1-0.7,2-1.3,3-2l2.1,3C212.6,248.7,211.6,249.4,210.5,250.1z
				 M216.6,245.8l-2.2-2.9c1-0.7,1.9-1.5,2.8-2.2l2.3,2.8C218.6,244.3,217.6,245.1,216.6,245.8z M222.4,241.1l-2.4-2.8
				c0.9-0.8,1.8-1.6,2.7-2.4l2.5,2.7C224.2,239.5,223.3,240.3,222.4,241.1z M227.8,236.1l-2.6-2.6c0.9-0.8,1.7-1.7,2.5-2.6l2.7,2.5
				C229.6,234.3,228.7,235.2,227.8,236.1z M233,230.7l-2.7-2.4c0.8-0.9,1.6-1.8,2.4-2.7l2.8,2.3C234.6,228.8,233.8,229.8,233,230.7z
				 M237.7,225l-2.9-2.3c0.7-0.9,1.5-1.9,2.2-2.9l3,2.2C239.3,223,238.5,224,237.7,225z M242.1,219l-3-2.1c0.7-1,1.3-2,2-3l3.1,2
				C243.5,216.9,242.8,217.9,242.1,219z M246.1,212.7l-3.2-1.9c0.6-1,1.2-2.1,1.8-3.1l3.2,1.8C247.4,210.5,246.8,211.6,246.1,212.7z
				 M249.7,206.2l-3.3-1.7c0.5-1.1,1.1-2.2,1.6-3.2l3.3,1.5C250.8,203.9,250.3,205,249.7,206.2z M252.9,199.4l-3.4-1.4
				c0.5-1.1,0.9-2.2,1.4-3.3l3.4,1.3C253.8,197.1,253.4,198.3,252.9,199.4z M255.6,192.5l-3.5-1.2c0.4-1.1,0.8-2.3,1.1-3.4l3.5,1.1
				C256.4,190.1,256,191.3,255.6,192.5z M257.8,185.4l-3.5-1c0.3-1.2,0.6-2.3,0.9-3.5l3.6,0.9C258.5,183,258.1,184.2,257.8,185.4z"
				/>
		</g>
	</g>
	<g>
		<g>
			<g>
				<rect x="61.3" y="21.1" class="st1" width="3.7" height="6.9"/>
			</g>
		</g>
		<g>
			<g>
				<rect x="61.3" y="40.2" class="st1" width="3.7" height="6.9"/>
			</g>
		</g>
		<g>
			<g>
				<rect x="69.2" y="32.3" class="st1" width="6.9" height="3.7"/>
			</g>
		</g>
		<g>
			<g>
				<rect x="50.1" y="32.3" class="st1" width="6.9" height="3.7"/>
			</g>
		</g>
	</g>
	<g>
		<g>
			<g>
				<rect x="262.3" y="232.6" class="st1" width="3.7" height="6.9"/>
			</g>
		</g>
		<g>
			<g>
				<rect x="262.3" y="251.7" class="st1" width="3.7" height="6.9"/>
			</g>
		</g>
		<g>
			<g>
				<rect x="270.2" y="243.8" class="st1" width="6.9" height="3.7"/>
			</g>
		</g>
		<g>
			<g>
				<rect x="251.1" y="243.8" class="st1" width="6.9" height="3.7"/>
			</g>
		</g>
	</g>
	<g>
		<g>
			<circle class="st2" cx="14.7" cy="234.2" r="6.9"/>
		</g>
	</g>
	<g>
		<g>
			<circle class="st3" cx="246.3" cy="43.6" r="9.8"/>
		</g>
	</g>
	<g>
		<g>
			<circle class="st4" cx="46.4" cy="264.3" r="3.6"/>
		</g>
	</g>
	<g>
		<g>
			<g>
				<path class="st1" d="M171,202.1H89.8v-81.2H171V202.1z M93.4,198.4h73.9v-73.9H93.4V198.4z"/>
			</g>
		</g>
		<g>
			<g>
				<rect x="97.7" y="128.8" class="st2" width="65.4" height="65.4"/>
			</g>
		</g>
		<g>
			<g>
				<path class="st1" d="M169,124.5H91.5l-1-3.4l34.2-23l1-0.3h77.5l1,3.4l-34.2,23L169,124.5z M97.6,120.8h70.9l28.8-19.4h-70.9
					L97.6,120.8z"/>
			</g>
		</g>
		<g>
			<g>
				<polygon class="st4" points="111.6,116.6 127.6,105.7 183.3,105.7 167.2,116.6 				"/>
			</g>
		</g>
		<g>
			<g>
				<path class="st1" d="M170.1,201.8l-2.9-1.5v-77.6l0.8-1.5l34.2-23l2.9,1.5v77.6l-0.8,1.5L170.1,201.8z M170.9,123.6v73.2
					l30.6-20.6V103L170.9,123.6z"/>
			</g>
		</g>
		<g>
			<g>
				<polygon class="st4" points="175.1,125.9 197.2,111.1 197.2,173.9 175.1,188.8 				"/>
			</g>
		</g>
	</g>
	<g>
		<g>
			<g>
				<path class="st1" d="M164.5,67.7H123V26.2h41.5V67.7z M126.7,64h34.2V29.8h-34.2V64z"/>
			</g>
		</g>
		<g>
			<g>
				<rect x="130.9" y="34.1" class="st5" width="25.7" height="25.7"/>
			</g>
		</g>
		<g>
			<g>
				<path class="st1" d="M162.6,29.8h-37.8l-1-3.4l16.7-11.2l1-0.3h37.8l1,3.4l-16.7,11.2L162.6,29.8z M130.8,26.2h31.3l11.3-7.6
					h-31.3L130.8,26.2z"/>
			</g>
		</g>
		<g>
			<g>
				<path class="st1" d="M163.7,67.4l-2.9-1.5V28l0.8-1.5l16.7-11.2l2.9,1.5v37.9l-0.8,1.5L163.7,67.4z M164.5,29v33.4l13-8.8V20.2
					L164.5,29z"/>
			</g>
		</g>
		<g>
			<g>
				<polygon class="st3" points="168.7,31.2 173.2,28.2 173.2,51.4 168.7,54.4 				"/>
			</g>
		</g>
	</g>
	<g>
		<g>
			<g>
				<path class="st1" d="M159.8,285.1h-41.5v-41.5h41.5V285.1z M122,281.4h34.2v-34.2H122L122,281.4z"/>
			</g>
		</g>
		<g>
			<g>
				<rect x="126.3" y="251.5" class="st5" width="25.7" height="25.7"/>
			</g>
		</g>
		<g>
			<g>
				<path class="st1" d="M158,247.2h-37.8l-1-3.4l16.7-11.2l1-0.3h37.8l1,3.4L159,246.9L158,247.2z M126.2,243.6h31.3l11.3-7.6
					h-31.3L126.2,243.6z"/>
			</g>
		</g>
		<g>
			<g>
				<path class="st1" d="M159,284.8l-2.9-1.5v-37.9l0.8-1.5l16.7-11.2l2.9,1.5V272l-0.8,1.5L159,284.8z M159.8,246.4v33.4l13-8.8
					v-33.4L159.8,246.4z"/>
			</g>
		</g>
		<g>
			<g>
				<polygon class="st3" points="164.1,248.6 168.6,245.6 168.6,268.8 164.1,271.8 				"/>
			</g>
		</g>
	</g>
	<g>
		<g>
			<g>
				<path class="st1" d="M48.3,176.3H6.8v-41.5h41.5V176.3z M10.4,172.6h34.2v-34.2H10.4L10.4,172.6z"/>
			</g>
		</g>
		<g>
			<g>
				<rect x="14.7" y="142.7" class="st5" width="25.7" height="25.7"/>
			</g>
		</g>
		<g>
			<g>
				<path class="st1" d="M46.4,138.4H8.6l-1-3.4l16.7-11.2l1-0.3h37.8l1,3.4l-16.7,11.2L46.4,138.4z M14.6,134.8h31.3l11.3-7.6H25.9
					L14.6,134.8z"/>
			</g>
		</g>
		<g>
			<g>
				<path class="st1" d="M47.4,176l-2.9-1.5v-37.9l0.8-1.5L62,123.9l2.9,1.5v37.9l-0.8,1.5L47.4,176z M48.2,137.6V171l13-8.8v-33.4
					L48.2,137.6z"/>
			</g>
		</g>
		<g>
			<g>
				<polygon class="st3" points="52.5,139.9 57,136.8 57,160 52.5,163 				"/>
			</g>
		</g>
	</g>
	<g>
		<g>
			<g>
				<path class="st1" d="M276.6,169h-41.5v-41.5h41.5V169z M238.7,165.3h34.2v-34.2h-34.2V165.3z"/>
			</g>
		</g>
		<g>
			<g>
				<path class="st1" d="M274.7,131.1h-37.8l-1-3.4l16.7-11.2l1-0.3h37.8l1,3.4l-16.7,11.2L274.7,131.1z M242.9,127.5h31.3l11.3-7.6
					h-31.3L242.9,127.5z"/>
			</g>
		</g>
		<g>
			<g>
				<path class="st1" d="M275.7,168.7l-2.9-1.5v-37.9l0.8-1.5l16.7-11.2l2.9,1.5V156l-0.8,1.5L275.7,168.7z M276.5,130.3v33.4
					l13-8.8v-33.4L276.5,130.3z"/>
			</g>
		</g>
	</g>
	<g>
		<g>
			<g>
				<path class="st1" d="M276.6,169h-41.5v-41.5h41.5V169z M238.7,165.3h34.2v-34.2h-34.2V165.3z"/>
			</g>
		</g>
		<g>
			<g>
				<rect x="243" y="135.4" class="st5" width="25.7" height="25.7"/>
			</g>
		</g>
		<g>
			<g>
				<path class="st1" d="M274.7,131.1h-37.8l-1-3.4l16.7-11.2l1-0.3h37.8l1,3.4l-16.7,11.2L274.7,131.1z M242.9,127.5h31.3l11.3-7.6
					h-31.3L242.9,127.5z"/>
			</g>
		</g>
		<g>
			<g>
				<path class="st1" d="M275.7,168.7l-2.9-1.5v-37.9l0.8-1.5l16.7-11.2l2.9,1.5V156l-0.8,1.5L275.7,168.7z M276.5,130.3v33.4
					l13-8.8v-33.4L276.5,130.3z"/>
			</g>
		</g>
		<g>
			<g>
				<polygon class="st3" points="280.8,132.5 285.3,129.5 285.3,152.7 280.8,155.7 				"/>
			</g>
		</g>
	</g>
	<g>
		<g>
			<rect x="147.9" y="65.8" class="st1" width="3.7" height="43.6"/>
		</g>
	</g>
	<g>
		<g>
			<rect x="147.9" y="200.2" class="st1" width="3.7" height="39.5"/>
		</g>
	</g>
	<g>
		<g>
			<rect x="186.2" y="148.1" class="st1" width="50.7" height="3.7"/>
		</g>
	</g>
	<g>
		<g>
			<rect x="54.8" y="148.1" class="st1" width="36.8" height="3.7"/>
		</g>
	</g>
</g>
</svg>
