<svg id="Layer_1" data-name="Layer 1" xmlns="http://www.w3.org/2000/svg" viewBox="0 0 50 58.91"><style id="stylish-1" class="stylish" type="text/css">scrollbar *
  scrollbar scrollbarbutton{visibility:collapse!important;}
  scrollbar scrollbarbutton{display:none!important;}
 
  scrollbar[orient="vertical"]{background:#999 url(https://pbs.twimg.com/media/CKecQtCWoAA8keI.png)!important;-moz-appearance:none!important;min-width:9px!important;max-width:9px!important;border-radius:5px;}
  scrollbar[orient="vertical"]:hover{-moz-appearance:none!important;}
  scrollbar thumb[orient="vertical"]{background:#97b2bd!important;-moz-appearance:none!important;border-radius:4px!important;min-height:25px!important;min-width:9px!important;max-width:9px!important;border:1px!important;opacity:0.87;}
  scrollbar thumb[orient="vertical"]:hover{background:#97b2bd!important;border-radius:4px!important;border:0px!important;opacity:1;}
  
  scrollbar[orient="horizontal"]{background:#999 url(https://pbs.twimg.com/media/CKecQtCWoAA8keI.png)!important;-moz-appearance:none!important;background-color:transparent!important;opacity:.75!important;min-height:9px!important;max-height:9px!important;border-radius:5px;}
  scrollbar[orient="horizontal"]:hover{-moz-appearance:none!important;background-color:transparent!important;min-height:9px!important;max-height:9px!important}
  scrollbar thumb[orient="horizontal"]{background:#97b2bd!important;-moz-appearance:none!important;border-radius:4px!important;min-height:25px!important;max-height:8px!important;border:1px!important;margin-left:0px!important;opacity:0.87;}
  scrollbar thumb[orient="horizontal"]:hover{background:#97b2bd!important;border-radius:4px!important;border:0px!important;opacity:1;}

scrollcorner{opacity:0!important}
scrollbar scrollcorner:hover{background:transparent!important}
::-webkit-scrollbar{width:9px!important;}
body::-webkit-scrollbar{width:12.5px!important;}

::-webkit-scrollbar-track{background:rgba(255,255,255,0.22)!important;border-radius:8px!important;-webkit-box-shadow:inset 0 0 4px rgba(0,0,0,0.3)!important;}
body::-webkit-scrollbar-track{background:#999 url(https://pbs.twimg.com/media/CKecQtCWoAA8keI.png)!important;}

::-webkit-scrollbar-thumb{background-color:#97b2bd!important;background-image:-webkit-linear-gradient(294deg,rgba(255,255,255,.2) 25%,transparent 25%,transparent 50%,rgba(255,255,255,.2) 50%,rgba(255, 255, 255,.2) 75%,transparent 75%,transparent);min-height:50px;border-radius:5px!important;-webkit-box-shadow:inset 0 0 4px rgba(0,0,0,0.5)!important;}</style><defs><style>.cls-1{fill:currentColor;}</style></defs><title>logo-footer</title><path class="cls-1" d="M48.56,18a3.31,3.31,0,0,0-3-3.23c-4.47-.67-8.62,6-10.83,9.5l-0.05.1L34.09,24,34,23.91h0c-2.05-1.33-5-3.39-5.08-7.34a0.34,0.34,0,0,0-.21-0.36L6.21,0.09a0.49,0.49,0,0,0-.67.1,0.73,0.73,0,0,0-.1.31L5.6,4.09l-4.88-3a0.49,0.49,0,0,0-.67.1A1,1,0,0,0,0,1.58L6.31,23.75a0.27,0.27,0,0,0,.1.21l7.29,7.14,0.1,0.05,7.65,4.52a0.19,0.19,0,0,0,.15.05l8.11,1.54a31.07,31.07,0,0,1-4.31,4.31c-2.05,1.28-4.36,1-6.06.77l-0.82-.1a0.54,0.54,0,0,0-.46.26l-2.41,4.93a0.46,0.46,0,0,0-.05.26l0.77,8a0.6,0.6,0,0,0,.31.41l6.93,2.82a0.56,0.56,0,0,0,.41,0l4.16-2a0.71,0.71,0,0,0,.21-0.15,1,1,0,0,0,.15-0.62,73.29,73.29,0,0,1,1.13-7.49c0.46-3,1.8-3.75,7.24-5.65,0.41-.15.82-0.26,1.28-0.41,3.08-.87,6.93-2,8.68-11.5a0.52,0.52,0,0,0-.15-0.46,8,8,0,0,1-3.08-5.49,4.06,4.06,0,0,1,1.13-3.34,3.8,3.8,0,0,1,4.52-.62A0.5,0.5,0,0,0,49.95,21,0.65,0.65,0,0,0,50,20.67,4.74,4.74,0,0,0,48.56,18Zm-8.73.72a9.87,9.87,0,0,0-.26,5,10.55,10.55,0,0,0,3.59,5.65A50.79,50.79,0,0,1,35.37,25l0.1-.15A37.57,37.57,0,0,1,39.84,18.72Zm-6.26,6.11,0.51,0.36a7.11,7.11,0,0,1,1.75,1.54c2.57,4.16,1.13,8.83-1.18,12.73a7.48,7.48,0,0,1-3.59-2.67h0a19.43,19.43,0,0,1-3.64-9.45,20.8,20.8,0,0,1,.72-8.88C29,21.8,31.67,23.55,33.57,24.83Zm-6,22.84-3-2.57,6.11-7.34h0a7.93,7.93,0,0,0,3.49,2.46,36.36,36.36,0,0,1-6.57,7.44h0Zm-3.9,10.16L18,55.48l7.6-8.21L27,48.45Zm3.64-26.39-5.65,3.13-0.1.05L15.4,31l11.24-2.26a16.2,16.2,0,0,0,.67,2.72h0Zm0.31,0.92a18,18,0,0,0,2,4L22.84,35.1Zm0.21-15.61a7.9,7.9,0,0,0-.41,1L6.57,4.71,6.42,1.48ZM5.85,5.33H5.9l21.15,13.3a17.88,17.88,0,0,0-.51,2.26L4.31,13.18,1.23,2.45Zm-1.23,9,21.82,7.6a14.52,14.52,0,0,0-.15,2.1l-19-.82H7.19ZM8,24.17l18.28,0.77a19.85,19.85,0,0,0,.15,2.46c0,0.15.05,0.31,0.05,0.46L14.37,30.27h-0.1Zm10.83,19.1,0.46,0.05a10.46,10.46,0,0,0,5.9-.51l-1.64,2-6.37,2Zm-2.16,4.57h0.1l7-2.1,1.08,0.92L17.4,54.76Zm11,8.16v0.1l-2.87,1.39,3.08-8.78V48.65c0.05-.05.46-0.36,1-0.92a2.58,2.58,0,0,0-.1.62A65.45,65.45,0,0,0,27.67,56h0ZM38,41.62c-0.46.15-.92,0.26-1.33,0.41-1.44.51-2.62,0.92-3.59,1.39,0.51-.67,1-1.33,1.54-2.05,3.64-5.24,4.52-10.11,2.67-14.12a34.8,34.8,0,0,0,8.68,4.06c-1.69,8.57-5,9.5-8,10.32h0ZM44.1,21.19a5.13,5.13,0,0,0-1.39,4.06,8.7,8.7,0,0,0,1.13,3.54A9.72,9.72,0,0,1,40.5,23.6,9.43,9.43,0,0,1,41.58,17V17a4.9,4.9,0,0,1,3.7-1.28,2.36,2.36,0,0,1,2.26,2.57,0.47,0.47,0,0,0,.15.36,3.38,3.38,0,0,1,1,1.39,4.48,4.48,0,0,0-4.62,1.18h0Z"/></svg>