<?xml version="1.0" encoding="utf-8"?>
<!-- Generator: Adobe Illustrator 22.1.0, SVG Export Plug-In . SVG Version: 6.00 Build 0)  -->
<svg version="1.1" id="Lager_1" xmlns="http://www.w3.org/2000/svg" xmlns:xlink="http://www.w3.org/1999/xlink" x="0px" y="0px"
	 viewBox="0 0 20 32" enable-background="new 0 0 20 32" xml:space="preserve">
<g>
	<path fill="#CD5A14" d="M10.002,0C4.486,0,0,4.489,0,10.001c0,1.434,0.298,2.82,0.889,4.122l0.009,0.016
		C1.216,14.79,8.289,28.857,10.002,32c1.711-3.143,8.788-17.21,9.102-17.861l0.007-0.016C19.7,12.821,20,11.435,20,10.001
		C20,4.489,15.514,0,10.002,0z"/>
	<g>
		<path fill="#FFFFFF" d="M14.687,6.639c0-1.103-0.825-1.997-1.842-1.997s-1.842,0.894-1.842,1.997c0,1.103,0.825,1.997,1.842,1.997
			S14.687,7.742,14.687,6.639z"/>
		<path fill="#FFFFFF" d="M14.687,9.135h-3.018c0.377,0.457,0.607,1.06,0.607,1.721v4.816h3.793v-5.039
			C16.068,9.809,15.447,9.135,14.687,9.135z"/>
		<path fill="#FFFFFF" d="M7.724,8.507c1.197,0,2.167-1.052,2.167-2.349c0-1.297-0.97-2.349-2.167-2.349
			c-1.197,0-2.167,1.052-2.167,2.349C5.557,7.455,6.527,8.507,7.724,8.507z"/>
		<path fill="#FFFFFF" d="M9.891,9.094H5.557c-0.894,0-1.625,0.793-1.625,1.762v4.816h7.585v-4.816
			C11.517,9.887,10.786,9.094,9.891,9.094z"/>
	</g>
</g>
</svg>
