<?xml version="1.0" encoding="UTF-8"?>
<svg version="1.1" baseProfile="tiny" xmlns="http://www.w3.org/2000/svg" x="0px" y="0px" viewBox="0 0 40 40" xml:space="preserve">
	<g id="bg">
		<path fill="#42A5F5" d="M20,0L2,4c0,0,0,16,0,22c0,10,18,13,18,14c0-1,18-4,18-14c0-6,0-22,0-22L20,0z"/>
	</g>
	<g id="shape">
		<path fill="#FFF" d="M28.4,18.8l5.3-3.8h-6.5l-1.3-4h-3.9L20,5.1L18.1,11h-3.9l-1.3,4H6.3l5.3,3.8l-1.1,3.3l3.2,2.3l-2.2,6.6 l5.6-4.1l2.8,2l2.8-2l5.6,4.1l-2.2-6.6l3.2-2.3L28.4,18.8z M22.9,20.4l1.8,5.5L20,22.5l-4.6,3.4l1.8-5.5L12.5,17h5.7l1.8-5.5 l1.8,5.5h5.7L22.9,20.4z"/>
	</g>
</svg>
