<svg xmlns="http://www.w3.org/2000/svg" viewBox="0 0 308.69 488.87">
	<defs>
		<style>
			.cls-1,.cls-2{fill:none;stroke-miterlimit:10;stroke-width:20px;}.cls-1{stroke:#343434;}.cls-2{stroke:#00a5b8;}
		</style>
	</defs>
	<g id="Layer_2" data-name="Layer 2">
		<g id="Layer_1-2" data-name="Layer 1">
			<path class="cls-1" d="M165.64 265.2V144.79a22.17 22.17 0 1 0-44.34 0V265.2M210 299.77v-91a22.17 22.17 0 1 0-44.34 0v56.43"/>
			<path class="cls-1" d="M254.32 310.8v-91a22.17 22.17 0 1 0-44.34 0v79.95"/>
			<path class="cls-1" d="M298.69 354.2V233.8a22.19 22.19 0 1 0-44.37 0v77M298.69 354.2V392a86.87 86.87 0 0 1-86.87 86.87h-18.93c-31.71 0-58.62-14.77-68-43.3a135.12 135.12 0 0 0-14.58-29.76l-45.61-72a22.18 22.18 0 0 1 37.49-23.71l19.13 30.19V265.2"/>
			<path class="cls-2" d="M103.29 193.93a64.52 64.52 0 1 1 101.49-30.2"/>
			<path class="cls-1" d="M166.28 203.8a5.29 5.29 0 0 1-.63.24"/>
			<path class="cls-2" d="M101.46 270.1a133.33 133.33 0 1 1 168.29-83.49"/>
		</g>
	</g>
</svg>
