<?xml version="1.0"?><svg width="640" height="480" xmlns="http://www.w3.org/2000/svg" xmlns:xlink="http://www.w3.org/1999/xlink">
 <metadata id="metadata7">image/svg+xml</metadata>
 <g>
  <title>Layer 1</title>
  <g id="g10910">
   <path fill="#030000" fill-rule="evenodd" stroke="#000000" stroke-width="1px" d="m209.848129,78.040771c7.849442,10.448013 -9.80809,16.756165 -18.170853,30.552475c-2.847839,12.237732 -2.206772,36.871536 14.190765,53.800568c32.195984,26.814743 37.422852,29.028854 43.555939,46.292419c9.170532,26.466751 0.659424,51.888229 -4.675629,74.374191l-5.597137,35.262054c5.154785,36.568085 13.232086,73.136108 2.238861,109.704193c0,0 -9.409912,23.854004 -9.515167,26.866302c-0.117096,3.351868 11.693268,27.228546 11.194305,34.142609c-5.929321,6.245544 -8.113403,9.195923 -35.444427,7.297058c-15.498093,-1.076782 -27.840759,11.846741 -40.117111,15.651306c-9.689621,1.429871 -42.850311,7.710083 -103.547302,-6.716614l-58.210373,-20.149719c22.986702,-4.043518 50.354172,-22.612732 83.363602,-59.889526c26.180679,-30.632172 45.976395,-58.469635 50.374359,-109.14447c1.719604,-14.809845 16.407608,-42.725342 26.900284,-67.165802c3.569656,-13.909668 10.434525,-44.5802 -12.873459,-91.793274l-23.474075,-35.75386c-3.386734,-5.410583 -0.402054,-12.008499 1.08548,-17.419083c-10.827271,1.460754 -14.088394,-3.888016 -20.14975,-6.716583c2.781891,-7.19136 4.737625,-14.795784 15.672028,-17.910889c0.598236,0 15.850388,-1.361931 15.050217,0.989456c-2.324249,23.064209 -2.984543,36.576309 17.194199,49.015961c10.611954,-1.68364 -1.648605,-21.957947 22.890152,-24.57254c11.98526,-1.277023 1.22345,-20.590843 8.672958,-27.67173c2.394547,-2.053192 9.376831,-4.868927 19.392136,0.955498z" id="path2161"/>
   <path fill="#030000" fill-rule="evenodd" stroke="#000000" stroke-width="1px" d="m297.631683,161.75c-2.006287,-0.041367 -13.778717,2.705841 -14.25,7.25l25,-4.75l-2.5,1l-21,5.25l21.25,-3.25l-4.75,1.75l-18.75,4.5l20.75,-3c-10.762665,5.318054 -17.793274,2.858047 -29.25,11.75c-1.786652,3.991104 9.274445,6.238083 18,6.25c-7.75,0.481537 -15,2.436386 -22.75,-0.25c-18.072235,-4.537033 -30.268097,-13.971054 -44.75,-21.5c4.572601,-3.239624 5.016663,-7.069046 6.5,-10.75c-0.489319,0.733978 0.102814,-8.287643 0.457092,-5c0.291901,2.708939 26.959015,29.784439 34.542908,28c8.195221,-1.150345 10.088867,-5.901596 14,-9.5c5.127289,-3.366241 4.081512,-6.291534 17.5,-10.25c2.007599,0.608566 1.926697,0.579987 0,2.5z" id="path3134"/>
   <path fill="#030000" fill-rule="evenodd" stroke="#000000" stroke-width="1px" d="m93.381668,113l-13,-21c-10.702545,-1.574829 -21.126335,-4.078873 -33.75,0.75l-13.75,4.75l17,-3l-11.75,13.25l13.25,-11.25l-8.5,17.5l8,-10.25l-3,13.5l7,-13.5c0.498055,-2.333328 6.237175,-5.916672 9.25,-6.75c5.344101,2.27153 8.680664,1.277985 12.75,1l0.25,22l16.25,-7z" id="path5074"/>
   <path fill="#030000" fill-rule="evenodd" stroke="#000000" stroke-width="1px" d="m208.631668,37.5c-6.149216,9.955872 -17.882065,2.044052 -27,2.5l7,8.5c-2.907303,-0.610458 -5.236786,0.995949 -10.75,-1.5c-4.77594,-2.266663 -3.74649,-2.020683 -6.75,-1.5l0,3.5c-2.348862,1.969452 -11.157471,2.044998 -17.383881,0.176781l-0.616119,23.323219c0,0 -5,5.5 -3.5,2.5c1.5,-3 4.146454,-29.5 4.146454,-29.5c-2.610123,-8.833344 -6.531357,-17.666656 -5.646454,-26.5c3.670105,-28.902929 46.547226,-8.727779 51,-5.5c3.689987,3.133671 11.736115,12.218063 9.5,24z" id="path7014"/>
  </g>
  <image xlink:href="http://www.clker.com/cliparts/e/0/b/b/13735319621579639598image-hi.png" id="svg_1" height="61.999999" width="34.999975" y="54" x="146.000029"/>
 </g>
</svg>