<svg xmlns="http://www.w3.org/2000/svg" viewBox="0 0 800 480">
  <path d="M0 0h800v480H0z"/>
  <path fill="#a9a9a9" d="M0 0h800v384H0z"/>
  <path fill="#fff" d="M0 0h800v288H0z"/>
  <path fill="#a7d379" d="M0 0h800v192H0z"/>
  <path fill="#3da542" d="M0 0h800v96H0z"/>
</svg>
