<svg xmlns="http://www.w3.org/2000/svg" viewBox="0 0 800 480">
  <path fill="#21b1ff" d="M0 0h800v480H0z"/>
  <path fill="#ffd800" d="M0 0h800v320H0z"/>
  <path fill="#ff218c" d="M0 0h800v160H0z"/>
</svg>
