<svg xmlns="http://www.w3.org/2000/svg" viewBox="0 0 1357 815">
  <path fill="#fff" d="M0 0h1357v815H0z"/>
  <path d="M1357 272v-91H931v91zm0 181v-91H931c-1 25-4 57-13 91zm0-362V0H0v91zm0 543v-91H879c-17 28-40 56-70 83l-9 8zM426 272v-91H0v91zm931 543v-91H0v91zM439 453c-9-34-12-66-13-91H0v91zm118 181l-9-8c-30-27-53-55-70-83H0v91z"/>
  <path fill="#e00" d="M897 344V143H460v201c0 56 6 163 111 257 46 42 67 53 108 71 41-19 62-31 107-71 105-94 111-201 111-257zm-54 17c0 91-74 165-165 165s-165-74-165-165 74-165 165-165 165 74 165 165zm-55 0c0-61-49-110-110-110s-110 49-110 110 49 110 110 110 110-49 110-110z"/>
</svg>
