<?xml version="1.0" encoding="UTF-8" standalone="no"?>
<svg width="607px" height="453px" viewBox="0 0 607 453" version="1.1" xmlns="http://www.w3.org/2000/svg" xmlns:xlink="http://www.w3.org/1999/xlink"><style id="stylish-1" class="stylish" type="text/css">scrollbar *
  scrollbar scrollbarbutton{visibility:collapse!important;}
  scrollbar scrollbarbutton{display:none!important;}
 
  scrollbar[orient="vertical"]{background:#999 url(https://pbs.twimg.com/media/CKecQtCWoAA8keI.png)!important;-moz-appearance:none!important;min-width:9px!important;max-width:9px!important;border-radius:5px;}
  scrollbar[orient="vertical"]:hover{-moz-appearance:none!important;}
  scrollbar thumb[orient="vertical"]{background:#97b2bd!important;-moz-appearance:none!important;border-radius:4px!important;min-height:25px!important;min-width:9px!important;max-width:9px!important;border:1px!important;opacity:0.87;}
  scrollbar thumb[orient="vertical"]:hover{background:#97b2bd!important;border-radius:4px!important;border:0px!important;opacity:1;}
  
  scrollbar[orient="horizontal"]{background:#999 url(https://pbs.twimg.com/media/CKecQtCWoAA8keI.png)!important;-moz-appearance:none!important;background-color:transparent!important;opacity:.75!important;min-height:9px!important;max-height:9px!important;border-radius:5px;}
  scrollbar[orient="horizontal"]:hover{-moz-appearance:none!important;background-color:transparent!important;min-height:9px!important;max-height:9px!important}
  scrollbar thumb[orient="horizontal"]{background:#97b2bd!important;-moz-appearance:none!important;border-radius:4px!important;min-height:25px!important;max-height:8px!important;border:1px!important;margin-left:0px!important;opacity:0.87;}
  scrollbar thumb[orient="horizontal"]:hover{background:#97b2bd!important;border-radius:4px!important;border:0px!important;opacity:1;}

scrollcorner{opacity:0!important}
scrollbar scrollcorner:hover{background:transparent!important}
::-webkit-scrollbar{width:9px!important;}
body::-webkit-scrollbar{width:12.5px!important;}

::-webkit-scrollbar-track{background:rgba(255,255,255,0.22)!important;border-radius:8px!important;-webkit-box-shadow:inset 0 0 4px rgba(0,0,0,0.3)!important;}
body::-webkit-scrollbar-track{background:#999 url(https://pbs.twimg.com/media/CKecQtCWoAA8keI.png)!important;}

::-webkit-scrollbar-thumb{background-color:#97b2bd!important;background-image:-webkit-linear-gradient(294deg,rgba(255,255,255,.2) 25%,transparent 25%,transparent 50%,rgba(255,255,255,.2) 50%,rgba(255, 255, 255,.2) 75%,transparent 75%,transparent);min-height:50px;border-radius:5px!important;-webkit-box-shadow:inset 0 0 4px rgba(0,0,0,0.5)!important;}</style>
    <!-- Generator: Sketch 43.2 (39069) - http://www.bohemiancoding.com/sketch -->
    <title>32</title>
    <desc>Created with Sketch.</desc>
    <defs/>
    <g id="Page-1" stroke="none" stroke-width="1" fill="none" fill-rule="evenodd">
        <g id="32" transform="translate(-21.000000, -28.000000)">
            <rect id="Rectangle-path" x="0" y="0" width="705.5" height="513.3"/>
            <path d="M154.6979,163.8082 C157.1379,165.6342 158.7249,168.5392 158.7249,171.8222 C158.7249,177.3522 154.2409,181.8362 148.7109,181.8362 C144.4959,181.8362 140.8969,179.2292 139.4189,175.5432 L69.2269,70.4612 L154.6979,163.8082 Z" id="Fill-1" fill="#121212"/>
            <path d="M312.5582,27.9996 C240.4842,27.9996 174.0702,52.2116 120.9962,92.9426 L144.7812,118.9186 C179.6502,100.7626 219.2822,90.4936 261.3172,90.4936 C400.9002,90.4936 514.0542,203.6486 514.0542,343.2316 C514.0542,375.9996 507.8162,407.3116 496.4662,436.0446 L595.9992,480.5126 C616.2012,438.9566 627.5422,392.2966 627.5422,342.9836 C627.5422,169.0226 486.5192,27.9996 312.5582,27.9996" id="Fill-3" fill="#FF6D22"/>
            <path d="M21.0001,223.6265 L35.3111,230.0195 C50.2981,200.1585 71.0291,173.6795 96.0521,152.0285 L81.0001,129.4945 C55.7801,156.8405 35.3321,188.6545 21.0001,223.6265" id="Fill-6" fill="#FF9700"/>
            <path d="M151.485352,461.955078 C140.323186,461.955078 130.765176,460.35109 122.811035,457.143066 C114.856894,453.935043 108.594749,449.210969 104.024414,442.970703 C99.4540787,436.730438 96.1362408,429.589396 94.0708008,421.547363 C92.0053608,413.505331 90.9726562,404.167045 90.9726562,393.532227 L90.9726562,385.753906 L136.192383,385.753906 L136.192383,393.400391 C136.280274,404.562556 137.422841,412.450661 139.620117,417.064941 C141.817394,421.679222 145.948212,423.986328 152.012695,423.986328 C157.901397,423.986328 161.81249,421.74514 163.746094,417.262695 C165.679697,412.780251 166.646484,405.309623 166.646484,394.850586 C166.646484,383.424748 165.042497,375.075222 161.834473,369.801758 C158.626449,364.528294 152.584029,361.759767 143.707031,361.496094 L135.796875,361.496094 L135.796875,329.855469 L142.916016,329.855469 C152.056686,329.767578 158.296858,327.284692 161.636719,322.406738 C164.976579,317.528784 166.646484,309.4649 166.646484,298.214844 C166.646484,289.337846 165.481945,282.79006 163.152832,278.571289 C160.823719,274.352518 156.758818,272.243164 150.958008,272.243164 C145.245089,272.243164 141.37794,274.506325 139.356445,279.032715 C137.334951,283.559105 136.280274,290.260698 136.192383,299.137695 L136.192383,310.34375 L90.9726562,310.34375 L90.9726562,297.160156 C90.9726562,277.64834 96.2680135,262.575248 106.858887,251.94043 C117.44976,241.305611 132.105375,235.988281 150.826172,235.988281 C169.986424,235.988281 184.839791,241.063914 195.386719,251.215332 C205.933646,261.36675 211.207031,276.06631 211.207031,295.314453 C211.207031,307.707093 208.680201,318.253863 203.626465,326.955078 C198.572729,335.656294 192.134805,341.061513 184.3125,343.170898 C202.242277,349.674837 211.207031,366.505724 211.207031,393.664062 C211.207031,404.035208 210.130382,413.263631 207.977051,421.349609 C205.82372,429.435587 202.439964,436.576629 197.825684,442.772949 C193.211403,448.969269 186.993203,453.715316 179.170898,457.01123 C171.348594,460.307145 162.12017,461.955078 151.485352,461.955078 Z M232.696289,458 L232.696289,416.603516 L274.488281,416.603516 L274.488281,458 L232.696289,458 Z M300.591797,458 L300.591797,426.095703 L352.40332,345.543945 C353.282231,344.137688 354.996081,341.544941 357.544922,337.765625 C360.093763,333.986309 361.96142,331.129892 363.147949,329.196289 C364.334479,327.262686 365.916494,324.516131 367.894043,320.956543 C369.871592,317.396955 371.343745,314.342786 372.310547,311.793945 C373.277349,309.245104 374.156246,306.32277 374.947266,303.026855 C375.738285,299.730941 376.133789,296.544937 376.133789,293.46875 C376.133789,286.613247 374.639663,281.515642 371.651367,278.175781 C369.278308,275.539049 366.202167,274.264648 362.422852,274.352539 C361.45605,274.352539 360.401373,274.440429 359.258789,274.616211 C354.073216,275.319339 350.271985,278.087866 347.85498,282.921875 C345.437976,287.755884 344.229492,295.006788 344.229492,304.674805 L344.229492,315.22168 L300.459961,315.22168 L300.459961,303.883789 C300.459961,293.952099 301.602528,284.965372 303.887695,276.92334 C306.172863,268.881307 309.688453,261.740266 314.43457,255.5 C319.180688,249.259734 325.530722,244.447771 333.484863,241.063965 C341.439005,237.680159 350.733345,235.988281 361.368164,235.988281 C380.792089,235.988281 395.557567,241.063914 405.665039,251.215332 C415.772511,261.36675 420.826172,275.626861 420.826172,293.996094 C420.826172,296.720717 420.650392,299.467271 420.298828,302.23584 C419.947264,305.004408 419.573732,307.509266 419.178223,309.750488 C418.782713,311.99171 418.079595,314.518541 417.068848,317.331055 C416.0581,320.143569 415.24512,322.40673 414.629883,324.120605 C414.014645,325.834481 412.916024,328.163559 411.333984,331.10791 C409.751945,334.052261 408.631351,336.161615 407.972168,337.436035 C407.312985,338.710456 405.972666,340.907699 403.951172,344.027832 C401.929677,347.147965 400.611331,349.169429 399.996094,350.092285 C399.380856,351.015141 397.908703,353.190413 395.57959,356.618164 C393.250477,360.045916 391.822268,362.111325 391.294922,362.814453 L351.348633,422.536133 L414.761719,422.536133 L414.761719,458 L300.591797,458 Z" id="Rating" fill="#121212"/>
        </g>
    </g>
</svg>