<?xml version="1.0" encoding="UTF-8" standalone="no"?>
<svg width="607px" height="456px" viewBox="0 0 607 456" version="1.1" xmlns="http://www.w3.org/2000/svg" xmlns:xlink="http://www.w3.org/1999/xlink"><style id="stylish-1" class="stylish" type="text/css">scrollbar *
  scrollbar scrollbarbutton{visibility:collapse!important;}
  scrollbar scrollbarbutton{display:none!important;}
 
  scrollbar[orient="vertical"]{background:#999 url(https://pbs.twimg.com/media/CKecQtCWoAA8keI.png)!important;-moz-appearance:none!important;min-width:9px!important;max-width:9px!important;border-radius:5px;}
  scrollbar[orient="vertical"]:hover{-moz-appearance:none!important;}
  scrollbar thumb[orient="vertical"]{background:#97b2bd!important;-moz-appearance:none!important;border-radius:4px!important;min-height:25px!important;min-width:9px!important;max-width:9px!important;border:1px!important;opacity:0.87;}
  scrollbar thumb[orient="vertical"]:hover{background:#97b2bd!important;border-radius:4px!important;border:0px!important;opacity:1;}
  
  scrollbar[orient="horizontal"]{background:#999 url(https://pbs.twimg.com/media/CKecQtCWoAA8keI.png)!important;-moz-appearance:none!important;background-color:transparent!important;opacity:.75!important;min-height:9px!important;max-height:9px!important;border-radius:5px;}
  scrollbar[orient="horizontal"]:hover{-moz-appearance:none!important;background-color:transparent!important;min-height:9px!important;max-height:9px!important}
  scrollbar thumb[orient="horizontal"]{background:#97b2bd!important;-moz-appearance:none!important;border-radius:4px!important;min-height:25px!important;max-height:8px!important;border:1px!important;margin-left:0px!important;opacity:0.87;}
  scrollbar thumb[orient="horizontal"]:hover{background:#97b2bd!important;border-radius:4px!important;border:0px!important;opacity:1;}

scrollcorner{opacity:0!important}
scrollbar scrollcorner:hover{background:transparent!important}
::-webkit-scrollbar{width:9px!important;}
body::-webkit-scrollbar{width:12.5px!important;}

::-webkit-scrollbar-track{background:rgba(255,255,255,0.22)!important;border-radius:8px!important;-webkit-box-shadow:inset 0 0 4px rgba(0,0,0,0.3)!important;}
body::-webkit-scrollbar-track{background:#999 url(https://pbs.twimg.com/media/CKecQtCWoAA8keI.png)!important;}

::-webkit-scrollbar-thumb{background-color:#97b2bd!important;background-image:-webkit-linear-gradient(294deg,rgba(255,255,255,.2) 25%,transparent 25%,transparent 50%,rgba(255,255,255,.2) 50%,rgba(255, 255, 255,.2) 75%,transparent 75%,transparent);min-height:50px;border-radius:5px!important;-webkit-box-shadow:inset 0 0 4px rgba(0,0,0,0.5)!important;}</style>
    <!-- Generator: Sketch 43.2 (39069) - http://www.bohemiancoding.com/sketch -->
    <title>44</title>
    <desc>Created with Sketch.</desc>
    <defs/>
    <g id="Page-1" stroke="none" stroke-width="1" fill="none" fill-rule="evenodd">
        <g id="44" transform="translate(-21.000000, -25.000000)">
            <rect id="Rectangle-path" x="0" y="0" width="705.5" height="513.3"/>
            <path d="M215.3,146.18 L161.7,25.18 L197,152.48 C197.275479,157.286474 200.936696,161.214399 205.711973,161.826614 C210.48725,162.438829 215.02093,159.561532 216.5,154.98 C217.538484,152.024378 217.091931,148.749656 215.3,146.18 L215.3,146.18 Z" id="Shape" fill="#121212"/>
            <path d="M312.7,27.67 C273.312138,27.622862 234.266786,34.984149 197.6,49.37 L217.4,94 C231.963035,91.4649137 246.717963,90.193514 261.5,90.2 C401.1,90.2 514.2,203.4 514.2,342.9 C514.264999,374.668955 508.29239,406.160894 496.6,435.7 L596.1,480.2 C616.900787,437.351824 627.673019,390.330175 627.6,342.7 C627.7,168.68 486.7,27.67 312.7,27.67 Z" id="Shape" fill="#FF6D22"/>
            <path d="M21.2,223.27 L35.5,229.67 C62.2746217,176.440768 106.910125,134.318446 161.6,110.67 L151,72.37 C92.6165387,107.384844 47.0934086,160.308113 21.2,223.27 L21.2,223.27 Z" id="Shape" fill="#FF9700"/>
            <path d="M117.999023,374.943359 L150.430664,374.943359 L150.430664,283.712891 L117.999023,374.943359 Z M150.430664,458 L150.430664,407.770508 L83.9853516,407.770508 L83.9853516,373.888672 L140.542969,239.416016 L190.904297,239.416016 L190.904297,374.943359 L211.866211,374.943359 L211.866211,407.770508 L190.904297,407.770508 L190.904297,458 L150.430664,458 Z M231.509766,458 L231.509766,416.603516 L273.301758,416.603516 L273.301758,458 L231.509766,458 Z M327.75,374.943359 L360.181641,374.943359 L360.181641,283.712891 L327.75,374.943359 Z M360.181641,458 L360.181641,407.770508 L293.736328,407.770508 L293.736328,373.888672 L350.293945,239.416016 L400.655273,239.416016 L400.655273,374.943359 L421.617188,374.943359 L421.617188,407.770508 L400.655273,407.770508 L400.655273,458 L360.181641,458 Z" id="Rating" fill="#121212"/>
        </g>
    </g>
</svg>