<?xml version="1.0" encoding="UTF-8" standalone="no"?>
<svg width="607px" height="454px" viewBox="0 0 607 454" version="1.1" xmlns="http://www.w3.org/2000/svg" xmlns:xlink="http://www.w3.org/1999/xlink"><style id="stylish-1" class="stylish" type="text/css">scrollbar *
  scrollbar scrollbarbutton{visibility:collapse!important;}
  scrollbar scrollbarbutton{display:none!important;}
 
  scrollbar[orient="vertical"]{background:#999 url(https://pbs.twimg.com/media/CKecQtCWoAA8keI.png)!important;-moz-appearance:none!important;min-width:9px!important;max-width:9px!important;border-radius:5px;}
  scrollbar[orient="vertical"]:hover{-moz-appearance:none!important;}
  scrollbar thumb[orient="vertical"]{background:#97b2bd!important;-moz-appearance:none!important;border-radius:4px!important;min-height:25px!important;min-width:9px!important;max-width:9px!important;border:1px!important;opacity:0.87;}
  scrollbar thumb[orient="vertical"]:hover{background:#97b2bd!important;border-radius:4px!important;border:0px!important;opacity:1;}
  
  scrollbar[orient="horizontal"]{background:#999 url(https://pbs.twimg.com/media/CKecQtCWoAA8keI.png)!important;-moz-appearance:none!important;background-color:transparent!important;opacity:.75!important;min-height:9px!important;max-height:9px!important;border-radius:5px;}
  scrollbar[orient="horizontal"]:hover{-moz-appearance:none!important;background-color:transparent!important;min-height:9px!important;max-height:9px!important}
  scrollbar thumb[orient="horizontal"]{background:#97b2bd!important;-moz-appearance:none!important;border-radius:4px!important;min-height:25px!important;max-height:8px!important;border:1px!important;margin-left:0px!important;opacity:0.87;}
  scrollbar thumb[orient="horizontal"]:hover{background:#97b2bd!important;border-radius:4px!important;border:0px!important;opacity:1;}

scrollcorner{opacity:0!important}
scrollbar scrollcorner:hover{background:transparent!important}
::-webkit-scrollbar{width:9px!important;}
body::-webkit-scrollbar{width:12.5px!important;}

::-webkit-scrollbar-track{background:rgba(255,255,255,0.22)!important;border-radius:8px!important;-webkit-box-shadow:inset 0 0 4px rgba(0,0,0,0.3)!important;}
body::-webkit-scrollbar-track{background:#999 url(https://pbs.twimg.com/media/CKecQtCWoAA8keI.png)!important;}

::-webkit-scrollbar-thumb{background-color:#97b2bd!important;background-image:-webkit-linear-gradient(294deg,rgba(255,255,255,.2) 25%,transparent 25%,transparent 50%,rgba(255,255,255,.2) 50%,rgba(255, 255, 255,.2) 75%,transparent 75%,transparent);min-height:50px;border-radius:5px!important;-webkit-box-shadow:inset 0 0 4px rgba(0,0,0,0.5)!important;}</style>
    <!-- Generator: Sketch 43.2 (39069) - http://www.bohemiancoding.com/sketch -->
    <title>70</title>
    <desc>Created with Sketch.</desc>
    <defs/>
    <g id="Page-1" stroke="none" stroke-width="1" fill="none" fill-rule="evenodd">
        <g id="70" transform="translate(-21.000000, -27.000000)">
            <rect id="Rectangle-path" x="0" y="0" width="705.5" height="513.3"/>
            <path d="M571.1,67.47 L417.8,202.27 C412.61784,205.160594 409.799968,210.986292 410.750874,216.843432 C411.701781,222.700572 416.21795,227.335588 422.04842,228.438282 C427.87889,229.540975 433.775802,226.875344 436.8,221.77 L571.1,67.47 Z" id="Shape" fill="#121212"/>
            <path d="M312.6,27.67 C180.9,27.67 68.1,108.57 21,223.27 L35.3,229.67 C70.9598876,158.511091 138.058235,108.308784 216.388528,94.1813918 C294.71882,80.0539991 375.12762,103.652404 433.4,157.87 L505.9,94.07 C450.716448,50.9220478 382.64965,27.5405921 312.6,27.67 L312.6,27.67 Z" id="Shape" fill="#FF9700"/>
            <path d="M546.1,131.27 L476.9,210.87 C518.415324,278.584927 525.710518,361.868639 496.6,435.77 L596.1,480.27 C652.071486,364.611216 632.293561,226.561299 546.1,131.27 L546.1,131.27 Z" id="Shape" fill="#FF6D22"/>
            <path d="M113.25293,458 L160.450195,273.561523 L101.387695,273.561523 L101.387695,239.416016 L204.615234,239.416016 L204.615234,270.133789 L157.286133,458 L113.25293,458 Z M231.509766,458 L231.509766,416.603516 L273.301758,416.603516 L273.301758,458 L231.509766,458 Z M357.017578,461.955078 C337.769435,461.955078 323.003958,456.28619 312.720703,444.948242 C302.437449,433.610295 297.295898,418.405369 297.295898,399.333008 L297.295898,300.192383 C297.295898,280.329002 302.283642,264.684627 312.259277,253.258789 C322.234913,241.832951 337.154198,236.120117 357.017578,236.120117 C376.705177,236.120117 391.536571,241.854923 401.512207,253.324707 C411.487843,264.794491 416.475586,280.416893 416.475586,300.192383 L416.475586,399.333008 C416.475586,418.229587 411.290091,433.390568 400.918945,444.816406 C390.5478,456.242245 375.914157,461.955078 357.017578,461.955078 Z M357.017578,421.876953 C365.982467,421.876953 370.464844,413.966876 370.464844,398.146484 L370.464844,301.510742 C370.464844,299.401357 370.442871,297.709479 370.398926,296.435059 C370.35498,295.160638 370.223146,293.380871 370.003418,291.095703 C369.78369,288.810535 369.366214,286.942878 368.750977,285.492676 C368.135739,284.042473 367.366704,282.548348 366.443848,281.010254 C365.520991,279.47216 364.24659,278.329594 362.620605,277.58252 C360.994621,276.835445 359.126964,276.461914 357.017578,276.461914 C355.347648,276.461914 353.83155,276.659666 352.469238,277.055176 C351.106927,277.450686 349.96436,278.153804 349.041504,279.164551 C348.118648,280.175298 347.32764,281.09814 346.668457,281.933105 C346.009274,282.768071 345.481936,284.020499 345.086426,285.69043 C344.690916,287.36036 344.383302,288.634761 344.163574,289.513672 C343.943847,290.392583 343.79004,291.842763 343.702148,293.864258 C343.614257,295.885752 343.570312,297.182126 343.570312,297.753418 L343.570312,398.146484 C343.570312,413.966876 348.05269,421.876953 357.017578,421.876953 Z" id="Rating" fill="#121212"/>
        </g>
    </g>
</svg>