<?xml version="1.0" encoding="UTF-8" standalone="no"?>
<svg width="643px" height="454px" viewBox="0 0 643 454" version="1.1" xmlns="http://www.w3.org/2000/svg" xmlns:xlink="http://www.w3.org/1999/xlink"><style id="stylish-1" class="stylish" type="text/css">scrollbar *
  scrollbar scrollbarbutton{visibility:collapse!important;}
  scrollbar scrollbarbutton{display:none!important;}
 
  scrollbar[orient="vertical"]{background:#999 url(https://pbs.twimg.com/media/CKecQtCWoAA8keI.png)!important;-moz-appearance:none!important;min-width:9px!important;max-width:9px!important;border-radius:5px;}
  scrollbar[orient="vertical"]:hover{-moz-appearance:none!important;}
  scrollbar thumb[orient="vertical"]{background:#97b2bd!important;-moz-appearance:none!important;border-radius:4px!important;min-height:25px!important;min-width:9px!important;max-width:9px!important;border:1px!important;opacity:0.87;}
  scrollbar thumb[orient="vertical"]:hover{background:#97b2bd!important;border-radius:4px!important;border:0px!important;opacity:1;}
  
  scrollbar[orient="horizontal"]{background:#999 url(https://pbs.twimg.com/media/CKecQtCWoAA8keI.png)!important;-moz-appearance:none!important;background-color:transparent!important;opacity:.75!important;min-height:9px!important;max-height:9px!important;border-radius:5px;}
  scrollbar[orient="horizontal"]:hover{-moz-appearance:none!important;background-color:transparent!important;min-height:9px!important;max-height:9px!important}
  scrollbar thumb[orient="horizontal"]{background:#97b2bd!important;-moz-appearance:none!important;border-radius:4px!important;min-height:25px!important;max-height:8px!important;border:1px!important;margin-left:0px!important;opacity:0.87;}
  scrollbar thumb[orient="horizontal"]:hover{background:#97b2bd!important;border-radius:4px!important;border:0px!important;opacity:1;}

scrollcorner{opacity:0!important}
scrollbar scrollcorner:hover{background:transparent!important}
::-webkit-scrollbar{width:9px!important;}
body::-webkit-scrollbar{width:12.5px!important;}

::-webkit-scrollbar-track{background:rgba(255,255,255,0.22)!important;border-radius:8px!important;-webkit-box-shadow:inset 0 0 4px rgba(0,0,0,0.3)!important;}
body::-webkit-scrollbar-track{background:#999 url(https://pbs.twimg.com/media/CKecQtCWoAA8keI.png)!important;}

::-webkit-scrollbar-thumb{background-color:#97b2bd!important;background-image:-webkit-linear-gradient(294deg,rgba(255,255,255,.2) 25%,transparent 25%,transparent 50%,rgba(255,255,255,.2) 50%,rgba(255, 255, 255,.2) 75%,transparent 75%,transparent);min-height:50px;border-radius:5px!important;-webkit-box-shadow:inset 0 0 4px rgba(0,0,0,0.5)!important;}</style>
    <!-- Generator: Sketch 43.2 (39069) - http://www.bohemiancoding.com/sketch -->
    <title>86</title>
    <desc>Created with Sketch.</desc>
    <defs/>
    <g id="Page-1" stroke="none" stroke-width="1" fill="none" fill-rule="evenodd">
        <g id="86" transform="translate(-21.000000, -27.000000)">
            <rect id="Rectangle-path" x="0" y="0" width="705.5" height="513.3"/>
            <path d="M664.1,201.48 L454.6,264.18 C446.552493,264.880089 440.122228,271.171144 439.2462,279.201404 C438.370171,287.231663 443.292734,294.761209 451,297.18 C456.110146,298.820525 461.69814,297.889193 466,294.68 L664.1,201.48 Z" id="Shape" fill="#121212"/>
            <path d="M312.6,27.67 C180.9,27.67 68.1,108.57 21,223.27 L35.3,229.67 C78.1546319,144.139758 165.634222,90.1424001 261.3,90.17 C360.4,90.17 446.2,147.27 487.6,230.27 L592.8,198.77 C540.6,97.18 434.7,27.67 312.6,27.67 Z" id="Shape" fill="#FF9700"/>
            <path d="M510.3,299.27 C518.340715,345.173276 513.565645,392.40495 496.5,435.77 L596,480.27 C630.594446,408.698031 636.949988,326.718672 613.8,250.67 L510.3,299.27 Z" id="Shape" fill="#FF6D22"/>
            <path d="M147.925781,326.55957 C156.89067,326.55957 161.373047,315.705187 161.373047,293.996094 C161.373047,286.613244 160.23048,280.812521 157.945312,276.59375 C155.660145,272.374979 152.320334,270.265625 147.925781,270.265625 C143.355446,270.265625 139.927746,272.353006 137.642578,276.527832 C135.35741,280.702658 134.214844,286.481408 134.214844,293.864258 C134.214844,315.661242 138.785111,326.55957 147.925781,326.55957 Z M147.925781,428.205078 C150.29884,428.205078 152.386221,427.721685 154.187988,426.754883 C155.989755,425.788081 157.417963,424.381845 158.472656,422.536133 C159.527349,420.69042 160.406246,418.800791 161.109375,416.867187 C161.812504,414.933584 162.31787,412.582533 162.625488,409.813965 C162.933107,407.045396 163.130859,404.716318 163.21875,402.82666 C163.306641,400.937002 163.350586,398.717786 163.350586,396.168945 C163.350586,393.004867 163.306641,390.258312 163.21875,387.929199 C163.130859,385.600086 162.933107,383.051283 162.625488,380.282715 C162.31787,377.514146 161.812504,375.163096 161.109375,373.229492 C160.406246,371.295889 159.505377,369.472177 158.406738,367.758301 C157.3081,366.044425 155.879892,364.770024 154.12207,363.935059 C152.364249,363.100093 150.29884,362.682617 147.925781,362.682617 C145.201158,362.682617 142.850108,363.34179 140.872559,364.660156 C138.89501,365.978522 137.378912,367.626455 136.324219,369.604004 C135.269526,371.581553 134.434573,374.1743 133.819336,377.382324 C133.204098,380.590348 132.830567,383.556627 132.69873,386.28125 C132.566894,389.005873 132.500977,392.301738 132.500977,396.168945 C132.500977,400.211934 132.632811,403.705552 132.896484,406.649902 C133.160158,409.594253 133.753413,412.912091 134.67627,416.603516 C135.599126,420.29494 137.181141,423.151357 139.422363,425.172852 C141.663585,427.194346 144.49803,428.205078 147.925781,428.205078 Z M147.925781,461.427734 C137.11518,461.427734 127.776895,459.779802 119.910645,456.483887 C112.044394,453.187972 105.804222,448.441926 101.189941,442.245605 C96.5756605,436.049285 93.2138777,428.864299 91.1044922,420.69043 C89.1708888,413.131798 88.2041016,404.650438 88.2041016,395.246094 L88.2041016,392.873047 C88.3798837,381.447208 90.51121,371.27397 94.5981445,362.353027 C98.685079,353.432084 104.859334,346.906271 113.121094,342.775391 C106.968719,338.292946 101.915059,332.096719 97.9599609,324.186523 C94.004863,316.276328 91.8955091,306.696345 91.6318359,295.446289 L91.6318359,293.073242 C91.6318359,275.58292 96.2899925,261.916065 105.606445,252.072266 C115.362353,241.70112 129.468658,236.515625 147.925781,236.515625 C166.382905,236.515625 180.445264,241.70112 190.113281,252.072266 C199.341843,262.003956 203.91211,275.670811 203.824219,293.073242 L203.824219,295.446289 C203.560546,306.784236 201.495137,316.408164 197.62793,324.318359 C193.760723,332.228555 188.751007,338.380837 182.598633,342.775391 C190.772502,346.994162 196.968729,353.56392 201.1875,362.484863 C205.406271,371.405806 207.603515,381.5351 207.779297,392.873047 L207.779297,396.432617 C207.779297,405.485397 206.900399,413.615198 205.142578,420.822266 C203.033193,428.908244 199.67141,436.049285 195.057129,442.245605 C190.442848,448.441926 184.158731,453.187972 176.20459,456.483887 C168.250449,459.779802 158.824273,461.427734 147.925781,461.427734 Z M231.773438,458 L231.773438,416.603516 L273.56543,416.603516 L273.56543,458 L231.773438,458 Z M359.654297,427.80957 C362.642593,427.80957 365.059561,427.062507 366.905273,425.568359 C368.750986,424.074211 370.157222,421.613298 371.124023,418.185547 C372.090825,414.757795 372.728026,411.000509 373.035645,406.913574 C373.343263,402.82664 373.49707,397.531283 373.49707,391.027344 C373.49707,387.335919 373.475098,384.479502 373.431152,382.458008 C373.387207,380.436513 373.277345,377.9756 373.101562,375.075195 C372.92578,372.17479 372.662111,369.911629 372.310547,368.285645 C371.958983,366.65966 371.431644,364.923837 370.728516,363.078125 C370.025387,361.232413 369.168462,359.848149 368.157715,358.925293 C367.146968,358.002437 365.894539,357.211429 364.400391,356.552246 C362.906243,355.893063 361.192392,355.563477 359.258789,355.563477 C356.00682,355.563477 353.040541,356.508291 350.359863,358.397949 C347.679186,360.287607 345.723639,362.418933 344.493164,364.791992 L344.493164,399.860352 C344.493164,418.493257 349.546824,427.80957 359.654297,427.80957 Z M358.995117,461.164062 C348.536081,461.164062 339.395547,459.384295 331.573242,455.824707 C323.750937,452.265119 317.466821,447.211459 312.720703,440.663574 C307.974586,434.11569 304.437023,426.557172 302.10791,417.987793 C299.778797,409.418414 298.614258,399.816459 298.614258,389.181641 L298.614258,311.134766 C298.614258,302.081986 299.141596,293.974157 300.196289,286.811035 C301.250982,279.647913 303.140611,272.836458 305.865234,266.376465 C308.589857,259.916472 312.193337,254.555197 316.675781,250.29248 C321.158226,246.029764 326.936976,242.646009 334.012207,240.141113 C341.087438,237.636218 349.371046,236.383789 358.863281,236.383789 C369.146536,236.383789 377.891566,237.592273 385.098633,240.009277 C392.3057,242.426282 398.062478,246.073706 402.369141,250.95166 C406.675803,255.829614 409.817861,261.65231 411.79541,268.419922 C413.772959,275.187534 414.805664,283.229446 414.893555,292.545898 L414.893555,296.369141 L372.310547,296.369141 C372.310547,286.613232 371.541512,279.867694 370.003418,276.132324 C368.465324,272.396954 364.839872,270.529297 359.126953,270.529297 C353.06247,270.529297 349.107431,273.473603 347.261719,279.362305 C345.416006,285.251006 344.493164,296.852452 344.493164,314.166992 L344.493164,333.546875 C346.690441,329.767559 350.184058,326.80128 354.974121,324.647949 C359.764184,322.494618 365.235321,321.330079 371.387695,321.154297 L372.706055,321.154297 C380.61625,321.154297 387.515596,322.648423 393.404297,325.636719 C399.644562,328.800797 404.566388,333.305147 408.169922,339.149902 C411.773456,344.994658 414.43212,351.630334 416.145996,359.057129 C417.859872,366.483924 418.716797,374.767532 418.716797,383.908203 C418.716797,395.861388 417.728037,406.34224 415.750488,415.351074 C413.772939,424.359908 410.564964,432.40182 406.126465,439.477051 C401.687966,446.552281 395.513711,451.935528 387.603516,455.626953 C379.69332,459.318378 370.157282,461.164062 358.995117,461.164062 Z" id="Rating" fill="#121212"/>
        </g>
    </g>
</svg>