<?xml version="1.0" encoding="UTF-8" standalone="no"?>
<svg width="685px" height="454px" viewBox="0 0 685 454" version="1.1" xmlns="http://www.w3.org/2000/svg" xmlns:xlink="http://www.w3.org/1999/xlink"><style id="stylish-1" class="stylish" type="text/css">scrollbar *
  scrollbar scrollbarbutton{visibility:collapse!important;}
  scrollbar scrollbarbutton{display:none!important;}
 
  scrollbar[orient="vertical"]{background:#999 url(https://pbs.twimg.com/media/CKecQtCWoAA8keI.png)!important;-moz-appearance:none!important;min-width:9px!important;max-width:9px!important;border-radius:5px;}
  scrollbar[orient="vertical"]:hover{-moz-appearance:none!important;}
  scrollbar thumb[orient="vertical"]{background:#97b2bd!important;-moz-appearance:none!important;border-radius:4px!important;min-height:25px!important;min-width:9px!important;max-width:9px!important;border:1px!important;opacity:0.87;}
  scrollbar thumb[orient="vertical"]:hover{background:#97b2bd!important;border-radius:4px!important;border:0px!important;opacity:1;}
  
  scrollbar[orient="horizontal"]{background:#999 url(https://pbs.twimg.com/media/CKecQtCWoAA8keI.png)!important;-moz-appearance:none!important;background-color:transparent!important;opacity:.75!important;min-height:9px!important;max-height:9px!important;border-radius:5px;}
  scrollbar[orient="horizontal"]:hover{-moz-appearance:none!important;background-color:transparent!important;min-height:9px!important;max-height:9px!important}
  scrollbar thumb[orient="horizontal"]{background:#97b2bd!important;-moz-appearance:none!important;border-radius:4px!important;min-height:25px!important;max-height:8px!important;border:1px!important;margin-left:0px!important;opacity:0.87;}
  scrollbar thumb[orient="horizontal"]:hover{background:#97b2bd!important;border-radius:4px!important;border:0px!important;opacity:1;}

scrollcorner{opacity:0!important}
scrollbar scrollcorner:hover{background:transparent!important}
::-webkit-scrollbar{width:9px!important;}
body::-webkit-scrollbar{width:12.5px!important;}

::-webkit-scrollbar-track{background:rgba(255,255,255,0.22)!important;border-radius:8px!important;-webkit-box-shadow:inset 0 0 4px rgba(0,0,0,0.3)!important;}
body::-webkit-scrollbar-track{background:#999 url(https://pbs.twimg.com/media/CKecQtCWoAA8keI.png)!important;}

::-webkit-scrollbar-thumb{background-color:#97b2bd!important;background-image:-webkit-linear-gradient(294deg,rgba(255,255,255,.2) 25%,transparent 25%,transparent 50%,rgba(255,255,255,.2) 50%,rgba(255, 255, 255,.2) 75%,transparent 75%,transparent);min-height:50px;border-radius:5px!important;-webkit-box-shadow:inset 0 0 4px rgba(0,0,0,0.5)!important;}</style>
    <!-- Generator: Sketch 43.2 (39069) - http://www.bohemiancoding.com/sketch -->
    <title>96</title>
    <desc>Created with Sketch.</desc>
    <defs/>
    <g id="Page-1" stroke="none" stroke-width="1" fill="none" fill-rule="evenodd">
        <g id="96" transform="translate(-21.000000, -27.000000)">
            <rect id="Rectangle-path" x="0" y="0" width="705.5" height="513.3"/>
            <path d="M705.5,350.08 L463.5,331.38 C456.365036,329.333382 448.696708,331.732192 444,337.48 C439.095988,343.635717 438.679775,352.238403 442.966624,358.83879 C447.253474,365.439178 455.282045,368.557107 462.9,366.58 L705.5,350.08 Z" id="Shape" fill="#121212"/>
            <path d="M312.6,27.67 C180.9,27.67 68.1,108.57 21,223.27 L35.3,229.67 C78.1546319,144.139758 165.634222,90.1424001 261.3,90.17 C390.4,90.17 496.9,187.07 512.2,312.07 L626.8,320.87 C615.6,157.07 479.2,27.67 312.6,27.67 Z" id="Shape" fill="#FF9700"/>
            <path d="M496.5,435.77 L596,480.27 C611.524043,448.321389 621.499692,413.964578 625.5,378.67 L510.3,386.57 C507.384666,403.396521 502.76074,419.881824 496.5,435.77 L496.5,435.77 Z" id="Shape" fill="#FF6D22"/>
            <path d="M147.266602,341.984375 C153.155303,341.984375 157.681625,338.908234 160.845703,332.755859 L160.845703,297.6875 C160.845703,293.55662 160.691896,290.019058 160.384277,287.074707 C160.076659,284.130356 159.439458,281.251967 158.472656,278.439453 C157.505855,275.626939 156.055674,273.47364 154.12207,271.979492 C152.188467,270.485344 149.727554,269.738281 146.739258,269.738281 C141.11423,269.738281 137.444833,272.550753 135.730957,278.175781 C134.017081,283.800809 133.160156,293.248957 133.160156,306.520508 C133.160156,311.002952 133.182129,314.32079 133.226074,316.474121 C133.27002,318.627452 133.423827,321.395979 133.6875,324.779785 C133.951173,328.163591 134.368649,330.646476 134.939941,332.228516 C135.511233,333.810555 136.302241,335.48046 137.312988,337.238281 C138.323736,338.996103 139.664054,340.226559 141.333984,340.929688 C143.003915,341.632816 144.981434,341.984375 147.266602,341.984375 Z M146.607422,461.164062 C136.324167,461.164062 127.579138,459.955578 120.37207,457.538574 C113.165003,455.12157 107.430197,451.452173 103.16748,446.530273 C98.9047638,441.608374 95.8066503,435.763706 93.8730469,428.996094 C91.9394435,422.228482 90.9287114,414.142625 90.8408203,404.738281 L90.8408203,401.178711 L133.423828,401.178711 C133.423828,410.758837 134.258781,417.46043 135.928711,421.283691 C137.598641,425.106953 141.29001,427.018555 147.00293,427.018555 C152.979522,427.018555 156.780754,424.162138 158.406738,418.449219 C160.032723,412.7363 160.845703,401.046963 160.845703,383.380859 L160.845703,364.000977 C158.648427,367.868183 155.220726,370.856435 150.5625,372.96582 C145.904274,375.075206 140.499054,376.217773 134.34668,376.393555 L133.160156,376.393555 C125.24996,376.305664 118.306671,374.679703 112.330078,371.515625 C106.089813,368.175765 101.167987,363.407746 97.5644531,357.211426 C93.9609195,351.015106 91.3242271,344.115761 89.6542969,336.513184 C87.9843667,328.910607 87.1494141,320.495163 87.1494141,311.266602 C87.1494141,299.489199 88.2260635,289.140181 90.3793945,280.219238 C92.5327256,271.298295 95.9164808,263.49808 100.530762,256.818359 C105.145043,250.138638 111.319297,245.063006 119.053711,241.591309 C126.788125,238.119612 136.016548,236.383789 146.739258,236.383789 C167.393658,236.383789 182.620556,242.536071 192.42041,254.84082 C202.220264,267.145569 207.120117,284.19618 207.120117,305.993164 L207.120117,386.413086 C207.120117,395.465866 206.592779,403.573695 205.538086,410.736816 C204.483393,417.899938 202.571791,424.711393 199.803223,431.171387 C197.034654,437.63138 193.409202,442.992654 188.926758,447.255371 C184.444314,451.518088 178.64359,454.901843 171.524414,457.406738 C164.405238,459.911634 156.099657,461.164062 146.607422,461.164062 Z M231.773438,458 L231.773438,416.603516 L273.56543,416.603516 L273.56543,458 L231.773438,458 Z M359.654297,427.80957 C362.642593,427.80957 365.059561,427.062507 366.905273,425.568359 C368.750986,424.074211 370.157222,421.613298 371.124023,418.185547 C372.090825,414.757795 372.728026,411.000509 373.035645,406.913574 C373.343263,402.82664 373.49707,397.531283 373.49707,391.027344 C373.49707,387.335919 373.475098,384.479502 373.431152,382.458008 C373.387207,380.436513 373.277345,377.9756 373.101562,375.075195 C372.92578,372.17479 372.662111,369.911629 372.310547,368.285645 C371.958983,366.65966 371.431644,364.923837 370.728516,363.078125 C370.025387,361.232413 369.168462,359.848149 368.157715,358.925293 C367.146968,358.002437 365.894539,357.211429 364.400391,356.552246 C362.906243,355.893063 361.192392,355.563477 359.258789,355.563477 C356.00682,355.563477 353.040541,356.508291 350.359863,358.397949 C347.679186,360.287607 345.723639,362.418933 344.493164,364.791992 L344.493164,399.860352 C344.493164,418.493257 349.546824,427.80957 359.654297,427.80957 Z M358.995117,461.164062 C348.536081,461.164062 339.395547,459.384295 331.573242,455.824707 C323.750937,452.265119 317.466821,447.211459 312.720703,440.663574 C307.974586,434.11569 304.437023,426.557172 302.10791,417.987793 C299.778797,409.418414 298.614258,399.816459 298.614258,389.181641 L298.614258,311.134766 C298.614258,302.081986 299.141596,293.974157 300.196289,286.811035 C301.250982,279.647913 303.140611,272.836458 305.865234,266.376465 C308.589857,259.916472 312.193337,254.555197 316.675781,250.29248 C321.158226,246.029764 326.936976,242.646009 334.012207,240.141113 C341.087438,237.636218 349.371046,236.383789 358.863281,236.383789 C369.146536,236.383789 377.891566,237.592273 385.098633,240.009277 C392.3057,242.426282 398.062478,246.073706 402.369141,250.95166 C406.675803,255.829614 409.817861,261.65231 411.79541,268.419922 C413.772959,275.187534 414.805664,283.229446 414.893555,292.545898 L414.893555,296.369141 L372.310547,296.369141 C372.310547,286.613232 371.541512,279.867694 370.003418,276.132324 C368.465324,272.396954 364.839872,270.529297 359.126953,270.529297 C353.06247,270.529297 349.107431,273.473603 347.261719,279.362305 C345.416006,285.251006 344.493164,296.852452 344.493164,314.166992 L344.493164,333.546875 C346.690441,329.767559 350.184058,326.80128 354.974121,324.647949 C359.764184,322.494618 365.235321,321.330079 371.387695,321.154297 L372.706055,321.154297 C380.61625,321.154297 387.515596,322.648423 393.404297,325.636719 C399.644562,328.800797 404.566388,333.305147 408.169922,339.149902 C411.773456,344.994658 414.43212,351.630334 416.145996,359.057129 C417.859872,366.483924 418.716797,374.767532 418.716797,383.908203 C418.716797,395.861388 417.728037,406.34224 415.750488,415.351074 C413.772939,424.359908 410.564964,432.40182 406.126465,439.477051 C401.687966,446.552281 395.513711,451.935528 387.603516,455.626953 C379.69332,459.318378 370.157282,461.164062 358.995117,461.164062 Z" id="Rating" fill="#121212"/>
        </g>
    </g>
</svg>