<?xml version="1.0" encoding="UTF-8" standalone="no"?>
<svg width="685px" height="454px" viewBox="0 0 685 454" version="1.1" xmlns="http://www.w3.org/2000/svg" xmlns:xlink="http://www.w3.org/1999/xlink"><style id="stylish-1" class="stylish" type="text/css">scrollbar *
  scrollbar scrollbarbutton{visibility:collapse!important;}
  scrollbar scrollbarbutton{display:none!important;}
 
  scrollbar[orient="vertical"]{background:#999 url(https://pbs.twimg.com/media/CKecQtCWoAA8keI.png)!important;-moz-appearance:none!important;min-width:9px!important;max-width:9px!important;border-radius:5px;}
  scrollbar[orient="vertical"]:hover{-moz-appearance:none!important;}
  scrollbar thumb[orient="vertical"]{background:#97b2bd!important;-moz-appearance:none!important;border-radius:4px!important;min-height:25px!important;min-width:9px!important;max-width:9px!important;border:1px!important;opacity:0.87;}
  scrollbar thumb[orient="vertical"]:hover{background:#97b2bd!important;border-radius:4px!important;border:0px!important;opacity:1;}
  
  scrollbar[orient="horizontal"]{background:#999 url(https://pbs.twimg.com/media/CKecQtCWoAA8keI.png)!important;-moz-appearance:none!important;background-color:transparent!important;opacity:.75!important;min-height:9px!important;max-height:9px!important;border-radius:5px;}
  scrollbar[orient="horizontal"]:hover{-moz-appearance:none!important;background-color:transparent!important;min-height:9px!important;max-height:9px!important}
  scrollbar thumb[orient="horizontal"]{background:#97b2bd!important;-moz-appearance:none!important;border-radius:4px!important;min-height:25px!important;max-height:8px!important;border:1px!important;margin-left:0px!important;opacity:0.87;}
  scrollbar thumb[orient="horizontal"]:hover{background:#97b2bd!important;border-radius:4px!important;border:0px!important;opacity:1;}

scrollcorner{opacity:0!important}
scrollbar scrollcorner:hover{background:transparent!important}
::-webkit-scrollbar{width:9px!important;}
body::-webkit-scrollbar{width:12.5px!important;}

::-webkit-scrollbar-track{background:rgba(255,255,255,0.22)!important;border-radius:8px!important;-webkit-box-shadow:inset 0 0 4px rgba(0,0,0,0.3)!important;}
body::-webkit-scrollbar-track{background:#999 url(https://pbs.twimg.com/media/CKecQtCWoAA8keI.png)!important;}

::-webkit-scrollbar-thumb{background-color:#97b2bd!important;background-image:-webkit-linear-gradient(294deg,rgba(255,255,255,.2) 25%,transparent 25%,transparent 50%,rgba(255,255,255,.2) 50%,rgba(255, 255, 255,.2) 75%,transparent 75%,transparent);min-height:50px;border-radius:5px!important;-webkit-box-shadow:inset 0 0 4px rgba(0,0,0,0.5)!important;}</style>
    <!-- Generator: Sketch 43.2 (39069) - http://www.bohemiancoding.com/sketch -->
    <title>99</title>
    <desc>Created with Sketch.</desc>
    <defs/>
    <g id="Page-1" stroke="none" stroke-width="1" fill="none" fill-rule="evenodd">
        <g id="99" transform="translate(-21.000000, -27.000000)">
            <rect id="Rectangle-path" x="0" y="0" width="705.5" height="513.3"/>
            <path d="M705.5,350.08 L463.5,331.38 C456.365036,329.333382 448.696708,331.732192 444,337.48 C439.095988,343.635717 438.679775,352.238403 442.966624,358.83879 C447.253474,365.439178 455.282045,368.557107 462.9,366.58 L705.5,350.08 Z" id="Shape" fill="#121212"/>
            <path d="M312.6,27.67 C180.9,27.67 68.1,108.57 21,223.27 L35.3,229.67 C78.1546319,144.139758 165.634222,90.1424001 261.3,90.17 C390.4,90.17 496.9,187.07 512.2,312.07 L626.8,320.87 C615.6,157.07 479.2,27.67 312.6,27.67 Z" id="Shape" fill="#FF9700"/>
            <path d="M496.5,435.77 L596,480.27 C611.524043,448.321389 621.499692,413.964578 625.5,378.67 L510.3,386.57 C507.384666,403.396521 502.76074,419.881824 496.5,435.77 L496.5,435.77 Z" id="Shape" fill="#FF6D22"/>
            <path d="M147.266602,341.984375 C153.155303,341.984375 157.681625,338.908234 160.845703,332.755859 L160.845703,297.6875 C160.845703,293.55662 160.691896,290.019058 160.384277,287.074707 C160.076659,284.130356 159.439458,281.251967 158.472656,278.439453 C157.505855,275.626939 156.055674,273.47364 154.12207,271.979492 C152.188467,270.485344 149.727554,269.738281 146.739258,269.738281 C141.11423,269.738281 137.444833,272.550753 135.730957,278.175781 C134.017081,283.800809 133.160156,293.248957 133.160156,306.520508 C133.160156,311.002952 133.182129,314.32079 133.226074,316.474121 C133.27002,318.627452 133.423827,321.395979 133.6875,324.779785 C133.951173,328.163591 134.368649,330.646476 134.939941,332.228516 C135.511233,333.810555 136.302241,335.48046 137.312988,337.238281 C138.323736,338.996103 139.664054,340.226559 141.333984,340.929688 C143.003915,341.632816 144.981434,341.984375 147.266602,341.984375 Z M146.607422,461.164062 C136.324167,461.164062 127.579138,459.955578 120.37207,457.538574 C113.165003,455.12157 107.430197,451.452173 103.16748,446.530273 C98.9047638,441.608374 95.8066503,435.763706 93.8730469,428.996094 C91.9394435,422.228482 90.9287114,414.142625 90.8408203,404.738281 L90.8408203,401.178711 L133.423828,401.178711 C133.423828,410.758837 134.258781,417.46043 135.928711,421.283691 C137.598641,425.106953 141.29001,427.018555 147.00293,427.018555 C152.979522,427.018555 156.780754,424.162138 158.406738,418.449219 C160.032723,412.7363 160.845703,401.046963 160.845703,383.380859 L160.845703,364.000977 C158.648427,367.868183 155.220726,370.856435 150.5625,372.96582 C145.904274,375.075206 140.499054,376.217773 134.34668,376.393555 L133.160156,376.393555 C125.24996,376.305664 118.306671,374.679703 112.330078,371.515625 C106.089813,368.175765 101.167987,363.407746 97.5644531,357.211426 C93.9609195,351.015106 91.3242271,344.115761 89.6542969,336.513184 C87.9843667,328.910607 87.1494141,320.495163 87.1494141,311.266602 C87.1494141,299.489199 88.2260635,289.140181 90.3793945,280.219238 C92.5327256,271.298295 95.9164808,263.49808 100.530762,256.818359 C105.145043,250.138638 111.319297,245.063006 119.053711,241.591309 C126.788125,238.119612 136.016548,236.383789 146.739258,236.383789 C167.393658,236.383789 182.620556,242.536071 192.42041,254.84082 C202.220264,267.145569 207.120117,284.19618 207.120117,305.993164 L207.120117,386.413086 C207.120117,395.465866 206.592779,403.573695 205.538086,410.736816 C204.483393,417.899938 202.571791,424.711393 199.803223,431.171387 C197.034654,437.63138 193.409202,442.992654 188.926758,447.255371 C184.444314,451.518088 178.64359,454.901843 171.524414,457.406738 C164.405238,459.911634 156.099657,461.164062 146.607422,461.164062 Z M231.773438,458 L231.773438,416.603516 L273.56543,416.603516 L273.56543,458 L231.773438,458 Z M356.753906,341.984375 C362.642608,341.984375 367.168929,338.908234 370.333008,332.755859 L370.333008,297.6875 C370.333008,293.55662 370.179201,290.019058 369.871582,287.074707 C369.563963,284.130356 368.926763,281.251967 367.959961,278.439453 C366.993159,275.626939 365.542978,273.47364 363.609375,271.979492 C361.675772,270.485344 359.214859,269.738281 356.226563,269.738281 C350.601534,269.738281 346.932137,272.550753 345.218262,278.175781 C343.504386,283.800809 342.647461,293.248957 342.647461,306.520508 C342.647461,311.002952 342.669433,314.32079 342.713379,316.474121 C342.757324,318.627452 342.911131,321.395979 343.174805,324.779785 C343.438478,328.163591 343.855954,330.646476 344.427246,332.228516 C344.998538,333.810555 345.789546,335.48046 346.800293,337.238281 C347.81104,338.996103 349.151359,340.226559 350.821289,340.929688 C352.491219,341.632816 354.468739,341.984375 356.753906,341.984375 Z M356.094727,461.164062 C345.811472,461.164062 337.066442,459.955578 329.859375,457.538574 C322.652308,455.12157 316.917502,451.452173 312.654785,446.530273 C308.392069,441.608374 305.293955,435.763706 303.360352,428.996094 C301.426748,422.228482 300.416016,414.142625 300.328125,404.738281 L300.328125,401.178711 L342.911133,401.178711 C342.911133,410.758837 343.746085,417.46043 345.416016,421.283691 C347.085946,425.106953 350.777315,427.018555 356.490234,427.018555 C362.466827,427.018555 366.268058,424.162138 367.894043,418.449219 C369.520028,412.7363 370.333008,401.046963 370.333008,383.380859 L370.333008,364.000977 C368.135731,367.868183 364.708031,370.856435 360.049805,372.96582 C355.391578,375.075206 349.986359,376.217773 343.833984,376.393555 L342.647461,376.393555 C334.737265,376.305664 327.793975,374.679703 321.817383,371.515625 C315.577117,368.175765 310.655291,363.407746 307.051758,357.211426 C303.448224,351.015106 300.811532,344.115761 299.141602,336.513184 C297.471671,328.910607 296.636719,320.495163 296.636719,311.266602 C296.636719,299.489199 297.713368,289.140181 299.866699,280.219238 C302.02003,271.298295 305.403786,263.49808 310.018066,256.818359 C314.632347,250.138638 320.806602,245.063006 328.541016,241.591309 C336.275429,238.119612 345.503853,236.383789 356.226562,236.383789 C376.880963,236.383789 392.107861,242.536071 401.907715,254.84082 C411.707569,267.145569 416.607422,284.19618 416.607422,305.993164 L416.607422,386.413086 C416.607422,395.465866 416.080083,403.573695 415.025391,410.736816 C413.970698,417.899938 412.059096,424.711393 409.290527,431.171387 C406.521959,437.63138 402.896507,442.992654 398.414062,447.255371 C393.931618,451.518088 388.130895,454.901843 381.011719,457.406738 C373.892543,459.911634 365.586962,461.164062 356.094727,461.164062 Z" id="Rating" fill="#121212"/>
        </g>
    </g>
</svg>