<?xml version="1.0" encoding="utf-8"?>
<!-- Generator: Adobe Illustrator 20.1.0, SVG Export Plug-In . SVG Version: 6.00 Build 0)  -->
<svg version="1.1" id="Camada_1" xmlns="http://www.w3.org/2000/svg" xmlns:xlink="http://www.w3.org/1999/xlink" x="0px" y="0px"
	 viewBox="0 0 300 192" style="enable-background:new 0 0 300 192;" xml:space="preserve">
<style type="text/css">
	.st0{clip-path:url(#SVGID_2_);}
	.st1{fill-rule:evenodd;clip-rule:evenodd;fill:#E7E9EA;}
	.st2{fill-rule:evenodd;clip-rule:evenodd;fill:#808184;}
	.st3{fill-rule:evenodd;clip-rule:evenodd;fill:#6E6F71;}
	.st4{fill-rule:evenodd;clip-rule:evenodd;fill:#F1F2F3;}
	.st5{fill-rule:evenodd;clip-rule:evenodd;fill:#F1D1B6;}
	.st6{fill-rule:evenodd;clip-rule:evenodd;fill:#ECC19C;}
	.st7{fill-rule:evenodd;clip-rule:evenodd;fill:#FFFFFF;}
	.st8{fill-rule:evenodd;clip-rule:evenodd;fill:#3A3939;}
	.st9{fill-rule:evenodd;clip-rule:evenodd;fill:#424142;}
	.st10{fill-rule:evenodd;clip-rule:evenodd;fill:#A5A7AB;}
	.st11{fill-rule:evenodd;clip-rule:evenodd;fill:#221F20;}
	.st12{fill-rule:evenodd;clip-rule:evenodd;fill:#434344;}
	.st13{fill-rule:evenodd;clip-rule:evenodd;fill:#F1F2F2;}
</style>
<g>
	<defs>
		<rect id="SVGID_1_" x="6.2" y="-13" width="288.8" height="205"/>
	</defs>
	<clipPath id="SVGID_2_">
		<use xlink:href="#SVGID_1_"  style="overflow:visible;"/>
	</clipPath>
	<g class="st0">
		<g>
			<g>
				
					<rect x="151.1" y="24.2" transform="matrix(0.9685 -0.249 0.249 0.9685 -12.8033 50.0469)" class="st1" width="80.6" height="102.8"/>
				
					<rect x="163.1" y="34.9" transform="matrix(0.9685 -0.249 0.249 0.9685 -3.1145 46.2059)" class="st2" width="35.9" height="1"/>
				
					<rect x="163.7" y="37.2" transform="matrix(0.9685 -0.249 0.249 0.9685 -3.6798 46.4285)" class="st2" width="35.9" height="1"/>
				
					<rect x="172.5" y="39.6" transform="matrix(0.9685 -0.249 0.249 0.9685 -4.2452 46.6517)" class="st2" width="19.6" height="1"/>
				
					<rect x="150.6" y="57.2" transform="matrix(0.9685 -0.249 0.249 0.9685 -9.2515 42.3079)" class="st2" width="23.9" height="1"/>
				<rect x="151.1" y="58" transform="matrix(0.9685 -0.249 0.249 0.9685 -9.2525 43.9259)" class="st2" width="35.9" height="1"/>
				<rect x="152" y="62.7" transform="matrix(0.9685 -0.249 0.249 0.9685 -10.6774 42.0686)" class="st2" width="17.9" height="1"/>
				
					<rect x="154.5" y="68.2" transform="matrix(0.9685 -0.249 0.249 0.9685 -11.1856 49.0068)" class="st2" width="67.2" height="1"/>
				
					<rect x="155.2" y="70.7" transform="matrix(0.9685 -0.249 0.249 0.9685 -11.7808 49.2435)" class="st2" width="67.2" height="1"/>
				
					<rect x="155.8" y="73.1" transform="matrix(0.9685 -0.249 0.249 0.9685 -12.3759 49.4797)" class="st2" width="67.2" height="1"/>
				
					<rect x="156.4" y="75.6" transform="matrix(0.9685 -0.249 0.249 0.9685 -12.9709 49.7152)" class="st2" width="67.2" height="1"/>
				
					<rect x="157.6" y="81.9" transform="matrix(0.9685 -0.249 0.249 0.9685 -14.9814 46.3789)" class="st2" width="36.6" height="1"/>
				
					<rect x="157.7" y="80.6" transform="matrix(0.9685 -0.249 0.249 0.9685 -14.161 50.1867)" class="st2" width="67.2" height="1"/>
				<rect x="158.3" y="83" transform="matrix(0.9685 -0.249 0.249 0.9685 -14.7562 50.4233)" class="st2" width="67.2" height="1"/>
				<rect x="159" y="85.5" transform="matrix(0.9685 -0.249 0.249 0.9685 -15.3513 50.6594)" class="st2" width="67.2" height="1"/>
				<rect x="159.6" y="88" transform="matrix(0.9685 -0.249 0.249 0.9685 -15.9464 50.8948)" class="st2" width="67.2" height="1"/>
				
					<rect x="160.6" y="93.2" transform="matrix(0.9685 -0.249 0.249 0.9685 -17.5562 48.5725)" class="st2" width="45.2" height="1"/>
				
					<rect x="160.9" y="92.9" transform="matrix(0.9685 -0.249 0.249 0.9685 -17.1365 51.3664)" class="st2" width="67.2" height="1"/>
				
					<rect x="161.5" y="95.4" transform="matrix(0.9685 -0.249 0.249 0.9685 -17.7317 51.603)" class="st2" width="67.2" height="1"/>
				
					<rect x="162.2" y="97.8" transform="matrix(0.9685 -0.249 0.249 0.9685 -18.3268 51.8393)" class="st2" width="67.2" height="1"/>
				
					<rect x="162.9" y="101.6" transform="matrix(0.9685 -0.249 0.249 0.9685 -19.4016 50.8648)" class="st2" width="56.8" height="1"/>
				
					<rect x="163.4" y="102.8" transform="matrix(0.9685 -0.249 0.249 0.9685 -19.5168 52.3102)" class="st2" width="67.2" height="1"/>
				
					<rect x="164.4" y="108.1" transform="matrix(0.9685 -0.249 0.249 0.9685 -21.1506 49.9293)" class="st2" width="44.7" height="1"/>
				
					<rect x="209.9" y="113" transform="matrix(0.9685 -0.249 0.249 0.9685 -21.3723 58.1095)" class="st2" width="18.3" height="1"/>
				
					<rect x="177.4" y="121.4" transform="matrix(0.9685 -0.249 0.249 0.9685 -24.4769 50.2793)" class="st2" width="18.3" height="1"/>
				
					<rect x="175.5" y="114.3" transform="matrix(0.9685 -0.249 0.249 0.9685 -22.7712 49.6037)" class="st2" width="18.3" height="1"/>
				
					<rect x="208" y="105.9" transform="matrix(0.9685 -0.249 0.249 0.9685 -19.6669 57.4353)" class="st2" width="18.3" height="1"/>
			</g>
			<g>
				
					<rect x="132.6" y="44.1" transform="matrix(0.9996 -2.966002e-02 2.966002e-02 0.9996 -2.7573 5.1696)" class="st1" width="80.6" height="102.8"/>
				
					<rect x="153.7" y="53.5" transform="matrix(0.9996 -2.967082e-02 2.967082e-02 0.9996 -1.5273 5.1167)" class="st3" width="35.9" height="1"/>
				
					<rect x="153.8" y="55.9" transform="matrix(0.9996 -2.966239e-02 2.966239e-02 0.9996 -1.5987 5.1184)" class="st3" width="35.9" height="1"/>
				
					<rect x="162" y="58.4" transform="matrix(0.9996 -2.965674e-02 2.965674e-02 0.9996 -1.6702 5.1206)" class="st3" width="19.6" height="1"/>
				
					<rect x="136.8" y="71.2" transform="matrix(0.9996 -2.966251e-02 2.966251e-02 0.9996 -2.0618 4.4427)" class="st3" width="23.9" height="1"/>
				
					<rect x="136.8" y="73.4" transform="matrix(0.9996 -2.966820e-02 2.966820e-02 0.9996 -2.1248 4.6244)" class="st3" width="35.9" height="1"/>
				
					<rect x="136.9" y="76.2" transform="matrix(0.9996 -2.966230e-02 2.966230e-02 0.9996 -2.2119 4.361)" class="st3" width="17.9" height="1"/>
				
					<rect x="137.6" y="87.5" transform="matrix(0.9996 -2.966021e-02 2.966021e-02 0.9996 -2.5365 5.1161)" class="st3" width="67.2" height="1"/>
				
					<rect x="137.7" y="90.1" transform="matrix(0.9996 -2.966328e-02 2.966328e-02 0.9996 -2.6124 5.12)" class="st3" width="67.2" height="1"/>
				
					<rect x="137.8" y="92.6" transform="matrix(0.9996 -2.966778e-02 2.966778e-02 0.9996 -2.6884 5.1241)" class="st3" width="67.2" height="1"/>
				
					<rect x="137.8" y="95.2" transform="matrix(0.9996 -2.965869e-02 2.965869e-02 0.9996 -2.7631 5.1259)" class="st3" width="67.2" height="1"/>
				
					<rect x="137.9" y="98.2" transform="matrix(0.9996 -2.966223e-02 2.966223e-02 0.9996 -2.8592 4.6764)" class="st3" width="36.6" height="1"/>
				
					<rect x="138" y="100.3" transform="matrix(0.9996 -2.966030e-02 2.966030e-02 0.9996 -2.9144 5.1329)" class="st3" width="67.2" height="1"/>
				
					<rect x="138.1" y="102.8" transform="matrix(0.9996 -2.966468e-02 2.966468e-02 0.9996 -2.9905 5.137)" class="st3" width="67.2" height="1"/>
				
					<rect x="138.1" y="105.4" transform="matrix(0.9996 -2.966017e-02 2.966017e-02 0.9996 -3.0656 5.1396)" class="st3" width="67.2" height="1"/>
				
					<rect x="138.2" y="107.9" transform="matrix(0.9996 -2.965877e-02 2.965877e-02 0.9996 -3.141 5.1427)" class="st3" width="67.2" height="1"/>
				
					<rect x="138.3" y="110.8" transform="matrix(0.9996 -2.965705e-02 2.965705e-02 0.9996 -3.2309 4.8208)" class="st3" width="45.2" height="1"/>
				
					<rect x="138.4" y="113" transform="matrix(0.9996 -2.966021e-02 2.966021e-02 0.9996 -3.2923 5.1497)" class="st3" width="67.2" height="1"/>
				
					<rect x="138.4" y="115.6" transform="matrix(0.9996 -2.965881e-02 2.965881e-02 0.9996 -3.3678 5.1528)" class="st3" width="67.2" height="1"/>
				
					<rect x="138.5" y="118.1" transform="matrix(0.9996 -2.966463e-02 2.966463e-02 0.9996 -3.444 5.1572)" class="st3" width="67.2" height="1"/>
				
					<rect x="138.6" y="120.8" transform="matrix(0.9996 -2.966600e-02 2.966600e-02 0.9996 -3.5266 5.0071)" class="st3" width="56.8" height="1"/>
				
					<rect x="138.7" y="123.2" transform="matrix(0.9996 -2.966030e-02 2.966030e-02 0.9996 -3.5947 5.1632)" class="st3" width="67.2" height="1"/>
				
					<rect x="138.7" y="126.1" transform="matrix(0.9996 -2.966006e-02 2.966006e-02 0.9996 -3.685 4.834)" class="st3" width="44.7" height="1"/>
				
					<rect x="182.3" y="138.1" transform="matrix(0.9996 -2.965243e-02 2.965243e-02 0.9996 -4.0249 5.7377)" class="st3" width="18.3" height="1"/>
				
					<rect x="148.8" y="139.1" transform="matrix(0.9996 -2.966899e-02 2.966899e-02 0.9996 -4.0714 4.7462)" class="st3" width="18.3" height="1"/>
				
					<rect x="148.5" y="131.8" transform="matrix(0.9996 -2.965757e-02 2.965757e-02 0.9996 -3.8532 4.7347)" class="st3" width="18.3" height="1"/>
				
					<rect x="182.1" y="130.8" transform="matrix(0.9996 -2.966899e-02 2.966899e-02 0.9996 -3.8104 5.7313)" class="st3" width="18.3" height="1"/>
			</g>
			<g>
				<path class="st4" d="M155.8,97.9c3.2,3.3,15.8,14.8,15.8,14.8s-1.7,0.3-2.4,4c-0.8,3.7,5.9,21.8,5.9,21.8s11.1,0,16.3-1.1
					c5.2-1.1,11.3-20.6,8.5-24.3c-2.8-3.7-24.3-5.7-24.3-5.7l-5.2-2.1C170.5,105.3,152.6,94.6,155.8,97.9z"/>
				<path class="st5" d="M202.5,115.8c-0.6-0.3-12.4-7.8-12.4-7.8s-16.9,4.7-14.5,8c2.5,3.3,14.6,1.3,14.6,1.3s11.3,8.3,11.6,7.7
					C202.1,124.5,202.5,115.8,202.5,115.8z"/>
				<path class="st6" d="M210.4,155.8c-0.6-4.1,7.7-31.1,2.8-36c-7.7-7.8-17-17.8-19.8-18.7c-2.9-0.9-16.4,0.1-18.9,0.1
					c-2.5,0-2.2,1.6,2.4,5.4c4.6,3.7,13,2.2,14.9,5.7c2,3.5,6.4,14.6,2.5,17.1c-2.2,1.4-5.6-1-8.3-3.8l-8.4,9
					c0.4,1.5,0.5,2.9,0.4,4.3c-0.5,7.2,9.8,15.9,11.7,18.5c1.1,1.6,4.1,15.5,6.3,26.7l20.8-2.4l3.9-3.6
					C220.7,178.2,211,159.9,210.4,155.8z"/>
				<polygon class="st7" points="185.1,164.3 181.6,156.1 213.1,149.3 215.3,156.7 				"/>
				<polygon class="st8" points="218.3,153.7 180.3,162 196.1,203.1 236.1,198.5 				"/>
				<polygon class="st9" points="218.3,153.7 199.1,157.9 216,200.8 236.1,198.5 				"/>
				<g>
					<polygon class="st10" points="214.6,133.8 214,134.7 213.5,134.8 212.2,134 212.1,133.5 212.7,132.5 213.2,132.4 214.5,133.3 
											"/>
					
						<ellipse transform="matrix(0.5441 -0.8391 0.8391 0.5441 -9.8629 174.513)" class="st11" cx="155.6" cy="96.3" rx="0.4" ry="1.8"/>
					<path class="st12" d="M183.8,119.2c-10.8-7-20-13.8-25.1-18.3l2.4-3.7c6.2,2.8,16.1,8.3,27,15.3c11.1,7.2,20.5,14.1,25.4,18.6
						c0,0,0.7,0.5-0.5,2.2c-1.1,1.6-1.8,1.3-1.8,1.4C205.1,132.1,194.9,126.4,183.8,119.2z"/>
					<path class="st10" d="M211.8,129.7L211.8,129.7c0.3-0.3,0.6-0.8,0.5-1.1c-0.1-0.5-11.8-8.9-14.5-10.5c-4.4-2.6-5.8-2-7.9-7
						c0,0,23.7,16.7,23.8,17c0.5,1-0.2,1.9-0.8,2.6l-2.4,3.8c-0.4-0.2-0.9-0.4-1.4-0.6l2.3-3.6L211.8,129.7z"/>
					<path class="st10" d="M181.7,117.8c-0.4-0.3-0.9-0.6-1.3-0.8l4.3-6.6c0.4,0.3,0.9,0.5,1.3,0.8L181.7,117.8z"/>
					<path class="st10" d="M158.8,101c-2.1-1.9-3.5-3.4-4-4.4l0.8-1.2c1.1,0,3,0.7,5.6,1.9L158.8,101z"/>
				</g>
				<path class="st6" d="M181.5,120.3c-1.2-2.1,0.1-3.4-2.2-8c-2.3-4.7-10.3-7-8.6-2.7c0.4,5.1-0.8,8.3-0.1,10.8
					c2.2,7.8,6.6,23.3,8.6,24c2.4,1,2.4-14.2,6.6-18.7C183.7,123.7,182,121.3,181.5,120.3z"/>
			</g>
		</g>
		<g>
			<rect x="77.8" y="134.9" class="st13" width="3" height="20"/>
			<rect x="83" y="141.9" class="st13" width="3" height="13"/>
			<rect x="88.1" y="133.3" class="st13" width="3" height="21.6"/>
			<rect x="93.3" y="145.7" class="st13" width="3" height="9.2"/>
			<rect x="98.4" y="146.6" class="st13" width="3" height="8.4"/>
			<rect x="103.6" y="142.1" class="st13" width="3" height="12.9"/>
			<rect x="108.7" y="131.3" class="st13" width="3" height="23.6"/>
			<rect x="113.3" y="139.4" class="st13" width="3" height="15.7"/>
		</g>
		<path class="st13" d="M82,74.1c-9.2,0-16.8,7.5-16.8,16.8c0,9.2,7.5,16.8,16.8,16.8c9.2,0,16.8-7.5,16.8-16.8
			C98.8,81.6,91.3,74.1,82,74.1L82,74.1z M79.4,75.5L79.4,75.5c-2.3,2.3-4.1,4.8-5.2,7.5c-1.6-0.3-3.1-0.8-4.7-1.3
			C71.8,78.5,75.4,76.2,79.4,75.5L79.4,75.5z M68.6,83L68.6,83c1.7,0.6,3.4,1,5.1,1.3c-0.7,1.9-1,3.9-1.1,5.8h-6.1
			C66.6,87.6,67.4,85.2,68.6,83L68.6,83L68.6,83z M66.5,91.4L66.5,91.4h6.1c0.1,2,0.4,3.9,1.1,5.8c-1.7,0.3-3.4,0.8-5.1,1.3
			C67.4,96.5,66.6,94,66.5,91.4L66.5,91.4L66.5,91.4z M69.5,99.9L69.5,99.9c1.6-0.5,3.1-1,4.7-1.3c1.1,2.7,2.9,5.3,5.2,7.5
			C75.4,105.4,71.8,103.1,69.5,99.9L69.5,99.9L69.5,99.9z M81.4,106.3L81.4,106.3c-2.6-2.7-4.5-5.3-5.7-8c1.9-0.3,3.8-0.5,5.7-0.6
			V106.3L81.4,106.3z M81.4,96.4L81.4,96.4c-2.1,0-4.2,0.2-6.2,0.6c-0.7-1.8-1.1-3.7-1.2-5.5h7.4V96.4L81.4,96.4z M81.4,90.2
			L81.4,90.2H74c0.1-1.8,0.5-3.7,1.2-5.5c2.1,0.3,4.2,0.5,6.2,0.6V90.2L81.4,90.2z M81.4,83.9L81.4,83.9c-1.9,0-3.8-0.2-5.7-0.6
			c1.2-2.7,3.1-5.3,5.7-8V83.9L81.4,83.9z M97.5,90.2L97.5,90.2h-6.1c-0.1-2-0.4-3.9-1.1-5.8c1.7-0.3,3.4-0.8,5.1-1.3
			C96.7,85.2,97.4,87.6,97.5,90.2L97.5,90.2z M94.6,81.7L94.6,81.7c-1.6,0.6-3.1,1-4.7,1.4c-1.1-2.7-2.9-5.3-5.2-7.5
			C88.7,76.2,92.2,78.5,94.6,81.7L94.6,81.7L94.6,81.7z M82.6,75.4L82.6,75.4c2.6,2.7,4.5,5.3,5.7,8c-1.9,0.3-3.8,0.5-5.7,0.6V75.4
			L82.6,75.4L82.6,75.4z M82.6,85.2L82.6,85.2c2.1,0,4.2-0.2,6.2-0.6c0.7,1.8,1.1,3.7,1.2,5.5h-7.4V85.2L82.6,85.2z M82.6,91.4
			L82.6,91.4H90c-0.1,1.8-0.5,3.7-1.2,5.5c-2.1-0.3-4.2-0.5-6.2-0.6V91.4L82.6,91.4z M82.6,97.7L82.6,97.7c1.9,0,3.8,0.2,5.7,0.5
			c-1.2,2.7-3.1,5.3-5.7,8V97.7L82.6,97.7L82.6,97.7z M84.6,106.1L84.6,106.1c2.3-2.3,4.1-4.8,5.2-7.5c1.6,0.3,3.1,0.8,4.7,1.4
			C92.2,103.1,88.7,105.4,84.6,106.1L84.6,106.1z M95.4,98.6L95.4,98.6c-1.7-0.6-3.4-1-5.1-1.3c0.7-1.9,1-3.9,1.1-5.8h6.1
			C97.4,94,96.7,96.5,95.4,98.6L95.4,98.6z"/>
		<path class="st13" d="M93.8,22.1h16.7c0.1,0,0.2,0.1,0.2,0.2v0.4c0,0.1-0.1,0.2-0.2,0.2H93.8c-0.1,0-0.2-0.1-0.2-0.2v-0.4
			C93.6,22.2,93.7,22.1,93.8,22.1L93.8,22.1z M93.8,26.7h16.7c0.1,0,0.2,0.1,0.2,0.2v0.4c0,0.1-0.1,0.2-0.2,0.2H93.8
			c-0.1,0-0.2-0.1-0.2-0.2v-0.4C93.6,26.8,93.7,26.7,93.8,26.7L93.8,26.7z M93.8,31.6h16.7c0.1,0,0.2,0.1,0.2,0.2v0.4
			c0,0.1-0.1,0.2-0.2,0.2H93.8c-0.1,0-0.2-0.1-0.2-0.2v-0.4C93.6,31.7,93.7,31.6,93.8,31.6L93.8,31.6z M92.3,41.1
			c0.4,0,0.7,0.3,0.7,0.7c0,0.4-0.3,0.7-0.7,0.7c-0.4,0-0.7-0.3-0.7-0.7C91.6,41.4,91.9,41.1,92.3,41.1L92.3,41.1z M92.3,36.1
			c0.4,0,0.7,0.3,0.7,0.7c0,0.4-0.3,0.7-0.7,0.7c-0.4,0-0.7-0.3-0.7-0.7C91.6,36.4,91.9,36.1,92.3,36.1L92.3,36.1z M92.3,31.4
			c0.4,0,0.7,0.3,0.7,0.7c0,0.4-0.3,0.7-0.7,0.7c-0.4,0-0.7-0.3-0.7-0.7C91.6,31.7,91.9,31.4,92.3,31.4L92.3,31.4z M92.3,26.5
			c0.4,0,0.7,0.3,0.7,0.7c0,0.4-0.3,0.7-0.7,0.7c-0.4,0-0.7-0.3-0.7-0.7C91.6,26.8,91.9,26.5,92.3,26.5L92.3,26.5z M92.3,21.9
			c0.4,0,0.7,0.3,0.7,0.7c0,0.4-0.3,0.7-0.7,0.7c-0.4,0-0.7-0.3-0.7-0.7C91.6,22.2,91.9,21.9,92.3,21.9L92.3,21.9z M93.8,36.4h16.7
			c0.1,0,0.2,0.1,0.2,0.2V37c0,0.1-0.1,0.2-0.2,0.2H93.8c-0.1,0-0.2-0.1-0.2-0.2v-0.4C93.6,36.5,93.7,36.4,93.8,36.4L93.8,36.4z
			 M113.2,18.4H89.7v27.4h23.4V18.4L113.2,18.4z M93.8,41.3h16.7c0.1,0,0.2,0.1,0.2,0.2v0.4c0,0.1-0.1,0.2-0.2,0.2H93.8
			c-0.1,0-0.2-0.1-0.2-0.2v-0.4C93.6,41.4,93.7,41.3,93.8,41.3z"/>
		<g>
			<path class="st13" d="M257.6,16.6c8.5,0,15.3,6.9,15.3,15.3c0,8.5-6.9,15.3-15.3,15.3c-8.5,0-15.3-6.9-15.3-15.3
				C242.3,23.4,249.1,16.6,257.6,16.6L257.6,16.6z M275.3,31.9c0-9.8-7.9-17.7-17.7-17.7c-9.8,0-17.7,7.9-17.7,17.7
				c0,9.8,7.9,17.7,17.7,17.7C267.4,49.6,275.3,41.7,275.3,31.9z"/>
			
				<rect x="250.4" y="18.2" transform="matrix(0.8657 -0.5006 0.5006 0.8657 23.7405 128.1239)" class="st13" width="0.6" height="3.3"/>
			
				<rect x="245.3" y="23.3" transform="matrix(0.5006 -0.8657 0.8657 0.5006 101.0628 225.0171)" class="st13" width="0.6" height="3.3"/>
			
				<rect x="243.9" y="38.6" transform="matrix(0.8657 -0.5006 0.5006 0.8657 13.5217 128.1273)" class="st13" width="3.3" height="0.6"/>
			
				<rect x="249" y="43.7" transform="matrix(0.5004 -0.8658 0.8658 0.5004 87.1527 238.9717)" class="st13" width="3.3" height="0.6"/>
			
				<rect x="264.3" y="42.3" transform="matrix(0.8658 -0.5004 0.5004 0.8658 13.511 138.3085)" class="st13" width="0.6" height="3.3"/>
			
				<rect x="269.4" y="37.2" transform="matrix(0.5004 -0.8658 0.8658 0.5004 101.086 252.9123)" class="st13" width="0.6" height="3.3"/>
			<rect x="257.3" y="16.3" class="st13" width="0.6" height="3.3"/>
			<rect x="242" y="31.6" class="st13" width="3.3" height="0.6"/>
			<rect x="257.3" y="44.2" class="st13" width="0.6" height="3.3"/>
			<rect x="269.9" y="31.6" class="st13" width="3.3" height="0.6"/>
			
				<rect x="268.1" y="24.6" transform="matrix(0.8658 -0.5004 0.5004 0.8658 23.7268 138.306)" class="st13" width="3.3" height="0.6"/>
			
				<rect x="262.9" y="19.5" transform="matrix(0.5006 -0.8657 0.8657 0.5006 114.9933 238.9567)" class="st13" width="3.3" height="0.6"/>
			<g>
				<polygon class="st13" points="257.5,20.4 258,26.4 258.4,32.4 257.5,33.3 256.7,32.4 257.1,26.4 				"/>
				<polygon class="st13" points="268.8,31.8 262.7,32.1 256.6,32.4 255.6,31.8 256.6,31.1 262.7,31.5 				"/>
				<ellipse class="st13" cx="257.5" cy="31.7" rx="0.4" ry="0.3"/>
			</g>
		</g>
		<g>
			<path class="st13" d="M260.8,85.7c1.9,0,3.5,1.6,3.5,3.5c0,1.9-1.6,3.5-3.5,3.5c-1.9,0-3.5-1.6-3.5-3.5
				C257.3,87.3,258.8,85.7,260.8,85.7L260.8,85.7z M266,95.8c0.5-0.4,0.9-0.8,1.3-1.3l2.6,0.8c0.2-0.4,0.5-0.8,0.7-1.2l-2-1.9
				c0.2-0.6,0.4-1.1,0.5-1.7l2.7-0.6c0-0.2,0-0.4,0-0.7c0-0.2,0-0.4,0-0.7L269,88c-0.1-0.6-0.2-1.2-0.5-1.7l2-1.9
				c-0.2-0.4-0.4-0.8-0.7-1.2l-2.6,0.8c-0.4-0.5-0.8-0.9-1.3-1.3l0.8-2.6c-0.4-0.2-0.8-0.5-1.2-0.7l-1.9,2c-0.6-0.2-1.1-0.4-1.7-0.5
				l-0.6-2.7c-0.2,0-0.4,0-0.7,0c-0.2,0-0.4,0-0.7,0l-0.6,2.7c-0.6,0.1-1.2,0.2-1.7,0.5l-1.9-2c-0.4,0.2-0.8,0.4-1.2,0.7l0.8,2.6
				c-0.5,0.4-0.9,0.8-1.3,1.3l-2.6-0.8c-0.2,0.4-0.5,0.8-0.7,1.2l2,1.9c-0.2,0.6-0.4,1.1-0.5,1.7l-2.7,0.6c0,0.2,0,0.4,0,0.7
				c0,0.2,0,0.4,0,0.7l2.7,0.6c0.1,0.6,0.2,1.2,0.5,1.7l-2,1.9c0.2,0.4,0.4,0.8,0.7,1.2l2.6-0.8c0.4,0.5,0.8,0.9,1.3,1.3l-0.8,2.6
				c0.4,0.2,0.8,0.5,1.2,0.7l1.9-2c0.6,0.2,1.1,0.4,1.7,0.5l0.6,2.7c0.2,0,0.4,0,0.7,0c0.2,0,0.4,0,0.7,0l0.6-2.7
				c0.6-0.1,1.2-0.2,1.7-0.5l1.9,2c0.4-0.2,0.8-0.4,1.2-0.7L266,95.8z"/>
			<path class="st13" d="M276.7,76.7c1.5,0.3,2.5,1.7,2.2,3.2c-0.3,1.5-1.7,2.5-3.2,2.2c-1.5-0.3-2.5-1.7-2.2-3.2
				C273.8,77.4,275.2,76.4,276.7,76.7L276.7,76.7z M279.4,85.2c0.4-0.2,0.8-0.5,1.2-0.8l1.9,1c0.2-0.3,0.5-0.5,0.7-0.8l-1.3-1.7
				c0.2-0.4,0.5-0.8,0.6-1.3l2.1-0.1c0-0.2,0.1-0.3,0.1-0.5c0-0.2,0.1-0.3,0.1-0.5l-2-0.9c0-0.5,0-1-0.1-1.4l1.8-1.2
				c-0.1-0.3-0.2-0.7-0.3-1l-2.1,0.2c-0.2-0.4-0.5-0.8-0.8-1.2l1-1.9c-0.3-0.2-0.5-0.5-0.8-0.7l-1.7,1.3c-0.4-0.2-0.8-0.5-1.3-0.6
				l-0.1-2.1c-0.2,0-0.3-0.1-0.5-0.1c-0.2,0-0.3-0.1-0.5-0.1l-0.9,2c-0.5,0-1,0-1.4,0.1l-1.2-1.8c-0.3,0.1-0.7,0.2-1,0.3l0.2,2.1
				c-0.4,0.2-0.8,0.5-1.2,0.8l-1.9-1c-0.2,0.3-0.5,0.5-0.7,0.8l1.3,1.7c-0.2,0.4-0.5,0.8-0.6,1.3l-2.1,0.1c0,0.2-0.1,0.3-0.1,0.5
				c0,0.2-0.1,0.3-0.1,0.5l2,0.9c0,0.5,0,1,0.1,1.4l-1.8,1.2c0.1,0.3,0.2,0.7,0.3,1l2.1-0.2c0.2,0.4,0.5,0.8,0.8,1.2l-1,1.9
				c0.3,0.2,0.5,0.5,0.8,0.7l1.7-1.3c0.4,0.2,0.8,0.5,1.3,0.6l0.1,2.1c0.2,0,0.3,0.1,0.5,0.1c0.2,0,0.3,0.1,0.5,0.1l0.9-2
				c0.5,0,1,0,1.4-0.1l1.2,1.8c0.3-0.1,0.7-0.2,1-0.3L279.4,85.2z"/>
		</g>
		<g>
			<path class="st13" d="M257.5,143.3c-3.5,1-6.2,5.3-6.2,10.4c0,0.2,0,0.4,0,0.6h15.6c0-0.2,0-0.4,0-0.6c0-5.1-2.6-9.4-6.2-10.4
				c2-0.7,3.5-2.6,3.5-4.8c0-2.8-2.3-5-5.1-5s-5.1,2.3-5.1,5C254,140.7,255.4,142.6,257.5,143.3z"/>
			<g>
				<path class="st13" d="M246,143.4c-3,0.9-5.2,4.5-5.2,8.8c0,0.2,0,0.3,0,0.5h9.4c0.1-2.2,0.8-4.3,1.9-6.2
					c0.1-0.1,0.1-0.2,0.2-0.3c-0.9-1.4-2.1-2.4-3.5-2.8c1.7-0.6,2.9-2.1,2.9-4c0-2.3-1.9-4.2-4.3-4.2s-4.3,1.9-4.3,4.2
					C243.1,141.2,244.3,142.8,246,143.4z"/>
				<path class="st13" d="M269.4,143.4c-1.4,0.4-2.6,1.4-3.5,2.8c0.1,0.1,0.1,0.2,0.2,0.3c1.1,1.9,1.7,4,1.9,6.2h9.4
					c0-0.2,0-0.3,0-0.5c0-4.3-2.2-7.9-5.2-8.8c1.7-0.6,2.9-2.1,2.9-4c0-2.3-1.9-4.2-4.3-4.2c-2.4,0-4.3,1.9-4.3,4.2
					C266.5,141.2,267.7,142.8,269.4,143.4z"/>
			</g>
		</g>
	</g>
</g>
</svg>
