<?xml version="1.0" encoding="utf-8"?>
<!-- Generator: Adobe Illustrator 21.0.2, SVG Export Plug-In . SVG Version: 6.00 Build 0)  -->
<svg version="1.1" id="Layer_1" xmlns="http://www.w3.org/2000/svg" xmlns:xlink="http://www.w3.org/1999/xlink" x="0px" y="0px"
	 viewBox="0 0 152 152" style="enable-background:new 0 0 152 152;" xml:space="preserve">
<style type="text/css">
	.st0{clip-path:url(#SVGID_2_);fill:#C69836;}
	.st1{clip-path:url(#SVGID_4_);fill:#FDD14F;}
	.st2{clip-path:url(#SVGID_6_);fill:#FDD14F;}
	.st3{clip-path:url(#SVGID_8_);fill:#C69836;}
	.st4{clip-path:url(#SVGID_10_);fill:#C69836;}
	.st5{clip-path:url(#SVGID_12_);fill:#FDD14F;}
	.st6{clip-path:url(#SVGID_14_);fill:#E49574;}
	.st7{clip-path:url(#SVGID_16_);fill:#A74B46;}
</style>
<g>
	<g>
		<g>
			<g>
				<g>
					<defs>
						<rect id="SVGID_1_" x="19.4" y="19.3" width="113.1" height="113.4"/>
					</defs>
					<clipPath id="SVGID_2_">
						<use xlink:href="#SVGID_1_"  style="overflow:visible;"/>
					</clipPath>
					<path class="st0" d="M114.1,29.9h8.5V19.3C122.6,24,118.8,29.9,114.1,29.9"/>
				</g>
			</g>
		</g>
	</g>
	<g>
		<g>
			<g>
				<g>
					<defs>
						<rect id="SVGID_3_" x="19.4" y="19.3" width="113.1" height="113.4"/>
					</defs>
					<clipPath id="SVGID_4_">
						<use xlink:href="#SVGID_3_"  style="overflow:visible;"/>
					</clipPath>
					<path class="st1" d="M122.6,19.3v10.6h8.5C126.4,29.9,122.6,24,122.6,19.3"/>
				</g>
			</g>
		</g>
	</g>
	<g>
		<g>
			<g>
				<g>
					<defs>
						<rect id="SVGID_5_" x="19.4" y="19.3" width="113.1" height="113.4"/>
					</defs>
					<clipPath id="SVGID_6_">
						<use xlink:href="#SVGID_5_"  style="overflow:visible;"/>
					</clipPath>
					<path class="st2" d="M122.6,38.4v-8.5h-8.5C118.8,29.9,122.6,33.7,122.6,38.4"/>
				</g>
			</g>
		</g>
	</g>
	<g>
		<g>
			<g>
				<g>
					<defs>
						<rect id="SVGID_7_" x="19.4" y="19.3" width="113.1" height="113.4"/>
					</defs>
					<clipPath id="SVGID_8_">
						<use xlink:href="#SVGID_7_"  style="overflow:visible;"/>
					</clipPath>
					<path class="st3" d="M131.1,29.9h-8.5v8.5C122.6,33.7,126.4,29.9,131.1,29.9"/>
				</g>
			</g>
		</g>
	</g>
	<g>
		<g>
			<g>
				<g>
					<defs>
						<rect id="SVGID_9_" x="19.4" y="19.3" width="113.1" height="113.4"/>
					</defs>
					<clipPath id="SVGID_10_">
						<use xlink:href="#SVGID_9_"  style="overflow:visible;"/>
					</clipPath>
					<path class="st4" d="M113.5,38.7c0-0.2-0.2-0.3-0.3-0.3H45.7c-0.2,0-0.2,0.1-0.1,0.2l86.8,93.8c0.1,0.1,0.2,0.1,0.1-0.1
						L113.5,38.7z"/>
				</g>
			</g>
		</g>
	</g>
	<g>
		<g>
			<g>
				<g>
					<defs>
						<rect id="SVGID_11_" x="19.4" y="19.3" width="113.1" height="113.4"/>
					</defs>
					<clipPath id="SVGID_12_">
						<use xlink:href="#SVGID_11_"  style="overflow:visible;"/>
					</clipPath>
					<path class="st5" d="M132.4,132.4L45.6,38.6c-0.1-0.1-0.2-0.1-0.3,0.1L34.7,87.9h47.4c1.7,0,3.1,1.4,3.1,3.1v41.5
						c0,0.1,0,0.1,0,0.2h47.2C132.4,132.6,132.6,132.5,132.4,132.4"/>
				</g>
			</g>
		</g>
	</g>
	<g>
		<g>
			<g>
				<g>
					<defs>
						<rect id="SVGID_13_" x="19.4" y="19.3" width="113.1" height="113.4"/>
					</defs>
					<clipPath id="SVGID_14_">
						<use xlink:href="#SVGID_13_"  style="overflow:visible;"/>
					</clipPath>
					<path class="st6" d="M51,126.3h24.7c0.1,0,0.2-0.1,0.2-0.2V97.2c0-0.1-0.1-0.2-0.2-0.2H51c-0.1,0-0.2,0.1-0.2,0.2v5v0.2
						c-5.1,0-9.2,4.1-9.2,9.2s4.1,9.2,9.2,9.2c0,0,0,0.1,0,0.2v5C50.8,126.2,50.9,126.3,51,126.3"/>
				</g>
			</g>
		</g>
	</g>
	<g>
		<g>
			<g>
				<g>
					<defs>
						<rect id="SVGID_15_" x="19.4" y="19.3" width="113.1" height="113.4"/>
					</defs>
					<clipPath id="SVGID_16_">
						<use xlink:href="#SVGID_15_"  style="overflow:visible;"/>
					</clipPath>
					<path class="st7" d="M78.1,128.2c0,0.1-0.1,0.2-0.2,0.2H23.7c-0.1,0-0.1-0.1-0.1-0.1V95.1c0-0.1,0.1-0.2,0.2-0.2h54
						c0.1,0,0.2,0.1,0.2,0.2L78.1,128.2L78.1,128.2z M82.1,90.7H19.6c-0.1,0-0.2,0.1-0.2,0.2v37.5v4.1c0,0.1,0,0.1,0.1,0.1h4.1h58.5
						c0.1,0,0.2-0.1,0.2-0.2V90.9C82.3,90.8,82.2,90.7,82.1,90.7"/>
				</g>
			</g>
		</g>
	</g>
</g>
</svg>
