<!-- Generated by IcoMoon.io -->
<svg version="1.1" xmlns="http://www.w3.org/2000/svg" width="32" height="32" viewBox="0 0 32 32">
<title>chat</title>
<path d="M25.152 13.728q0 2.496-1.664 4.576t-4.576 3.328-6.304 1.216q-1.536 0-3.136-0.288-2.208 1.568-4.96 2.272-0.64 0.16-1.536 0.288h-0.064q-0.192 0-0.352-0.128t-0.192-0.384q-0.032-0.064-0.032-0.128t0-0.128 0.032-0.096l0.032-0.096t0.064-0.096 0.064-0.096 0.096-0.096 0.064-0.096q0.096-0.096 0.416-0.448t0.48-0.512 0.416-0.512 0.448-0.672 0.352-0.8q-2.208-1.28-3.488-3.168t-1.28-4q0-2.496 1.664-4.576t4.576-3.328 6.304-1.216 6.304 1.216 4.576 3.328 1.664 4.576zM32 18.304q0 2.144-1.28 4t-3.488 3.136q0.192 0.416 0.352 0.8t0.448 0.672 0.416 0.512 0.48 0.512 0.416 0.448q0.032 0.032 0.064 0.096t0.096 0.096 0.064 0.096 0.064 0.096l0.032 0.096t0.032 0.096 0 0.128-0.032 0.128q-0.064 0.256-0.224 0.384t-0.384 0.128q-0.896-0.128-1.536-0.288-2.752-0.704-4.96-2.272-1.6 0.288-3.136 0.288-4.832 0-8.416-2.368 1.024 0.064 1.568 0.064 2.88 0 5.504-0.8t4.704-2.304q2.24-1.632 3.424-3.776t1.184-4.544q0-1.376-0.416-2.72 2.304 1.28 3.648 3.168t1.344 4.096z"></path>
</svg>
