<!-- Generated by IcoMoon.io -->
<svg version="1.1" xmlns="http://www.w3.org/2000/svg" width="32" height="32" viewBox="0 0 32 32">
<title>comment-empty</title>
<path d="M16 6.848q-3.648 0-6.816 1.248t-5.024 3.36-1.856 4.544q0 1.984 1.28 3.808t3.584 3.136l1.568 0.896-0.48 1.728q-0.416 1.632-1.248 3.072 2.72-1.12 4.896-3.040l0.768-0.672 1.024 0.096q1.248 0.128 2.336 0.128 3.648 0 6.816-1.248t5.024-3.36 1.856-4.544-1.856-4.544-5.024-3.36-6.816-1.248zM32 16q0 3.104-2.144 5.728t-5.824 4.16-8.032 1.536q-1.248 0-2.592-0.128-3.52 3.136-8.224 4.32-0.864 0.256-2.048 0.384h-0.096q-0.256 0-0.48-0.192t-0.288-0.48v-0.032q-0.064-0.064 0-0.224t0.032-0.192 0.096-0.16l0.096-0.16t0.128-0.16 0.128-0.16q0.128-0.128 0.544-0.608t0.608-0.672 0.544-0.704 0.576-0.896 0.48-1.056 0.48-1.344q-2.816-1.6-4.416-3.936t-1.6-5.024q0-3.104 2.144-5.728t5.824-4.16 8.032-1.536 8.032 1.536 5.824 4.16 2.144 5.728z"></path>
</svg>
