<!-- Generated by IcoMoon.io -->
<svg version="1.1" xmlns="http://www.w3.org/2000/svg" width="27" height="32" viewBox="0 0 27 32">
<title>plus-circled</title>
<path d="M21.728 17.152v-2.272q0-0.48-0.352-0.8t-0.8-0.352h-4.576v-4.576q0-0.48-0.352-0.8t-0.8-0.352h-2.272q-0.48 0-0.8 0.352t-0.352 0.8v4.576h-4.576q-0.48 0-0.8 0.352t-0.352 0.8v2.272q0 0.48 0.352 0.8t0.8 0.352h4.576v4.576q0 0.48 0.352 0.8t0.8 0.352h2.272q0.48 0 0.8-0.352t0.352-0.8v-4.576h4.576q0.48 0 0.8-0.352t0.352-0.8zM27.456 16q0 3.744-1.824 6.88t-4.992 4.992-6.88 1.824-6.88-1.824-4.992-4.992-1.824-6.88 1.824-6.88 4.992-4.992 6.88-1.824 6.88 1.824 4.992 4.992 1.824 6.88z"></path>
</svg>
