<?xml version="1.0" encoding="utf-8"?>
<!-- Generator: Adobe Illustrator 21.1.0, SVG Export Plug-In . SVG Version: 6.00 Build 0)  -->
<svg version="1.1" id="Layer_1" xmlns="http://www.w3.org/2000/svg" xmlns:xlink="http://www.w3.org/1999/xlink" x="0px" y="0px"
	 viewBox="0 0 160 160" style="enable-background:new 0 0 160 160;" xml:space="preserve">
<style type="text/css">
	.st0{fill:#574239;}
	.st1{opacity:0.25;}
	.st2{clip-path:url(#SVGID_2_);fill:#978B86;}
	.st3{fill:#958883;}
	.st4{clip-path:url(#SVGID_4_);fill:#554741;}
	.st5{clip-path:url(#SVGID_4_);fill:none;stroke:#E2DDCB;stroke-width:2;stroke-linecap:round;stroke-linejoin:round;}
	
		.st6{clip-path:url(#SVGID_4_);fill:none;stroke:#72635D;stroke-width:1.096;stroke-linecap:round;stroke-linejoin:round;stroke-miterlimit:10;}
	.st7{clip-path:url(#SVGID_4_);fill:#341F18;}
	.st8{clip-path:url(#SVGID_4_);fill:#A59482;}
	.st9{clip-path:url(#SVGID_4_);fill:#72635D;}
	
		.st10{clip-path:url(#SVGID_4_);fill:none;stroke:#554741;stroke-width:1.096;stroke-linecap:round;stroke-linejoin:round;stroke-miterlimit:10;}
	.st11{clip-path:url(#SVGID_4_);fill:#E2DDCB;}
	.st12{clip-path:url(#SVGID_4_);fill:#341D13;}
	.st13{clip-path:url(#SVGID_4_);fill:#574239;}
	.st14{fill:#E2DDCB;}
</style>
<g>
	<g>
		<path class="st0" d="M80,158c-43,0-78-35-78-78S37,2,80,2c43,0,78,35,78,78S123,158,80,158"/>
		<g class="st1">
			<g>
				<defs>
					<rect id="SVGID_1_" x="2" y="80" width="156" height="78"/>
				</defs>
				<clipPath id="SVGID_2_">
					<use xlink:href="#SVGID_1_"  style="overflow:visible;"/>
				</clipPath>
				<path class="st2" d="M80,158c43,0,78-35,78-78H2C2,123,37,158,80,158"/>
			</g>
		</g>
		<path class="st3" d="M80,3.9c42,0,76.1,34.1,76.1,76.1S122,156.1,80,156.1C38,156.1,3.9,122,3.9,80S38,3.9,80,3.9 M80,0.1
			C36,0.1,0.1,36,0.1,80c0,44,35.8,79.9,79.9,79.9c44,0,79.9-35.8,79.9-79.9C159.9,36,124,0.1,80,0.1"/>
	</g>
	<g>
		<defs>
			<path id="SVGID_3_" d="M3.5,80c0,42.2,34.3,76.5,76.5,76.5c42.2,0,76.5-34.3,76.5-76.5c0-42.2-34.3-76.5-76.5-76.5
				C37.8,3.5,3.5,37.8,3.5,80"/>
		</defs>
		<clipPath id="SVGID_4_">
			<use xlink:href="#SVGID_3_"  style="overflow:visible;"/>
		</clipPath>
		<path class="st4" d="M18,41.7C18,41.8,18,41.8,18,41.7c0.2,1.2,0.5,2.4,0.8,3.6c0.1,0.5,0.3,1.1,0.4,1.6c0.1,0.4,0.2,0.9,0.4,1.3
			c0.3,1.2,0.6,2.3,1,3.2c0,0,0,0,0,0.1c0.5,1.5,1.9,2.7,3.7,3.1c0.6,0.2,1.3,0.2,1.9,0.2c0.1,0,0.2,0,0.3,0
			c3.2,7.9,6.1,16.2,8.6,24.6c0.1,0.2,0.1,0.4,0.3,0.6c0.3,1.7,0.6,3.2,1,4.5c0,0,0,0,0,0.1c0.4,1.7,1.8,3,3.8,3.5
			c0.6,0.2,1.3,0.2,1.9,0.2c0.4,0,0.7-0.1,1.1-0.2c3.5,11.7,6.7,23.9,9.4,36.4c0.4,2,2.3,3.5,4.7,3.7c0.3,0,0.7,0,1,0
			c1.5-0.1,2.9-0.7,3.8-1.7c0.6,1.4,1.3,2.7,2,4c0.4,0.8,0.8,1.5,1.3,2.3l0.1,0.1c0.4,0.7,0.8,1.4,1.3,2.1l0.1,0.2
			c0.4,0.7,0.8,1.3,1.3,1.9l0.1,0.1l0.2,0.2c0.4,0.6,0.8,1.2,1.2,1.8l0.1,0.1c0.1,0.1,0.1,0.2,0.2,0.3c0.4,0.6,0.8,1.1,1.3,1.7
			l0.1,0.1c0.1,0.1,0.2,0.2,0.2,0.3c0.6,0.7,1.1,1.4,1.7,2c1.1,1.3,3,2,4.8,1.9c0.8,0,1.5-0.2,2.2-0.5c2.4-1.1,3.4-3.5,2.4-5.6
			c0-0.1-0.1-0.3-0.2-0.5c-0.4-1.1-0.3-2.6,0.2-4.1c0.2,0,0.5,0,0.7,0c3.4-0.2,6.9-1.5,9.9-3.6c0,0,0.1,0,0.1-0.1
			c0.2-0.1,0.3-0.3,0.5-0.4l0.1-0.1l0.1-0.1c0.2-0.1,0.3-0.2,0.4-0.3c0,0,0.1-0.1,0.1-0.1c0.1-0.1,0.2-0.2,0.3-0.3l0.1-0.1l0.2-0.2
			l0.1-0.1c0.1-0.1,0.2-0.2,0.4-0.3c0.1-0.1,0.1-0.1,0.2-0.2c0.1-0.1,0.1-0.1,0.2-0.2c0.1-0.1,0.2-0.2,0.3-0.3l0.1-0.1
			c0.1-0.1,0.2-0.2,0.4-0.4c0.1-0.1,0.1-0.2,0.2-0.2c0,0,0,0,0.1-0.1c0.1-0.1,0.2-0.2,0.3-0.3l0,0l0.1-0.1c0.1-0.1,0.2-0.3,0.3-0.4
			c0.1-0.1,0.1-0.2,0.2-0.2c0.1-0.1,0.2-0.3,0.3-0.4l0.1-0.1l0.1-0.1c0.1-0.1,0.2-0.3,0.3-0.4c0-0.1,0.1-0.1,0.1-0.2
			c0.1-0.2,0.2-0.4,0.3-0.5l0.1-0.1l0.1-0.1c0.1-0.1,0.2-0.3,0.3-0.4c0.2-0.4,0.4-0.7,0.6-1.1c0,0,0-0.1,0.1-0.1
			c1.5-3,2.4-6.3,2.8-10.1c0.3-2.5,0.3-4.9,0.3-7.2c0.6,0.5,1.5,0.9,2.4,1.1c0.6,0.1,1.2,0.2,1.8,0.1c1.8-0.1,3.5-1,4.4-2.4
			c0.5-0.8,1-1.7,1.4-2.6c0.2-0.4,0.4-0.8,0.6-1.1c0.1-0.1,0.1-0.3,0.2-0.4l0.1-0.2c0.4-0.8,0.9-1.6,1.3-2.3
			c0.1-0.1,0.1-0.3,0.2-0.4l0.1-0.2c0.4-0.8,0.8-1.6,1.2-2.5c0.1-0.1,0.1-0.2,0.2-0.3l0.1-0.2c0.5-1,0.9-1.9,1.2-2.7l0.1-0.2l0-0.1
			c0.4-1,0.8-2,1.2-2.9l0-0.1c0.4-1,0.8-2.1,1.2-3.2c0,0,0,0,0-0.1c0.3-0.9,0.6-1.7,0.9-2.6c1.7-1,2.6-2.8,2.1-4.7l-0.4-1.5
			c0,0,0-0.1,0-0.1c0.4,0.6,0.9,1.1,1.2,1.6c1.1,1.5,3,2.3,5,2.2c0.3,0,0.7-0.1,1-0.1c2.3-0.5,4-2.2,4.1-4.2
			c0.8-17.7,2.4-35.1,4.7-51.8c0.9,0.4,1.9,0.6,2.9,0.5c0.6,0,1.3-0.2,1.9-0.4c1.8-0.7,3.1-2.2,3.2-3.8c0.1-1.4,0.2-2.8,0.2-4.5
			l0-0.3l0-0.2c0-0.5,0-1,0.1-1.5c0.1-0.2,0.1-0.5,0.2-0.8l0-0.1l0-0.2c1.6-12,3.7-23.8,6.3-35.2c0.6,0.1,1.2,0.2,1.8,0.1
			c0.6,0,1.2-0.2,1.8-0.4c1.7-0.6,2.9-1.9,3.1-3.5c0,0,0-0.1,0-0.2c0.6-4,1-8.4,1.2-13.2c0-0.8-0.2-1.5-0.6-2.1
			c-0.1-17.4-1.9-42.5-2.8-56.3c-0.2-2.4-0.3-4.4-0.4-6c-0.2-2.3-0.3-5.1-2-7.9c-1.5-2.5-4.1-4.3-6.9-5.1l-0.2-0.4
			c-0.7-1.4-2.2-2.4-3.9-2.7c-2.6-0.5-5.2-0.9-7.9-1.1h0c-0.6,0-1.2-0.1-1.7-0.1c-0.1,0-0.2,0-0.3,0c-0.5,0-1.1,0-1.6,0
			c-0.2,0-0.4,0-0.5,0l-0.1,0l-0.1,0l-0.2,0l-0.5,0c-0.2,0-0.4,0-0.5,0c-0.7,0.1-1.3,0.1-1.9,0.2c0,0-0.1,0-0.1,0
			c-1.2,0.2-2.3,0.5-3.4,0.8c-3.3,1.1-6,2.8-7.9,5l-0.1,0.1c-0.4,0.4-0.7,0.8-0.9,1.2c0,0,0,0.1-0.1,0.1c-0.3,0.5-0.5,0.9-0.8,1.4
			c0,0.1-0.1,0.2-0.1,0.3c-0.2,0.6-0.4,1-0.5,1.5c-0.1,0.4-0.2,0.9-0.2,1.3c-2.2,6-4,14.9-5.6,22.8c-0.7,3.5-1.4,6.8-2,9.5
			c0,0.1-0.1,0.2-0.1,0.3c-1.7,0.6-3.4,1.3-5.1,2.1c-0.9,0.4-1.6,0.8-2.4,1.2l-0.2,0.1c-0.8,0.4-1.6,0.8-2.4,1.3
			c-0.9,0.5-1.8,1.1-2.7,1.8c-1.1-0.3-2.3-0.4-3.4-0.4c-0.5,0-1.1,0-1.6,0c-1.5,0.1-3,0.3-4.4,0.7c0,0-0.1,0-0.2,0
			c-0.4,0.1-0.8,0.2-1.2,0.3c-0.1,0-0.2,0.1-0.3,0.1c-0.1,0-0.2,0.1-0.3,0.1c-0.5,0.2-1,0.3-1.5,0.5l-0.2,0.1
			c-0.5,0.2-1,0.4-1.5,0.6l-0.2,0.1c-0.5,0.2-1,0.5-1.5,0.7c-1.9,1-3.7,2.1-5.2,3l-0.2,0.1c-0.4-0.3-0.8-0.6-1.2-0.8
			c-0.9-0.4-2-0.6-3-0.5c-0.5,0-1,0.1-1.4,0.2L67-64.6c-1.5,0.4-3,0.8-4.8,1.2l-0.3,0.1c-0.3,0.1-0.6,0.2-0.8,0.2
			c-1.4,0.4-2.9,0.8-4.3,1.3c-0.6,0.2-1.2,0.4-1.9,0.6c-0.9,0.3-1.8,0.6-2.7,0.9c-1.2,0.4-2.4,0.9-3.7,1.4c-0.4,0.2-0.9,0.3-1.3,0.5
			c-7.8,3.1-15.2,6.9-21.8,11.2c-1.9,1.2-2.6,3.4-1.7,5.3c0.9,1.9,2.2,4.6,4.4,6.9c0,0,0,0,0,0c0.5,0.6,1.1,1,1.6,1.4
			c0.4,0.3,0.8,0.6,1.2,0.8l-3.4,2.3l-0.3,0.2L27.2-30c-0.5,0.3-1.1,0.8-1.7,1.3c0,0,0,0,0,0c-0.6,0.5-1.1,1.1-1.5,1.6
			c-0.3,0.3-0.5,0.7-0.7,1.1c-0.4,0.8-0.7,1.7-0.8,2.6c-0.1,1,0,2,0.3,3.1c0.4,1.3,1,2.4,1.4,3.2c0.1,0.1,0.2,0.3,0.2,0.4
			c0.4,0.7,0.8,1.4,1.3,2.1c0.1,0.2,0.2,0.3,0.3,0.5l0.1,0.2c0.3,0.5,0.6,0.9,1,1.4c0.2,0.2,0.3,0.4,0.5,0.6l0.1,0.1
			c0.3,0.4,0.6,0.8,0.9,1.2c0.2,0.3,0.4,0.5,0.6,0.8c0.3,0.4,0.6,0.8,0.9,1.1c0.2,0.3,0.5,0.5,0.7,0.8c0.3,0.4,0.7,0.7,1,1.1L32-6.6
			c0.2,0.2,0.3,0.4,0.5,0.6c0.3,0.4,0.7,0.7,1.1,1.1l0.2,0.2c0.1,0.2,0.3,0.3,0.4,0.5c0.5,0.5,1,1,1.5,1.5c0.3,0.3,0.6,0.6,0.9,0.9
			l0.1,0.1L37-1.5l0.2,0.2c0,0,0,0,0.1,0.1l0.1,0.1l0.3,0.3c0.4,0.3,0.7,0.7,1.1,1l0.1,0.1L39,0.3l0.1,0.1l0.4,0.3
			c0.4,0.4,0.8,0.8,1.3,1.1L40.8,2l0.4,0.3c0.5,0.4,1,0.9,1.5,1.3c0.9,0.8,1.9,1.6,2.8,2.5c-1.2-0.2-2.5-0.3-3.7-0.2c0,0,0,0,0,0
			c-0.2-0.1-0.4-0.2-0.6-0.2c-0.2-0.1-0.4-0.1-0.6-0.2c-0.2-0.1-0.3-0.1-0.5-0.1c-1.5-0.5-3-0.7-4.5-0.8c0,0-0.1,0-0.1,0
			c-0.5,0-1,0-1.5,0c-0.1,0-0.3,0-0.4,0l-0.3,0l-0.1,0l-0.1,0l-0.1,0c-0.2,0-0.3,0-0.5,0c-0.4,0-0.8,0.1-1.2,0.1l-0.2,0
			c-0.4,0.1-0.9,0.1-1.3,0.2c0,0,0,0,0,0c-2,0.4-4,0.9-5.9,1.5c-1.6,0.5-2.9,1.6-3.4,3c-2.1,1-3.8,2.7-4.6,4.8
			c-1,2.4-0.7,4.7-0.6,6.4C15.8,27.1,16.6,34.5,18,41.7"/>
		<path class="st5" d="M18,41.7C18,41.8,18,41.8,18,41.7c0.2,1.2,0.5,2.4,0.8,3.6c0.1,0.5,0.3,1.1,0.4,1.6c0.1,0.4,0.2,0.9,0.4,1.3
			c0.3,1.2,0.6,2.3,1,3.2c0,0,0,0,0,0.1c0.5,1.5,1.9,2.7,3.7,3.1c0.6,0.2,1.3,0.2,1.9,0.2c0.1,0,0.2,0,0.3,0
			c3.2,7.9,6.1,16.2,8.6,24.6c0.1,0.2,0.1,0.4,0.3,0.6c0.3,1.7,0.6,3.2,1,4.5c0,0,0,0,0,0.1c0.4,1.7,1.8,3,3.8,3.5
			c0.6,0.2,1.3,0.2,1.9,0.2c0.4,0,0.7-0.1,1.1-0.2c3.5,11.7,6.7,23.9,9.4,36.4c0.4,2,2.3,3.5,4.7,3.7c0.3,0,0.7,0,1,0
			c1.5-0.1,2.9-0.7,3.8-1.7c0.6,1.4,1.3,2.7,2,4c0.4,0.8,0.8,1.5,1.3,2.3l0.1,0.1c0.4,0.7,0.8,1.4,1.3,2.1l0.1,0.2
			c0.4,0.7,0.8,1.3,1.3,1.9l0.1,0.1l0.2,0.2c0.4,0.6,0.8,1.2,1.2,1.8l0.1,0.1c0.1,0.1,0.1,0.2,0.2,0.3c0.4,0.6,0.8,1.1,1.3,1.7
			l0.1,0.1c0.1,0.1,0.2,0.2,0.2,0.3c0.6,0.7,1.1,1.4,1.7,2c1.1,1.3,3,2,4.8,1.9c0.8,0,1.5-0.2,2.2-0.5c2.4-1.1,3.4-3.5,2.4-5.6
			c0-0.1-0.1-0.3-0.2-0.5c-0.4-1.1-0.3-2.6,0.2-4.1c0.2,0,0.5,0,0.7,0c3.4-0.2,6.9-1.5,9.9-3.6c0,0,0.1,0,0.1-0.1
			c0.2-0.1,0.3-0.3,0.5-0.4l0.1-0.1l0.1-0.1c0.2-0.1,0.3-0.2,0.4-0.3c0,0,0.1-0.1,0.1-0.1c0.1-0.1,0.2-0.2,0.3-0.3l0.1-0.1l0.2-0.2
			l0.1-0.1c0.1-0.1,0.2-0.2,0.4-0.3c0.1-0.1,0.1-0.1,0.2-0.2c0.1-0.1,0.1-0.1,0.2-0.2c0.1-0.1,0.2-0.2,0.3-0.3l0.1-0.1
			c0.1-0.1,0.2-0.2,0.4-0.4c0.1-0.1,0.1-0.2,0.2-0.2c0,0,0,0,0.1-0.1c0.1-0.1,0.2-0.2,0.3-0.3l0,0l0.1-0.1c0.1-0.1,0.2-0.3,0.3-0.4
			c0.1-0.1,0.1-0.2,0.2-0.2c0.1-0.1,0.2-0.3,0.3-0.4l0.1-0.1l0.1-0.1c0.1-0.1,0.2-0.3,0.3-0.4c0-0.1,0.1-0.1,0.1-0.2
			c0.1-0.2,0.2-0.4,0.3-0.5l0.1-0.1l0.1-0.1c0.1-0.1,0.2-0.3,0.3-0.4c0.2-0.4,0.4-0.7,0.6-1.1c0,0,0-0.1,0.1-0.1
			c1.5-3,2.4-6.3,2.8-10.1c0.3-2.5,0.3-4.9,0.3-7.2c0.6,0.5,1.5,0.9,2.4,1.1c0.6,0.1,1.2,0.2,1.8,0.1c1.8-0.1,3.5-1,4.4-2.4
			c0.5-0.8,1-1.7,1.4-2.6c0.2-0.4,0.4-0.8,0.6-1.1c0.1-0.1,0.1-0.3,0.2-0.4l0.1-0.2c0.4-0.8,0.9-1.6,1.3-2.3
			c0.1-0.1,0.1-0.3,0.2-0.4l0.1-0.2c0.4-0.8,0.8-1.6,1.2-2.5c0.1-0.1,0.1-0.2,0.2-0.3l0.1-0.2c0.5-1,0.9-1.9,1.2-2.7l0.1-0.2l0-0.1
			c0.4-1,0.8-2,1.2-2.9l0-0.1c0.4-1,0.8-2.1,1.2-3.2c0,0,0,0,0-0.1c0.3-0.9,0.6-1.7,0.9-2.6c1.7-1,2.6-2.8,2.1-4.7l-0.4-1.5
			c0,0,0-0.1,0-0.1c0.4,0.6,0.9,1.1,1.2,1.6c1.1,1.5,3,2.3,5,2.2c0.3,0,0.7-0.1,1-0.1c2.3-0.5,4-2.2,4.1-4.2
			c0.8-17.7,2.4-35.1,4.7-51.8c0.9,0.4,1.9,0.6,2.9,0.5c0.6,0,1.3-0.2,1.9-0.4c1.8-0.7,3.1-2.2,3.2-3.8c0.1-1.4,0.2-2.8,0.2-4.5
			l0-0.3l0-0.2c0-0.5,0-1,0.1-1.5c0.1-0.2,0.1-0.5,0.2-0.8l0-0.1l0-0.2c1.6-12,3.7-23.8,6.3-35.2c0.6,0.1,1.2,0.2,1.8,0.1
			c0.6,0,1.2-0.2,1.8-0.4c1.7-0.6,2.9-1.9,3.1-3.5c0,0,0-0.1,0-0.2c0.6-4,1-8.4,1.2-13.2c0-0.8-0.2-1.5-0.6-2.1
			c-0.1-17.4-1.9-42.5-2.8-56.3c-0.2-2.4-0.3-4.4-0.4-6c-0.2-2.3-0.3-5.1-2-7.9c-1.5-2.5-4.1-4.3-6.9-5.1l-0.2-0.4
			c-0.7-1.4-2.2-2.4-3.9-2.7c-2.6-0.5-5.2-0.9-7.9-1.1h0c-0.6,0-1.2-0.1-1.7-0.1c-0.1,0-0.2,0-0.3,0c-0.5,0-1.1,0-1.6,0
			c-0.2,0-0.4,0-0.5,0l-0.1,0l-0.1,0l-0.2,0l-0.5,0c-0.2,0-0.4,0-0.5,0c-0.7,0.1-1.3,0.1-1.9,0.2c0,0-0.1,0-0.1,0
			c-1.2,0.2-2.3,0.5-3.4,0.8c-3.3,1.1-6,2.8-7.9,5l-0.1,0.1c-0.4,0.4-0.7,0.8-0.9,1.2c0,0,0,0.1-0.1,0.1c-0.3,0.5-0.5,0.9-0.8,1.4
			c0,0.1-0.1,0.2-0.1,0.3c-0.2,0.6-0.4,1-0.5,1.5c-0.1,0.4-0.2,0.9-0.2,1.3c-2.2,6-4,14.9-5.6,22.8c-0.7,3.5-1.4,6.8-2,9.5
			c0,0.1-0.1,0.2-0.1,0.3c-1.7,0.6-3.4,1.3-5.1,2.1c-0.9,0.4-1.6,0.8-2.4,1.2l-0.2,0.1c-0.8,0.4-1.6,0.8-2.4,1.3
			c-0.9,0.5-1.8,1.1-2.7,1.8c-1.1-0.3-2.3-0.4-3.4-0.4c-0.5,0-1.1,0-1.6,0c-1.5,0.1-3,0.3-4.4,0.7c0,0-0.1,0-0.2,0
			c-0.4,0.1-0.8,0.2-1.2,0.3c-0.1,0-0.2,0.1-0.3,0.1c-0.1,0-0.2,0.1-0.3,0.1c-0.5,0.2-1,0.3-1.5,0.5l-0.2,0.1
			c-0.5,0.2-1,0.4-1.5,0.6l-0.2,0.1c-0.5,0.2-1,0.5-1.5,0.7c-1.9,1-3.7,2.1-5.2,3l-0.2,0.1c-0.4-0.3-0.8-0.6-1.2-0.8
			c-0.9-0.4-2-0.6-3-0.5c-0.5,0-1,0.1-1.4,0.2L67-64.6c-1.5,0.4-3,0.8-4.8,1.2l-0.3,0.1c-0.3,0.1-0.6,0.2-0.8,0.2
			c-1.4,0.4-2.9,0.8-4.3,1.3c-0.6,0.2-1.2,0.4-1.9,0.6c-0.9,0.3-1.8,0.6-2.7,0.9c-1.2,0.4-2.4,0.9-3.7,1.4c-0.4,0.2-0.9,0.3-1.3,0.5
			c-7.8,3.1-15.2,6.9-21.8,11.2c-1.9,1.2-2.6,3.4-1.7,5.3c0.9,1.9,2.2,4.6,4.4,6.9c0,0,0,0,0,0c0.5,0.6,1.1,1,1.6,1.4
			c0.4,0.3,0.8,0.6,1.2,0.8l-3.4,2.3l-0.3,0.2L27.2-30c-0.5,0.3-1.1,0.8-1.7,1.3c0,0,0,0,0,0c-0.6,0.5-1.1,1.1-1.5,1.6
			c-0.3,0.3-0.5,0.7-0.7,1.1c-0.4,0.8-0.7,1.7-0.8,2.6c-0.1,1,0,2,0.3,3.1c0.4,1.3,1,2.4,1.4,3.2c0.1,0.1,0.2,0.3,0.2,0.4
			c0.4,0.7,0.8,1.4,1.3,2.1c0.1,0.2,0.2,0.3,0.3,0.5l0.1,0.2c0.3,0.5,0.6,0.9,1,1.4c0.2,0.2,0.3,0.4,0.5,0.6l0.1,0.1
			c0.3,0.4,0.6,0.8,0.9,1.2c0.2,0.3,0.4,0.5,0.6,0.8c0.3,0.4,0.6,0.8,0.9,1.1c0.2,0.3,0.5,0.5,0.7,0.8c0.3,0.4,0.7,0.7,1,1.1L32-6.6
			c0.2,0.2,0.3,0.4,0.5,0.6c0.3,0.4,0.7,0.7,1.1,1.1l0.2,0.2c0.1,0.2,0.3,0.3,0.4,0.5c0.5,0.5,1,1,1.5,1.5c0.3,0.3,0.6,0.6,0.9,0.9
			l0.1,0.1L37-1.5l0.2,0.2c0,0,0,0,0.1,0.1l0.1,0.1l0.3,0.3c0.4,0.3,0.7,0.7,1.1,1l0.1,0.1L39,0.3l0.1,0.1l0.4,0.3
			c0.4,0.4,0.8,0.8,1.3,1.1L40.8,2l0.4,0.3c0.5,0.4,1,0.9,1.5,1.3c0.9,0.8,1.9,1.6,2.8,2.5c-1.2-0.2-2.5-0.3-3.7-0.2c0,0,0,0,0,0
			c-0.2-0.1-0.4-0.2-0.6-0.2c-0.2-0.1-0.4-0.1-0.6-0.2c-0.2-0.1-0.3-0.1-0.5-0.1c-1.5-0.5-3-0.7-4.5-0.8c0,0-0.1,0-0.1,0
			c-0.5,0-1,0-1.5,0c-0.1,0-0.3,0-0.4,0l-0.3,0l-0.1,0l-0.1,0l-0.1,0c-0.2,0-0.3,0-0.5,0c-0.4,0-0.8,0.1-1.2,0.1l-0.2,0
			c-0.4,0.1-0.9,0.1-1.3,0.2c0,0,0,0,0,0c-2,0.4-4,0.9-5.9,1.5c-1.6,0.5-2.9,1.6-3.4,3c-2.1,1-3.8,2.7-4.6,4.8
			c-1,2.4-0.7,4.7-0.6,6.4C15.8,27.1,16.6,34.5,18,41.7z"/>
		<path class="st4" d="M95.7,88.8c2.9-16,20.8-26.4,27-41.7c0.4-1,0.8-2.2,0.5-3.2c-0.4-1.3-1.7-2-2.8-2.6c-2.6-1.3-5.2-2.6-7.8-4
			c-4.3-2.2-8.7-4.4-14.2-3.4c-1.4,0.3-2.8,1-4,1.8c-0.3,0.2-0.5,0.4-0.7,0.6c-0.3,0.5-0.3,1.2-0.3,1.8c1,15.5,1.9,31,2.9,46.4
			l-0.4,4.3C96.1,89.2,95.7,88.5,95.7,88.8"/>
		<path class="st6" d="M95.7,88.8c2.9-16,20.8-26.4,27-41.7c0.4-1,0.8-2.2,0.5-3.2c-0.4-1.3-1.7-2-2.8-2.6c-2.6-1.3-5.2-2.6-7.8-4
			c-4.3-2.2-8.7-4.4-14.2-3.4c-1.4,0.3-2.8,1-4,1.8c-0.3,0.2-0.5,0.4-0.7,0.6c-0.3,0.5-0.3,1.2-0.3,1.8c1,15.5,1.9,31,2.9,46.4
			l-0.4,4.3C96.1,89.2,95.7,88.5,95.7,88.8z"/>
		<path class="st7" d="M109.2,35.7c-0.1,0.4-0.2,0.7-0.3,1c-1.8,5.5-4.9,10.6-7.5,15.8c-2.6,5.2-4.7,10.9-4.3,16.5l-1.9-7.2
			c-0.5-8.5-1-17.1-1.4-25.6c0.2-0.2,0.4-0.4,0.6-0.5c2.7-2,6.2-2.4,9.4-1.8C105.8,34.3,107.5,35,109.2,35.7"/>
		<path class="st6" d="M109.2,35.7c-0.1,0.4-0.2,0.7-0.3,1c-1.8,5.5-4.9,10.6-7.5,15.8c-2.6,5.2-4.7,10.9-4.3,16.5l-1.9-7.2
			c-0.5-8.5-1-17.1-1.4-25.6c0.2-0.2,0.4-0.4,0.6-0.5c2.7-2,6.2-2.4,9.4-1.8C105.8,34.3,107.5,35,109.2,35.7z"/>
		<path class="st8" d="M115.5,58.8c-7,8.8-15.8,16.7-19,26.7c-0.1-0.1-0.1-0.2-0.2-0.3l0.1-0.6c-0.1-1.3-0.2-2.7-0.3-4l0.3-4.1
			c3.9-2.8,6.3-7.2,7.9-11.6c1.6-4.4,2.4-9,4.1-13.4c1.4-3.8,3.5-7.5,6-10.9C115.6,46.6,115.9,52.7,115.5,58.8"/>
		<path class="st6" d="M115.5,58.8c-7,8.8-15.8,16.7-19,26.7c-0.1-0.1-0.1-0.2-0.2-0.3l0.1-0.6c-0.1-1.3-0.2-2.7-0.3-4l0.3-4.1
			c3.9-2.8,6.3-7.2,7.9-11.6c1.6-4.4,2.4-9,4.1-13.4c1.4-3.8,3.5-7.5,6-10.9C115.6,46.6,115.9,52.7,115.5,58.8z"/>
		<path class="st9" d="M82.4,131.9c5.8,1.5,12.3-3,15.1-8.6c2.8-5.6,2.8-11.9,2.6-17.9c-0.6-21.8-2.3-43.6-5.3-65
			c-0.2-1.6-0.5-3.2-1.3-4.5c-0.9-1.3-2.4-2.2-3.9-2.9c-4.1-2-8.6-3.3-13.2-4c-3.6,11.3-1.2,23,0.5,34.3c3.1,20.3,4.1,41,5,61.6
			l0.8,6.6C82.7,131.6,82.6,131.8,82.4,131.9"/>
		<path class="st10" d="M82.4,131.9c5.8,1.5,12.3-3,15.1-8.6c2.8-5.6,2.8-11.9,2.6-17.9c-0.6-21.8-2.3-43.6-5.3-65
			c-0.2-1.6-0.5-3.2-1.3-4.5c-0.9-1.3-2.4-2.2-3.9-2.9c-4.1-2-8.6-3.3-13.2-4c-3.6,11.3-1.2,23,0.5,34.3c3.1,20.3,4.1,41,5,61.6
			l0.8,6.6C82.7,131.6,82.6,131.8,82.4,131.9z"/>
		<path class="st11" d="M97.6,123.4c-2.8,5.6-9.3,10.1-15.1,8.6c0,0-2-0.3-2.1-0.4l1.8-1.4c3.1-1.1,6.4-2.6,7.5-5.6
			c0.4-1.2,0.5-2.4,0.5-3.6c-0.1-8.6-2.8-17.2,0.1-25.6c1,0,1.4,1.9,2.4,1.9c-2.6-9.6-1.4-22.3,2.1-32.1c1.3,4.2,2.7,8.4,4,12.6
			c0.7,9.2,1.1,18.5,1.4,27.8C100.4,111.5,100.4,117.8,97.6,123.4"/>
		<path class="st6" d="M97.6,123.4c-2.8,5.6-9.3,10.1-15.1,8.6c0,0-2-0.3-2.1-0.4l1.8-1.4c3.1-1.1,6.4-2.6,7.5-5.6
			c0.4-1.2,0.5-2.4,0.5-3.6c-0.1-8.6-2.8-17.2,0.1-25.6c1,0,1.4,1.9,2.4,1.9c-2.6-9.6-1.4-22.3,2.1-32.1c1.3,4.2,2.7,8.4,4,12.6
			c0.7,9.2,1.1,18.5,1.4,27.8C100.4,111.5,100.4,117.8,97.6,123.4z"/>
		<path class="st4" d="M63.8,119.9c-1.4,1.7-2.5,3.6-3.5,5.5c-2.8-13.1-6.1-26.1-10.1-38.8c-0.6-2.1-1.5-4.4-3.5-5.2
			c-0.4,1.6-1.3,3-2.5,4.1c-3.3-14.1-3.9-28.8-4.5-43.5c-0.1-2.2-0.2-4.5,0.7-6.7c0.8-2.2,2.8-4.1,5.1-4.2l1-3.2
			c3.9-1.5,8-3,12.1-2.9c4.1,0.1,8.3,2.1,9.5,5.9c0.7,2.3,0.2,4.8-0.1,7.2c-2.3,16.4,1.6,32.6,2.2,48.9c0.2,6.9-0.1,13.8-1.1,20.8
			c-0.3,2-0.6,4.1-1.5,6C66.6,115.9,65.2,117.9,63.8,119.9"/>
		<path class="st6" d="M63.8,119.9c-1.4,1.7-2.5,3.6-3.5,5.5c-2.8-13.1-6.1-26.1-10.1-38.8c-0.6-2.1-1.5-4.4-3.5-5.2
			c-0.4,1.6-1.3,3-2.5,4.1c-3.3-14.1-3.9-28.8-4.5-43.5c-0.1-2.2-0.2-4.5,0.7-6.7c0.8-2.2,2.8-4.1,5.1-4.2l1-3.2
			c3.9-1.5,8-3,12.1-2.9c4.1,0.1,8.3,2.1,9.5,5.9c0.7,2.3,0.2,4.8-0.1,7.2c-2.3,16.4,1.6,32.6,2.2,48.9c0.2,6.9-0.1,13.8-1.1,20.8
			c-0.3,2-0.6,4.1-1.5,6C66.6,115.9,65.2,117.9,63.8,119.9z"/>
		<path class="st11" d="M58.2,104.8c0.7-8.5-3.9-16.1-5.3-24.3c-0.7-4.1-0.7-8.4-0.6-12.7c0.2-10,0.3-20,0.5-29.9
			c1.4,22.5,5.2,44.7,10.6,66.4c0.3,1.2,0.6,2.5-0.2,3.6c-0.6,0.9-2,1.3-2.9,0.8c-0.9-0.5-1.3-1.8-0.8-2.7L58.2,104.8z"/>
		<path class="st6" d="M58.2,104.8c0.7-8.5-3.9-16.1-5.3-24.3c-0.7-4.1-0.7-8.4-0.6-12.7c0.2-10,0.3-20,0.5-29.9
			c1.4,22.5,5.2,44.7,10.6,66.4c0.3,1.2,0.6,2.5-0.2,3.6c-0.6,0.9-2,1.3-2.9,0.8c-0.9-0.5-1.3-1.8-0.8-2.7L58.2,104.8z"/>
		<path class="st11" d="M59.5,120.9c-1.1,1.5-2,3-2.8,4.6c-2.8-13.1-6.1-26.1-10.1-38.8c-0.6-2.1-1.5-4.4-3.5-5.2
			c-0.4,1.5-1.3,3-2.5,4.1c-1.1-4.4-1.8-9-2.4-13.5c1.7,3.1,4.7,5.5,8.2,4.8c1.5-0.3,3.4-1.1,4.4-0.1c0.4,0.4,0.5,0.9,0.6,1.3
			c2.1,7.2,3.3,14.8,3.6,22.4c0.1,1.2,0.1,2.4,0.9,3.3c0.9,1,2.5,1.1,3.5,2c0.9,0.9,1,2.3,1,3.7C60.4,113.2,60.1,117,59.5,120.9"/>
		<path class="st6" d="M59.5,120.9c-1.1,1.5-2,3-2.8,4.6c-2.8-13.1-6.1-26.1-10.1-38.8c-0.6-2.1-1.5-4.4-3.5-5.2
			c-0.4,1.5-1.3,3-2.5,4.1c-1.1-4.4-1.8-9-2.4-13.5c1.7,3.1,4.7,5.5,8.2,4.8c1.5-0.3,3.4-1.1,4.4-0.1c0.4,0.4,0.5,0.9,0.6,1.3
			c2.1,7.2,3.3,14.8,3.6,22.4c0.1,1.2,0.1,2.4,0.9,3.3c0.9,1,2.5,1.1,3.5,2c0.9,0.9,1,2.3,1,3.7C60.4,113.2,60.1,117,59.5,120.9z"/>
		<path class="st4" d="M60.3,108.6c2.1,13,8.8,24.6,17.2,34.4c-2-4.1-0.8-9.7,2.9-13.1c0.8-0.7,1.8-1.4,2.3-2.4
			c0.5-1,0.5-2.1,0.5-3.2c-0.1-5.9-0.3-11.7-0.4-17.6c0.3,0.9,1.5-0.4,1.4-1.4c-0.9-20.5,0.8-41.3-2.5-61.3c-0.7-4.1-1.6-8.2-4-11.5
			c-3.5-4.8-10.2-7-16.4-5.5c-2.7,24.1-5.5,45.5-1.5,68.9L60.3,108.6z"/>
		<path class="st6" d="M60.3,108.6c2.1,13,8.8,24.6,17.2,34.4c-2-4.1-0.8-9.7,2.9-13.1c0.8-0.7,1.8-1.4,2.3-2.4
			c0.5-1,0.5-2.1,0.5-3.2c-0.1-5.9-0.3-11.7-0.4-17.6c0.3,0.9,1.5-0.4,1.4-1.4c-0.9-20.5,0.8-41.3-2.5-61.3c-0.7-4.1-1.6-8.2-4-11.5
			c-3.5-4.8-10.2-7-16.4-5.5c-2.7,24.1-5.5,45.5-1.5,68.9L60.3,108.6z"/>
		<path class="st9" d="M73.2,108.3c0.4-4.4,0.9-8.9,0.6-13.3c-0.4-5.8-2.2-11.5-1-17.4c0.2,10.7-1.3,21.5-4.3,32
			c-0.3,1.1-0.7,2.3-0.6,3.4c0.1,1.4,1.1,2.5,1.5,3.8C72,125,72.6,114.2,73.2,108.3"/>
		<path class="st10" d="M73.2,108.3c0.4-4.4,0.9-8.9,0.6-13.3c-0.4-5.8-2.2-11.5-1-17.4c0.2,10.7-1.3,21.5-4.3,32
			c-0.3,1.1-0.7,2.3-0.6,3.4c0.1,1.4,1.1,2.5,1.5,3.8C72,125,72.6,114.2,73.2,108.3z"/>
		<path class="st11" d="M-73,172c-4.4-5.1-8-10.9-10.7-17c2.2-1.2,4.6-2.1,7.1-2.6c0.4-0.1,0.9-0.1,1.3,0.1c0.4,0.2,0.6,0.6,0.7,1
			c1,2.5,1.9,5,2.7,7.6C-74.1,164.4-74.6,168.6-73,172"/>
		<path class="st6" d="M-73,172c-4.4-5.1-8-10.9-10.7-17c2.2-1.2,4.6-2.1,7.1-2.6c0.4-0.1,0.9-0.1,1.3,0.1c0.4,0.2,0.6,0.6,0.7,1
			c1,2.5,1.9,5,2.7,7.6C-74.1,164.4-74.6,168.6-73,172z"/>
		<path class="st9" d="M53,25.7c1.8-0.5,3.7-0.8,5.5-0.7c4.1,0.1,8.3,2.1,9.5,5.9c0.7,2.3,0.2,4.8-0.1,7.2
			c-2.3,16.4,1.6,32.6,2.2,48.9c0.2,6.9-0.1,13.8-1.1,20.8c-0.3,2-0.6,4.1-1.5,6c-0.9,2-2.4,4.1-3.7,6c-1.4,1.7-2.5,3.6-3.5,5.5
			c0-0.1-3.6,0.5-3.6,0.3c7.7-14.2,6.8-33.3,4.6-49.3C59,59.4,56.2,42.5,53,25.7"/>
		<path class="st10" d="M53,25.7c1.8-0.5,3.7-0.8,5.5-0.7c4.1,0.1,8.3,2.1,9.5,5.9c0.7,2.3,0.2,4.8-0.1,7.2
			c-2.3,16.4,1.6,32.6,2.2,48.9c0.2,6.9-0.1,13.8-1.1,20.8c-0.3,2-0.6,4.1-1.5,6c-0.9,2-2.4,4.1-3.7,6c-1.4,1.7-2.5,3.6-3.5,5.5
			c0-0.1-3.6,0.5-3.6,0.3c7.7-14.2,6.8-33.3,4.6-49.3C59,59.4,56.2,42.5,53,25.7z"/>
		<path class="st11" d="M84.1,44.1c3.3,20,1.7,40.8,2.5,61.3c0,0.9-1.2,2.2-1.4,1.4c0.1,5.9,0.3,11.7,0.4,17.6c0,1.1,0,2.2-0.5,3.2
			c-0.5,1-1.6,1.6-2.3,2.4c-2.9,3.3-4.7,13.8-5.3,13.1c-5.7-9.3,0.2-12.2,0.5-17.2c0.6-10.7,0.3-21.5-2.5-31.7
			c-2-7.4-5.3-14.2-7.5-21.5C64,59.3,63.3,45,63.3,30.8c0.1-1.2,0.2-2.4,0.4-3.6c6.2-1.5,12.8,0.7,16.4,5.5
			C82.5,35.9,83.4,40,84.1,44.1"/>
		<path class="st6" d="M84.1,44.1c3.3,20,1.7,40.8,2.5,61.3c0,0.9-1.2,2.2-1.4,1.4c0.1,5.9,0.3,11.7,0.4,17.6c0,1.1,0,2.2-0.5,3.2
			c-0.5,1-1.6,1.6-2.3,2.4c-2.9,3.3-4.7,13.8-5.3,13.1c-5.7-9.3,0.2-12.2,0.5-17.2c0.6-10.7,0.3-21.5-2.5-31.7
			c-2-7.4-5.3-14.2-7.5-21.5C64,59.3,63.3,45,63.3,30.8c0.1-1.2,0.2-2.4,0.4-3.6c6.2-1.5,12.8,0.7,16.4,5.5
			C82.5,35.9,83.4,40,84.1,44.1z"/>
		<path class="st4" d="M97.6,123.4c-1.3,2.5-3.3,4.8-5.7,6.5c2.7-10.8,3-22,0.9-32.6c0.8,0.5,1.6,1,2.5,1.4
			c-1.4-9.1-2.9-18.4-2.1-27.8c0.2-2.3,0.5-4.5,0.3-6.8C93.1,61.5,92,59,91,56.5c-3.2-7.3-6.3-14.6-9.5-21.9c-0.7-1.5-1.4-3.1-2.7-4
			c-0.7-0.5-1.6-0.7-2.5-0.7c0.1-0.3,0.1-0.6,0.2-0.8c4.6,0.7,9.1,2,13.2,4c1.5,0.7,3,1.6,3.9,2.9c0.9,1.3,1.1,2.9,1.3,4.5
			c2.9,21.5,4.7,43.2,5.3,65C100.4,111.5,100.4,117.8,97.6,123.4"/>
		<path class="st6" d="M97.6,123.4c-1.3,2.5-3.3,4.8-5.7,6.5c2.7-10.8,3-22,0.9-32.6c0.8,0.5,1.6,1,2.5,1.4
			c-1.4-9.1-2.9-18.4-2.1-27.8c0.2-2.3,0.5-4.5,0.3-6.8C93.1,61.5,92,59,91,56.5c-3.2-7.3-6.3-14.6-9.5-21.9c-0.7-1.5-1.4-3.1-2.7-4
			c-0.7-0.5-1.6-0.7-2.5-0.7c0.1-0.3,0.1-0.6,0.2-0.8c4.6,0.7,9.1,2,13.2,4c1.5,0.7,3,1.6,3.9,2.9c0.9,1.3,1.1,2.9,1.3,4.5
			c2.9,21.5,4.7,43.2,5.3,65C100.4,111.5,100.4,117.8,97.6,123.4z"/>
		<path class="st12" d="M114.9,38.5c1.9,0.9,3.7,1.9,5.6,2.8c1.2,0.6,2.5,1.3,2.8,2.6c0.3,1-0.1,2.2-0.5,3.2
			c-3.6,8.8-11,16-17.3,23.5C109.9,60.3,113.1,49.5,114.9,38.5"/>
		<path class="st6" d="M114.9,38.5c1.9,0.9,3.7,1.9,5.6,2.8c1.2,0.6,2.5,1.3,2.8,2.6c0.3,1-0.1,2.2-0.5,3.2
			c-3.6,8.8-11,16-17.3,23.5C109.9,60.3,113.1,49.5,114.9,38.5z"/>
		<path class="st9" d="M86.6,105.4c0,0.9-1.2,2.2-1.4,1.4c0.1,4,0.2,7.9,0.3,11.9l-1.1-0.2c-0.9-6.7-1.9-13.4-2.8-20.1
			c-2.4-17.7-4.8-36.1,1-53.6c0.9,2.2,1.7,4.3,2.4,6.6C87,69,85.9,87.3,86.6,105.4"/>
		<path class="st10" d="M86.6,105.4c0,0.9-1.2,2.2-1.4,1.4c0.1,4,0.2,7.9,0.3,11.9l-1.1-0.2c-0.9-6.7-1.9-13.4-2.8-20.1
			c-2.4-17.7-4.8-36.1,1-53.6c0.9,2.2,1.7,4.3,2.4,6.6C87,69,85.9,87.3,86.6,105.4z"/>
		<path class="st13" d="M111.2,64c1.4-4.9,3.2-9.8,5.2-14.6c0.5-1.3,1.2-2.7,2.5-3.2c1.3,0.3,2.5,1.1,3.3,2
			C119.7,54,115.5,59,111.2,64"/>
		<path class="st6" d="M111.2,64c1.4-4.9,3.2-9.8,5.2-14.6c0.5-1.3,1.2-2.7,2.5-3.2c1.3,0.3,2.5,1.1,3.3,2
			C119.7,54,115.5,59,111.2,64z"/>
		<path class="st13" d="M70.1,87.1c0.1,2.7,0.1,5.4,0,8.2c-2.9-23.3-5.8-46.6-8.7-69.9c3.1,0.8,5.8,2.6,6.7,5.6
			c0.7,2.3,0.2,4.8-0.1,7.2C65.6,54.6,69.5,70.7,70.1,87.1"/>
		<path class="st6" d="M70.1,87.1c0.1,2.7,0.1,5.4,0,8.2c-2.9-23.3-5.8-46.6-8.7-69.9c3.1,0.8,5.8,2.6,6.7,5.6
			c0.7,2.3,0.2,4.8-0.1,7.2C65.6,54.6,69.5,70.7,70.1,87.1z"/>
		<path class="st8" d="M56.4,78c0.5-1.7-0.6-3.4-2.4-3.7c-1.8-0.4-3.6,0.7-4.1,2.4c-0.5,1.7,0.6,3.4,2.4,3.7
			C54.1,80.8,55.9,79.7,56.4,78"/>
		<path class="st6" d="M56.4,78c0.5-1.7-0.6-3.4-2.4-3.7c-1.8-0.4-3.6,0.7-4.1,2.4c-0.5,1.7,0.6,3.4,2.4,3.7
			C54.1,80.8,55.9,79.7,56.4,78z"/>
		<path class="st11" d="M78.1,124.6c0.3-1-0.1-1.9-0.7-2c-0.7-0.1-1.4,0.6-1.7,1.5c-0.3,1,0.1,1.9,0.7,2
			C77.1,126.3,77.8,125.6,78.1,124.6"/>
		<path class="st6" d="M78.1,124.6c0.3-1-0.1-1.9-0.7-2c-0.7-0.1-1.4,0.6-1.7,1.5c-0.3,1,0.1,1.9,0.7,2
			C77.1,126.3,77.8,125.6,78.1,124.6z"/>
		<path class="st11" d="M63.5,106.3c0.2-0.8-0.2-1.5-0.8-1.7c-0.7-0.1-1.4,0.4-1.6,1.2c-0.2,0.8,0.2,1.5,0.8,1.7
			C62.5,107.6,63.3,107.1,63.5,106.3"/>
		<path class="st6" d="M63.5,106.3c0.2-0.8-0.2-1.5-0.8-1.7c-0.7-0.1-1.4,0.4-1.6,1.2c-0.2,0.8,0.2,1.5,0.8,1.7
			C62.5,107.6,63.3,107.1,63.5,106.3z"/>
		<path class="st11" d="M93.6,97.4c0.2-0.6-0.1-1.3-0.7-1.4c-0.6-0.1-1.2,0.3-1.4,1c-0.2,0.6,0.1,1.3,0.7,1.4
			C92.8,98.5,93.5,98.1,93.6,97.4"/>
		<path class="st6" d="M93.6,97.4c0.2-0.6-0.1-1.3-0.7-1.4c-0.6-0.1-1.2,0.3-1.4,1c-0.2,0.6,0.1,1.3,0.7,1.4
			C92.8,98.5,93.5,98.1,93.6,97.4z"/>
		<path class="st8" d="M111.3,54.2c0.3-1.1,0-2.1-0.6-2.2c-0.6-0.1-1.4,0.7-1.7,1.8c-0.3,1.1,0,2.1,0.6,2.2
			C110.3,56.1,111,55.3,111.3,54.2"/>
		<path class="st6" d="M111.3,54.2c0.3-1.1,0-2.1-0.6-2.2c-0.6-0.1-1.4,0.7-1.7,1.8c-0.3,1.1,0,2.1,0.6,2.2
			C110.3,56.1,111,55.3,111.3,54.2z"/>
		<path class="st4" d="M70.3,55.7c1.7-11,15.9-17.7,20.4-28.1c0.3-0.7,0.6-1.5,0.3-2.2c-0.3-0.9-1.4-1.4-2.4-1.9
			c-2.2-1-4.3-2-6.5-2.9c-3.6-1.6-7.2-3.3-11.6-2.7c-1.2,0.1-2.2,0.6-3.1,1.2c-0.2,0.1-0.4,0.3-0.5,0.4c-0.3,0.3-0.2,0.8-0.2,1.2
			c1.3,10.7,2.7,21.4,4,32.1l-0.2,2.9C70.7,55.9,70.3,55.4,70.3,55.7"/>
		<path class="st6" d="M70.3,55.7c1.7-11,15.9-17.7,20.4-28.1c0.3-0.7,0.6-1.5,0.3-2.2c-0.3-0.9-1.4-1.4-2.4-1.9
			c-2.2-1-4.3-2-6.5-2.9c-3.6-1.6-7.2-3.3-11.6-2.7c-1.2,0.1-2.2,0.6-3.1,1.2c-0.2,0.1-0.4,0.3-0.5,0.4c-0.3,0.3-0.2,0.8-0.2,1.2
			c1.3,10.7,2.7,21.4,4,32.1l-0.2,2.9C70.7,55.9,70.3,55.4,70.3,55.7z"/>
		<path class="st11" d="M79.4,19.3c-0.1,0.2-0.1,0.5-0.2,0.7c-1.2,3.8-3.6,7.2-5.5,10.7c-1.9,3.6-3.4,7.4-2.9,11.3l-1.8-5L67,19.4
			c0.1-0.1,0.3-0.2,0.4-0.4c2.1-1.3,5-1.5,7.6-1C76.5,18.3,78,18.8,79.4,19.3"/>
		<path class="st6" d="M79.4,19.3c-0.1,0.2-0.1,0.5-0.2,0.7c-1.2,3.8-3.6,7.2-5.5,10.7c-1.9,3.6-3.4,7.4-2.9,11.3l-1.8-5L67,19.4
			c0.1-0.1,0.3-0.2,0.4-0.4c2.1-1.3,5-1.5,7.6-1C76.5,18.3,78,18.8,79.4,19.3z"/>
		<path class="st8" d="M85.3,35.4c-5.3,5.9-12.2,11.1-14.4,18c-0.1-0.1-0.1-0.2-0.2-0.2l0-0.4c-0.1-0.9-0.2-1.9-0.3-2.8l0.1-2.8
			c3.1-1.8,4.9-4.8,6-7.8c1.1-3,1.7-6.1,2.8-9.1c1-2.6,2.5-5.1,4.5-7.3C84.9,27,85.4,31.2,85.3,35.4"/>
		<path class="st6" d="M85.3,35.4c-5.3,5.9-12.2,11.1-14.4,18c-0.1-0.1-0.1-0.2-0.2-0.2l0-0.4c-0.1-0.9-0.2-1.9-0.3-2.8l0.1-2.8
			c3.1-1.8,4.9-4.8,6-7.8c1.1-3,1.7-6.1,2.8-9.1c1-2.6,2.5-5.1,4.5-7.3C84.9,27,85.4,31.2,85.3,35.4z"/>
		<path class="st11" d="M61.1,85.1c4.8,1.2,9.9-1.8,12-5.5c2.1-3.8,1.8-8.1,1.5-12.3c-1.2-15.1-3.5-30.1-6.6-45
			c-0.2-1.1-0.5-2.2-1.2-3.2c-0.8-0.9-2-1.6-3.2-2.1c-3.4-1.5-7.1-2.5-10.9-3.1c-2.5,7.7-0.2,15.8,1.7,23.7
			c3.3,14.1,4.8,28.4,6.3,42.7l0.5,5.2C60.9,85.6,61.2,85,61.1,85.1"/>
		<path class="st6" d="M61.1,85.1c4.8,1.2,9.9-1.8,12-5.5c2.1-3.8,1.8-8.1,1.5-12.3c-1.2-15.1-3.5-30.1-6.6-45
			c-0.2-1.1-0.5-2.2-1.2-3.2c-0.8-0.9-2-1.6-3.2-2.1c-3.4-1.5-7.1-2.5-10.9-3.1c-2.5,7.7-0.2,15.8,1.7,23.7
			c3.3,14.1,4.8,28.4,6.3,42.7l0.5,5.2C60.9,85.6,61.2,85,61.1,85.1z"/>
		<path class="st11" d="M73,79.5c-2.1,3.8-7.2,6.7-11.9,5.5c0,0,0,0,0,0c0-0.1-0.1-0.1-0.1-0.2l-0.1-1.1c2.5-0.7,5.1-1.7,5.9-3.7
			c0.3-0.8,0.3-1.6,0.2-2.5c-0.4-5.9-2.9-12-0.8-17.7c0.8,0,1.7,0,2.5,0c-2.5-6.7-2.4-14.1,0-20.8c1.2,2.9,2.5,5.9,3.7,8.8
			c0.9,6.4,1.6,12.8,2.1,19.2C74.9,71.4,75.1,75.8,73,79.5"/>
		<path class="st6" d="M73,79.5c-2.1,3.8-7.2,6.7-11.9,5.5c0,0,0,0,0,0c0-0.1-0.1-0.1-0.1-0.2l-0.1-1.1c2.5-0.7,5.1-1.7,5.9-3.7
			c0.3-0.8,0.3-1.6,0.2-2.5c-0.4-5.9-2.9-12-0.8-17.7c0.8,0,1.7,0,2.5,0c-2.5-6.7-2.4-14.1,0-20.8c1.2,2.9,2.5,5.9,3.7,8.8
			c0.9,6.4,1.6,12.8,2.1,19.2C74.9,71.4,75.1,75.8,73,79.5z"/>
		<path class="st9" d="M42,76.3c-1,1.2-1.9,2.4-2.7,3.7c-2.7-9.1-5.9-18.2-9.6-27.1c-0.6-1.5-1.4-3.1-3.1-3.7
			c-0.2,1.1-0.9,2.1-1.9,2.8c-3.2-9.8-4.2-20-5.2-30.1c-0.2-1.5-0.3-3.1,0.3-4.6c0.6-1.5,2.2-2.8,4-2.8l0.7-2.2
			c3.2-0.9,6.4-1.9,9.7-1.7c3.3,0.2,6.8,1.7,7.9,4.3c0.7,1.6,0.4,3.3,0.2,5c-1.3,11.3,2.5,22.5,3.5,33.8c0.4,4.8,0.4,9.6-0.1,14.3
			c-0.2,1.4-0.4,2.8-1,4.1C44.1,73.6,43,75,42,76.3"/>
		<path class="st10" d="M42,76.3c-1,1.2-1.9,2.4-2.7,3.7c-2.7-9.1-5.9-18.2-9.6-27.1c-0.6-1.5-1.4-3.1-3.1-3.7
			c-0.2,1.1-0.9,2.1-1.9,2.8c-3.2-9.8-4.2-20-5.2-30.1c-0.2-1.5-0.3-3.1,0.3-4.6c0.6-1.5,2.2-2.8,4-2.8l0.7-2.2
			c3.2-0.9,6.4-1.9,9.7-1.7c3.3,0.2,6.8,1.7,7.9,4.3c0.7,1.6,0.4,3.3,0.2,5c-1.3,11.3,2.5,22.5,3.5,33.8c0.4,4.8,0.4,9.6-0.1,14.3
			c-0.2,1.4-0.4,2.8-1,4.1C44.1,73.6,43,75,42,76.3z"/>
		<path class="st4" d="M40.5,65.7c0.3-5.9-3.7-11.2-5.2-16.9c-0.7-2.9-0.8-5.8-0.9-8.8c-0.2-6.9-0.4-13.8-0.7-20.6
			c2,15.6,5.8,31,11,46.1c0.3,0.8,0.5,1.8,0,2.5c-0.5,0.6-1.6,0.8-2.3,0.5c-0.8-0.4-1.1-1.2-0.8-1.9L40.5,65.7z"/>
		<path class="st6" d="M40.5,65.7c0.3-5.9-3.7-11.2-5.2-16.9c-0.7-2.9-0.8-5.8-0.9-8.8c-0.2-6.9-0.4-13.8-0.7-20.6
			c2,15.6,5.8,31,11,46.1c0.3,0.8,0.5,1.8,0,2.5c-0.5,0.6-1.6,0.8-2.3,0.5c-0.8-0.4-1.1-1.2-0.8-1.9L40.5,65.7z"/>
		<path class="st11" d="M41.4,77c-0.8,1-1.5,2-2.1,3.1c-2.7-9.1-5.9-18.2-9.6-27.1c-0.6-1.5-1.4-3.1-3.1-3.7
			c-0.2,1.1-0.9,2.1-1.9,2.8c-1-3.1-1.8-6.2-2.4-9.4c1.5,2.2,4,3.9,6.8,3.5c1.2-0.2,2.7-0.7,3.6,0c0.3,0.3,0.4,0.6,0.6,0.9
			c1.9,5.1,3.2,10.3,3.7,15.6c0.1,0.8,0.2,1.7,0.8,2.3c0.8,0.7,2.1,0.8,2.9,1.4c0.8,0.6,0.9,1.6,1,2.6C41.9,71.7,41.8,74.3,41.4,77"
			/>
		<path class="st6" d="M41.4,77c-0.8,1-1.5,2-2.1,3.1c-2.7-9.1-5.9-18.2-9.6-27.1c-0.6-1.5-1.4-3.1-3.1-3.7
			c-0.2,1.1-0.9,2.1-1.9,2.8c-1-3.1-1.8-6.2-2.4-9.4c1.5,2.2,4,3.9,6.8,3.5c1.2-0.2,2.7-0.7,3.6,0c0.3,0.3,0.4,0.6,0.6,0.9
			c1.9,5.1,3.2,10.3,3.7,15.6c0.1,0.8,0.2,1.7,0.8,2.3c0.8,0.7,2.1,0.8,2.9,1.4c0.8,0.6,0.9,1.6,1,2.6C41.9,71.7,41.8,74.3,41.4,77z
			"/>
		<path class="st9" d="M45.2,68.1c2.2,9,7.1,17.5,14.3,24.5c-1.8-2.9-1-6.7,1.9-9c0.6-0.5,1.4-0.9,1.8-1.6c0.4-0.7,0.3-1.5,0.3-2.2
			c-0.3-4.1-0.7-8.1-1-12.2c0.2,0.6,1.2-0.3,1.1-0.9c-1.4-14.1-0.8-28.5-4.3-42.4c-0.7-2.8-1.6-5.7-3.7-8c-3-3.4-8.5-5.1-13.5-4.2
			c-1.4,16.6,0,33.3,4.1,49.5L45.2,68.1z"/>
		<path class="st10" d="M45.2,68.1c2.2,9,7.1,17.5,14.3,24.5c-1.8-2.9-1-6.7,1.9-9c0.6-0.5,1.4-0.9,1.8-1.6c0.4-0.7,0.3-1.5,0.3-2.2
			c-0.3-4.1-0.7-8.1-1-12.2c0.2,0.6,1.2-0.3,1.1-0.9c-1.4-14.1-0.8-28.5-4.3-42.4c-0.7-2.8-1.6-5.7-3.7-8c-3-3.4-8.5-5.1-13.5-4.2
			c-1.4,16.6,0,33.3,4.1,49.5L45.2,68.1z"/>
		<path class="st9" d="M49.7,81.3c0.3-4.1,0.5-8.1,0.8-12.2c0.2-3.1,0.4-6.1,0-9.2c-0.5-4-3.7-5.4-3-9.4C48,58,48.8,62.8,46.8,70
			c-0.2,0.8-0.5,1.5-0.3,2.3c0.1,1,0.8,1.8,1.4,2.7c1,1.6,1.8,3.4,2.1,5.2L49.7,81.3z"/>
		<path class="st10" d="M49.7,81.3c0.3-4.1,0.5-8.1,0.8-12.2c0.2-3.1,0.4-6.1,0-9.2c-0.5-4-3.7-5.4-3-9.4C48,58,48.8,62.8,46.8,70
			c-0.2,0.8-0.5,1.5-0.3,2.3c0.1,1,0.8,1.8,1.4,2.7c1,1.6,1.8,3.4,2.1,5.2L49.7,81.3z"/>
		<path class="st11" d="M59.5,92.7c-3.7-3.6-6.9-7.7-9.3-12c1.8-0.8,3.7-1.4,5.7-1.6c0.4,0,0.7-0.1,1,0.1c0.3,0.2,0.5,0.5,0.6,0.7
			c0.9,1.8,1.7,3.5,2.5,5.3C58.3,87.4,58,90.3,59.5,92.7"/>
		<path class="st6" d="M59.5,92.7c-3.7-3.6-6.9-7.7-9.3-12c1.8-0.8,3.7-1.4,5.7-1.6c0.4,0,0.7-0.1,1,0.1c0.3,0.2,0.5,0.5,0.6,0.7
			c0.9,1.8,1.7,3.5,2.5,5.3C58.3,87.4,58,90.3,59.5,92.7z"/>
		<path class="st4" d="M33.4,11c1.5-0.3,3-0.4,4.5-0.4c3.3,0.2,6.8,1.7,7.9,4.3c0.7,1.6,0.4,3.3,0.2,5c-1.3,11.3,3.9,28.2,4.9,39.5
			c0.4,4.8-1,3.9-1.5,8.6c-0.2,1.4-0.4,2.8-1,4.1c-0.7,1.4-1.8,2.7-2.8,4.1c-1,1.2-1.9,2.4-2.7,3.7c0-0.1-3.3-0.7-3.3-0.8
			c5.2-9,4.7-21.9,2.3-33C39.4,34.4,36.6,22.7,33.4,11"/>
		<path class="st6" d="M33.4,11c1.5-0.3,3-0.4,4.5-0.4c3.3,0.2,6.8,1.7,7.9,4.3c0.7,1.6,0.4,3.3,0.2,5c-1.3,11.3,3.9,28.2,4.9,39.5
			c0.4,4.8-1,3.9-1.5,8.6c-0.2,1.4-0.4,2.8-1,4.1c-0.7,1.4-1.8,2.7-2.8,4.1c-1,1.2-1.9,2.4-2.7,3.7c0-0.1-3.3-0.7-3.3-0.8
			c5.2-9,4.7-21.9,2.3-33C39.4,34.4,36.6,22.7,33.4,11z"/>
		<path class="st4" d="M59.3,24.5c3.4,13.9,2.8,28.2,4.3,42.4c0.1,0.6-0.9,1.5-1.1,0.9c0.3,4.1,0.7,8.1,1,12.2
			c0.1,0.7,0.1,1.5-0.3,2.2c-0.4,0.6-1.1,1.1-1.8,1.6c-2.9,2.2-3.7,6.1-1.9,9c-0.5-0.5-1-1-1.5-1.5c-0.9-3.3-0.7-6.9-0.6-10.4
			c0.1-7.4-0.5-14.9-3.1-21.9c-1.9-5.1-4.8-10-6.9-15c-3.8-9.3-4.9-19.1-5.4-29c0.1-0.8,0.1-1.7,0.2-2.5c5-0.9,8.4-8.7,11.4-5.3
			C55.6,9.3,58.6,21.6,59.3,24.5"/>
		<path class="st6" d="M59.3,24.5c3.4,13.9,2.8,28.2,4.3,42.4c0.1,0.6-0.9,1.5-1.1,0.9c0.3,4.1,0.7,8.1,1,12.2
			c0.1,0.7,0.1,1.5-0.3,2.2c-0.4,0.6-1.1,1.1-1.8,1.6c-2.9,2.2-3.7,6.1-1.9,9c-0.5-0.5-1-1-1.5-1.5c-0.9-3.3-0.7-6.9-0.6-10.4
			c0.1-7.4-0.5-14.9-3.1-21.9c-1.9-5.1-4.8-10-6.9-15c-3.8-9.3-4.9-19.1-5.4-29c0.1-0.8,0.1-1.7,0.2-2.5c5-0.9,8.4-8.7,11.4-5.3
			C55.6,9.3,58.6,21.6,59.3,24.5z"/>
		<path class="st4" d="M73,79.5c-0.9,1.7-2.5,3.3-4.4,4.3c1.8-7.4,1.7-15.1-0.5-22.5c0.7,0.4,1.4,0.7,2,1.1
			c-1.5-6.3-3-12.8-2.7-19.2c0.1-1.6,0.2-3.1,0-4.7c-0.3-1.9-1.3-3.6-2.2-5.3c-2.8-5.1-5.7-10.2-8.5-15.4c-0.6-1.1-1.2-2.2-2.3-2.9
			c-0.6-0.4-1.3-0.6-2-0.5c0.1-0.2-11.2-17.1-11.1-17.2C45.1-2.2,56.6,7.6,60,9.1c1.2,0.5,6.9,6.8,7.7,7.8c0.8,0.9,0,4.3,0.3,5.4
			c3.1,14.9,5.3,29.9,6.6,45C74.9,71.4,75.1,75.8,73,79.5"/>
		<path class="st6" d="M73,79.5c-0.9,1.7-2.5,3.3-4.4,4.3c1.8-7.4,1.7-15.1-0.5-22.5c0.7,0.4,1.4,0.7,2,1.1
			c-1.5-6.3-3-12.8-2.7-19.2c0.1-1.6,0.2-3.1,0-4.7c-0.3-1.9-1.3-3.6-2.2-5.3c-2.8-5.1-5.7-10.2-8.5-15.4c-0.6-1.1-1.2-2.2-2.3-2.9
			c-0.6-0.4-1.3-0.6-2-0.5c0.1-0.2-11.2-17.1-11.1-17.2C45.1-2.2,56.6,7.6,60,9.1c1.2,0.5,6.9,6.8,7.7,7.8c0.8,0.9,0,4.3,0.3,5.4
			c3.1,14.9,5.3,29.9,6.6,45C74.9,71.4,75.1,75.8,73,79.5z"/>
		<path class="st12" d="M84,21.4c1.5,0.7,3.1,1.4,4.6,2.1c1,0.4,2,1,2.4,1.9c0.3,0.7,0,1.5-0.3,2.2c-2.6,6-8.4,10.7-13.2,15.8
			C80.8,36.3,83,28.9,84,21.4"/>
		<path class="st6" d="M84,21.4c1.5,0.7,3.1,1.4,4.6,2.1c1,0.4,2,1,2.4,1.9c0.3,0.7,0,1.5-0.3,2.2c-2.6,6-8.4,10.7-13.2,15.8
			C80.8,36.3,83,28.9,84,21.4z"/>
		<path class="st11" d="M-7.7,157.3c-1,1.2-1.9,2.4-2.7,3.7c0-0.1-0.1-0.2-0.1-0.3c1.3-4,1.8-8.2,1.9-12.4c1.2-0.3,2.4-0.3,3.5,0.2
			c0.4,0.2,0.8,0.5,1.1,0.8c-0.2,1.3-0.4,2.6-0.9,3.8C-5.6,154.6-6.7,156-7.7,157.3"/>
		<path class="st6" d="M-7.7,157.3c-1,1.2-1.9,2.4-2.7,3.7c0-0.1-0.1-0.2-0.1-0.3c1.3-4,1.8-8.2,1.9-12.4c1.2-0.3,2.4-0.3,3.5,0.2
			c0.4,0.2,0.8,0.5,1.1,0.8c-0.2,1.3-0.4,2.6-0.9,3.8C-5.6,154.6-6.7,156-7.7,157.3z"/>
		<path class="st9" d="M63.5,66.8c0.1,0.6-0.9,1.5-1.1,0.9c0.2,2.7,0.4,5.5,0.7,8.2l-0.9-0.2c-1-4.6-2-9.3-3-13.9
			c-2.6-12.3-5.2-25-1.1-37c0.8,1.5,1.5,3,2.2,4.6C62.6,41.8,62.3,54.4,63.5,66.8"/>
		<path class="st10" d="M63.5,66.8c0.1,0.6-0.9,1.5-1.1,0.9c0.2,2.7,0.4,5.5,0.7,8.2l-0.9-0.2c-1-4.6-2-9.3-3-13.9
			c-2.6-12.3-5.2-25-1.1-37c0.8,1.5,1.5,3,2.2,4.6C62.6,41.8,62.3,54.4,63.5,66.8z"/>
		<path class="st13" d="M82,38.9c1-3.4,2.2-6.7,3.7-10c0.4-0.9,0.9-1.8,1.9-2.1c1.1,0.2,2,0.8,2.8,1.5C88.5,32.2,85.3,35.6,82,38.9"
			/>
		<path class="st6" d="M82,38.9c1-3.4,2.2-6.7,3.7-10c0.4-0.9,0.9-1.8,1.9-2.1c1.1,0.2,2,0.8,2.8,1.5C88.5,32.2,85.3,35.6,82,38.9z"
			/>
		<path class="st9" d="M49.5,53.8c0.2,1.9,0.2,3.8,0.3,5.6C46.5,43.3,40.1,26,40.2,11c2.5,0.6,6.3-5,7.2-3c0.7,1.6-1.2,10.3-1.4,12
			C44.7,31.3,48.4,42.5,49.5,53.8"/>
		<path class="st10" d="M49.5,53.8c0.2,1.9,0.2,3.8,0.3,5.6C46.5,43.3,40.1,26,40.2,11c2.5,0.6,6.3-5,7.2-3c0.7,1.6-1.2,10.3-1.4,12
			C44.7,31.3,48.4,42.5,49.5,53.8z"/>
		<path class="st11" d="M38,47.2c0.3-1.2-0.6-2.3-2.1-2.6c-1.5-0.3-2.9,0.4-3.3,1.6c-0.3,1.2,0.6,2.3,2.1,2.6
			C36.2,49.1,37.7,48.4,38,47.2"/>
		<path class="st6" d="M38,47.2c0.3-1.2-0.6-2.3-2.1-2.6c-1.5-0.3-2.9,0.4-3.3,1.6c-0.3,1.2,0.6,2.3,2.1,2.6
			C36.2,49.1,37.7,48.4,38,47.2z"/>
		<path class="st11" d="M57.3,79.9c0.2-0.7-0.1-1.3-0.7-1.4c-0.6-0.1-1.2,0.3-1.3,1c-0.2,0.7,0.1,1.3,0.7,1.4
			C56.5,81.1,57.1,80.6,57.3,79.9"/>
		<path class="st6" d="M57.3,79.9c0.2-0.7-0.1-1.3-0.7-1.4c-0.6-0.1-1.2,0.3-1.3,1c-0.2,0.7,0.1,1.3,0.7,1.4
			C56.5,81.1,57.1,80.6,57.3,79.9z"/>
		<path class="st11" d="M44.8,66.9c0.2-0.5-0.2-1.1-0.7-1.2c-0.6-0.1-1.1,0.2-1.3,0.8c-0.2,0.5,0.2,1.1,0.7,1.2
			C44.1,67.8,44.6,67.4,44.8,66.9"/>
		<path class="st6" d="M44.8,66.9c0.2-0.5-0.2-1.1-0.7-1.2c-0.6-0.1-1.1,0.2-1.3,0.8c-0.2,0.5,0.2,1.1,0.7,1.2
			C44.1,67.8,44.6,67.4,44.8,66.9z"/>
		<path class="st11" d="M68.9,61.5c0.1-0.4-0.2-0.9-0.6-1c-0.5-0.1-1,0.2-1.1,0.6c-0.1,0.4,0.2,0.9,0.6,1
			C68.3,62.2,68.8,62,68.9,61.5"/>
		<path class="st6" d="M68.9,61.5c0.1-0.4-0.2-0.9-0.6-1c-0.5-0.1-1,0.2-1.1,0.6c-0.1,0.4,0.2,0.9,0.6,1
			C68.3,62.2,68.8,62,68.9,61.5z"/>
		<path class="st8" d="M81.8,32.1c0.2-0.7,0-1.4-0.6-1.5c-0.5-0.1-1.1,0.4-1.3,1.2c-0.2,0.7,0,1.4,0.6,1.5
			C81,33.4,81.5,32.9,81.8,32.1"/>
		<path class="st6" d="M81.8,32.1c0.2-0.7,0-1.4-0.6-1.5c-0.5-0.1-1.1,0.4-1.3,1.2c-0.2,0.7,0,1.4,0.6,1.5
			C81,33.4,81.5,32.9,81.8,32.1z"/>
		<path class="st4" d="M76.8,34.2c-7.3-20.9-33.4-31.9-45-51.3c-0.8-1.3-1.5-2.8-1.4-4.2c0.2-1.7,1.8-2.9,3.2-3.9
			c3.2-2.2,6.3-4.3,9.5-6.5c5.2-3.6,10.6-7.2,18.1-6.7c2,0.1,3.9,0.9,5.7,1.8c0.4,0.2,0.7,0.4,1,0.8c0.6,0.6,0.7,1.5,0.8,2.3
			c2.1,20.7,4.2,41.5,6.3,62.2l1.4,5.6C76.4,34.8,76.8,33.8,76.8,34.2"/>
		<path class="st6" d="M76.8,34.2c-7.3-20.9-33.4-31.9-45-51.3c-0.8-1.3-1.5-2.8-1.4-4.2c0.2-1.7,1.8-2.9,3.2-3.9
			c3.2-2.2,6.3-4.3,9.5-6.5c5.2-3.6,10.6-7.2,18.1-6.7c2,0.1,3.9,0.9,5.7,1.8c0.4,0.2,0.7,0.4,1,0.8c0.6,0.6,0.7,1.5,0.8,2.3
			c2.1,20.7,4.2,41.5,6.3,62.2l1.4,5.6C76.4,34.8,76.8,33.8,76.8,34.2z"/>
		<path class="st7" d="M47.2-34.3c0.2,0.5,0.4,0.9,0.6,1.3c3.6,7,8.8,13.3,13.4,19.9c4.6,6.6,8.6,13.8,9.3,21.3l0.9-9.8
			c-1.2-11.4-2.5-22.8-3.7-34.2c-0.3-0.2-0.6-0.4-0.9-0.6c-4-2.2-8.8-2.2-12.9-1C51.5-36.8,49.3-35.6,47.2-34.3"/>
		<path class="st6" d="M47.2-34.3c0.2,0.5,0.4,0.9,0.6,1.3c3.6,7,8.8,13.3,13.4,19.9c4.6,6.6,8.6,13.8,9.3,21.3l0.9-9.8
			c-1.2-11.4-2.5-22.8-3.7-34.2c-0.3-0.2-0.6-0.4-0.9-0.6c-4-2.2-8.8-2.2-12.9-1C51.5-36.8,49.3-35.6,47.2-34.3z"/>
		<path class="st11" d="M43.9-2.6C55,8,68.5,17.1,74.9,30c0.1-0.2,0.1-0.3,0.2-0.5l-0.2-0.8c-0.2-1.8-0.4-3.6-0.5-5.4l-1.2-5.4
			c-5.8-3.1-10-8.6-13.1-14.2C57-1.9,54.8-7.8,51.7-13.4c-2.8-4.9-6.2-9.5-10.3-13.5C41.2-18.9,42-10.7,43.9-2.6"/>
		<path class="st6" d="M43.9-2.6C55,8,68.5,17.1,74.9,30c0.1-0.2,0.1-0.3,0.2-0.5l-0.2-0.8c-0.2-1.8-0.4-3.6-0.5-5.4l-1.2-5.4
			c-5.8-3.1-10-8.6-13.1-14.2C57-1.9,54.8-7.8,51.7-13.4c-2.8-4.9-6.2-9.5-10.3-13.5C41.2-18.9,42-10.7,43.9-2.6z"/>
		<path class="st9" d="M103.9,89.5c-7.4,2.9-17.1-2.1-22-9.1C77,73.4,75.6,65,74.5,57c-4-29.1-6.4-58.3-7.3-87.3
			c-0.1-2.1-0.1-4.4,0.8-6.2c0.9-1.9,2.7-3.3,4.5-4.4c5-3.3,10.7-5.8,16.7-7.3c7.3,14.5,6.6,30.4,6.8,45.7
			c0.3,27.4,3.6,55.1,6.9,82.7l0.8,6.9C103.9,87.2,103.6,89.4,103.9,89.5"/>
		<path class="st10" d="M103.9,89.5c-7.4,2.9-17.1-2.1-22-9.1C77,73.4,75.6,65,74.5,57c-4-29.1-6.4-58.3-7.3-87.3
			c-0.1-2.1-0.1-4.4,0.8-6.2c0.9-1.9,2.7-3.3,4.5-4.4c5-3.3,10.7-5.8,16.7-7.3c7.3,14.5,6.6,30.4,6.8,45.7
			c0.3,27.4,3.6,55.1,6.9,82.7l0.8,6.9C103.9,87.2,103.6,89.4,103.9,89.5z"/>
		<path class="st11" d="M81.9,80.4c4.9,7,14.5,12,21.9,9.1c0,0,2.5-0.9,2.5-1.1l-2.6-1.3c-4.4-1-9.1-2.5-11.3-6.3
			c-0.8-1.5-1.2-3.1-1.4-4.7c-1.7-11.4-0.1-23.4-5.7-34c-1.4,0.1-2.8,0.2-4.1,0.3c1.3-13.2-1.6-27.3-8.4-39.9
			c-0.8,5.8-1.7,11.6-2.5,17.3c1.1,12.4,2.5,24.8,4.2,37.1C75.6,65,77,73.4,81.9,80.4"/>
		<path class="st6" d="M81.9,80.4c4.9,7,14.5,12,21.9,9.1c0,0,2.5-0.9,2.5-1.1l-2.6-1.3c-4.4-1-9.1-2.5-11.3-6.3
			c-0.8-1.5-1.2-3.1-1.4-4.7c-1.7-11.4-0.1-23.4-5.7-34c-1.4,0.1-2.8,0.2-4.1,0.3c1.3-13.2-1.6-27.3-8.4-39.9
			c-0.8,5.8-1.7,11.6-2.5,17.3c1.1,12.4,2.5,24.8,4.2,37.1C75.6,65,77,73.4,81.9,80.4z"/>
		<path class="st9" d="M126,70.7c2.2,2.1,4.2,4.4,5.9,6.8c0.9-17.9,2.5-35.6,4.9-53.2c0.4-2.9,1-6.1,3.6-7.5c0.8,2,2.3,3.8,4.2,5.1
			c1.3-19.2-1.1-38.9-3.5-58.5c-0.4-3-0.8-6.1-2.4-8.8c-1.6-2.7-4.7-5.1-7.7-4.8l-2-4.1c-5.6-1.4-11.3-2.8-16.8-2
			c-5.4,0.7-10.6,4.1-11.3,9.3c-0.4,3.1,0.7,6.4,1.7,9.6c6.6,21.5,5,43.6,7.8,65.4c1.2,9.2,3.2,18.4,6,27.5c0.8,2.7,1.7,5.4,3.3,7.8
			C121.4,65.8,123.8,68.3,126,70.7"/>
		<path class="st10" d="M126,70.7c2.2,2.1,4.2,4.4,5.9,6.8c0.9-17.9,2.5-35.6,4.9-53.2c0.4-2.9,1-6.1,3.6-7.5c0.8,2,2.3,3.8,4.2,5.1
			c1.3-19.2-1.1-38.9-3.5-58.5c-0.4-3-0.8-6.1-2.4-8.8c-1.6-2.7-4.7-5.1-7.7-4.8l-2-4.1c-5.6-1.4-11.3-2.8-16.8-2
			c-5.4,0.7-10.6,4.1-11.3,9.3c-0.4,3.1,0.7,6.4,1.7,9.6c6.6,21.5,5,43.6,7.8,65.4c1.2,9.2,3.2,18.4,6,27.5c0.8,2.7,1.7,5.4,3.3,7.8
			C121.4,65.8,123.8,68.3,126,70.7z"/>
		<path class="st4" d="M130.1,49.7c-2.9-11.2,1.6-22,1.7-33.2c0.1-5.6-1-11.3-2-16.9c-2.4-13.2-4.8-26.5-7.2-39.7
			c3.1,30.2,2.9,60.2,0.5,89.8c-0.1,1.6-0.2,3.5,1,4.8c1.1,1.1,2.9,1.4,4.1,0.6c1.1-0.8,1.3-2.5,0.5-3.8L130.1,49.7z"/>
		<path class="st6" d="M130.1,49.7c-2.9-11.2,1.6-22,1.7-33.2c0.1-5.6-1-11.3-2-16.9c-2.4-13.2-4.8-26.5-7.2-39.7
			c3.1,30.2,2.9,60.2,0.5,89.8c-0.1,1.6-0.2,3.5,1,4.8c1.1,1.1,2.9,1.4,4.1,0.6c1.1-0.8,1.3-2.5,0.5-3.8L130.1,49.7z"/>
		<path class="st11" d="M127.2,71.9c1.7,1.8,3.3,3.7,4.7,5.6c0.9-17.9,2.5-35.6,4.9-53.2c0.4-2.9,1-6.1,3.5-7.5
			c0.8,2,2.3,3.8,4.2,5.1c0.4-6.1,0.4-12.2,0.2-18.4c-1.5,4.4-5,8-9.9,7.6c-2.1-0.2-4.7-1-5.9,0.5c-0.4,0.5-0.5,1.2-0.6,1.9
			c-1.1,9.9-1.1,20.1,0.1,30.3c0.2,1.6,0.4,3.2-0.5,4.5c-1,1.4-3.1,1.8-4.2,3.2c-1,1.3-0.8,3.3-0.5,5
			C124.3,61.7,125.5,66.8,127.2,71.9"/>
		<path class="st6" d="M127.2,71.9c1.7,1.8,3.3,3.7,4.7,5.6c0.9-17.9,2.5-35.6,4.9-53.2c0.4-2.9,1-6.1,3.5-7.5
			c0.8,2,2.3,3.8,4.2,5.1c0.4-6.1,0.4-12.2,0.2-18.4c-1.5,4.4-5,8-9.9,7.6c-2.1-0.2-4.7-1-5.9,0.5c-0.4,0.5-0.5,1.2-0.6,1.9
			c-1.1,9.9-1.1,20.1,0.1,30.3c0.2,1.6,0.4,3.2-0.5,4.5c-1,1.4-3.1,1.8-4.2,3.2c-1,1.3-0.8,3.3-0.5,5
			C124.3,61.7,125.5,66.8,127.2,71.9z"/>
		<path class="st9" d="M123.4,54.9c0.1,17.6-4.7,34.6-13.7,48.9c1.8-5.8-1.1-13.1-6.7-16.9c-1.2-0.9-2.6-1.6-3.5-2.8
			c-0.9-1.2-1.2-2.8-1.4-4.2l-3.3-23.5c-0.2,1.2-2-0.4-2.2-1.6C89.2,27.5,82.5,0,82.5-27.1c0-5.5,0.3-11.2,2.8-15.9
			c3.6-6.9,12-10.9,20.5-9.8c8.9,31.6,13.3,63.9,13.1,95.6L123.4,54.9z"/>
		<path class="st10" d="M123.4,54.9c0.1,17.6-4.7,34.6-13.7,48.9c1.8-5.8-1.1-13.1-6.7-16.9c-1.2-0.9-2.6-1.6-3.5-2.8
			c-0.9-1.2-1.2-2.8-1.4-4.2l-3.3-23.5c-0.2,1.2-2-0.4-2.2-1.6C89.2,27.5,82.5,0,82.5-27.1c0-5.5,0.3-11.2,2.8-15.9
			c3.6-6.9,12-10.9,20.5-9.8c8.9,31.6,13.3,63.9,13.1,95.6L123.4,54.9z"/>
		<path class="st9" d="M121.2,80.8c-2.1-7.8-4.2-15.5-6.2-23.2c-1.6-5.8-3.1-11.7-3.7-17.6c-0.7-7.8,0.3-15.7-2.5-23.3
			c2.1,14.2,6.4,28.4,12.7,41.9c0.7,1.4,1.4,2.9,1.5,4.4c0.1,1.9-0.6,3.6-1.2,5.3c-1.1,3.2-1.5,6.7-1.3,10.2L121.2,80.8z"/>
		<path class="st10" d="M121.2,80.8c-2.1-7.8-4.2-15.5-6.2-23.2c-1.6-5.8-3.1-11.7-3.7-17.6c-0.7-7.8,0.3-15.7-2.5-23.3
			c2.1,14.2,6.4,28.4,12.7,41.9c0.7,1.4,1.4,2.9,1.5,4.4c0.1,1.9-0.6,3.6-1.2,5.3c-1.1,3.2-1.5,6.7-1.3,10.2L121.2,80.8z"/>
		<path class="st11" d="M109.6,103.8c4.7-7.5,8.2-15.7,10.6-24.3c-3.2-1.3-6.6-2.1-10-2.3c-0.6,0-1.2,0-1.7,0.3
			c-0.5,0.3-0.6,0.9-0.7,1.5c-0.7,3.5-1.4,7-2,10.5C109.4,93.6,111,99.2,109.6,103.8"/>
		<path class="st6" d="M109.6,103.8c4.7-7.5,8.2-15.7,10.6-24.3c-3.2-1.3-6.6-2.1-10-2.3c-0.6,0-1.2,0-1.7,0.3
			c-0.5,0.3-0.6,0.9-0.7,1.5c-0.7,3.5-1.4,7-2,10.5C109.4,93.6,111,99.2,109.6,103.8z"/>
		<path class="st4" d="M119.7-56.3c-2.5-0.3-5.1-0.5-7.5-0.1c-5.4,0.7-10.6,4.1-11.3,9.3c-0.4,3.1,0.7,6.4,1.7,9.6
			c6.6,21.5,5,43.6,7.8,65.4c1.2,9.2,3.2,18.4,6,27.5c0.8,2.7,1.7,5.4,3.3,7.8c1.6,2.6,4,5,6.3,7.5c2.2,2.1,4.2,4.4,5.9,6.8
			c0-0.2,0-0.3,0-0.5c-10.1-20.3-11.5-42.9-12.1-64.5C119.2-10.5,119.2-33.4,119.7-56.3"/>
		<path class="st6" d="M119.7-56.3c-2.5-0.3-5.1-0.5-7.5-0.1c-5.4,0.7-10.6,4.1-11.3,9.3c-0.4,3.1,0.7,6.4,1.7,9.6
			c6.6,21.5,5,43.6,7.8,65.4c1.2,9.2,3.2,18.4,6,27.5c0.8,2.7,1.7,5.4,3.3,7.8c1.6,2.6,4,5,6.3,7.5c2.2,2.1,4.2,4.4,5.9,6.8
			c0-0.2,0-0.3,0-0.5c-10.1-20.3-11.5-42.9-12.1-64.5C119.2-10.5,119.2-33.4,119.7-56.3z"/>
		<path class="st4" d="M82.5-27.1c0,27.1,6.7,54.6,10.1,81.9c0.1,1.2,2,2.8,2.2,1.6L98,79.9c0.2,1.4,0.4,3,1.4,4.2
			c0.9,1.2,2.3,1.9,3.5,2.8c5.6,3.9,6.9,11.3,6.5,17.7c0.7-1,1.5-2.8,2.1-3.9c0.1-6.5-1.6-13.4-3.1-20.1
			c-3.2-14.2-5.1-28.6-3.7-42.5c1-10.1,3.9-19.7,5.3-29.7c2.6-18.3,0.3-37.4-2.8-56.3c-0.4-1.6-0.9-3.2-1.3-4.8
			c-8.5-1.1-16.9,2.9-20.5,9.8C82.8-38.2,82.5-32.6,82.5-27.1"/>
		<path class="st6" d="M82.5-27.1c0,27.1,6.7,54.6,10.1,81.9c0.1,1.2,2,2.8,2.2,1.6L98,79.9c0.2,1.4,0.4,3,1.4,4.2
			c0.9,1.2,2.3,1.9,3.5,2.8c5.6,3.9,6.9,11.3,6.5,17.7c0.7-1,1.5-2.8,2.1-3.9c0.1-6.5-1.6-13.4-3.1-20.1
			c-3.2-14.2-5.1-28.6-3.7-42.5c1-10.1,3.9-19.7,5.3-29.7c2.6-18.3,0.3-37.4-2.8-56.3c-0.4-1.6-0.9-3.2-1.3-4.8
			c-8.5-1.1-16.9,2.9-20.5,9.8C82.8-38.2,82.5-32.6,82.5-27.1z"/>
		<path class="st4" d="M81.9,80.4c2.2,3.2,5.4,5.9,9,7.7c-6-14-8.9-28.8-8.3-43.2c-1,0.8-2,1.5-2.9,2.3c-0.1-12.4-0.2-24.9-3.3-37.2
			c-0.7-3-1.7-6-1.8-9C74.2-2.6,75.1-6.1,76-9.5c2.6-10.2,5.2-20.4,7.8-30.6c0.5-2.1,1.1-4.3,2.7-5.8c0.8-0.8,2-1.2,3.1-1.3
			c-0.2-0.4-0.3-0.7-0.5-1.1c-6,1.6-11.6,4.1-16.7,7.3c-1.8,1.2-3.6,2.5-4.5,4.4c-0.9,1.9-0.8,4.1-0.8,6.2c0.8,29,3.2,58.2,7.3,87.3
			C75.6,65,77,73.4,81.9,80.4"/>
		<path class="st6" d="M81.9,80.4c2.2,3.2,5.4,5.9,9,7.7c-6-14-8.9-28.8-8.3-43.2c-1,0.8-2,1.5-2.9,2.3c-0.1-12.4-0.2-24.9-3.3-37.2
			c-0.7-3-1.7-6-1.8-9C74.2-2.6,75.1-6.1,76-9.5c2.6-10.2,5.2-20.4,7.8-30.6c0.5-2.1,1.1-4.3,2.7-5.8c0.8-0.8,2-1.2,3.1-1.3
			c-0.2-0.4-0.3-0.7-0.5-1.1c-6,1.6-11.6,4.1-16.7,7.3c-1.8,1.2-3.6,2.5-4.5,4.4c-0.9,1.9-0.8,4.1-0.8,6.2c0.8,29,3.2,58.2,7.3,87.3
			C75.6,65,77,73.4,81.9,80.4z"/>
		<path class="st9" d="M46.3-23c-2.3,1.5-4.5,3.1-6.8,4.6c-1.4,1-3,2.1-3.2,3.9c-0.2,1.4,0.6,2.9,1.4,4.2
			C44.4,0.8,55.9,9.2,65.8,18.3C57.6,5.2,51.1-8.7,46.3-23"/>
		<path class="st10" d="M46.3-23c-2.3,1.5-4.5,3.1-6.8,4.6c-1.4,1-3,2.1-3.2,3.9c-0.2,1.4,0.6,2.9,1.4,4.2
			C44.4,0.8,55.9,9.2,65.8,18.3C57.6,5.2,51.1-8.7,46.3-23z"/>
		<path class="st9" d="M92.5,54.8c0.1,1.2,2,2.8,2.2,1.6c0.7,5.3,1.5,10.5,2.2,15.8l1.5-0.5c-0.2-9-0.5-18.1-0.7-27.1
			C97,20.7,96.2-4.1,84.5-26.5c-0.7,3-1.3,6-1.8,9.1C84,6.5,89.6,30.7,92.5,54.8"/>
		<path class="st10" d="M92.5,54.8c0.1,1.2,2,2.8,2.2,1.6c0.7,5.3,1.5,10.5,2.2,15.8l1.5-0.5c-0.2-9-0.5-18.1-0.7-27.1
			C97,20.7,96.2-4.1,84.5-26.5c-0.7,3-1.3,6-1.8,9.1C84,6.5,89.6,30.7,92.5,54.8z"/>
		<path class="st13" d="M50.7,3.5c-3-6.3-6.4-12.6-10.1-18.6c-1-1.6-2.2-3.4-4.1-3.9c-1.7,0.6-3.1,1.8-4,3.2
			C37.2-8.5,43.9-2.4,50.7,3.5"/>
		<path class="st6" d="M50.7,3.5c-3-6.3-6.4-12.6-10.1-18.6c-1-1.6-2.2-3.4-4.1-3.9c-1.7,0.6-3.1,1.8-4,3.2
			C37.2-8.5,43.9-2.4,50.7,3.5z"/>
		<path class="st11" d="M109.5,30.2c0.5,3.6,1.1,7.2,1.8,10.9c-1.2-31.4-2.5-62.9-3.7-94.3c-3.9,1.5-7.1,4.4-7.7,8.4
			c-0.4,3.1,0.7,6.4,1.7,9.6C108.3-13.7,106.6,8.4,109.5,30.2"/>
		<path class="st6" d="M109.5,30.2c0.5,3.6,1.1,7.2,1.8,10.9c-1.2-31.4-2.5-62.9-3.7-94.3c-3.9,1.5-7.1,4.4-7.7,8.4
			c-0.4,3.1,0.7,6.4,1.7,9.6C108.3-13.7,106.6,8.4,109.5,30.2z"/>
		<path class="st8" d="M126.7,13.9c-1-2.2,0.1-4.5,2.4-5.3c2.3-0.7,5,0.4,6,2.6c1,2.2-0.1,4.5-2.4,5.3
			C130.4,17.2,127.7,16,126.7,13.9"/>
		<path class="st6" d="M126.7,13.9c-1-2.2,0.1-4.5,2.4-5.3c2.3-0.7,5,0.4,6,2.6c1,2.2-0.1,4.5-2.4,5.3
			C130.4,17.2,127.7,16,126.7,13.9z"/>
		<path class="st11" d="M108.1,79.1c-0.6-1.3-0.3-2.5,0.5-2.8c0.9-0.3,2,0.5,2.6,1.8c0.6,1.3,0.3,2.5-0.5,2.8
			C109.8,81.2,108.7,80.4,108.1,79.1"/>
		<path class="st6" d="M108.1,79.1c-0.6-1.3-0.3-2.5,0.5-2.8c0.9-0.3,2,0.5,2.6,1.8c0.6,1.3,0.3,2.5-0.5,2.8
			C109.8,81.2,108.7,80.4,108.1,79.1z"/>
		<path class="st11" d="M123.5,52.5c-0.5-1-0.1-2.1,0.7-2.4c0.9-0.3,2,0.3,2.4,1.3c0.5,1,0.1,2.1-0.7,2.4
			C125,54.1,123.9,53.5,123.5,52.5"/>
		<path class="st6" d="M123.5,52.5c-0.5-1-0.1-2.1,0.7-2.4c0.9-0.3,2,0.3,2.4,1.3c0.5,1,0.1,2.1-0.7,2.4
			C125,54.1,123.9,53.5,123.5,52.5z"/>
		<path class="st11" d="M81.4,45.3c-0.4-0.8-0.1-1.7,0.7-2c0.8-0.2,1.7,0.2,2.1,1.1c0.4,0.8,0.1,1.7-0.7,2
			C82.7,46.6,81.8,46.1,81.4,45.3"/>
		<path class="st6" d="M81.4,45.3c-0.4-0.8-0.1-1.7,0.7-2c0.8-0.2,1.7,0.2,2.1,1.1c0.4,0.8,0.1,1.7-0.7,2
			C82.7,46.6,81.8,46.1,81.4,45.3z"/>
		<path class="st8" d="M48.4-9.4c-0.6-1.4-0.5-2.8,0.3-3c0.8-0.3,2,0.7,2.6,2.1c0.6,1.4,0.5,2.8-0.3,3C50.3-7.1,49.1-8,48.4-9.4"/>
		<path class="st6" d="M48.4-9.4c-0.6-1.4-0.5-2.8,0.3-3c0.8-0.3,2,0.7,2.6,2.1c0.6,1.4,0.5,2.8-0.3,3C50.3-7.1,49.1-8,48.4-9.4z"/>
	</g>
	<g>
		<path class="st14" d="M80,3.9c42,0,76.1,34.1,76.1,76.1S122,156.1,80,156.1C38,156.1,3.9,122,3.9,80S38,3.9,80,3.9 M80,2.8
			C37.4,2.8,2.8,37.4,2.8,80c0,42.6,34.6,77.2,77.2,77.2c42.6,0,77.2-34.6,77.2-77.2C157.2,37.4,122.6,2.8,80,2.8"/>
	</g>
</g>
</svg>
