<svg xmlns="http://www.w3.org/2000/svg" xmlns:xlink="http://www.w3.org/1999/xlink" viewBox="0 0 185.316 41.258">
  <path fill="none" stroke="#0F2A4C" stroke-miterlimit="10" d="M64.655 20.09H5.775m174.721.32h-58.881"/>
  <defs>
    <path id="a" d="M78.187 6.152h31.995v30H78.187z"/>
  </defs>
  <clipPath id="b">
    <use xlink:href="#a" overflow="visible"/>
  </clipPath>
  <path fill="#8EC341" d="M86.237 11.579c-.697.509-1.342.915-1.913 1.406-2.899 2.492-4.666 5.474-3.911 9.47.328 1.736 1.53 3.348 3.179 4.361.04-.457-.299-.682-.48-.953-2.048-3.035-1.951-6.166.273-9.058.434-.564.688-.705 1.071.066.628 1.264 1.694 2.211 2.591 3.275 3.155 3.746 3.266 7.808 1.341 12.099-.355.791-.778 1.553-1.189 2.318-.094.176-.188.439-.466.371-.205-.051-.24-.277-.268-.455-.231-1.533-1.151-2.633-2.235-3.654-1.878-1.771-3.711-3.58-4.655-6.078-1.387-3.672-.669-6.954 1.834-9.881 1.053-1.232 2.259-2.31 3.746-3.019.296-.141.574-.361 1.082-.268" clip-path="url(#b)"/>
  <path fill="#54B042" d="M93.783 9.091c1.014-.094 2.031-.134 3.047-.074 3.207.187 5.174 2.29 6.307 4.92.119.276.248.707-.271.667-1.77-.14-3.438.431-5.15.671-4.13.579-7.328-1.023-9.936-4.072-.943-1.101-1.786-2.284-2.388-3.607.121-.087.187-.16.215-.148 1.904.807 3.767.418 5.625-.183 2.302-.745 4.638-1.112 7.058-.698 3.359.576 5.701 2.487 7.115 5.526.889 1.91 1.277 3.951 1.111 6.072-.025.316.053.696-.555.926 0-.616.031-1.157-.006-1.693-.215-3.111-1.363-5.801-3.822-7.782-2.614-2.106-5.454-2.052-8.35-.525" clip-path="url(#b)"/>
  <path fill="#1D9046" d="M89.786 32.315c1.399.623 2.771 1.254 4.272 1.559 2.492.504 4.887.334 7.096-1.018 2.252-1.377 3.211-3.516 3.348-6.107-.236.492-.443 1.004-.715 1.477-.293.51-.617 1.006-.973 1.475-1.432 1.893-5.01 3.078-7.256 2.424-.279-.082-.602-.158-.314-.551.863-1.18 1.172-2.598 1.637-3.938 1.645-4.738 5.15-6.936 9.939-7.453 1.107-.119 2.211-.254 3.363-.115-.033.138-.025.259-.078.298-1.473 1.082-2.078 2.639-2.457 4.35-.32 1.453-.729 2.875-1.355 4.246-2.639 5.748-7.977 7.191-13.389 5.258-1.161-.415-2.283-.927-3.118-1.905" clip-path="url(#b)"/>
</svg>
