<?xml version="1.0" encoding="UTF-8"?>
<!-- Generator: Adobe Illustrator 19.0.0, SVG Export Plug-In . SVG Version: 6.00 Build 0)  -->
<svg version="1.1" id="Слой_1" xmlns="http://www.w3.org/2000/svg" xmlns:xlink="http://www.w3.org/1999/xlink" x="0px" y="0px" viewBox="0 0 1200 160" style="enable-background:new 0 0 1200 160;" xml:space="preserve">
<style type="text/css">
	.st0{fill:#6EB7DB;}
</style>
<path id="XMLID_394_" class="st0" d="M1200.4,160H-0.6v-5.7c19.7,0,110.4-6.6,141.7-3.7c49.3,4.6,85.9-6.9,103.4-6.7  c40.2,0.6,58.2,5.4,98.6,7.6c40.4,2.2,67.1-4.5,97.9-5.1c30.9-0.5,57.5,10,82.2,9.5c8.6-0.2,27.5-10.1,47.2-8.2  c29.5,2.8,81-4.2,101.4-4.1c15.5,0.1,41.8,9.9,67,6.1c27.8-4.2,51.3,6.1,63.8,6c24.7-0.3,24.3-11.8,49.3-14.3  c12.1-1.2,42.9,5.1,68.9,4.5c31.9-0.6,66,7.4,87.2,8.1c18.9,0.6,64.5-8.7,103.7-6.3c48.1,2.9,50.1,6.3,88.6,6.6V160z"/>
<g id="XMLID_1_">
</g>
<g id="XMLID_2_">
</g>
<g id="XMLID_3_">
</g>
<g id="XMLID_4_">
</g>
<g id="XMLID_5_">
</g>
<g id="XMLID_6_">
</g>
</svg>