<?xml version="1.0" encoding="utf-8"?>
<!-- Generator: Adobe Illustrator 16.0.0, SVG Export Plug-In . SVG Version: 6.00 Build 0)  -->
<!DOCTYPE svg PUBLIC "-//W3C//DTD SVG 1.1//EN" "http://www.w3.org/Graphics/SVG/1.1/DTD/svg11.dtd">
<svg version="1.1" id="Layer_1" xmlns="http://www.w3.org/2000/svg" xmlns:xlink="http://www.w3.org/1999/xlink" x="0px" y="0px"
	 width="30px" height="35px" viewBox="0 0 30 35" enable-background="new 0 0 30 35" xml:space="preserve">
<path fill-rule="evenodd" clip-rule="evenodd" fill="#777777" d="M28.801,16.864c0.185,0.097,0.368,0.207,0.548,0.331l0.479,0.318
	l0.009,0.567c0.026,1.756-0.185,3.241-0.653,4.384c-0.43,1.055-1.07,1.834-1.933,2.296c-0.859,2.792-2.468,5.212-4.472,6.968
	c-2.169,1.903-4.817,3.032-7.512,3.032c-2.693,0-5.334-1.127-7.504-3.023c-1.994-1.744-3.597-4.148-4.464-6.925
	c-0.892-0.443-1.556-1.219-2.005-2.279c-0.487-1.15-0.708-2.66-0.682-4.452l0.011-0.567l0.476-0.318
	c0.092-0.063,0.184-0.121,0.276-0.177C0.316,9.433,1.203,5.925,4.548,3.222c5.201-4.207,15.079-4.237,20.348-0.426
	C28.468,5.378,29.753,9.974,28.801,16.864L28.801,16.864z M27.254,18.569c-0.75,0.053-1.565,0.07-1.916,0.299
	c-0.306-0.964-0.613-1.931-0.919-2.898c-4.63,0.928-9.796,1.207-16.713-0.605c-0.681,1.118-1.365,2.236-2.049,3.352
	c-0.596-0.073-1.385-0.143-2.165-0.216c-0.101,0.015-0.204,0.038-0.309,0.073c-0.116,0.037-0.237,0.084-0.357,0.143
	c0.026,1.216,0.195,2.222,0.515,2.976c0.282,0.671,0.681,1.107,1.201,1.268l0.585,0.177l0.16,0.584
	c0.706,2.578,2.137,4.802,3.943,6.38c1.771,1.549,3.897,2.465,6.038,2.465c2.144,0,4.272-0.921,6.048-2.474
	c1.806-1.583,3.236-3.814,3.94-6.4l0.154-0.559l0.552-0.19c0.505-0.173,0.895-0.621,1.166-1.293
	c0.307-0.748,0.473-1.741,0.495-2.933c-0.109-0.055-0.219-0.097-0.329-0.134L27.254,18.569z"/>
</svg>
