<?xml version="1.0" encoding="UTF-8" standalone="no"?>
<!-- Created with Inkscape (http://www.inkscape.org/) -->

<svg
   xmlns:dc="http://purl.org/dc/elements/1.1/"
   xmlns:cc="http://creativecommons.org/ns#"
   xmlns:rdf="http://www.w3.org/1999/02/22-rdf-syntax-ns#"
   xmlns:svg="http://www.w3.org/2000/svg"
   xmlns="http://www.w3.org/2000/svg"
   xmlns:sodipodi="http://sodipodi.sourceforge.net/DTD/sodipodi-0.dtd"
   xmlns:inkscape="http://www.inkscape.org/namespaces/inkscape"
   width="870"
   height="1000"
   id="svg2"
   sodipodi:version="0.32"
   inkscape:version="0.47 r22583"
   sodipodi:docname="projecteur.svg"
   inkscape:output_extension="org.inkscape.output.svg.inkscape"
   inkscape:export-filename="movie_lighting.png"
   inkscape:export-xdpi="90"
   inkscape:export-ydpi="90"
   version="1.1">
  <defs
     id="defs4">
    <inkscape:perspective
       sodipodi:type="inkscape:persp3d"
       inkscape:vp_x="0 : 526.18109 : 1"
       inkscape:vp_y="0 : 1000 : 0"
       inkscape:vp_z="744.09448 : 526.18109 : 1"
       inkscape:persp3d-origin="372.04724 : 350.78739 : 1"
       id="perspective10" />
    <inkscape:perspective
       id="perspective2390"
       inkscape:persp3d-origin="372.04724 : 350.78739 : 1"
       inkscape:vp_z="744.09448 : 526.18109 : 1"
       inkscape:vp_y="0 : 1000 : 0"
       inkscape:vp_x="0 : 526.18109 : 1"
       sodipodi:type="inkscape:persp3d" />
  </defs>
  <sodipodi:namedview
     id="base"
     pagecolor="#ffffff"
     bordercolor="#666666"
     borderopacity="1.0"
     inkscape:pageopacity="1"
     inkscape:pageshadow="2"
     inkscape:zoom="0.55048947"
     inkscape:cx="259.30511"
     inkscape:cy="525.27074"
     inkscape:document-units="px"
     inkscape:current-layer="layer1"
     showgrid="false"
     inkscape:window-width="1680"
     inkscape:window-height="988"
     inkscape:window-x="-3"
     inkscape:window-y="-3"
     borderlayer="true"
     inkscape:showpageshadow="false"
     inkscape:window-maximized="1" />
  <metadata
     id="metadata7">
    <rdf:RDF>
      <cc:Work
         rdf:about="">
        <dc:format>image/svg+xml</dc:format>
        <dc:type
           rdf:resource="http://purl.org/dc/dcmitype/StillImage" />
        <dc:title></dc:title>
      </cc:Work>
    </rdf:RDF>
  </metadata>
  <g
     inkscape:label="Calque 1"
     inkscape:groupmode="layer"
     id="layer1"
     transform="translate(0,-52.362183)">
    <path
       style="fill:#000000"
       d="m 48.667913,1009.9942 c 0,-9.9708 0.720093,-17.81342 1.690653,-18.41322 0.940457,-0.5812 1.368235,-4.5933 0.963998,-9.0414 -0.438528,-4.82578 0.158359,-9.70239 1.50534,-12.29873 1.784519,-3.43967 2.050224,-14.4032 1.325246,-54.684 -1.516162,-84.23889 2.459412,-125.36341 17.132175,-177.22037 1.008618,-3.56466 0.611837,-3.74277 -8.337447,-3.74277 -5.168044,0 -11.992334,-1.08466 -15.165108,-2.41031 -5.160745,-2.15629 -5.764793,-3.07665 -5.731667,-8.73316 0.02158,-3.70021 1.386255,-8.04777 3.289897,-10.48148 1.78911,-2.28726 3.269574,-4.71541 3.289926,-5.39589 0.02027,-0.68049 3.405509,-8.39819 7.522546,-17.15042 4.117056,-8.75229 7.485556,-18.18395 7.485556,-20.95932 0,-3.68889 0.917617,-5.28606 3.411601,-5.93825 2.852534,-0.74596 3.22958,-1.7427 2.300885,-6.08224 -0.610905,-2.85455 -1.210437,-5.22035 -1.332288,-5.25736 -1.369037,-0.41578 -13.565329,-10.15235 -16.027146,-12.79482 -1.777846,-1.90829 -4.474977,-7.28055 -5.99359,-11.93834 -1.518623,-4.65778 -3.306774,-9.21726 -3.973693,-10.13215 -0.666881,-0.91491 -1.658834,-4.28341 -2.204316,-7.48557 -0.545472,-3.20214 -2.46355,-12.93337 -4.262356,-21.62494 C 24.598972,535.25622 19.492286,443.43805 25.28874,403.5657 c 2.734894,-18.81262 6.073292,-27.28516 13.336753,-33.84725 6.99287,-6.31765 8.207806,-6.55162 44.986336,-8.66386 l 17.477601,-1.00377 13.68774,-16.08619 c 19.91464,-23.40427 24.79681,-28.17517 29.93026,-29.24829 4.28327,-0.89538 39.62927,-3.66969 96.92154,-7.60738 46.437,-3.19162 44.82059,-2.86942 53.39811,-10.644 l 7.65304,-6.93663 1.0129,-33.06267 c 0.99577,-32.50456 1.08419,-33.13713 5.23875,-37.47354 2.32422,-2.42598 4.22587,-5.54937 4.22587,-6.9409 0,-1.39155 1.85256,-4.27047 4.11677,-6.3976 3.94066,-3.70206 7.8794,-12.43283 9.91119,-21.9697 1.12161,-5.26446 7.20648,-9.94838 17.57772,-13.53072 4.11705,-1.42208 22.83095,-7.95329 41.58644,-14.51379 40.91979,-14.31337 70.13249,-24.18399 154.70143,-52.27172 35.22372,-11.698777 66.09,-22.311765 68.59185,-23.58441 5.99792,-3.05114 19.54296,-3.261304 24.90445,-0.386429 2.34863,1.259439 8.65945,6.175592 14.02394,10.924782 5.3645,4.74921 19.85903,17.438027 32.21017,28.197387 12.35119,10.75938 22.83096,19.97471 23.28842,20.47851 0.45746,0.50383 10.93723,9.86646 23.28839,20.80584 12.35118,10.93934 26.57689,23.66349 31.61269,28.27584 5.03562,4.61233 12.14688,10.85414 15.80284,13.87064 22.96187,18.94658 59.03692,51.57251 59.98009,54.24559 1.41678,4.01528 -4.3797,8.6757 -12.55708,10.09605 -8.34556,1.44956 -76.66825,17.02767 -91.51161,20.86535 -6.86177,1.77407 -21.08433,5.11593 -31.6057,7.42631 -10.52135,2.31042 -31.8552,7.23038 -47.40851,10.93324 -30.08298,7.16201 -38.12213,9.03697 -65.63138,15.30703 -16.59133,3.7816 -17.44486,4.18793 -18.56119,8.83634 -0.64359,2.67988 -2.03691,20.51738 -3.0962,39.63893 -1.58095,28.53452 -1.5337,35.01421 0.26317,36.14866 1.20417,0.7602 9.67483,3.94084 18.82384,7.06809 100.85392,34.47311 155.41863,53.11219 158.86017,54.26597 52.63627,17.6463 97.40208,33.48597 100.64747,35.61249 3.82245,2.50456 4.15032,3.71861 4.15032,15.3668 0,6.95606 -1.09354,19.47712 -2.43031,27.82455 -6.61241,41.29451 -11.41013,72.14925 -11.80106,75.89336 -0.2387,2.28724 -1.96937,14.26414 -3.8459,26.61532 -9.5351,62.75908 -10.03647,65.31658 -13.53838,69.0441 -3.55597,3.78524 -14.30075,6.48205 -46.56682,11.68777 -8.69156,1.40227 -25.1598,4.35519 -36.59607,6.56204 -11.43625,2.20684 -27.15593,5.15919 -34.9326,6.56077 -45.7933,8.25333 -53.23063,9.77633 -53.23063,10.90055 0,0.68298 1.68874,3.77902 3.75276,6.88013 2.06385,3.1011 9.70195,14.99532 16.97326,26.43159 7.27129,11.43626 13.66296,21.1675 14.20375,21.62495 0.54079,0.45744 5.2938,8.10715 10.5623,16.99932 5.26849,8.8922 11.2235,17.52564 13.23346,19.18543 2.00979,1.65982 5.8271,7.10983 8.48297,12.11118 2.65587,5.00132 9.2831,16.39919 14.72691,25.32855 9.86713,16.18444 11.00145,21.19257 4.8004,21.19257 -7.04739,0 -47.37059,-8.87701 -67.60604,-14.88324 -2.74472,-0.81467 -12.10166,-3.50928 -20.79322,-5.98803 -8.69158,-2.47873 -17.29997,-5.07309 -19.12976,-5.76524 -1.8298,-0.69214 -11.93531,-3.2351 -22.45668,-5.65105 -10.52137,-2.41593 -22.49826,-5.46194 -26.61531,-6.76892 -10.27318,-3.26127 -63.15458,-17.5812 -107.29293,-29.05421 -38.88057,-10.10636 -45.15028,-12.49824 -50.46218,-19.25122 -1.84107,-2.34053 -17.06539,-31.91312 -33.83189,-65.71681 l -30.48449,-61.46129 -13.30765,0.71618 c -11.1816,0.60178 -13.39797,1.19605 -13.87295,3.7198 -1.23118,6.54161 -11.56433,10.76916 -19.17968,7.84687 -3.98363,-1.52866 -6.47407,-10.96688 -4.36062,-16.5257 1.35582,-3.56606 1.26894,-5.00264 -0.36595,-6.05165 -2.06711,-1.32635 -29.09291,-0.12093 -31.70177,1.41407 -0.70358,0.41394 -3.13569,4.41617 -5.40466,8.89384 -2.26901,4.47766 -9.6215,16.96298 -16.33883,27.74517 -12.88752,20.68612 -48.20069,78.23492 -70.06601,114.1845 -7.1549,11.76364 -14.65902,23.30678 -16.67581,25.65146 -3.65511,4.24929 -3.68934,4.25406 -10.62818,1.47771 -9.06371,-3.6266 -9.25901,-3.08323 -8.08103,22.4838 0.79236,17.1979 1.39978,20.46653 4.39625,23.6561 4.55856,4.85237 4.39653,8.6293 -0.50805,11.84292 -2.1917,1.43604 -4.33758,3.95973 -4.7687,5.60817 -0.45829,1.75256 -2.9724,3.43489 -6.05436,4.05129 l -5.27057,1.05412 0.47437,16.97796 0.47438,16.97796 5.8221,1.48551 c 3.20217,0.81705 7.54579,3.08916 9.65252,5.04915 3.22969,3.00478 4.06544,3.18327 5.32943,1.13807 0.90852,-1.46997 5.29738,-2.7773 11.14073,-3.3185 8.91407,-0.82554 10.10145,-0.5137 15.73465,4.13261 3.35116,2.76405 7.66879,6.14837 9.59478,7.52073 3.94236,2.8091 10.81759,25.04749 9.26047,29.95369 -0.67992,2.1423 -3.82586,3.488 -11.18319,4.784 -8.9306,1.5732 -10.63645,1.4419 -13.36605,-1.0283 -3.67446,-3.3254 -13.46727,-3.0667 -19.02641,0.5025 -3.15027,2.0227 -3.52914,3.3862 -2.73733,9.8514 l 0.91898,7.5039 -51.7409,0 -51.740917,0 0,-17.368 z m 41.236373,-22.68082 c 0.447282,-13.88518 1.200769,-18.23858 3.781237,-21.84762 2.638851,-3.69065 3.222648,-7.33551 3.222648,-20.11954 0,-13.75324 -0.416458,-15.98928 -3.497218,-18.77733 -8.412235,-7.61297 -8.789457,-10.12554 -8.39886,-55.94317 0.353387,-41.45224 0.248329,-43.01201 -3.360879,-49.90372 l -3.725686,-7.11407 -1.129344,7.48553 c -0.621191,4.11708 -1.289446,19.0882 -1.485108,33.26917 -0.195625,14.18097 -0.487857,29.52635 -0.649369,34.10087 -0.161523,4.57451 0.279316,23.5958 0.979685,42.26953 0.975536,26.01153 1.839924,34.57828 3.695849,36.62906 1.565013,1.7293 2.796151,8.25878 3.478195,18.44669 1.223967,18.28272 1.721907,20.44792 4.490269,19.52502 1.387019,-0.4622 2.218778,-6.23022 2.598581,-18.02042 z M 142.18609,789.48779 c 6.89582,-11.43626 14.00927,-23.41316 15.80774,-26.61531 1.79845,-3.20217 12.36428,-20.90578 23.47966,-39.34138 11.11533,-18.4356 20.69514,-34.78422 21.28836,-36.33022 0.98657,-2.57087 -0.35222,-2.70949 -15.67732,-1.62298 -15.51534,1.09998 -17.19553,0.91628 -22.69233,-2.48092 -4.54513,-2.80903 -6.11219,-3.14975 -6.68669,-1.4538 -0.69129,2.04076 -16.72619,61.63036 -29.17427,108.41876 -5.22439,19.63696 -5.5937,27.56426 -1.05249,22.59371 1.19321,-1.30605 7.81155,-11.73158 14.70734,-23.16786 z M 117.3047,655.43345 c 1.0774,-5.63597 -2.5716,-8.16219 -9.08969,-6.29284 -7.32428,2.10058 -9.205422,9.19458 -4.27447,16.11948 l 3.55812,4.99691 4.5215,-5.41603 c 2.48684,-2.97882 4.86492,-7.2122 5.28454,-9.40752 z m 299.99576,-45.96292 c -1.50473,-7.52367 -3.91487,-9.37635 -5.25443,-4.03908 -1.40353,5.59201 0.0412,9.39333 3.56996,9.39333 2.2159,0 2.54568,-1.04821 1.68447,-5.35425 z m 13.08198,-30.09902 c 1.05124,-13.43833 0.90121,-14.87487 -1.3576,-13.00021 -1.8514,1.53651 -3.42355,1.6344 -5.80244,0.36124 -3.0747,-1.64553 -3.32946,-0.99549 -4.41475,11.26479 -1.06054,11.9807 -0.77763,13.88145 3.57254,24.00164 l 4.72428,10.99054 1.04805,-9.25515 c 0.57642,-5.09031 1.57988,-16.0536 2.22992,-24.36285 z m -4.97817,-45.64028 c 0.61779,-10.75009 1.49062,-20.85559 1.93967,-22.45668 1.02251,-3.64582 -2.39547,-3.79525 -7.35491,-0.32154 -3.45149,2.41753 -3.69705,3.84463 -3.69705,21.48634 0,18.81505 0.44145,20.31997 6.07386,20.70618 1.28473,0.0883 2.285,-6.30323 3.03843,-19.4143 z"
       id="path2396" />
  </g>
</svg>
