<?xml version="1.0" standalone="no"?>
<!DOCTYPE svg PUBLIC "-//W3C//DTD SVG 20010904//EN"
 "http://www.w3.org/TR/2001/REC-SVG-20010904/DTD/svg10.dtd">
<svg version="1.0" xmlns="http://www.w3.org/2000/svg"
 width="200.000000pt" height="200.000000pt" viewBox="0 0 200.000000 200.000000"
 preserveAspectRatio="xMidYMid meet">
<metadata>
Created by potrace 1.13, written by Peter Selinger 2001-2015
</metadata>
<g transform="translate(0.000000,200.000000) scale(0.100000,-0.100000)"
fill="#000000" stroke="none">
<path d="M203 1943 c-7 -2 -13 -17 -13 -32 0 -42 59 -324 70 -335 5 -5 67 -41
137 -80 l127 -71 -3 -86 c-1 -47 1 -102 4 -122 l7 -37 82 0 82 0 9 33 c13 41
45 48 78 15 13 -13 32 -22 44 -20 19 3 22 11 25 62 l3 58 160 -209 c140 -183
163 -209 185 -207 21 3 25 8 25 33 -1 23 -44 87 -199 289 l-199 258 -44 -5
c-40 -4 -43 -3 -43 19 0 13 4 24 10 24 19 0 77 60 94 98 l17 39 35 -35 c19
-19 37 -33 39 -30 2 2 -1 21 -7 42 -9 29 -9 52 1 104 21 104 19 131 -13 159
-32 27 -81 30 -114 8 -17 -13 -26 -14 -44 -4 -31 17 -118 15 -153 -4 -63 -32
-105 -103 -105 -175 0 -56 54 -159 96 -184 23 -13 34 -28 34 -43 0 -20 -3 -22
-37 -15 -28 5 -244 113 -270 135 -2 1 -16 68 -33 150 -35 171 -43 186 -87 168z"/>
<path d="M1448 1350 c-36 -4 -78 -14 -93 -24 -63 -41 -83 -131 -45 -205 20
-39 63 -81 84 -81 6 0 11 -15 11 -32 0 -27 4 -34 23 -36 16 -2 25 3 31 20 5
13 5 28 0 34 -5 6 4 15 25 22 39 14 57 38 80 106 19 55 9 111 -24 141 -12 11
-18 25 -15 36 8 24 0 26 -77 19z"/>
<path d="M792 1130 c-15 -24 -59 -37 -75 -21 -6 6 -48 11 -102 11 -106 0 -108
-1 -152 -95 -27 -58 -28 -65 -28 -235 l0 -175 58 -3 57 -3 0 -194 0 -195 40 0
40 0 0 195 0 195 55 0 55 0 0 -195 0 -195 40 0 40 0 0 195 0 195 60 0 60 0 0
164 c0 90 -3 171 -6 180 -3 9 -15 16 -26 16 -34 0 -58 19 -60 48 0 17 -3 10
-7 -17 l-6 -45 -28 25 -28 24 16 69 c17 73 16 87 -3 56z"/>
<path d="M1271 978 c-5 -13 -16 -40 -24 -60 l-15 -37 29 -10 c23 -8 30 -7 39
7 6 12 9 -22 10 -110 l0 -128 120 0 120 0 1 133 c0 88 3 125 9 110 8 -20 12
-21 40 -12 17 6 30 14 28 18 -2 4 -12 30 -22 59 l-20 52 -56 0 c-44 0 -58 -4
-68 -20 -7 -11 -21 -20 -32 -20 -11 0 -25 9 -32 20 -10 16 -24 20 -66 20 -45
0 -54 -3 -61 -22z"/>
<path d="M1236 861 c-12 -18 -96 -260 -96 -274 0 -23 20 -32 35 -16 11 13 105
260 105 279 0 10 -39 20 -44 11z"/>
<path d="M1586 852 c-5 -8 74 -234 95 -273 5 -11 16 -19 24 -19 30 0 27 13
-67 273 -9 26 -40 37 -52 19z"/>
<path d="M1317 623 c-4 -3 -7 -105 -7 -225 l0 -218 50 0 50 0 0 180 0 180 25
0 25 0 0 -180 0 -180 45 0 45 0 0 225 0 225 -113 0 c-63 0 -117 -3 -120 -7z"/>
</g>
</svg>
