<!-- Generator: Adobe Illustrator 21.0.0, SVG Export Plug-In  -->
<svg version="1.1"
	 xmlns="http://www.w3.org/2000/svg" xmlns:xlink="http://www.w3.org/1999/xlink" xmlns:a="http://ns.adobe.com/AdobeSVGViewerExtensions/3.0/"
	 x="0px" y="0px" width="84px" height="80px" viewBox="0 0 84 80" style="overflow:scroll;enable-background:new 0 0 84 80;"
	 xml:space="preserve">
<style type="text/css">
	.st0{fill:none;stroke:#084E9C;stroke-miterlimit:10;}
</style>
<defs>
</defs>
<line class="st0" x1="11.5" y1="10" x2="11.5" y2="4"/>
<line class="st0" x1="81.5" y1="4" x2="81.5" y2="45"/>
<polyline class="st0" points="22,49.5 83.5,49.5 83.5,45.5 22,45.5 "/>
<rect x="9.5" y="0.5" class="st0" width="74" height="4"/>
<line class="st0" x1="46.5" y1="50" x2="46.5" y2="61"/>
<g>
	<line class="st0" x1="37.8" y1="50.1" x2="31.6" y2="60.5"/>
	<line class="st0" x1="54.5" y1="50.1" x2="60.7" y2="60.5"/>
</g>
<g>
	<path class="st0" d="M43.5,36v2.5h-6v-2H44 M46.5,33.5h-11v8h11V33.5L46.5,33.5z"/>
	<path class="st0" d="M58.5,28v10.5h-6v-11H59 M60.5,24.5h-11v16h11V24.5L60.5,24.5z"/>
	<path class="st0" d="M72.5,17v21.5h-6v-22H73 M74.5,13.5h-11v27h11V13.5L74.5,13.5z"/>
</g>
<path class="st0" d="M21,30.5h23.5v-1.1c0-2-1.6-4.9-3.5-4.9c-7.2,0-14.3,0-21.5,0c-0.5,0-10.9,0.1-15.5,1.6c-1.9,0.6-3.4,3-3.4,5
	c0,7.5,0,15,0,22.4c0,2,3.6,3.7,5.6,3.7"/>
<rect x="6.5" y="51.5" class="st0" width="15" height="25"/>
<circle class="st0" cx="13.2" cy="16.9" r="6.9"/>
<g>
	<line class="st0" x1="6.5" y1="32" x2="6.5" y2="78"/>
	<line class="st0" x1="21.5" y1="32" x2="21.5" y2="78"/>
</g>
<line class="st0" x1="14.5" y1="55" x2="14.5" y2="78"/>
<g>
	<polyline class="st0" points="6.5,34 6.5,79.5 21.5,79.5 21.5,32 	"/>
</g>
<line class="st0" x1="14.5" y1="55" x2="14.5" y2="80"/>
<line class="st0" x1="27" y1="12.5" x2="51" y2="12.5"/>
<line class="st0" x1="27" y1="18.5" x2="51" y2="18.5"/>
</svg>
