<?xml version="1.0" encoding="UTF-8"?>
<svg width="50px" height="52px" viewBox="0 0 50 52" version="1.1" xmlns="http://www.w3.org/2000/svg" xmlns:xlink="http://www.w3.org/1999/xlink">
    <!-- Generator: Sketch 42 (36781) - http://www.bohemiancoding.com/sketch -->
    <title>integration_icon</title>
    <desc>Created with Sketch.</desc>
    <defs></defs>
    <g id="Tour-Page" stroke="none" stroke-width="1" fill="none" fill-rule="evenodd">
        <g transform="translate(-560.000000, -3776.000000)" id="integration_icon" fill-rule="nonzero" fill="#000000">
            <g transform="translate(560.000000, 3776.000000)">
                <g id="Layer_1">
                    <path d="M18.1004098,17.5621875 C27.2979508,17.5621875 34.7540984,24.9530938 34.7540984,34.0701563 C34.7540984,43.1872188 27.2983607,50.578125 18.1004098,50.578125 C8.90286885,50.578125 1.44672131,43.1872188 1.44672131,34.0701563 C1.45737705,24.9571563 8.90737705,17.5723438 18.1004098,17.5621875 L18.1004098,17.5621875 Z M18.1004098,16.3434375 C8.22377049,16.3434375 0.217213115,24.2799375 0.217213115,34.0701563 C0.217213115,43.860375 8.22377049,51.796875 18.1004098,51.796875 C27.9770492,51.796875 35.9836066,43.860375 35.9836066,34.0701563 C35.9840164,24.2799375 27.977459,16.3434375 18.1004098,16.3434375 L18.1004098,16.3434375 L18.1004098,16.3434375 Z" id="Shape"></path>
                    <path d="M31.8995902,17.5621875 C41.0971311,17.5621875 48.5532787,24.9530938 48.5532787,34.0701563 C48.5532787,43.1872188 41.0971311,50.578125 31.8995902,50.578125 C22.7020492,50.578125 15.2459016,43.1872188 15.2459016,34.0701563 C15.2561475,24.9571563 22.7061475,17.5723438 31.8995902,17.5621875 L31.8995902,17.5621875 Z M31.8995902,16.3434375 C22.0229508,16.3434375 14.0163934,24.2799375 14.0163934,34.0701563 C14.0163934,43.860375 22.0229508,51.796875 31.8995902,51.796875 C41.7762295,51.796875 49.7827869,43.860375 49.7827869,34.0701563 C49.7827869,24.2799375 41.7762295,16.3434375 31.8995902,16.3434375 L31.8995902,16.3434375 L31.8995902,16.3434375 Z" id="Shape"></path>
                    <path d="M25.2762295,1.421875 C34.4737705,1.421875 41.929918,8.81278125 41.929918,17.9298437 C41.929918,27.0469062 34.4737705,34.4378125 25.2758197,34.4378125 C16.0782787,34.4378125 8.62213115,27.0469062 8.62213115,17.9298437 C8.63278689,8.81684375 16.0827869,1.43203125 25.2762295,1.421875 L25.2762295,1.421875 Z M25.2762295,0.203125 C15.3995902,0.203125 7.39303279,8.139625 7.39303279,17.9298437 C7.39303279,27.7200625 15.3991803,35.6565625 25.2758197,35.6565625 C35.152459,35.6565625 43.1590164,27.7200625 43.1590164,17.9298437 L43.1590164,17.9298437 C43.1590164,8.139625 35.152459,0.203125 25.2762295,0.203125 L25.2762295,0.203125 Z" id="Shape"></path>
                </g>
            </g>
        </g>
    </g>
</svg>