<?xml version="1.0" encoding="UTF-8"?>
<svg width="50px" height="42px" viewBox="0 0 50 42" version="1.1" xmlns="http://www.w3.org/2000/svg" xmlns:xlink="http://www.w3.org/1999/xlink">
    <!-- Generator: Sketch 42 (36781) - http://www.bohemiancoding.com/sketch -->
    <title>notifications_icon</title>
    <desc>Created with Sketch.</desc>
    <defs></defs>
    <g id="Tour-Page" stroke="none" stroke-width="1" fill="none" fill-rule="evenodd">
        <g transform="translate(-1094.000000, -3777.000000)" id="notifications_icon" fill-rule="nonzero" fill="#000000">
            <g transform="translate(1094.000000, 3777.000000)">
                <path d="M42.96875,32.3944444 C42.96875,32.7833333 42.65625,33.1333333 42.2265625,33.1333333 L13.0859375,33.1333333 L12.734375,33.4833333 L7.109375,39.0833333 L7.109375,33.1333333 L2.109375,33.1333333 C1.71875,33.1333333 1.3671875,32.8222222 1.3671875,32.3944444 L1.3671875,7.66111111 C1.3671875,7.27222222 1.6796875,6.92222222 2.109375,6.92222222 L35.6847656,6.92222222 C35.6523438,6.52322222 35.6660156,6.13083333 35.7453125,5.75555556 L2.109375,5.75555556 C1.0546875,5.75555556 0.1953125,6.61111111 0.1953125,7.66111111 L0.1953125,32.3944444 C0.1953125,33.4444444 1.0546875,34.3 2.109375,34.3 L5.9375,34.3 L5.9375,41.9222222 L13.59375,34.3 L42.265625,34.3 C43.3203125,34.3 44.1796875,33.4444444 44.1796875,32.3944444 L44.1796875,13.8685556 C43.7972656,14.0346111 43.3933594,14.1411667 42.96875,14.1847222 L42.96875,32.3944444 L42.96875,32.3944444 Z" id="Shape"></path>
                <path d="M30.78125,19.4444444 C31.09375,19.4444444 31.328125,19.6777778 31.328125,19.9888889 C31.328125,20.3 31.09375,20.5333333 30.78125,20.5333333 C30.46875,20.5333333 30.234375,20.3 30.234375,19.9888889 L30.234375,19.9888889 C30.1953125,19.7166667 30.46875,19.4444444 30.78125,19.4444444 L30.78125,19.4444444 Z M30.78125,18.2777778 C29.8046875,18.2777778 29.0625,19.0555556 29.0625,19.9888889 C29.0625,20.9611111 29.84375,21.7 30.78125,21.7 C31.7578125,21.7 32.5,20.9222222 32.5,19.9888889 C32.5,19.0555556 31.71875,18.2777778 30.78125,18.2777778 L30.78125,18.2777778 L30.78125,18.2777778 Z" id="Shape"></path>
                <path d="M42.4609375,1.24444444 C45.859375,1.24444444 48.6328125,4.00555556 48.6328125,7.38888889 C48.6328125,10.7722222 45.859375,13.5333333 42.4609375,13.5333333 C39.0625,13.5333333 36.328125,10.7722222 36.328125,7.38888889 C36.328125,4.00555556 39.0625,1.28333333 42.4609375,1.24444444 L42.4609375,1.24444444 Z M42.4609375,0.0777777778 C38.4375,0.0777777778 35.15625,3.34444444 35.15625,7.38888889 C35.15625,11.4333333 38.4375,14.7 42.5,14.7 C46.5625,14.7 49.84375,11.4333333 49.84375,7.38888889 L49.84375,7.38888889 C49.8046875,3.34444444 46.5234375,0.0777777778 42.4609375,0.0777777778 L42.4609375,0.0777777778 Z" id="Shape"></path>
                <path d="M23.1640625,19.4444444 C23.4765625,19.4444444 23.7109375,19.6777778 23.7109375,19.9888889 C23.7109375,20.3 23.4765625,20.5333333 23.1640625,20.5333333 C22.8515625,20.5333333 22.6171875,20.3 22.6171875,19.9888889 L22.6171875,19.9888889 C22.578125,19.7166667 22.8515625,19.4444444 23.1640625,19.4444444 L23.1640625,19.4444444 Z M23.1640625,18.2777778 C22.1875,18.2777778 21.4453125,19.0555556 21.4453125,19.9888889 C21.4453125,20.9611111 22.2265625,21.7 23.1640625,21.7 C24.140625,21.7 24.8828125,20.9222222 24.8828125,19.9888889 C24.8828125,19.0555556 24.1015625,18.2777778 23.1640625,18.2777778 L23.1640625,18.2777778 L23.1640625,18.2777778 Z" id="Shape"></path>
                <path d="M15.546875,19.4444444 C15.859375,19.4444444 16.09375,19.6777778 16.09375,19.9888889 C16.09375,20.3 15.859375,20.5333333 15.546875,20.5333333 C15.234375,20.5333333 15,20.3 15,19.9888889 L15,19.9888889 C14.9609375,19.7166667 15.234375,19.4444444 15.546875,19.4444444 L15.546875,19.4444444 Z M15.546875,18.2777778 C14.5703125,18.2777778 13.828125,19.0555556 13.828125,19.9888889 C13.828125,20.9611111 14.609375,21.7 15.546875,21.7 C16.5234375,21.7 17.265625,20.9222222 17.265625,19.9888889 C17.265625,19.0555556 16.484375,18.2777778 15.546875,18.2777778 L15.546875,18.2777778 L15.546875,18.2777778 Z" id="Shape"></path>
            </g>
        </g>
    </g>
</svg>