<?xml version="1.0" encoding="iso-8859-1"?>
<!-- Generator: Adobe Illustrator 16.0.0, SVG Export Plug-In . SVG Version: 6.00 Build 0)  -->
<!DOCTYPE svg PUBLIC "-//W3C//DTD SVG 1.1//EN" "http://www.w3.org/Graphics/SVG/1.1/DTD/svg11.dtd">
<svg version="1.1" id="Capa_1" xmlns="http://www.w3.org/2000/svg" xmlns:xlink="http://www.w3.org/1999/xlink" x="0px" y="0px"
	 width="485.211px" height="485.211px" viewBox="0 0 485.211 485.211" style="enable-background:new 0 0 485.211 485.211;"
	 xml:space="preserve">
<g>
	<path d="M474.495,238.165c5.89-5.895,10.716-3.909,10.716,4.44v212.28c0,8.354-4.826,10.337-10.716,4.447l-69.535-69.544
		c-5.899-5.89-10.725-17.525-10.725-25.884v-30.321c0-8.35,4.825-19.994,10.725-25.884L474.495,238.165z M333.586,227.445H30.327
		C13.562,227.445,0,241.01,0,257.771v181.955c0,16.76,13.564,30.322,30.327,30.322h303.259c16.76,0,30.322-13.562,30.322-30.322
		V257.771C363.908,241.01,350.346,227.445,333.586,227.445z M242.606,439.727H30.327V257.771h212.28V439.727z M303.255,318.415
		c-16.76,0-30.322-13.558-30.322-30.321c0-16.76,13.562-30.322,30.322-30.322c16.765,0,30.331,13.562,30.331,30.322
		C333.586,304.857,320.02,318.415,303.255,318.415z M90.978,45.489c33.493,0,60.651,27.155,60.651,60.651
		c0,33.495-27.158,60.653-60.651,60.653s-60.651-27.158-60.651-60.653C30.327,72.645,57.484,45.489,90.978,45.489 M90.978,15.163
		C40.811,15.163,0,55.972,0,106.141c0,50.168,40.811,90.978,90.978,90.978s90.978-40.809,90.978-90.978
		C181.955,55.972,141.144,15.163,90.978,15.163L90.978,15.163z M272.933,45.489c33.496,0,60.653,27.155,60.653,60.651
		c0,33.495-27.157,60.653-60.653,60.653c-33.495,0-60.65-27.158-60.65-60.653C212.282,72.645,239.438,45.489,272.933,45.489
		 M272.933,15.163c-50.171,0-90.978,40.809-90.978,90.978c0,50.168,40.812,90.978,90.978,90.978
		c50.172,0,90.976-40.809,90.976-90.978C363.908,55.972,323.104,15.163,272.933,15.163L272.933,15.163z"/>
</g>
<g>
</g>
<g>
</g>
<g>
</g>
<g>
</g>
<g>
</g>
<g>
</g>
<g>
</g>
<g>
</g>
<g>
</g>
<g>
</g>
<g>
</g>
<g>
</g>
<g>
</g>
<g>
</g>
<g>
</g>
</svg>
