<?xml version="1.0" encoding="iso-8859-1"?>
<!-- Generator: Adobe Illustrator 19.0.0, SVG Export Plug-In . SVG Version: 6.00 Build 0)  -->
<svg version="1.1" id="Capa_1" xmlns="http://www.w3.org/2000/svg" xmlns:xlink="http://www.w3.org/1999/xlink" x="0px" y="0px"
	 viewBox="0 0 468.107 468.107" style="enable-background:new 0 0 468.107 468.107;" xml:space="preserve">
<path style="fill:#FCD462;" d="M114.249,456.366H12.488C5.591,456.366,0,450.775,0,443.879V36.795
	c0-6.897,5.591-12.488,12.488-12.488h101.762c6.897,0,12.488,5.591,12.488,12.488v407.083
	C126.737,450.775,121.146,456.366,114.249,456.366z"/>
<path style="fill:#E1E6E9;" d="M20.163,309.942V58.4c0-6.897,5.591-12.488,12.488-12.488h61.436c6.897,0,12.488,5.591,12.488,12.488
	v251.542c0,6.897-5.591,12.488-12.488,12.488H32.651C25.754,322.43,20.163,316.839,20.163,309.942z"/>
<circle style="fill:#64798A;" cx="63.37" cy="397.331" r="37.445"/>
<path style="fill:#3A556A;" d="M35.74,404.83c0-20.68,16.765-37.445,37.445-37.445c6.309,0,12.243,1.575,17.458,4.33
	c-6.83-7.274-16.508-11.844-27.274-11.844c-20.681,0-37.445,16.765-37.445,37.445c0,14.371,8.105,26.836,19.987,33.113
	C39.62,423.731,35.74,414.742,35.74,404.83z"/>
<g>
	<rect x="40.324" y="273.702" style="fill:#D15241;" width="46.086" height="11.52"/>
	<rect x="40.324" y="226.049" style="fill:#D15241;" width="46.086" height="11.52"/>
	<rect x="40.324" y="178.42" style="fill:#D15241;" width="46.086" height="11.52"/>
	<rect x="40.324" y="130.767" style="fill:#D15241;" width="46.086" height="11.52"/>
	<rect x="40.324" y="83.132" style="fill:#D15241;" width="46.086" height="11.52"/>
</g>
<path style="fill:#44C4A1;" d="M240.987,456.366H139.225c-6.897,0-12.488-5.591-12.488-12.488V36.795
	c0-6.897,5.591-12.488,12.488-12.488h101.762c6.897,0,12.488,5.591,12.488,12.488v407.083
	C253.475,450.775,247.884,456.366,240.987,456.366z"/>
<path style="fill:#E1E6E9;" d="M146.9,309.942V58.4c0-6.897,5.591-12.488,12.488-12.488h61.436c6.897,0,12.488,5.591,12.488,12.488
	v251.542c0,6.897-5.591,12.488-12.488,12.488h-61.436C152.491,322.43,146.9,316.839,146.9,309.942z"/>
<circle style="fill:#64798A;" cx="190.109" cy="397.331" r="37.445"/>
<path style="fill:#3A556A;" d="M162.477,404.83c0-20.68,16.765-37.445,37.445-37.445c6.309,0,12.243,1.575,17.458,4.33
	c-6.83-7.274-16.508-11.844-27.274-11.844c-20.681,0-37.445,16.765-37.445,37.445c0,14.371,8.105,26.836,19.987,33.113
	C166.357,423.731,162.477,414.742,162.477,404.83z"/>
<g>
	<rect x="167.056" y="273.702" style="fill:#D15241;" width="46.086" height="11.52"/>
	<rect x="167.056" y="226.049" style="fill:#D15241;" width="46.086" height="11.52"/>
	<rect x="167.056" y="178.42" style="fill:#D15241;" width="46.086" height="11.52"/>
	<rect x="167.056" y="130.767" style="fill:#D15241;" width="46.086" height="11.52"/>
	<rect x="167.056" y="83.132" style="fill:#D15241;" width="46.086" height="11.52"/>
</g>
<path style="fill:#27A2DB;" d="M458.319,433.856l-99.35,22.025c-6.733,1.493-13.402-2.756-14.895-9.489L255.966,48.959
	c-1.493-6.733,2.756-13.402,9.489-14.895l99.349-22.025c6.733-1.493,13.402,2.756,14.895,9.489l88.109,397.434
	C469.301,425.695,465.052,432.364,458.319,433.856z"/>
<path style="fill:#E1E6E9;" d="M334.771,311.267l-54.444-245.58c-1.493-6.733,2.756-13.402,9.489-14.895l59.98-13.297
	c6.733-1.493,13.402,2.756,14.895,9.489l54.444,245.58c1.493,6.733-2.756,13.402-9.489,14.895l-59.98,13.297
	C342.932,322.249,336.263,318,334.771,311.267z"/>
<circle style="fill:#64798A;" cx="395.864" cy="387.216" r="37.445"/>
<path style="fill:#3A556A;" d="M370.516,400.534c-4.476-20.19,8.263-40.186,28.453-44.662c6.159-1.365,12.294-1.112,17.982,0.449
	c-8.243-5.623-18.68-7.99-29.191-5.66c-20.191,4.476-32.929,24.472-28.453,44.662c3.11,14.03,13.722,24.446,26.68,28.002
	C378.395,418.147,372.661,410.212,370.516,400.534z"/>
<g>
	
		<rect x="347.323" y="266.394" transform="matrix(-0.9763 0.2164 -0.2164 -0.9763 790.8572 457.6962)" style="fill:#D15241;" width="46.086" height="11.52"/>
	
		<rect x="337.016" y="219.869" transform="matrix(-0.9763 0.2164 -0.2164 -0.9763 760.4194 367.9795)" style="fill:#D15241;" width="46.086" height="11.52"/>
	
		<rect x="326.689" y="173.362" transform="matrix(-0.9763 0.2164 -0.2164 -0.9763 729.9426 278.3022)" style="fill:#D15241;" width="46.086" height="11.52"/>
	
		<rect x="316.349" y="126.838" transform="matrix(-0.9763 0.2164 -0.2164 -0.9763 699.4382 188.5959)" style="fill:#D15241;" width="46.086" height="11.52"/>
	
		<rect x="306.047" y="80.35" transform="matrix(-0.9763 0.2164 -0.2164 -0.9763 669.0164 98.9515)" style="fill:#D15241;" width="46.086" height="11.52"/>
</g>
<g>
</g>
<g>
</g>
<g>
</g>
<g>
</g>
<g>
</g>
<g>
</g>
<g>
</g>
<g>
</g>
<g>
</g>
<g>
</g>
<g>
</g>
<g>
</g>
<g>
</g>
<g>
</g>
<g>
</g>
</svg>
