<?xml version="1.0" encoding="iso-8859-1"?>
<!-- Generator: Adobe Illustrator 19.0.0, SVG Export Plug-In . SVG Version: 6.00 Build 0)  -->
<svg version="1.1" id="Capa_1" xmlns="http://www.w3.org/2000/svg" xmlns:xlink="http://www.w3.org/1999/xlink" x="0px" y="0px"
	 viewBox="0 0 468.293 468.293" style="enable-background:new 0 0 468.293 468.293;" xml:space="preserve">
<g>
	<polygon style="fill:#F6C358;" points="359.072,468.293 387.905,468.293 312.939,0 312.774,0 284.107,0 184.352,0 155.519,0 
		80.554,468.293 109.387,468.293 179.736,28.832 288.722,28.832 	"/>
	<rect x="149.797" y="327.754" style="fill:#F6C358;" width="25.95" height="89.65"/>
	<rect x="292.527" y="327.754" style="fill:#F6C358;" width="25.95" height="89.65"/>
</g>
<path style="fill:#FCD462;" d="M437.904,355.114H30.389c-6.897,0-12.488-5.591-12.488-12.488V79.275
	c0-6.897,5.591-12.488,12.488-12.488h407.515c6.897,0,12.488,5.591,12.488,12.488v263.351
	C450.392,349.523,444.801,355.114,437.904,355.114z"/>
<rect x="40.96" y="89.861" style="fill:#64798A;" width="386.31" height="242.201"/>
<polygon style="fill:#3A556A;" points="427.297,89.852 427.297,332.053 156.936,332.053 401.135,89.852 "/>
<g>
	<path style="fill:#E1E6E9;" d="M109.218,244.618l-13.296,13.296l-30.361-30.371l11.815-11.821c2.055-2.05,4.07-3.58,6.055-4.58
		c1.99-1,3.76-1.44,5.32-1.325c2.96,0.175,5.42,1.245,7.39,3.215c2.375,2.375,3.39,4.895,3.04,7.56
		c-0.145,0.955-0.27,1.59-0.37,1.89c-0.1,0.3-0.295,0.83-0.59,1.58c2.29-1.475,4.64-2.12,7.04-1.95
		c2.405,0.17,4.56,1.215,6.475,3.13c2.115,2.11,3.265,4.705,3.43,7.775C115.343,236.607,113.363,240.473,109.218,244.618z
		 M83.282,235.012l6.515-6.515c3.705-3.705,4.305-6.82,1.785-9.34c-1.45-1.445-2.94-2.045-4.48-1.785
		c-1.535,0.265-3.24,1.335-5.125,3.22l-6.56,6.56L83.282,235.012z M96.317,248.053l8.035-8.04c1.885-1.88,3.03-3.62,3.43-5.215
		c0.41-1.595-0.215-3.215-1.87-4.865c-2.69-2.69-6.19-1.88-10.51,2.43l-7.385,7.39L96.317,248.053z"/>
	<path style="fill:#E1E6E9;" d="M123.643,216.372l3.87,9.95l-5.48,5.48l-16.981-43.752l5.47-5.475l43.752,16.986l-5.48,5.475
		l-9.945-3.865L123.643,216.372z M132.029,198.521l-18.031-6.995l6.995,18.031L132.029,198.521z"/>
	<path style="fill:#E1E6E9;" d="M167.695,176.84c1.77-1.77,2.99-3.585,3.67-5.45c0.68-1.87,1.07-4.15,1.15-6.845l6.695,0.085
		c0.345,6.78-1.775,12.461-6.365,17.051c-4.59,4.59-9.875,6.93-15.861,7c-5.98,0.07-11.23-2.15-15.746-6.67
		c-4.52-4.515-6.745-9.82-6.67-15.921c0.075-6.1,2.465-11.5,7.17-16.211c4.705-4.705,10.375-6.9,17.006-6.58l0.305,6.82
		c-2.835,0.06-5.175,0.46-7.015,1.2c-1.84,0.735-3.63,1.97-5.37,3.71c-3.07,3.07-4.65,6.64-4.75,10.71
		c-0.105,4.07,1.39,7.65,4.47,10.73c3.09,3.09,6.7,4.63,10.84,4.63C161.365,181.1,164.86,179.68,167.695,176.84z"/>
	<path style="fill:#E1E6E9;" d="M160.095,133.003l5.13-5.125l14.811,14.816l-0.91-28.716l6.52-6.52l1.08,25.501l29.456,4.695
		l-6.085,6.085l-23.371-3.22l0.35,9.21l8.51,8.52l-5.12,5.12L160.095,133.003z"/>
	<path style="fill:#E1E6E9;" d="M197.393,212.848l16.503,16.509l-3.295,3.295l-16.506-16.506l-5.921,5.921l-3.015-3.015l15.14-15.14
		l3.015,3.015L197.393,212.848z"/>
	<path style="fill:#E1E6E9;" d="M236.506,201.353c-0.045,3.902-1.524,7.303-4.426,10.209c-2.903,2.906-6.31,4.384-10.209,4.429
		c-3.899,0.045-7.287-1.369-10.167-4.246c-2.874-2.877-4.291-6.265-4.243-10.167c0.045-3.899,1.524-7.303,4.426-10.209
		c2.903-2.906,6.31-4.378,10.209-4.423c3.899-0.051,7.287,1.366,10.167,4.243C235.136,194.07,236.551,197.454,236.506,201.353z
		 M221.871,191.553c-2.71-0.045-5.03,0.897-6.966,2.835c-1.938,1.938-2.887,4.259-2.838,6.969c0.048,2.71,1.054,5.043,3.018,7.011
		c1.964,1.961,4.301,2.97,7.011,3.015c2.71,0.048,5.03-0.897,6.966-2.835c1.938-1.935,2.883-4.256,2.838-6.969
		c-0.048-2.707-1.054-5.047-3.018-7.007C226.917,192.604,224.58,191.601,221.871,191.553z"/>
	<path style="fill:#E1E6E9;" d="M215.094,283.383c-1.382,1.387-2.236,2.802-2.556,4.258c-0.325,1.447,0.083,2.746,1.229,3.887
		c1.141,1.141,2.454,1.572,3.947,1.29c1.494-0.278,4.031-1.521,7.617-3.711c3.586-2.189,6.745-3.382,9.472-3.581
		c2.728-0.204,5.325,0.928,7.779,3.382c2.463,2.463,3.53,5.385,3.205,8.767c-0.325,3.386-1.995,6.582-5,9.588
		c-4.407,4.411-9.829,6.805-16.282,7.181l-0.603-6.573c5.321-0.376,9.514-2.092,12.575-5.154c1.531-1.535,2.417-3.08,2.658-4.639
		c0.241-1.559-0.176-2.881-1.271-3.971c-1.085-1.085-2.356-1.512-3.804-1.271c-1.457,0.241-3.46,1.15-6.03,2.723
		c-2.565,1.573-4.592,2.686-6.086,3.344c-1.494,0.659-2.987,1.067-4.495,1.229c-2.927,0.404-5.692-0.7-8.299-3.307
		s-3.669-5.562-3.182-8.864c0.482-3.307,2.12-6.35,4.917-9.147c1.8-1.804,3.878-3.293,6.244-4.476
		c2.366-1.183,4.727-1.883,7.097-2.097l1.048,6.132c-1.591,0.074-3.335,0.589-5.242,1.526
		C218.123,280.841,216.477,282.001,215.094,283.383z"/>
	<path style="fill:#E1E6E9;" d="M264.974,273.814c1.637-1.637,2.774-3.326,3.405-5.061c0.631-1.73,0.988-3.845,1.067-6.346
		l6.211,0.083c0.32,6.281-1.651,11.559-5.91,15.818c-4.258,4.258-9.161,6.425-14.709,6.489c-5.548,0.07-10.418-1.995-14.612-6.183
		c-4.189-4.193-6.253-9.12-6.188-14.779c0.07-5.65,2.292-10.664,6.652-15.029c4.37-4.37,9.63-6.406,15.781-6.109l0.283,6.332
		c-2.63,0.051-4.806,0.417-6.508,1.104c-1.707,0.687-3.368,1.837-4.982,3.447c-2.848,2.848-4.314,6.165-4.411,9.941
		c-0.093,3.767,1.29,7.088,4.152,9.95c2.862,2.862,6.216,4.295,10.057,4.295C259.101,277.761,262.339,276.448,264.974,273.814z"/>
	<path style="fill:#E1E6E9;" d="M286.089,261.322l-28.17-28.17l4.755-4.755l12.214,12.209l13.985-13.985l-12.209-12.214l4.755-4.755
		l28.17,28.17l-4.755,4.759l-11.527-11.527l-13.986,13.985l11.527,11.522L286.089,261.322z"/>
	<path style="fill:#E1E6E9;" d="M337.095,202.536c-0.065,5.627-2.194,10.539-6.387,14.732c-4.189,4.189-9.101,6.322-14.728,6.387
		c-5.631,0.065-10.52-1.976-14.677-6.123c-4.147-4.156-6.193-9.045-6.123-14.672c0.065-5.627,2.199-10.544,6.392-14.732
		c4.193-4.193,9.101-6.322,14.728-6.387c5.627-0.07,10.516,1.976,14.672,6.123C335.124,192.021,337.16,196.91,337.095,202.536z
		 M315.98,188.389c-3.915-0.065-7.264,1.299-10.057,4.096c-2.797,2.792-4.156,6.142-4.091,10.047
		c0.065,3.915,1.521,7.287,4.351,10.122c2.834,2.834,6.206,4.286,10.117,4.351c3.91,0.07,7.259-1.294,10.057-4.091
		c2.797-2.792,4.156-6.142,4.091-10.052c-0.07-3.91-1.521-7.283-4.356-10.117C323.263,189.91,319.886,188.458,315.98,188.389z"/>
	<path style="fill:#E1E6E9;" d="M370.957,168.679c-0.07,5.631-2.199,10.539-6.392,14.732c-4.193,4.193-9.101,6.322-14.732,6.387
		c-5.631,0.07-10.516-1.971-14.667-6.128c-4.156-4.147-6.197-9.041-6.128-14.667c0.065-5.627,2.194-10.539,6.387-14.732
		c4.193-4.193,9.101-6.318,14.732-6.387c5.622-0.07,10.52,1.971,14.667,6.128C368.981,158.159,371.017,163.052,370.957,168.679z
		 M349.833,154.531c-3.906-0.065-7.259,1.299-10.057,4.091c-2.792,2.797-4.156,6.151-4.091,10.057
		c0.07,3.915,1.521,7.283,4.356,10.117c2.834,2.834,6.202,4.286,10.117,4.356c3.906,0.065,7.264-1.299,10.057-4.091
		c2.792-2.797,4.156-6.146,4.091-10.057c-0.07-3.915-1.521-7.283-4.356-10.117C357.115,156.053,353.748,154.605,349.833,154.531z"/>
	<path style="fill:#E1E6E9;" d="M385.124,162.292l-28.175-28.17l4.755-4.755l23.662,23.657l12.858-12.858l4.509,4.513
		L385.124,162.292z"/>
</g>
<g>
</g>
<g>
</g>
<g>
</g>
<g>
</g>
<g>
</g>
<g>
</g>
<g>
</g>
<g>
</g>
<g>
</g>
<g>
</g>
<g>
</g>
<g>
</g>
<g>
</g>
<g>
</g>
<g>
</g>
</svg>
