<?xml version="1.0" encoding="iso-8859-1"?>
<!-- Generator: Adobe Illustrator 19.0.0, SVG Export Plug-In . SVG Version: 6.00 Build 0)  -->
<svg version="1.1" id="Capa_1" xmlns="http://www.w3.org/2000/svg" xmlns:xlink="http://www.w3.org/1999/xlink" x="0px" y="0px"
	 viewBox="0 0 468.293 468.293" style="enable-background:new 0 0 468.293 468.293;" xml:space="preserve">
<path style="fill:#27A2DB;" d="M58.068,43.083v357.151c0,12.488,22.478,22.478,34.966,22.478h282.224
	c12.488,0,34.966-9.99,34.966-22.478V43.083C352.156-14.361,116.137-14.361,58.068,43.083z"/>
<path style="fill:#D5D6DB;" d="M380.878,246.01V84.917c0-6.868-5.62-12.488-12.488-12.488H99.902
	c-6.868,0-12.488,5.62-12.488,12.488V246.01c0,6.868,5.62,12.488,12.488,12.488H368.39
	C375.259,258.498,380.878,252.878,380.878,246.01z"/>
<g>
	<path style="fill:#EBF0F3;" d="M118.01,178.576c-1.249,0-3.122-0.624-4.371-1.873c-2.498-2.498-2.498-6.244,0-8.117l16.859-16.859
		c2.498-2.498,6.244-2.498,8.117,0c2.498,2.498,2.498,6.244,0,8.117l-16.859,16.859C121.132,177.951,119.883,178.576,118.01,178.576
		z"/>
	<path style="fill:#EBF0F3;" d="M152.976,143.61c-1.249,0-3.122-0.624-4.371-1.873c-2.498-2.498-2.498-6.244,0-8.117l34.341-34.341
		c2.498-2.498,6.244-2.498,8.117,0c1.873,2.498,2.498,6.244,0,8.117l-34.341,34.341C155.473,142.985,154.224,143.61,152.976,143.61z
		"/>
	<path style="fill:#EBF0F3;" d="M119.259,224.156c-1.249,0-3.122-0.624-4.371-1.873c-2.498-2.498-2.498-6.244,0-8.117l13.737-13.737
		c2.498-2.498,6.244-2.498,8.117,0c2.498,2.498,2.498,6.244,0,8.117l-13.737,13.737
		C121.756,223.532,120.507,224.156,119.259,224.156z"/>
	<path style="fill:#EBF0F3;" d="M151.727,191.688c-1.249,0-3.122-0.624-4.371-1.873c-2.498-2.498-2.498-6.244,0-8.117l39.337-39.337
		c2.498-2.498,6.244-2.498,8.117,0c2.498,2.498,2.498,6.244,0,8.117l-39.337,39.337
		C154.849,191.063,152.976,191.688,151.727,191.688z"/>
	<path style="fill:#EBF0F3;" d="M213.541,129.873c-1.249,0-3.122-0.624-4.371-1.873c-2.498-2.498-2.498-6.244,0-8.117l19.356-19.356
		c2.498-2.498,6.244-2.498,8.117,0s2.498,6.244,0,8.117L217.288,128C216.663,129.249,214.79,129.873,213.541,129.873z"/>
</g>
<path style="fill:#FCD462;" d="M152.351,330.302H99.278c-6.244,0-11.863-4.995-11.863-11.863V297.21
	c0-7.493,6.868-13.112,14.361-11.239l53.073,11.863c5.62,1.249,9.366,6.244,9.366,11.239v8.741
	C163.59,325.307,158.595,330.302,152.351,330.302z"/>
<path style="fill:#F6C358;" d="M104.273,321.561c-4.371,0-8.117-3.746-8.117-8.117V297.21c0-1.873,1.249-3.122,3.122-3.122h0.624
	l49.327,11.239c3.746,0.624,6.244,3.746,6.244,7.493l0,0c0,4.371-3.746,8.117-8.117,8.117h-43.083V321.561z"/>
<circle style="fill:#E1E6E9;" cx="125.502" cy="369.015" r="26.224"/>
<path style="fill:#FCD462;" d="M315.941,330.302h53.073c6.244,0,11.863-4.995,11.863-11.863V297.21
	c0-7.493-6.868-13.112-14.361-11.239l-53.073,11.863c-5.62,1.249-9.366,6.244-9.366,11.239v8.741
	C304.702,325.307,309.698,330.302,315.941,330.302z"/>
<path style="fill:#F6C358;" d="M364.02,321.561c4.371,0,8.117-3.746,8.117-8.117V297.21c0-1.873-1.249-3.122-3.122-3.122h-0.624
	l-49.327,11.239c-3.746,0.624-6.244,3.746-6.244,7.493l0,0c0,4.371,3.746,8.117,8.117,8.117h43.083V321.561z"/>
<circle style="fill:#E1E6E9;" cx="342.79" cy="369.015" r="26.224"/>
<g>
	<path style="fill:#3A556A;" d="M132.371,468.293h-20.605c-9.366,0-17.483-8.117-17.483-17.483v-28.098h55.571v28.098
		C149.854,460.176,141.737,468.293,132.371,468.293z"/>
	<path style="fill:#3A556A;" d="M356.527,468.293h-20.605c-9.366,0-17.483-8.117-17.483-17.483v-28.098h55.571v28.098
		C374.01,460.176,366.517,468.293,356.527,468.293z"/>
</g>
<g>
	<path style="fill:#2D93BA;" d="M259.746,376.507h-56.195c-3.746,0-6.244-2.498-6.244-6.244s2.498-6.244,6.244-6.244h56.195
		c3.746,0,6.244,2.498,6.244,6.244S262.868,376.507,259.746,376.507z"/>
	<path style="fill:#2D93BA;" d="M259.746,347.161h-56.195c-3.746,0-6.244-2.498-6.244-6.244s2.498-6.244,6.244-6.244h56.195
		c3.746,0,6.244,2.498,6.244,6.244S262.868,347.161,259.746,347.161z"/>
	<path style="fill:#2D93BA;" d="M259.746,317.19h-56.195c-3.746,0-6.244-2.498-6.244-6.244s2.498-6.244,6.244-6.244h56.195
		c3.746,0,6.244,2.498,6.244,6.244S262.868,317.19,259.746,317.19z"/>
</g>
<g>
</g>
<g>
</g>
<g>
</g>
<g>
</g>
<g>
</g>
<g>
</g>
<g>
</g>
<g>
</g>
<g>
</g>
<g>
</g>
<g>
</g>
<g>
</g>
<g>
</g>
<g>
</g>
<g>
</g>
</svg>
