<?xml version="1.0" encoding="iso-8859-1"?>
<!-- Generator: Adobe Illustrator 19.0.0, SVG Export Plug-In . SVG Version: 6.00 Build 0)  -->
<svg version="1.1" id="Capa_1" xmlns="http://www.w3.org/2000/svg" xmlns:xlink="http://www.w3.org/1999/xlink" x="0px" y="0px"
	 viewBox="0 0 468.293 468.293" style="enable-background:new 0 0 468.293 468.293;" xml:space="preserve">
<g>
	<path style="fill:#E1E6E9;" d="M49.013,323.734c0,12.464,10.104,22.568,22.568,22.568h50.982c12.464,0,22.568-10.104,22.568-22.568
		V64.776H49.013V323.734z"/>
	<path style="fill:#E1E6E9;" d="M186.087,323.734c0,12.464,10.104,22.568,22.568,22.568h50.982
		c12.464,0,22.568-10.104,22.568-22.568V64.776h-96.119V323.734z"/>
	<path style="fill:#E1E6E9;" d="M323.162,64.776v258.958c0,12.464,10.104,22.568,22.568,22.568h50.982
		c12.464,0,22.568-10.104,22.568-22.568V64.776H323.162z"/>
	<path style="fill:#E1E6E9;" d="M145.03,34.206H49.114c-3.116,0-5.642,2.526-5.642,5.642v19.285c0,3.117,2.526,5.642,5.642,5.642
		h95.915c3.116,0,5.642-2.526,5.642-5.642V39.848C150.672,36.733,148.146,34.206,145.03,34.206z"/>
	<path style="fill:#E1E6E9;" d="M282.104,34.206h-95.915c-3.116,0-5.642,2.526-5.642,5.642v19.285c0,3.117,2.526,5.642,5.642,5.642
		h95.915c3.116,0,5.642-2.526,5.642-5.642V39.848C287.746,36.733,285.22,34.206,282.104,34.206z"/>
	<path style="fill:#E1E6E9;" d="M419.178,34.206h-95.915c-3.116,0-5.642,2.526-5.642,5.642v19.285c0,3.117,2.526,5.642,5.642,5.642
		h95.915c3.116,0,5.642-2.526,5.642-5.642V39.848C424.82,36.733,422.294,34.206,419.178,34.206z"/>
</g>
<g>
	<rect x="323.247" y="64.774" style="fill:#D5D6DB;" width="96.019" height="16.777"/>
	<rect x="186.131" y="64.774" style="fill:#D5D6DB;" width="96.019" height="16.777"/>
	<rect x="49.065" y="64.774" style="fill:#D5D6DB;" width="96.019" height="16.777"/>
</g>
<path style="fill:#44C4A1;" d="M60.297,218.019v105.712c0,6.221,5.061,11.284,11.284,11.284h50.983
	c6.223,0,11.284-5.064,11.284-11.284V150.314L60.297,218.019z"/>
<path style="fill:#E56353;" d="M197.371,218.019v105.712c0,6.221,5.061,11.284,11.284,11.284h50.983
	c6.223,0,11.284-5.064,11.284-11.284V150.314L197.371,218.019z"/>
<path style="fill:#DC8744;" d="M334.445,218.019v105.712c0,6.221,5.061,11.284,11.284,11.284h50.983
	c6.223,0,11.284-5.064,11.284-11.284V150.314L334.445,218.019z"/>
<g>
	<circle style="fill:#3EA69B;" cx="86.172" cy="263.511" r="12.488"/>
	<circle style="fill:#3EA69B;" cx="111.148" cy="224.581" r="9.366"/>
	<circle style="fill:#3EA69B;" cx="111.148" cy="312.445" r="9.366"/>
</g>
<g>
	<circle style="fill:#D15241;" cx="223.219" cy="263.511" r="12.488"/>
	<circle style="fill:#D15241;" cx="248.195" cy="224.581" r="9.366"/>
	<circle style="fill:#D15241;" cx="248.195" cy="312.445" r="9.366"/>
</g>
<g>
	<circle style="fill:#F6C358;" cx="360.273" cy="263.511" r="12.488"/>
	<circle style="fill:#F6C358;" cx="385.249" cy="224.581" r="9.366"/>
	<circle style="fill:#F6C358;" cx="385.249" cy="312.445" r="9.366"/>
</g>
<path style="fill:#27A2DB;" d="M468.293,416.368H0V128.622h468.293V416.368z M22.568,393.8h423.156V151.19H22.568V393.8z"/>
<g>
	<path style="fill:#2D93BA;" d="M92.417,434.086h-44.34c-3.448,0-6.244-2.796-6.244-6.244v-11.474h56.828v11.474
		C98.661,431.291,95.865,434.086,92.417,434.086z"/>
	<path style="fill:#2D93BA;" d="M420.216,434.086h-44.34c-3.448,0-6.244-2.796-6.244-6.244v-11.474h56.828v11.474
		C426.46,431.291,423.664,434.086,420.216,434.086z"/>
</g>
<g>
</g>
<g>
</g>
<g>
</g>
<g>
</g>
<g>
</g>
<g>
</g>
<g>
</g>
<g>
</g>
<g>
</g>
<g>
</g>
<g>
</g>
<g>
</g>
<g>
</g>
<g>
</g>
<g>
</g>
</svg>
