<?xml version="1.0" encoding="iso-8859-1"?>
<!-- Generator: Adobe Illustrator 19.0.0, SVG Export Plug-In . SVG Version: 6.00 Build 0)  -->
<svg version="1.1" id="Layer_1" xmlns="http://www.w3.org/2000/svg" xmlns:xlink="http://www.w3.org/1999/xlink" x="0px" y="0px"
	 viewBox="0 0 509.287 509.287" style="enable-background:new 0 0 509.287 509.287;" xml:space="preserve">
<circle style="fill:#73D658;" cx="254.644" cy="254.644" r="254.644"/>
<path style="fill:#BDBDBE;" d="M23.396,245.828c-4.069,0-7.799-2.374-9.494-6.103c-2.374-5.086,0-11.528,5.086-13.902
	l273.293-125.118c3.052-1.356,6.442-1.356,9.494,0.339l67.475,38.654c5.086,2.713,6.781,9.155,3.73,14.241
	c-2.713,5.086-9.155,6.781-14.241,3.73l-62.728-35.942L27.804,244.811C26.448,245.489,24.752,245.828,23.396,245.828z"/>
<path style="fill:#DEDEDF;" d="M485.891,245.828c-1.356,0-3.052-0.339-4.408-1.017L213.277,121.727l-63.068,36.281
	c-5.086,2.713-11.189,1.017-14.241-3.73c-2.713-5.086-1.017-11.189,3.73-14.241l67.476-38.654c3.052-1.695,6.442-1.695,9.494-0.339
	l273.632,124.779c5.086,2.374,7.46,8.477,5.086,13.902C493.69,243.454,489.96,245.828,485.891,245.828z"/>
<path style="fill:#F1F3F7;" d="M201.409,195.984H52.895c-16.275,0-29.499,13.224-29.499,29.499v79.343
	c0,16.275,13.224,29.499,29.499,29.499h148.514c16.275,0,29.499-13.224,29.499-29.499v-79.004
	C230.909,209.208,217.685,195.984,201.409,195.984z"/>
<path style="fill:#0090FF;" d="M52.895,313.642c-4.747,0-8.816-4.069-8.816-8.816v-79.004c0-4.747,4.069-8.816,8.816-8.816h148.514
	c4.747,0,8.816,4.069,8.816,8.816v79.343c0,4.747-4.069,8.816-8.816,8.816H52.895V313.642z"/>
<path style="fill:#F1F3F7;" d="M456.392,195.984H307.878c-16.276,0-29.499,13.224-29.499,29.499v79.343
	c0,16.275,13.224,29.499,29.499,29.499h148.514c16.275,0,29.499-13.224,29.499-29.499v-79.004
	C485.891,209.208,472.668,195.984,456.392,195.984z"/>
<path style="fill:#0090FF;" d="M307.878,313.642c-4.747,0-8.816-4.069-8.816-8.816v-79.004c0-4.747,4.069-8.816,8.816-8.816h148.514
	c4.747,0,8.816,4.069,8.816,8.816v79.343c0,4.747-4.069,8.816-8.816,8.816H307.878V313.642z"/>
<rect x="220.397" y="215.65" style="fill:#F1F3F7;" width="68.832" height="20.683"/>
<g>
</g>
<g>
</g>
<g>
</g>
<g>
</g>
<g>
</g>
<g>
</g>
<g>
</g>
<g>
</g>
<g>
</g>
<g>
</g>
<g>
</g>
<g>
</g>
<g>
</g>
<g>
</g>
<g>
</g>
</svg>
