<?xml version="1.0" encoding="iso-8859-1"?>
<!-- Generator: Adobe Illustrator 19.0.0, SVG Export Plug-In . SVG Version: 6.00 Build 0)  -->
<svg version="1.1" id="Capa_1" xmlns="http://www.w3.org/2000/svg" xmlns:xlink="http://www.w3.org/1999/xlink" x="0px" y="0px"
	 viewBox="0 0 468.292 468.292" style="enable-background:new 0 0 468.292 468.292;" xml:space="preserve">
<path style="fill:#3A556A;" d="M3.573,318.817V12.488C3.573,5.591,9.164,0,16.061,0h436.171c6.897,0,12.488,5.591,12.488,12.488
	v306.329H3.573z"/>
<path style="fill:#E1E6E9;" d="M3.573,318.817v57.934c0,10.345,8.386,18.732,18.732,18.732h423.683
	c10.345,0,18.732-8.386,18.732-18.732v-57.934H3.573z"/>
<rect x="20.655" y="19.693" style="fill:#27A2DB;" width="426.958" height="284.659"/>
<circle style="fill:#64798A;" cx="234.146" cy="357.151" r="25.619"/>
<path style="fill:#E1E6E9;" d="M334.343,462.6v-3.567c0-2.148-1.208-4.113-3.124-5.081l-19.017-9.617
	c-7.419-3.75-12.939-10.424-15.233-18.415l-12.006-30.438H183.328l147.844,72.155C333.033,466.702,334.343,464.824,334.343,462.6z"
	/>
<path style="fill:#D5D6DB;" d="M183.328,395.483l-12.006,30.438c-2.294,7.991-7.814,14.665-15.234,18.415l-19.017,9.617
	c-1.916,0.968-3.124,2.933-3.124,5.081v3.567c0,3.143,2.549,5.692,5.693,5.692H328.65c0.919,0,1.754-0.267,2.523-0.654
	L183.328,395.483z"/>
<path style="fill:#64798A;" d="M396.487,59.504H71.804v199.805h133.934c3.711,12.244,14.952,21.215,28.408,21.215
	s24.697-8.971,28.408-21.215h133.933V59.504z"/>
<path style="fill:#E1E6E9;" d="M84.293,59.504V246.82h130.71l2.686,8.866c2.238,7.384,8.849,12.348,16.456,12.348V78.236
	c0-10.345-8.386-18.732-18.732-18.732H84.293z"/>
<path style="fill:#EBF0F3;" d="M252.877,59.504c-10.345,0-18.732,8.386-18.732,18.732v189.797c0,0,0.001,0,0.001,0
	c7.604,0,14.217-4.963,16.458-12.348l2.689-8.866h130.707V59.504H252.877z"/>
<g>
	<rect x="257.18" y="100.339" style="fill:#E1E6E9;" width="108.819" height="9.366"/>
	<rect x="257.18" y="135.368" style="fill:#E1E6E9;" width="108.819" height="9.366"/>
	<rect x="257.18" y="170.34" style="fill:#E1E6E9;" width="108.819" height="9.366"/>
	<rect x="257.18" y="205.362" style="fill:#E1E6E9;" width="108.819" height="9.366"/>
</g>
<g>
	<rect x="104.81" y="100.339" style="fill:#EBF0F3;" width="108.819" height="9.366"/>
	<rect x="104.81" y="135.368" style="fill:#EBF0F3;" width="108.819" height="9.366"/>
	<rect x="104.81" y="170.34" style="fill:#EBF0F3;" width="108.819" height="9.366"/>
	<rect x="104.81" y="205.362" style="fill:#EBF0F3;" width="108.819" height="9.366"/>
</g>
<g>
</g>
<g>
</g>
<g>
</g>
<g>
</g>
<g>
</g>
<g>
</g>
<g>
</g>
<g>
</g>
<g>
</g>
<g>
</g>
<g>
</g>
<g>
</g>
<g>
</g>
<g>
</g>
<g>
</g>
</svg>
