<?xml version="1.0" encoding="iso-8859-1"?>
<!-- Generator: Adobe Illustrator 19.0.0, SVG Export Plug-In . SVG Version: 6.00 Build 0)  -->
<svg version="1.1" id="Capa_1" xmlns="http://www.w3.org/2000/svg" xmlns:xlink="http://www.w3.org/1999/xlink" x="0px" y="0px"
	 viewBox="0 0 468.486 468.486" style="enable-background:new 0 0 468.486 468.486;" xml:space="preserve">
<polygon style="fill:#E1E6E9;" points="157.971,350.476 71.805,468.486 0,396.681 118.01,310.515 147.98,340.486 "/>
<g>
	<polygon style="fill:#D5D6DB;" points="35.59,432.896 18.107,414.788 128,320.506 137.99,330.496 	"/>
	<polygon style="fill:#D5D6DB;" points="71.805,468.486 53.698,450.379 147.98,340.486 157.971,350.476 	"/>
</g>
<g>
	<path style="fill:#27A2DB;" d="M270.985,321.754l-1.873-71.18l-50.576,50.576c21.854,51.824-29.971,122.38-29.971,122.38
		c21.854-10.615,46.829-36.215,61.19-52.449c10.615-11.863,18.107-24.976,20.605-39.337
		C271.61,327.998,271.61,324.876,270.985,321.754z"/>
	<path style="fill:#27A2DB;" d="M146.732,197.501c-2.498-0.624-6.244,0-9.99,0.624c-13.737,3.122-27.473,10.615-39.337,20.605
		c-16.234,14.361-42.459,39.337-52.449,61.19c0,0,71.18-51.824,122.38-29.971l50.576-50.576L146.732,197.501z"/>
</g>
<path style="fill:#E1E6E9;" d="M431.454,119.452l8.741-8.741l16.859-62.439l11.239-38.712c1.249-5.62-3.746-10.615-9.366-9.366
	l-38.712,10.615l-62.439,17.483l-8.741,8.741L431.454,119.452z"/>
<polygon style="fill:#FCD462;" points="440.819,110.086 239.141,311.764 218.537,291.159 177.327,249.949 156.722,229.345 
	358.4,27.667 370.888,56.388 399.61,68.876 412.098,97.598 "/>
<path style="fill:#64798A;" d="M458.927,0.193l-38.712,10.615c0,9.366,3.122,19.356,10.615,26.849
	c7.493,7.493,16.859,10.615,26.849,10.615l10.615-38.712C469.541,3.94,464.546-1.055,458.927,0.193z"/>
<g>
	<polygon style="fill:#F6C358;" points="399.61,68.876 370.888,55.764 177.327,249.949 197.932,270.554 	"/>
	<polygon style="fill:#F6C358;" points="440.819,110.086 412.722,97.598 218.537,291.159 239.141,311.764 	"/>
</g>
<path style="fill:#44C4A1;" d="M148.605,237.462l-41.21,40.585c-8.741,8.741-8.741,22.478,0,30.595l51.824,51.824
	c8.741,8.741,22.478,8.741,30.595,0l40.585-40.585L148.605,237.462z"/>
<rect x="183.181" y="214.912" transform="matrix(-0.7071 0.7071 -0.7071 -0.7071 527.2736 328.1794)" style="fill:#E1E6E9;" width="24.975" height="116.76"/>
<g>
</g>
<g>
</g>
<g>
</g>
<g>
</g>
<g>
</g>
<g>
</g>
<g>
</g>
<g>
</g>
<g>
</g>
<g>
</g>
<g>
</g>
<g>
</g>
<g>
</g>
<g>
</g>
<g>
</g>
</svg>
