<?xml version="1.0" encoding="UTF-8" standalone="no"?>
<!-- Created with Inkscape (http://www.inkscape.org/) -->
<svg
   xmlns:dc="http://purl.org/dc/elements/1.1/"
   xmlns:cc="http://web.resource.org/cc/"
   xmlns:rdf="http://www.w3.org/1999/02/22-rdf-syntax-ns#"
   xmlns:svg="http://www.w3.org/2000/svg"
   xmlns="http://www.w3.org/2000/svg"
   xmlns:sodipodi="http://sodipodi.sourceforge.net/DTD/sodipodi-0.dtd"
   xmlns:inkscape="http://www.inkscape.org/namespaces/inkscape"
   id="svg2"
   sodipodi:version="0.32"
   inkscape:version="0.45.1"
   width="93"
   height="119"
   version="1.0"
   sodipodi:docbase="C:\Documents and Settings\Owner\My Documents\Pictures\Temporary for Wikipedia"
   sodipodi:docname="Liberty-Pictogram.svg"
   inkscape:output_extension="org.inkscape.output.svg.inkscape">
  <metadata
     id="metadata7">
    <rdf:RDF>
      <cc:Work
         rdf:about="">
        <dc:format>image/svg+xml</dc:format>
        <dc:type
           rdf:resource="http://purl.org/dc/dcmitype/StillImage" />
      </cc:Work>
    </rdf:RDF>
  </metadata>
  <defs
     id="defs5" />
  <sodipodi:namedview
     inkscape:window-height="844"
     inkscape:window-width="1440"
     inkscape:pageshadow="2"
     inkscape:pageopacity="0.0"
     guidetolerance="10.0"
     gridtolerance="10.0"
     objecttolerance="10.0"
     borderopacity="1.0"
     bordercolor="#666666"
     pagecolor="#ffffff"
     id="base"
     inkscape:zoom="8.9606473"
     inkscape:cx="44.190311"
     inkscape:cy="39.861722"
     inkscape:window-x="-4"
     inkscape:window-y="-4"
     inkscape:current-layer="svg2" />
  <path
     style="fill:#000000"
     d="M 11.136692,118.81239 C 11.136692,118.81239 12.817696,111.68208 13.994868,107.01574 C 15.17204,102.3494 16.228804,98.437862 16.343233,98.323433 C 16.457662,98.209004 18.673971,98.005502 21.268364,97.871206 C 23.862758,97.736909 26.392925,97.373449 26.890958,97.063515 C 27.720951,96.546998 29.644754,86.077343 31.826622,70.202802 C 32.58921,64.65447 32.48042,63.792297 30.91181,62.952802 C 27.753345,61.262443 26,61.826204 26,64.532119 C 26,69.478328 23.310249,73.631673 19.820619,74.80454 C 14.172088,76.703015 11.948371,74.343513 10.529611,72.047912 C 9.7906569,70.852259 7.9596552,57.468439 8.6266779,57.083333 C 10.325062,56.10277 10.11761,58.050191 11.063843,64.117572 C 12.153868,71.106974 14.517738,74.200381 18.06075,73.273863 C 21.700232,72.322117 23.047671,68.546824 25.529329,52.348178 C 28.451265,33.275693 28.503664,32 26.365141,32 C 25.154573,32 25.390153,31.480946 27.272871,30 C 30.900277,27.146682 31.309477,27.450586 30.560969,32.441997 L 29.89485,36.883995 L 36.697425,38.887003 C 50.479161,42.945016 52.406595,43.236808 57.096143,41.975148 C 59.518264,41.323509 62.85,40.08308 64.5,39.218639 C 67.735094,37.523762 72.105002,37.450644 75.077824,39.04165 C 77.476791,40.325538 88.434855,56.953322 90.574888,62.556921 C 92.133763,66.638775 92.122097,67.083503 90.36209,70.669096 C 88.528523,74.404552 82.57802,79.248356 78.330132,80.463302 L 76.160264,81.083909 L 78.124538,75.914362 C 79.490714,72.318878 79.999168,68.880617 79.794406,64.622408 L 79.5,58.5 L 75.817304,58.193647 C 72.20911,57.893492 72.117884,57.782226 71.307906,52.693647 C 70.853219,49.837141 70.035432,47.519969 69.490601,47.544376 C 65.234534,47.735033 50.165032,49.249742 48.826695,49.621405 C 47.43838,50.006948 47.246512,50.988352 47.700151,55.383683 L 48.24691,60.681275 L 41.579768,62.590638 C 36.59611,64.017877 34.805027,65.00501 34.486504,66.5 C 34.252138,67.6 33.339792,73.225 32.45907,79 C 31.578347,84.775 30.205154,93.493366 29.40753,98.374148 C 27.722979,108.68217 27.870107,108.94784 36.5,111.18098 C 43.087007,112.88548 61.231401,112.67396 67,110.82541 L 71.5,109.38339 L 71.14759,97.441693 C 70.912505,91.366445 70.127021,86.416359 71.159158,86.199011 C 72.724519,85.869376 72.263588,87.369527 72.851261,92.184594 L 73.5,97.5 L 78.554248,97.795471 L 83.608496,98.090942 L 84.804248,105.06403 C 85.461912,108.89923 86,113.60377 86,115.51856 L 86,119 C 86,119 36.084132,119.36866 11.136692,118.81239 z M 52.75,87.417101 C 50.894265,85.560292 52.111029,83.028413 55.25,82.215024 C 59.998927,80.984454 59.497358,78.5 54.5,78.5 C 50.879739,78.5 50.469961,78.23893 50.183578,75.75 C 49.904998,73.32889 50.203989,72.998169 52.683578,72.984687 C 56.22065,72.965456 58.383045,71.642321 57.781004,69.865654 C 57.495553,69.02327 55.820403,68.5 53.409119,68.5 C 50.135169,68.5 49.448831,68.140154 49.185081,66.285346 C 48.870613,64.073862 49.601085,63.667833 55.5,62.77524 C 56.975647,62.551952 57.526218,61.662722 57.6,59.383519 C 57.813425,52.790611 60.281893,52.364871 65.621725,58 C 68.549759,61.089957 70.161521,62 72.706057,62 C 75.864508,62 76,62.159363 76,65.874273 C 76,72.971235 71.556135,82.095136 66.479334,85.421584 C 64.008202,87.040732 53.849527,88.517264 52.75,87.417101 z M 4,52.5 C 2.0794789,50.185914 4.5082719,48 9,48 C 13.491728,48 15.920521,50.185914 14,52.5 C 12.378101,54.454269 5.6218991,54.454269 4,52.5 z M 2.552563,42.276381 C 1.3600592,39.168766 6.9033336,36.874467 11.418213,38.606989 C 12.288196,38.940833 13,40.290833 13,41.606989 C 13,43.804959 12.601198,44 8.1069888,44 C 4.3979988,44 3.0539271,43.582915 2.552563,42.276381 z M 44.366714,37.081938 C 37.286487,32.764625 35.852387,26.280028 41.25,22.98904 C 43.798894,21.434949 46.290443,21.00667 52.79966,21.003738 C 62.174535,20.999516 67,22.734357 67,26.109013 C 67,28.861374 69.404494,27.995011 69.830358,25.089207 C 70.848832,18.139825 55.747786,13.806955 43.345506,17.490036 C 39.451484,18.20825 36.786558,20.323237 34.190243,23.223198 C 34.190243,23.223198 26.553604,10.491773 26.553604,10.491773 C 26.553604,10.491773 29.472953,11.953321 32.495451,13.084182 C 35.517949,14.215044 39.005449,14.996228 40.245451,14.820147 C 42.233324,14.537868 42.570888,13.758839 43.099303,8.2340306 C 43.428919,4.7877475 43.571683,0.086200929 43.571683,0.086200929 C 43.571683,0.086200929 46.440141,3.6091069 48.464378,6.9413593 C 51.717017,12.295782 52.51167,13 55.301055,13 C 57.870932,13 59.428088,11.931759 63.682722,7.25 C 68.391565,2.0684342 69.133717,1.8796175 69.133717,1.8796175 C 69.133717,1.8796175 68.504191,8.525 68.00466,11 C 66.735505,17.288215 68.821995,18.988505 77.860784,19.031803 C 83.311154,19.057912 84.652593,19.38901 84.652593,19.38901 C 84.652593,19.38901 79.099214,23.075 76.490011,25 C 73.880808,26.925 69.890654,29.966021 67.623002,31.757824 C 59.644695,38.061949 57.699475,38.992524 52.5,38.992524 C 49.337973,38.992524 46.348221,38.290203 44.366714,37.081938 z M 1.484356,32.95071 C 0.51005664,29.880965 2.0878201,28.825855 7.1141365,29.185864 C 11.041955,29.467193 11.5,29.761092 11.5,32 C 11.5,34.26644 11.064054,34.528156 6.8336929,34.801373 C 2.7975934,35.062044 2.0751392,34.812103 1.484356,32.95071 z M 16.016433,30.942701 C 17.093869,27.185903 16.67278,25.905184 12.148582,19.178823 C 8.7795457,14.169899 8.6555036,13.706219 10.034761,11.277169 C 11.793599,8.1796262 17.596391,3.4665594 20.835827,2.5044686 C 21.888053,2.1919646 23.398042,1.4710097 23.398042,1.4710097 C 23.398042,1.4710097 22.574962,2.9256728 22.085827,3.8396304 C 20.40998,6.9709792 20.720689,15.523303 22.565937,17.054723 C 25.268391,19.29756 27.023586,23.398399 25.926802,25.709543 C 23.249985,31.350136 15.138574,34.446396 15.138574,34.446396 C 15.138574,34.446396 15.534181,32.624215 16.016433,30.942701 z "
     id="path2161"
     sodipodi:nodetypes="cssssssssssssssscccsssssccccccssscccsssscccscccccccccsssssssssssssccssccsssccssssccsssssssssssssssccsssccssssssscc" />
</svg>
