<?xml version="1.0" encoding="utf-8"?>
<!-- Generator: Adobe Illustrator 21.1.0, SVG Export Plug-In . SVG Version: 6.00 Build 0)  -->
<svg version="1.1" id="Warstwa_1" xmlns="http://www.w3.org/2000/svg" xmlns:xlink="http://www.w3.org/1999/xlink" x="0px" y="0px"
	 viewBox="0 0 60 47" style="enable-background:new 0 0 60 47;" xml:space="preserve">
<style type="text/css">
	.st0{fill:none;stroke:#3B00F2;stroke-miterlimit:10;}
	.st1{fill-rule:evenodd;clip-rule:evenodd;fill:none;stroke:#3B00F2;stroke-miterlimit:10;}
</style>
<path class="st0" d="M18.1,6.4h23.8c0.6,0,1.1,0.5,1.1,1.1v32.1c0,0.6-0.5,1.1-1.1,1.1H18.1c-0.6,0-1.1-0.5-1.1-1.1V7.5
	C17,6.9,17.5,6.4,18.1,6.4L18.1,6.4z M23.5,18.2v5.9 M20.6,21.1h5.9 M38.3,19.1l-4.2,4.2 M21.4,32.1l4.2,4.2 M21.4,36.3l4.2-4.2
	 M17.2,27.5h25.7 M30,14.6v25.7 M33.5,32.6h5.9 M33.5,35.8h5.9"/>
<path class="st1" d="M33.7,18.4c-0.3,0.3-0.3,0.7,0,1c0.3,0.3,0.7,0.3,1,0c0.3-0.3,0.3-0.7,0-1C34.4,18.1,33.9,18.1,33.7,18.4
	L33.7,18.4z"/>
<path class="st1" d="M38.1,22.8c-0.3,0.3-0.3,0.7,0,1c0.3,0.3,0.7,0.3,1,0c0.3-0.3,0.3-0.7,0-1C38.8,22.5,38.4,22.5,38.1,22.8
	L38.1,22.8z"/>
<path class="st0" d="M17.2,14.3h25.7"/>
</svg>
