<?xml version="1.0" encoding="utf-8"?>
<!-- Generator: Adobe Illustrator 19.0.0, SVG Export Plug-In . SVG Version: 6.00 Build 0)  -->
<svg version="1.1" id="Layer_1" xmlns="http://www.w3.org/2000/svg" xmlns:xlink="http://www.w3.org/1999/xlink" x="0px" y="0px"
	 viewBox="0 0 841.9 841.9" style="enable-background:new 0 0 841.9 841.9;" xml:space="preserve">
<style type="text/css">
	.st0{fill:#175C92;}
</style>
<g id="XMLID_83_">
	<g id="XMLID_84_">
		<path id="XMLID_103_" class="st0" d="M667,648.6c-44.2,0-88.4,0-132.6,0c-2,0-3.9,0.1-5.7-0.3c-1-0.3-1.4-1.3-0.7-2.1
			c1.3-1.8,2.6-3.5,4-5.3c3.6-4.9,5.3-10.6,6.3-16.4c0.6-3.5,0.8-7.1,0.8-10.6c0-44.9,0-89.8,0-134.8c0-1.5,0-2.9,0-4.5
			c0.1-2.9,0.7-3.5,3.8-3.8c1-0.1,2.1,0,3.1,0c4,0,7.9,0,12,0c69,0,138.1,0,207.2,0c1.8,0,3.6,0,5.3-0.1c2.1-0.1,3.1-1.1,3.3-2.9
			c0.3-2,0.3-3.9-0.1-5.7c-0.4-1.5-1.4-2.6-3.1-2.8c-1.8-0.1-3.5-0.1-5.3-0.1c-72.6,0-145.3,0-217.9,0c-2,0-3.9,0-5.7-0.1
			c-1.7-0.1-2.2-1-2.5-2.6c-0.1-0.7-0.1-1.5-0.1-2.2c0-9.1,0-18.1,0-27.2c0-4.6,0.4-5,5.2-5.2c1.5,0,2.9,0,4.5,0
			c72.2,0,144.4,0,216.5,0c1.8,0,3.6,0,5.3-0.1c2.1-0.1,3.1-1,3.3-2.9s0.3-3.9-0.1-5.7c-0.4-1.5-1.4-2.6-3.1-2.8
			c-1.8-0.1-3.5-0.1-5.3-0.1c-72.3,0-144.7,0-217,0c-1.5,0-2.9,0-4.5,0c-0.8,0-1.8-0.1-2.6-0.3c-1.1-0.3-1.8-1-2-2.1
			c-0.1-1-0.1-2.1-0.1-3.1c0-8.9,0-17.8,0-26.6c0-4.9,0.4-5.3,5.3-5.3c1.5,0,2.9,0,4.5,0c72.1,0,144.1,0,216.1,0
			c1.8,0,3.6,0,5.3-0.1c2.4-0.1,3.3-1.3,3.6-3.6c0.1-1.8,0.3-3.6-0.3-5.3c-0.4-1.8-1.5-2.9-3.3-2.9c-1.8-0.1-3.5-0.1-5.3-0.1
			c-72.3,0-144.7,0-217,0c-1.7,0-3.2,0-4.9,0c-3.3-0.1-3.9-0.7-4-3.9c-0.1-4.3-0.7-8.5-1.7-12.7c-2.4-10-8.2-17.6-16.6-23.3
			c-5.6-3.8-11.8-5.4-18.4-6.1c-5.3-0.6-5-1.4-5-5.7c0-22.7,0-45.3,0-68c0-0.7,0-1.5,0-2.2c0.4-6.1,4.9-11.3,10.9-12.4
			c1.8-0.4,3.8-0.4,5.7-0.6c1.1-0.1,2.4,0,3.6,0c62.7,0,125.5,0,188.1,0c2,0,3.9,0,5.7,0.3c2.1,0.3,2.8,1.1,3.1,3.2
			c0.1,1.7,0.1,3.2,0.1,4.9c0,27.9,0,55.8,0,83.6c0,1.7,0,3.2,0.1,4.9c0.4,5.6,4.6,9.9,10.2,10.6c1.8,0.3,3.5,0.1,5.3,0.1
			c26.6,0,53.4,0,80,0c1.5,0,2.9,0,4.5,0c3.2,0.3,3.9,1,4,4c0,1,0,2.1,0,3.1c0,66.1,0,132.2,0,198.4c0,1.4,0,2.6-0.1,4
			c-0.1,1.8-1.1,2.6-2.8,2.9c-1,0.1-2.1,0.1-3.1,0.1c-11.8,0-23.7,0-35.5,0c-0.7,0-1.5,0-2.2,0c-2.2,0-4-1-5.2-2.9
			c-1.3-2.1-2.5-4-3.8-6.1c-4-6.7-8.1-13.5-12.1-20.2c-0.7-1.3-1.7-2.5-2.4-3.8c-1.7-3.2-4.3-4.5-7.9-4.3c-9.9,0.1-19.8,0-29.8,0
			c-5.9,0-6.3,0-8.8-5.4c-6.7-14.5-27.7-17-37.8-3.6c-5.2,7-5.9,14.8-1.8,22.6c4,7.7,10.5,12.3,19.1,12.5
			c8.4,0.3,15.9-3.1,20.5-11.6c0.7-1.1,1.1-2.4,1.7-3.6c0.6-1.4,1.7-2.1,3.1-2.1c1,0,2.1-0.1,3.1-0.1c8.5,0,16.9,0,25.4,0
			c0.8,0,1.8,0,2.6,0c1.8,0,3.2,0.7,4,2.2c1,1.5,2,2.9,2.9,4.5c5.3,8.6,10.5,17.1,15.8,25.8c0.3,0.4,0.4,0.7,0.7,1.1
			c1.4,2.6,3.5,3.9,6.6,3.6c1.1-0.1,2.4,0,3.6,0c12.4,0,25,0,37.4,0c1.5,0,2.9,0,4.5,0.1c1.4,0.1,2.1,0.8,2.4,2.2
			c0,0.3,0,0.6,0.1,0.8c0.4,4.2-0.7,5.3-5,5c-2.1-0.1-4.2-0.1-6.3-0.1c-25,0-49.8-0.1-74.7,0c-4.2,0-7.8-0.8-11.3-3.2
			c-3.8-2.4-7.8-4.3-11.4-6.8c-3.1-2-6.3-2.9-10-2.8c-6.8,0.1-13.7,0-20.5,0c-1,0-2.1,0-3.1,0c-5.4,0-5.7-0.4-8.1-5
			c-7.8-15.1-23.7-14.8-32.6-9.2c-7.5,4.9-11.7,15.3-8.6,24.1c2.4,7,7.1,11.8,13.8,14.8c7,2.9,13.7,1.4,19.9-2.1
			c3.9-2.2,6.6-5.6,8.1-9.8c1.3-3.8,3.6-4.9,7.4-4.9c7,0.1,13.9,0.1,20.9,0c3.2,0,6.1,0.7,8.9,2.4c3.9,2.4,7.9,4.6,11.8,7
			c1,0.6,2.1,1.1,3.1,1.8c3.3,2.2,7,2.9,11,2.9c26.5-0.1,53.1,0,79.6,0c1.7,0,3.2,0,4.9,0.1c1.4,0.1,2.1,1.3,2,2.5
			c-0.1,1.1-0.8,1.8-2.1,2s-2.6,0.1-4,0.1c-8.1,0-16.3,0-24.4,0c-1,0-2.1,0.1-3.1,0c-2.6-0.1-4.6,0.8-6.1,2.9
			c-3.1,3.8-6.3,7.5-9.3,11.3c-2.8,3.3-5.7,6.8-8.5,10.3c-1.5,2-3.3,2.9-5.7,2.9c-7.5,0-15.1,0-22.7,0c-2.6,0-4.5-1.3-5.6-3.6
			c-0.7-1.7-1.5-3.2-2.5-4.6c-6.3-9.1-20.8-13.4-32.2-4.3c-10.3,8.2-10,23.6-1.7,31.9c4.5,4.5,9.6,6.8,15.8,7.2
			c8.5,0.4,17.7-5.3,20.8-13.4c1.3-3.3,3.1-4.6,6.6-4.5c7.8,0.1,15.8,0,23.6,0.1c4.2,0.1,7.4-1.3,10-4.5c5-6.1,10.3-12.1,15.3-18.5
			c2.4-3.1,5.3-4.6,9.1-4.6c7.2,0,14.5,0,21.7,0c4.5,0,5.2,0.7,5.2,5.3c0,14.2,0.1,28.4,0,42.7c0,8.1-4.7,13.4-12.7,14.6
			c-2.6,0.4-5.3,0.4-7.9,0.4C754.6,648.6,710.8,648.6,667,648.6z M587.2,300.8c8.1,0,16.3,0,24.4,0c1.4,0,2.6,0,4-0.1
			c1.1-0.1,1.8-0.8,2-2.1c0-0.4,0.1-0.8,0.1-1.4c0.1-9.5-1.5-18.5-6.1-27c-6.1-11.3-15.5-18-28.2-20.1c-4.6-0.8-9.2-0.4-13.7,0.3
			c-10,1.7-18.5,6.1-25,14.1c-4,5-6.8,10.7-8.5,16.9c-2,7.2-2.4,14.5-1.4,22c1,6.3,2.4,12.3,5.4,17.7c6,10.7,15.2,17.3,27.2,19.5
			c5.7,1.1,11.4,1.3,17.3,0.4c11.7-1.8,20.8-7.4,26.8-17.7c1.4-2.5,2.6-5,3.5-7.7c0.4-1.3-0.1-2.1-1.5-2.1c-4.6,0-9.2,0-13.8,0
			c-1.7,0-2.8,0.7-3.8,2.1c-5.4,7.8-13.2,10.2-22.2,9.2c-5.2-0.6-9.8-2.6-12.8-7c-2.4-3.2-3.8-7-4.3-11c-0.8-5.7,0.7-6,4.9-6
			c0.8,0,1.8,0,2.6,0C571.8,300.8,579.5,300.8,587.2,300.8z"/>
		<path id="XMLID_93_" class="st0" d="M247.3,220.6c48.9,0,97.9,0,146.8,0c5.7,0,11.2,1.1,16.2,3.9c7.4,4.2,12,10.5,14.2,18.5
			c0.8,2.9,1.3,6.1,1.3,9.2c-0.1,4.5,0,8.9,0,13.4c0,1,0,2.1,0,3.1c0.1,3.1,0.6,3.5,3.8,3.6c5.7,0.1,11.6,0,17.3,0
			c6.8,0,13.1,2.1,18.5,6.3c7.5,5.9,11.4,13.5,11.8,23c0.3,5.6,0,11.3,0,16.9c0,5.3,0.3,5.6,5.4,5.6c5.2,0,10.3,0,15.6,0
			c7.5,0.1,14.4,2.4,20.1,7.2c6.6,5.6,10,12.7,10.6,21.3c0.1,1.5,0,2.9,0,4.5c0,86.2,0,172.3,0,258.3c0,0.8,0,1.8,0,2.6
			c0.7,13.9-10.6,28.4-26.5,30.1c-2.5,0.3-5,0.4-7.5,0.4c-96,0-192.1,0-288.1,0c-2.9,0-6-0.1-8.9-0.7c-11.4-2.1-19.4-8.5-23.6-19.4
			c-1.5-3.9-2.2-7.9-2.2-12.1c0-4.3,0-8.6,0-13c0-1,0-2.1,0-3.1c-0.1-3.3-0.6-3.9-3.9-3.9c-5.7,0-11.6,0-17.3,0
			c-2.4,0-4.7-0.1-7.1-0.7c-10.9-2.8-18.1-9.6-21.7-20.2c-1.1-3.2-1.7-6.6-1.7-10c0-4.9,0-9.8,0-14.6c0-1.1,0-2.4-0.1-3.5
			c-0.1-1.5-0.8-2.1-2.2-2.4c-1.1-0.1-2.4-0.1-3.5-0.1c-5.2,0-10.3,0-15.6,0c-15.1-0.1-27.3-10.7-29.8-25.5
			c-0.3-1.4-0.3-2.9-0.3-4.5c0-8.6,0-17.1,0-25.8c0-4.2,0.1-5.4,5.4-4.6c6.3,1,12.7,0.6,19.1,0.4c6.1-0.3,6.1-1,6.1,5.7
			c0,5.7,0,11.6,0,17.3c0,1,0,2.1,0,3.1c0.1,2.4,0.7,2.9,2.9,3.1c1.1,0.1,2.4,0,3.6,0c94,0,187.9,0,281.9,0c0.7,0,1.5,0,2.2,0
			c4-0.1,4.5-0.4,4.5-4.7c0-1,0-2.1,0-3.1c0-69,0-138.1,0-207.2c0-1.8,0-3.6-0.1-5.3c-0.1-1.4-0.8-2.1-2.2-2.2
			c-1.1-0.1-2.4-0.1-3.5-0.1c-94.4,0-188.9,0-283.3,0c-1.4,0-2.6,0-4,0.1c-1,0.1-1.7,0.7-1.7,1.7c-0.1,1.1-0.1,2.4-0.1,3.5
			c0,5.4,0,11,0,16.4c0,1.3,0,2.4-0.1,3.6c-0.1,1.8-0.8,2.4-2.5,2.4c-2.2-0.1-4.5-0.3-6.7-0.3c-5.9,0-11.8-0.4-17.7,0.7
			c-0.6,0.1-1.3,0.1-1.8,0c-0.8-0.1-1.4-0.6-1.5-1.4c-0.1-1.4-0.3-2.9-0.3-4.5c0-15.8,0-31.4,0-47.1c0-5.3,0-10.7,0-16
			c0.1-13.9,9.5-25.8,22.9-29.3c1.7-0.4,3.5-0.7,5.3-0.7c2,0,3.9,0,5.7,0C151,220.6,199.2,220.6,247.3,220.6z M298.7,565.8
			c47,0,94,0,140.9,0c1.7,0,3.2,0,4.9-0.1c1.3-0.1,2-0.7,2.1-2c0.1-1.5,0.1-2.9,0.1-4.5c0-69.7,0-139.4,0-209c0-0.4,0-0.8,0-1.4
			c0-5.2-0.1-5.4-5.6-5.4c-3.2,0-6.6,0-9.8,0c-0.7,0-1.5,0-2.2,0c-2.5,0.1-3.2,0.8-3.3,3.2c-0.1,1.7,0,3.2,0,4.9
			c0,53.4,0,106.8,0,160c0,4-0.4,7.9-1.7,11.8c-3.6,10.6-10.9,17.3-21.7,20.4c-3.2,0.8-6.4,0.8-9.8,0.8c-77.6,0-155.3,0-233.1,0
			c-1.5,0-2.9,0-4.5,0c-3.5,0.1-3.9,0.4-3.9,3.8c0,4.5,0,8.9,0,13.4c0,0.6,0,1.3,0.1,1.8c0.1,1.3,0.8,1.8,2.1,2
			c1.7,0.1,3.2,0.1,4.9,0.1C205.1,565.8,251.9,565.8,298.7,565.8z M350.7,617.5c46.8,0,93.7,0,140.5,0c1.7,0,3.2,0,4.9-0.1
			c1.4-0.1,2.1-0.8,2.2-2.2c0.1-1.7,0.1-3.2,0.1-4.9c0-43.2,0-86.6,0-129.8c0-26.1,0-52.1,0-78.2c0-1.7,0-3.2-0.1-4.9
			c-0.1-1-0.7-1.8-1.7-1.8c-5.7-0.4-11.6-0.4-17.3,0c-1,0-1.5,0.8-1.7,1.8c-0.1,1-0.1,2.1-0.1,3.1c0,3.9,0,7.7,0,11.6
			c0,50.7,0,101.3,0,152.1c0,3.1-0.1,6.3-0.8,9.3c-2.8,13-14.8,22.9-28,23.3c-2.1,0-4.2,0-6.3,0c-76.8,0-153.5,0-230.3,0
			c-1.5,0-2.9,0-4.5,0c-3.9,0.1-4.2,0.4-4.3,4.5c0,4,0,7.9,0,12c0,0.7,0,1.5,0.1,2.2c0.3,1.4,0.8,2.1,2.4,2.2
			c1.7,0.1,3.2,0.1,4.9,0.1C257.3,617.5,304,617.5,350.7,617.5z M305.4,269.5c25.4,0,50.7,0,76,0c1.7,0,3.2,0,4.9-0.1
			c3.5-0.4,6.1-2.1,7.7-5.3c2.9-6-0.8-12.7-7.5-13.7c-1.3-0.1-2.6-0.1-4-0.1c-5.6,0-11.3,0-16.9,0c-45.2,0-90.3,0-135.6,0
			c-1.8,0-3.6-0.1-5.3,0.1c-5,0.6-8.8,4.7-8.6,9.6c0,5,3.8,8.9,8.9,9.3c1.7,0.1,3.2,0.1,4.9,0.1C255,269.5,280.2,269.5,305.4,269.5z
			 M477.5,363.8L477.5,363.8c0,2.4,0,4.7,0,7.1c0,1.5,0.7,2.4,2.1,2.4c4,0.1,7.9,0.4,12-0.4c4.9-1.1,7.4-6.1,7-10
			c-0.4-4.6-3.6-8.1-8.2-8.5c-3.3-0.3-6.8-0.1-10.2,0c-2,0-2.5,0.8-2.6,2.9C477.3,359.5,477.5,361.7,477.5,363.8z M433.6,321.3
			L433.6,321.3c1.7,0,3.2,0.1,4.9,0c7.1-0.7,10.7-8.9,6.7-14.8c-2-2.8-4.7-4-7.9-4.3c-2.8-0.1-5.6-0.1-8.4-0.1
			c-2.2,0-2.8,0.7-2.9,3.1c-0.1,2.6,0,5.3,0,7.9c0,1.8,0,3.5,0.1,5.3c0.1,2,0.8,2.6,2.8,2.8C430.3,321.3,431.9,321.3,433.6,321.3z
			 M113.8,250.6c-4.9-0.1-9.5,4.2-9.6,9.2c-0.1,5.2,4.2,9.8,9.3,9.8c5,0,9.3-4,9.6-9.1C123.2,255.2,118.9,250.6,113.8,250.6z
			 M158.7,259.9c-0.1-5.4-4.3-9.6-9.6-9.5c-4,0.1-9.1,3.5-8.9,9.8c0.1,5.2,4.3,9.3,9.3,9.2C154.7,269.4,158.8,265.1,158.7,259.9z
			 M194.5,260.1c0.1-4.9-3.5-9.3-9.1-9.5c-4.5-0.1-9.3,3.3-9.5,9.1c-0.1,5.7,4.7,9.8,9.3,9.8C189.7,269.4,194.6,265.6,194.5,260.1z"
			/>
		<path id="XMLID_90_" class="st0" d="M159.1,402.1c0.1,40.7-33.9,73.5-73.9,73.2c-38.5-0.3-73-31.2-72.9-73.6
			c0.1-41.1,33.3-73.5,73.9-73.2C128.8,328.8,159.6,364.2,159.1,402.1z M111.7,348c-2.2,0-4.5,0.6-6.6,0.8
			C84.2,352.5,65.7,372,65.5,396c0,3.1,0,6.3,0,9.3c0,1,0,2.1-0.1,3.1c-0.1,1.3-1,2.2-2.2,2.4c-1.5,0.1-2.9,0.3-4.5,0.3
			c-2.4,0-4.7-0.1-7.1,0.1c-3.3,0.3-4.7,3.1-3.1,6.1c0.6,0.8,1.1,1.7,1.8,2.5c7.7,10.2,15.3,20.4,22.9,30.5c0.6,0.7,1,1.4,1.7,2.1
			c2.2,2.5,4.5,2.5,6.8,0c0.8-1,1.7-2.1,2.5-3.2c7.1-9.5,14.2-19,21.3-28.4c0.7-1,1.4-1.8,2.1-2.9c2.5-3.8,1.1-6.7-3.3-7.1
			c-2.1-0.1-4.2,0-6.3-0.1c-1.4,0-2.6,0-4-0.1c-2-0.3-2.6-1-2.8-2.8c-0.1-0.8-0.1-1.8-0.1-2.6c0-4.3-0.1-8.6,0-12.8
			c0.6-13.4,5.9-24.3,16.7-32.3c2-1.4,4-2.5,6-3.8c0.8-0.6,1.8-1,2.6-1.7c1.3-1.1,1.5-2.5,1.1-4c-0.4-1.4-1.4-2.2-2.8-2.5
			C113.8,348.2,112.8,348.2,111.7,348z"/>
		<path id="XMLID_89_" class="st0" d="M721.7,270.8c0-13.1,0-26.1,0-39.2c0-1.5-0.8-3.6,1-4.3c1.5-0.6,2.4,1.4,3.3,2.4
			c10.2,10.5,20.2,20.9,30.4,31.2c6.3,6.4,12.8,12.7,19,19.4c9.6,10.2,19.4,19.9,29.1,30c3.6,3.8,7.1,7.5,10.7,11.3
			c0.6,0.6,1,1.1,1.5,1.7c0.4,0.4,0.7,1,0.6,1.7c-0.3,0.8-1,1-1.8,1.1c-0.4,0-0.8,0-1.4,0.1c-0.8,0-1.8,0-2.6,0
			c-24.1,0-48.2,0-72.5,0c-2.2,0-4.5,0-6.6-0.6c-6.1-1.7-10.5-6.8-10.7-13.1c-0.1-3.2,0-6.6,0-9.8
			C721.7,291.8,721.7,281.4,721.7,270.8z"/>
		<path id="XMLID_88_" class="st0" d="M672.8,512.9c0.1-9.5,8.6-15.9,17.3-13c4.9,1.5,8.5,6.7,8.5,11.8c-0.1,5.7-3.6,10.6-8.8,12.8
			C681.8,528.3,672.3,521.4,672.8,512.9z"/>
		<path id="XMLID_87_" class="st0" d="M706.6,621.3c-3.1,0.1-6-0.7-8.5-2.9c-4.2-3.8-5.3-10.3-2.6-15.9c2.5-5.2,8.1-7.9,13.7-7.1
			c7,1.1,11.3,7.1,10.5,14.1c-0.4,2.8-1.4,5.2-3.1,7.2C713.9,619.9,710.7,621.4,706.6,621.3z"/>
		<path id="XMLID_86_" class="st0" d="M636.2,554.3c-0.6-7.2,5.6-14.8,15.5-13.1c4.6,0.8,7.7,3.5,9.1,8.1c1.1,3.8,0.7,7.2-1,10.7
			c-4,8.5-16.2,9.2-21.2,2.5C636.8,560.2,636.1,558.4,636.2,554.3z"/>
		<path id="XMLID_85_" class="st0" d="M575.6,287.4c-3.8,0-7.4,0-11.2,0c-0.8,0-1.8,0-2.6,0c-5-0.1-6-1.5-4.9-6.4
			c2.4-9.8,10.5-14.2,17.8-14.8c2.2-0.1,4.5,0.1,6.7,0.4c4.6,0.7,7.8,3.3,10.3,7.1c2,2.9,2.9,6.1,3.6,9.5c0.6,2.4-0.4,3.6-2.9,3.9
			c-1.1,0.1-2.4,0.1-3.5,0.1C584.4,287.4,580.1,287.4,575.6,287.4z"/>
	</g>
</g>
</svg>
