<?xml version="1.0" encoding="UTF-8" standalone="no"?>
<!-- Created with Inkscape (http://www.inkscape.org/) -->
<svg
   xmlns:dc="http://purl.org/dc/elements/1.1/"
   xmlns:cc="http://web.resource.org/cc/"
   xmlns:rdf="http://www.w3.org/1999/02/22-rdf-syntax-ns#"
   xmlns:svg="http://www.w3.org/2000/svg"
   xmlns="http://www.w3.org/2000/svg"
   xmlns:sodipodi="http://sodipodi.sourceforge.net/DTD/sodipodi-0.dtd"
   xmlns:inkscape="http://www.inkscape.org/namespaces/inkscape"
   width="744.09448819"
   height="1052.3622047"
   id="svg2220"
   sodipodi:version="0.32"
   inkscape:version="0.45.1"
   sodipodi:docbase="/Users/haiwa"
   sodipodi:docname="crown_prince.svg"
   inkscape:output_extension="org.inkscape.output.svg.inkscape">
  <defs
     id="defs2222" />
  <sodipodi:namedview
     id="base"
     pagecolor="#ffffff"
     bordercolor="#666666"
     borderopacity="1.0"
     gridtolerance="10000"
     guidetolerance="10"
     objecttolerance="10"
     inkscape:pageopacity="0.0"
     inkscape:pageshadow="2"
     inkscape:zoom="0.35"
     inkscape:cx="375"
     inkscape:cy="520"
     inkscape:document-units="px"
     inkscape:current-layer="layer1"
     inkscape:window-width="701"
     inkscape:window-height="581"
     inkscape:window-x="542"
     inkscape:window-y="25" />
  <metadata
     id="metadata2225">
    <rdf:RDF>
      <cc:Work
         rdf:about="">
        <dc:format>image/svg+xml</dc:format>
        <dc:type
           rdf:resource="http://purl.org/dc/dcmitype/StillImage" />
      </cc:Work>
    </rdf:RDF>
  </metadata>
  <g
     inkscape:label="Layer 1"
     inkscape:groupmode="layer"
     id="layer1">
    <path
       style="fill:#d40000"
       id="path3066"
       d="M 47.366163,249.94515 C 63.068579,237.1507 83.286008,231.62595 102.19687,225.18839 C 140.51925,214.19802 179.13409,204.23502 217.88717,194.87801 C 260.86371,185.41997 304.25547,177.92118 347.58272,170.25787 C 383.97245,162.65567 420.61427,156.9471 457.4625,152.18309 C 467.46393,150.96527 477.40459,149.33246 487.363,147.82976 L 535.4701,159.66693 C 523.20795,160.32972 510.95337,161.11709 498.72657,162.28298 C 460.32764,166.07058 422.13539,171.10942 384.33322,179.0246 C 340.80941,186.41147 297.20807,193.6312 254.11585,203.26406 C 217.52025,212.23005 181.38047,222.71074 145.67802,234.77018 C 130.45374,240.53129 114.28423,246.06495 102.57232,257.75939 L 47.366163,249.94515 z " />
    <path
       style="fill:#d40000"
       id="path3068"
       d="M 324.97022,42.073982 C 321.16672,71.425411 326.56247,101.20592 330.17244,130.35253 C 338.10772,177.8098 337.87527,224.91061 332.41825,272.5313 C 325.85655,324.41329 309.51341,373.16391 281.8472,417.40791 C 248.68612,464.36321 206.00717,503.90769 163.21005,541.97292 C 146.69821,556.71029 128.75103,569.76924 112.03274,584.20047 L 60.851029,572.90175 C 86.080495,565.34395 108.74007,552.15714 129.99372,535.85062 C 175.63976,500.71045 218.32823,461.69838 249.37098,412.57676 C 274.35658,367.79077 293.09125,320.42292 298.5097,268.96119 C 303.20923,221.58943 301.22335,174.29098 292.85153,127.3533 C 287.93783,96.48037 282.39927,65.46444 269.3155,36.813062 L 324.97022,42.073982 z " />
    <path
       style="fill:#d40000"
       id="path3070"
       d="M 345.36881,193.82868 C 347.23285,211.08471 354.3833,227.36562 360.26165,243.58353 C 370.54501,271.79972 385.00046,297.82651 401.81625,322.58978 C 413.64272,339.27705 426.49615,355.29625 444.11633,366.00179 C 467.42632,376.995 492.99691,382.53896 517.80484,389.20534 C 562.33677,398.94644 607.71429,403.96101 652.97262,408.93813 C 666.24869,410.01513 679.45759,411.66211 692.62145,413.65878 L 642.22128,415.87437 C 632.56268,413.96665 622.94828,411.60405 613.05191,410.96173 C 567.88164,404.77584 522.57488,399.30801 477.76585,390.78584 C 449.85403,384.82464 421.29069,378.89028 395.51184,366.25403 C 378.65699,354.58636 366.65802,338.8326 356.89109,320.85569 C 342.09435,294.70449 328.18158,268.08741 314.88449,241.1383 C 306.6586,224.42195 298.7614,207.56129 290.96748,190.64962 L 345.36881,193.82868 z " />
    <path
       style="fill:#d40000"
       id="path3072"
       d="M 255.85556,429.92349 C 260.36721,424.28083 266.82437,421.47174 272.86462,417.97112 C 280.94002,413.49983 289.79088,412.83954 298.77287,411.99485 C 324.92705,409.68576 351.10497,415.54317 376.8486,418.5005 C 383.90662,419.82495 390.12982,423.14762 396.37165,426.48279 C 393.25659,456.69668 340.61242,430.11552 319.19988,420.91611 C 308.69749,416.05942 297.62056,413.37827 286.27387,411.61654 C 262.87997,409.75843 316.18759,414.88036 331.14293,416.52605 C 335.35502,416.98955 322.67271,416.22911 318.43589,416.15242 C 297.51261,416.56463 278.02946,412.6794 256.28831,410.47655 L 311.03491,407.72474 C 229.9533,399.71446 246.01223,402.44239 265.77423,402.63017 C 290.47076,402.73715 315.10772,404.6961 339.50115,409.13964 C 349.81373,412.03014 360.05797,415.00805 369.76967,419.72128 C 419.09561,436.23617 343.53841,401.78669 341.21509,426.97794 C 335.4797,424.51134 329.99094,421.41267 323.57775,420.79376 C 403.81093,428.7884 377.75499,424.25675 349.85579,424.77315 C 341.4654,425.29193 333.04191,425.49651 325.2216,428.98677 C 320.00458,431.62922 314.66204,433.35515 311.22578,438.46458 L 255.85556,429.92349 z " />
    <path
       style="fill:#d40000"
       id="path3074"
       d="M 244.95572,580.82341 C 262.33051,569.17822 281.80205,561.28043 301.13208,553.54763 C 328.94415,541.6211 358.36928,534.49457 388.04454,529.11615 C 423.70748,518.97571 458.07284,527.16357 491.70433,532.89723 C 486.18549,560.26085 459.50537,578.44932 440.42889,597.74896 C 421.68194,616.62796 403.56416,636.32081 392.5733,660.51249 C 395.4536,668.94537 405.03983,671.86894 412.59845,676.44415 C 421.65542,681.2166 426.54126,689.28081 432.0353,697.32527 C 433.4544,705.46572 430.8594,713.63291 429.49402,721.68618 C 428.31236,739.42497 428.81003,757.25239 429.24658,775.01572 C 429.61333,795.62094 429.58994,816.22733 429.14175,836.83074 C 428.2356,860.74353 428.04314,884.67582 427.33153,908.59293 C 427.53824,921.77198 426.2728,934.72388 422.48806,947.2744 C 380.82676,959.29988 368.71103,950.03134 348.65629,926.40124 C 341.13977,916.96421 331.26144,913.43643 320.67826,909.7094 C 305.70351,909.52786 350.37044,913.65112 365.24222,915.41355 L 311.95676,902.98864 C 331.2181,904.2775 354.15183,902.08895 374.33842,907.74137 C 383.64541,913.23884 392.59028,918.85117 399.69478,927.3821 C 427.71926,956.13467 410.95486,935.97775 369.19231,939.20727 C 374.82344,928.19145 379.38592,916.86629 379.98664,903.76718 C 382.7845,880.07733 383.66939,856.23781 382.28412,832.40986 C 381.76385,811.80375 381.65477,791.19091 381.20007,770.58415 C 380.82286,752.52278 379.70065,734.51129 378.13251,716.51373 C 377.9992,709.22202 378.12472,701.89196 377.98381,694.64093 C 373.21991,687.71461 368.65812,681.03381 360.78113,676.91224 C 350.19034,670.83633 338.88492,667.13147 342.19161,653.2968 C 360.7059,631.54239 381.79784,612.01922 401.28696,591.02328 C 416.42534,574.3803 437.03814,555.5564 438.75063,532.22985 C 514.71189,536.48797 462.30392,532.72571 431.24888,539.44801 C 401.40371,544.05237 371.68063,550.09529 344.05798,562.77669 C 328.09849,569.74398 311.39634,576.87012 299.95201,590.4218 L 244.95572,580.82341 z " />
    <path
       style="fill:#d40000"
       id="path3076"
       d="M 96.912265,766.16983 C 121.36213,753.66089 147.19628,744.28913 173.12907,735.40933 C 245.68042,712.22183 321.28715,702.3774 396.7319,694.35805 C 469.62803,687.90115 542.76496,684.94039 615.88856,682.60429 C 643.97439,681.82849 672.0646,681.20712 700.15775,680.77142 L 744.17147,692.09299 C 711.57618,691.38668 678.98119,690.60765 646.37768,690.39336 C 568.58415,689.98243 490.6579,690.8402 413.16476,698.38548 C 344.24243,706.26486 275.04406,716.62354 210.56718,743.56425 C 190.03981,752.55573 167.94338,760.72333 151.53613,776.50396 L 96.912265,766.16983 z " />
  </g>
</svg>
