<?xml version="1.0" encoding="UTF-8" standalone="no"?>
<!-- Created with Inkscape (http://www.inkscape.org/) -->
<svg
   xmlns:dc="http://purl.org/dc/elements/1.1/"
   xmlns:cc="http://web.resource.org/cc/"
   xmlns:rdf="http://www.w3.org/1999/02/22-rdf-syntax-ns#"
   xmlns:svg="http://www.w3.org/2000/svg"
   xmlns="http://www.w3.org/2000/svg"
   xmlns:sodipodi="http://sodipodi.sourceforge.net/DTD/sodipodi-0.dtd"
   xmlns:inkscape="http://www.inkscape.org/namespaces/inkscape"
   width="744.09448819"
   height="1052.3622047"
   id="svg2"
   sodipodi:version="0.32"
   inkscape:version="0.45.1"
   sodipodi:docbase="/Users/haiwa"
   sodipodi:docname="dragon_king.svg"
   inkscape:output_extension="org.inkscape.output.svg.inkscape">
  <defs
     id="defs4" />
  <sodipodi:namedview
     id="base"
     pagecolor="#ffffff"
     bordercolor="#666666"
     borderopacity="1.0"
     gridtolerance="10000"
     guidetolerance="10"
     objecttolerance="10"
     inkscape:pageopacity="0.0"
     inkscape:pageshadow="2"
     inkscape:zoom="0.35"
     inkscape:cx="375"
     inkscape:cy="555.03986"
     inkscape:document-units="px"
     inkscape:current-layer="layer1"
     inkscape:window-width="701"
     inkscape:window-height="581"
     inkscape:window-x="509"
     inkscape:window-y="4" />
  <metadata
     id="metadata7">
    <rdf:RDF>
      <cc:Work
         rdf:about="">
        <dc:format>image/svg+xml</dc:format>
        <dc:type
           rdf:resource="http://purl.org/dc/dcmitype/StillImage" />
      </cc:Work>
    </rdf:RDF>
  </metadata>
  <g
     inkscape:label="Layer 1"
     inkscape:groupmode="layer"
     id="layer1">
    <path
       style="fill:#000000;fill-opacity:1;fill-rule:nonzero;stroke:none;stroke-width:1px;stroke-linecap:butt;stroke-linejoin:miter;stroke-opacity:1"
       id="path2556"
       d="M 163.32333,35.789918 C 167.58653,40.786647 170.14285,46.656122 173.05005,52.41933 C 175.22487,59.205476 175.17464,66.414626 175.59446,73.462897 C 175.78446,79.498147 175.7467,85.53693 175.75235,91.574192 L 121.47571,86.415807 C 121.54129,80.446511 121.62995,74.477162 121.64179,68.507501 C 121.35109,62.059894 121.51649,55.56807 119.01757,49.463158 C 115.79739,44.136 113.44211,38.736507 107.29868,36.015787 L 163.32333,35.789918 z " />
    <path
       style="fill:#000000;fill-opacity:1;fill-rule:nonzero;stroke:none;stroke-width:1px;stroke-linecap:butt;stroke-linejoin:miter;stroke-opacity:1"
       id="path2558"
       d="M 31.436646,111.12524 C 39.233443,111.50308 47.001407,110.28838 54.764382,109.62707 C 64.842368,108.98394 74.940601,108.83886 85.034413,108.67723 C 94.201975,108.90217 103.25083,108.54116 112.33202,107.52154 C 124.64662,105.02869 136.85786,102.03969 149.09356,99.184628 C 162.03782,96.133812 174.99796,93.150331 187.96112,90.185066 C 201.77494,86.484692 215.47781,82.59103 229.46117,79.579826 L 279.57097,91.569586 C 265.27797,93.817692 251.22781,96.781338 237.52867,101.59178 C 224.71313,104.85728 211.82491,107.77868 198.95355,110.81527 C 187.12882,113.60464 175.27016,116.27495 163.59097,119.63906 C 154.46493,121.75485 145.58111,122.35564 136.17897,121.77164 C 126.11955,121.79908 116.05168,121.77481 106.00626,122.38486 C 99.14599,122.96423 92.298265,123.63345 85.583177,125.0277 L 31.436646,111.12524 z " />
    <path
       style="fill:#000000;fill-opacity:1;fill-rule:nonzero;stroke:none;stroke-width:1px;stroke-linecap:butt;stroke-linejoin:miter;stroke-opacity:1"
       id="path2560"
       d="M 114.64993,148.11164 C 119.07665,156.33788 126.62261,160.83783 134.1419,165.85193 C 141.72826,170.89232 150.14129,173.86563 158.64068,176.87838 C 160.90964,177.71025 163.33306,177.91279 165.67175,178.42835 L 111.67604,180.55054 C 109.47423,179.82838 107.18345,179.34578 105.06123,178.38099 C 97.024817,174.86607 89.025384,171.4694 81.9964,166.05005 C 73.801791,160.26207 66.293881,153.9096 58.82922,147.23474 L 114.64993,148.11164 z " />
    <path
       style="fill:#000000;fill-opacity:1;fill-rule:nonzero;stroke:none;stroke-width:1px;stroke-linecap:butt;stroke-linejoin:miter;stroke-opacity:1"
       id="path2568"
       d="M 244.97022,122.07398 C 244.13219,128.75957 243.63737,135.53796 243.10458,142.20759 C 241.97647,150.11479 237.91653,156.36744 233.86843,162.93638 C 229.90635,167.73863 225.53392,172.19539 221.26588,176.71905 C 217.8462,179.91021 215.8236,184.10624 213.24198,187.86258 L 159.95758,180.32469 C 162.48991,176.09235 164.18458,171.3816 167.8911,167.88997 C 171.98079,163.20412 176.00074,158.44188 180.27452,153.91189 C 184.84238,148.49965 188.82721,143.6452 189.81408,136.21549 C 190.09167,129.75974 190.88442,123.23467 189.3155,116.81306 L 244.97022,122.07398 z " />
    <path
       style="fill:#000000;fill-opacity:1;fill-rule:nonzero;stroke:none;stroke-width:1px;stroke-linecap:butt;stroke-linejoin:miter;stroke-opacity:1"
       id="path2570"
       d="M 5.72236,213.98238 C 15.489581,214.43203 25.269451,214.43416 35.044762,214.499 C 44.76402,215.28999 54.11551,213.33322 63.540561,211.4632 C 69.876096,209.97796 76.302627,208.92534 82.705118,207.77153 C 89.968744,206.25427 97.39074,206.16898 104.7661,205.80791 C 111.30938,205.61127 117.85566,205.60717 124.40105,205.57271 C 130.15836,205.56471 135.91568,205.57181 141.67299,205.57471 C 147.37699,205.57807 153.08099,205.57793 158.78498,205.57885 C 164.52602,206.11234 170.16327,205.15481 175.83225,204.73041 C 181.49511,203.79895 187.06918,202.4035 192.66819,201.15131 C 199.28182,200.17014 205.97214,200.12275 212.6384,199.91028 C 218.29815,200.69736 223.62827,199.07823 229.05678,198.23226 C 233.74296,195.69845 238.78306,194.05699 243.72244,192.10899 C 249.59585,190.52848 255.22314,188.29642 260.87861,186.09109 L 313.92799,197.89385 C 308.37949,200.09034 302.76868,202.28459 297.0137,203.89649 C 292.08895,205.58626 286.86711,206.88185 282.60387,209.96521 C 276.84539,211.91734 271.54529,214.25504 265.23185,213.35882 C 258.68722,213.40251 252.13026,213.31372 245.60409,213.90656 C 239.92732,214.82601 234.37525,215.91437 228.85297,217.40633 C 223.11705,218.55805 217.51849,219.65639 211.62487,219.1459 C 205.92096,219.14602 200.21704,219.14707 194.51313,219.14488 C 188.70459,219.13897 182.89602,219.13834 177.08754,219.10779 C 170.32611,219.06908 163.56449,219.00808 156.80294,219.0444 C 149.62787,219.23243 142.41996,219.19531 135.30374,220.27841 C 128.8192,221.68525 122.34434,222.78929 115.76562,223.67529 C 105.66127,225.75273 95.57328,227.9319 85.167051,227.36822 C 76.733779,227.42721 68.289851,227.37408 59.868891,227.88484 L 5.72236,213.98238 z " />
    <path
       style="fill:#000000;fill-opacity:1;fill-rule:nonzero;stroke:none;stroke-width:1px;stroke-linecap:butt;stroke-linejoin:miter;stroke-opacity:1"
       id="path2572"
       d="M 130.6845,262.07398 C 128.84228,270.85018 129.04655,279.90018 128.81758,288.81576 C 129.62278,302.86724 130.2897,316.90384 130.50462,330.97522 C 130.28848,348.28201 129.67206,365.58166 129.19425,382.88283 C 129.16103,396.5347 128.80799,410.09311 127.51638,423.67558 C 125.75637,436.30009 124.15261,448.93666 122.58084,461.58618 C 121.43493,464.84025 122.5191,468.27786 122.48923,471.5155 L 67.29885,465.03633 C 68.282269,462.17476 70.995398,459.25095 70.485672,455.76325 C 73.271705,443.43637 75.684457,431.06551 76.772092,418.4501 C 77.633521,404.92965 78.292091,391.39271 79.684538,377.91206 C 81.111258,360.71216 81.975253,343.60312 80.281061,326.36223 C 79.607653,312.31352 79.183922,298.24181 77.580233,284.25342 C 76.833735,275.10628 76.591937,265.85865 75.029782,256.81306 L 130.6845,262.07398 z " />
    <path
       style="fill:#000000;fill-opacity:1;fill-rule:nonzero;stroke:none;stroke-width:1px;stroke-linecap:butt;stroke-linejoin:miter;stroke-opacity:1"
       id="path2574"
       d="M 97.150931,273.98238 C 104.26343,274.56292 111.3661,274.04585 118.45861,273.77189 C 125.88464,272.67654 133.37193,272.20186 140.84905,271.64616 C 150.16477,272.07332 158.97706,269.46754 167.86014,267.0782 C 174.20836,265.24869 180.309,262.6032 186.42879,260.25965 C 192.34933,257.206 197.44286,252.94755 202.64905,248.86915 C 206.42679,245.07413 211.21387,242.89315 215.74256,240.21683 C 273.36466,241.59095 277.63493,233.37545 270.21671,269.18834 C 266.49049,285.8605 265.19725,302.92332 264.49251,319.9517 C 263.51939,338.17854 264.41876,356.42109 264.84294,374.64856 C 265.25426,389.19719 265.16941,403.75846 265.20456,418.31277 C 265.57886,429.4638 265.89526,440.60825 266.47794,451.75088 C 266.55268,459.16924 266.80461,466.58492 267.00269,474.00087 C 266.49939,479.06407 267.53956,484.26968 268.04449,489.04941 C 201.51461,486.92349 220.00564,496.84046 204.81368,466.26013 C 202.17168,458.51201 196.97741,455.85762 190.47297,452.24869 C 178.32809,450.41984 214.86904,455.11322 227.06172,456.59018 C 223.56062,456.53831 220.45156,458.22753 217.16473,459.04168 L 163.61718,447.06727 C 167.11542,445.97335 170.43165,444.30091 174.07512,443.79702 C 196.74858,445.49751 223.0106,441.38789 244.84088,451.39359 C 250.4352,456.55284 255.74965,460.99444 257.85547,468.86318 C 272.61469,498.58146 281.81951,492.55178 211.95553,483.74739 C 212.45948,479.0729 213.50342,473.88603 212.99763,468.89581 C 213.196,461.51312 213.44867,454.1307 213.52208,446.74557 C 214.1037,435.68358 214.41535,424.62001 214.77536,413.54911 C 214.78951,399.01333 214.67096,384.47015 215.07479,369.93989 C 215.56323,351.70995 216.47621,333.49183 216.45955,315.25082 C 216.88882,298.01046 217.06944,280.74373 218.90239,263.57648 C 220.06731,232.32943 202.51586,245.3989 269.46831,252.43179 C 264.84873,254.16003 259.73059,255.09308 256.0529,259.08929 C 250.76821,263.24593 245.08112,266.74909 239.93819,271.08411 C 233.16036,274.21436 226.56943,277.15742 219.09025,278.86347 C 210.55064,281.14197 202.14499,284.64781 193.24609,284.87641 C 185.63876,285.1637 178.01081,285.28642 170.46936,286.46828 C 164.0694,287.13491 157.77246,288.08874 151.29746,287.88484 L 97.150931,273.98238 z " />
    <path
       style="fill:#000000;fill-opacity:1;fill-rule:nonzero;stroke:none;stroke-width:1px;stroke-linecap:butt;stroke-linejoin:miter;stroke-opacity:1"
       id="path2576"
       d="M 93.530304,332.03302 C 99.834742,328.13711 107.01535,327.53275 114.1828,326.62212 C 121.66833,325.78692 129.19495,325.77491 136.7124,325.64013 C 145.04725,325.96251 153.35797,325.50893 161.66597,325.19215 C 170.72613,324.70313 179.39804,322.12667 188.11235,319.83508 C 193.73286,317.64797 199.22088,315.16554 204.83552,312.95071 C 204.97775,310.15038 206.06991,312.57815 206.6871,312.39187 C 224.72257,316.34805 242.75804,320.30422 260.79351,324.26039 L 205.72769,314.21848 C 234.71631,319.48736 281.69699,321.15539 258.05947,325.31932 C 251.89856,327.14 245.59672,328.2206 240.08219,331.96119 C 231.1819,333.86302 222.49766,336.71731 213.47388,337.88027 C 205.27792,338.89023 197.1302,339.28212 188.8622,339.00834 C 181.19027,339.03217 173.51165,338.95873 165.84824,339.38803 C 159.98814,340.03513 153.82565,339.83838 148.52028,342.75286 L 93.530304,332.03302 z " />
    <path
       style="fill:#000000;fill-opacity:1;fill-rule:nonzero;stroke:none;stroke-width:1px;stroke-linecap:butt;stroke-linejoin:miter;stroke-opacity:1"
       id="path2578"
       d="M 108.5795,365.41095 C 117.33687,366.17297 126.04958,365.16614 134.75184,364.29745 C 143.2185,363.42105 151.72709,363.21669 160.22612,362.90382 C 167.88813,362.81743 175.55059,362.82127 183.21303,362.78961 C 189.36562,362.74808 195.51834,362.73947 201.67103,362.72642 C 202.62898,362.72556 203.58693,362.72471 204.54487,362.72385 L 257.35482,376.28456 C 256.38746,376.28322 255.42011,376.28188 254.45275,376.28054 C 248.09666,376.26077 241.74053,376.24602 235.38461,376.18976 C 227.67747,376.154 219.97044,376.10887 212.2633,376.18205 C 203.54295,376.27248 194.81353,376.25035 186.11467,376.98487 C 178.30054,377.69439 170.54137,378.79121 162.72603,379.31342 L 108.5795,365.41095 z " />
    <path
       style="fill:#000000;fill-opacity:1;fill-rule:nonzero;stroke:none;stroke-width:1px;stroke-linecap:butt;stroke-linejoin:miter;stroke-opacity:1"
       id="path2580"
       d="M 336.39879,39.21684 C 335.27248,45.582791 335.40208,52.085455 335.25794,58.527537 C 334.79482,65.975534 335.80064,73.286949 336.68733,80.64358 C 337.01054,87.816964 338.11627,94.861912 339.15702,101.93393 C 340.57116,107.88309 340.84227,113.97368 341.27935,120.04014 C 341.49572,125.78543 341.45473,131.53564 341.46536,137.28371 C 341.46227,140.13908 341.45721,142.99444 341.45314,145.8498 L 287.14297,140.70859 C 287.14593,137.85542 287.15084,135.00225 287.15184,132.14908 C 287.12536,126.48681 287.18059,120.8223 286.95935,115.16277 C 286.4898,109.35142 286.33234,103.50402 285.13839,97.76864 C 284.42858,90.609238 283.83227,83.44108 283.04326,76.283817 C 282.19434,68.679276 281.3646,61.154836 281.88492,53.482302 C 281.73977,46.967979 281.86007,40.396631 280.74407,33.955919 L 336.39879,39.21684 z " />
    <path
       style="fill:#000000;fill-opacity:1;fill-rule:nonzero;stroke:none;stroke-width:1px;stroke-linecap:butt;stroke-linejoin:miter;stroke-opacity:1"
       id="path2582"
       d="M 340.70743,145.91917 C 366.11312,155.61417 267.41723,143.21021 303.74181,140.48739 C 309.41538,139.03962 314.91323,136.93783 320.44658,135.03959 C 325.33985,132.54069 330.75119,132.42495 336.02187,131.57208 C 341.68953,131.18878 347.37232,131.29333 353.04817,131.254 C 359.25733,131.50815 365.45192,131.13005 371.63452,130.89958 C 378.58461,129.84207 385.58609,129.32998 392.58566,128.77356 C 398.8072,128.39927 405.03914,128.47895 411.26749,128.47195 C 434.08982,127.00008 460.17373,134.8881 478.59908,137.68475 L 423.43486,137.63977 C 436.86856,138.87218 477.16702,142.05673 463.67754,141.92638 C 457.50548,141.95292 451.33311,141.95707 445.16143,142.03525 C 438.15947,142.32073 431.13094,142.42752 424.20185,143.61742 C 418.08837,144.39041 412.10894,145.42261 405.88505,144.8295 C 400.27447,144.82089 394.66324,144.7677 389.05314,144.86795 C 383.99476,145.21903 378.83863,144.99273 373.97464,146.71955 C 368.14447,148.68313 362.28158,150.5016 356.56094,152.8107 C 332.90773,157.95412 308.60945,153.54042 284.88382,148.06016 L 340.70743,145.91917 z " />
    <path
       style="fill:#000000;fill-opacity:1;fill-rule:nonzero;stroke:none;stroke-width:1px;stroke-linecap:butt;stroke-linejoin:miter;stroke-opacity:1"
       id="path2584"
       d="M 473.54165,167.78827 C 471.77918,171.98695 473.62597,176.36449 473.91642,180.28114 C 413.90408,176.22487 417.32199,190.09514 418.51078,161.87964 C 418.5907,156.14198 418.57073,150.40361 418.57173,144.66558 C 411.41644,117.96054 473.11158,146.24238 473.2134,146.2575 C 472.43661,152.49819 472.69861,158.80743 472.723,165.08076 C 472.80148,171.04562 472.82418,177.0109 472.85422,182.97613 C 472.87172,188.69751 472.86779,194.41892 472.87018,200.14032 C 472.86995,205.85114 472.86953,211.56195 472.86914,217.27277 C 472.8691,218.225 472.86907,219.17723 472.86903,220.12945 L 418.55954,214.9957 C 418.55951,214.04346 418.55947,213.09123 418.55943,212.13899 C 418.55904,206.42811 418.55862,200.71723 418.55839,195.00635 C 418.56078,189.28595 418.55685,183.56554 418.57435,177.84517 C 418.60438,171.88822 418.62704,165.9312 418.70557,159.97461 C 418.7301,153.67015 418.98765,147.33114 418.21517,141.05864 C 436.64539,141.80522 477.73635,132.00882 472.85684,149.79703 C 472.85784,155.53891 472.83793,161.28112 472.91779,167.02262 C 474.09534,195.19394 478.10436,182.34883 417.51215,174.94937 C 417.80123,171.10582 419.64262,166.69573 417.88692,162.52735 L 473.54165,167.78827 z " />
    <path
       style="fill:#000000;fill-opacity:1;fill-rule:nonzero;stroke:none;stroke-width:1px;stroke-linecap:butt;stroke-linejoin:miter;stroke-opacity:1"
       id="path2586"
       d="M 471.4205,233.59913 C 465.38159,233.34597 459.33523,233.4097 453.29259,233.40087 C 428.69969,233.7556 404.39145,228.9788 379.99557,226.27387 C 357.75095,224.20969 411.39456,229.61578 427.09299,231.29667 C 430.95027,231.70968 419.34783,230.83459 415.47243,230.65987 C 409.76622,230.52609 404.05817,230.56665 398.35098,230.55616 C 392.64016,230.56437 386.92933,230.56698 381.21851,230.57144 C 375.52393,230.30966 369.83043,230.76188 364.16637,230.95028 C 359.61467,231.87928 354.98847,232.29145 350.39475,232.92268 L 297.0317,220.41384 C 301.69136,219.72385 306.41247,218.80921 311.14823,218.25857 C 316.90021,217.42792 322.48263,216.40126 328.37998,217.00694 C 334.0895,217.00413 339.79902,217.00431 345.50853,216.99464 C 351.23552,216.9876 356.9626,216.96503 362.68955,216.99743 C 386.60995,217.47488 410.40537,219.82138 434.10086,223.57987 C 422.95041,222.48207 389.49422,219.46573 400.69037,219.89492 C 406.21775,219.88675 411.75186,219.97405 417.27397,219.69666 L 471.4205,233.59913 z " />
    <path
       style="fill:#000000;fill-opacity:1;fill-rule:nonzero;stroke:none;stroke-width:1px;stroke-linecap:butt;stroke-linejoin:miter;stroke-opacity:1"
       id="path2594"
       d="M 350.53019,239.54402 C 348.38057,249.29058 348.74179,259.32254 348.74242,269.23347 C 348.98169,278.19929 349.30159,287.16089 349.66721,296.12323 C 349.92555,302.24974 349.94728,308.38149 350.00491,314.51189 C 349.33567,319.36537 348.63907,324.222 347.90427,329.06657 L 293.669,323.26984 C 294.3535,318.64084 295.03241,314.00899 295.70938,309.37946 C 295.76691,303.27033 295.78812,297.15983 296.04707,291.05463 C 296.41314,282.15059 296.73299,273.24729 296.97187,264.33971 C 296.9725,254.31516 297.30814,244.1785 295.1841,234.31227 L 350.53019,239.54402 z " />
    <path
       style="fill:#000000;fill-opacity:1;fill-rule:nonzero;stroke:none;stroke-width:1px;stroke-linecap:butt;stroke-linejoin:miter;stroke-opacity:1"
       id="path2596"
       d="M 356.39879,307.78827 C 355.10393,314.20214 355.37394,320.84942 355.25748,327.37046 C 354.30761,332.71148 353.85371,338.10945 353.23064,343.48835 C 353.26369,349.888 352.32281,356.18388 351.64453,362.51063 C 350.6852,370.29728 349.92834,378.05854 348.64566,385.79855 C 346.831,396.04991 346.42961,406.41404 346.06704,416.79376 C 345.91245,426.78538 344.92155,436.75765 344.47971,446.75568 C 344.25768,453.15663 344.28439,459.56169 344.27059,465.96526 C 344.27205,467.86695 344.27609,469.76864 344.27885,471.67033 L 289.96608,466.52477 C 289.9831,464.60962 289.97642,462.69426 290.01713,460.77932 C 290.24988,454.26484 290.3745,447.73776 291.33064,441.2737 C 292.68128,431.4755 294.23847,421.68884 294.26192,411.76862 C 294.53796,401.18603 294.57095,390.58496 295.79876,380.06462 C 296.53272,372.28279 297.13861,364.49255 298.11904,356.73871 C 298.5066,350.46478 298.87267,344.24822 298.84082,337.95097 C 299.47369,332.49657 299.70569,326.98168 301.20185,321.65181 C 301.52455,315.31276 302.36846,308.82994 300.74407,302.52735 L 356.39879,307.78827 z " />
    <path
       style="fill:#000000;fill-opacity:1;fill-rule:nonzero;stroke:none;stroke-width:1px;stroke-linecap:butt;stroke-linejoin:miter;stroke-opacity:1"
       id="path2598"
       d="M 350.6845,462.07398 C 349.63275,467.76364 349.92472,473.59502 349.89084,479.35471 C 349.14809,487.34657 352.64811,484.59527 356.64958,487.74689 C 369.41783,487.78367 331.33739,484.36235 318.65912,482.8487 C 324.407,482.85549 330.15482,482.79881 335.90255,482.75996 C 341.62417,482.72826 347.34589,482.72821 353.06758,482.72231 C 358.78181,482.72011 364.49604,482.72118 370.21027,482.72131 C 375.97397,483.0572 381.62174,481.87814 387.28155,480.97567 C 393.6122,480.06168 400.0191,480.10762 406.39764,479.94423 C 411.95303,480.41675 417.4012,479.48766 422.87088,479.03212 C 427.91598,477.75657 433.11222,477.64858 438.2586,477.18447 C 443.41947,478.31261 442.31218,471.88015 443.95377,469.73202 C 445.13065,464.28292 443.67344,459.08225 443.05453,453.72213 C 442.64417,450.01074 440.38462,447.08212 439.0437,443.74729 L 493.72041,446.53745 C 495.02929,450.29657 496.73959,453.94153 497.38917,457.91969 C 498.23983,463.80421 499.28584,469.59998 498.46672,475.5814 C 496.97695,481.32229 497.53473,486.49126 491.67737,489.90063 C 486.61316,490.44534 481.43404,491.17145 476.29418,491.65201 C 470.45911,492.56442 464.89549,494.22576 458.87297,493.36179 C 452.66708,493.42643 446.45237,493.37611 440.26135,493.89337 C 434.51113,494.66253 428.78191,495.80418 423.04767,496.28793 C 417.33332,496.28756 411.61896,496.28721 405.9046,496.28686 C 400.18152,496.28794 394.45843,496.28566 388.73536,496.3002 C 382.98992,496.32653 377.24437,496.3427 371.49931,496.42261 C 348.2926,494.36572 323.61245,497.72533 301.54607,489.11581 C 298.33681,484.08628 294.22442,481.6075 295.82344,474.24384 C 295.7893,468.43356 296.07264,462.55556 295.02978,456.81306 L 350.6845,462.07398 z " />
    <path
       style="fill:#000000;fill-opacity:1;fill-rule:nonzero;stroke:none;stroke-width:1px;stroke-linecap:butt;stroke-linejoin:miter;stroke-opacity:1"
       id="path2600"
       d="M 311.43665,79.696664 C 317.47555,79.949823 323.52191,79.886095 329.56455,79.894919 C 335.48883,79.883138 341.41312,79.876267 347.33741,79.869269 C 353.05985,79.864584 358.78228,79.865381 364.50472,79.864549 C 370.21624,79.864453 375.92776,79.864583 381.63928,79.864651 C 387.35326,79.864718 393.06725,79.864714 398.78123,79.864731 C 404.36662,80.409542 409.83598,79.447309 415.34816,79.016461 C 421.26951,78.304207 427.07771,77.112126 432.90165,75.857728 C 435.75387,75.179256 438.69147,75.05795 441.58233,74.658621 L 494.49795,87.827708 C 491.63,88.041852 488.73904,88.021932 485.88894,88.470525 C 480.04976,89.61891 474.29035,91.046736 468.37684,91.69161 C 462.75967,92.576327 457.39916,94.176509 451.61861,93.431063 C 445.90483,93.43108 440.19105,93.431076 434.47728,93.431143 C 428.76603,93.431211 423.05477,93.43134 417.34352,93.431245 C 411.60882,93.430665 405.87413,93.431011 400.13944,93.426525 C 394.14855,93.419513 388.15766,93.412615 382.16678,93.400875 C 376.6394,93.409039 371.10528,93.321745 365.58318,93.59913 L 311.43665,79.696664 z " />
    <path
       style="fill:#000000;fill-opacity:1;fill-rule:nonzero;stroke:none;stroke-width:1px;stroke-linecap:butt;stroke-linejoin:miter;stroke-opacity:1"
       id="path2602"
       d="M 325.72236,293.98238 C 331.76127,294.23554 337.80763,294.17181 343.85026,294.18063 C 349.41614,294.65978 355.01077,293.83834 360.44574,293.48337 C 365.32052,290.86357 370.73939,290.29492 375.99735,289.05726 C 383.22349,288.48742 390.484,288.5536 397.72803,288.46711 C 404.96156,288.49006 412.19494,288.49622 419.42844,288.51427 C 426.19072,288.47136 432.95257,288.49062 439.71477,288.50586 C 441.95002,288.5082 444.18526,288.49568 446.4205,288.49059 L 498.83586,301.94863 C 496.55995,301.94342 494.28405,301.93121 492.00812,301.933 C 485.19467,301.94617 478.38157,301.96424 471.56808,301.90771 C 464.38695,301.90479 457.20602,301.88615 450.02488,301.89058 C 443.04202,301.87362 436.05518,301.76436 429.07767,302.12066 C 423.95116,302.76347 418.70159,302.63537 413.97548,305.12974 C 408.05372,306.95212 403.02927,308.80564 396.45249,307.68659 C 390.92511,307.69475 385.391,307.60746 379.86889,307.88484 L 325.72236,293.98238 z " />
    <path
       style="fill:#000000;fill-opacity:1;fill-rule:nonzero;stroke:none;stroke-width:1px;stroke-linecap:butt;stroke-linejoin:miter;stroke-opacity:1"
       id="path2604"
       d="M 386.42172,357.34774 C 398.62894,359.08903 361.87066,355.00957 349.61015,353.69498 C 355.67421,354.11856 361.75569,354.12157 367.83078,354.20677 C 374.8808,354.31105 381.92975,354.21821 388.97788,354.14519 C 396.06736,353.24739 403.16757,352.51992 410.27741,351.83685 C 416.84805,351.42606 423.4316,351.39521 430.01149,351.30372 C 435.80225,351.26975 441.59315,351.28218 447.38397,351.28494 L 500.21779,364.85553 C 494.36836,364.8459 488.51892,364.83937 482.66954,364.81109 C 475.97699,364.79968 469.28222,364.73192 462.59209,364.95917 C 455.49931,365.40204 448.38204,365.68068 441.3838,367.05095 C 434.40552,367.43004 427.37307,367.99355 420.32959,367.6984 C 414.2601,367.70877 408.1881,367.77924 402.12118,367.52935 C 378.29352,365.14004 354.11933,364.3173 330.5981,359.48873 L 386.42172,357.34774 z " />
    <path
       style="fill:#000000;fill-opacity:1;fill-rule:nonzero;stroke:none;stroke-width:1px;stroke-linecap:butt;stroke-linejoin:miter;stroke-opacity:1"
       id="path2606"
       d="M 320.49997,425.4495 C 328.03861,426.60892 334.90426,424.48134 342.06019,422.66232 C 347.46304,419.61929 352.95745,416.80407 358.46949,414.00703 C 364.05527,411.83202 369.99479,411.74954 375.87387,411.32401 C 381.60463,411.1737 387.33808,411.23627 393.07003,411.25289 C 399.12413,411.25574 405.17776,411.30276 411.23159,411.3437 C 436.23401,410.53922 460.71789,412.55189 482.92816,421.55121 C 488.33129,424.75165 492.49624,429.0647 496.88748,433.41215 C 501.09119,439.418 500.23752,445.09536 499.81262,451.84254 C 499.14683,454.72855 497.67209,457.31968 496.60542,460.04905 L 442.44111,452.50415 C 443.4266,450.11066 445.20188,448.03337 445.38817,445.34652 C 445.24137,440.36432 446.80214,436.45944 442.50294,432.18729 C 437.97543,428.72609 433.58489,424.98729 428.33239,422.5353 C 424.56477,421.75807 413.20225,419.81498 417.02953,420.2036 C 433.66121,421.89238 450.2831,423.67627 466.90988,425.4126 C 465.82457,425.21049 464.73926,425.00839 463.65395,424.80628 C 457.73621,424.8377 451.81873,424.88303 445.90076,424.8382 C 440.17509,424.81316 434.44942,424.78146 428.72372,424.76741 C 423.00955,424.86791 417.25028,424.7198 411.61522,425.85551 C 405.91372,428.36531 399.83107,430.01843 394.64391,433.8109 C 388.06961,436.15448 381.61203,439.63118 374.34623,439.27487 L 320.49997,425.4495 z " />
    <path
       style="fill:#000000;fill-opacity:1;fill-rule:nonzero;stroke:none;stroke-width:1px;stroke-linecap:butt;stroke-linejoin:miter;stroke-opacity:1"
       id="path2680"
       d="M 200.70743,605.91917 C 207.5395,608.84368 214.28617,612.06547 221.06313,615.19006 C 228.31851,619.47725 236.31374,620.45476 244.40982,621.75079 C 154.52451,615.36096 193.4417,618.38313 214.96032,615.1366 C 225.15161,612.20497 235.16153,608.6958 245.256,605.45243 C 256.40678,602.66007 267.69489,600.46687 278.89438,597.84942 C 290.21287,595.41327 301.67206,593.81147 313.11634,592.11322 C 326.20325,590.26055 339.4004,589.60719 352.58855,588.99948 C 361.34562,588.66914 370.10736,588.59457 378.8683,588.50491 C 385.80669,588.46429 392.74464,588.48583 399.68293,588.50381 L 451.94009,601.92562 C 444.91431,601.92798 437.88894,601.93364 430.86325,601.86195 C 421.4983,601.7798 412.13207,601.64717 402.76661,601.73844 C 389.49145,602.00748 376.18086,602.23048 363.01202,604.13094 C 351.89513,606.01681 340.7547,607.72724 329.66688,609.76278 C 318.41737,612.1187 307.25193,614.80003 295.95037,616.89764 C 286.22959,620.01969 276.61354,623.35865 267.01829,626.8481 C 240.17863,633.82205 224.11152,631.34131 190.67414,624.33563 C 182.88221,622.28733 175.17344,620.37347 168.04388,616.36695 C 160.54787,612.98418 153.0832,609.38185 144.88382,608.06016 L 200.70743,605.91917 z " />
    <path
       style="fill:#000000;fill-opacity:1;fill-rule:nonzero;stroke:none;stroke-width:1px;stroke-linecap:butt;stroke-linejoin:miter;stroke-opacity:1"
       id="path2682"
       d="M 182.86522,713.98238 C 188.88301,714.26583 194.90853,714.15286 200.92933,714.1278 C 207.6093,713.40594 214.24895,712.34934 220.88869,711.38627 C 226.83569,710.25324 232.7613,709.08085 238.69088,707.88191 C 247.26036,705.41309 255.82574,702.8655 264.43436,700.48915 C 276.70312,698.17603 289.05817,696.31351 301.37618,694.27469 C 313.25527,692.33519 325.02722,690.02478 336.71039,687.146 C 344.0321,684.82208 351.60489,684.02515 359.16959,683.10802 C 383.67075,681.80775 408.78084,683.47808 431.56467,692.46897 C 432.57461,692.86062 433.58455,693.25227 434.59449,693.64391 L 380.41784,695.04161 C 379.40794,694.64893 378.39803,694.25625 377.38813,693.86357 C 341.54375,684.73847 445.01906,697.1646 411.52106,696.24231 C 403.56487,696.71041 395.58667,697.02328 387.8067,698.98818 C 375.56534,701.86989 363.22278,704.08861 350.79011,705.99033 C 339.13243,708.15241 327.51108,710.51321 315.81055,712.426 C 307.60751,714.42485 299.20504,716.25848 291.71856,720.30071 C 285.70916,721.76506 279.72063,722.96002 273.58631,723.78251 C 266.94759,724.97321 260.35884,726.14706 253.65914,727.0559 C 248.15065,727.43358 242.59444,727.98121 237.01175,727.88484 L 182.86522,713.98238 z " />
    <path
       style="fill:#000000;fill-opacity:1;fill-rule:nonzero;stroke:none;stroke-width:1px;stroke-linecap:butt;stroke-linejoin:miter;stroke-opacity:1"
       id="path2684"
       d="M 316.7776,618.53308 C 318.63392,631.93137 319.33189,645.45985 320.93856,658.89816 C 324.01861,682.70117 329.58993,706.1196 335.39445,729.38423 C 340.5251,747.67226 344.12757,766.23949 346.98746,784.98911 C 349.0261,796.86194 348.86557,808.8776 348.61809,820.85579 C 347.23487,836.7806 347.45826,852.72285 347.95207,868.67111 C 349.35373,878.19209 348.98165,887.4823 348.17376,896.92655 L 294.26865,890.38163 C 296.35368,881.70011 297.80267,872.9771 297.80573,863.92356 C 298.35366,847.94602 298.63051,831.97147 297.31241,816.01059 C 296.98637,804.25524 296.87346,792.49526 296.81717,780.73017 C 295.51759,762.30114 293.53665,743.94835 288.75204,726.02711 C 283.89193,702.44067 278.61004,678.95679 274.05016,655.30822 C 270.7254,641.44516 268.04121,627.24226 261.04878,614.63968 L 316.7776,618.53308 z " />
    <path
       style="fill:#000000;fill-opacity:1;fill-rule:nonzero;stroke:none;stroke-width:1px;stroke-linecap:butt;stroke-linejoin:miter;stroke-opacity:1"
       id="path2686"
       d="M 54.293789,899.69666 C 63.449041,900.44927 72.478519,898.64779 81.465375,897.17206 C 90.02698,896.47553 98.214987,894.5442 106.43075,892.51082 C 113.06313,888.96137 120.29054,887.1673 127.5013,885.25685 C 138.13244,882.10773 149.00305,880.30184 159.94973,878.7685 C 174.2259,877.27715 188.41304,875.0813 202.61809,873.04268 C 219.24504,871.04536 235.79876,868.50802 252.37925,866.17548 C 272.09426,864.73351 291.70376,862.25865 311.23823,859.2709 C 332.64653,855.5921 354.12968,852.39936 375.61517,849.19522 C 399.5726,845.51915 423.80506,844.74397 447.98823,844.0012 C 467.37608,843.02316 486.6947,844.57328 505.97244,846.39119 C 538.34398,847.51447 569.53814,853.26547 600.95811,859.78041 C 609.69021,861.53478 618.34154,863.6579 627.03094,865.61218 L 574.76307,867.68466 C 566.78571,865.58464 558.82167,863.41161 550.71825,861.83596 C 530.93584,857.79027 467.89947,847.99553 553.8988,859.2162 C 533.67525,856.98102 513.41045,854.61343 493.01449,855.45232 C 468.80507,855.82318 444.55597,856.66224 420.54551,860.02068 C 399.72037,863.16549 379.04334,867.17488 358.27228,870.63795 C 339.06421,873.20067 319.90769,876.25403 300.59135,877.915 C 284.05286,880.10741 267.56652,882.65052 251.0079,884.70496 C 237.41734,887.01465 223.82475,889.32656 210.15041,891.09313 C 199.71486,892.29886 189.39544,893.71049 179.38476,897.06348 C 172.50539,899.17274 165.48007,900.87449 158.85217,903.71358 C 150.11668,906.81279 142.04729,909.55214 132.45675,909.395 C 124.4427,910.75969 116.47032,912.47153 108.44032,913.59913 L 54.293789,899.69666 z " />
  </g>
</svg>
