<?xml version="1.0" encoding="UTF-8" standalone="no"?>
<!-- Created with Inkscape (http://www.inkscape.org/) -->
<svg
   xmlns:dc="http://purl.org/dc/elements/1.1/"
   xmlns:cc="http://web.resource.org/cc/"
   xmlns:rdf="http://www.w3.org/1999/02/22-rdf-syntax-ns#"
   xmlns:svg="http://www.w3.org/2000/svg"
   xmlns="http://www.w3.org/2000/svg"
   xmlns:sodipodi="http://sodipodi.sourceforge.net/DTD/sodipodi-0.dtd"
   xmlns:inkscape="http://www.inkscape.org/namespaces/inkscape"
   width="744.09448819"
   height="1052.3622047"
   id="svg2"
   sodipodi:version="0.32"
   inkscape:version="0.45.1"
   sodipodi:docbase="/Users/haiwa"
   sodipodi:docname="king.svg"
   inkscape:output_extension="org.inkscape.output.svg.inkscape">
  <defs
     id="defs4" />
  <sodipodi:namedview
     id="base"
     pagecolor="#ffffff"
     bordercolor="#666666"
     borderopacity="1.0"
     gridtolerance="10000"
     guidetolerance="10"
     objecttolerance="10"
     inkscape:pageopacity="0.0"
     inkscape:pageshadow="2"
     inkscape:zoom="0.35"
     inkscape:cx="375"
     inkscape:cy="555.03986"
     inkscape:document-units="px"
     inkscape:current-layer="layer1"
     inkscape:window-width="701"
     inkscape:window-height="581"
     inkscape:window-x="509"
     inkscape:window-y="4" />
  <metadata
     id="metadata7">
    <rdf:RDF>
      <cc:Work
         rdf:about="">
        <dc:format>image/svg+xml</dc:format>
        <dc:type
           rdf:resource="http://purl.org/dc/dcmitype/StillImage" />
      </cc:Work>
    </rdf:RDF>
  </metadata>
  <g
     inkscape:label="Layer 1"
     inkscape:groupmode="layer"
     id="layer1">
    <path
       style="fill:#000000;fill-opacity:1;fill-rule:nonzero;stroke:none;stroke-width:1px;stroke-linecap:butt;stroke-linejoin:miter;stroke-opacity:1"
       id="path2512"
       d="M 154.78569,65.449498 C 162.33462,65.738996 169.89117,65.695583 177.44422,65.71808 C 188.18033,65.797731 198.91607,65.886053 209.65235,65.930909 C 219.73101,65.960985 229.80899,65.839463 239.8868,65.727434 C 248.21593,65.648127 256.5431,65.705748 264.87161,65.801041 C 276.64967,65.896969 288.42808,65.914125 300.20606,65.989932 C 316.02118,66.236928 331.8166,65.020556 347.60192,64.19447 C 359.76912,63.558715 371.94761,63.274674 384.12635,62.980838 C 393.10254,63.611078 401.7203,61.860085 410.41391,59.946262 C 413.89776,59.029976 417.48691,58.654932 421.01983,58.009922 L 473.50914,70.849037 C 469.76723,71.284231 465.9743,71.367225 462.27338,72.155786 C 453.24635,73.967505 444.42724,76.889033 435.1263,76.039462 C 422.07451,75.964926 409.01899,75.950945 395.97229,76.388886 C 380.58765,77.077279 365.22695,78.267045 349.84261,78.734433 C 338.55513,78.810918 327.26711,78.825216 315.97953,78.923325 C 307.84221,79.003396 299.70617,79.089112 291.56807,78.996931 C 280.962,78.878449 270.35552,78.774519 259.74867,78.793457 C 249.56496,78.837434 239.38188,78.925409 229.19836,79.006285 C 222.34309,79.027189 215.48145,78.957409 208.63195,79.274868 L 154.78569,65.449498 z " />
    <path
       style="fill:#000000;fill-opacity:1;fill-rule:nonzero;stroke:none;stroke-width:1px;stroke-linecap:butt;stroke-linejoin:miter;stroke-opacity:1"
       id="path2514"
       d="M 189.97159,145.56586 C 203.58663,144.57661 217.1426,142.92738 230.73266,141.64214 C 243.6312,140.69733 256.56366,140.46496 269.48862,140.18816 C 277.31237,140.02595 285.13725,139.95687 292.96213,139.88544 C 300.06635,139.9002 307.16995,139.94003 314.27394,139.98299 C 324.28371,140.42117 334.24689,139.13913 344.19121,138.18503 C 352.52891,137.33939 360.9125,137.29684 369.28303,137.19742 C 376.84827,137.34259 384.39089,136.95795 391.92719,136.60645 C 397.91999,136.05561 403.76062,134.68213 409.65663,133.60652 C 412.56469,132.82769 415.57462,132.5998 418.5295,132.09715 L 471.42025,145.10172 C 468.50755,145.41449 465.55401,145.43071 462.6737,146.04094 C 456.60484,147.56324 450.57477,148.79571 444.32065,149.32406 C 436.49876,150.0832 428.76119,151.01103 420.84417,150.39436 C 412.43207,150.46694 404.01599,150.50835 395.61345,150.9702 C 385.78773,151.64014 375.99704,152.77438 366.17735,153.31094 C 359.27023,153.34826 352.36362,153.38563 345.45618,153.37398 C 336.91917,153.27468 328.38235,153.15701 319.84511,153.07991 C 306.53381,153.06267 293.2124,153.03646 279.92034,153.86982 C 267.66699,154.82846 255.39826,155.70608 243.38452,158.47497 L 189.97159,145.56586 z " />
    <path
       style="fill:#000000;fill-opacity:1;fill-rule:nonzero;stroke:none;stroke-width:1px;stroke-linecap:butt;stroke-linejoin:miter;stroke-opacity:1"
       id="path2516"
       d="M 348.04574,87.567574 C 349.17277,100.42082 351.81354,113.09438 353.83995,125.83425 C 356.82375,141.69397 359.86929,157.51255 362.01626,173.50263 C 362.92891,184.39026 363.17954,195.32403 363.54408,206.23875 C 363.77103,214.86415 363.70059,223.49445 363.65903,232.12179 C 364.10503,241.35268 363.0187,250.50747 362.105,259.67022 C 362.19981,267.5381 361.0027,275.10785 359.75802,282.73775 C 359.43895,283.62256 359.11988,284.50736 358.80081,285.39217 L 304.67059,278.23881 C 305.02959,277.38274 305.38858,276.52667 305.74758,275.67059 C 307.70848,268.64131 309.45874,261.6937 309.59267,254.17282 C 310.51294,245.14677 310.99226,236.18093 310.65845,227.10216 C 310.65616,218.49078 310.63269,209.877 310.89068,201.26838 C 311.17505,190.54125 311.43783,179.81171 310.83993,169.08588 C 309.95282,153.32758 308.98067,137.53854 305.12024,122.15512 C 302.1561,108.88657 298.61096,95.706946 292.63778,83.431569 L 348.04574,87.567574 z " />
    <path
       style="fill:#000000;fill-opacity:1;fill-rule:nonzero;stroke:none;stroke-width:1px;stroke-linecap:butt;stroke-linejoin:miter;stroke-opacity:1"
       id="path2518"
       d="M 108.43595,285.73873 C 120.53274,284.38474 132.43954,281.86455 144.3517,279.42249 C 158.4434,276.10782 172.73414,274.39607 187.11061,273.01966 C 200.03425,271.97414 213.00813,271.84457 225.9644,271.54944 C 234.11393,271.32157 242.26656,271.39015 250.418,271.39368 C 257.35983,271.84715 264.22217,271.05272 271.05507,270.44136 C 279.05535,267.94935 287.26609,267.02353 295.56201,266.29491 C 304.0172,266.28114 312.38098,265.54042 320.77498,264.69203 C 347.94619,263.18108 375.18098,265.15522 402.31664,266.58083 C 444.31772,268.37296 486.02772,272.46209 527.83264,276.8031 C 586.54732,282.90516 390.12183,261.70091 560.27451,279.8232 C 586.89829,284.00592 559.53405,280.15745 526.61258,276.61262 C 532.90589,277.00821 539.21435,277.00479 545.51677,277.08577 C 567.28563,279.18731 677.15021,291.01107 562.99818,278.90985 L 615.09487,292.82996 C 506.86954,281.46519 567.70559,287.81343 597.89943,290.54251 C 591.60697,290.56554 585.31277,290.64938 579.02283,290.39804 C 554.83025,287.99342 530.40165,286.71765 506.41762,282.45409 C 613.72578,293.35309 513.1978,283.82633 478.63422,279.34616 C 570.15233,288.50421 461.9293,277.26021 441.4171,276.81614 C 418.49978,275.87349 395.48821,274.57326 372.63885,277.36369 C 364.09395,278.5264 355.63677,279.41318 346.98323,279.16926 C 339.10657,279.78736 331.16084,280.00855 323.55789,282.45663 C 316.40176,284.08811 309.87731,285.86364 302.28739,284.72199 C 293.699,284.68914 285.11037,284.69207 276.52332,284.50614 C 262.93957,284.40493 249.35024,284.36328 235.78064,285.12425 C 221.6209,286.34087 207.58578,287.9945 193.67485,291.02037 C 183.36431,293.29331 173.0452,295.51425 162.86959,298.3021 L 108.43595,285.73873 z " />
    <path
       style="fill:#000000;fill-opacity:1;fill-rule:nonzero;stroke:none;stroke-width:1px;stroke-linecap:butt;stroke-linejoin:miter;stroke-opacity:1"
       id="path2520"
       d="M 120.00807,468.26809 C 166.64971,470.1013 173.5986,463.01318 190.14707,491.45741 C 195.3909,501.93546 198.16552,513.2596 200.90529,524.57099 C 204.02815,533.70541 206.2906,543.06325 208.58579,552.41566 L 155.09178,548.23864 C 153.51886,538.93584 151.93698,529.6852 148.74938,520.74087 C 146.30753,509.90711 143.88079,498.93136 138.04359,489.30618 C 120.34146,467.88307 90.574797,471.69167 174.15461,482.17056 L 120.00807,468.26809 z " />
    <path
       style="fill:#000000;fill-opacity:1;fill-rule:nonzero;stroke:none;stroke-width:1px;stroke-linecap:butt;stroke-linejoin:miter;stroke-opacity:1"
       id="path2522"
       d="M 94.055123,643.31268 C 105.7624,637.69634 116.37071,630.28538 127.00259,622.91576 C 138.30306,614.72096 149.25729,606.05835 160.31955,597.54622 C 168.89472,591.16693 177.87488,585.38934 186.4682,579.02883 C 191.68199,575.58141 195.8312,571.02313 200.16071,566.59337 L 253.51022,576.33377 C 248.70448,580.68393 243.93016,585.28695 238.49701,588.8606 C 229.3861,595.34002 219.91404,601.18002 210.35492,606.98239 C 199.18054,615.61227 188.01408,624.25877 176.42276,632.32812 C 167.05196,639.22664 157.34224,645.93124 148.67899,653.64682 L 94.055123,643.31268 z " />
    <path
       style="fill:#000000;fill-opacity:1;fill-rule:nonzero;stroke:none;stroke-width:1px;stroke-linecap:butt;stroke-linejoin:miter;stroke-opacity:1"
       id="path2528"
       d="M 247.67304,419.54402 C 246.1487,426.69993 246.73043,434.08699 246.82365,441.35275 C 248.29169,448.42419 248.46616,455.60658 248.91637,462.77577 C 248.78964,470.02968 249.79291,477.34479 250.70433,484.33353 C 253.64365,489.37125 254.13833,494.92448 255.04394,500.49186 C 256.02658,508.73704 256.78056,516.99915 257.53683,525.26772 C 258.47682,535.70646 257.28027,546.21445 256.77412,556.66365 C 256.65999,574.86483 257.90083,592.98665 259.70643,611.08446 C 262.34497,625.67658 263.45144,640.28244 264.00086,655.06888 C 264.41672,674.40563 263.93786,693.74275 263.41323,713.07265 C 262.81598,735.15642 263.48636,757.23985 263.96559,779.31789 C 264.30716,795.81768 264.77607,812.3142 265.29119,828.80984 C 265.97361,838.41766 266.37081,848.02418 266.68782,857.64539 C 266.98875,864.84827 266.79215,872.05684 266.75872,879.26152 C 266.20933,882.7162 267.17772,886.13416 267.38345,889.50878 L 213.30007,884.98624 C 213.28046,881.39251 213.15162,877.79859 213.24123,874.20265 C 213.20778,867.00243 213.01069,859.7983 213.3118,852.59992 C 213.62787,843.06631 214.02288,833.54778 214.71006,824.02795 C 215.23012,807.61598 215.70453,791.2032 216.0638,774.78732 C 216.56716,752.7498 217.27972,730.70541 216.62564,708.6619 C 216.00496,689.31857 215.55653,669.96342 214.2754,650.64986 C 212.84688,636.0712 210.78444,621.51306 210.82787,606.83677 C 209.88585,588.59228 208.46028,570.36545 206.815,552.17262 C 205.76541,541.67319 204.36746,531.17049 204.36134,520.60655 C 203.61894,512.36394 203.26037,504.06846 200.83082,496.07128 C 199.4498,490.84765 198.37571,485.56008 196.4008,480.49736 C 196.14603,473.05994 195.95654,465.56825 195.76231,458.09694 C 194.88651,450.82422 193.76951,443.57889 193.17635,436.28159 C 193.2705,428.96109 193.83816,421.52703 192.32696,414.31227 L 247.67304,419.54402 z " />
    <path
       style="fill:#000000;fill-opacity:1;fill-rule:nonzero;stroke:none;stroke-width:1px;stroke-linecap:butt;stroke-linejoin:miter;stroke-opacity:1"
       id="path2530"
       d="M 460.21336,387.29121 C 447.15963,391.94536 435.9236,400.39057 424.66398,408.26869 C 412.36792,416.94544 400.47058,426.15957 388.3476,435.07054 C 380.48902,440.66307 371.19725,442.89748 362.1244,445.63628 C 353.27815,448.87553 344.43857,452.13458 335.59623,455.38812 C 329.28241,458.24695 322.50243,459.35959 315.82953,460.88116 L 263.69368,448.19784 C 270.48843,447.22101 277.38227,446.7466 283.82747,444.07958 C 292.68098,440.96112 301.48692,437.71678 310.20542,434.23722 C 319.38146,431.21283 328.99858,429.28572 337.80946,425.14385 C 350.96061,416.93218 363.75062,408.19796 376.26733,399.02207 C 386.25362,391.57646 396.09968,383.9642 405.62396,375.94307 L 460.21336,387.29121 z " />
    <path
       style="fill:#000000;fill-opacity:1;fill-rule:nonzero;stroke:none;stroke-width:1px;stroke-linecap:butt;stroke-linejoin:miter;stroke-opacity:1"
       id="path2532"
       d="M 337.85029,497.34774 C 343.90666,501.07558 346.83869,506.63652 350.16866,512.66834 C 354.62056,522.49402 359.76989,531.93297 365.03259,541.33637 C 365.76869,542.68685 366.50479,544.03734 367.24088,545.38782 L 314.19352,542.85405 C 313.59927,541.55413 313.00502,540.25421 312.41078,538.95428 C 307.75028,529.28924 303.04774,519.60554 297.15341,510.61434 C 292.47362,505.59648 289.45048,500.48061 282.02667,499.48873 L 337.85029,497.34774 z " />
    <path
       style="fill:#000000;fill-opacity:1;fill-rule:nonzero;stroke:none;stroke-width:1px;stroke-linecap:butt;stroke-linejoin:miter;stroke-opacity:1"
       id="path2534"
       d="M 420.67007,458.30094 C 426.37377,464.19692 429.30173,471.88377 432.62903,479.23101 C 437.53914,488.74958 440.41222,499.00819 443.33509,509.25063 C 445.02513,514.31712 445.53708,519.62857 446.47113,524.84587 L 392.60418,520.33107 C 392.04057,515.41589 391.84769,510.44113 390.59531,505.62086 C 388.00095,495.69564 385.71214,485.64224 380.40733,476.70612 C 376.28451,469.59952 372.93438,462.47725 364.92118,459.21905 L 420.67007,458.30094 z " />
    <path
       style="fill:#000000;fill-opacity:1;fill-rule:nonzero;stroke:none;stroke-width:1px;stroke-linecap:butt;stroke-linejoin:miter;stroke-opacity:1"
       id="path2536"
       d="M 533.23301,431.29976 C 530.74051,445.80279 530.15646,460.52529 527.91573,475.0911 C 522.87365,501.47218 512.3041,526.21808 499.6259,549.73774 C 490.27227,566.31079 495.23396,558.31588 484.78155,573.74772 L 440.67981,566.80125 C 451.80599,551.99429 446.5445,559.73081 456.41331,543.5571 C 467.98041,520.29373 477.39081,496.0774 480.51874,470.08059 C 481.50983,455.39007 481.02529,440.58345 478.19556,426.09719 L 533.23301,431.29976 z " />
    <path
       style="fill:#000000;fill-opacity:1;fill-rule:nonzero;stroke:none;stroke-width:1px;stroke-linecap:butt;stroke-linejoin:miter;stroke-opacity:1"
       id="path2538"
       d="M 251.74341,645.80781 C 263.50002,642.04768 275.12672,637.93902 286.90097,634.23588 C 298.60287,630.46933 310.64602,628.26428 322.7176,626.11543 C 336.65489,623.57797 350.73632,622.47077 364.84527,621.50634 C 381.29235,620.69614 397.76004,620.56324 414.22259,620.40126 C 429.08334,620.32157 443.94464,620.35037 458.80562,620.34817 C 469.52552,620.30093 480.24481,620.15771 490.96408,620.03084 C 499.29095,620.47358 507.45417,618.8716 515.62735,617.64216 C 521.98026,617.13223 527.00837,613.63992 532.43497,610.8028 C 537.35701,607.81921 542.7034,605.60521 547.93485,603.28462 C 554.96158,598.73868 562.64663,595.48885 570.17282,591.96584 C 576.6723,589.76226 583.36204,588.28712 590.02757,586.73601 C 591.01377,586.5942 591.99997,586.4524 592.98616,586.31059 L 645.84783,599.29751 C 644.85365,599.36284 643.85947,599.42816 642.86528,599.49348 C 635.92906,600.53905 629.09425,601.72121 622.32225,603.61234 C 614.90572,606.40168 607.55398,608.90449 601.02378,613.68675 C 596.1415,616.50882 591.6042,619.66633 586.15769,621.53525 C 580.19804,624.81752 574.40445,628.88435 567.54486,629.886 C 559.26355,631.41393 550.99,633.50079 542.49943,633.26387 C 530.91228,633.1336 519.32523,632.98558 507.73759,632.91599 C 492.73133,632.88839 477.72509,632.86856 462.71884,632.83537 C 446.1536,632.84405 429.57842,632.7682 413.02764,633.57445 C 399.68298,634.55426 386.41472,635.77853 373.23989,638.19262 C 360.8608,640.335 348.33497,641.83322 336.27191,645.49624 C 325.82281,648.61639 315.27934,651.65164 305.95994,657.54951 L 251.74341,645.80781 z " />
    <path
       style="fill:#000000;fill-opacity:1;fill-rule:nonzero;stroke:none;stroke-width:1px;stroke-linecap:butt;stroke-linejoin:miter;stroke-opacity:1"
       id="path2540"
       d="M 436.7776,549.96165 C 437.69833,557.26994 439.35511,564.54129 440.57152,571.83644 C 442.03936,586.19652 444.74194,600.34813 447.48828,614.50475 C 451.23085,632.28764 454.41948,650.17136 457.43282,668.08919 C 460.70557,687.93438 462.74435,707.92296 464.6414,727.93392 C 466.52002,744.9787 467.07652,762.09851 467.59072,779.224 C 468.27598,794.13304 468.01674,809.06441 467.96739,823.98014 C 469.01379,834.73329 468.86715,845.40423 468.02102,856.14279 C 466.87749,863.98573 465.00337,871.68855 463.20949,879.39943 C 462.65041,885.6717 460.73274,891.57698 458.94938,897.54879 C 457.38374,903.03279 452.99082,906.17681 449.55044,910.12144 C 414.91457,915.75965 398.37089,913.13066 382.36128,892.43669 C 378.54786,885.25092 373.3313,879.06449 368.16378,872.84406 C 362.43019,866.87334 355.40211,862.48803 348.75025,857.70886 C 342.81829,854.27584 337.49969,850.17533 332.25583,845.87592 C 331.47386,843.69641 329.3036,842.91397 327.82748,841.43299 L 382.02449,841.89561 C 383.59472,843.2969 385.03466,844.84495 386.73518,846.09948 C 391.83272,850.14559 396.89695,854.19209 402.54719,857.50641 C 408.97307,862.69162 415.60012,867.68362 420.96782,874.0411 C 426.41763,880.44544 431.73949,886.94473 436.38723,893.9798 C 461.89228,919.1095 407.21641,882.47311 395.64245,897.08457 C 398.18969,895.38429 403.69725,896.88846 404.68089,890.26615 C 406.64899,884.61139 409.16661,879.19446 409.71239,873.07169 C 411.7167,865.6018 413.60357,858.13427 415.1129,850.54637 C 416.58433,840.14736 417.56612,829.75082 417.80883,819.23542 C 417.77161,804.36269 417.59001,789.48349 417.90333,774.60845 C 417.72468,757.66337 417.52459,740.69735 416.21822,723.79178 C 414.55532,703.98552 413.77185,684.02822 409.8989,664.49197 C 406.09998,646.44802 401.64832,628.57174 397.34481,610.64311 C 394.78477,596.32056 391.96602,582.03657 388.37146,567.92885 C 386.21746,560.54638 384.009,553.18303 381.04878,546.06825 L 436.7776,549.96165 z " />
    <path
       style="fill:#000000;fill-opacity:1;fill-rule:nonzero;stroke:none;stroke-width:1px;stroke-linecap:butt;stroke-linejoin:miter;stroke-opacity:1"
       id="path2542"
       d="M 337.85029,731.63345 C 343.32676,734.76038 347.68637,739.44723 352.32011,743.73001 C 358.82032,750.87122 365.97449,757.3149 372.67507,764.22972 C 377.34042,768.50352 380.99898,773.53648 384.70229,778.62031 C 386.15728,780.34783 387.08218,782.40879 388.27212,784.30303 L 334.12195,782.16814 C 332.91307,780.41195 331.90671,778.50365 330.48937,776.89096 C 326.57889,772.34928 322.74236,767.75188 319.09592,762.9882 C 312.69485,756.18376 306.4188,749.22085 299.21673,743.21036 C 293.85625,739.23193 288.80742,734.87576 282.02667,733.77444 L 337.85029,731.63345 z " />
    <path
       style="fill:#000000;fill-opacity:1;fill-rule:nonzero;stroke:none;stroke-width:1px;stroke-linecap:butt;stroke-linejoin:miter;stroke-opacity:1"
       id="path2544"
       d="M 377.15093,188.26809 C 405.32801,189.25108 425.18841,189.97476 448.20623,198.52533 C 454.17963,202.20998 460.27564,205.66695 466.33221,209.21154 C 472.89861,212.89307 477.30263,218.64283 482.0358,224.22706 C 486.38045,229.2235 488.92668,235.54511 491.82973,241.46067 C 492.76808,244.41043 494.00691,247.2269 495.09218,250.10126 L 440.53847,246.97856 C 439.59614,244.23892 439.00934,241.36891 437.71037,238.75642 C 434.80286,233.17317 432.09845,227.48289 427.96721,222.65217 C 423.18915,217.74704 418.67247,212.74774 412.29995,209.74542 C 406.31682,206.25436 400.46156,202.42352 394.01014,199.84611 C 373.09776,195.05878 335.87414,190.08288 431.29746,202.17056 L 377.15093,188.26809 z " />
  </g>
</svg>
