<?xml version="1.0" encoding="UTF-8" standalone="no"?>
<!-- Created with Inkscape (http://www.inkscape.org/) -->
<svg
   xmlns:dc="http://purl.org/dc/elements/1.1/"
   xmlns:cc="http://web.resource.org/cc/"
   xmlns:rdf="http://www.w3.org/1999/02/22-rdf-syntax-ns#"
   xmlns:svg="http://www.w3.org/2000/svg"
   xmlns="http://www.w3.org/2000/svg"
   xmlns:sodipodi="http://sodipodi.sourceforge.net/DTD/sodipodi-0.dtd"
   xmlns:inkscape="http://www.inkscape.org/namespaces/inkscape"
   width="744.09448819"
   height="1052.3622047"
   id="svg2"
   sodipodi:version="0.32"
   inkscape:version="0.45.1"
   sodipodi:docbase="/Users/colin/chu"
   sodipodi:docname="w_blind_tiger.svg"
   inkscape:output_extension="org.inkscape.output.svg.inkscape">
  <defs
     id="defs4" />
  <sodipodi:namedview
     id="base"
     pagecolor="#ffffff"
     bordercolor="#666666"
     borderopacity="1.0"
     gridtolerance="10000"
     guidetolerance="10"
     objecttolerance="10"
     inkscape:pageopacity="0.0"
     inkscape:pageshadow="2"
     inkscape:zoom="0.35"
     inkscape:cx="375"
     inkscape:cy="520"
     inkscape:document-units="px"
     inkscape:current-layer="layer1"
     inkscape:window-width="701"
     inkscape:window-height="581"
     inkscape:window-x="281"
     inkscape:window-y="9" />
  <metadata
     id="metadata7">
    <rdf:RDF>
      <cc:Work
         rdf:about="">
        <dc:format>image/svg+xml</dc:format>
        <dc:type
           rdf:resource="http://purl.org/dc/dcmitype/StillImage" />
      </cc:Work>
    </rdf:RDF>
  </metadata>
  <g
     inkscape:label="Layer 1"
     inkscape:groupmode="layer"
     id="layer1">
    <path
       style="fill:#000000;fill-opacity:1;fill-rule:nonzero;stroke:none;stroke-width:1px;stroke-linecap:butt;stroke-linejoin:miter;stroke-opacity:1"
       id="path2190"
       d="M 299.69766,947.55049 C 296.46326,942.96456 293.07572,938.67977 289.84985,933.97739 C 286.24909,928.18492 282.92258,922.20984 279.58003,916.26853 C 279.01718,915.27447 278.45433,914.2804 277.89148,913.28633 L 331.95394,915.57741 C 332.49625,916.51826 333.03856,917.45911 333.58086,918.39996 C 336.85848,924.29186 340.01777,930.28893 343.89536,935.81626 C 347.5541,939.88844 350.76027,944.72043 355.7223,947.32462 L 299.69766,947.55049 z " />
    <path
       style="fill:#000000;fill-opacity:1;fill-rule:nonzero;stroke:none;stroke-width:1px;stroke-linecap:butt;stroke-linejoin:miter;stroke-opacity:1"
       id="path2192"
       d="M 479.849,908.96117 C 471.45878,911.51984 462.8952,913.44897 454.33318,915.32489 C 447.29356,916.88484 440.10989,917.20976 432.94775,917.67116 C 427.16928,917.86321 421.38714,917.79285 415.60678,917.798 C 391.89082,918.34855 368.31562,913.93539 344.86811,911.43045 C 312.62889,905.8664 418.30905,918.13518 376.90466,915.05512 C 368.94275,914.76949 360.97479,914.78461 353.00921,914.74909 C 346.30686,914.78927 339.60455,914.83587 332.90219,914.87628 C 326.12368,914.5439 319.42634,915.73906 312.7354,916.64113 C 305.0209,917.07898 297.36007,917.83124 289.67809,918.58723 C 279.3981,919.39914 269.21529,920.67198 259.04141,922.31584 C 249.4772,923.48066 240.41981,926.38178 231.44866,929.73334 C 221.29758,933.47588 210.98421,936.5083 200.52884,939.23926 C 192.68308,941.06564 184.65795,941.71048 176.67279,942.5483 L 126.20261,929.95516 C 134.31599,929.45082 142.46351,929.15362 150.46464,927.56105 C 160.47544,925.09143 170.0738,921.83234 179.71636,918.27558 C 189.0888,914.89733 198.25965,911.12656 208.32021,910.25915 C 218.05008,908.42171 227.79097,906.59536 237.68488,905.94686 C 245.21095,904.86018 252.69284,903.80872 260.31182,903.74215 C 266.95774,902.96065 273.5929,901.85417 280.23552,901.35755 C 287.23336,901.38686 294.23118,901.41969 301.229,901.4525 C 309.17747,901.4501 317.12667,901.39039 325.0741,901.55604 C 349.94735,902.34717 374.73866,904.99633 399.32968,908.90246 C 271.34701,896.34222 354.18123,904.90398 362.76509,904.21405 C 368.61698,904.23887 374.46886,904.27065 380.32079,904.28539 C 387.83884,904.15747 395.37832,904.18349 402.83881,903.07353 C 410.5821,901.69025 418.32257,900.22356 425.63248,897.21947 L 479.849,908.96117 z " />
    <path
       style="fill:#000000;fill-opacity:1;fill-rule:nonzero;stroke:none;stroke-width:1px;stroke-linecap:butt;stroke-linejoin:miter;stroke-opacity:1"
       id="path2194"
       d="M 354.81481,896.2359 C 354.43884,889.3039 354.13258,882.36473 353.85158,875.42502 C 353.38238,868.56453 353.24622,861.69118 353.07423,854.81951 C 356.6503,847.27111 348.99074,847.24759 347.86258,845.15568 C 473.26087,841.73402 398.27069,849.87994 384.79565,854.63512 C 378.83441,857.03283 373.06182,859.85568 367.24814,862.58096 C 362.02417,864.98996 356.54248,866.67344 351.12311,868.54801 C 345.10349,870.63535 339.15417,872.94008 333.20974,875.22335 C 327.53756,877.14882 321.58565,877.28233 315.68559,877.70232 C 309.93937,877.33419 304.29032,878.22346 298.61159,878.6464 C 292.31127,879.92454 285.88394,880.05394 279.49114,880.40662 C 273.46146,880.62092 267.42759,880.60567 261.39523,880.63187 C 237.53907,881.24638 214.76482,877.34089 190.57324,874.88249 C 184.33064,874.8474 179.9901,871.60979 174.60169,869.19107 C 170.22899,867.06015 165.68444,865.3754 161.16841,863.64852 L 216.25244,862.39436 C 220.60448,864.31685 225.12408,865.94694 229.33916,868.23258 C 234.48858,869.80633 239.35423,872.28275 245.03804,872.1099 C 152.88115,862.93786 187.68948,867.73019 208.60833,867.0751 C 214.73672,867.09251 220.86533,867.12897 226.99364,867.0787 C 233.20222,866.90352 239.43906,866.93676 245.59249,865.95442 C 251.33161,864.8231 256.93936,863.747 262.83032,864.26679 C 268.64517,864.15191 274.49839,864.2624 280.23955,863.15874 C 286.14513,861.34935 292.04208,859.65929 297.56184,856.76233 C 303.148,855.04988 308.79067,853.41332 314.15371,851.05649 C 320.04511,848.48082 325.99394,845.98816 331.83983,843.2744 C 354.671,833.7876 376.61667,830.72125 403.16878,843.90879 C 405.35583,849.31359 409.02237,853.10417 407.2155,859.92466 C 407.12598,866.682 406.97263,873.44135 407.119,880.19889 C 407.76094,886.92646 407.69773,893.82822 410.54363,900.1293 L 354.81481,896.2359 z " />
    <path
       style="fill:#000000;fill-opacity:1;fill-rule:nonzero;stroke:none;stroke-width:1px;stroke-linecap:butt;stroke-linejoin:miter;stroke-opacity:1"
       id="path2196"
       d="M 386.77651,809.51067 C 388.94514,795.69623 384.35277,782.31098 380.32039,769.26275 C 375.95854,756.28576 373.09131,742.94216 370.57114,729.51837 C 367.74637,719.21864 366.85326,708.60142 365.93854,698.00915 C 365.4026,688.96017 365.17902,679.89993 364.84482,670.84158 C 364.45086,664.20607 364.59207,657.57239 364.66673,650.93449 C 364.4127,645.55829 365.48757,640.26917 366.31616,634.98407 L 420.30981,640.8378 C 419.5947,645.88609 418.52711,650.93708 418.4965,656.03081 C 418.54639,662.64992 418.65722,669.26378 418.25485,675.87935 C 418.0402,684.78369 417.74511,693.69379 418.28404,702.59522 C 419.06091,713.00556 420.27392,723.32801 422.26398,733.59403 C 424.3349,746.60859 426.20256,759.7053 429.51448,772.47406 C 433.599,786.60167 438.23695,800.5565 442.1226,814.74242 L 386.77651,809.51067 z " />
    <path
       style="fill:#000000;fill-opacity:1;fill-rule:nonzero;stroke:none;stroke-width:1px;stroke-linecap:butt;stroke-linejoin:miter;stroke-opacity:1"
       id="path2198"
       d="M 428.87075,826.1731 C 421.16611,827.74386 413.3001,828.10901 405.47329,828.58141 C 397.70921,828.97453 389.93263,829.0173 382.16092,829.13416 C 375.52967,829.188 368.89829,829.14799 362.26678,829.14715 C 356.2567,829.16744 350.2466,829.17553 344.2365,829.18483 C 338.5186,829.19054 332.80069,829.1894 327.08279,829.19029 C 321.3729,829.19031 315.663,829.19016 309.95311,829.19006 C 300.66416,828.90562 165.19015,814.15757 289.01073,827.26985 C 281.61569,826.45636 274.17566,826.42521 266.74872,826.2538 C 257.42738,826.19282 248.11692,826.08766 238.79806,826.1875 C 227.85259,827.41722 217.02309,829.38292 206.08691,830.72364 C 182.30437,834.70668 150.14216,825.08752 132.96675,822.24976 C 130.12708,815.14283 132.02661,807.70039 132.89484,800.35443 C 134.78594,793.04853 135.1516,785.53199 135.71548,778.05312 C 135.44353,772.23142 133.97516,766.63402 132.73602,760.98943 C 132.50575,755.16628 129.68367,750.81553 127.5515,745.68386 C 125.18798,740.38662 125.05568,734.66283 124.54305,729.00353 C 124.3271,723.27023 124.39191,717.53167 124.39768,711.79572 C 124.31713,705.53824 124.56932,699.2906 124.80486,693.0398 C 125.22562,684.90352 124.94802,676.75133 124.906,668.60945 C 124.83587,659.70553 125.37106,650.8253 125.40361,641.9138 C 124.62689,633.73188 125.19568,625.66874 125.75893,617.57767 C 128.04013,609.83072 132.91774,610.33769 138.92298,607.80841 C 189.66568,607.92209 185.65071,607.27791 210.21794,626.34882 C 215.96045,630.14057 222.17803,633.07631 228.19679,636.30308 C 229.72906,637.45888 231.62948,637.8962 233.33155,638.68613 L 178.77742,639.79306 C 177.0643,638.93407 175.36325,638.05098 173.63804,637.21609 C 167.88189,633.62881 161.99414,630.2066 156.56029,626.1358 C 135.66709,610.78723 113.198,608.83094 191.83793,621.72604 C 186.87559,621.63431 183.48686,619.60247 179.73648,624.15487 C 178.517,631.58271 177.30405,639.14296 177.78141,646.86491 C 177.81423,655.80764 178.34928,664.71968 178.27948,673.65488 C 178.23619,681.80436 177.96027,689.96355 178.36971,698.10785 C 178.58811,704.38467 178.83044,710.65828 178.70399,716.94092 C 178.73048,722.55827 178.62812,728.18119 178.96126,733.79235 C 179.72514,738.76679 179.71377,743.87759 182.24809,748.43103 C 184.34273,753.78652 186.35998,758.95604 187.05953,764.75571 C 188.26711,770.96861 189.79905,777.15211 189.55613,783.55565 C 188.58277,791.14648 187.56532,798.72134 186.23231,806.26258 C 185.84081,812.03 184.0454,817.99438 187.89258,822.75827 C 176.25594,821.61928 113.82957,817.81685 155.06592,818.12406 C 166.25325,817.15342 177.39076,815.87583 188.40073,813.57139 C 197.17172,813.11103 205.95105,812.551 214.75283,812.85572 C 222.18488,812.92164 229.62825,812.85354 237.04569,813.40273 C 292.28985,819.17283 338.96214,824.33747 257.11486,815.62351 C 262.82388,815.62336 268.53289,815.62321 274.2419,815.62311 C 279.97524,815.62397 285.70857,815.6225 291.44191,815.62895 C 297.57081,815.64033 303.69972,815.64904 309.82857,815.67888 C 316.50643,815.69003 323.18406,815.66919 329.8617,815.71737 C 337.87911,815.75169 345.89737,815.83118 353.91295,815.58928 C 360.7697,815.27737 367.7367,815.252 374.43711,813.60973 L 428.87075,826.1731 z " />
    <path
       style="fill:#000000;fill-opacity:1;fill-rule:nonzero;stroke:none;stroke-width:1px;stroke-linecap:butt;stroke-linejoin:miter;stroke-opacity:1"
       id="path2200"
       d="M 402.52101,775.03376 C 392.17246,774.64519 381.81264,774.61036 371.45806,774.48753 C 358.99234,774.40517 346.5269,774.4765 334.0622,774.62683 C 323.97463,774.78011 313.88794,774.68135 303.80079,774.56571 C 291.45321,774.48227 279.10522,774.52832 266.75751,774.5497 C 258.04939,774.66454 249.34168,774.736 240.63319,774.79084 C 216.0126,775.46852 191.67923,770.47878 167.25668,767.76307 C 273.63736,778.02332 183.48539,771.15777 147.94317,764.85253 C 147.0236,764.51218 146.10403,764.17183 145.18446,763.83149 L 199.84657,761.88207 C 200.65868,762.0244 201.4708,762.16674 202.28291,762.30908 C 255.44265,772.18363 42.627862,743.24171 221.17717,765.03703 C 210.3316,763.96519 177.79124,760.97404 188.67918,761.45132 C 198.01372,761.50735 207.34762,761.58116 216.68185,761.69246 C 228.988,761.71348 241.29445,761.76066 253.60045,761.67645 C 263.52892,761.55146 273.45669,761.46821 283.38573,761.61532 C 296.2122,761.75673 309.03931,761.83998 321.86667,761.75463 C 330.80241,761.63784 339.74822,761.63472 348.67475,761.20839 L 402.52101,775.03376 z " />
    <path
       style="fill:#000000;fill-opacity:1;fill-rule:nonzero;stroke:none;stroke-width:1px;stroke-linecap:butt;stroke-linejoin:miter;stroke-opacity:1"
       id="path2202"
       d="M 400.29932,734.74453 C 391.77214,736.06521 383.24655,737.37508 374.70485,738.59334 C 347.68075,742.3393 320.24011,737.78377 293.6394,732.38891 C 285.1762,729.58595 276.70864,726.91089 268.12937,724.48718 C 254.16853,720.78231 162.84098,712.00187 298.66243,726.68924 C 291.33112,725.75115 284.08168,726.59026 276.7881,727.14025 C 268.91349,728.74353 260.9943,729.91869 253.04465,731.05979 C 245.27808,732.22555 237.4991,733.19114 229.70273,734.11083 C 225.17234,734.5531 220.62035,734.61056 216.07706,734.80502 L 163.5447,721.40496 C 168.25377,721.35248 172.96579,721.40386 177.67111,721.15692 C 185.53726,720.50898 193.42927,720.05667 201.14726,718.22922 C 209.08471,717.41311 217.05725,716.87763 224.73452,714.45618 C 232.03659,713.34782 239.23655,712.21655 246.65302,712.96889 C 271.64501,715.52855 297.38766,715.3166 321.59211,722.6725 C 329.81476,725.27462 337.96011,728.24025 346.39469,730.06853 C 385.12851,736.22186 275.86242,726.27636 323.72961,726.16226 C 331.19218,725.16019 338.54206,723.914 345.86568,722.18116 L 400.29932,734.74453 z " />
    <path
       style="fill:#000000;fill-opacity:1;fill-rule:nonzero;stroke:none;stroke-width:1px;stroke-linecap:butt;stroke-linejoin:miter;stroke-opacity:1"
       id="path2204"
       d="M 394.44148,652.21517 C 388.15272,651.82483 382.01739,653.72845 375.92331,655.04521 C 368.49424,656.79305 360.99374,658.02859 353.48868,659.31256 C 338.14888,660.30372 322.75503,660.18552 307.43332,659.0152 C 276.87477,658.63066 247.30409,651.89976 217.26532,647.84987 C 193.30042,645.52745 246.92261,651.041 261.74945,652.65332 C 265.7433,653.08763 253.72682,652.20509 249.7126,652.04531 C 243.08178,651.89326 236.4476,651.94743 229.8155,651.95245 C 223.26717,651.95292 216.71889,651.99254 210.17062,652.02141 L 157.51801,638.50465 C 164.17483,638.52524 170.83177,638.56109 177.48862,638.53031 C 183.97348,638.50191 190.45892,638.48989 196.94354,638.41555 C 221.41319,638.88922 245.8095,641.23169 269.99736,645.29378 C 288.7534,648.64565 340.24012,657.10159 260.00537,646.38933 C 273.91544,647.80188 287.82534,647.82823 301.76456,646.61989 C 309.0625,645.62159 316.27154,644.55308 323.41809,642.74906 C 329.04024,641.25538 334.83477,640.25282 340.29495,638.3127 L 394.44148,652.21517 z " />
    <path
       style="fill:#000000;fill-opacity:1;fill-rule:nonzero;stroke:none;stroke-width:1px;stroke-linecap:butt;stroke-linejoin:miter;stroke-opacity:1"
       id="path2206"
       d="M 266.93083,580.61207 C 269.26916,567.58525 267.21273,554.44267 265.57263,541.47088 C 264.49847,530.97363 262.31639,520.66701 260.52777,510.28884 C 260.35876,508.93884 260.18975,507.58884 260.02073,506.23884 L 313.34664,510.72361 C 313.453,512.02628 313.55936,513.32895 313.66573,514.63161 C 314.71912,524.97078 315.83717,535.30509 316.06007,545.7085 C 317.26443,559.15519 318.0916,572.81772 321.96828,585.81464 L 266.93083,580.61207 z " />
    <path
       style="fill:#000000;fill-opacity:1;fill-rule:nonzero;stroke:none;stroke-width:1px;stroke-linecap:butt;stroke-linejoin:miter;stroke-opacity:1"
       id="path2208"
       d="M 308.87075,543.31595 C 302.73575,544.38708 296.72904,546.07509 290.69126,547.59088 C 284.78912,549.00869 278.85604,550.16591 272.88967,551.25624 C 267.17537,551.99543 261.40978,551.95908 255.66172,552.06719 C 254.70934,552.07064 253.75696,552.0741 252.80458,552.07755 L 199.96457,538.51429 C 200.91562,538.51647 201.86667,538.51866 202.81772,538.52085 C 208.53247,538.49329 214.25218,538.58849 219.96116,538.26375 C 226.02453,537.59894 232.11589,537.15919 237.90509,535.00653 C 243.53726,533.93849 249.15393,533.09727 254.43711,530.75258 L 308.87075,543.31595 z " />
    <path
       style="fill:#000000;fill-opacity:1;fill-rule:nonzero;stroke:none;stroke-width:1px;stroke-linecap:butt;stroke-linejoin:miter;stroke-opacity:1"
       id="path2210"
       d="M 483.77955,488.23128 C 476.61457,494.09954 467.68487,495.69188 458.92533,497.74811 C 449.31597,499.46346 439.58774,500.04539 429.85523,500.43477 C 422.14074,500.63735 414.42218,500.56108 406.70593,500.55011 C 398.73829,500.46168 390.77063,500.49688 382.80286,500.52545 C 374.26659,500.58897 365.7378,500.494 357.20395,500.30479 C 339.25492,499.83849 321.30101,499.86386 303.34793,499.91246 C 270.01389,500.57083 152.95571,485.99192 251.7367,496.54084 C 242.14067,495.49967 232.49764,495.23071 222.86242,494.88131 C 215.62413,494.5572 208.40221,494.99149 201.18424,495.24251 C 191.6519,495.88072 182.22345,497.33461 172.79103,498.78876 C 166.17452,499.93281 159.47542,500.18193 152.78896,500.534 C 151.5889,498.91729 151.28355,500.72689 150.53084,500.82333 L 95.971192,486.9023 C 97.331992,486.96886 98.680032,487.25964 100.05357,487.10198 C 107.09033,487.00265 114.1382,487.00934 121.14497,486.23529 C 130.58499,485.08773 139.94252,483.46492 149.41015,482.57205 C 156.62348,481.76013 163.70979,480.71357 171.02421,481.44685 C 181.77307,481.76522 192.51112,482.24482 203.19677,483.54683 C 364.87377,500.63717 173.17613,482.19698 256.00995,487.75815 C 272.94322,487.80293 289.87869,487.87018 306.80701,487.36511 C 314.77749,487.15144 322.74235,487.08907 330.71612,487.14899 C 338.7202,487.18882 346.72409,487.23142 354.72828,487.18866 C 362.55353,487.2199 370.37864,487.248 378.20394,487.274 C 388.23188,487.16622 398.29274,487.13769 408.24476,485.7217 C 415.45926,484.27666 422.86359,483.332 428.78326,478.63289 L 483.77955,488.23128 z " />
    <path
       style="fill:#000000;fill-opacity:1;fill-rule:nonzero;stroke:none;stroke-width:1px;stroke-linecap:butt;stroke-linejoin:miter;stroke-opacity:1"
       id="path2212"
       d="M 408.62822,480.38873 C 406.57427,473.52342 405.17628,466.55783 403.95729,459.49299 C 402.51684,444.00769 400.32859,428.60213 398.13651,413.21194 C 394.89363,400.13262 393.09214,387.02082 392.33432,373.60864 C 392.25917,357.1902 392.39241,340.86786 395.31763,324.68107 C 399.01568,305.64251 401.76621,286.44541 404.95774,267.31963 C 407.49339,248.49521 413.41249,230.7182 421.50831,213.63032 C 431.48541,193.77586 440.82462,173.59908 450.19858,153.45205 C 459.74576,132.49125 469.04184,111.4504 479.7056,91.023695 C 488.59733,73.867065 499.73428,58.014195 510.69309,42.141585 C 512.96126,39.279585 514.59059,35.999315 516.53642,32.932775 L 568.53816,41.482915 C 565.76871,44.375535 562.32345,46.697025 560.1919,50.200375 C 547.48115,65.024085 535.32063,80.327005 526.11287,97.665895 C 515.56093,118.07565 505.49108,138.69034 496.4545,159.82719 C 487.49194,179.96509 477.84874,199.79664 469.57696,220.23773 C 462.34189,237.16085 455.5124,254.28814 452.98526,272.66229 C 449.79864,291.75005 446.71285,310.83082 444.09348,330.00614 C 442.32015,346.04606 441.23635,362.03026 443.42016,378.12577 C 444.65199,391.17276 445.84851,404.22754 447.53381,417.22631 C 449.65812,432.69907 451.94621,448.19175 456.38775,463.22353 C 458.46657,469.86581 460.14649,476.8876 464.61813,482.37427 L 408.62822,480.38873 z " />
    <path
       style="fill:#000000;fill-opacity:1;fill-rule:nonzero;stroke:none;stroke-width:1px;stroke-linecap:butt;stroke-linejoin:miter;stroke-opacity:1"
       id="path2214"
       d="M 286.62219,481.26642 C 289.3784,471.34345 288.50698,461.10346 287.8928,450.97182 C 286.79498,441.29722 285.94095,431.59668 285.0418,421.90253 C 284.21175,413.8925 284.99314,405.87459 285.57162,397.87961 C 286.60988,386.38137 285.8299,374.85555 285.19538,363.36268 C 284.92689,351.70412 283.17076,340.25175 281.23064,328.77841 C 279.72896,318.4415 274.68398,313.70588 267.28037,308.13355 C 316.08067,317.05944 319.78012,304.0638 282.99139,323.81709 C 272.46396,330.98143 260.95996,335.7778 249.01641,339.90257 C 239.4876,342.76478 229.59252,342.94508 219.74439,343.25176 C 208.30376,343.37484 196.86216,343.20373 185.4234,343.05602 C 158.87218,343.73841 134.36795,343.46294 112.7045,330.11711 C 109.07298,325.91701 104.92418,321.50453 101.59666,317.45258 C 160.9649,319.15206 150.84649,306.55569 162.9793,334.04633 C 168.77451,346.7567 175.15531,359.1698 181.54828,371.58537 C 183.59276,375.96092 185.88372,380.20372 188.04016,384.51133 L 134.48909,381.71702 C 133.02038,377.47262 131.82294,373.13569 130.08391,368.98658 C 124.73581,356.0378 118.90912,343.33713 110.53493,331.9938 C 92.393872,305.04404 97.047832,311.95505 157.55887,318.68295 C 160.30604,322.67424 162.21257,327.44154 167.19839,329.68888 C 188.48169,338.43238 161.44184,334.23582 134.93365,329.73651 C 146.2267,330.31877 157.53665,330.54241 168.87007,330.27701 C 178.60902,330.10736 188.40807,330.11641 198.00975,328.23735 C 210.74566,324.90389 223.21351,320.81534 234.60921,313.99469 C 265.03097,296.13998 277.8455,293.12712 321.33981,307.72607 C 327.08915,315.4286 331.84355,322.23369 332.20651,332.68847 C 334.36572,344.52161 336.95852,356.37267 337.98111,368.35481 C 337.33019,379.82134 336.54311,391.32004 337.57273,402.79393 C 338.15664,410.77142 338.86198,418.75612 338.51266,426.76332 C 338.52845,436.33007 338.5141,445.89049 339.37925,455.43174 C 340.16115,465.81064 339.9788,476.35279 342.27692,486.52734 L 286.62219,481.26642 z " />
    <path
       style="fill:#000000;fill-opacity:1;fill-rule:nonzero;stroke:none;stroke-width:1px;stroke-linecap:butt;stroke-linejoin:miter;stroke-opacity:1"
       id="path2216"
       d="M 215.19362,478.40928 C 216.74203,470.87629 218.71554,463.43874 220.55806,455.97857 C 221.73748,448.38456 225.89694,442.77747 229.99325,436.68727 C 235.90055,430.32927 240.86527,423.28021 245.94504,416.33237 C 249.89875,410.63899 253.53189,404.81157 257.03496,398.84743 C 259.00581,394.28937 261.76545,390.18928 264.23039,385.91993 C 268.65961,381.25026 273.61466,377.09191 278.40367,372.7913 C 284.10134,367.32946 291.24902,365.21413 298.39427,362.51074 C 305.27275,361.35019 311.11432,358.37958 317.14958,355.22468 C 322.08037,351.51068 327.71321,348.96519 333.1818,346.17663 C 338.56475,344.26483 342.89916,340.6278 347.50048,337.38605 C 350.42997,335.80723 353.39479,334.29637 356.34193,332.75153 L 409.17168,343.80519 C 406.43423,345.29934 403.59113,346.57153 400.95969,348.28746 C 396.26879,351.44133 391.49509,355.01214 386.38757,357.37115 C 380.99219,359.92795 375.55767,362.44805 370.42849,365.51275 C 364.14901,369.67482 358.32795,373.43181 350.5598,374.27581 C 343.85317,376.3962 337.17782,378.19508 331.43591,382.48676 C 327.22011,386.71686 322.72831,390.57917 318.47395,394.78635 C 315.82433,398.72497 312.98723,402.62265 310.96724,407.01678 C 307.10204,412.91785 303.22427,418.80462 298.542,424.13453 C 293.82382,431.56101 288.40643,438.33542 283.14618,445.39724 C 279.02916,450.73854 275.29564,455.81765 273.75049,462.56971 C 271.91961,469.53787 269.07864,476.38853 270.84835,483.6702 L 215.19362,478.40928 z " />
    <path
       style="fill:#000000;fill-opacity:1;fill-rule:nonzero;stroke:none;stroke-width:1px;stroke-linecap:butt;stroke-linejoin:miter;stroke-opacity:1"
       id="path2218"
       d="M 317.67195,241.95018 C 317.182,232.85054 315.08623,223.8694 313.94051,214.78171 C 313.33926,199.04165 312.85701,183.29903 312.23083,167.5593 C 310.95701,154.96018 312.93065,142.7048 315.50794,130.48391 C 317.81317,121.23875 321.34076,112.72265 326.11472,104.61028 C 333.31381,96.262575 341.97966,89.405065 349.93543,81.806665 C 356.78558,74.098835 364.58574,67.461495 372.36945,60.809755 C 401.12487,51.560385 310.08629,47.634835 433.43054,66.064385 L 377.65227,64.283535 C 433.72477,70.427545 448.15883,67.367485 424.83731,71.348875 C 416.08436,76.889945 407.54005,82.277575 401.1337,90.843425 C 393.65289,98.190045 385.66968,105.00516 378.6282,112.78488 C 374.31944,120.53357 369.63583,128.13944 367.13416,136.78681 C 364.43225,148.44796 362.11907,160.16264 362.43063,172.23876 C 362.33876,187.8095 362.07339,203.47749 365.16129,218.82992 C 367.35711,228.00225 369.56365,237.17299 373.40077,245.84358 L 317.67195,241.95018 z " />
    <path
       style="fill:#000000;fill-opacity:1;fill-rule:nonzero;stroke:none;stroke-width:1px;stroke-linecap:butt;stroke-linejoin:miter;stroke-opacity:1"
       id="path2220"
       d="M 360.91925,265.5931 C 355.14755,268.78446 348.64598,269.74066 342.30118,271.1042 C 335.04836,273.24742 327.53621,273.64382 320.06846,274.34879 C 311.58392,274.37467 303.38232,276.68781 295.15007,278.49091 C 288.64538,279.5834 282.19988,280.98448 275.74033,282.30564 C 269.70198,283.36506 263.57527,283.28326 257.47419,283.42196 C 250.36278,283.59405 243.29911,284.72297 236.23947,285.56965 C 212.17323,287.87899 190.36826,283.12113 165.22396,280.54552 C 161.50753,277.19082 163.79289,273.3634 163.92771,269.28813 L 218.12843,275.0495 C 218.77835,275.9039 217.69036,280.01666 220.29305,277.89516 C 126.37926,268.64166 162.20928,273.89346 183.6583,272.52112 C 190.81054,271.93029 197.98723,271.49192 205.03212,270.00054 C 210.97471,269.93187 216.92758,269.97401 222.85617,269.49849 C 229.66248,268.51767 236.38635,267.2493 243.15159,266.0961 C 251.5258,264.51965 259.86246,262.30679 268.24142,261.32636 C 275.38265,260.87394 282.60438,260.80837 289.54503,258.82141 C 295.03666,257.75212 300.67611,256.9111 305.92928,254.87326 L 360.91925,265.5931 z " />
    <path
       style="fill:#000000;fill-opacity:1;fill-rule:nonzero;stroke:none;stroke-width:1px;stroke-linecap:butt;stroke-linejoin:miter;stroke-opacity:1"
       id="path2222"
       d="M 170.18919,231.58796 C 174.8349,221.34558 175.64669,210.04343 176.71048,198.99335 C 177.561,188.50919 176.83994,177.99945 176.3748,167.51734 C 175.93045,161.16479 176.02146,154.80244 176.03956,148.44656 C 176.54033,138.8517 172.5829,130.45413 168.86961,121.89345 C 165.36263,115.15484 159.75588,112.35586 153.43989,108.98507 C 146.70024,103.83635 138.86123,102.99977 130.74437,101.90389 C 220.42476,109.46398 169.75948,105.50641 148.68263,106.59444 C 137.80642,107.63686 126.91097,108.36382 116.03614,109.36795 C 105.93923,111.24541 95.779172,112.67376 85.610932,114.06793 C 82.597802,115.17203 79.225692,113.41938 76.033082,113.09511 C 79.436012,116.28768 80.213612,122.50507 81.617882,127.14239 C 84.017842,133.52161 86.235392,139.93749 88.402902,146.3873 C 89.594192,153.13077 91.465672,159.70992 93.224742,166.33124 C 94.952422,173.10658 95.267512,180.06685 95.763092,186.99742 L 41.610852,182.0654 C 41.331752,175.53492 41.281642,168.96275 39.723032,162.56628 C 37.655982,156.01683 35.327782,149.50432 34.208272,142.71493 C 32.130402,136.3533 30.032802,129.99719 27.780032,123.68616 C 25.476692,118.58687 23.244212,113.64576 20.197112,108.98708 C 24.530122,103.67606 22.584772,99.600615 33.726052,101.2018 C 44.568212,100.49384 55.393852,99.538585 66.059152,97.343875 C 76.563132,95.629625 87.057332,94.735835 97.685782,93.983375 C 126.36384,91.457115 154.79238,95.776715 183.3777,99.327285 C 192.04947,101.14207 200.24395,103.27996 207.76411,108.2504 C 213.73524,112.98169 219.13217,117.00026 221.64031,124.72978 C 225.04261,134.13855 228.76674,143.54118 230.03253,153.54066 C 230.07673,159.89052 230.21335,166.24831 229.7289,172.59393 C 229.00044,183.11803 228.14812,193.63649 227.65299,204.17467 C 226.82654,215.35718 225.67512,226.5233 225.10773,237.69589 L 170.18919,231.58796 z " />
  </g>
</svg>
