<?xml version="1.0" encoding="UTF-8"?>
<!-- Generator: Adobe Illustrator 21.0.0, SVG Export Plug-In . SVG Version: 6.00 Build 0)  -->
<svg version="1.1" id="Layer_1" xmlns="http://www.w3.org/2000/svg" xmlns:xlink="http://www.w3.org/1999/xlink" x="0px" y="0px" viewBox="0 0 19.9 23.5" style="enable-background:new 0 0 19.9 23.5;" xml:space="preserve">
<style type="text/css">
	.st0{fill:none;stroke:#E6332A;stroke-miterlimit:10;}
</style>
<title>circles</title>
<g id="Layer_2">
	<g id="Vrstva_1">
		<g id="_Group_">
			<path id="_Path_" class="st0" d="M10.1,4.4c1.2,0,2.5,0.2,3.6,0.7c0.6,0.2,1.2,0,1.5-0.6c0.1-0.1,0.1-0.3,0.1-0.4V1.6     c0-0.6-0.5-1.1-1.1-1.1H5.8C5.2,0.5,4.7,1,4.7,1.6v2.7c0,0.6,0.5,1.1,1.1,1.1c0.2,0,0.3,0,0.5-0.1C7.5,4.7,8.8,4.4,10.1,4.4z"/>
			<circle id="_Path_2" class="st0" cx="10.2" cy="13.8" r="9.2"/>
			<path id="_Path_3" class="st0" d="M4.7,1.8H2.6c-1.2,0-2.1,0.9-2.1,2.1s0.9,2.1,2.1,2.1h2.1V1.8z"/>
			<path id="_Path_4" class="st0" d="M17,1.8h-1.8v4.2H17c1.2,0,2.1-0.9,2.1-2.1S18.2,1.8,17,1.8z"/>
			<path id="_Path_5" class="st0" d="M11.2,8.7l1,1.9c0.2,0.3,0.5,0.6,0.9,0.6l2.1,0.3c0.6,0.1,1.1,0.6,1,1.3c0,0.3-0.2,0.5-0.4,0.7     l-1.6,1.5c-0.3,0.3-0.4,0.6-0.3,1l0.4,2.1c0.1,0.6-0.3,1.2-0.9,1.3c-0.2,0-0.5,0-0.7-0.1l-1.9-1c-0.3-0.2-0.7-0.2-1.1,0l-1.9,1     c-0.6,0.3-1.3,0.1-1.5-0.5c-0.1-0.2-0.2-0.5-0.1-0.7l0.4-2.1c0.1-0.4-0.1-0.7-0.3-1l-1.6-1.6c-0.5-0.4-0.5-1.1-0.1-1.6     c0.2-0.2,0.4-0.3,0.7-0.4l2.1-0.3C7.7,11.2,8,11,8.2,10.6l1-1.9c0.3-0.6,1-0.7,1.6-0.4C10.9,8.4,11.1,8.5,11.2,8.7z"/>
		</g>
	</g>
</g>
</svg>