<svg xmlns="http://www.w3.org/2000/svg" viewBox="0 0 44 40">
	<style type="text/css">
		.st0{fill:#BC3222;}
	</style>
	<g>
		<path class="st0" d="M19.9,28.4c-0.3-0.6-0.6-1.1-0.8-1.7c-0.7-2.4-0.7-5-0.7-7.5c0-1.5,0.2-3,0.4-4.6c0.4-3.4,0.7-7,0-10.2
			C18.1,1.8,15.9,0,13.1,0c-0.4,0-0.9,0-1.3,0.1c-5.2,1.1-10,5.8-11.3,11c-1.9,7.8,1.9,16.2,4.3,20.6c1.4,3.1,4.4,8.3,8.8,8.3
			c0.7,0,1.4-0.1,2.1-0.4c3.1-1.2,5.4-4.7,5.2-8C20.9,30.3,20.4,29.3,19.9,28.4z M15.2,37.9c-0.5,0.2-1,0.3-1.5,0.3
			c-3.6,0-6.2-5.1-7.1-7.3c0,0,0-0.1,0-0.1c-0.9-1.7-2.1-3.9-3-6.6c0.2-0.2,4.6-5.2,8.2-7.1c1.6,0.7,3.1,1.7,3.1,1.7
			c0.4,0.3,1,0.2,1.3-0.3c0.3-0.4,0.2-1-0.3-1.3c-0.1-0.1-1.9-1.3-3.8-2c-0.2-0.1-0.5-0.1-0.7,0c-3.2,1.5-6.9,5.3-8.4,6.9
			c-0.1-0.3-0.2-0.7-0.3-1c0-0.1,0.1-0.1,0.1-0.2c0.6-1.7,5.8-5.4,8.9-7.3c0.3-0.2,0.4-0.5,0.4-0.8V7.1c0-0.5-0.4-0.9-0.9-0.9
			c-0.5,0-0.9,0.4-0.9,0.9v5.2c-1.7,1.1-6,3.9-8.1,6.3c-0.3-2.4-0.4-4.8,0.2-7.2c1.1-4.4,5.4-8.7,9.9-9.6c0.3-0.1,0.6-0.1,0.9-0.1
			c1.9,0,3.5,1.2,3.9,3c0.7,2.9,0.3,6.3,0,9.5c-0.2,1.7-0.3,3.2-0.4,4.8c-0.1,2.6-0.1,5.4,0.7,8.1c0.2,0.8,0.6,1.4,0.9,2
			c0.5,0.8,0.8,1.5,0.9,2.4C19.3,34.2,17.5,37,15.2,37.9z"/>
		<path class="st0" d="M16,13.9c-1.1-1-2.2-1.6-2.3-1.6c-0.4-0.2-1-0.1-1.2,0.4c-0.2,0.4-0.1,1,0.4,1.2c0,0,1,0.5,2,1.4
			c0.2,0.1,0.4,0.2,0.6,0.2c0.3,0,0.5-0.1,0.7-0.3C16.5,14.9,16.4,14.3,16,13.9z"/>
		<path class="st0" d="M7.3,6c-2.6,1.2-4.2,4.8-4.6,7.7c-0.1,0.5,0.3,1,0.8,1c0,0,0.1,0,0.1,0c0.5,0,0.8-0.3,0.9-0.8
			c0.4-2.8,1.9-5.5,3.5-6.3c0.5-0.2,0.7-0.8,0.4-1.2C8.3,6,7.8,5.8,7.3,6z"/>
		<path class="st0" d="M16.2,29.6c0.3-0.4,0.2-1-0.3-1.3c-0.4-0.3-1-0.2-1.3,0.3c0,0-0.8,1.2-2.2,1.9c-1.2,0.6-2.5,0.8-2.5,0.8
			c-0.5,0.1-0.8,0.5-0.8,1c0.1,0.5,0.5,0.8,0.9,0.8c0,0,0.1,0,0.1,0c0.1,0,1.5-0.2,3-1C15.2,31.2,16.2,29.7,16.2,29.6z"/>
		<path class="st0" d="M16.8,32c-0.4-0.3-1-0.2-1.3,0.2c0,0-0.7,0.9-1.8,1.4C12.9,33.9,12,34,12,34c-0.5,0-0.9,0.5-0.9,1
			c0,0.5,0.4,0.9,0.9,0.9c0,0,0,0,0,0c0,0,1.2-0.1,2.4-0.5c0,0,0,0,0,0c1.6-0.7,2.5-1.9,2.5-2C17.3,32.9,17.2,32.3,16.8,32z"/>
		<path class="st0" d="M43.5,11.1c-1.2-5.2-6.1-9.9-11.3-11C31.8,0,31.4,0,30.9,0c-2.8,0-5.1,1.8-5.7,4.4c-0.8,3.2-0.4,6.7,0,10.2
			c0.2,1.6,0.3,3.2,0.4,4.6c0.1,2.5,0.1,5.1-0.7,7.5c-0.2,0.6-0.5,1.1-0.8,1.7c-0.5,0.9-1.1,1.9-1.1,3.2c-0.2,3.3,2.1,6.9,5.2,8
			c0.7,0.3,1.4,0.4,2.1,0.4c0,0,0,0,0,0c4.4,0,7.4-5.2,8.8-8.3C41.6,27.3,45.4,18.9,43.5,11.1z M37.5,30.8
			C37.5,30.8,37.5,30.9,37.5,30.8c-1,2.3-3.6,7.4-7.2,7.4c-0.5,0-1-0.1-1.5-0.3c-2.3-0.9-4.1-3.7-4-6.2c0-0.8,0.4-1.5,0.9-2.4
			c0.3-0.6,0.7-1.3,0.9-2c0.7-2.5,0.8-5,0.7-7.5c0.1,0,0.2-0.1,0.4-0.1c0,0,2.8-1.7,4.5-2.5c3.6,1.9,8.1,6.9,8.2,7.1
			C39.6,26.9,38.5,29.2,37.5,30.8z M41.2,22.2c-1.6-1.7-5.3-5.4-8.4-6.9c-0.2-0.1-0.5-0.1-0.7,0c-1.5,0.6-3.7,1.9-4.7,2.5
			c0-0.5-0.1-0.9-0.1-1.4c1.3-1.2,4.2-2.3,5.3-2.7c3.1,2,8.2,5.6,8.8,7.3c0,0.1,0.1,0.1,0.1,0.2C41.4,21.5,41.3,21.9,41.2,22.2z
			 M41.9,18.7c-2.1-2.4-6.4-5.2-8.1-6.3V7.1c0-0.5-0.4-0.9-0.9-0.9c-0.5,0-0.9,0.4-0.9,0.9V12c-1,0.3-3.3,1.2-5,2.3
			c-0.3-3.2-0.7-6.6,0-9.4c0.4-1.8,2-3,3.9-3c0.3,0,0.6,0,0.9,0.1c4.5,0.9,8.8,5.1,9.9,9.6C42.3,13.9,42.3,16.3,41.9,18.7z"/>
		<path class="st0" d="M39.9,9.5c-0.2-0.4-0.8-0.6-1.2-0.4c-0.5,0.2-0.6,0.8-0.4,1.2c0.6,1.1,1,2.4,1.1,3.6c0.1,0.5,0.5,0.8,0.9,0.8
			c0,0,0.1,0,0.1,0c0.5-0.1,0.9-0.5,0.8-1C41.1,12.2,40.6,10.8,39.9,9.5z"/>
		<path class="st0" d="M34.1,31.3c-0.5-0.1-1.1-0.2-1.7-0.4c-0.5-0.2-1,0.1-1.2,0.6c-0.2,0.5,0.1,1,0.6,1.2c0.7,0.2,1.3,0.4,2,0.5
			c0.1,0,0.1,0,0.2,0c0.4,0,0.8-0.3,0.9-0.8C34.9,31.9,34.6,31.4,34.1,31.3z"/>
		<path class="st0" d="M32.1,34c0,0-0.9-0.1-1.8-0.4c-1.1-0.5-1.8-1.4-1.8-1.4c-0.3-0.4-0.9-0.5-1.3-0.2c-0.4,0.3-0.5,0.9-0.2,1.3
			c0,0.1,0.9,1.2,2.5,2c0,0,0,0,0,0c1.2,0.5,2.4,0.5,2.4,0.5c0,0,0,0,0,0c0.5,0,0.9-0.4,0.9-0.9C32.9,34.4,32.6,34,32.1,34z"/>
	</g>
</svg>