<?xml version="1.0" encoding="utf-8"?>
<!-- Generator: Adobe Illustrator 21.0.2, SVG Export Plug-In . SVG Version: 6.00 Build 0)  -->
<svg version="1.1" id="Layer_1" xmlns="http://www.w3.org/2000/svg" xmlns:xlink="http://www.w3.org/1999/xlink" x="0px" y="0px"
	 viewBox="0 0 50.1 31.8" style="enable-background:new 0 0 50.1 31.8;" xml:space="preserve">
<style type="text/css">
	.st0{fill:#FBDA13;}
	.st1{fill:#525252;}
</style>
<g>
	<polygon class="st0" points="38,10.8 41.9,10.8 46,17.1 38,17.1 	"/>
	<circle class="st1" cx="19.1" cy="25" r="3.2"/>
	<ellipse transform="matrix(7.350675e-03 -1 1 7.350675e-03 16.1196 66.1734)" class="st1" cx="41.4" cy="25" rx="3.2" ry="3.2"/>
	<g>
		<path class="st1" d="M48.2,17.1l-5.6-7C42.5,10,42.2,9.8,42,9.8h-5.7v15.1h1c0-2.2,1.8-3.9,4-3.9c1.1,0,2.1,0.4,2.9,1.2
			c0.7,0.7,1.1,1.7,1.1,2.7h1.9c0.6,0,1.1-0.5,1.1-1.1v-6.1C48.4,17.5,48.3,17.2,48.2,17.1z M38.3,16.8v-5.4h3l4.3,5.4H38.3z"/>
	</g>
	<path class="st1" d="M33.8,3.7H10.1c-0.7,0-1.3,0.6-1.3,1.3v2.8h-4c-0.6,0-1,0.5-1,1s0.5,1,1,1h4v1.2h-2c-0.6,0-1,0.5-1,1
		s0.5,1,1,1h2v1.2h-6c-0.6,0-1,0.5-1,1s0.5,1,1,1h6v5.4c-0.8,0.1-1.5,0.7-1.5,1.6C7.3,24.3,8,25,8.9,25h1.1h0.2h5
		c0-2.2,1.8-3.9,3.9-3.9c2.2,0,3.9,1.8,3.9,3.9h12.1v-20C35.1,4.2,34.5,3.7,33.8,3.7z"/>
</g>
</svg>
