<?xml version="1.0" encoding="UTF-8" standalone="no"?>
<svg
   xmlns:svg="http://www.w3.org/2000/svg"
   xmlns="http://www.w3.org/2000/svg"
   version="1.1"
   x="0px"
   y="0px"
   preserveAspectRatio="xMidYMid meet"
   viewBox="89.1 182 240.9 61.2"
   xml:space="preserve">
<path
   d="M255.7,224c-4.4,1.4-7.6,5.5-7.7,10.4h1.5c0.1-5.2,4.4-9.4,9.6-9.4c5.3,0,9.6,4.3,9.6,9.6v1.7l1.5,0.7  l0.1-2.3c0-4.9-3.2-9.1-7.7-10.6h0.9c2,0.8,3.7,2.2,5,3.9h28.4v0.3h-28.2c1.2,1.8,1.9,4,1.9,6.4v1.6h24.2v0.3h-24.2v1l-2.1-1h-1.7  v-0.3h1.6v-1.6c0-5.1-4.1-9.2-9.2-9.2s-9.2,4.1-9.2,9.2v0.2h-2.2v-0.2v-0.1H247l-1-6.6h3.8c1.3-1.7,3-3.1,5-3.9L255.7,224z   M247.3,234.1h0.3c0.1-2.2,0.8-4.2,1.9-5.9h-3.2L247.3,234.1z M259.1,236.9c-1.3,0-2.3-1-2.3-2.3s1-2.3,2.3-2.3s2.3,1,2.3,2.3  S260.4,236.9,259.1,236.9z M259.1,232.6c-1.1,0-2,0.9-2,2s0.9,2,2,2s2-0.9,2-2S260.2,232.6,259.1,232.6z"
   fill="#231F20" />
<path
   d="M259.1,226c-4.7,0-8.6,3.8-8.6,8.6c0,4.7,3.9,8.6,8.6,8.6s8.6-3.8,8.6-8.6S263.8,226,259.1,226 M259.1,239.7  c-2.8,0-5.2-2.3-5.2-5.2c0-2.8,2.3-5.1,5.2-5.1c2.8,0,5.2,2.3,5.2,5.1C264.3,237.4,262,239.7,259.1,239.7"
   fill="#53AD32" />

<path
   fill="#231F20"
   d="M251.5,234.5h-1.8v-0.3h1.8V234.5z M293.1,224.1h-204V182h204.1v42.1H293.1z M89.4,223.8h203.4v-41.4H89.4  V223.8z" />

<path
   fill="#231F20"
   d="M306.1,226c-4.7,0-8.6,3.8-8.6,8.6c0,4.7,3.9,8.6,8.6,8.6s8.6-3.8,8.6-8.6S310.9,226,306.1,226 M306.1,239.7  c-2.8,0-5.2-2.3-5.2-5.2c0-2.8,2.3-5.1,5.2-5.1c2.8,0,5.2,2.3,5.2,5.1C311.3,237.4,309,239.7,306.1,239.7" />

<path
   fill="#231F20"
   d="M294.7,239.1v-4.5c0-4.1,2.2-7.7,5.4-9.7l-0.7-1.1v-2.2h-2v-0.2c0-0.2,0.2-15.6,1.2-20.7v-0.1l0.3-0.4  c0-0.3,0.1-1.4,0.8-2.2c0.6-0.6,1.4-0.9,2.4-0.9h16.3c2,0,6.3,0.3,7.8,1.7h2.1l1.2,1.8l0.1,1.9h-2.4c0.2,0.9,1.2,5.7,1.3,11.4  c0.3,0.1,0.9,0.4,1.1,1.7c0,0.1,0.3,7.5,0.3,9c0,0.3-0.1,0.5-0.4,0.6v5.2l0.4,0.3v0.1c0,0,0,0.4-0.1,0.9v0.1l0,0  c-0.3,0.3-0.1,0.7,0,1.1c0.1,0.2,0.1,0.4,0.1,0.6c0,0.4-0.2,2.5-0.4,2.9l0,0c-0.2,0.4-0.6,1-1.3,1.3c-0.7,0.2-4.6,1-4.8,1.1h-8.2  v-2.5h-2.7V236h2.7v-1.6c0-5.1-4.1-9.2-9.2-9.2s-9.2,4.1-9.2,9.2v1.6h2.7v0.3h-2.7v1.5L294.7,239.1z M315.7,238.7h7.9  c0,0,4.1-0.8,4.7-1.1c0.6-0.2,0.9-0.8,1.1-1.1l0,0c0.2-0.3,0.4-2.2,0.4-2.7c0-0.1-0.1-0.3-0.1-0.5c-0.1-0.4-0.3-1,0.1-1.4  c0.1-0.4,0.1-0.6,0.1-0.8l-0.3-0.2v1.1h-5.4v-3h5.4v-3.5c-0.1,0-0.3,0-0.4,0.1v-0.3c0.8-0.1,0.8-0.2,0.8-0.4c0-1.5-0.3-8.9-0.3-9  c-0.2-1.2-0.8-1.4-0.9-1.4l0,0c-2.1-0.2-2.8-0.2-2.8-0.2h-0.2c-0.4-0.1-0.8-0.1-1.2-0.2l0,0l0.1,11.2h4.5v0.3h-4.5v3.1l-0.6,0.2  v8.8l-6.6,0.3l0.1-3.3c0-6.1-5-11.1-11.1-11.1s-11.1,5-11.1,11.1v3.9l1.5-0.7v-3.2c0-5.3,4.3-9.6,9.6-9.6c5.3,0,9.6,4.3,9.6,9.6v4  H315.7z M306.1,223.1c6.3,0,11.5,5.1,11.5,11.5l-0.1,3l5.9-0.3v-8.7l0.6-0.2v-2.9h-5.5c-1,0-2.1,0-3.7-1.6  c-1.5-1.5-2.5-2.3-6.8-2.3h-8.4v2.1l0.6,1C302.1,223.7,304,223.1,306.1,223.1z M324.4,231.6h4.8v-2.3h-4.8V231.6z M307.8,221.3h0.4  c4.4,0,5.4,0.8,7,2.4c1.5,1.5,2.5,1.5,3.5,1.5h5.5l-0.1-11.3c-6.4-0.9-14.8-1.9-16.1-2.1L307.8,221.3z M297.8,221.3h9.7l0.1-9.5  l-5-1.1l-0.1-9.9h21.1v-1.9h2.2c-1.8-1.1-5.7-1.3-7.2-1.3h-16.3c-0.9,0-1.7,0.3-2.2,0.8c-0.8,0.8-0.7,2-0.7,2v0.1L299,201  C298.1,205.7,297.8,219.5,297.8,221.3z M325.8,213.8c0.3,0,1,0.1,2.5,0.2c-0.2-5.8-1.2-10.7-1.3-11.4h-2.5L325.8,213.8z   M324.3,213.6c0.4,0.1,0.8,0.1,1.2,0.2l-1.3-11.1h-0.5v-1.5h-0.3L324.3,213.6z M307.9,211.4c1.2,0.1,9.6,1.2,16.1,2.1l-1-12.4h-15  L307.9,211.4z M302.9,210.4l4.6,1l0.1-10.3h-4.7V210.4z M324,202.3h5.4l-0.1-1.5l-1-1.6h-4.4L324,202.3z M306.1,236.9  c-1.3,0-2.3-1-2.3-2.3s1-2.3,2.3-2.3s2.3,1,2.3,2.3S307.4,236.9,306.1,236.9z M306.1,232.6c-1.1,0-2,0.9-2,2s0.9,2,2,2s2-0.9,2-2  S307.2,232.6,306.1,232.6z" />
<path
   fill="#231F20"
   d="M112,227.8c-4.2,0-7.5,3.4-7.5,7.5c0,4.2,3.4,7.5,7.5,7.5c4.2,0,7.5-3.4,7.5-7.5S116.2,227.8,112,227.8   M112,239.8c-2.5,0-4.5-2-4.5-4.5s2-4.5,4.5-4.5s4.5,2,4.5,4.5S114.5,239.8,112,239.8" />

<path
   fill="#231F20"
   d="M130.2,237.4c-1.1,0-2.1-0.9-2.1-2.1c0-1.1,0.9-2.1,2.1-2.1s2.1,0.9,2.1,2.1S131.4,237.4,130.2,237.4z    M130.2,233.6c-0.9,0-1.7,0.8-1.7,1.7s0.8,1.7,1.7,1.7s1.7-0.8,1.7-1.7C131.9,234.4,131.2,233.6,130.2,233.6z" />

<path
   fill="#231F20"
   d="M130.2,227.8c-4.2,0-7.5,3.4-7.5,7.5c0,4.2,3.4,7.5,7.5,7.5c4.2,0,7.5-3.4,7.5-7.5  C137.8,231.2,134.4,227.8,130.2,227.8 M130.2,239.8c-2.5,0-4.5-2-4.5-4.5s2-4.5,4.5-4.5s4.5,2,4.5,4.5S132.7,239.8,130.2,239.8" />
<path
   fill="#231F20"
   d="M148.5,233.3c-1.1,0-2.1,0.9-2.1,2.1c0,1.1,0.9,2.1,2.1,2.1c1.1,0,2.1-0.9,2.1-2.1S149.6,233.3,148.5,233.3z   M148.5,237.1c-0.9,0-1.7-0.8-1.7-1.7c0-1,0.8-1.7,1.7-1.7c1,0,1.7,0.8,1.7,1.7S149.4,237.1,148.5,237.1z" />
<path
   fill="#231F20"
   d="M148.5,225.2c-3.8,0-7.4,2.2-9.1,5.7h-0.1c-1.7-3.4-5.2-5.7-9.1-5.7c-3.8,0-7.4,2.2-9.1,5.7H121  c-1.7-3.4-5.2-5.7-9.1-5.7c-5.6,0-10.1,4.5-10.1,10.1v0.2h2v-0.2c0-4.5,3.6-8.1,8.1-8.1s8.1,3.6,8.1,8.1v0.2h2v-0.2  c0-4.5,3.6-8.1,8.1-8.1c4.5,0,8.1,3.6,8.1,8.1v0.2h2.1v-0.2c0-4.5,3.6-8.1,8.1-8.1s8.1,3.6,8.1,8.1v0.2h2v-0.2  C158.6,229.8,154,225.2,148.5,225.2z M156.9,235.2c-0.1-4.6-3.8-8.3-8.4-8.3c-4.6,0-8.3,3.7-8.4,8.3h-1.4c-0.1-4.6-3.8-8.3-8.4-8.3  c-4.6,0-8.4,3.7-8.4,8.3h-1.3c-0.1-4.6-3.8-8.3-8.4-8.3s-8.3,3.7-8.4,8.3h-1.3c0.1-5.3,4.4-9.6,9.7-9.6c3.7,0,7.2,2.2,8.8,5.6v0.1  h0.5v-0.1c1.6-3.4,5.1-5.6,8.8-5.6s7.2,2.2,8.8,5.6v0.1h0.6l0.1-0.1c1.6-3.4,5.1-5.6,8.8-5.6c5.3,0,9.6,4.3,9.7,9.6H156.9z" />
<path
   fill="#231F20"
   d="M148.5,227.8c-4.2,0-7.5,3.4-7.5,7.5c0,4.2,3.4,7.5,7.5,7.5c4.2,0,7.5-3.4,7.5-7.5S152.6,227.8,148.5,227.8   M148.5,239.8c-2.5,0-4.5-2-4.5-4.5s2-4.5,4.5-4.5s4.5,2,4.5,4.5S151,239.8,148.5,239.8" />
<path
   fill="#231F20"
   d="M246.4,228.9h-90.5v-0.3h90.5V228.9z M104.6,228.9h-1.9V224h0.3v4.5h1.6V228.9z" />
<path
   fill="#231F20"
   d="M112,233.3c-1.1,0-2.1,0.9-2.1,2.1c0,1.1,0.9,2.1,2.1,2.1c1.1,0,2.1-0.9,2.1-2.1S113.1,233.3,112,233.3z    M112,237.1c-0.9,0-1.7-0.8-1.7-1.7c0-1,0.8-1.7,1.7-1.7s1.7,0.8,1.7,1.7S112.9,237.1,112,237.1z" />

</svg>