<svg xmlns="http://www.w3.org/2000/svg" width="30" height="18" viewBox="0 0 30 18" version="1.1">
	<g stroke="none" stroke-width="1" fill="none" fill-rule="evenodd">
		<g transform="translate(-30.000000, -317.000000)" fill="#666666">
			<g transform="translate(30.000000, 276.000000)">
				<path d="M20.7 41L20.7 56.4 13.3 56.4C13.1 55 11.8 53.9 10.3 53.9 8.8 53.9 7.6 55 7.4 56.4L5.4 56.4 5.4 41 20.7 41ZM27 45.3L21.5 45.3 21.5 56.4 22.8 56.4C23 55 24.3 53.9 25.8 53.9 27.3 53.9 28.5 55 28.7 56.4L30 56.4 30 50.5 27 45.3ZM0 43.6L4.2 43.6 4.2 44.4 0 44.4 0 43.6ZM0 47.9L4.2 47.9 4.2 48.7 0 48.7 0 47.9ZM0 52.1L4.2 52.1 4.2 53 0 53 0 52.1ZM26.5 46.1L22.4 46.1 22.4 50.5 29 50.5 26.5 46.1ZM10.3 54.7C11.5 54.7 12.5 55.7 12.5 56.9 12.5 58 11.5 59 10.3 59 9.2 59 8.2 58 8.2 56.9 8.2 55.7 9.2 54.7 10.3 54.7ZM10.3 55.8C10.9 55.8 11.4 56.3 11.4 56.9 11.4 57.4 10.9 57.9 10.3 57.9 9.8 57.9 9.3 57.4 9.3 56.9 9.3 56.3 9.8 55.8 10.3 55.8ZM25.8 54.7C26.9 54.7 27.9 55.7 27.9 56.9 27.9 58 26.9 59 25.8 59 24.6 59 23.6 58 23.6 56.9 23.6 55.7 24.6 54.7 25.8 54.7ZM25.8 55.8C26.3 55.8 26.8 56.3 26.8 56.9 26.8 57.4 26.3 57.9 25.8 57.9 25.2 57.9 24.7 57.4 24.7 56.9 24.7 56.3 25.2 55.8 25.8 55.8Z"/>
			</g>
		</g>
	</g>
</svg>