<svg version="1.1" id="Layer_1" xmlns="http://www.w3.org/2000/svg" xmlns:xlink="http://www.w3.org/1999/xlink" x="0px" y="0px" preserveAspectRatio="xMidYMin meet" viewBox="0 0 140.612 57.929" enable-background="new 0 0 140.612 57.929" xml:space="preserve" class="ng-scope">
<path fill="#231F20" d="M134.416,34.256c-0.038-0.649-0.139-1.284-0.247-1.958l-0.334-2.068c-0.084-0.489-0.16-0.943-0.23-1.364
	c-0.215-1.296-0.386-2.319-0.588-3.017c-0.081-0.401-0.49-0.921-1.09-1.099c-4.72-1.327-13.876-2.726-20.411-3.117l-0.072-0.005
	l-0.337,0.371l-0.448,0.215l-3.345-10.469h0.086c0.047,0,0.092-0.022,0.12-0.059c0.028-0.038,0.038-0.086,0.025-0.131l-0.481-1.721
	l0.106-0.001l-0.037-0.18c-0.169-0.806-0.629-1.252-1.375-1.324L97.925,7.94l-7.572-0.118L90.294,7.82
	c-0.68,0-1.193,0.545-1.227,1.022l-0.102,0.641c-0.061,0.016-0.111,0.06-0.116,0.125l-1.033,12.938v1.348
	c0,0.036,0.013,0.071,0.037,0.098l0.255,0.29h-0.067v9.817h-1.452v-0.801l0.62-1.983h0.053v-0.17l0.055-0.175h-0.055V19.645h0.128
	l-0.128-0.284v-0.106h-0.048l-0.534-1.184v-3.453h0.084l-0.084-0.183v-0.208h-0.097l-1.036-2.246h-0.313v-1.362
	c0-0.923-0.279-1.67-0.865-2.295c-0.393-0.336-0.734-0.499-1.04-0.499c-0.115,0-0.225,0.024-0.342,0.08
	C82.365,8.291,82.666,9,82.765,9.233l0.033,0.048c0.588,0.583,0.691,0.995,0.691,1.646v1.054h-0.592l-0.354,2.637h0.066v3.618
	l-0.295,1.019H82.25v0.218l-0.049,0.172h0.049V30.97h-0.07l0.07,0.116v0.229h0.139l1.273,2.11h0.069v1.031h0.198v10.243
	l-7.667,0.718l-0.005,4.9h12.9l2.321-1.656c0.866,5.256,5.418,9.268,10.917,9.268c5.365,0,9.839-3.814,10.859-8.88h1.178
	l-0.079,0.148l0.507-0.148h0.082l0.023-0.031l12.046-3.527c0.017-0.005,0.033-0.012,0.048-0.023l1.966-1.46l2.66-0.689l0.114-0.03
	l-0.001-0.074l2.494-1.337v-0.09v-0.73v-0.119l-0.115-0.027c0,0,0-0.001-0.001-0.001l-0.112-0.026v-2.631l0.213-0.05
	c0,0,0,0,0.001,0l0.115-0.027v-0.119v-1.481l0.069,0.005L134.416,34.256z M110.81,22.648l0.038,0.002
	c8.295,0.465,17.208,1.898,20.6,2.714c0.214,0.084,0.381,0.169,0.515,0.279l0.239,0.305c0.033,0.064,0.067,0.125,0.091,0.204
	c0.032,0.137,0.062,0.282,0.093,0.425c-0.206-0.466-0.503-0.9-1.183-1.048c-5.11-1.176-11.135-1.918-20.582-2.528L110.81,22.648z
	 M84.228,34.456h1.403v4.246v0.073l0.057,0.045l0.412,0.323v4.013l-0.336,0.302l-0.05,0.045v0.066v1.202h-0.4h-0.149v0.15v0.943
	v0.128l0.125,0.02l0.001,0.001l0.809,0.128v1.174h-1.872V34.456z M84.031,33.425h2.258v0.73h-2.258V33.425z M86.751,40.91
	c0,0.001,0,0.001,0.001,0.001l0.206,0.033v1.44l-0.559,0.502v-3.507l0.368,0.288h-0.142v0.15v0.946v0.128L86.751,40.91z
	 M86.925,40.635v-0.667h2.399l-0.336,0.993L86.925,40.635z M87.208,42.562c0.032-0.029,0.05-0.069,0.05-0.112v-1.459l1.632,0.259
	l-0.034,0.1l-0.055,0.163l0.034,0.006l-0.636,2.082l-0.358,1.17h-1.827v-1.135L87.208,42.562z M85.464,45.736v-0.665h2.285
	l-0.299,0.98L85.464,45.736z M89.131,41.575l0.371,0.07l-1.527,4.992l-0.357-0.109L89.131,41.575z M89.196,41.282l0.918-2.715
	l5.512-4.578l0.713-0.25h13.078c0.41,0.007,0.712,0.122,0.936,0.365l1.607,1.432l-0.027,0.571l-1.413-1.171
	c-0.832-0.424-1.563-0.641-2.177-0.646l-9.259,0.001c-1.949,0.167-3.561,0.721-4.797,1.65l-3.905,3.323
	c-0.02,0.017-0.036,0.039-0.045,0.064l-0.719,2.033L89.196,41.282z M92.574,36.135L89.029,35.6v-0.666h4.991L92.574,36.135z
	 M95.08,34.052l-6.739,0.013v-9.168h18.568c0.328-0.004,0.629-0.007,0.904-0.007c0.572,0,0.981,0.015,1.299,0.048
	c0.674,1.356,1.09,4.774,1.056,8.683c-0.215-0.105-0.456-0.177-0.748-0.182H96.314c-0.017,0-0.034,0.002-0.05,0.008l-0.763,0.268
	c-0.017,0.006-0.032,0.015-0.046,0.026L95.08,34.052z M110.562,33.89c-0.025-0.028-0.065-0.039-0.093-0.064
	c0.051-3.937-0.342-7.304-1.009-8.841c0.002,0,0.003,0,0.005,0c0.054,0,0.105-0.03,0.132-0.079l0.868-1.615
	c9.507,0.61,15.553,1.352,20.673,2.531c0.567,0.123,0.819,0.48,1.02,0.969c0.785,2.338,1.362,6.003,1.478,9.378l-21.657-1.018
	L110.562,33.89z M110.366,22.284l-2.097,0.113c-0.235-0.027-0.385-0.087-0.409-0.162l-2.736-10.13
	c-0.016-0.088-0.025-0.208,0.026-0.276c0.035-0.047,0.102-0.075,0.185-0.084h1.664L110.366,22.284z M89.364,8.876
	c0.023-0.308,0.396-0.756,0.93-0.756l7.621,0.12l7.821,0.388c0.538,0.052,0.882,0.345,1.049,0.886L89.271,9.47L89.364,8.876z
	 M89.137,9.771l17.611,0.043l0.455,1.63l-1.883,0.001c-0.185,0.019-0.322,0.087-0.41,0.204c-0.093,0.125-0.12,0.296-0.078,0.522
	l2.74,10.148c0.067,0.21,0.284,0.333,0.689,0.376l2.247-0.119l-1.124,2.093c-0.361-0.056-0.83-0.079-1.571-0.079
	c-0.276,0-0.578,0.003-0.906,0.007H88.462l-0.032-0.36c-0.003-0.031-0.016-0.061-0.037-0.085l-0.277-0.315l-0.001-1.279
	L89.137,9.771z M94.663,34.399l-0.281,0.234h-5.503h-0.15v0.15v0.946v0.128l0.127,0.02l3.112,0.47l0.296,0.045l-2.374,1.972
	l-0.033,0.028l-0.013,0.039v0.001l-0.418,1.235h-2.205c-0.009-0.013-0.007-0.031-0.02-0.041l-1.27-0.997v-4.173h0.658v-0.057H94.663
	z M83.03,9.09c-0.198-0.479-0.163-0.757,0.1-0.922c0.258-0.122,0.611,0.015,1.032,0.373c0.519,0.555,0.772,1.234,0.772,2.078v1.362
	h-1.145v-1.054C83.789,10.231,83.667,9.73,83.03,9.09 M83.16,12.282h2.195l0.898,1.945h-3.355L83.16,12.282z M86.38,18.042h-3.471
	v-3.515h3.471V18.042z M82.891,18.343h3.582l0.452,1.001H82.6L82.891,18.343z M82.55,19.645h4.412v11.37H82.55V19.645z
	 M83.831,33.124l-1.092-1.809h4.156l-0.566,1.809H83.831z M102.352,52.335c-3.012,0-5.463-2.451-5.463-5.464
	s2.451-5.464,5.463-5.464s5.463,2.451,5.463,5.464S105.364,52.335,102.352,52.335 M114.593,48.748H113.3
	c0.107-0.618,0.174-1.25,0.174-1.899c0-6.118-4.961-11.077-11.079-11.077s-11.078,4.959-11.078,11.077
	c0,0.503,0.045,0.994,0.11,1.479l-2.366,1.689H76.557l0.004-4.327l7.368-0.689v2.465c0,0.083,0.067,0.15,0.15,0.15h2.17
	c0.083,0,0.15-0.067,0.15-0.15v-1.277l0.962,0.152l-0.118,0.387l0.144,0.043c0,0,0,0,0,0.001l0.644,0.195c0.001,0,0.002,0,0.003,0
	l0.14,0.043l0.043-0.142c0,0,0.001,0,0.001-0.001l1.58-5.167l0.017,0.003l0.043-0.121l0.749-2.116l3.867-3.29
	c1.184-0.89,2.744-1.424,4.623-1.585h9.245c0.565,0.003,1.252,0.209,2.014,0.594l1.487,1.237l-0.004,0.072l0.065,0.048
	c0.595,0.438,1.057,0.907,1.368,1.386c0.371,0.686,0.779,2.265,1.344,4.451c0.119,0.46,0.246,0.948,0.377,1.443l0.433,3.364
	L114.593,48.748z M126.901,45.211l-11.947,3.498l0.654-1.226l12.644-3.275L126.901,45.211z M115.723,47.144l-0.436-3.379
	c-0.135-0.513-0.261-1.001-0.38-1.461c-0.571-2.206-0.983-3.8-1.377-4.529c-0.31-0.479-0.756-0.935-1.311-1.363l0.02-0.42
	l19.248,0.881l-0.014,4.513l0.023,1.673L115.723,47.144z M131.428,36.52C131.427,36.52,131.427,36.52,131.428,36.52l-0.094,0.038
	v0.007l-19.081-0.872l0.011-0.228l19.51,0.916L131.428,36.52z M134.093,37.939l-1.806,0.419c-0.152,0.031-0.409,0.142-0.425,0.557
	l0.001,1.264c0,0.272,0.001,0.508,0.356,0.586l1.773,0.412v0.521l-2.199,1.179l-0.021-1.492l0.016-4.686l0.637-0.254l1.668,0.068
	V37.939z M133.765,38.323v2.492l-1.479-0.343c-0.123-0.027-0.123-0.027-0.123-0.293l-0.001-1.258
	c0.008-0.205,0.093-0.25,0.188-0.269L133.765,38.323z M133.936,36.207c-0.068-2.07-0.31-4.249-0.668-6.178
	c-0.183-1.389-0.411-2.787-0.686-3.955c-0.172-0.558-0.506-0.786-1.044-0.995c-3.379-0.814-12.137-2.226-20.36-2.71l0.392-0.432
	c6.512,0.396,15.591,1.785,20.274,3.101c0.51,0.151,0.826,0.609,0.882,0.882c0.2,0.693,0.369,1.709,0.583,2.995
	c0.07,0.422,0.146,0.877,0.23,1.364l0.335,2.067c0.105,0.665,0.206,1.294,0.242,1.922l0.039,1.948L133.936,36.207z"></path>
<path fill="#231F20" d="M98.043,24.214h6.215c0.252,0,0.463-0.044,0.674-0.254l1.312-1.193c0.178-0.252,0.116-0.503,0.071-0.685
	l-2.739-10.237c-0.121-0.256-0.309-0.41-0.585-0.459h-4.835H98.15c-0.451,0.016-0.747,0.334-0.773,0.837l-0.014,11.214
	C97.363,23.953,97.592,24.214,98.043,24.214 M97.677,12.231c0.01-0.197,0.086-0.529,0.481-0.544l4.806-0.003
	c0.15,0.028,0.262,0.123,0.331,0.265l2.715,10.149l0.013,0.055c0.04,0.162,0.075,0.302-0.002,0.417l-1.296,1.173
	c-0.128,0.128-0.246,0.171-0.467,0.171h-6.215c-0.241,0-0.38-0.079-0.38-0.477L97.677,12.231z"></path>
<path fill="#231F20" d="M90.375,24.211l5.464-0.003c0.384-0.065,0.609-0.347,0.617-0.776V12.1c-0.011-0.447-0.405-0.714-0.779-0.714
	h-4.995c-0.353,0-0.554,0.209-0.597,0.621l-0.473,5.187l0.008,6.316C89.619,23.756,89.716,24.176,90.375,24.211 M90.384,12.036
	c0.033-0.323,0.16-0.35,0.298-0.35h4.995c0.195,0,0.472,0.131,0.479,0.418V23.43c-0.005,0.284-0.125,0.442-0.342,0.48l-5.431,0.001
	c-0.409-0.022-0.463-0.215-0.463-0.401l-0.009-6.302L90.384,12.036z"></path>
<path fill="#231F20" d="M75.159,38.285h-7.388V37.96h0.674l0.025-0.093h0.291l1.255-0.941l-0.602-0.604l0.867-3.815l0.76-0.581
	l2.079-7.302l0.652-0.23l3.393-12.357c0.068-0.225,0.047-0.448-0.058-0.612c-0.079-0.123-0.2-0.202-0.36-0.222h-0.81
	c-0.559,0.021-0.802,0.278-1.027,0.57l-2.31,3.362c-0.305,0.418-0.904,1.016-1.675,1.446l-3.852,2.27H7.153l-0.452,0.51H5.125
	c-0.71,0-1.257,0.481-1.629,1.433L0.24,29.482L0,31.29l0.465,0.155l3.002,1.092l0.384-1.07l2.983,1.095l0.422,1.578l0.02,0.074
	l0.072,0.027c0,0,0,0.001,0.001,0.001l1.287,0.478l0.151,0.38l0.021,0.054l0.052,0.025c1.063,0.518,1.632,1.178,1.69,1.953
	c0.013,0.997,0.164,1.507,0.932,1.519c-2.236,2.026-3.649,4.943-3.649,8.198c0,6.121,4.961,11.08,11.079,11.08
	c6.082,0,11.014-4.9,11.074-10.97c0.262,0.064,0.542,0.109,0.866,0.109c0.471,0,0.87-0.077,1.22-0.204
	c0.009,6.114,4.965,11.065,11.077,11.065c6.118,0,11.079-4.959,11.079-11.08c0-0.129-0.015-0.254-0.019-0.382l11.131,0.388v0.443
	l2.584,1.49l7.235-0.083v0.744h0.973V37.745h-0.973V38.285z M68.215,37.66h-0.444v-0.165c-0.018-0.331-0.104-0.488-0.242-0.641
	l-0.387-0.477c-0.152-0.214-0.335-0.231-0.516-0.249h-1.005c-0.157,0-0.339,0.031-0.488,0.242l-0.391,0.482
	c-0.142,0.169-0.227,0.328-0.244,0.651v0.157h-0.334c-0.321-0.002-0.404-0.121-0.451-0.236l-1.268-2.035
	c-0.019-0.045-0.037-0.108-0.013-0.155c0.021-0.044,0.081-0.081,0.13-0.098h6.341L68.215,37.66z M67.471,37.503v0.782h-2.673v-0.774
	c0.013-0.257,0.08-0.354,0.176-0.468l0.398-0.492c0.075-0.106,0.127-0.114,0.27-0.122l0.975-0.001
	c0.148,0.015,0.211,0.025,0.286,0.131l0.398,0.49C67.406,37.166,67.458,37.265,67.471,37.503 M74.955,45.427l-0.51,0.958
	l-1.821-0.971l0.509-0.955L74.955,45.427z M73.645,44.391l0.088-0.165l1.077,0.573l-0.087,0.165L73.645,44.391z M73.932,46.451
	l-0.099,0.185l-1.077-0.572l0.099-0.187L73.932,46.451z M72.315,45.355l-31.785-16.9l0.649-1.221l31.786,16.903L72.315,45.355z
	 M57.161,37.638v0.104h-5.12v-2.826L57.161,37.638z M49.942,31.553l-4.164-2.214h5.964v2.214H49.942z M51.742,31.854v0.656
	l-1.235-0.656H51.742z M45.213,29.038l-4.158-2.21l-0.215,0.406c-0.065-0.407-0.401-0.724-0.825-0.728l0.328-0.546l-0.453-0.271
	l0.436-0.719l11.416,0.006v4.062H45.213z M39.811,26.846c0.062-0.024,0.128-0.04,0.198-0.04c0.307,0,0.557,0.249,0.557,0.557
	c0,0.307-0.25,0.557-0.557,0.557c-0.285,0-0.513-0.219-0.544-0.497L39.811,26.846z M38.769,27.998l-0.207-0.124l0.026-0.043
	l1.146-1.885l0.197,0.118L38.769,27.998z M38.375,27.603h-1.558l-2.595-2.636l5.753,0.003L38.375,27.603z M34.991,26.177l1.7,1.727
	h0.063h1.432l-0.041,0.068l0.727,0.439l0.391-0.651c0.144,0.27,0.42,0.461,0.746,0.461c0.125,0,0.241-0.029,0.348-0.077
	l-0.232,0.436l0.861,0.458h-7.271v-4.071H33.8L34.991,26.177z M41.552,29.339l4.164,2.214H33.715v-2.214H41.552z M52.041,32.67
	v-7.694l5.12,0.002v10.414L52.041,32.67z M61.812,37.865l1.93,0.001c0.106,0.053,0.236,0.093,0.422,0.094h0.334v0.325H62.6
	L61.812,37.865z M70.013,32.335l-0.928,4.082l0.475,0.476l-0.899,0.673h-0.109l0.744-2.731l-6.771,0.005
	c-0.221,0.057-0.319,0.173-0.362,0.261c-0.041,0.082-0.073,0.22,0.017,0.426l1.266,2.03c0.001,0.003,0.003,0.006,0.005,0.009h-2.202
	l-3.789-2.015v-3.697h13.182L70.013,32.335z M70.706,31.553H57.46v-2.214h13.92L70.706,31.553z M71.551,29.038H57.46v-4.059
	l14.3,0.007l-0.034,0.13l0.368-0.13h0.007l0.001-0.003l0.672-0.237L71.551,29.038z M71.075,16.841
	c0.81-0.451,1.444-1.086,1.77-1.532l2.307-3.359c0.195-0.252,0.365-0.431,0.791-0.447l0.784-0.002
	c0.053,0.008,0.096,0.036,0.127,0.086c0.058,0.089,0.066,0.225,0.023,0.367l-3.353,12.209l-1.323,0.468l1.623-5.78h-6.16
	L71.075,16.841z M7.288,19.152h66.141l-1.556,5.533L2.79,24.651l0.045-0.482L7.288,19.152z M28.376,37.742V24.964l5.039,0.003
	v12.775H28.376z M31.667,38.285h-1.586v-0.242h1.586V38.285z M29.781,38.042v0.243h-2.213v-0.427h0.509v0.184H29.781z
	 M12.685,35.493L7.99,33.785l3.213-8.829l5.316,0.002L12.685,35.493z M13.219,34.905l0.395,0.144l-0.518,0.491
	c-0.056,0.044-0.109,0.099-0.163,0.151L13.219,34.905z M16.839,24.959l11.238,0.005v4.074H15.354L16.839,24.959z M15.245,29.339
	h12.832v2.214H14.439L15.245,29.339z M31.967,38.042h1.748v-0.183h0.466v0.426h-2.214V38.042z M3.776,20.902
	c0.326-0.835,0.767-1.241,1.349-1.241h1.309l-3.798,4.281L3.776,20.902z M0.447,31.123l-0.117-0.04l0.2-1.529l1.998-5.325
	l-0.067,0.723h0.232L0.447,31.123z M3.286,32.153L0.73,31.222l2.281-6.27l2.859,0.001L3.286,32.153z M3.953,31.184l2.236-6.231
	l4.694,0.003l-2.816,7.738L3.953,31.184z M11.504,38.352c-0.478,0-0.64-0.178-0.655-1.232c-0.066-0.886-0.673-1.621-1.805-2.185
	l-0.153-0.388c-0.017-0.039-0.048-0.07-0.088-0.085l-1.277-0.474l-0.347-1.3l0.785,0.288l-0.308,0.847l-0.051,0.141l5.182,1.885
	c-0.225,0.274-0.412,0.665-0.475,1.352C12.257,38.072,12.068,38.341,11.504,38.352 M12.612,37.224
	c0.082-0.912,0.389-1.227,0.68-1.458l0.636-0.601l2.468,0.906c-1.409,0.327-2.714,0.921-3.86,1.729
	C12.575,37.63,12.598,37.437,12.612,37.224 M18.869,52.335c-3.012,0-5.463-2.451-5.463-5.464c0-3.012,2.451-5.463,5.463-5.463
	c3.013,0,5.464,2.451,5.464,5.463C24.333,49.884,21.882,52.335,18.869,52.335 M18.912,35.773c-0.669,0-1.32,0.069-1.957,0.183
	l-3.633-1.334l1.007-2.768h13.748v5.712h-3.133C23.208,36.436,21.139,35.773,18.912,35.773 M25.365,37.858h1.904v0.427h-1.333
	C25.753,38.134,25.558,37.996,25.365,37.858 M32.088,46.535c-0.349,0.145-0.75,0.232-1.236,0.232c-0.331,0-0.612-0.047-0.871-0.115
	c-0.026-1.477-0.335-2.883-0.885-4.165c0.552-0.216,1.172-0.355,1.756-0.355c0.702,0,1.447,0.19,2.062,0.483
	C32.412,43.827,32.126,45.15,32.088,46.535 M33.038,42.339c-0.652-0.31-1.436-0.508-2.186-0.508c-0.633,0-1.296,0.149-1.886,0.385
	c-0.643-1.391-1.564-2.624-2.695-3.631h9.52C34.627,39.622,33.683,40.897,33.038,42.339 M36.126,38.285h-1.645V37.86h2.213
	C36.502,37.998,36.309,38.135,36.126,38.285 M43.106,52.335c-3.012,0-5.463-2.451-5.463-5.464c0-3.012,2.451-5.463,5.463-5.463
	c3.013,0,5.464,2.451,5.464,5.463C48.57,49.884,46.119,52.335,43.106,52.335 M43.149,35.773c-2.226,0-4.295,0.663-6.031,1.793
	h-3.403v-5.712h12.567l5.46,2.903v2.809h-2.561C47.444,36.436,45.375,35.773,43.149,35.773 M49.608,37.863h2.134v0.029v0.15h0.15
	h5.418h0.15v-0.15v-0.028h0.127l0.79,0.421h-8.204C49.991,38.136,49.799,38,49.608,37.863 M50.508,38.585h8.435l7.369,3.918H53.341
	C52.695,40.993,51.717,39.662,50.508,38.585 M65.34,46.554l-11.147-0.388c-0.017-0.278-0.042-0.553-0.08-0.826l11.227,0.394V46.554z
	 M65.34,45.433l-11.273-0.395c-0.128-0.775-0.332-1.522-0.612-2.234h2.908l0.017,0.078l3.676,0.435v0.646l0.424,0.627l4.86,0.207
	V45.433z M75.159,48.405l-7.156,0.083l-2.363-1.364V44.51l-4.996-0.213l-0.288-0.426v-0.519l2.951,0.349
	c1.585,0.206,3.138,0.713,4.606,1.505l3.861,2.424l0.036,0.024h3.349V48.405z M75.159,47.353h-3.263l-3.833-2.405
	c-1.508-0.815-3.096-1.334-4.72-1.545l-5.064-0.599h8.599l5.595,2.975l0.043-0.082l0.075,0.039l-0.24,0.453l1.606,0.853l0.239-0.449
	l0.373,0.198l0.59-1.111V47.353z M75.159,45.195l-0.172-0.091l0.172-0.323V45.195z M75.159,44.644l-1.55-0.824l-0.229,0.43
	l-0.074-0.039l0.096-0.182l-2.303-1.225h4.06V44.644z M75.159,42.503h-4.625l-7.368-3.918h11.993V42.503z M75.459,38.046h0.373
	v11.102h-0.373V38.046z"></path>
<path fill="#231F20" d="M76.373,45.378c0.005,0,0.011-0.001,0.017-0.001l2.121-0.235c0.076-0.008,0.134-0.073,0.134-0.149v-6.398
	c0-0.083-0.067-0.151-0.15-0.151h-2.122c-0.083,0-0.15,0.068-0.15,0.151v6.632c0,0.043,0.018,0.083,0.05,0.112
	C76.301,45.364,76.336,45.378,76.373,45.378 M76.523,38.745h1.822v6.113l-1.822,0.202V38.745z"></path>
</svg>