<?xml version="1.0" encoding="utf-8"?>
<!-- Generator: Adobe Illustrator 19.2.1, SVG Export Plug-In . SVG Version: 6.00 Build 0)  -->
<!DOCTYPE svg PUBLIC "-//W3C//DTD SVG 1.1//EN" "http://www.w3.org/Graphics/SVG/1.1/DTD/svg11.dtd">
<svg version="1.1" id="Layer_1" xmlns="http://www.w3.org/2000/svg" xmlns:xlink="http://www.w3.org/1999/xlink" x="0px" y="0px"
	 viewBox="0 0 45 40" style="enable-background:new 0 0 45 40;" xml:space="preserve">
<style type="text/css">
	.st0{fill:none;}
	.st1{fill:#929291;}
	.st2{fill:#F4F4F4;}
	.st3{fill:#6E6D6E;}
	.st4{fill:#C4C5C8;}
</style>
<g>
	<path class="st0" d="M2.74,34.06"/>
	<path class="st0" d="M15.89,29.93"/>
	<path class="st1" d="M1.25,25.23l-0.91,0.73c-0.47,0.38-0.45,1.11,0.04,1.47c3.72,2.7,5.25,3.65,6.15,4.74
		c0.89,1.09,1.53,2.78,3.46,6.95c0.26,0.56,0.97,0.72,1.44,0.33l0.9-0.74c1.45-1.2,1.85-1.37,1.77-2.01l-0.63-5.32
		c-0.03-0.21,0.01-0.38,0.1-0.53l-4.36-5.3c-0.17,0.06-0.34,0.06-0.54,0l-5.1-1.66C2.95,23.69,2.7,24.04,1.25,25.23z"/>
	<path class="st2" d="M9.46,25.41c-0.1,0.05-0.19,0.09-0.25,0.14l-2.38,4.33C6.1,31.4,6.02,31.5,6.6,32.21s0.62,0.55,2.33,0.23
		l4.58-1.65l0.05,0.07c0.58-0.98,3.63-1.23,10.09-6.57c0.03-0.03,0.06-0.06,0.1-0.06l8.06-6.58c0.06-0.1,0.12-0.2,0.22-0.27
		l9.11-7.53c1.98-1.64,4.98-6.79,3.42-8.82c-1.69-1.92-7.34,0.01-9.33,1.63l-9.17,7.46c-0.02,0.02-0.05,0.03-0.08,0.04l-8.79,7.17
		C11.59,21.97,10.43,24.71,9.46,25.41z"/>
	<path class="st3" d="M13.75,25.67l0.63,0.76c0.15,0.18,0.12,0.44-0.06,0.59l-8.61,7.06c-0.18,0.15-0.44,0.12-0.59-0.06l-0.63-0.76
		c-0.15-0.18-0.12-0.44,0.06-0.59l8.61-7.06C13.34,25.47,13.61,25.49,13.75,25.67z"/>
	<path class="st3" d="M21.72,6.19l-0.66-0.8C20.5,4.7,19.5,4.61,18.82,5.16l-0.74,0.61l3.7,2.37C22.19,7.56,22.19,6.76,21.72,6.19z"
		/>
	<path class="st3" d="M35.45,25.41c0.68-0.56,0.78-1.56,0.22-2.24l-0.66-0.8c-0.47-0.57-1.26-0.73-1.9-0.43l1.6,4.08L35.45,25.41z"
		/>
	<path class="st4" d="M4.64,3.62C18.26,17.18,17.97,16.77,17.68,17c-0.15,0.12-0.29,0.24-0.43,0.36l8.79-7.17
		c-0.3,0.2-0.7,0.22-1.02,0.02l-3.25-2.08l-3.7-2.37l0,0L9.67,0.39c-0.89-0.57-2.05-0.5-2.87,0.16L4.71,2.24
		C4.29,2.59,4.25,3.23,4.64,3.62z"/>
	<path class="st4" d="M34.2,39.59c0.31,0.46,0.94,0.55,1.37,0.2l2.07-1.71c0.81-0.67,1.11-1.79,0.72-2.78l-3.65-9.29l0,0l-1.6-4.08
		l0,0l-1.41-3.59c-0.1-0.26-0.07-0.54,0.06-0.78l-8.06,6.58C23.96,24.12,24.83,25.54,34.2,39.59z"/>
	<path class="st3" d="M36.17,3.5c-0.01,0.04-0.01,0.09,0.01,0.13l0.24,0.5c0.01,0.01,0.02,0.03,0.03,0.04
		c0.02,0.02,0.04,0.04,0.07,0.06c0.04,0.02,0.09,0.02,0.13,0.01l2.08-0.85c0.01,0,0.01-0.02,0.02-0.02
		c0.01,0.01,0.02,0.02,0.04,0.03l1.72,0.93c0.02,0.01,0.03,0.01,0.05,0.01c0,0,0,0,0,0l0.52,1.83c0,0.02,0.01,0.03,0.02,0.04
		c-0.01,0.01-0.03,0.01-0.04,0.02l-1.23,1.85c-0.02,0.04-0.03,0.08-0.02,0.13c0.01,0.03,0.02,0.06,0.04,0.08
		c0.01,0.01,0.02,0.02,0.04,0.03l0.44,0.33c0.04,0.03,0.08,0.04,0.13,0.04c0.04-0.01,0.08-0.03,0.1-0.06l1.37-2.24
		c0.03-0.05,0.02-0.1,0-0.16c0.06-0.03,0.1-0.08,0.08-0.16l-0.49-2.29c-0.01-0.03-0.02-0.06-0.04-0.09
		c-0.01-0.02-0.03-0.03-0.05-0.04c0-0.02,0.01-0.04,0-0.06c-0.01-0.03-0.02-0.06-0.04-0.08c-0.02-0.02-0.05-0.04-0.08-0.06
		l-2.23-0.96c-0.07-0.03-0.13,0-0.17,0.04c-0.05-0.04-0.11-0.05-0.16-0.03l-2.49,0.91C36.22,3.43,36.19,3.46,36.17,3.5z"/>
</g>
</svg>
