<?xml version="1.0" encoding="utf-8"?>
<!-- Generator: Adobe Illustrator 20.1.0, SVG Export Plug-In . SVG Version: 6.00 Build 0)  -->
<svg version="1.1" id="Layer_1" xmlns="http://www.w3.org/2000/svg" xmlns:xlink="http://www.w3.org/1999/xlink" x="0px" y="0px"
	 viewBox="0 0 187 98.3" style="enable-background:new 0 0 187 98.3;" xml:space="preserve">
<style type="text/css">
	.st0{fill:#717171;}
</style>
<path class="st0" d="M176.4,81l-0.5,0.9c0.4,0.1,0.9,0.3,1.3,0.4c0.1,0,0.2,0,0.3-0.1c0.4-0.5,0.8-0.5,1.4-0.3
	c0.3,0.1,0.6,0.1,0.9,0.1c0.9-0.1,1.8-0.2,2.7-0.3c0.4,0,0.9-0.3,1,0.4c0,0.1,0.4,0.1,0.5,0.1c0.7,0,1.4,0,2.2,0
	c-0.1,0.2-0.2,0.4-0.3,0.4c-1.1,0-2.2,0.2-3.2-0.2c-0.7-0.2-1.5-0.3-2.2-0.3c-0.2,0-0.3,0.1-0.5,0.2c0.3,0.7,0.6,0.9,1.4,0.8
	c1.1,0,2.2,0.1,3.3,0.2v0.2c-0.1,0.1-0.3,0.1-0.4,0.1c-0.8-0.1-1.5-0.2-2.3-0.3c-0.1,0-0.2,0-0.4,0c-0.8,0.4-1.4,0.3-1.9-0.6
	c-0.1-0.3-0.8-0.2-1.2-0.4c-0.5-0.2-0.8-0.1-1,0.4c-0.1,0.1-0.4,0.1-0.6,0.1c-0.3-0.1-0.6-0.3-0.9-0.5l0.1,1.5
	c-0.7-0.2-1.5,0.3-2.4-0.2c-0.2-0.2-0.7-0.1-1,0c-0.7,0.2-1.4,0.2-2,0c-0.4-0.1-0.9-0.1-1.3-0.1c-0.5,0-1.1,0-1.3-0.7
	c-0.1-0.1-0.3-0.2-0.5-0.2c-0.6,0.2-1.1,0.4-1.7,0.6c-0.5-0.7-1.3-1-2.1-0.7c-1.1,0.3-2.2,0.4-3.3,0.6l-0.1,0.3l1.5,1.1
	c0,0-0.2,0.2-0.2,0.2c-0.4-0.1-1-0.2-1-0.4c-0.4-1.1-1.2-1-2.1-1c-0.6,0-1.2-0.2-1.7-0.5c-0.7-0.3-1.4-0.4-2-0.9c0,0-0.1,0-0.1,0
	c-1,0.7-2.3,1.1-2.8,2.4c-0.1,0.4-0.5,0.7-0.9,0.6c-0.1,0-0.1,0-0.2,0c-0.6-0.2-1.1-0.1-1.4,0.6c-0.2,0.3-0.6,0.5-0.9,0.7
	c-0.7-0.1-1.3-0.2-2-0.2c-0.2,0-0.5,0.1-0.7,0.2c-0.6,0.3-1.1,0.7-1.7,1.1c-0.2,0.1-0.4,0.1-0.6,0.1c-1.7,0-3.3-0.2-4.9-0.5
	c-0.9-0.2-1.9-0.3-2.9-0.1c-0.9,0.2-1.8,0.5-2.6,1.1c-1,0.6-2.1,0.8-3.2,0.6l-2.6-0.5c-0.2,0-0.4-0.1-0.7-0.1c-0.4,0-0.9,0-1.3-0.2
	c-0.4,0.2-0.8,0.5-1.2,0c0,0-0.1-0.1-0.1-0.1c-1,0.5-2.2-0.3-2.9,0.7c-0.6-0.1-1.2-0.1-1.9,0c-1.8,0.6-3.7,0.4-5.6,0.5
	c-2.1,0.2-4.3,0-6.4-0.5c-0.1-0.1-0.3-0.1-0.4,0c-0.5,0.3-1.2,0.1-1.5-0.4c-0.4,0.4-1,0.6-1.5,0.4c-1.3,0-2.5,0.1-3.8,0.4
	c-1,0.2-2.1,0.1-3.1-0.3c-0.4-0.2-0.9-0.3-1.1,0.5c-0.1,0.5-1.2,1-1.8,0.9c-0.6-0.1-1.2-0.1-1.8,0.2c-1.7,0.7-3.4,1.2-5.2,1.5
	c-0.8,0.2-1.7-0.3-2.6-0.5c-0.1,0-0.3-0.2-0.4-0.1c-1.7,0.3-3.2-0.9-4.9-0.7c-0.4,0-0.8,0.3-1.3,0.3c-0.8,0.1-1.5,0-2.1,0.7
	c-0.7-0.5-1.3-0.2-1.8,0.3c-0.1,0.1-0.3,0.1-0.5,0c-0.8-0.4-1.6-0.1-2.4,0.2c-0.3,0.1-0.6,0.2-0.9,0.3c-1.5,0.1-3,0.2-4.5,0.2
	c-0.4-0.1-0.8-0.2-1.2-0.4c-0.2-0.1-0.5-0.1-0.8,0c-1,0.5-1.2,0.5-1.5-0.7l-0.2-0.7c-0.8,0.1-1.5,0.2-2.3,0.3
	c-0.8,0.1-1.1-0.1-1.1-0.9c0-0.3-0.2-0.6-0.5-0.7c-0.1-0.1-0.5,0.2-0.7,0.4c-0.1,0.1-0.1,0.2-0.2,0.2c-1.3-0.8-2.2-0.5-2.9,0.8
	L54.5,90c0.2-0.4,0-0.8-0.3-1.1c-0.2,0.2-0.5,0.3-0.5,0.5c0,0.4,0.1,0.8,0.2,1.2c-0.5-0.7-0.9-0.9-1.3-0.2c-0.1,0.1-0.3,0.1-0.5,0.1
	s-0.4-0.2-0.5-0.2c-0.5,0.8-2.2-0.1-2.2,1.4c-0.4-0.2-0.8-0.3-1.2-0.3c-0.4,0.1-0.8,0.2-1.2,0.3c0.4-0.8,1.4-1,2.2-0.6
	c0.2-0.6,0.8-1,1.4-0.8c0.1,0,0.2,0.1,0.2,0.1c-0.9-1.1-1.8-2.1-2.6-3c-0.2-0.2-0.5-0.3-0.8-0.4c0,0.3,0,0.6,0,0.8
	c0.1,1,0.2,2,0.3,2.9l-0.3,0.1c-0.3-0.3-0.5-0.5-0.8-0.8c-0.2-0.3-0.6-0.3-0.9-0.1c0,0-0.1,0.1-0.1,0.1c-0.5,0.5-0.9,1-1.8,0.7
	c-0.3-0.1-0.7,0.1-0.8,0.4c0,0.1,0,0.1,0,0.2c-0.1,0.3-0.2,0.7-0.3,1l-0.8-0.4c-0.4,1-1.1,0.8-1.9,0.4l0.3-0.6
	c-0.2,0-0.4-0.1-0.6-0.1c-0.3,0.1-0.6,0.1-0.9,0.1c-0.6-0.2-1.2-0.5-1.5,0.5l-0.8-0.7c-0.1,0.1-0.2,0.1-0.2,0.2
	c-0.3,0.6-0.9,0.9-1.5,0.8C33.6,92.3,33,92.9,33,94c0.2,0,0.5,0.1,0.5,0c0.7-0.9,1.8-0.4,2.7-0.6c0.6-0.1,1.3-0.1,1.9-0.1
	c0.2,0,0.3,0,0.5-0.1c0.7-0.2,1.3-0.4,2-0.6v0.9h2.7l-0.1-0.2c0.3-0.3,0.7-0.8,1-0.9c1-0.2,2-0.6,3.1-0.4c0.9,0.2,1.9,0.3,2.9,0.1
	c0.2,0,0.4-0.2,0.5-0.2c0.2-0.1,0.5-0.1,0.7,0c0.5,0.1,1,0.6,1.2-0.4c0-0.1,0.3-0.1,0.4-0.1c0.4,0.2,0.8,0.4,1.2,0.7
	c0.3,0.2,0.7,0.2,1-0.1c0,0,0.1-0.1,0.1-0.2c0.2-0.3,0.5-0.5,0.9-0.3c0.6,0.2,1.1,0.4,1.7,0.6c0.6,0.3,1.4,0.3,1.9-0.2
	c0.2,0.5,0.5,0.9,1.1,0.5c0.1-0.1,0.3,0.1,0.5,0.2c0.9,0.5,1.4,0.4,1.9-0.1c0.7,0,1.4,0,2.1,0c1,0,2.1-0.1,3.1-0.1
	c0.3,0,0.7,0.2,0.9,0.4c0.4,0.4,0.7,0.4,1.1-0.1c0.1-0.1,0.2-0.2,0.3-0.2c0.9-0.1,1.7-0.1,2.6-0.2c0.7-0.1,1.4-0.2,2.1-0.4
	c2-0.5,4.1-0.3,6.1-0.3c0.3,0,0.5,0.1,0.7,0.3c0.5-0.2,1.1-0.3,1.7-0.3c0.7,0,1.3,0,2,0c0.2,0,0.5,0,0.5,0.1
	c0.1,0.8,0.7,0.5,1.1,0.5c0.7-0.1,1.5,0.1,2.1-0.5c0,0,0,0,0.1,0c1.2-0.2,2.4-0.4,3.5-0.5c2.2-0.1,4.4,0,6.5,0
	c0.2-0.9,0.9-0.8,1.5-0.9c0.3-0.1,0.7-0.1,1-0.1c0.4-0.1,0.9-0.4,1.2,0.2c0.1,0.2,0.5,0.2,0.7,0.2c1,0,2.1,0,3.1-0.1
	c0.2,0,0.9,0.2,0.7-0.5c0.1-0.1,0.2-0.1,0.4-0.2c0.9,0,1.8,0,2.7,0v0.9l2.9-0.5c0.5-0.1,0.9-0.2,1.4-0.2c2.5-0.2,5-0.3,7.6-0.4
	c0.5,0,1-0.2,1.2,0.5c0,0.1,0.2,0.1,0.4,0.1l5.6-0.3c0.1,0,0.2,0,0.2,0c0.9,0.6,1.5-0.1,2.2-0.4c0.4-0.1,0.8-0.2,1.1-0.4
	c0.4-0.2,0.8-0.4,1.2-0.6c0.1-0.1,0.3-0.1,0.5-0.2c1.3-0.1,2.6-0.2,3.9-0.1c0.9,0.1,1.8,0.2,2.7,0.4c0.1,0.4-0.2,0.5-0.7,0.7
	c-1.1,0.2-2.1,0.5-3.2,0.7c-0.4,0-0.8,0-1.2,0c-0.4,0-0.8,0.1-1.2,0.1v0.2c0.2,0,0.3,0,0.5,0.1c0.2,0.1,0.5,0.3,0.5,0.3
	c-0.1,0.3-0.2,0.6-0.4,0.7c-0.3,0.1-0.7,0.1-1-0.1c-0.7-0.5-1.4-0.4-2.3-0.4l0.2,0.7l-3.4,0.4l0.5-0.6h-1.8v-0.2l2.1-0.4l0-0.2
	c-0.1-0.1-0.3-0.1-0.4-0.1c-2.3,0.2-4.7,0.3-7,0.5c-0.5,0-1.2,0-1,0.9c0,0.1-0.3,0.4-0.5,0.4c-0.9,0-1.8,0-2.7-0.1
	c0.8-0.7,1.8,0,2.8-0.6c-0.3,0-0.5-0.1-0.7-0.1c-0.9,0-1.7,0-2.6,0.1c-0.3,0.1-0.7,0.2-1,0.3c0,0-0.1,0.1-0.1,0.1
	c-1.2,0-2.5,0.1-3.7,0.1c-0.1,0-0.1-0.2-0.2-0.3c-0.1-0.1-0.2-0.3-0.4-0.3c-1.2,0-2.4,0-3.6,0l0.9,0.9l-0.1,0.2
	c0.2-0.1,0.5-0.1,0.5-0.2c0.2-0.8,0.9-0.5,1.4-0.5c0.1,0,0.2,0.1,0.3,0.2c0,0.1-0.1,0.3-0.1,0.3c-0.6,0-1.2,0.2-1.6,0.6
	c-0.4,0.3-1.2,0.1-1.9,0.1l0.2-0.7c-1.3,0.3-2.4,0.7-3.7,0.1l2.1-0.2c0.2,0,0.4,0,0.6,0c0.1,0,0.2-0.2,0.4-0.3
	c-0.1-0.1-0.2-0.3-0.4-0.3c-0.4-0.1-0.7-0.1-1.2-0.2c-0.1,0.7-0.6,0.6-1.1,0.6c-0.1,0-0.2,0-0.4,0c-1-0.2-2.1-0.1-3.1,0.4
	c-0.3,0.1-0.6,0.1-0.9,0.1c-1.1,0-2.2,0-3.3,0c-0.2,0-0.3,0.1-0.4,0c-1.2-0.8-2.5,0-3.8-0.3l0.2,0.7l-0.6,0.2v0.1l1.4,0.3v0.3h-6.1
	l0.3,1c-1.3,0-2.5,0.2-3.7-0.7v-0.4c-0.4,0.1-0.7,0.2-1,0.2c-0.4,0.1-0.9,0.1-1.3,0.1c-0.6,0-1.1,0-1.7,0.1c-0.2,0-0.4,0.2-0.6,0.3
	s-0.2,0.2-0.3,0.2c-1.7,0-3.4,0-5.1-0.1l1.1-0.7c-1.2-0.3-2.6-0.1-3,0.7l-1.7-0.7c0,0,0,0-0.1,0c-0.8,0-1.5,0.1-2.3,0.1
	c-0.1,0-0.3,0.2-0.4,0.2c-1.5-0.1-2.7,1.1-4.2,1s-3,0-4.5,0c-1.4,0-2.7-0.2-4.1-0.3c-0.4,0-0.9,0-0.9,0.5L51,96l-0.1-0.3l1.2-0.4
	c-0.3-0.1-0.5-0.1-0.6-0.1c-0.5-0.1-1.2,0.2-1.6-0.4c-0.1-0.1-0.5,0-0.8,0v0.7h-3.6c0.3-0.7,0.9-0.4,1.3-0.4c0.5,0,1-0.1,1.5-0.2
	c-0.2,0-0.5-0.1-0.7-0.1c-0.7-0.1-1.4-0.1-2.1-0.1c-0.2,0-0.4,0.4-0.4,0.7c-0.4,0.2-0.8,0.2-1.1,0.8c-0.2,0.4-0.9,0.3-1.2-0.1
	c-0.4-0.7-0.9-0.4-1.5-0.4c-1.7,0.2-3.5,0.3-5.2,0.4c-0.3,0-0.7-0.4-1-0.4c-0.9,0-1.7,0-2.6,0.1c-1.2,0.1-2.4,0.2-3.7,0.3l0-0.6
	l-0.9,0.1l-0.1-0.2c0.2-0.2,0.5-0.3,0.8-0.4c0.5-0.1,0.9-0.1,1.4-0.1c0.4,0,0.8,0,0.9-0.6c0-0.2,0.4-0.3,0.7-0.5
	c0.2-0.2,0.5-0.5,0.9-0.8c0.5-0.2,1.2-0.5,1.9-0.9c0.7-0.3,1.3-0.7,2-1l3.5,0.2c-0.2-0.1-0.4-0.3-0.6-0.4c-3-0.9-6-1.9-9.1-2.7
	C29,88.1,27.9,88,26.8,88c-1,0-1.5-0.7-1.1-1.6c0.1-0.1,0.3-0.2,0.5-0.3c0.7-0.1,1.5-0.1,2.2-0.1c0.3,0,0.7,0,0.8-0.5
	c0-0.1,0.3-0.2,0.3-0.2c0.1,0.2,0.3,0.4,0.4,0.7h5.7v-0.2l-19.8-4l-0.1,0.3c0.1,0.1,0.3,0.3,0.4,0.3c1.5,0.3,2.9,1,4.4,0.8
	c0.5,0,1.1,0.1,1.6,0.3c1.8,0.4,3.6,0.9,5.3,1.3c0.2,0.1,0.5,0.2,0.7,0.3v0.3c-0.4,0-0.9,0.1-1.3,0.1c-0.4,0-0.7,0-1.1,0
	c-0.3,0.1-0.5,0.2-0.7,0.5c-0.3,1-0.6,1.3-1.6,1.3c-2.5,0-4.9,0.1-7.4,0.1c-2.2,0.1-4.3,0.3-6.5,0.1c-1.4-0.1-2.6,0.1-4,0.1
	c-1,0-2.1-0.2-3.1-0.2c-0.7,0-0.8-0.4-0.8-0.9l-0.2-0.1l-0.3,0.7c-0.4-1.1,0-1.6,0.9-1.4c0,0,0.1,0,0.1,0c0.4-0.3,0.9-0.5,1.4-0.7
	c0.8-0.2,0.7-0.6,0.5-1.2c-0.2-0.5,0.5-1.8,1.1-2.1c0.7-0.3,1.5-0.2,2,0.4c1.1-0.4,1.8,0,2.3,1.1c0.2,0.4,0.4,0.7,0.7,1.1
	c0.1,0.2,0.4,0.2,0.6,0.2c0.1,0,0.3-0.3,0.4-0.4c0.2-0.3,0.3-0.6,0.4-0.9c-0.3-0.6-0.3-0.9,0.2-2.1l-2.7-0.5C8,80.4,6.7,80.2,5.5,80
	c-0.8-0.1-1.7-0.2-2.5-0.3c-0.3,0-0.6-0.1-0.9-0.3C2,79,2,78.8,2.1,78.5c0-0.1,0.4-0.1,0.7-0.1c0.7,0.1,1.3,0.3,2,0.4v-6.7
	c0.6,0.2,0.5,0.7,0.5,1.1c0,1.6,0,3.3,0,4.9c0,0.2,0,0.3,0.1,0.5c0.7,0.1,0.6-0.3,0.5-0.7c-0.1-1.7-0.1-3.4-0.2-5.1
	c0-0.3,0.1-0.5,0.3-0.7c0.3,1,0.4,2.1,0.3,3.1c0,1.1,0,2.1,0,3.2c0.7,0.2,0.6-0.1,0.6-0.5c-0.1-1.5-0.1-3-0.2-4.5
	c0-0.4,0.1-0.8,0.1-1.2h0.3l0.2,6.1c1.2,0.2,1.5,0,1.5-1.1c0-1.4,0-2.8,0-4.2c0-0.3,0-0.6,0.1-0.8H9c0,0.3,0.1,0.5,0.1,0.8
	c0,1.4,0,2.9,0,4.3c0,0.2,0.2,0.4,0.3,0.6c0.1-0.2,0.3-0.4,0.3-0.6c0-1.4-0.1-2.9-0.1-4.3c0-0.3,0.1-0.6,0.3-0.9
	c0.3,2,0.4,3.9,0.3,5.9h4.1c0.5,0,0.5-0.3,0.5-0.7c0-1.5,0-3,0.1-4.6c0-0.2,0.1-0.4,0.2-0.7c0.1,0.2,0.3,0.4,0.3,0.7
	c0,1.4-0.1,2.7-0.1,4.1c0,0.4,0.1,0.8,0.2,1.1c0.4-1.9-0.1-3.9,0.5-5.8h0.2c0,0.2,0.1,0.4,0.1,0.6c0,1.6-0.1,3.2-0.1,4.8
	c0,0.2,0.3,0.4,0.6,0.7c0.4-2.2-0.3-4.2,0.1-6.1h0.3c0.1,0.2,0.1,0.5,0.1,0.7c0,1.4,0,2.9,0,4.3c0,0.3,0.1,0.6,0.1,0.9h0.3
	c0.1-0.3,0.1-0.5,0.1-0.8c0-1.4-0.1-2.7-0.1-4.1c0-0.4,0.1-0.7,0.3-1l0.3,0c0.1,0.2,0.1,0.3,0.1,0.5c0,1.6-0.1,3.2-0.1,4.8
	c0,0.2,0.2,0.3,0.3,0.5c0.1-0.2,0.3-0.4,0.3-0.6c0-1.4-0.1-2.8-0.1-4.2c0-0.2,0.1-0.5,0.2-0.7l0.3,0.1c0,0.8,0,1.6,0,2.3
	s0,1.6,0,2.5c0,0.2,0.2,0.5,0.4,0.7c0.1-0.2,0.3-0.4,0.3-0.7c0-1.4-0.1-2.8-0.1-4.2c0-0.3,0.1-0.5,0.1-0.7h0.4v5.7h0.3
	c0-0.2,0.1-0.4,0.1-0.6c0-1.5,0-2.9,0-4.4c0-0.1,0.2-0.3,0.2-0.4c0.1,0.2,0.2,0.3,0.2,0.5c0,1.4,0,2.8,0,4.2c0,0.3,0.1,0.5,0.2,0.8
	c0.1-0.2,0.3-0.5,0.3-0.7c0-1.3,0-2.6,0-3.9c0-0.3,0.1-0.5,0.2-0.8c0.4,1.8,0.2,3.7,0.3,5.6l4.5,0.3c0-0.1,0.1-0.2,0.1-0.3
	c-0.1-1.7-0.2-3.3-0.3-5c-0.1-0.3-0.3-0.5-0.6-0.6c-1.2-0.2-2.3-0.5-3.5-0.6c-2.8-0.4-5.6-0.7-8.4-1c-0.9-0.1-1.9-0.2-2.8-0.3
	c-0.2,0-0.4-0.3-0.6-0.5c0.2-0.2,0.3-0.4,0.5-0.5c0.2-0.1,0.5-0.1,0.7-0.1c2,0.2,3.9,0.4,5.9,0.6c0.2,0,0.5,0.1,0.7,0.1
	c0-0.1,0.1-0.1,0.1-0.2c-0.5-1-0.3-2-0.3-3c-0.2-2.7-0.5-5.4-0.8-8.1c-0.1-1.2-0.4-2.5-0.6-3.7c0-0.2-0.1-0.4,0-0.5
	c0.6-0.7,0.5-1.4,0.4-2.1c0-0.3,0-0.6,0.1-0.9c0.3-0.9,0.3-1.9,0.1-2.8c-0.1-0.9-0.1-1.8,0-2.7c0.1-2.7,0.1-5.5,0.2-8.3l-1.5,0.2
	c-0.8,0.1-0.8,0-0.7-0.7c0-0.2,0-0.4-0.1-0.7c-0.1-0.2-0.2-0.5-0.3-0.7l2.7-0.2c-0.1-1.6-0.2-3.1-0.3-4.6c0-0.2-0.2-0.5-0.4-0.6
	c-0.6-0.3-0.4-0.7-0.1-1c1,0.5,1,0.5,2.2,0.2c4.8-1.3,9.6-2.7,14.5-4c3.2-0.8,6.4-1.5,9.6-2.2c2-0.5,4-1,6-1.5
	c0.4-0.1,0.8-0.1,1.3-0.2c0-0.1,0.1-0.1,0.1-0.2c0.1-3,0.1-6,0.2-9c0-0.5-0.9-1.2-1.6-1.3c-0.6-0.1-0.8,0.3-0.9,0.8
	c-0.2,0.8-0.5,1.5-1.6,1.2c-0.2,0-0.4,0.1-0.6,0.3c-0.7,0.5-1.4,0.9-2.1,1.4c-0.2-0.3-0.4-0.4-0.3-0.5c0.2-1.4-0.4-2.9,0.4-4.2
	c0.6-0.8,1.2-1.6,1.8-2.3c0.2-0.3,0.5-0.7,0.7-1c0.9-0.8,1-1.9,1.5-2.8c0.5-0.9,1.6-1.7,2.5-2.5c0.1-0.1,0.4-0.1,0.7-0.2
	c0,1.4,0,2.6,0,3.9c0,2.2,0,4.5,0,6.7c0,1.8,0,3.6,0,5.4c0.1,0.3,0.2,0.6,0.3,0.9c0.1,0.3,0.2,0.6,0.2,0.9c0,0.9,0,1.7,0,2.4
	l0.8,0.6l-0.7,0.8v9.5c0.3,0,0.5,0.1,0.7,0.1c1,0,1,0,1-1c0-2.8-0.1-5.6-0.2-8.3c0-1,0-1.1,1-1.1c1.2,0,2.4,0,3.6,0
	c0.1,1.9,0.1,3.8,0.2,5.7c0,1.2,0.1,2.5,0.2,3.7c0,0.5,0.2,0.6,0.7,0.6c2-0.1,3.9-0.2,5.9-0.2c0.5,0,0.8-0.2,0.7-0.8
	c-0.1-1.9-0.1-3.8-0.1-5.7c0-0.4-0.1-0.6-0.5-0.6H65c-1.5-0.2-1.5-0.2-1.3-1.8l12.6-0.8c-0.6-0.4-0.3-1.3-1.1-1.4
	c-0.6-0.1-1.2-0.1-1.8-0.1c-0.2,0-0.4,0-0.7,0c0.4-0.5,1.2-0.8,1.9-0.7c0.8,0.2,1.7,0.1,2.4-0.3l0.1-1.5c-6.3,0.1-12.6,1.1-19,0.1
	v3.2h-4.7c0-1.2,0-2.5,0-3.8c0-1-0.1-2-0.1-2.9c0-2.9,0-5.8,0-8.7c0-1.2-0.3-2.4-0.9-3.4c-0.1-0.2-0.2-0.4-0.3-0.7
	c0.8-0.4,1.4,0,2.1,0.5c0.1-0.4,0.1-0.7,0.2-0.9c0.1-0.2,0.1-0.4,0.2-0.5C54.9,2,55,2.1,55.1,2.3c0.2,0.4,0.4,0.8,0.7,1.4L57,2.1
	l0.8,1.5c0.4-0.3,0.8-0.6,1.2-0.9c0.2-0.1,0.4-0.1,0.6-0.2c0,0.2,0.1,0.5,0,0.6C58.2,5.2,58,7.5,58,9.9c0,2.2,0,4.4,0,6.5
	c0,0.4,0,0.8,0,1.4c0.5-0.2,1-0.4,1.5-0.6c2.1-1.2,4.5-1.2,6.8-1.3c2.2-0.1,4.4-0.2,6.5-0.2c1.6,0,3.2-0.1,4.8,0
	c0.5,0,1-0.2,1.3-0.7c1-1.4,1.4-1.5,3.1-0.9c0-1.6,0-3.1,0-4.6C82,8,82,6.5,81.8,5c-0.3-1.4-0.8-2.8-1.3-4.2l0.2-0.1
	c0.4,0.2,0.7,0.5,1.1,0.7c0.5,0.4,0.8,0.3,1-0.3c0.1-0.3,0.3-0.6,0.5-0.9c0.3,0.2,0.5,0.5,0.8,0.7c0.1,0.1,0.2,0.3,0.3,0.4L85.1,0
	l1.2,1.7c0.4-0.4,0.7-0.8,1-1.2c0.1-0.1,0.3-0.2,0.5-0.2c0.1,0.1,0.1,0.3,0.2,0.5c0,0.2,0,0.5-0.2,0.7c-0.9,1.6-1.3,3.4-1.3,5.2
	c0,4.2,0,8.4-0.1,12.7c0,0.7,0.3,0.7,0.8,0.9c1.9,0.5,3.8,0.9,5.7,1.4c0.1,0,0.1,0.1,0.3,0.3C93.1,22,92.8,22,92.6,22
	c-0.8-0.2-1.6-0.4-2.4-0.6c-1.3-0.5-2.8-0.7-4.2-0.5c-1.4,0.1-2.7,0.1-4.1,0v-2l-0.2-0.1c-0.2,0.2-0.3,0.3-0.4,0.5
	c-0.1,0.2-0.2,0.5-0.3,0.7c0,0.1-0.5-0.1-0.5-0.2c0-0.3,0-0.5,0-0.8c0-0.1,0-0.1,0.1-0.2c-0.5-0.5-1.2-0.7-1.9-0.5
	c-0.7,0.2-1.1,0.5-1,1.2c0,0.5,0.4,0.7,0.8,0.6c0.2,0,0.3-0.1,0.5-0.2l0.1,0.2c-0.3,0.2-0.6,0.3-0.9,0.5c-0.3,0.1-0.7,0.2-1,0.3
	l0.4,1.6l0.9-0.1c-0.3-0.6-0.1-0.9,0.5-1.1c0.2-0.1,0.3-0.4,0.4-0.6c0.1-0.4,0.2-0.7,0.2-1.1c0.5,0.4,1.2,0.7,1.3,1.1
	s-0.4,0.9-0.7,1.4h1.8l0.1-1h4.3c0.3,1.1,0.3,1.1,1.3,1.3c0.8,0.2,1.7,0.4,2.5,0.6c0.9,0.3,1.9,0,2.6-0.6c1-0.8,2.3-0.5,3,0.7
	c0.3,0.4,0.6,0.8,0.9,1.2c0.2,0.2,0.5,0.3,0.9,0.3c-0.5-1.2-1.4-2.1-2.6-2.6l0.2-0.3c0.5,0.2,1,0.5,1.5,0.8c0.6,0.6,1,1.4,1.5,2
	c0.3,0.3,0.7,0.5,1.1,0.7c0.3,0.1,0.7,0.2,1,0.3l-0.2,1.7l-1.7-0.2v4.5l0.3,0.1c0.1-0.2,0.3-0.4,0.3-0.5C99.1,30,99,30,100.5,30
	c0,0.4,0,0.8,0,1.2c-0.1,0.5,0.2,0.7,0.7,0.7c1.3-0.1,2.5-0.2,3.8-0.3c1-0.2,2.1-0.1,3.1,0.2c0.7,0.2,1.4,0.3,2.1,0.4
	c0.5,0.1,0.6,0.4,0.4,0.9c-0.2,0.4-0.3,0.9-0.4,1.3c0,1.7,0,3.4,0,5.1c0,0.2,0.1,0.5,0.2,0.7c0.1,0.1,0.4-0.1,0.7-0.2
	c0.2-0.1,0.5-0.2,0.7-0.2c2.1,0.1,4.2,0.3,6.2,0.5c2.2,0.1,4.5,0.2,6.7,0.3v-9.9c-0.8,0.5-1.4,0.7-2.1,0.2c0,0-0.1,0-0.1,0
	c-0.6,0.3-1.3,0.5-1.9,0.9c-0.8,0.5-1.6,1.1-2.5,1.6c-0.1,0.1-0.5-0.1-0.6-0.3c-0.1-0.3-0.2-0.6-0.2-0.9c0-1.2-0.1-2.4-0.1-3.6
	c0-0.1,0-0.4,0.1-0.4c0.5-0.6,1.2-1.2,1.9-1.7c0.8-0.4,1.5-0.8,1.6-1.8c0.1-0.8,0.5-1.5,1.5-1.5c0.3,0,0.7-0.1,1-0.3
	c0.7-0.2,1.2-0.8,1.2-1.5c0-0.7,0-0.7,0.7-0.8c0,0.8,0,1.6,0,2.4c0,4.7,0,9.4,0.1,14.1c0,1,0.1,2,0.2,3c0.1,0.3,0.2,0.5,0.5,0.5
	c1.9,0.2,3.9,0.3,5.8,0.4c0.7,0,1.3,0.1,1.9,0.1c0.4,0,0.6,0.3,0.6,0.7c0,0,0,0.1,0,0.1c-0.6-0.2-1.1-0.3-1.7-0.3
	c-4.9-0.3-9.8-0.5-14.6-0.8c-2-0.1-3.9-0.3-5.8-0.4c-0.5,0-1.1-0.2-1.2,0.7c0,0.1-0.4,0.2-0.7,0.3c-0.2,0.1-0.4,0.2-0.7,0.4
	c-0.2,0.1-0.3,0.3-0.4,0.5l-0.2-0.7l-0.1-0.2c-0.6-0.1-0.9,0-0.9,0.7c0,0.9,0,1.7,0,2.6l10.3,1.1c0.5-1.6,0-3.2,0.6-4.6h0.2v4.5
	c0.5-1.4-0.1-3,0.6-4.4h0.2v4.6l0.2,0.1c0.1-0.2,0.3-0.3,0.3-0.5c0.1-1,0.1-2.1,0.1-3.1c0-0.1-0.1-0.3,0-0.4
	c0.1-0.2,0.2-0.4,0.3-0.7c0.1,0.2,0.2,0.4,0.2,0.7c0,1.2-0.1,2.4-0.1,3.6c0,0.1,0.1,0.2,0.2,0.4c0.3-1.5,0-3,0.3-4.5h0.4v3.6h0.2
	l0.2-3.6l0.3,0c0.1,0.2,0.2,0.5,0.2,0.7c0,1-0.1,2-0.1,3c0,0.3,0.1,0.6,0.2,0.8c0.3-1.5,0-3,0.3-4.5h0.3v4.6h0.3
	c0.1-0.2,0.1-0.4,0.2-0.7c0-1.1,0-2.1,0.1-3.2c0-0.2,0.2-0.4,0.3-0.6c0.1,0.2,0.2,0.3,0.2,0.5c0,1,0,2.1,0,3.1c0,0.2,0,0.4,0.1,0.7
	h0.3l0.1-4.3h0.2l0.4,0.5l0.3-0.6l0.3,0V46h0.4v-4.5h0.4v4.4h0.2c0.1-1.2,0.2-2.4,0.4-3.6c0-0.2,0.1-0.5,0.2-0.7l0.2,0v4.2h0.2
	c0.1-1,0.1-2,0.2-2.9c0-0.3,0-0.5,0-0.8c0.1-0.2,0.1-0.4,0.2-0.5c0.1,0.2,0.3,0.3,0.3,0.5c0,0.5,0,1,0,1.6c0,0.8,0,1.6,0.1,2.4
	c0-0.2,0.1-0.4,0.1-0.7c0-1,0-2.1,0-3.1c0-0.2,0.2-0.3,0.3-0.5c0.1,0.2,0.3,0.3,0.3,0.5c0,1,0,2.1,0,3.1c0,0.2,0,0.5,0.1,0.7h0.2
	c0-0.2,0.1-0.4,0.1-0.6c0-1.1,0-2.1,0-3.2c0-0.2,0.1-0.5,0.3-0.7c0.1,0.2,0.3,0.5,0.3,0.7c0,1,0,2.1,0,3.1c0,0.2,0.1,0.3,0.2,0.5
	c0.1-0.3,0.1-0.6,0.1-0.8c0-0.9,0-1.9,0-2.8c0-0.2,0.1-0.4,0.2-0.7l0.3,0V46h0.3l0.1-4.3h0.4c0,0.7,0,1.4,0,2.2
	c0,0.7,0.1,1.5,0.3,2.2c0.4-1.4,0-2.9,0.3-4.2h0.3V46h0.4v-4h0.3v4.1h8.8c0.1,0,0.3-0.1,0.4,0c0.2,0.1,0.3,0.2,0.5,0.3
	c-0.1,0.1-0.2,0.3-0.4,0.4c-0.2,0.1-0.4,0.1-0.7,0.1c-2.7,0.4-5.3,0.8-8,1.2c-0.2,0.1-0.4,0.3-0.5,0.5c-0.1,1-0.1,2-0.1,2.9
	c0,0.5,0.2,0.6,0.5,0.5c0-0.6,0.1-1.2,0.3-1.8c0.1-0.2,0.5-0.3,0.8-0.4c0.1,0,0.3,0.4,0.3,0.6c0,0.6,0,1.1-0.1,1.8
	c0.8,0,0.9,0.6,0.9,1.4c0,1,0.1,1,1.2,1h1.1V53h2.1v1.6c1.2-0.1,2.3-0.1,3.4-0.2c1.4-0.1,2.9-0.2,4.3-0.3c0.6,0,1.2-0.2,1.8-0.2
	c0.2,0,0.6,0.1,0.7,0.3c0,0.2-0.1,0.5-0.2,0.8s-0.2,0.7-0.4,1l0.2,0.1c0.2-0.2,0.5-0.4,0.7-0.6c0.6-0.7,1.6-0.7,2.3-0.1
	c0.1,0.1,0.2,0.2,0.3,0.4c0.5,0.7,0.7,1.5,1.5,1.9c0.2,0.1,0.2,0.4,0.3,0.7c0.2,0.6,0.3,1.2,0.5,1.8c0.2,0.4,0.5,0.4,0.7,0.1
	c0.5-0.6,1-1.2,1.5-1.8c0.2-0.1,0.4-0.2,0.7-0.2c0.6-0.1,1.2-0.3,1.8-0.3c0.3,0,0.6,0,0.9,0.2c0.2,0.1,0.4,0.4,0.7,0.5
	c1.1,0.2,1.8,1.3,1.7,2.4c0,1,0.1,2,0.2,3.1c0,0.3-0.1,0.6-0.2,0.9c-0.1,0.5-0.2,1-0.3,1.4c0.4,0.2,0.7,0.3,1,0.4
	c0.7,0.2,1-0.4,1.3-0.7c0.4-0.5,1-0.7,1.6-0.5c0.1,0,0.3,0.1,0.4,0.1c0.9-0.4,1.4,0.1,1.8,0.8c0.5,0.6,0.7,1.2,0.8,2
	c0,1.2-0.3,2-1.5,2.4c-0.2,0.1-0.2,0.3-0.4,0.5c0.7,0.1,1.3,0.2,1.8,0.2c0.2,0,0.4-0.1,0.5-0.3c0.4-0.6,1.3-0.8,2-0.4
	c0.1,0.1,0.2,0.2,0.3,0.3c0.4,0.4,0.8,0.9,1,1.4c0.2,1,0.3,2,0.2,3c0,0.6,0.3,1,0.9,1c0.8,0,1.5-0.1,2.4-0.2c-0.1-0.5,0.2-1,0.6-1.1
	c0.1,0,0.2,0,0.3,0c0,0,0.1,0,0.1-0.1c0.2-0.5,0.5-0.8,1-0.7c0.6,0.1,1.2,0.3,1.7,0.6c0.8,0.5,1.3,1.2,0.9,2.2
	c-0.2,0.4,0,0.7,0.5,0.8c0.3,0,0.5,0.3,0.8,0.4c0.3,0.1,0.5,0.2,0.7,0.2c0.6-0.3,0.7,0.1,0.9,0.4c0.3,0.4,0.6,0.8,0.8,1.3
	c0.1,0.3,0,0.6-0.1,0.8c-0.3,0.2-0.5,0.2-0.8,0.2c-1.9,0-3.7,0-5.6,0C178.5,81.1,177.5,81,176.4,81z M83.3,84.3
	c16.4-0.1,32.8-0.7,49.2-1.8c0-0.4,0.1-0.7,0.1-0.9c0-5.2-0.1-10.4-0.1-15.6c0-0.5,0.2-0.7,0.7-0.7c1.2,0,2.4-0.1,3.6-0.1h0.6v17.1
	l10.6-0.9l0.4-19.8c-0.7,0.1-1.4,0.2-2.1,0.2c-2.4,0.2-4.8,0.2-7.1,0.5c-5.5,0.8-11,0.8-16.6,1.3c-3.6,0.3-7.1,0.1-10.7,0.2
	c-1,0-2.1-0.1-3.1-0.1c-1.4,0-2.9,0.1-4.3-0.1C98.6,62.8,92.8,62,87,61.2c-1.1-0.1-2.1-0.2-3.3-0.4c0,2.1,0,4,0,6
	c-0.1,0.5-0.2,0.9-0.4,1.3L83,68.1c0-0.7,0-1.3,0-1.9c0-1.6,0.1-3.2,0.1-4.8c0-0.2-0.2-0.3-0.4-0.5c-0.1,0.2-0.3,0.3-0.3,0.5
	c0,0.5,0.2,1.2-0.1,1.5c-0.3,0.3-1,0.2-1.6,0.3c0,0.2,0,0.5,0,0.7c0,0.3,0,0.6,0,0.9c-0.1,0.9,0,1.1,0.8,1c0.7,0,0.7,0.2,0.7,0.8
	c0,1.2,0,1.2-1.2,1.4c-0.1,0-0.2,0-0.5,0.1c0,2.1,0,4.1,0,6.2c0.1,0.2,0.2,0.4,0.4,0.5c1,0.2,2.1,0.3,3.2,0.5c0.3,0.7-0.3,0.8-0.9,1
	c-0.2,2,0.2,4-0.2,6c-0.2-0.2-0.3-0.5-0.3-0.7c0-1.6,0-3.3-0.1-4.9c0-0.2-0.2-0.7-0.4-0.7c-0.5-0.1-0.4,0.4-0.4,0.7
	c0.1,1.5,0.1,3.1,0.2,4.6c0,0.3-0.1,0.6-0.2,0.9l-0.3,0l-0.2-4.8c-0.4,0.5,0.2,1.3-0.8,1.7v-3h-0.3c0,0.3-0.1,0.5,0,0.8
	c0,1.7,0.1,3.4,0.1,5.1c0,0.3-0.2,0.5-0.4,0.8c-0.1-0.2-0.2-0.5-0.2-0.7c-0.1-1.9-0.1-3.8-0.2-5.7c0-0.5-0.2-0.7-0.7-0.5
	c0,0.7-0.1,1.4-0.1,2c0,1.5,0,2.9-0.1,4.4c0,0.2-0.1,0.3-0.2,0.5c-0.1-0.1-0.3-0.3-0.3-0.5c0-0.2,0-0.3,0-0.5c0-1.5,0-3.1,0-4.6
	c0-0.3-0.1-0.6-0.1-0.8h-0.2v8.1h5L83,83h0.2L83.3,84.3z M46.3,50.5c0.3,0.3,0.6,0.7,0.9,1c0.3,0.3,1,0.3,1.2,0c0.4-0.6,1-1.1,0.5-2
	c-0.1-0.3-0.2-0.7,0-1c0.1-0.2,0.3-0.4,0.6-0.5c0.3,0,0.5,0.1,0.7,0.3c0.2,0.4,0.3,0.9,0.3,1.3c-0.1,0.8,0.3,0.7,0.7,0.6
	c0-1.3,0-2.5,0-3.7s0-1.3-1.3-1.4c-2.2-0.1-4.5-0.1-6.8-0.2c-0.2,0-0.4-0.1-0.5-0.3c-0.3-0.6-0.1-1.3,0.5-1.6
	c0.2-0.1,0.4-0.1,0.6-0.2c0.3,0,0.7,0,1,0c1-0.1,1.9-0.2,2.9-0.3c0-1,0-1.9,0-2.8c0-1.3-0.1-2.6-0.1-3.9c0-0.2,0.1-0.5,0.2-0.7
	l0.3,0l0.2,7.5c0.7-0.2,0.6-0.7,0.6-1c-0.1-2-0.1-3.9-0.2-5.8c0-0.2,0.1-0.5,0.2-0.7l0.3,0.1v7.3l0.9-0.1c0-0.2,0-0.3,0-0.4
	c-0.1-2.1-0.1-4.3-0.2-6.4c0-0.2,0.1-0.4,0.2-0.7l0.3,0.1v7.3c0.7,0.2,0.7-0.2,0.7-0.5c0-2-0.1-3.9-0.1-5.9c0-0.6,0-1.2,0-1.8
	c-0.8,0-1.6,0-2.4,0.1c-0.4,0.1-0.8,0.2-1.2,0.5c-0.5,0.4-0.8,0.3-1.1-0.1c0.2-0.6,0.8-0.9,1.4-1c0.9-0.1,1.9-0.3,2.8-0.4
	c0.4-0.1,0.5-0.2,0.5-0.6c0-3.1,0-6.1,0-9.3c-0.6-0.1-1.2-0.1-1.8,0c-2.2,0.5-4.4,1.1-6.5,1.7c-1.6,0.4-3.2,0.8-4.8,1.1
	c-1.8,0.4-3.7,0.5-5.5,1c-3.5,0.9-7,2-10.4,3.1c-1,0.4-1.9,0.8-2.8,1.3l15.5,11.4c0.9-1.1,1.7-2,2.5-3c2.5-3.1,5-6.1,7.5-9.2
	c1.7-2.2,3.5-4.3,5.2-6.5c0.2-0.2,0.4-0.4,0.6-0.5l0.1,0.2c-0.1,0.2-0.2,0.4-0.4,0.5c-1.4,1.8-2.8,3.6-4.2,5.3
	c-2.2,2.7-4.3,5.4-6.5,8.1c-1.4,1.8-3,3.4-4.1,5.5l9.6,6.5c0-0.2,0.1-0.4,0.1-0.6c0-0.2,0-0.4,0.1-0.6c0.1-0.4,0.6-0.6,1-0.5
	c0.1,0,0.2,0.1,0.2,0.1C46.5,49,46.5,49.8,46.3,50.5z M138.5,56.2l0.2,0v4.7l0.3,0c0.1-0.2,0.1-0.4,0.2-0.7c0-1.2-0.1-2.4-0.1-3.6
	c0-0.3,0-0.5,0.1-0.8h0.2c0.1,0.3,0.1,0.5,0.1,0.8c0,1.2,0,2.4,0,3.6c0,0.5,0,0.5,0.6,0.5c0-1.6-0.2-3.3,0.2-4.9h0.2v3.6h0.3
	l0.2-3.7c0.2,0.1,0.3,0.1,0.3,0.1c0,1.2-0.1,2.3-0.2,3.5l0.2-0.1c0.1,0.2,0.4,0.5,0.4,0.7c0,0.6,0.3,0.7,1,0.7v-4.9h0.2
	c0,1,0,2.1,0,3.1c0,1.9,0,1.9,2,1.5v-4.5l2.3-0.5v4.8h0.9c0-0.9,0-1.7,0-2.6s-0.2-1.6,0.1-2.4h0.3v4.8h0.3c0.1-0.4,0.1-0.7,0.2-1.1
	c0-1.1,0-2.1,0.1-3.2c0-0.2,0.1-0.4,0.2-0.7l0.3,0.1v4.5h0.2l0.5-5.4c-0.6,0.1-1.4,0.2-2.2,0.2c-2.7,0.2-5.5,0.3-8.2,0.5
	c-3.6,0.3-7.3,0.6-10.9,0.8c-1.8,0.1-3.6,0-5.3,0c-3.3,0-6.5,0-9.7,0c-0.9,0-1.9-0.1-2.8-0.3c-4.8-0.6-9.6-1.1-14.3-1.7
	c-3.6-0.5-7.2-1.1-10.8-1.8c-2.8-0.4-5.6-1.1-8.5-1.1c-2.4,0-4.8-0.1-7.2-0.1c-1.7,0-3.4,0.2-5.1,0.2c-4,0.2-8.1,0.5-12.1,0.7
	c-0.5,0-0.6,0.2-0.6,0.7c0,2.4,0.1,4.7,0.1,7.1c0,0.2,0.2,0.5,0.3,0.5c0.6,0,1.1,0,1.6-0.1v-7.4l0.3-0.1c0.1,0.3,0.2,0.7,0.3,1.1
	c0.1,1.9,0.1,3.8,0.1,5.7c0,0.2,0.1,0.4,0.2,0.7l0.3-0.1c0-0.3,0-0.5,0-0.8c0-1.9-0.1-3.8-0.1-5.7c0.1-0.4,0.2-0.8,0.3-1.1l0.3,0.1
	v5.1h0.3l0.2-5.2H57c0.1,0.3,0.2,0.7,0.2,1c0,1.9,0,3.8,0,5.7c0,0.3,0.1,0.5,0.1,0.8h0.2c0-0.2,0.1-0.3,0.1-0.5c0-1.9,0-3.8,0-5.7
	c0-0.3,0-0.7,0.1-1c0.1-0.2,0.4-0.3,0.6-0.3c0.1,0,0.3,0.3,0.4,0.5c0,0.2,0,0.4,0,0.7c0,2.1,0,4.2,0,6.3c0.8,0,1.3,0,1.8,0
	c0.7,0,0.9-0.2,0.9-0.9c-0.1-1.9-0.1-3.7-0.1-5.6c0-0.4,0.1-0.7,0.3-1l0.3,0.1v7.4l2.7-0.2c0.1-2.2,0.2-2.4-0.8-2.2l-0.2,2h-0.2
	c0-0.3-0.1-0.6-0.1-0.9c0-0.7,0.1-1.3,0.1-2c0-1.2,0-2.4,0-3.6c0-0.2,0.1-0.4,0.1-0.6h0.2v1.2c1.1,0.1,0.4-0.9,0.8-1.2l1.1-0.1
	l-0.2,1.3l-0.4-0.1c-0.2,0.4-0.6,0.8-0.9,1.1c-0.4,0.2-0.6,0.7-0.5,1.1c0,0.3,0.1,0.7,0.1,1c0,0.3,0.1,0.6,0.6,0.6
	c0.7,0,0.9,0.3,0.8,0.9c0,0.5,0,1.1,0,1.6h0.2c0.6-0.6-0.2-1.6,0.6-2.4l0.1,2.2h0.3c0.1-0.6,0.1-1.2,0.2-1.7
	c0.1-0.2,0.2-0.3,0.3-0.5c0.1,0.2,0.2,0.4,0.2,0.5c0,0.5-0.1,0.9-0.2,1.4c0,0.1,0,0.2,0.1,0.3l0.8-0.1c0-1.4,0-2.8,0-4.2
	c0-0.4-0.2-0.7-0.4-1c-0.6-0.6-0.7-1.4-0.1-2.3l0.3,1.3l0.5-1.2h0.2c0,0.2,0.1,0.5,0.1,0.7c0,2-0.1,4.1-0.1,6.1
	c0,0.2,0.1,0.4,0.2,0.6l0.2-0.1c0-0.3,0.1-0.6,0.1-0.9c0-1-0.1-2-0.1-3c0-1,0.1-2,0-3c0-0.6,0.1-0.7,0.6-0.7c0.2,0,0.5,0,0.7,0
	c0.2,0.7,0.1,1.4-0.3,2c-0.7,1-0.3,2.1-0.2,3.1c0,0.1,0.1,0.2,0.3,0.2c0.6,0,0.5,0.4,0.4,0.8s-0.1,0.8-0.1,1.2h0.2l0.3-2H71l0.1,1.3
	h0.1l0.3-1.2l0.2,0.1v1.8h0.3c0.1-0.6,0.1-1.2,0.3-1.8c0.1-0.2,0.2-0.4,0.4-0.6l0.1,0.1l-0.1,2.1l0.3,0.1c0.1-0.2,0.3-0.4,0.3-0.6
	c0.1-1.1,0.1-2.3,0.1-3.4c0-0.3-0.2-0.7-0.4-0.9c-0.6-0.6-0.7-1.5-0.4-2.2l1.2-0.2v7.4l0.6,0v-7.3l1.1,0.2c0.1,0.9,0.2,1.6-0.5,2.2
	c-0.2,0.2-0.2,0.6-0.2,0.8c0,1.2,0,2.3,0,3.5c0,0.2,0.1,0.4,0.2,0.5c0.1-0.2,0.3-0.3,0.3-0.5c0-0.5,0-1,0-1.6
	c0.2,0.1,0.4,0.2,0.5,0.1c0.9-0.3,0.8,0.3,0.7,0.8c0,0.4-0.1,0.8-0.1,1.3c0.8-0.3,0.7-0.9,0.7-1.3c0.1-1,0.1-1,1.3-0.8
	c0,0.5,0,1,0,1.5c0.1,0.2,0.1,0.4,0.3,0.6c0.1-0.2,0.2-0.4,0.2-0.6c0-0.6-0.1-1.2-0.1-1.8c0.1-1.5,0.2-2.9,0.3-4.4
	c0-0.2,0.1-0.4,0.1-0.6h0.2v7.2h0.2c0-0.2,0.1-0.4,0.1-0.6c0.1-1.9,0.2-3.8,0.1-5.6c0-0.8,0.2-1,0.9-0.8c0.2,0,0.3,0,0.5,0
	c0.1,0.6,0,1.3-0.4,1.7c-0.2,0.3-0.4,0.6-0.5,1c-0.1,0.4-0.1,0.9,0,1.3c0.1,0.3,0.3,0.6,0.5,0.9c0.2,0.3,0.4,0.5,0.5,0.9
	c0,0.4,0,0.8-0.1,1.2c0,0.1,0.1,0.2,0.2,0.3c0.2-0.5,0.3-1,0.3-1.5c0.1-0.2,0.2-0.5,0.3-0.7c0.1,0.2,0.2,0.5,0.2,0.7
	c0,0.4,0,0.8,0,1.2h0.2c0-0.3,0.1-0.7,0.1-1s0.1-0.8,0.3-0.9c0.8-0.4,0.7-1.1,0.7-1.7s0-1.2,0-1.8c0-0.5,0.2-0.8,0.8-0.7v6.6h0.2
	c0.1-0.2,0.1-0.4,0.1-0.6c0-1.7,0-3.5,0-5.2c0-0.4-0.2-1,0.4-1c0.6,0,0.4,0.7,0.4,1c0,1.8-0.1,3.5-0.1,5.3c0,0.2,0.1,0.4,0.2,0.6
	l0.2-0.1l0.2-6.7l0.8,0.1c0,2,0,4,0,6c0,0.5,0,0.9,0.7,0.9c0.7,0,0.5-0.5,0.5-0.8c0-1.7-0.1-3.4-0.1-5.1c0-0.3,0.1-0.6,0.2-0.9
	l0.3,0.1v5.3h0.2c0-0.9,0.1-1.7,0.1-2.6c0.1-2.2,0.1-2.2,0.5-2.5v6.6l0.2,0c0.1-0.2,0.1-0.5,0.2-0.7c0.1-1.7,0.2-3.5,0.3-5.2
	c0-0.2,0.1-0.4,0.2-0.7l0.3,0.1c0,0.3,0,0.6,0,0.9c-0.1,1.7-0.2,3.3-0.3,5c0,0.5,0.2,0.7,0.7,0.8c0.3,0,0.5,0,0.8,0
	c0-0.2,0.1-0.3,0.1-0.5c0-1.7,0-3.5,0.1-5.2c0-0.3,0.1-0.5,0.1-0.8l0.2,0c0,0.2,0.1,0.5,0.1,0.7c0,1.8,0,3.6-0.1,5.4
	c0,0.2,0.1,0.4,0.2,0.6c0.1-0.2,0.2-0.4,0.2-0.6c0-1.8-0.1-3.6-0.1-5.4c0-0.3,0-0.5,0.1-0.8c0.3,0.2,0.5,0.4,0.7,0.4
	c0.8-0.3,0.7,0.3,0.8,0.7c0,0.5,0,0.8,0,1.3c0,0.7-0.1,1.2-0.9,1c0,0.9,0,1.8,0,2.6c0,1,0.3,1.2,1.3,0.8c0.3-0.4-0.5-1.1,0.5-1.2
	c0.3,0,0.8,0,0.9,0.2c0.2,0.5,0.3,0.9,0.4,1.4l1,0.1c0-0.7,0.1-1.4,0.1-2c0-0.2,0.2-0.3,0.3-0.5c0.1,0.2,0.3,0.3,0.3,0.5
	c0,0.5-0.1,0.9-0.1,1.4c0,0.2,0,0.4,0.1,0.7h0.2l0.2-2.6c-0.5-0.1-1-0.1-1.5-0.2c-0.5-0.1-0.8-0.2-0.8-0.7c0-0.7,0-1.3,0-2
	c0-0.5,0.2-0.7,0.7-0.6c0.6,0.1,1.2,0.1,1.8,0.2c0.2,0,0.4,0.2,0.4,0.3c0,0.9,0.1,1.9,0,2.8c-0.1,0.9-0.3,1.7-0.3,2.6
	c0,0.6,0.5,0.6,0.9,0.6c0.1,0,0.4-0.4,0.4-0.6c0.1-1.6,0.2-3.2,0.3-4.7c0.1-0.3,0.1-0.5,0.2-0.7l0.3,0c0.1,0.2,0.1,0.5,0.1,0.8
	c-0.1,1.6-0.2,3.3-0.3,4.9c0,0.2,0.1,0.4,0.2,0.5c0.1-0.2,0.2-0.3,0.3-0.5c0.1-1.7,0.2-3.3,0.3-5c0.1-0.2,0.1-0.4,0.3-0.6l0.2,0.1
	c0,0.3,0,0.5,0,0.8c-0.1,1.6-0.2,3.1-0.2,4.7c0,0.2,0.2,0.4,0.3,0.6c0.1-0.2,0.2-0.4,0.3-0.6c0.1-1.6,0.2-3.2,0.3-4.8
	c0-0.2,0.1-0.5,0.1-0.7h0.2c0,0.6,0,1.2,0,1.8c-0.1,1.3-0.2,2.5-0.2,3.8c0,0.2,0.2,0.4,0.4,0.7c0.1-0.2,0.3-0.4,0.3-0.6
	c0-0.6,0-1.2,0-1.8c0-1.1,0.1-2.1,0.1-3.2c0-0.2,0.2-0.4,0.3-0.5c0.2,1.9,0.2,3.7,0.2,5.5c0,0.2,0.1,0.5,0.2,0.7
	c0.1-0.2,0.3-0.5,0.4-0.7c0.1-1.6,0.1-3.1,0.2-4.7c0-0.2,0.2-0.3,0.2-0.5c0.1,0.2,0.3,0.3,0.3,0.5c0,1.2-0.1,2.4-0.2,3.6
	c0,0.6-0.1,1.2-0.1,1.8l2.6,0.2c0-2,0-4,0.5-5.9c0.2,0.3,0.3,0.6,0.2,0.9c0,1.4-0.1,2.9-0.1,4.3c0,0.2,0.1,0.4,0.2,0.7l0.3-0.1v-5.8
	c0.2,0.1,0.4,0.2,0.4,0.3c0,1.7,0,3.4,0,5.1c0,0.2,0.1,0.4,0.2,0.7c0.2-0.2,0.5-0.4,0.5-0.6c0-1.6,0-3.2,0-4.8c0-0.2,0-0.4,0.1-0.6
	h0.2c0.7,1.9-0.1,3.9,0.3,5.9h0.2l0.2-5.8h0.3c0.1,0.3,0.1,0.5,0.1,0.8c-0.1,1.5-0.2,3-0.2,4.5c0,0.2,0.1,0.3,0.1,0.5h0.3
	c0-0.4,0.1-0.9,0.1-1.3c0-1.3,0.1-2.5,0.1-3.8c0-0.2,0.1-0.5,0.2-0.7l0.2,0c0,0.2,0.1,0.4,0.1,0.5c0,1.1-0.1,2.1-0.1,3.2
	c0,2.5-0.1,2.1,2.3,2c0,0,0.1,0,0.1-0.1c0.3-1.7,0.1-3.4,0.7-5c0.1,0.1,0.2,0.3,0.2,0.5c-0.1,1.3-0.3,2.5-0.4,3.8c0,0.3,0,0.6,0.1,1
	h0.3c0.6-1.7,0.1-3.6,0.7-5.3h0.3l-0.3,5.2c0.6,0.2,0.7,0,0.7-0.5c0-1.4,0.1-2.8,0.1-4.2c0-0.2,0.2-0.4,0.4-0.5
	c0.1,0.2,0.3,0.3,0.3,0.5c0,1.1-0.1,2.2-0.1,3.3c0,0.5,0,1.1,0,1.6l0.2,0.1c0.2-0.1,0.4-0.2,0.4-0.4c0-0.6,0-1.2-0.1-1.9
	c-0.1-1-0.2-2.1-0.3-3.2c0.7,0,1.3,0,1.8,0c0.7-0.1,0.8,0.2,0.8,0.8c0,1.5,0,3,0,4.6l3.4-0.2v-5.1h0.3c0.1,0.3,0.1,0.5,0.1,0.8
	c0,1.2-0.1,2.5-0.1,3.7c0,0.4,0.1,0.7,0.6,0.5c0-1.5,0-2.9,0-4.3c0-0.3,0.1-0.5,0.2-0.7h0.3c0,0.4,0.1,0.7,0.1,1.1
	c0,1.1,0,2.2,0,3.3c0,0.5,0.1,0.7,0.7,0.6c0-0.9,0-1.7,0.1-2.6s-0.3-1.7,0.2-2.5c0.1,0.2,0.2,0.5,0.2,0.8c0,1.2-0.1,2.4-0.1,3.6
	c0,0.2,0.1,0.5,0.3,0.7c0.1-0.2,0.2-0.4,0.2-0.6c0-1.3,0-2.5,0.1-3.8c0-0.2,0.1-0.5,0.2-0.7l0.3,0v5.1h0.2c0.1-1.8,0.2-3.5,0.5-5.2
	c0.2,0.4,0.3,0.9,0.3,1.3c-0.1,1-0.2,2-0.3,3c0,0.3,0.1,0.6,0.2,0.9l0.3,0c-0.1-1.7,0-3.5,0.4-5.2c0.1,0.2,0.2,0.4,0.2,0.7
	c0,1.2-0.1,2.5-0.1,3.7c0,0.3-0.1,0.8,0.5,0.8c0.9-0.1,1.8-0.2,2.8-0.3v-4.9l0.3-0.1c0.2,0.2,0.3,0.5,0.4,0.8c0,1.2,0,2.4,0,3.6
	c0,0.2,0,0.3,0.1,0.5c0.2-0.2,0.2-0.4,0.2-0.7c0-1.2,0-2.4,0-3.6c0-0.4,0-1,0.8-0.7c0.1,0,0.2-0.2,0.5-0.3v5.2l3.3-0.3l0.2-5h0.3
	v4.9l0.3,0.1c0.1-0.2,0.4-0.4,0.4-0.6c0-1.3,0-2.5,0-3.8C138.4,56.5,138.4,56.3,138.5,56.2z M31.5,70.2c-0.4-0.3-0.8-0.5-0.8-0.7
	c-0.1-0.5-0.1-1,0.6-1.3c0.2-0.1,0.3-0.5,0.2-0.8c-0.2-0.6-0.1-1.4,0.3-1.9c0.4-0.7,1.3-1.1,2.1-0.8c1,0.5,1.8,1.1,1.7,2.4l0.9,0.3
	c0,0.4,0.1,0.8,0.3,0.9c0.5,0.2,0.5-0.4,0.7-0.7c0.1-0.2,0.2-0.4,0.3-0.7c-0.2-0.5-0.5-0.9-0.4-1.1c0.4-1.2,1.3-1.4,2.4-1.2
	c0.2-1.1,0.2-1.2-0.8-1.2c-0.7,0-1.4,0-2.1,0c-1.2,0-2.3,0-3.5,0c0-0.2,0-0.4,0-0.7c0.2-0.6,0.3-1.1,0.4-1.7c0-1.4-0.1-2.9,0-4.3
	c0.1-0.6-0.2-1.3-0.8-1.5c-0.6-0.3-0.5-0.7-0.1-1c0.4-0.3,0.8-0.4,1.3-0.5c2.9-0.5,5.9-1.1,8.9-1.6c0.6-0.1,0.9-0.2,1.1-0.9
	c0.2-0.6-0.2-0.8-0.6-1.1c-2.5-1.7-5.1-3.5-7.6-5.2c-2.3-1.6-4.6-3.4-6.8-5.1c-2.6-2-5.2-3.9-7.7-5.9c-1-0.7-2-1.4-3-2.2
	c-0.3,0.5-0.4,0.9,0.1,1.2c0.1,0.1,0.3,0.5,0.2,0.6c-0.9,0.8-0.2,1.7-0.3,2.6h3.8c0,0.5-0.1,0.9-0.1,1.3c0,0.6-0.3,0.8-0.9,0.7
	c-0.4,0-0.8,0-1.2,0c0.1,0.4,0.2,0.7,0.2,0.9c0.6,1.8,1.1,3.6,1.7,5.4c0.9,3.1,1.9,6.1,2.9,9.2c0.1,0.2,0.3,0.6,0.4,0.7
	c0.8,0.1,0.8,0.7,0.9,1.3c0.1,0.6,0.1,1.1,0,1.7c-0.1,0.4-0.2,0.7-0.2,1.1c0.1,2.2,0.3,4.3,0.5,6.5c0.1,1.4,0.2,2.7,0.3,4
	c0.8,0.3,1.6,0.6,2.3,1s1.1,0.8,1.7,1.1c0.3,0.1,0.7,0.2,1.1,0.2L31.5,70.2z M83.2,41.6c0.6,0.1,0.7-0.1,0.7-0.5
	c0-1.8-0.1-3.7-0.1-5.5c0-1.2-0.9-2.2-2.1-2.3c-1.7-0.1-3.3-0.1-5-0.2c-2.3-0.1-4.6-0.1-6.8-0.1c-1.8,0-3.6,0.1-5.3,0.1
	c-0.2,0-0.5,0-0.7,0l-8.1,0.7c-0.3,0-0.6,0-0.9,0L51.9,34c0.1,0.4,0.1,0.9,0.2,0.9c0.7,0.1,0.4,0.5,0.4,0.9c0,2,0,4.1,0,6.1
	c0,0.2,0.2,0.3,0.3,0.5c0.1-0.2,0.3-0.3,0.4-0.5c0-0.2,0-0.3,0-0.5c0-1.9,0-3.8,0-5.7c0-0.3,0.1-0.5,0.1-0.8h0.3v7.4
	c0.7,0.2,0.7-0.2,0.7-0.6c0-1.4,0-2.8,0-4.2c0-0.9,0-1.7,0-2.7c0.9,0.2,0.9,0.7,0.9,1.3c0,2,0,4-0.1,6c0,0.1,0.1,0.2,0.2,0.5
	c0.1-0.3,0.1-0.6,0.2-0.8c0-0.8,0.1-1.5,0.1-2.3c0-1.3,0-2.7,0-4c0-0.2,0.2-0.4,0.3-0.6c0.2,0.2,0.3,0.4,0.5,0.5
	c0.1,0.1,0,0.3,0,0.4c-0.1,1.4-0.1,2.9-0.2,4.3c0,0.7,0.1,1.4,0.1,2.1h0.3c0.1-0.3,0.1-0.5,0.1-0.8c0-2,0-3.9,0.1-5.9
	c0-0.3,0.1-0.5,0.2-0.8h0.3c0.1,0.2,0.2,0.5,0.2,0.8c0,0.9,0,1.7,0,2.6c0,1.3,0,2.6,0,3.9h0.4c0.1-0.3,0.1-0.6,0.1-0.8
	c0-1.6-0.1-3.2-0.2-4.8c0-0.5,0.1-1,0.2-1.5c0-0.2,0.3-0.3,0.4-0.5l0.2,0.1c0,0.8,0,1.6,0,2.4c0,1.5,0,3,0,4.5
	c0,0.2,0.2,0.4,0.3,0.6c0.1-0.2,0.3-0.5,0.3-0.7c0-2.1,0-4.1-0.1-6.2c0-0.2,0.1-0.4,0.2-0.7h0.2c0.1,0.2,0.1,0.5,0.1,0.7
	c0,2.1,0.1,4.1,0.1,6.2c0,0.6,0.2,0.8,0.8,0.6c0-0.2,0.1-0.5,0.1-0.7c0-2.1-0.1-4.2,0-6.3c0-0.2,0.2-0.5,0.3-0.7
	c0.1,0.2,0.2,0.4,0.3,0.7c0,2.2,0,4.3,0,6.5c0,0.2,0,0.4,0.1,0.6h0.6c0-0.1,0.1-0.1,0.1-0.2c0-2.3,0-4.6,0-6.9
	c0-0.2,0.1-0.4,0.2-0.7l0.3,0.1c0,0.3,0,0.6,0,0.9c0,2.1,0,4.1,0,6.2c0,0.2,0.3,0.4,0.4,0.7c0.1-0.2,0.3-0.5,0.4-0.7
	c0-2.1,0-4.3,0-6.4c0-0.3,0.1-0.5,0.1-0.8h0.3V42h0.8c0-0.3,0-0.7,0-0.9c0-2.1-0.1-4.2-0.1-6.3c0-0.5,0-0.5,0.7-0.5v7.7l0.9-0.1
	v-7.8h0.3l0.3,7.6h0.3c0-0.2,0.1-0.5,0.1-0.7c0.1-2.1,0.1-4.2,0.2-6.3c0-0.5,0.2-0.7,0.8-0.6v7.6h0.3c0-0.2,0.1-0.4,0.1-0.6
	c0-2,0.1-4.1,0.1-6.1c0-0.3,0.1-0.6,0.3-0.9c0.7,0.1,0.4,0.6,0.4,1c0,2,0,4.1,0,6.1c0,0.2,0.2,0.3,0.4,0.5c0.1-0.2,0.3-0.4,0.3-0.6
	c0-1.9-0.1-3.8-0.1-5.7c0-0.3,0-0.6,0.1-1c0-0.1,0.2-0.3,0.3-0.3s0.3,0.2,0.3,0.3c0,0.1,0.1,0.3,0,0.4c0,2.3,0,4.5,0,6.8l0.3,0.1
	c0.1-0.2,0.2-0.4,0.2-0.6c0-1.4-0.1-2.7-0.1-4.1c0-0.9,0-1.7,0.1-2.6c0-0.2,0.2-0.4,0.4-0.6c0.2,0.1,0.2,0.3,0.3,0.5
	c0,1.3,0,2.6,0,3.9c0,1,0,2,0,2.9c0,0.1,0.1,0.3,0.2,0.4c0.1-0.1,0.2-0.2,0.2-0.4c0-0.1,0-0.2,0-0.4c0-2-0.1-4-0.1-6
	c0-0.5,0-0.9,0.8-1.1v7.7c0.7,0.1,0.7-0.3,0.7-0.7c0-2.1,0-4.2,0.1-6.3c0-0.2,0.2-0.4,0.3-0.7c0.2,0.2,0.4,0.5,0.4,0.7
	c0,2.1-0.1,4.2-0.2,6.2c0,0.2,0,0.3,0,0.5c0,0.1,0.2,0.3,0.3,0.3c0.2,0,0.3-0.1,0.3-0.3c0-0.4,0-0.7,0-1.1c0-2-0.1-3.9-0.1-5.8
	c0-0.2,0.2-0.4,0.4-0.5c0.2,0.1,0.4,0.3,0.6,0.5c0.1,0.1,0,0.3,0,0.5c0,1.8,0.1,3.5,0.1,5.3c0,0.3,0,0.5,0.1,0.8
	c0.1-2.2,0.1-4.3,0.1-6.4c0-0.6,0-0.7,0.8-0.5c0,0.8,0,1.7,0,2.6c0,0.9,0,1.8,0,2.7c0.1,2.1,0.1,2.1,0.5,2.5c0-0.4,0.1-0.7,0.1-1
	c0-2,0-4.1,0-6.1c0-0.2,0.3-0.5,0.4-0.7c0.1,0.2,0.2,0.5,0.3,0.7c0.1,2.1,0.1,4.3,0.1,6.4c0,0.2,0.2,0.4,0.3,0.6
	c0.1-0.2,0.3-0.4,0.3-0.6c0-1,0-2-0.1-2.9c0-1.3-0.1-2.5-0.1-3.8c0-0.2,0.2-0.3,0.3-0.5c0.1,0.1,0.3,0.2,0.3,0.4
	c0.1,0.3,0.1,0.7,0.1,1c0,1.9,0,3.8,0.1,5.7c0.1,0.2,0.2,0.5,0.3,0.7l0.3-0.1v-7.6l0.4-0.1c0.1,0.3,0.2,0.5,0.2,0.8
	c0,2.1-0.1,4.2-0.1,6.3c0,0.2,0.1,0.4,0.2,0.7h0.3c0.1-2.5,0-5.1,0.2-7.6c0.2,0.1,0.4,0.3,0.4,0.4c0,2.2,0,4.3,0,6.5
	c0,0.3,0.1,0.5,0.2,0.7l0.2,0c0.1-0.3,0.1-0.6,0.2-0.9c0-1.6,0-3.3,0-4.9c0-0.4,0-0.8,0.1-1.2c0-0.2,0.2-0.3,0.4-0.5
	c0.1,0.2,0.2,0.3,0.2,0.5c0,1.2-0.1,2.3-0.2,3.5c0,1.2,0,2.2,0,3.4l0.3,0.1c0.1-0.2,0.2-0.5,0.2-0.7c0-1.9,0-3.8,0.1-5.7
	c0-0.3,0.1-0.6,0.2-0.9l0.3,0.1L83.2,41.6z M107.7,39.7h0.3c0-0.2,0.1-0.5,0.1-0.7c0-1.8,0-3.5,0-5.3c0-0.2,0.1-0.5,0.1-0.7l0.4,0
	v6.7h0.2c0-0.2,0-0.3,0-0.5c0.1-1.8,0.1-3.5,0.2-5.3c0.1-0.3,0.1-0.5,0.3-0.8l0.2,0.1c0,2.2-0.3,4.5,0.1,6.7c0.1-1,0.2-2,0.2-3
	c0-1.4-0.2-2.8,0.4-4.1l-3.8-0.7c-0.1,0-0.1,0-0.2,0c-3.2,0.2-6.4,0.5-9.6,0.7c-2.7,0.2-5.3,0.4-8,0.5c-0.4,0.1-0.8,0.2-1.2,0.3
	c-0.1-0.9,0.7-0.7,1-0.9c-0.1-0.4-0.1-0.9-0.1-1.3c0-1.6,0-3.3,0.1-4.9c0-0.1,0.3-0.4,0.5-0.4c0.5,0,1.1,0.2,1.6,0.3
	c0.7,0.1,1,0.4,1,1.2c-0.1,1.5-0.1,2.9-0.1,4.4c0,0.2,0.1,0.5,0.2,0.7l0.3-0.1v-5.9c0.7,0.1,1.2,0.3,1.9,0.4c0.6,0.1,0.8,0.4,0.8,1
	c-0.1,1.2,0,2.5,0,3.7c0,0.2,0.1,0.4,0.1,0.5h0.3v-5c1.9-0.1,2.3,0.2,2.3,1.9c0,0.2,0,0.5,0,0.7c0,0.7,0,1.4,0,2.1l0.3,0.1
	c0.1-0.2,0.4-0.4,0.4-0.6c0-1.3,0-2.7,0-4c0.1-0.3-0.1-0.7-0.5-0.7c0,0-0.1,0-0.1,0c-3-0.6-6-1.3-9-1.9c-0.6-0.1-1.2-0.2-1.9-0.3
	l0.4,17c0.3,0,0.7,0,1,0.1c0.7,0.1,0.8-0.2,0.8-0.7c0-0.3-0.1-0.7-0.1-1c0-1.9-0.1-3.8,0-5.7c0-0.3,0.2-0.5,0.5-0.6
	c0.4,0,0.9,0,1.3,0l0.1,0.2c-0.3,0.4-0.7,0.8-1,1.2c-0.2,0.2-0.3,0.4-0.3,0.7c0,1.4,0,2.7,0,4.1c0,0.2,0.1,0.5,0.2,0.5
	c0.2,0.1,0.5,0,0.7-0.1c0.3-0.2,0.7-0.5,1-0.8c0-0.8,0-1.8,0-2.8c0-1-0.2-2,0.3-2.8h0.2v5.9h0.2c0.1-0.3,0.1-0.5,0.2-0.8
	c0-1.5,0.1-3,0.1-4.5c0-0.2,0.1-0.5,0.2-0.7l0.3,0.1v5.8h0.3c0.1-0.3,0.1-0.6,0.1-0.9c0-1.3,0-2.7,0-4c0-0.4,0.1-0.7,0.2-1.1h0.3
	c0.1,0.2,0.1,0.5,0.1,0.7c0,1.6-0.1,3.3-0.1,4.9c0,0.3,0.1,0.6,0.1,0.9h0.2c0.1-2.2,0-4.4,0.4-6.5c0.2,0.4,0.3,0.9,0.3,1.3
	c0,1.6-0.1,3.1-0.2,4.7c0.1,0.2,0.1,0.5,0.3,0.7l0.3-0.1c0-1.1,0-2.1,0-3.2c0-2,0.2-2.8,0.6-3.1c0.1,0.2,0.1,0.3,0.1,0.5
	c-0.1,1.7-0.2,3.4-0.2,5.1c0,0.2,0.1,0.4,0.2,0.6c0.1-0.2,0.3-0.4,0.3-0.5c0-1.7,0-3.4,0.1-5.1c0-0.3,0.1-0.6,0.1-0.9H96v6.5h0.3
	c0-0.2,0.1-0.3,0.1-0.5c0-1.8-0.1-3.5-0.1-5.3c0-0.3,0.1-0.6,0.1-0.9l0.4,0V40c1.6,0.1,1.6,0.1,1.6-1.2c0-1.4-0.1-2.9-0.2-4.3
	c0-0.5-0.1-0.9,0.6-1.2c0.1,0.4,0.2,0.8,0.2,1.2c0.1,1.4,0.1,2.8,0.1,4.2c0,0.4,0.1,0.8,0.2,1.2h0.3c0-0.3,0.1-0.6,0.1-0.9
	c-0.1-1.6-0.2-3.3-0.3-4.9c0-0.6,0.2-0.9,0.9-0.8c0.1,0.4,0.1,0.7,0.1,1.1c0,1.5-0.1,3.1-0.1,4.6c0.1,0.3,0.1,0.5,0.3,0.7
	c0.1-0.2,0.2-0.4,0.3-0.7c0.1-1.8,0.2-3.6,0.2-5.4c0-0.1,0.1-0.2,0.2-0.3c0.7,2.1,0.1,4.2,0.3,6.3c0.1-0.1,0.2-0.3,0.2-0.4
	c0.1-1.7,0.1-3.4,0.2-5.1c0-0.3,0.1-0.6,0.2-0.9l0.4,0.1l-0.3,6.3l3.6-0.2l0.2-6.7h0.3c0.1,0.3,0.1,0.6,0.1,1c0,1.8-0.1,3.6-0.1,5.4
	c0,0.2,0.1,0.5,0.3,0.7c0.1-0.2,0.2-0.4,0.3-0.7c0-1.4-0.1-2.8-0.1-4.2c0-0.5,0-1.1,0.1-1.6c0-0.1,0.2-0.2,0.3-0.4l0.3,0.1
	L107.7,39.7z M107.4,49.4l2.8,0.4c0,0.1,0,0.2,0.1,0.4c0.1,1-0.3,2,0.7,2.7c0.2,0.1,0.2,0.4,0.2,0.6c0.2,0.5,0.3,1,0.5,1.5
	c0.1,0.2,0.2,0.3,0.4,0.4c0.5,0.1,1,0.1,1.5,0.2v-5.1h2.6c0,1.5,0,3,0,4.4c0,0.5,0.2,0.7,0.8,0.5v-3.6c0-1.2,0-1.2,1.2-1.3
	c1.5,0,1.5,0,1.4,1.4c0,0.4-0.1,0.9-0.1,1.3c0,0.7,0,1.4,0,2c0.9,0.4,2-0.1,2.4-1c0.1-0.3,0.1-0.6,0.1-0.9c0-1.3-0.1-2.6,0-3.9
	c0-0.8-0.3-1-1-1c-1.8,0-3.6-0.1-5.4-0.3c-2.2-0.2-4.5-0.5-6.7-0.7c-3.6-0.3-7.2-0.5-10.8-0.8c-2.7-0.2-5.5-0.5-8.2-0.7
	c-1-0.1-2-0.3-2.9-0.4c0,0.1-0.1,0.2-0.1,0.3c0,1.8-0.1,3.6,0,5.4c0,0.6,0.5,0.7,0.7,0.6c0.3-0.8,0.5-1.5,0.8-2.1c0-0.2,0-0.4,0-0.5
	c-0.1-0.6,0.6-1.4,1.1-1.3c0.7,0.2,1.2,0.9,1.1,1.6c0,0.2,0.1,0.4,0.2,0.7l0.2-0.1V48h2.9c0,1.4,0,2.6,0,3.9c0,1.5-0.1,1.1,1.2,1.3
	h0.2c0.4,0,0.6-0.1,0.6-0.6c-0.1-1.2-0.1-2.4,0-3.6c0-0.2,0.3-0.6,0.4-0.6c0.9,0,1.8,0.2,2.7,0.3c0,1.5,0,3,0,4.4
	c0,0.2,0.2,0.4,0.3,0.7c0.2-0.1,0.4-0.3,0.5-0.5c0.2-0.4,0.3-1,0.6-1.2c0.4-0.2,0.6-0.6,0.5-1.1c0.1-0.4,0.4-0.7,0.7-0.8
	c0.3,0,0.9,0.5,0.8,0.7c-0.2,1.2,0.9,1.5,1.2,2.3c0.1-1.1,0.1-2.3,0.1-3.4c0-0.6,0.2-0.7,0.7-0.7c0.5,0.1,1.1,0.2,1.7,0.2
	c0.6,0,0.7,0.3,0.7,0.9c-0.1,1.5,0,3,0,4.6c0.2-0.1,0.4-0.2,0.4-0.4c0.2-0.7,0.3-1.5,0.3-2.2C107.4,51.3,107.4,50.3,107.4,49.4
	L107.4,49.4z M32.6,75.5h0.3c0.1,0.3,0.1,0.6,0.1,0.9c0,1.2,0,2.4,0,3.6c0,0.2,0.2,0.4,0.3,0.6c0.1-0.2,0.3-0.4,0.3-0.6
	c0-1.1-0.1-2.3-0.1-3.4c0-0.3,0-0.6,0-0.9c0.5,0,0.7,0.2,0.7,0.7c0,0.5,0,0.9,0,1.3c0,1.1,0,2.1,0,3.2h0.4c0.2-1.6,0-3.2,0.2-4.8
	c0.2,0.2,0.4,0.4,0.4,0.6c0,1.2,0,2.4,0,3.6c0,0.3,0.1,0.6,0.2,0.9h0.2l0.2-4.9h0.3c0.1,0.3,0.1,0.5,0.2,0.8c0,1.3,0,2.6,0,3.9
	c0,0.2,0.1,0.4,0.1,0.6h0.2c0-0.3,0.1-0.5,0.1-0.8c0-1.2,0-2.4,0-3.6c0-0.2,0.2-0.4,0.3-0.6c0.1,0.2,0.3,0.4,0.4,0.6
	c0,0.1,0,0.1,0,0.2c0,1.3,0,2.7,0,4c0,0.1,0.2,0.2,0.3,0.4c0.1-0.1,0.2-0.3,0.2-0.4c0-0.6,0-1.1,0-1.7c0-0.7,0-1.5,0-2.2
	c0-0.2,0.1-0.4,0.2-0.5c0.1,0.2,0.2,0.4,0.3,0.6c0,0.2,0,0.4,0,0.7c0,1.1-0.1,2.2,0,3.4c0,0.2,0.3,0.5,0.4,0.7
	c0.1-0.2,0.2-0.5,0.3-0.7c0-1.2,0-2.5,0-3.7c0-0.2,0.1-0.4,0.2-0.6l0.3,0.1c0,0.3,0,0.5,0,0.8c0,1.3,0,2.6,0,3.9
	c0,0.2,0.1,0.5,0.2,0.7l0.3-0.1c0-1.4,0-2.8,0-4.2c0-0.2,0.1-0.4,0.2-0.7l0.2,0.1c0,0.2,0,0.5,0,0.7c0,1.3,0,2.6,0,3.9
	c0,0.2,0.1,0.5,0.2,0.7l0.2,0c0.1-0.3,0.1-0.5,0.1-0.8c0-1.1,0.1-2.2,0.1-3.3c0-0.4,0-0.7,0.5-0.5c0,1.7-0.4,3.3,0.1,5
	c0.2-0.2,0.3-0.5,0.3-0.7c0-1.1,0-2.3,0.1-3.4c0-0.2,0.2-0.4,0.3-0.6l0.3,0.1c-0.1,1.4-0.1,2.9-0.2,4.3c0,0.6,0.2,0.8,0.9,0.7
	c0-1.4,0-2.7,0-4.1c0-0.2,0.1-0.4,0.1-0.7l0.3,0.1c0,0.4,0,0.8,0,1.2c0,1.1,0,2.2,0,3.4c0,0.2,0.2,0.3,0.3,0.5
	c0.1-0.2,0.2-0.3,0.2-0.5c0-1.1,0-2.2,0-3.3c0-0.3,0.1-0.5,0.2-0.8l0.3,0c0,0.3,0.1,0.6,0.1,0.9c0,1.1,0,2.2,0,3.3
	c0,0.2,0.1,0.4,0.2,0.7h0.2c0.1-0.2,0.1-0.5,0.1-0.7c0.1-1.1,0.1-2.2,0.2-3.3c0-0.2,0.1-0.4,0.2-0.7l0.3,0.1c0,0.4,0,0.8,0,1.2
	c-0.1,1.1-0.2,2.1-0.2,3.2c0,0.2,0.3,0.4,0.4,0.6c0.1-0.2,0.3-0.4,0.4-0.6c0.1-1.1,0.1-2.2,0.1-3.3c0-0.2,0.1-0.5,0.2-0.7l0.3,0.1
	c0,0.2,0,0.4,0,0.6c0,1.2,0,2.5,0,3.7c0,0.2,0.2,0.4,0.3,0.6c0.1-0.2,0.2-0.4,0.3-0.6c0.1-1,0.1-2.1,0.1-3.1c0-0.2,0.1-0.4,0.1-0.7
	h0.2c0,0.2,0,0.5,0,0.7c0,1.1-0.1,2.3-0.1,3.4c0.1,0.2,0.1,0.5,0.3,0.7c0.1-0.2,0.2-0.4,0.3-0.6c0-1.1,0-2.2,0-3.3
	c0-0.2,0.1-0.5,0.1-0.7h0.3l0.1,2.6c0.6-0.1,0.9-0.3,0.8-0.9c-0.1-0.3-0.1-0.5-0.1-0.8c0-1.7,0-3.4-0.1-5.1c0-0.2,0-0.5-0.1-0.7
	h-0.2c-0.3,0.7-0.2,1.5-0.2,2.2c0,0.7,0,1.5,0.1,2.4c-7.1-3.7-15-4.8-22.5-7c-0.1,0.2-0.2,0.2-0.2,0.2c0.1,1.8,0.2,3.6,0.4,5.3
	c0,0.2,0.3,0.3,0.6,0.6c0-0.2,0.1-0.3,0.1-0.5c0-1.3-0.1-2.7-0.1-4c0-0.2,0.2-0.4,0.2-0.5c0.1,0.2,0.3,0.3,0.3,0.5
	c0,0.6,0,1.2,0,1.9c0,0.9,0,1.8,0,2.9c0.2-0.2,0.4-0.3,0.4-0.4c0.1-1.3,0.2-2.6,0.1-3.9c0-0.5,0-0.7,0.6-0.7
	c0.1,0.4,0.1,0.8,0.2,1.2c0,1.1-0.1,2.3-0.1,3.4c0,0.2,0.1,0.4,0.2,0.6l0.3-0.1v-4.8h0.3c0,0.3,0.1,0.7,0.1,1c0,1.2-0.1,2.3-0.1,3.5
	c0,0.2,0.3,0.5,0.4,0.7c0.1-0.2,0.3-0.5,0.3-0.7c0-1.2,0-2.4-0.1-3.6c0-0.2,0.1-0.4,0.2-0.7l0.2,0.1c0.1,0.2,0.1,0.4,0.1,0.7
	c0,1.3,0,2.5-0.1,3.8c0,0.5,0.1,0.7,0.7,0.7L32.6,75.5z M40,54.1h0.3c0.1,0.3,0.1,0.6,0.1,0.8c0,1.9,0.1,3.7,0.1,5.6
	c0,0.2,0.1,0.7,0.2,0.7c0.6,0,1.1,0,1.7-0.1c0.2,0,0.3-0.5,0.3-0.8c0-1.9,0-3.8,0-5.7c0-0.3,0.1-0.6,0.1-1.1
	c0.2,0.3,0.3,0.4,0.3,0.5c0,1.7,0,3.5,0,5.2c0,0.5,0,1,0,1.5c0,0.2,0.3,0.3,0.7,0.6c0-1.5,0-2.8,0-4c0-1.2-0.1-2.4,0.3-3.6
	c0.1,0.3,0.2,0.6,0.2,0.9c0,2-0.1,3.9-0.1,5.8c0,0.2,0.1,0.5,0.2,0.7c0.2-0.1,0.3-0.2,0.3-0.3c0-2.2,0-4.3,0-6.5
	c0-0.2,0.1-0.4,0.1-0.7l0.3,0c0,0.4,0.1,0.8,0.1,1.2c0,1.8,0,3.5,0,5.3c0.1,0.3,0.2,0.5,0.3,0.7c0.1-0.2,0.2-0.5,0.3-0.7
	c0-2,0-4,0-6c0-0.2,0-0.5,0.1-0.7h0.3c0,0.2,0,0.5,0,0.8c0,1.7,0,3.5,0,5.2c0.1,1.6,0.2,1.7,1.9,1.2c0-2.2,0-4.4,0-6.6
	c0-0.2-0.1-0.3-0.2-0.5c-0.7-0.6-1.3-1.1-2.2-1c-3.2,0.4-6.4,0.8-9.6,1.3c-1,0.2-2,0.5-3,0.8v0.3c0.2,0.2,0.5,0.3,0.7,0.4
	c0.4,0.1,0.5,0.3,0.5,0.7c0,1.7,0,3.3,0.1,5c0,0.8,0.1,0.8,0.9,0.6c0-0.1,0-0.3,0-0.4c-0.1-1.8-0.1-3.6-0.1-5.3
	c0-0.3,0.1-0.5,0.2-0.8l0.3,0.1c0,0.5,0,1,0,1.5c0,1.5,0,3,0.1,4.5c0,0.2,0.2,0.4,0.4,0.6c0.2-0.2,0.3-0.4,0.5-0.6
	c0.1-0.1,0-0.3,0-0.4c-0.1-1.7-0.2-3.4-0.3-5c0-0.2,0-0.5,0.1-0.7h0.3c0.4,2.2-0.1,4.5,0.5,6.9c0.2-0.3,0.4-0.5,0.4-0.7
	c0-2-0.1-3.9-0.1-5.8c0-0.3,0-0.5,0.1-0.8h0.3c0.4,2.3-0.2,4.7,0.3,7.1l0.7-0.1c0-2.1,0-4.2,0-6.2c0-0.2,0.1-0.4,0.2-0.6
	c0.1,0.2,0.3,0.3,0.4,0.5c0,0.4,0,0.8,0,1.2c0,1.5,0,3,0,4.5c0,0.2,0.3,0.4,0.4,0.6c0.1-0.2,0.3-0.4,0.3-0.6c0-1.5-0.1-3.1-0.1-4.6
	C40,55.4,40,54.7,40,54.1L40,54.1z M19.8,70.9c1,0.2,2.2,0.4,3.3,0.7c0.4,0.2,0.8,0,1-0.4c0,0,0,0,0,0c0.2-0.3,0.5-0.6,0.9-0.7
	c0.8-0.3,1.3-1.1,1.2-2c-0.3-3.5-0.6-7-0.9-10.5c-0.1-0.2-0.2-0.4-0.5-0.5c-1.3,0-2.6,0-4,0c0,0.7-0.1,1.1-0.1,1.6
	c-0.2,3.2-0.4,6.4-0.6,9.6C20.1,69.4,20,70.1,19.8,70.9L19.8,70.9z M44.4,75c2,0,2,0,2.8-1.5c0.1-0.2,0.2-0.4,0.3-0.5
	c1.3-2.1,2.2-4.3,1.8-6.9c0-0.2,0-0.5,0-0.7c0-1.1,0-1.1,1.1-1.1c0.2,0,0.3,0,0.5,0c0.2-0.1,0.4-0.3,0.4-0.4c0.1-0.6,0-1.2,0-1.9
	l-2.8,0.2c-2.5,0.2-5,0.4-7.5,0.6c-0.4,0-0.7,0.1-0.7,0.6c0,1.7,0.1,3.4,0.1,5.1c0,0.9,0,1.8,0,2.8l3.7-0.2L44.4,75z M11.5,78.7V79
	c12.2,2.5,24.4,5.1,36.7,7.1c-1.3-0.6-2.7-1.1-4.1-1.6c-3.9-1.1-7.8-2.2-11.8-3.3c-1.8-0.5-3.5-1.2-5.3-1.3
	c-4.8-0.5-9.7-0.8-14.5-1.1C12.2,78.7,11.9,78.7,11.5,78.7L11.5,78.7z M127.6,47.5v-0.2l-2.3-0.1c-3.6-0.2-7.2-0.4-10.8-0.6
	c-1.3-0.1-2.7-0.4-4-0.5c-4.1-0.4-8.3-0.6-12.4-1c-5.4-0.6-10.8-1.5-16.3-1.4c-2.1,0-4.1,0-6.2,0c-0.1,0.5-0.6,0.9-1.2,0.8
	c-0.2,0-0.4-0.1-0.5-0.3l0.7-0.5l-2.2,0.2c-0.2,0.7,0,0.9,0.6,0.9c1.5-0.1,2.9-0.2,4.4-0.3l-0.1-0.2c0.2-0.2,0.4-0.5,0.6-0.5
	c0.4,0.1,0.7,0.2,1,0.5l-0.1,0.2c0.6-0.1,1.2,0.2,1.6-0.4c0.1-0.1,0.7-0.1,0.8,0c0.6,0.5,1.4,0.7,2.1,0.5c1.1-0.2,2.2-0.4,3.4,0.3
	c0.7,0.3,1.5,0.4,2.2,0.4c1,0,2-0.1,3-0.1c0.1,0,0.3,0.1,0.4,0.1c0.3,0.2,0.7,0.3,1.1,0.5c0.4,0.1,0.9,0.1,1.3,0.1
	c4.4,0.4,8.9,0.8,13.3,1.2c0.3,0,0.7-0.2,0.9-0.3c0.6-0.1,1.3-0.1,1.9,0.1c0.3,0.2,0.5,0.5,0.9,0.5l12.5,0.7c0.6,0,1.1,0.1,1.6-0.4
	c0.2-0.2,0.6-0.1,0.8-0.1S127.4,47.5,127.6,47.5z M73,32.5c0-0.4,0-0.7,0-0.9c0-1.5,0-3-0.1-4.5c0-0.6,0.2-0.9,0.7-0.9
	c1.5-0.1,3.1-0.1,4.6-0.2c0.5,0,0.7,0.2,0.7,0.8c0,1.7,0,3.4,0,5.1c0,0.4,0,0.7,0.6,0.6c0-0.2,0.1-0.5,0.1-0.7c0-1.7,0-3.3,0-5
	c0-0.6,0.2-0.8,0.7-0.8c0.5-0.1,1.1-0.1,1.7-0.1v-1.9c-0.9,0-1.7,0.1-2.5,0.1c-2.1,0.2-4.3,0.3-6.4,0.5s-4.2,0.3-6.3,0.4
	c-0.5,0-0.6,0.3-0.6,0.7c0.1,0.8,0,1.6,0,2.5c0,1.4,0.1,2.8,0.1,4.2c0.9,0.1,1,0,1-0.7c0-1.6-0.1-3.3-0.1-5.1l4.9-0.2v6.1L73,32.5z
	 M133.1,82.5c0.7-0.1,1.4-0.1,2.1-0.1c0.8,0,1-0.3,1-1c0-3.4,0-6.8,0-10.1c0-1.6,0-3.2,0-4.7h-3.1L133.1,82.5z M154.6,81.5v-0.3
	c-0.3,0-0.6,0-0.8,0c-2.8,0.3-5.5,0.7-8.3,0.9c-5.1,0.4-10.2,0.9-15.4,1.2c-6.9,0.4-13.8,0.7-20.8,1.1c-2.2,0.1-4.4,0.2-6.6,0.2
	c-3.3,0.1-6.5,0.1-9.8,0.2c-0.2,0-0.5,0.2-0.7,0.4l0.1,0.2c0.2,0.1,0.5,0.1,0.7,0.1c3.6-0.1,7.2-0.2,10.9-0.3
	c3.7-0.1,7.5-0.4,11.2-0.5c4.5-0.2,9-0.3,13.4-0.6c3.5-0.2,6.9-0.5,10.4-0.8c1.4-0.1,2.9,0,4.3-0.2c2.9-0.3,5.7-0.8,8.6-1.2
	L154.6,81.5z M80.5,86.1v-0.2l9.7-0.3c0.3,0,0.6,0,0.9-0.1c0.2-0.1,0.3-0.2,0.3-0.4c0-0.2-0.1-0.3-0.3-0.4c-0.2,0-0.4,0-0.6,0
	C86.7,84.8,82.9,85,79,85c-2.2,0-4.4,0-6.5-0.2c-3.3-0.2-6.7-0.5-10-0.7c-2.6-0.2-5.2-0.3-7.8-0.4c-1.5,0-2.9,0.1-4.4,0.2
	c-0.2,0-0.4,0.3-0.5,0.4c0.2,0.1,0.4,0.2,0.6,0.3c0.2,0,0.5,0,0.7,0l12.6,0.6l6.5,0.3L80.5,86.1z M61.5,63.5l0.1,0.3
	c1.7,0,3.3,0.1,5,0c0.7,0,0.8,0.2,0.8,0.8c0,2.9,0.1,5.8,0.1,8.6c0,0.2,0,0.4,0.1,0.7h1v-10c0.3,0,0.6,0,0.8,0c2,0,4,0,6,0
	c0.9,0,0.9,0,0.9,0.9c0,2.5,0,5.1,0,7.6c0,0.7,0,1.4,0,2.2l1,0c0-0.7-0.1-1.2-0.1-1.7c0-2.7,0-5.5-0.1-8.2c0-0.7,0.2-0.9,0.9-0.9
	c0.6,0,1.2,0.1,1.9,0c0.1,0,0.3-0.3,0.4-0.4C80,63.2,79.9,63,79.7,63c-0.5,0-0.9,0.1-1.4,0.1c-5.2,0-10.5,0.1-15.7,0.1
	C62.2,63.2,61.8,63.3,61.5,63.5L61.5,63.5z M68.2,84l2.5,0.2c0-0.2,0-0.4,0-0.5c0-2.6-0.1-5.2-0.2-7.7c0-0.2-0.2-0.4-0.3-0.7
	c-0.1,0.2-0.3,0.5-0.3,0.7c0,1.5,0.1,2.9,0.2,4.4c0,0.3-0.1,0.6-0.2,0.9l-0.4,0v-6h-0.4c-0.3,1.5,0,3.1-0.2,4.6
	c-0.2-0.2-0.4-0.4-0.4-0.7c0-1,0-2.1,0-3.1c0-0.3-0.1-0.5-0.1-0.8c-0.5,0.9,0.2,2-0.5,2.9c-0.1-0.4-0.2-0.8-0.2-1.2
	c0-0.4,0-0.9-0.1-1.3c0-0.7-0.6-0.6-1-0.7c-0.4,0-0.6,0.3-0.6,0.8c0.1,1.3,0.1,2.6,0.1,3.9c0.1,1.2,0.2,2.4,0.2,3.6
	c0,0.2-0.2,0.3-0.3,0.5c-0.1-0.2-0.3-0.3-0.3-0.5c-0.1-2.5-0.1-5-0.2-7.4c0-0.2-0.1-0.4-0.1-0.6h-0.2c0,0.3-0.1,0.6-0.1,0.9
	c0,1.6,0.1,3.1,0.1,4.7c0,0.8,0,1.7,0,2.5c0,0.6,0.3,0.7,0.8,0.7c0.5,0,0.5-0.4,0.5-0.7c0-0.8,0-1.6,0-2.5c0.1-0.3,0.2-0.5,0.3-0.7
	l0.3,0.1v3.6h0.3l0.2-4.1h0.3C68.3,80.9,68.1,82.4,68.2,84L68.2,84z M24.6,54.4c0-0.2,0-0.3,0-0.5c-1.5-4.8-3-9.6-4.5-14.4
	c-0.1-0.3-0.3-0.5-0.4-0.8c0,0.2,0,0.4-0.1,0.6c0.3,2.6,0.2,5.3,0.9,8c0.4,1.7,0.4,3.6,0.5,5.4c0,0.2,0.1,0.7,0.2,0.7
	C22.3,53.8,23.4,54.1,24.6,54.4L24.6,54.4z M17.7,54.8c0.6-0.3,1-0.5,1.4-0.7c1.5-0.7,1.6-0.7,1.4-2.3c-0.2-1.3-0.5-2.6-0.8-3.9
	c-0.1-0.2-0.1-0.5-0.1-0.7c0-0.2-0.1-0.5-0.1-0.7c-0.1-1.4-0.1-2.7-0.2-4.1c-0.1-1.4-0.2-2.7-0.3-4c-0.5-0.1-0.8,0.1-0.8,0.6
	c-0.1,2.4-0.2,4.8-0.2,7.1c-0.1,0.7-0.1,1.5,0,2.2c0.3,1.3,0.3,2.6,0.1,3.9C17.9,53,17.8,53.7,17.7,54.8L17.7,54.8z M54.7,51.2
	c-0.1-1.9-0.1-3.7-0.2-5.4c0-0.2,0-0.4,0.1-0.6c0-0.4,0.3-0.7,0.7-0.7c0,0,0,0,0.1,0c0.9,0,1.7,0,2.6-0.1s1,0.2,0.9,1
	c-0.1,0.7,0.2,0.9,0.8,0.7s1-0.2,1,0.6c0,0.3,0.3,0.6,0.5,1l2.1-2.9l-0.1-0.2c-0.3,0-0.6-0.1-0.9,0c-0.7,0.1-1.3,0.3-1.9,0.4
	c-0.4,0.1-0.7,0.1-0.8-0.4c-0.1-0.2-0.4-0.5-0.6-0.5c-1.4,0-2.8,0-4.2,0.1c-0.4,0.1-0.6,0.4-0.8,0.7c-0.1,0.7-0.4,0.8-1,0.7
	c-0.6-0.1-0.7,0.2-0.7,0.7c0,0.7,0,1.3,0,2c0,1.1,0,2.1,0,3.3L54.7,51.2z M72.3,45.2c0,1.7,0,3.2,0,4.7c0,0.2,0.3,0.4,0.7,0.7
	c0-1.5,0-2.7,0-4c0-0.7,0.3-1,0.9-1c1.3,0,2.7-0.1,4-0.1c0.6,0,0.8,0.2,0.8,0.8c0,1.2,0,2.3,0,3.5c0,0.5,0.1,0.7,0.7,0.7
	c0.6,0,0.7-0.2,0.7-0.7c0-0.2,0-0.5-0.1-0.7c-0.2-0.6,0.2-0.8,0.7-0.7c0.5,0,1,0,1.5,0c0.2-0.1,0.4-0.2,0.4-0.4c0-0.8,0-1.6,0-2.5
	c-0.1-0.2-0.3-0.3-0.5-0.4c-2.3,0.1-4.6,0.1-6.8,0.2C74.2,45.3,73.3,45.2,72.3,45.2L72.3,45.2z M77.1,75.5c-0.7-0.1-1.3-0.1-1.8-0.2
	s-0.8,0.2-0.8,0.8c0,2.6,0,5.1,0,7.7c0,0.2,0,0.4,0.1,0.7c0.3,0,0.5,0,0.8,0c0.7,0.1,0.9-0.2,0.9-0.9c-0.1-0.8-0.1-1.6-0.1-2.5
	c0-0.2,0.1-0.5,0.2-0.7l0.3,0l0.2,4h0.2L77.1,75.5z M49.1,8.4C49.1,8.4,49.1,8.5,49.1,8.4c-0.4,0.5-1,0.8-0.5,1.5
	c0.1,0.1-0.1,0.4-0.3,0.5c-0.6,0.5-0.6,0.5-0.4,1.3c1-0.9,1.8-0.2,2.8,0.2c0.1-1.6-1.5-0.7-1.9-1.3c0-0.6,0-1.1,0.2-1.7
	c0.4-0.6,0.8-1.1,1.3-1.6c0.2-0.3,0.3-0.6,0.4-1c-1.3,0.3-1.5,0.1-1.3-1c0-0.1,0.1-0.2,0.1-0.4c0-0.3,0-0.7,0-1L49.3,4
	c-0.3,0.4-0.7,0.8-0.8,1.2c-0.1,0.9-0.6,1.8-1.3,2.4c-0.8,0.8-1.4,1.8-2.2,2.7c-0.6,0.7-0.9,1.5-0.9,2.4c0,0.6,0.1,1.2,0.2,1.8
	c0.9,0,1.6-0.6,1.8-1.4c0.1-1.2,0.6-2.4,1.4-3.3c0.1-0.1,0.1-0.3,0-0.5c-0.2-0.9,0.1-1.8,0.9-2.3L49.1,8.4z M61.4,79.6
	c0.1-0.5,0.3-0.9,0.9-0.8c0.1,0,0.2-0.1,0.2-0.1c0.5-0.4,1.1-0.8,1.5-1.2c0.3-0.2,0.5-0.5,0.7-0.9c0-0.6,0-1.2-0.1-1.8h-1.8v0.9
	l-1.2,0.7L61.6,75h-0.3c0,0.4,0.1,0.9,0.1,1.3c0,0.3-0.2,0.9-0.4,0.6c-0.3-0.3-0.7-0.1-0.9-0.3v-1.3l-0.5,0.2
	c-0.4-1-1.1-0.5-1.7-0.6c-0.2,3,0.8,3.8,3.4,4.2L61.4,79.6z M19.2,70.2h0.3l0.9-12.5c-1.8-0.5-2.2-0.2-2.2,1.4c0,0.2,0,0.3,0,0.4
	c0.2,2.5,0.3,5,0.5,7.6C18.8,68.1,19,69.1,19.2,70.2L19.2,70.2z M78.7,65.3c0,0.2-0.1,0.4-0.1,0.5c0,2.5-0.1,5-0.1,7.6
	c0,1.4,0,1.4,1.3,1.3c0,0,0.1-0.1,0.3-0.2c0-1.8,0-3.8,0-5.7c0-1.3,0-1.3,1.3-1.4c0.1,0,0.1-0.1,0.2-0.1c0.2-0.8-0.1-1.1-0.8-1.1
	c-0.5,0-0.7-0.2-0.7-0.7c0-0.2-0.3-0.4-0.5-0.4C79.2,65.2,78.9,65.3,78.7,65.3L78.7,65.3z M82.7,5.8h3.3l0.7-3.6
	c-1.2,0.8-1-0.7-1.5-0.9l-1,1.2l-0.2-0.1c0-0.3-0.1-0.6-0.2-0.9c-0.1-0.1-0.2-0.2-0.4-0.3c-0.1,0-0.3,0.1-0.3,0.2
	c-0.4,0.9-0.4,0.9-1.2,0.4c-0.1-0.1-0.2-0.1-0.4-0.2L82.7,5.8z M73.4,74.1c0-0.9,0-1.9,0-2.8c0-0.2-0.3-0.4-0.5-0.4
	c-1.1,0-2.2,0-3.3,0c-0.4,0-0.5,0.2-0.5,0.5c0,0.7,0,1.3,0,2c0,0.4,0.2,0.6,0.6,0.6C70.8,74,72.1,74.1,73.4,74.1z M127.3,52.1
	l-0.2,0c-0.1,0.2-0.1,0.4-0.2,0.7c0,0.7,0.2,1.4,0.2,2.1c0,0.6,0.5,0.9,1,0.5c0.2-0.1,0.4-0.3,0.5-0.5c1.4-2.2,2.7-4.4,4.1-6.5
	c0.1-0.2,0.2-0.4,0.4-0.7h-1l-0.3,1h-0.2l-0.2-1.1c-0.5,0.7,0.4,1.9-0.9,2.2c-0.1,0.9-0.1,0.9-0.6,1.1c-0.1-1,0.1-2-0.2-3
	c-0.3,1.3,0.1,2.7-0.2,3.9h-0.4v-2.9h-0.3c-0.1,0.3-0.1,0.5-0.2,0.8c0,1,0,2,0,3.1c0,0.2,0,0.5-0.1,0.7h-0.3l-0.1-2.8h-0.3
	c-0.3,1.4,0,2.8-0.1,4.2h-0.3L127.3,52.1z M54.9,3.5l-0.6,0.7l-0.9-0.7l0.7,3.7h3.3l0.9-3.3l-0.6,0.5l-0.9-1.3L56,4.3L54.9,3.5z
	 M57.1,82.9h-0.3c-0.1-0.3-0.1-0.5-0.1-0.8c0-2.1-0.1-4.3-0.1-6.4c0-0.5,0-0.8-0.7-0.7c-0.6,0-0.8,0.2-0.8,0.8
	c0.1,0.9,0,1.8,0.1,2.7c0.1,1.6,0.2,3.2,0.3,4.9c0.6,0,1.1,0,1.6,0c0.2,0,0.4-0.2,0.4-0.4c0-1.6,0-3.2,0-4.7c0-0.2-0.1-0.4-0.2-0.6
	l-0.2,0.1L57.1,82.9z M21.7,56.8L21.7,56.8c1,0,2.1,0,3.1,0c0.3,0,0.7-0.1,0.8-0.3c0.1-0.7-0.3-1.3-0.9-1.5c-1.8-0.4-3.6-0.8-5.3,0
	c-0.4,0.2-0.8,0.2-1.2,0.4c-0.2,0.1-0.5,0.4-0.5,0.6c0,0.4,0.1,0.8,0.7,0.8C19.4,56.7,20.6,56.8,21.7,56.8L21.7,56.8z M65,16.5
	l-0.2,0.2c0.8,0.8,0.2,1.5,0,2.2l4.7-0.3l-0.2-2.1L65,16.5z M50.6,73.6h0.4c0.1-1.5-0.2-3.1,0.2-4.6l0.3,0.5v-2.5
	c-1.9,2.4-2.7,5.2-4.3,7.7l1.5-0.1v-1.4H49l0.2,1h0.1l0.1-2.3h0.4v2.3h0.3v-3.7l0.3,0c0.1,0.5,0.2,1,0.2,1.5S50.6,73,50.6,73.6
	L50.6,73.6z M64.4,73.6c-0.6-1.6-2-2.6-3.3-2.4c-2,0.3-2.8,0.8-3.3,2.6c0.7,0.2,1.5,0,2.1-0.6c0.5-0.7,1.5-0.9,2.2-0.4
	c0.1,0.1,0.3,0.2,0.4,0.4C62.9,73.9,63.8,74.1,64.4,73.6L64.4,73.6z M55.8,61.5c-0.8,0.1-1.6-0.2-2,0.6c-0.7,1.2-1.4,2.3-1.1,3.8
	c0.1,0.6,0.1,1.2,0.1,1.8c0,0.7,0.1,1.3,0.1,2h0.3c0.7-1.8-0.2-3.8,0.2-5.7l0.3-0.2l0.1,0.7l0.2-0.2c0-0.3,0-0.5,0-0.8
	c0.1-0.2,0.1-0.3,0.2-0.5c0.1,0.2,0.2,0.3,0.2,0.5c0,0.7,0,1.4,0,2.2c0,0.4,0.1,0.8,0.2,1.2H55c0-0.3,0.1-0.7,0.1-1
	c0-1.1-0.1-2.2-0.1-3.3c0-0.2,0.1-0.4,0.2-0.7l0.2,0l0.2,3.4h0.2L55.8,61.5z M32.6,87.9v0.2c0.4,0.5,6.1,2.4,6.8,2.2
	c-0.3-1.8-0.4-2-2.2-2.1c-0.2,0-0.3,0-0.4-0.1L32.6,87.9z M107.4,54.9l3.8,0.3c-0.1-0.9-0.5-1.8-1.2-2.4c-0.3-0.3-0.6-0.4-0.6-0.9
	c0.1-0.5-0.1-0.7-0.7-0.7c-0.5,0-0.4,0.4-0.4,0.8c0,0.3,0.1,0.7,0,0.7C107.7,53.3,107.7,54.1,107.4,54.9z M104.4,41.5
	c0,0.8,0,1.5,0,2.2c0,0.2,0.2,0.4,0.4,0.5c0.8,0.2,1.5,0.3,2.4,0.4c0-1,0-2,0-2.9c0-0.2-0.4-0.5-0.6-0.5
	C105.9,41.3,105.2,41.4,104.4,41.5z M75.8,18.4v-2.2h-3.9c0.3,0.8,1,1.5,0,2.3l0.2,0.1L75.8,18.4z M100.3,43.4v0.3l3.5,0.3
	c0-0.6,0-1.1,0-1.5c0-0.9-0.1-1-1-0.9c-1.3,0.1-2.7,0.2-4,0.3L98,41.9c0.9,0.2,1.9,0.2,2.8,0.3c0.2,0,0.4,0.2,0.6,0.3
	c-0.1,0.2-0.3,0.4-0.5,0.6C100.7,43.3,100.5,43.4,100.3,43.4z M50.9,75.6c0,0.7,0,1.4,0,2.1c0,1.7,0.1,3.3,0.2,5
	c0,0.6,0.3,0.7,0.7,0.5c0-2.3,0-4.6,0-6.9C51.8,75.7,51.5,75.3,50.9,75.6z M91.3,52.8c-0.1-0.6-0.4-1.2-0.7-1.8
	c-0.5-0.4-0.8-1.1-0.6-1.8c0-0.2-0.4-0.4-0.7-0.7c-0.2,0.2-0.3,0.4-0.4,0.7c-0.1,0.3,0,0.7-0.1,1c-0.2,0.6-0.5,1.2-0.9,1.9
	L91.3,52.8z M125.8,49.9l-0.2,0c-0.1,0.2-0.2,0.5-0.2,0.7c0,0.9,0,1.7,0,2.6c0,0.3-0.1,0.6-0.2,0.9h-0.2v-2.8h-0.2
	c-0.5,1.2,0.1,2.6-0.4,3.8H124l-0.1-2.1h-0.2c0,0.7-0.1,1.3-0.1,2c0,0.2,0.2,0.7,0.3,0.7c0.3,0,0.8-0.1,0.9-0.3c1-1.6,2.3-3,1.8-5.1
	c0-0.4,0-0.9,0-1.3h-0.2c-0.2,1.2,0.1,2.4-0.3,3.6h-0.3L125.8,49.9z M53.8,83.2l-0.4-7.8c-0.6-0.1-0.8,0.1-0.8,0.7
	c0.1,1.2,0.1,2.4,0.1,3.6c0,1.2,0,2.4,0,3.6L53.8,83.2z M80.2,29c0,0.8,0,1.5,0,2.3c0,1.1,0,1.1,1.1,1.3c0.5,0.1,0.8-0.1,0.8-0.6
	c0-1-0.1-1.9-0.1-2.9L80.2,29L80.2,29z M58.5,71.5c1.2-0.3,1.3-0.4,1.4-1.5c0-0.8,0-1.6,0-2.4c0-0.4,0-0.7,0-1.2
	C58.2,67.8,58,69.5,58.5,71.5L58.5,71.5z M71.6,30.6L71.6,30.6c0-0.5,0-0.9,0-1.4c-0.1-0.7-0.7-0.5-1.1-0.6
	c-0.4-0.1-0.6,0.2-0.6,0.6c0,0.8,0.1,1.6,0,2.5c0,0.8,0.4,0.8,1,0.9c0.7,0,0.6-0.5,0.6-0.9C71.6,31.2,71.6,30.8,71.6,30.6L71.6,30.6
	z M66.9,70.4L66.9,70.4c0-1.1,0-2.1,0-3.2c0-0.2-0.2-0.4-0.4-0.5c-0.1,0.2-0.4,0.3-0.4,0.5C66.1,68,66,68.9,66,69.8
	c0,1.1,0,2.3,0.1,3.4c0,0.2,0.2,0.7,0.3,0.7c0.5,0.1,0.5-0.3,0.5-0.6C66.9,72.3,66.9,71.3,66.9,70.4L66.9,70.4z M71.5,45.1L71.4,45
	c-0.8,1-1.5,2.1-2.3,3.1c-0.7,0.8-0.6,1.5-0.3,2.6c0.1-0.2,0.3-0.4,0.3-0.7c0-0.3,0-0.6,0-0.9c0.1-0.3,0.2-0.6,0.3-0.9
	c0.1,0.3,0.2,0.6,0.2,0.9c0,0.4,0,0.7,0,1.1H70v-2.9l0.3,0l0.4,1c0.3-0.6-0.5-1.4,0.6-2v3.9h0.3V45.1z M103.4,54.4
	c-0.6-0.8-1-1.5-1.5-2.1c-0.1-0.2-0.1-0.4-0.1-0.7c-0.1-0.3-0.1-0.5-0.2-0.8c0,0-0.3,0-0.3,0c-0.1,0.2-0.1,0.5-0.2,0.7
	s-0.1,0.7-0.3,0.7c-0.7,0.4-0.7,1-0.8,1.6L103.4,54.4z M92.1,23.7c-0.2,1.2-0.2,1.2,0.8,1.5c0.9,0.3,1.8,0.5,2.7,0.7
	c0.2,0,0.5-0.2,0.5-0.4c0.2-0.5-0.2-0.9-0.7-1C94.3,24.3,93.2,24,92.1,23.7z M75.3,74.4l0.3-0.2c0-1,0-2.1,0-3.1
	c0-1.3,0-2.6-0.1-3.9c0-0.2-0.2-0.4-0.3-0.6c-0.1,0.2-0.3,0.4-0.3,0.6c0,2.2,0,4.5,0,6.7C74.9,74.1,75.1,74.2,75.3,74.4z M21.1,37.6
	c0-0.7-0.3-1-0.8-0.9c-1.5,0.1-2.9,0.3-4.4,0.4c-0.1,0.4-0.2,0.8,0.4,0.8C17.9,37.8,19.5,37.7,21.1,37.6z M62.3,16.7l-3.6,1.4
	l0.1,0.4l3.5,0.4V16.7z M50.3,60.2c1,0.2,1,0.2,1.1-0.8c0-0.7-0.1-1.5,0-2.2c0.1-0.7-0.3-1.4-1-1.6L50.3,60.2z M60.3,67.6h4.3
	l-0.1-0.9h-4.2V67.6z M72.4,84.2c0.7-0.6,0.4-8.5,0-8.8V84.2z M73.4,29l0.2,3.4l1,0.1c0-0.9,0-1.6,0-2.4C74.6,29.3,74.4,29,73.4,29
	L73.4,29z M172.1,83.1v0.2h3.6l0.1-1c-0.5,0-0.9-0.1-1.2-0.1c-0.2-0.1-0.5-0.1-0.7-0.3l0.5-0.8l-1.4,0.4l0.8,1.2L172.1,83.1z
	 M58.9,46.5v3.7l0.2,0.1l1.5-2.3L58.9,46.5z M70.7,16.3c-0.6,0-1,0.5-1,1c0,0,0,0,0,0.1c0,0.6,0.6,1.1,1.2,1c0,0,0,0,0,0
	c0.5,0,0.9-0.2,0.9-0.8c0.1-0.6-0.3-1.2-1-1.3C70.8,16.3,70.8,16.3,70.7,16.3L70.7,16.3z M131.3,55.3v-3.5c-1.2,1.5-1.4,2.3-1.1,3.5
	H131.3z M73.6,84.2h0.2v-8.9C73.3,75.6,73.3,82.8,73.6,84.2L73.6,84.2z M73.2,66.8c-0.3,0-0.6-0.1-0.9-0.1c-0.8,0-1.7,0-2.5-0.1
	s-0.9-0.1-0.8,0.9h4.2L73.2,66.8z M64.7,17.7c0-0.5-0.4-0.9-1-0.9c-0.5,0-1,0.4-1.1,0.9c0,0,0,0,0,0c-0.1,0.6,0.3,1.1,0.9,1.2
	c0,0,0,0,0,0C64.2,18.8,64.7,18.3,64.7,17.7C64.7,17.7,64.7,17.7,64.7,17.7z M54.5,75.3h-0.3c0.1,2.6,0,5.3,0.3,7.9h0.4L54.5,75.3z
	 M76.3,29.2v3.2l0.3,0.2c0-1.2,0.7-1.5,1.6-1.5c-1.1-0.1-1.4-0.3-1.4-0.9c0.1-0.7,0.4-0.9,1.4-0.7C78.2,28.8,78.2,28.8,76.3,29.2
	L76.3,29.2z M68.9,70l0.2,0.3c1.3,0,2.5,0,3.8,0c0.2,0,0.3-0.2,0.5-0.3c-0.2-0.1-0.3-0.3-0.5-0.3c-1.1-0.1-2.2-0.1-3.3-0.1
	C69.4,69.5,69.1,69.8,68.9,70z M60.6,83.6l0.2-0.2c0-1.3,0.3-2.7-0.4-4.1c-0.2,0.3-0.3,0.4-0.3,0.6c0,1.1,0,2.2,0,3.3
	C60.1,83.3,60.4,83.5,60.6,83.6z M64.8,78.7c-0.8,0.5-0.7,4.5,0,5.1V78.7z M81,17.1L81,16.8l-2.4-0.6V18L81,17.1z M64.6,70.2
	l0.1-0.2c-0.1-0.1-0.2-0.3-0.3-0.4c-1.3,0-2.5,0-3.8,0c-0.1,0-0.2,0.2-0.3,0.3c0.1,0.1,0.2,0.3,0.3,0.3C62,70.2,63.3,70.2,64.6,70.2
	L64.6,70.2z M49.5,53.3l0.5-0.7l0.2,0.1l0.1,1.1h0.1l0.3-1.2h0.3l0.1,1.8h0.2V52l-2.8,0.4L49.5,53.3z M153.6,80.5v-0.2h-5v0.8
	L153.6,80.5z M77.2,16.3c-0.5,0-1,0.2-1,0.8c0,0.6,0.4,0.8,0.9,0.8s0.9-0.2,0.8-0.8C77.9,16.8,77.9,16.2,77.2,16.3z M49.4,55v5.5
	C49.9,60,50,56,49.4,55L49.4,55z M57.7,69.7c-0.9,1.2-0.3,2.6-0.4,3.8C58,72.4,58.1,70.9,57.7,69.7z M81.9,14.4
	c-0.7,0.1-1.2,0.3-1.3,0.9c0,0.2,0,0.7,0.2,0.8c0.3,0.1,0.7,0.2,1.1,0.1c0.1-0.2,0.1-0.5,0.1-0.7C81.9,15.1,81.9,14.8,81.9,14.4z
	 M64.9,48c0.2-0.2,0.4-0.4,0.4-0.5c0-1.1,0-2.3-0.1-3.4c0-0.1-0.2-0.2-0.4-0.3c-0.1,0.1-0.2,0.2-0.2,0.3
	C64.8,45.4,64.8,46.6,64.9,48z M92.4,30.4c1.4,0.2,1.7,0.2,1.4-1.4h-1.4V30.4z M124,50.7l0.2,0.1l1.3-2.1c-1.6-0.1-1.7-0.1-1.6,1.3
	C124,50.2,124,50.5,124,50.7L124,50.7z M62.9,79.9l-0.2-0.1c-0.1,0.1-0.3,0.3-0.3,0.4c-0.2,1.2,0,3.1,0.5,3.5V79.9z M92.4,32.3
	c1.6,0.2,1.7,0.1,1.4-1.2C92.3,30.9,92.2,31,92.4,32.3L92.4,32.3z M90.7,30.9c-0.5,0.2-0.9,0.2-1.1,0.4c-0.2,0.3-0.1,0.6,0,0.9
	c0.2,0.2,0.7,0.2,1.1,0.3V30.9z M122.1,29.8c1.2,0.2,2.5-0.7,2.5-1.6C123.8,28.7,122.8,28.8,122.1,29.8L122.1,29.8z M63.9,49
	c0.6-0.4,0.6-2.9,0-4C63.6,46.4,63.9,47.7,63.9,49z M122.2,28.5c1.2,0.1,2.7-0.8,2.5-1.6C123.9,27.5,122.9,27.6,122.2,28.5
	L122.2,28.5z M68,27.8c-0.2,1.9-0.1,2.1,0.8,1.9C68.8,28.3,68.9,27.9,68,27.8L68,27.8z M61.4,83.7c0.6-1,0.7-3,0-3.7V83.7z
	 M67.9,30.5v1.9c0.8,0,0.8,0,0.9-0.7C68.9,30.5,68.9,30.5,67.9,30.5z M89.6,30.4c1.2,0.1,1.4-0.2,1-1.3C89.5,29,89.4,29.2,89.6,30.4
	L89.6,30.4z M59.4,83.5v-3.8C58.9,80.3,58.9,82.8,59.4,83.5L59.4,83.5z M63.3,46.4h-0.2v3.8h0.2V46.4z M48.3,75.8
	c-0.2,0.1-0.5,0.3-0.5,0.4c0.1,0.9-0.3,1.8,0.2,2.6h0.3L48.3,75.8z M49.3,79.3v-3.8C48.7,76.5,48.7,78.7,49.3,79.3L49.3,79.3z
	 M119.5,26.9c-0.7,0.2-1.3,0.8-1.4,1.6C119.3,28.5,119.7,27.9,119.5,26.9L119.5,26.9z M62.5,50.8v-3.5C62,47.8,61.9,50.2,62.5,50.8z
	 M124.6,26.1c-1.5,0.1-2,0.4-2,1.2C123.4,27.3,124.2,26.8,124.6,26.1L124.6,26.1z M127.1,48.4v2.6C127.8,50.3,127.8,49.2,127.1,48.4
	L127.1,48.4z M119.4,30.1l-0.2-0.2c-0.3,0-0.5,0.1-0.8,0.3c-0.2,0.2-0.3,0.4-0.4,0.6c0,0.1,0.1,0.5,0.2,0.5c0.2,0,0.5-0.1,0.7-0.2
	C119.1,30.8,119.3,30.4,119.4,30.1z M56.6,64.6v-3.3C56.1,61.6,56.2,63.6,56.6,64.6L56.6,64.6z M64.6,72.4v-1.6l-1.5,0.1L64.6,72.4z
	 M81.9,18.6l0.1-1.5L80.4,18v0.2L81.9,18.6z M63.7,50.3l0.1,0.4l2.5-0.2v-0.2C65.5,50.1,64.6,50.1,63.7,50.3z M95.3,23.9
	c-0.5-1-1.4-1.2-2.2-0.5L95.3,23.9z M71.6,83.9h0.1v-5.1h-0.1V83.9z M80.1,57.1c0,0.3-0.1,0.7-0.1,1c0.1,0.3,0.1,0.7,0.2,1
	c0.2-0.3,0.3-0.7,0.4-1.1C80.6,57.8,80.8,57.3,80.1,57.1L80.1,57.1z M58.3,83.2h0.1v-3.7h-0.1V83.2z M145.8,56.7
	c-0.5,1.2-0.5,3.4,0,3.9V56.7z M66.2,43.9h-0.2v2.6h0.2V43.9z M95.8,31v1.3c1,0,1-0.1,0.7-1.3H95.8z M96.5,28.9
	c-0.8,0-0.9,0.2-0.7,1.4l0.7,0V28.9z M146.7,56.3h-0.2v4h0.2V56.3z M118,60.1l-0.1,2.1C118.5,61.6,118.6,60.7,118,60.1
	C118,60.1,118,60.1,118,60.1L118,60.1z M63.6,80.3h-0.2v3.3h0.2V80.3z M65.8,47.7l0,0.3c0.8,0.2,1.7,0.1,2.5-0.2v-0.3L65.8,47.7z
	 M66.8,46.7l0,0.3c0.8-0.1,1.6,0.3,2.3-0.2v-0.3L66.8,46.7z M41.1,91.5c0.4,0.1,0.8-0.1,0.9-0.5c0-0.1,0-0.2,0-0.3
	c0-0.1-0.3-0.4-0.5-0.4C40.9,90.6,41.1,91.1,41.1,91.5z M123.1,55.6L123,54h-0.3c0,0.2,0,0.4,0,0.6c-0.1,0.2-0.2,0.3-0.4,0.4
	c-0.2,0.1-0.4,0.2-0.6,0.2l0.1,0.2L123.1,55.6z M53.8,67.9H54c0.3-0.7,0.2-1.5-0.3-2.1V67.9z M44.4,77.2l0.2-0.2
	c-0.1-0.2-0.1-0.7-0.2-0.7c-0.4-0.1-0.8-0.1-1.2,0l0,0.3L44.4,77.2z M68.3,44.7c0.8,0.5,1.9,0.4,2.2-0.2L68.3,44.7z M48.6,58.3
	c0.4-0.8,0.4-3.8,0-4.2V58.3z M171.1,82.2c0.2,0.7,1,0.7,1.8,0H171.1z M47.2,76c-0.5,0.6-0.5,1.6,0,2.2V76z M61.9,73.8
	c-0.7-0.7-1.2-0.7-1.6,0H61.9z M119.6,29l-0.2-0.4l-1.3,0.8l0.2,0.3L119.6,29z M54.8,73.9c1,0.1,1.1-0.1,0.8-1.2L54.8,73.9z
	 M83.1,57.4h-0.3l-0.1,1.9H83L83.1,57.4z M125.5,42.7h-0.2v2.7h0.2V42.7z M126.3,55.3h0.2v-2C126,54,126.5,54.7,126.3,55.3
	L126.3,55.3z M53.4,61.8l-0.1-0.2c-0.2,0-0.6,0-0.6,0.1c-0.1,0.3-0.1,0.6-0.1,0.9l0.2,0.1L53.4,61.8z M63.9,91l-0.5-0.4
	c-0.2,0.2-0.3,0.4-0.5,0.7c0,0,0.2,0.3,0.3,0.3C63.4,91.4,63.7,91.2,63.9,91L63.9,91z M69.6,45.8v-0.1h-2.1v0.1H69.6z M118,31.8
	l0.1,0.9l1-0.8l-0.1-0.2L118,31.8z M119.1,60.3c-0.4,0.5-0.4,1.2,0,1.7V60.3z"/>
<path class="st0" d="M170.9,86.3c-0.2,0.7-1,1.2-1.7,1c-0.8,0-1.6,0-2.3,0c-0.5,0-1-0.2-1.5-0.3c-0.5-0.1-1,0-1.4,0.1l0.8,0.5
	c-0.3,0.1-0.5,0.2-0.8,0.3c-1.2,0.1-2.3,0.1-3.5,0.1c-0.9,0-1.8-0.1-2.7-0.1c-0.6,0-1.2,0-1.8,0.1c-1.2,0.3-2.4,0.3-3.6,0.1
	c-0.7,0-1.4,0-2,0.1c-0.1,0-0.2,0-0.4-0.2c0.3-0.2,0.6-0.4,0.9-0.5c0.8-0.1,1.6,0,2.4,0c0.2,0,0.6,0,0.7-0.1c0.2-0.3,0.4-0.6,0.5-1
	c-0.3-0.1-0.6-0.1-0.9-0.2c-0.2,0-0.3,0-0.5,0c0.5-1.5,1.7-0.7,2.6-0.9c0.3,1,1,1.2,2,0.9c0.8-0.2,1.9-0.5,2.5-0.2
	c1.6,0.9,3.1,0.3,4.7,0.4c1,0.1,2,0,2.9-0.2c0.7-0.1,1.2-0.6,1.9-0.4C170,86,170.4,86.2,170.9,86.3z"/>
<path class="st0" d="M171.3,86.2c4-1,8-2.1,12.3-1.7v0.3h-2c-0.3,0-0.6,0-0.7,0.4c-0.1,0.2-0.5,0.3-0.7,0.3c-1.1-0.2-2,0.2-3,0.7
	c-0.6,0.2-1.1,0.3-1.7,0.3c-1.1,0.1-2.2,0.2-3.3,0.2c-0.3,0-0.5-0.1-0.8-0.1L171.3,86.2z"/>
<path class="st0" d="M31.1,93.4c-0.1,0.1-0.3,0.2-0.4,0.2c-0.6,0.1-1,0-1.4,0.7c-0.2,0.4-1.2,0.4-1.8,0.6l-0.1-0.3l1.1-0.5
	c-1,0.1-1.9-0.9-2.9,0c-0.1,0.1-0.2,0.1-0.3,0.1c-0.9-0.1-1.7-0.2-2.6-0.2c-0.3,0-0.6,0-1,0.1c-1.6,0.1-3.1,0.3-4.7,0.4
	c-0.2,0-0.3-0.1-0.4-0.2c1.2-0.3,2.4-0.4,3.6-0.4c1.2-0.1,2.4-0.1,3.7-0.2c1.2-0.1,2.3-0.3,3.5-0.4c1.2-0.1,2.4,0,3.6,0L31.1,93.4z"
	/>
<path class="st0" d="M2.8,71.3c0.2-0.1,0.4-0.4,0.7-0.4c2.2,0,4.5,0.1,6.7,0.1c0.1,0,0.2,0.1,0.4,0.3c-0.3,0.1-0.6,0.4-0.8,0.4
	c-2.1,0-4.1-0.1-6.2-0.1c-0.2,0-0.5-0.1-0.7-0.2L2.8,71.3z"/>
<path class="st0" d="M151,89.5l2.4-0.2v-0.2l-1.6-0.3c0.7-0.4,1.6-0.3,2.3,0.2c0.4,0.2,0.8,0.2,1.2,0.2c0.3,0,0.6,0,0.9,0
	c-0.4,0.5-1,0.4-1.4,0.4c-0.5-0.1-1.1-0.1-1.6,0.1c-0.7,0.3-1.5,0.1-2.2,0.1L151,89.5z"/>
<path class="st0" d="M143.3,88.6l3.6-0.7c0,0,0.1,0,0.1,0l2.1,0.5c-0.5,0.5-1.2,0.3-1.9,0.3s-1.4,0-2,0s-1.3,0.1-1.9,0.2L143.3,88.6
	z"/>
<path class="st0" d="M13.6,77.6v-5.5l0.2-0.1c0.1,0.4,0.2,0.7,0.3,1.1c0,1.3,0.1,2.5,0,3.8c-0.1,0.3-0.2,0.5-0.3,0.8L13.6,77.6z"/>
<path class="st0" d="M7.7,72.3c0.5,0.3,0.7,5.3,0,6V72.3z"/>
<path class="st0" d="M78.5,96.6c1.4-0.9,2.9-0.9,4.4-0.8l0,0.3l-1.6,0.2l0.1,0.5L78.5,96.6z"/>
<path class="st0" d="M101.2,94.4l-0.5,1l-3.1-0.2C99.3,94.3,100.3,94.2,101.2,94.4z"/>
<path class="st0" d="M25,91.9c0-0.7,0.2-1,0.9-0.9c0.6,0,1.4,0,2.2,0c0,0.7-0.2,1-0.9,0.9C26.6,91.8,25.8,91.9,25,91.9z"/>
<path class="st0" d="M172.4,87.4c1.4-0.5,2.8-0.2,4.2-0.2C175.3,87.8,173.9,87.4,172.4,87.4z"/>
<path class="st0" d="M80.7,95.2c0.2-0.1,0.3-0.2,0.5-0.3c0.7-0.1,1.4-0.1,2.1-0.1c0.1,0,0.3,0.2,0.4,0.3c-0.1,0.1-0.3,0.2-0.4,0.2
	c-0.8,0-1.7,0-2.5,0L80.7,95.2z"/>
<path class="st0" d="M144.2,89.7c-0.7,0.7-3,0.8-4.2,0.3L144.2,89.7z"/>
<path class="st0" d="M140.6,91.2c-1.1,0.3-2.2,0.3-3.2,0.2v-0.3l3.2-0.2L140.6,91.2z"/>
<path class="st0" d="M112.1,93.7c0.8-0.6,1.8-0.4,2.8-0.5C114.6,93.9,113.8,94,112.1,93.7z"/>
<path class="st0" d="M127.4,91.5l-3.7,0.3C124.4,91.1,126.5,91,127.4,91.5z"/>
<path class="st0" d="M24.3,92.2L21,92.5v-0.2c1.1-0.4,2.2-0.5,3.3-0.4L24.3,92.2z"/>
<path class="st0" d="M33.9,90.9c-0.3,0.7-1.7,0.8-2.5,0.4C32.2,90.8,33,91,33.9,90.9z"/>
<path class="st0" d="M155.6,88.6h2.6C157.9,89.2,156.4,89.3,155.6,88.6z"/>
<path class="st0" d="M20.1,91.6c0.9-0.4,2-0.5,3-0.2v0.2H20.1z"/>
<path class="st0" d="M17.3,29.9l-1.2-0.1c0.1-0.2,0-0.7,0.2-0.7c0.5-0.3,0.8,0.1,1.1,0.5L17.3,29.9z"/>
<path class="st0" d="M93.1,95.5l2.8-0.2C95.5,95.9,94.1,96,93.1,95.5z"/>
<path class="st0" d="M148.5,89.9h-2.3c0.3-0.4,1.2-0.5,2.3-0.2L148.5,89.9z"/>
<path class="st0" d="M30.4,90.5l2.1-0.3l0.1,0.4l-2.1,0.3L30.4,90.5z"/>
<path class="st0" d="M69,94.4c0.7,0,1.4,0,2.1,0c0.1,0,0.2,0.1,0.2,0.2c0,0.1-0.1,0.2-0.2,0.2c-0.7-0.1-1.4-0.1-2.1-0.2L69,94.4z"/>
<path class="st0" d="M186.3,86.9l-2.9-0.2v-0.2h2.9V86.9z"/>
<path class="st0" d="M70.8,22.6c0.4-0.4,0.7-0.8,1.1-1.2c0.1-0.1,0.3-0.1,0.4,0s0.1,0.2,0.1,0.2c-0.4,0.4-0.9,0.8-1.3,1.2
	C70.9,22.8,70.8,22.7,70.8,22.6z"/>
<path class="st0" d="M24.1,88.6h-2.3C22.2,88.3,23.6,88.2,24.1,88.6z"/>
<path class="st0" d="M20.7,88.7h-2.1C19.2,88.2,20,88.2,20.7,88.7z"/>
<path class="st0" d="M30.8,91.8l-2,0.1l0-0.3l2-0.2L30.8,91.8z"/>
<path class="st0" d="M26.4,95.3h-1.8C24.8,94.7,25.9,94.7,26.4,95.3z"/>
<path class="st0" d="M25.5,96.3l-1.7,0.2l-0.1-0.3c0.5-0.4,1.1-0.2,1.7-0.2L25.5,96.3z"/>
<path class="st0" d="M0,87.1h0.9l-0.5,0.5L1,87.9C0.1,88.1-0.1,88,0,87.1z"/>
<path class="st0" d="M21.9,95.6l1.7-0.2l0,0.4l-1.7,0.1L21.9,95.6z"/>
<path class="st0" d="M12.8,88.3l1.6-0.1v0.3h-1.6V88.3z"/>
<path class="st0" d="M67.9,32.3v-1.9"/>
<path class="st0" d="M107.4,71.8c0,1.8,0,3.6,0,5.3c0,0.7-0.3,0.9-1,0.9c-0.7-0.1-1.3-0.1-2-0.1c-0.7,0-1-0.3-1-0.9
	c0.1-1.6,0.1-3.2,0.2-4.7c0-0.5,0.2-0.7,0.7-0.7C105.3,71.6,106.3,71.7,107.4,71.8z"/>
<path class="st0" d="M122.1,77.8l-3.3,0.3v-6.7c1,0,2,0,2.9,0c0.1,0,0.3,0.2,0.3,0.3C122.1,73.7,122.1,75.8,122.1,77.8z"/>
<path class="st0" d="M108.4,72c1.2,0,2.3,0,3.3,0c0.2,0.1,0.3,0.2,0.4,0.4c0.1,1.7,0.1,3.3,0.1,5c0,0.5-0.2,0.7-0.7,0.6
	c-0.7,0-1.3,0-2,0.1c-1,0-1.1,0-1.1-1C108.4,75.3,108.4,73.7,108.4,72z"/>
<path class="st0" d="M94,71.4l3.6,0.2c0,0.3,0,0.6,0,0.8c0,1.5,0,3,0.1,4.5c0,0.5-0.1,0.8-0.7,0.7c-0.8,0-1.5-0.1-2.3,0
	c-0.5,0-0.7-0.2-0.7-0.7C94,75.1,94,73.3,94,71.4z"/>
<path class="st0" d="M123.2,71.3l3.3-0.2v6.5l-3.3,0.2V71.3z"/>
<path class="st0" d="M131,71v6.1c-1,0.1-2,0.2-2.9,0.3c-0.2-0.1-0.5-0.2-0.6-0.5c-0.1-0.3-0.1-0.6-0.1-0.9c0-1.4,0.1-2.9,0.1-4.3
	c0-0.5,0.1-0.7,0.7-0.7C129.1,71,130,71,131,71z"/>
<path class="st0" d="M98.9,71.6c1.1,0,2.2,0,3.2,0c0.1,0,0.4,0.4,0.4,0.7c0,1.1-0.1,2.3-0.1,3.4c0,0.4,0,0.7,0,1.1
	c0.1,0.8,0,0.9-0.8,0.9c-0.6,0-1.1-0.1-1.7-0.1c-0.6,0-1.1-0.1-1-1C98.9,75,98.9,73.3,98.9,71.6z"/>
<path class="st0" d="M146.4,75.8c-1,0.1-1.9,0.1-2.7,0.2c-0.4,0-0.6-0.1-0.6-0.5c0-1.7,0.1-3.5,0.2-5.2c0-0.2,0.2-0.3,0.3-0.4
	c0.9-0.1,1.9-0.2,2.8-0.4L146.4,75.8z"/>
<path class="st0" d="M139.4,70.1l2.5-0.1c0.4,0,0.6,0.1,0.6,0.6c0,1.7,0,3.4,0,5.1c0,0.2-0.4,0.4-0.6,0.5c-0.8,0.1-1.6,0.2-2.5,0.2
	L139.4,70.1z"/>
<path class="st0" d="M108.4,71c0-1.5,0-3,0-4.4c0.1-0.2,0.2-0.4,0.5-0.5c0.9,0,1.9,0,2.8,0c0.2,0,0.5,0.3,0.5,0.5c0,1.4,0,2.9,0,4.3
	L108.4,71z"/>
<path class="st0" d="M97.8,70.8l-3.6-0.4c0-1.3,0-2.5,0-3.7c0-1,0.1-1.1,1.1-1c3,0.1,2.5,0,2.5,2.4C97.8,68.9,97.8,69.8,97.8,70.8z"
	/>
<path class="st0" d="M103.7,70.9v-4.7h3.6v4.7H103.7z"/>
<path class="st0" d="M131.1,70l-3.4,0.2c-0.1-1.5-0.2-2.8-0.2-4.1c0-0.2,0.4-0.5,0.7-0.6c0.8-0.1,1.6-0.2,2.4-0.3
	c0.2,0,0.5,0.2,0.5,0.4C131.1,67,131.1,68.4,131.1,70z"/>
<path class="st0" d="M98.9,66c1.2,0,2.1,0,3,0c0.2,0,0.5,0.5,0.5,0.7c0.1,1.3,0,2.6,0,3.9c-1.1,0-2.1,0-3.2,0
	c-0.1,0-0.4-0.3-0.4-0.5C98.9,68.8,98.9,67.5,98.9,66z"/>
<path class="st0" d="M146.5,68.9l-3.2,0.3c0-0.9,0-1.7,0-2.4c0-0.7,0-1.3,0-2c-0.1-0.4,0.2-0.7,0.5-0.7c0,0,0.1,0,0.1,0
	c0.6-0.1,1.3-0.1,1.9-0.2c0.2,0,0.6,0.3,0.6,0.4C146.6,65.8,146.5,67.3,146.5,68.9z"/>
<path class="st0" d="M122.2,70.4h-3.3v-4.6h3.3V70.4z"/>
<path class="st0" d="M139.4,64.7l3.2-0.3v4.8l-3.2,0.2V64.7z"/>
<path class="st0" d="M123.2,66l3.3-0.3v4.6h-3.3V66z"/>
<path class="st0" d="M83,72.3v-3.4l0.2-0.1c0.2,0.2,0.5,0.5,0.5,0.7C83.7,70.4,84.1,71.5,83,72.3z"/>
<path class="st0" d="M82.5,63.9c-0.1,0.5-0.2,1-0.4,1.5c0,0-0.7,0-0.8-0.2c-0.2-0.3-0.3-0.8-0.2-1.1c0.2-0.3,0.7-0.3,1.1-0.4
	L82.5,63.9z"/>
<path class="st0" d="M82.5,69.3c-0.1,0.5-0.2,1-0.8,0.9c-0.4,0-0.8-0.1-0.7-0.7c0.1-0.3,0.3-0.9,0.5-0.9
	C81.9,68.7,82.5,68.7,82.5,69.3z"/>
<path class="st0" d="M60.4,57.3c-0.1-0.2-0.4-0.5-0.4-0.7c0-1.4,0-2.8,0.1-4.2c0-0.2,0.3-0.3,0.4-0.5c0.1,0.2,0.3,0.3,0.3,0.5
	c0,1.2,0,2.5-0.1,3.7c0,0.4,0,0.7-0.1,1.1L60.4,57.3z"/>
<path class="st0" d="M62.5,58.8c-0.1-0.2-0.2-0.4-0.2-0.6c0-1.8,0-3.6,0-5.4c0-0.2,0.3-0.5,0.5-0.6v6.5L62.5,58.8z"/>
<path class="st0" d="M59.5,56.8c-0.4-0.5-0.5-3.9-0.1-4.6C59.7,52.6,59.8,56,59.5,56.8z"/>
<path class="st0" d="M105.6,55.7c0.4,0.7,0.3,2.5-0.2,3v-3L105.6,55.7z"/>
<path class="st0" d="M106.4,55.9v2.9C105.8,58.3,105.9,56.3,106.4,55.9z"/>
<path class="st0" d="M75.7,53.2c0-0.4,0-0.9,0-1.3c0-0.2,0.2-0.3,0.4-0.4c0.1,0.1,0.3,0.3,0.3,0.4C76.5,52.6,76.3,53.1,75.7,53.2z"
	/>
<path class="st0" d="M77.3,51.4c0,0.6,0,1.1,0,1.5c0,0.1-0.1,0.3-0.2,0.3c0,0-0.2,0-0.3-0.1C76.6,52.9,76.8,51.7,77.3,51.4z"/>
<path class="st0" d="M78.5,51.7l-0.4,1.9C77.4,52.6,77.6,51.8,78.5,51.7z"/>
<path class="st0" d="M81.4,53.2c0-0.4,0.1-0.8,0.1-1.2c0.1-0.1,0.2-0.2,0.3-0.3c0.1,0,0.2,0,0.3,0.1C82.3,52.2,81.9,53.1,81.4,53.2z
	"/>
<path class="st0" d="M70.5,53.3c0-0.5,0-1,0-1.5c0-0.1,0.2-0.2,0.3-0.1c0.1,0,0.2,0.2,0.2,0.3c0,0.4-0.1,0.9-0.2,1.3L70.5,53.3z"/>
<path class="st0" d="M66,53c0-0.5-0.3-1,0.7-1.4l-0.4,1.5L66,53z"/>
<path class="st0" d="M71.9,51.5l-0.1,1.7c-0.5-0.4-0.5-1.1-0.1-1.5C71.7,51.6,71.8,51.6,71.9,51.5z"/>
<path class="st0" d="M82.4,53.5l0.2-1.3l0.3,0.1l-0.2,1.4L82.4,53.5z"/>
<path class="st0" d="M105.5,36.6c-0.1-0.1-0.1-0.3-0.2-0.4c0-0.9-0.1-1.8-0.1-2.7c0-0.2,0.2-0.4,0.3-0.6c0.1,0.2,0.3,0.4,0.3,0.6
	c0,0.9,0,1.8,0,2.7c0,0.2-0.1,0.4-0.1,0.5L105.5,36.6z"/>
<path class="st0" d="M104.5,37.6c-0.5-0.9-0.3-4.1,0.3-4.7L104.5,37.6z"/>
<path class="st0" d="M103.8,33l-0.3,4C103.1,36.1,103.2,33.6,103.8,33z"/>
<path class="st0" d="M42.3,53.9v4C41.6,56.5,41.8,54,42.3,53.9z"/>
<path class="st0" d="M42,63.8l5-0.4c0,0.5,0,1,0,1.5c0.1,1.4,0.1,2.7,0.2,4.1c0,0.5-0.1,0.7-0.7,0.7c-1.2,0-2.5,0.1-3.7,0.2
	c-0.5,0-0.7-0.1-0.8-0.5c0-0.1,0-0.2-0.1-0.3C42,67.3,42,65.6,42,63.8z M45.3,69.2c0.5-0.2,1.2,0.3,1.3-0.4c0.1-1.4,0-2.8,0-4.4
	c-0.7,0.2-1.5-0.1-1.5,0.8C45.1,66.5,45.2,67.8,45.3,69.2L45.3,69.2z M43.5,66.8l-0.9-0.1v2.5c0.8,0.2,0.9,0.1,0.9-0.6
	C43.5,68.1,43.5,67.5,43.5,66.8L43.5,66.8z M42.7,66.3c0.4-0.2,0.8-0.3,0.7-0.4c0-0.4-0.1-0.8-0.2-1.2c-0.2,0.1-0.5,0.2-0.5,0.3
	C42.7,65.4,42.7,65.8,42.7,66.3L42.7,66.3z"/>
<path class="st0" d="M134.9,75.3V68l-1.4-0.3c0.3-0.9,1-0.7,1.5-0.7c0.1,0,0.4,0.5,0.4,0.8c0,2.1,0,4.2,0,6.3c0,0.4-0.1,0.7-0.2,1.1
	L134.9,75.3z"/>
<path class="st0" d="M61.2,45c0.2,0.2,0.4,0.5,0.6,0.8c0,0.1-0.2,0.3-0.3,0.5c-0.2-0.2-0.5-0.4-0.7-0.6C60.8,45.6,61,45.3,61.2,45z"
	/>
<path class="st0" d="M23.2,55.8c-1.4-0.2-2.6,0.7-4,0.1C20.1,55,22.6,54.9,23.2,55.8z"/>
</svg>
