<?xml version="1.0" encoding="utf-8"?>
<!-- Generator: Adobe Illustrator 16.0.0, SVG Export Plug-In . SVG Version: 6.00 Build 0)  -->
<!DOCTYPE svg PUBLIC "-//W3C//DTD SVG 1.1//EN" "http://www.w3.org/Graphics/SVG/1.1/DTD/svg11.dtd">
<svg version="1.1" id="Layer_1" xmlns="http://www.w3.org/2000/svg" xmlns:xlink="http://www.w3.org/1999/xlink" x="0px" y="0px"
	 width="43px" height="27px" viewBox="0 0 43 27" enable-background="new 0 0 43 27" xml:space="preserve">
<g>
	<g>
		<g>
			<path fill="#00A1E1" d="M36.086,26.992h-7.645c-0.502,0-0.907-0.406-0.907-0.908v-6.811h-6.188c-0.502,0-0.909-0.406-0.909-0.908
				v-8.258h-5.596c-0.502,0-0.909-0.407-0.909-0.908V1.817H6.071v24.267c0,0.502-0.407,0.908-0.909,0.908
				c-0.501,0-0.909-0.406-0.909-0.908V0.909C4.253,0.407,4.661,0,5.162,0h9.679c0.502,0,0.909,0.407,0.909,0.909v7.382h5.596
				c0.502,0,0.909,0.407,0.909,0.909v8.257h6.188c0.502,0,0.908,0.407,0.908,0.909v6.81h6.734c0.502,0,0.908,0.407,0.908,0.909
				S36.588,26.992,36.086,26.992z"/>
		</g>
	</g>
	<g>
		<path fill="#00A1E1" d="M28.831,12.823c-0.188,0-0.376-0.059-0.534-0.173c-0.26-0.189-0.4-0.502-0.37-0.823l0.324-3.341
			l-2.226-2.512c-0.215-0.241-0.284-0.577-0.186-0.883c0.1-0.307,0.354-0.537,0.668-0.606l3.278-0.724l1.7-2.894
			c0.164-0.277,0.462-0.448,0.783-0.448c0.322,0,0.621,0.171,0.783,0.448l1.701,2.894l3.278,0.724
			c0.313,0.069,0.567,0.3,0.668,0.606c0.1,0.306,0.028,0.643-0.185,0.883l-2.228,2.512l0.325,3.341
			c0.031,0.32-0.11,0.633-0.37,0.823c-0.261,0.189-0.603,0.227-0.897,0.098l-3.076-1.341l-3.078,1.341
			C29.078,12.798,28.954,12.823,28.831,12.823z M28.41,5.925l1.464,1.652c0.168,0.189,0.249,0.439,0.226,0.69l-0.215,2.197
			l2.023-0.882c0.232-0.101,0.494-0.101,0.727,0l2.022,0.881l-0.214-2.197c-0.023-0.251,0.058-0.501,0.226-0.69l1.464-1.652
			l-2.154-0.476c-0.246-0.055-0.459-0.209-0.588-0.427L32.271,3.12l-1.119,1.903c-0.127,0.218-0.34,0.372-0.588,0.427L28.41,5.925z"
			/>
	</g>
	<g>
		<g>
			<g>
				<g>
					<g>
						<path fill="#00A1E1" d="M11.297,24.501c-0.501,0-0.908-0.405-0.908-0.908v-4.385c0-0.241,0.096-0.472,0.266-0.644
							c0.17-0.17,0.401-0.266,0.642-0.266l0,0h4.384c0.502,0,0.908,0.407,0.908,0.909s-0.407,0.908-0.908,0.908l0,0l-3.476-0.001
							v3.477C12.206,24.096,11.799,24.501,11.297,24.501z"/>
					</g>
				</g>
			</g>
		</g>
		<g>
			<path fill="#00A1E1" d="M18.076,27c-0.232,0-0.465-0.089-0.643-0.268l-6.244-6.242c-0.355-0.355-0.355-0.932,0-1.285
				c0.355-0.355,0.93-0.355,1.285,0l6.244,6.244c0.354,0.354,0.354,0.93,0,1.283C18.541,26.911,18.308,27,18.076,27z"/>
		</g>
	</g>
</g>
</svg>
