<?xml version="1.0" encoding="utf-8"?>
<!-- Generator: Adobe Illustrator 16.0.0, SVG Export Plug-In . SVG Version: 6.00 Build 0)  -->
<!DOCTYPE svg PUBLIC "-//W3C//DTD SVG 1.1//EN" "http://www.w3.org/Graphics/SVG/1.1/DTD/svg11.dtd">
<svg version="1.1" id="Layer_1" xmlns="http://www.w3.org/2000/svg" xmlns:xlink="http://www.w3.org/1999/xlink" x="0px" y="0px"
	 width="43px" height="27px" viewBox="0 0 43 27" enable-background="new 0 0 43 27" xml:space="preserve">
<g>
	<g>
		<g>
			<g>
				<path fill="#00A1E1" d="M27.237,27c-0.053,0-0.106-0.005-0.16-0.015c-0.293-0.052-0.541-0.245-0.665-0.516l-3.959-8.638
					l-3.109,3.108l0.349,2.898c0.033,0.277-0.062,0.554-0.26,0.751l-1.694,1.694c-0.195,0.195-0.47,0.291-0.746,0.26
					c-0.275-0.031-0.521-0.188-0.667-0.423l-2.824-4.537l-4.547-2.833c-0.235-0.146-0.391-0.393-0.422-0.668
					c-0.031-0.275,0.064-0.55,0.26-0.746l1.694-1.694c0.197-0.196,0.471-0.293,0.749-0.26l2.89,0.341l3.11-3.11L8.596,8.655
					C8.326,8.531,8.133,8.282,8.08,7.99C8.028,7.697,8.122,7.396,8.332,7.186l2.144-2.144c0.21-0.21,0.512-0.305,0.805-0.251
					l11.521,2.098l5.517-5.516C29.453,0.238,30.592,0,31.348,0c1.454,0,2.755,0.872,3.313,2.22c0.609,1.473,0.189,3.136-1.124,4.449
					l-5.474,5.474l2.21,11.635c0.057,0.296-0.037,0.6-0.25,0.812l-2.144,2.144C27.708,26.906,27.477,27,27.237,27z M22.734,15.356
					c0.054,0,0.107,0.005,0.161,0.015c0.293,0.053,0.541,0.245,0.665,0.516l3.959,8.639l0.879-0.88l-2.21-11.635
					c-0.056-0.296,0.037-0.6,0.25-0.812l5.814-5.814c0.787-0.787,1.053-1.687,0.729-2.469c-0.276-0.667-0.918-1.098-1.635-1.098
					c-0.591,0-1.194,0.291-1.744,0.84l-5.853,5.854c-0.211,0.211-0.511,0.305-0.805,0.251L11.424,6.665l-0.883,0.883l8.639,3.958
					c0.271,0.124,0.463,0.372,0.516,0.665s-0.042,0.593-0.252,0.804l-4.345,4.346c-0.197,0.196-0.471,0.293-0.749,0.26l-2.89-0.341
					l-0.574,0.574l3.755,2.34c0.118,0.073,0.218,0.173,0.291,0.291l2.331,3.745l0.572-0.572l-0.349-2.897
					c-0.034-0.277,0.062-0.554,0.259-0.751l4.346-4.346C22.265,15.451,22.496,15.356,22.734,15.356z"/>
			</g>
		</g>
	</g>
	<g>
		<g>
			<g>
				<path fill="#00A1E1" d="M21.5,18.686c-5.22,0-10.671-1.424-15.349-4.01c-0.439-0.242-0.599-0.795-0.356-1.234
					s0.796-0.599,1.235-0.356c4.414,2.439,9.552,3.783,14.47,3.783c4.917,0,10.057-1.344,14.47-3.783
					c0.439-0.242,0.992-0.083,1.235,0.356c0.242,0.439,0.083,0.992-0.355,1.234C32.171,17.262,26.72,18.686,21.5,18.686z"/>
			</g>
		</g>
		<g>
			<path fill="#00A1E1" d="M36.409,26.622c-0.501,0-0.908-0.407-0.908-0.909V13.881c0-0.502,0.407-0.909,0.908-0.909
				c0.502,0,0.909,0.407,0.909,0.909v11.832C37.318,26.215,36.911,26.622,36.409,26.622z"/>
		</g>
		<g>
			<path fill="#00A1E1" d="M6.59,26.622c-0.502,0-0.909-0.407-0.909-0.909V13.881c0-0.502,0.407-0.909,0.909-0.909
				s0.909,0.407,0.909,0.909v11.832C7.499,26.215,7.092,26.622,6.59,26.622z"/>
		</g>
	</g>
	<g>
		<path fill="#00A1E1" d="M6.461,14.789c-1.458,0-2.644-1.186-2.644-2.644s1.186-2.644,2.644-2.644c1.458,0,2.644,1.186,2.644,2.644
			S7.919,14.789,6.461,14.789z M6.461,11.319c-0.456,0-0.827,0.371-0.827,0.827c0,0.455,0.371,0.826,0.827,0.826
			c0.456,0,0.826-0.371,0.826-0.826C7.288,11.689,6.917,11.319,6.461,11.319z"/>
	</g>
	<g>
		<path fill="#00A1E1" d="M36.409,14.789c-1.458,0-2.644-1.186-2.644-2.644s1.186-2.644,2.644-2.644s2.645,1.186,2.645,2.644
			S37.867,14.789,36.409,14.789z M36.409,11.319c-0.455,0-0.826,0.371-0.826,0.827c0,0.455,0.371,0.826,0.826,0.826
			c0.456,0,0.827-0.371,0.827-0.826C37.236,11.689,36.865,11.319,36.409,11.319z"/>
	</g>
	<g>
		<path fill="#00A1E1" d="M8.974,26.622H4.206c-0.501,0-0.908-0.407-0.908-0.909c0-0.501,0.407-0.908,0.908-0.908h4.768
			c0.502,0,0.909,0.407,0.909,0.908C9.883,26.215,9.476,26.622,8.974,26.622z"/>
	</g>
	<g>
		<path fill="#00A1E1" d="M38.793,26.622h-4.768c-0.502,0-0.909-0.407-0.909-0.909c0-0.501,0.407-0.908,0.909-0.908h4.768
			c0.502,0,0.909,0.407,0.909,0.908C39.702,26.215,39.295,26.622,38.793,26.622z"/>
	</g>
</g>
</svg>
