<?xml version="1.0" encoding="utf-8"?>
<svg version="1.1" id="made_in_the_usa" class="folds" xmlns="http://www.w3.org/2000/svg" x="0px" y="0px" viewBox="0 0 66 50" xml:space="preserve">
	<title>Made In The Usa</title>
	<g class="badge">
		<polygon class="corner" fill="#231F20" points="6.5,0 0,7.4 6.5,7.4"/>
		<polygon class="front" fill="#2A45A1" points="6.5,0 6.5,40.1 35.7,50 66,40.1 66,0"/>
	</g>
	<g class="text" fill="#fff">
		<path d="M50.8,28.6l0.4,2.8H50l0.5-2.8H50.8z M49.5,34.5l0.2-0.9h1.8l0.2,0.9h2.8 l-1.8-8h-4.2l-1.8,8H49.5z M46.4,26.6l-0.5-0.1c-1-0.2-1.9-0.2-2.7-0.2c-1.1,0-1.9,0.2-2.4,0.6C40.3,27.3,40,28,40,29.1 c0,0.8,0.2,1.5,0.6,1.8s1.2,0.6,2.3,0.8c0.4,0.1,0.7,0.1,0.8,0.1c0.1,0,0.1,0.1,0.1,0.2c0,0.2-0.2,0.3-0.6,0.3 c-0.8,0-1.8-0.1-3-0.3l-0.1,2.1l0.5,0.1c0.3,0.1,0.7,0.1,1.3,0.2s1.1,0.1,1.6,0.1c1.1,0,1.9-0.2,2.4-0.6c0.5-0.4,0.8-1.1,0.8-2.1 c0-0.5,0-0.9-0.1-1.1c-0.1-0.3-0.3-0.5-0.5-0.7c-0.3-0.2-0.6-0.3-0.9-0.5s-0.7-0.2-1.2-0.3C43.4,29.1,43.1,29,43,29 s-0.1-0.1-0.1-0.2c0-0.1,0-0.1,0.1-0.2c0.1,0,0.4,0,0.9,0s1.3,0.1,2.5,0.2L46.4,26.6z M32.3,26.4v5.2c0,1.1,0.3,1.9,0.9,2.4 c0.6,0.4,1.5,0.7,2.7,0.7s2.1-0.2,2.7-0.7c0.6-0.5,0.9-1.3,0.9-2.4v-5.1h-2.8v5.3c0,0.2-0.1,0.4-0.2,0.5c-0.1,0.1-0.3,0.1-0.6,0.1 s-0.5,0-0.6-0.1c-0.1-0.1-0.2-0.3-0.2-0.5v-5.3H32.3z M24.2,34.5v-3.3h0.2l1.8,3.3H29v-8h-2.8v3H26l-1.8-3h-2.7v8H24.2z M20.6,26.4 h-2.8v8h2.8V26.4z"/>
		<path d="M52.1,22.5v-2.2h-3.2v-0.7h2.5v-2.2h-2.5v-0.7h3.2v-2.2h-6v8H52.1z M42.3,19.9 c-0.2,0.2-0.5,0.3-0.9,0.3h-0.5v-3.5h0.5c0.5,0,0.8,0.1,1,0.4c0.1,0.2,0.2,0.7,0.2,1.4S42.5,19.7,42.3,19.9 M44.5,21.5 c0.6-0.7,0.9-1.7,0.9-3.1s-0.3-2.4-0.9-3c-0.6-0.6-1.6-0.9-3-0.9h-3.4v8h3.5C43,22.5,44,22.1,44.5,21.5 M34,16.6l0.4,2.8h-1.2 l0.5-2.8H34z M32.6,22.5l0.2-0.9h1.8l0.2,0.9h2.8l-1.8-8h-4.2l-1.8,8H32.6z M22.7,22.5v-4.1h0.1l0.7,4.1h2.3l0.7-4.1h0.1v4.1h2.8 v-8h-4.3l-0.5,3.1l-0.6-3.1h-4.1v8H22.7z"/>
	</g>
</svg>
