<?xml version="1.0" encoding="utf-8"?>
<svg version="1.1" id="kevlar_sewn" class="folds" xmlns="http://www.w3.org/2000/svg" x="0px" y="0px" viewBox="0 0 74 50" xml:space="preserve">
	<title>Kevlar Sewn</title>
	<g class="badge">
		<polygon class="corner" fill="#231F20" points="6.5,0 0,7.4 6.5,7.4"/>
		<polygon class="front" fill="#7F8400" points="6.5,0 6.5,40.1 39.7,50 74,40.1 74,0"/>
	</g>
	<g class="text" fill="#fff">
		<path d="M51.4,34.5v-3.3h0.2l1.8,3.3h2.7v-8h-2.8v3h-0.2l-1.8-3h-2.7v8H51.4z M42.2,34.5l0.4-5l0.1,0l0.4,4.9h4.1l0.9-8h-2.8L45,31.7h-0.2l-0.6-5.1h-3l-0.5,5.1h-0.2L40,26.4h-2.8l0.9,8H42.2z M36.8,34.5v-2.2 h-3.2v-0.7h2.5v-2.2h-2.5v-0.7h3.2v-2.2h-6v8H36.8z M29.9,26.6l-0.5-0.1c-1-0.2-1.9-0.2-2.7-0.2c-1.1,0-1.9,0.2-2.4,0.6 c-0.5,0.4-0.8,1.1-0.8,2.2c0,0.8,0.2,1.5,0.6,1.8c0.4,0.4,1.2,0.6,2.3,0.8c0.4,0.1,0.7,0.1,0.8,0.2c0.1,0,0.1,0.1,0.1,0.2 c0,0.2-0.2,0.3-0.6,0.3c-0.8,0-1.8-0.1-3-0.3l-0.1,2.1l0.5,0.1c0.3,0.1,0.7,0.1,1.3,0.2c0.6,0.1,1.1,0.1,1.6,0.1 c1.1,0,1.9-0.2,2.4-0.6c0.5-0.4,0.8-1.1,0.8-2.1c0-0.5,0-0.9-0.1-1.1c-0.1-0.3-0.3-0.5-0.5-0.7c-0.3-0.2-0.6-0.3-0.9-0.5 c-0.3-0.1-0.7-0.2-1.2-0.3S26.6,29,26.5,29c-0.1,0-0.1-0.1-0.1-0.2s0-0.1,0.1-0.2s0.4,0,0.9,0c0.5,0,1.3,0.1,2.5,0.2L29.9,26.6z"/>
		<path d="M61.3,14.9c0.2,0,0.2,0.1,0.2,0.3c0,0.2-0.1,0.3-0.2,0.3h-0.2v-0.6H61.3z M61.2,15.9h0.2l0.2,0.7h0.7L62,15.8c0.1-0.1,0.2-0.2,0.2-0.3c0-0.1,0.1-0.3,0.1-0.5c0-0.2-0.1-0.4-0.2-0.5 c-0.1-0.1-0.3-0.2-0.6-0.2h-1v2.2h0.7V15.9z M61.3,13.9c0.4,0,0.8,0.2,1.1,0.5c0.3,0.3,0.4,0.7,0.4,1.1c0,0.4-0.1,0.8-0.4,1.1 c-0.3,0.3-0.6,0.5-1.1,0.5c-0.4,0-0.8-0.2-1.1-0.5c-0.3-0.3-0.4-0.7-0.4-1.1c0-0.4,0.1-0.8,0.4-1.1C60.6,14,60.9,13.9,61.3,13.9 M62.7,16.9c0.4-0.4,0.5-0.8,0.5-1.4c0-0.6-0.2-1-0.5-1.4c-0.4-0.4-0.8-0.6-1.4-0.6c-0.6,0-1,0.2-1.4,0.6c-0.4,0.4-0.5,0.8-0.5,1.4 s0.2,1,0.5,1.4c0.4,0.4,0.8,0.6,1.4,0.6C61.9,17.4,62.4,17.2,62.7,16.9 M54.9,18.2v-1.6h0.6c0.4,0,0.7,0.3,0.7,0.8 s-0.2,0.8-0.6,0.8H54.9z M56.1,22.5h2.8l-0.8-2.7c0.6-0.5,0.9-1.3,0.9-2.4c0-1.1-0.3-1.9-0.8-2.3c-0.5-0.4-1.4-0.6-2.7-0.6h-3.4v8 h2.8v-2.1h0.7L56.1,22.5z M48,16.6l0.4,2.8h-1.2l0.5-2.8H48z M46.7,22.5l0.2-0.9h1.8l0.2,0.9h2.8l-1.8-8h-4.2l-1.8,8H46.7z M43.8,20.2h-2.6v-5.8h-2.8v8h5.4V20.2z M35,14.4l-0.6,5.2h-0.2l-0.6-5.2h-3l1.6,8h4.1l1.6-8H35z M30.4,22.5v-2.2h-3.2v-0.7h2.5 v-2.2h-2.5v-0.7h3.2v-2.2h-6v8H30.4z M20.2,19.8l1,2.7H24l-1.4-4.2l1.3-3.9h-2.8l-0.9,2.8h-0.5v-2.8h-2.8v8h2.8v-2.7H20.2z"/>
	</g>
</svg>
