<?xml version="1.0" encoding="utf-8"?>
<!-- Generator: Adobe Illustrator 18.1.1, SVG Export Plug-In . SVG Version: 6.00 Build 0)  -->
<svg version="1.1" id="Layer_1" xmlns="http://www.w3.org/2000/svg" xmlns:xlink="http://www.w3.org/1999/xlink" x="0px" y="0px"
	 viewBox="0 0 72 72" enable-background="new 0 0 72 72" xml:space="preserve">
<circle id="_x2E_svg_3465_" fill="#3F3E3F" cx="36.3" cy="36.4" r="34.3"/>
<path id="_x2E_svg_3464_" fill="#EE3324" d="M36,0C16.1,0,0,16.1,0,36c0,19.9,16.1,36,36,36s36-16.1,36-36C72,16.1,55.9,0,36,0z
	 M36,67.3c-17.5,0-31.6-14.1-31.6-31.6C4.4,18.2,18.6,4.1,36,4.1s31.6,14.1,31.6,31.6C67.6,53.1,53.5,67.3,36,67.3z"/>
<circle id="_x2E_svg_3463_" fill="#6EC498" cx="36.3" cy="36.4" r="34.3"/>
<polygon id="_x2E_svg_3448_" fill="#F6DF66" points="36.9,18.2 63.9,55.6 69.9,43.4 "/>
<polygon id="_x2E_svg_3447_" fill="#F6DF66" points="66.4,19.1 36.9,18.2 69.1,28.9 "/>
<polygon id="_x2E_svg_3446_" fill="#F6DF66" points="54.1,6.6 36.9,18.2 58.9,11.4 "/>
<polygon id="_x2E_svg_3445_" fill="#F6DF66" points="41.5,1.8 36.9,18.2 46.3,3.3 "/>
<polygon id="_x2E_svg_3444_" fill="#F6DF66" points="28.3,2.2 36.9,18.2 33.6,1.7 "/>
<polygon id="_x2E_svg_3443_" fill="#F6DF66" points="12.8,10.6 36.9,18.2 18.5,5.7 "/>
<polygon id="_x2E_svg_3442_" fill="#F6DF66" points="2.5,33.7 36.9,18.2 5,22.4 "/>
<polygon id="_x2E_svg_3441_" fill="#F6DF66" points="36.9,18.2 2.5,42.8 8,55.8 "/>
<path id="_x2E_svg_3440_" fill="#56984F" d="M12.8,61.8l9.8-8.5H16l13.5-12.5h-6l12.8-15h0.4l12.8,15h-6l13.5,12.5h-6.5l9.8,8.5
	c0,0-11.9,8.1-22.6,7.7C27,69,12.8,61.8,12.8,61.8z"/>
<path id="_x2E_svg_3439_" fill="none" stroke="#6EC498" stroke-linecap="round" stroke-miterlimit="10" d="M54.7,56.8
	c-0.3-0.2-10,12.3-36.2,8.3"/>
<path id="_x2E_svg_3461_" fill="#263520" d="M36,0C16.1,0,0,16.1,0,36c0,19.9,16.1,36,36,36s36-16.1,36-36C72,16.1,55.9,0,36,0z
	 M36,67.3c-17.5,0-31.6-14.1-31.6-31.6C4.4,18.2,18.6,4.1,36,4.1s31.6,14.1,31.6,31.6C67.6,53.1,53.5,67.3,36,67.3z"/>
<g id="_x2E_svg_3423_">
	
		<ellipse transform="matrix(1 2.911659e-03 -2.911659e-03 1 5.320375e-02 -0.1075)" fill="#FBB040" cx="36.9" cy="18.2" rx="7.1" ry="6.6"/>
	<g>
		<path fill="#3F3E3F" d="M36.9,25.4c-0.5,0-1-0.1-1.5-0.2c1.1,1.1-1,2-1.4,2.1c0,0-0.2,0-0.2,0c-0.5,0.1-0.7,0.2-0.7,0.4
			c0,0.4,1.6,0.6,3.7,0.7c2,0,3.7-0.3,3.7-0.6c0-0.1-0.3-0.3-0.7-0.4c0,0,0,0,0,0c0,0,0,0,0,0l0,0c0,0-2.7-0.9-1.5-2.1
			C37.8,25.3,37.3,25.4,36.9,25.4z"/>
		<path fill="#3F3E3F" d="M41.8,28.1c0.1,0.1,0.2,0.2,0.2,0.3c0,0.6-2.4,1-5.3,1c-2.9,0-5.3-0.5-5.2-1c0-0.1,0.1-0.2,0.2-0.3
			c-1.1,0.2-1.7,0.5-1.7,0.9c0,0.7,3,1.3,6.8,1.3c3.7,0,6.8-0.6,6.8-1.3C43.5,28.6,42.9,28.3,41.8,28.1z"/>
	</g>
</g>
<path id="_x2E_svg_3438_" fill="none" stroke="#6EC498" stroke-linecap="round" stroke-miterlimit="10" d="M30.3,32.8
	c0,0,1.7,5.6,16.6,4.7"/>
<path id="_x2E_svg_3437_" fill="none" stroke="#6EC498" stroke-linecap="round" stroke-miterlimit="10" d="M45.8,42.8
	c0,0-3.4,6-20.1,1.4"/>
<path id="_x2E_svg_3436_" fill="none" stroke="#6EC498" stroke-linecap="round" stroke-miterlimit="10" d="M22.7,47.4
	c0,0,9.1,11.8,30,7.7"/>
<ellipse id="_x2E_svg_3435_" transform="matrix(-0.9527 0.304 -0.304 -0.9527 81.551 113.4284)" fill="#CF4450" cx="31.9" cy="63.1" rx="0.8" ry="2.1"/>
<ellipse id="_x2E_svg_3434_" transform="matrix(-0.9527 0.304 -0.304 -0.9527 94.3915 109.5126)" fill="#B1CD47" cx="38.7" cy="62.1" rx="0.8" ry="2.1"/>
<ellipse id="_x2E_svg_3433_" transform="matrix(-0.6792 0.7339 -0.7339 -0.6792 129.8401 70.5432)" fill="#CF4450" cx="49.5" cy="63.6" rx="0.8" ry="2.1"/>
<ellipse id="_x2E_svg_3432_" transform="matrix(-0.9124 -0.4093 0.4093 -0.9124 66.5558 121.5371)" fill="#CF4450" cx="46.3" cy="53.6" rx="0.8" ry="2.1"/>
<ellipse id="_x2E_svg_3431_" transform="matrix(-0.9124 -0.4093 0.4093 -0.9124 44.7634 124.9561)" fill="#4D66AB" cx="35.8" cy="57.7" rx="0.8" ry="2.1"/>
<ellipse id="_x2E_svg_3430_" transform="matrix(-0.7162 -0.6979 0.6979 -0.7162 5.9415 108.978)" fill="#4D66AB" cx="25.1" cy="53.3" rx="0.8" ry="2.1"/>
<ellipse id="_x2E_svg_3429_" transform="matrix(-0.9124 -0.4093 0.4093 -0.9124 37.5352 107.6828)" fill="#B1CD47" cx="30.3" cy="49.8" rx="0.8" ry="2.1"/>
<ellipse id="_x2E_svg_3428_" transform="matrix(-0.9998 2.165283e-02 -2.165283e-02 -0.9998 71.9212 95.9534)" fill="#4D66AB" cx="35.4" cy="48.4" rx="0.8" ry="2.1"/>
<ellipse id="_x2E_svg_3427_" transform="matrix(-0.9998 2.165283e-02 -2.165283e-02 -0.9998 77.2457 85.9792)" fill="#B1CD47" cx="38.2" cy="43.4" rx="0.8" ry="2.1"/>
<ellipse id="_x2E_svg_3426_" transform="matrix(-0.9998 2.165283e-02 -2.165283e-02 -0.9998 83.8421 79.4911)" fill="#4D66AB" cx="41.5" cy="40.2" rx="0.8" ry="2.1"/>
<ellipse id="_x2E_svg_3425_" transform="matrix(-0.8357 -0.5493 0.5493 -0.8357 39.8155 88.5623)" fill="#CF4450" cx="33.2" cy="38.3" rx="0.8" ry="2.1"/>
<ellipse id="_x2E_svg_3424_" transform="matrix(-0.8357 -0.5493 0.5493 -0.8357 51.808 85.3351)" fill="#CF4450" cx="38.7" cy="34.9" rx="0.8" ry="2.1"/>
<g>
</g>
<g>
</g>
<g>
</g>
<g>
</g>
<g>
</g>
<g>
</g>
<g>
</g>
<g>
</g>
<g>
</g>
<g>
</g>
<g>
</g>
<g>
</g>
<g>
</g>
<g>
</g>
<g>
</g>
</svg>
