<?xml version="1.0" encoding="utf-8"?>
<!-- Generator: Adobe Illustrator 18.1.1, SVG Export Plug-In . SVG Version: 6.00 Build 0)  -->
<svg version="1.1" id="Layer_1" xmlns="http://www.w3.org/2000/svg" xmlns:xlink="http://www.w3.org/1999/xlink" x="0px" y="0px"
	 viewBox="0 0 72 72" enable-background="new 0 0 72 72" xml:space="preserve">
<g id="_x2E_svg_3537_">
	<circle id="_x2E_svg_3344_" fill="#0098CC" cx="36" cy="36.4" r="33.2"/>
</g>
<path id="_x2E_svg_3541_" fill="#CDECFC" d="M5.2,51.1c0,0,17-6.6,32.8-6.5c0,0,2.9,12.5,12,12.3l0,0c2.2,0,4.4-0.7,6.1-2.1
	c1.9-1.6,3.9-4.3,4.2-8.9c0.1-0.8,0.7-1.3,1.5-1.3c1.9,0.1,5.2,0.5,6.9,2.3c2.5,2.7-18.4,22.9-30.8,22.6
	C25.4,69.2,10.8,62.7,5.2,51.1z"/>
<path id="_x2E_svg_3540_" fill="#FFFFFF" d="M46.8,27.3v-7.1c0,0,7.2-3.4,14-1c1.3,0.5,2.1,1.7,2.1,3.1v5.4c0,0-0.8,1.9-5.1,2.7
	c0,0-0.9-2.7-5.1-3C48.5,27.1,46.8,27.3,46.8,27.3z"/>
<path id="_x2E_svg_3539_" fill="#CF4450" d="M62.9,27.7v-5.8c0-1.1-0.7-2.2-1.8-2.6c-6.9-2.7-14.4,0.9-14.4,0.9v6.5
	C46.8,26.7,61.9,24.1,62.9,27.7L62.9,27.7z"/>
<g id="_x2E_svg_3536_">
	<path fill="#3F3E3F" d="M48.8,26.7c-0.1,0-0.2-0.1-0.2-0.2v-7c0-0.1,0.1-0.2,0.2-0.2s0.2,0.1,0.2,0.2v7
		C49.1,26.6,49,26.7,48.8,26.7z"/>
</g>
<g id="_x2E_svg_3535_">
	<path fill="#3F3E3F" d="M54.8,26.2c-0.1,0-0.3-0.1-0.3-0.3v-7.6c0-0.1,0.1-0.3,0.3-0.3s0.3,0.1,0.3,0.3V26
		C55.1,26.1,55,26.2,54.8,26.2z"/>
</g>
<g id="_x2E_svg_3534_">
	<path fill="#3F3E3F" d="M60.4,26.4c-0.1,0-0.3-0.1-0.3-0.3v-7.1c0-0.1,0.1-0.3,0.3-0.3s0.3,0.1,0.3,0.3v7.1
		C60.7,26.3,60.6,26.4,60.4,26.4z"/>
</g>
<ellipse id="_x2E_svg_3533_" transform="matrix(0.9793 0.2022 -0.2022 0.9793 4.9674 -7.2728)" fill="#F6DF66" cx="38.1" cy="20.7" rx="11.7" ry="4.2"/>
<g id="_x2E_svg_3532_">
	<path fill="#3F3E3F" d="M19.7,53.8c-0.4,0-0.8-0.3-0.8-0.8V41.9c0-0.4,0.3-0.8,0.8-0.8s0.8,0.3,0.8,0.8v11.2
		C20.4,53.5,20.1,53.8,19.7,53.8z"/>
</g>
<g id="_x2E_svg_3531_">
	<path fill="#3F3E3F" d="M13,56c-0.2,0-0.5-0.1-0.6-0.3c-0.3-0.3-0.2-0.8,0.1-1.1l7.2-5.4l5.8,5.5c0.3,0.3,0.3,0.8,0,1.1
		c-0.3,0.3-0.8,0.3-1.1,0l-4.9-4.6l-6.1,4.7C13.3,56,13.2,56,13,56z"/>
</g>
<g id="_x2E_svg_3530_">
	<path fill="#3F3E3F" d="M24.4,51h-4.7c-0.4,0-0.8-0.3-0.8-0.8s0.3-0.8,0.8-0.8h4.7c0.4,0,0.8,0.3,0.8,0.8S24.8,51,24.4,51z"/>
</g>
<g id="_x2E_svg_3529_">
	<path fill="#3F3E3F" d="M19.5,46.1l-5.7-5.3c-0.2-0.2-0.2-0.5,0-0.7c0.2-0.2,0.5-0.2,0.7,0l5.1,4.8l6.3-4.8
		c0.2-0.2,0.5-0.1,0.7,0.1c0.2,0.2,0.1,0.5-0.1,0.7L19.5,46.1z"/>
</g>
<path id="_x2E_svg_3528_" fill="#CF4450" d="M0,36c0,19.9,16.1,36,36,36s36-16.1,36-36C72,16.1,55.9,0,36,0S0,16.1,0,36z M4.4,35.7
	C4.4,18.2,18.5,4.1,36,4.1s31.6,14.1,31.6,31.6c0,17.5-14.1,31.6-31.6,31.6S4.4,53.1,4.4,35.7z"/>
<ellipse id="_x2E_svg_3527_" fill="#FFFFFF" cx="51.7" cy="42" rx="7.8" ry="13.3"/>
<path id="_x2E_svg_3526_" fill="#CF4450" d="M41.7,28.7c-4.3,0-8,6-8,13.3s3.5,14,7.8,14l8.6,1c-4.3,0-8.1-7.6-8.1-15
	s3.8-13.7,8.1-13.7L41.7,28.7z"/>
<g id="_x2E_svg_3525_">
	<path fill="#3F3E3F" d="M32,56.7c-0.4,0-0.8-0.3-0.8-0.8V25l5.3-3.9c0.3-0.2,0.8-0.2,1,0.2c0.2,0.3,0.2,0.8-0.2,1l-4.7,3.4v30.1
		C32.8,56.4,32.4,56.7,32,56.7z"/>
</g>
<g id="_x2E_svg_3524_">
	<path fill="#3F3E3F" d="M38.1,58.9c-0.3,0-0.5-0.1-0.6-0.4L32,49.4l-6.3,9.2c-0.2,0.3-0.7,0.4-1,0.2c-0.3-0.2-0.4-0.7-0.2-1
		L32,46.6l6.7,11.2c0.2,0.4,0.1,0.8-0.3,1C38.3,58.9,38.2,58.9,38.1,58.9z"/>
</g>
<ellipse id="_x2E_svg_3523_" fill="#CF4450" cx="19.7" cy="40.4" rx="8.8" ry="1.5"/>
<rect id="_x2E_svg_3522_" x="10.9" y="31.8" fill="#CF4450" width="17.6" height="8.6"/>
<ellipse id="_x2E_svg_3521_" fill="#FFFFFF" cx="19.7" cy="31.8" rx="8.8" ry="1.5"/>
<g id="_x2E_svg_3520_">
	<path fill="#3F3E3F" d="M13,41.6c-0.1,0-0.2-0.1-0.2-0.2v-8.6c0-0.1,0.1-0.2,0.2-0.2s0.2,0.1,0.2,0.2v8.6
		C13.3,41.5,13.2,41.6,13,41.6z"/>
</g>
<g id="_x2E_svg_3519_">
	<path fill="#3F3E3F" d="M23.6,42.1c-0.1,0-0.2-0.1-0.2-0.2v-8.6c0-0.1,0.1-0.2,0.2-0.2s0.2,0.1,0.2,0.2v8.6
		C23.8,42,23.7,42.1,23.6,42.1z"/>
</g>
<g id="_x2E_svg_3518_">
	<path fill="#3F3E3F" d="M18.2,42.1c-0.1,0-0.2-0.1-0.2-0.2v-8.6c0-0.1,0.1-0.2,0.2-0.2s0.2,0.1,0.2,0.2v8.6
		C18.4,42,18.3,42.1,18.2,42.1z"/>
</g>
<g id="_x2E_svg_3517_">
	<path fill="#3F3E3F" d="M27.6,41.6c-0.1,0-0.2-0.1-0.2-0.2v-8.9c0-0.1,0.1-0.2,0.2-0.2s0.2,0.1,0.2,0.2v8.9
		C27.9,41.5,27.8,41.6,27.6,41.6z"/>
</g>
<g id="_x2E_svg_3516_">
	<path fill="#3F3E3F" d="M46.1,30.7h-8.2c-0.2,0-0.4-0.2-0.4-0.4s0.2-0.4,0.4-0.4h8.2c0.2,0,0.4,0.2,0.4,0.4S46.3,30.7,46.1,30.7z"
		/>
</g>
<g id="_x2E_svg_3515_">
	<path fill="#3F3E3F" d="M42.9,36.5h-8.1c-0.2,0-0.4-0.2-0.4-0.4s0.2-0.4,0.4-0.4h8.1c0.2,0,0.4,0.2,0.4,0.4S43.1,36.5,42.9,36.5z"
		/>
</g>
<g id="_x2E_svg_3514_">
	<path fill="#3F3E3F" d="M42.2,46H34c-0.2,0-0.4-0.2-0.4-0.4s0.2-0.4,0.4-0.4h8.2c0.2,0,0.4,0.2,0.4,0.4S42.4,46,42.2,46z"/>
</g>
<g id="_x2E_svg_3513_">
	<path fill="#3F3E3F" d="M45.6,54.4C45.6,54.4,45.6,54.4,45.6,54.4l-8.2-0.3c-0.2,0-0.4-0.2-0.4-0.4c0-0.2,0.2-0.4,0.4-0.4
		c0,0,0,0,0,0l8.2,0.3c0.2,0,0.4,0.2,0.4,0.4C46,54.3,45.8,54.4,45.6,54.4z"/>
</g>
<g>
</g>
<g>
</g>
<g>
</g>
<g>
</g>
<g>
</g>
<g>
</g>
<g>
</g>
<g>
</g>
<g>
</g>
<g>
</g>
<g>
</g>
<g>
</g>
<g>
</g>
<g>
</g>
<g>
</g>
</svg>
