<?xml version="1.0" encoding="utf-8"?>
<!-- Generator: Adobe Illustrator 18.1.1, SVG Export Plug-In . SVG Version: 6.00 Build 0)  -->
<svg version="1.1" id="Layer_1" xmlns="http://www.w3.org/2000/svg" xmlns:xlink="http://www.w3.org/1999/xlink" x="0px" y="0px"
	 viewBox="0 0 72.1 72.1" enable-background="new 0 0 72.1 72.1" xml:space="preserve">
<circle id="_x2E_svg_2415_" fill="#9C4343" cx="37.8" cy="36.1" r="34.2"/>
<circle id="_x2E_svg_2430_" fill="#CF4450" cx="36.7" cy="31.1" r="26.3"/>
<circle id="_x2E_svg_2429_" fill="#DBA2A8" cx="40" cy="26.1" r="19.1"/>
<circle id="_x2E_svg_2427_" fill="#3F3E3F" cx="31.9" cy="27.1" r="15.6"/>
<path id="_x2E_svg_2425_" fill="#191919" d="M46.8,31.7c-2,6.3-7.9,10.9-14.9,10.9c-8.6,0-15.6-7-15.6-15.6c0-6.3,3.7-11.7,9-14.1
	c0,0-2.4,8.3,5.1,12.2c0,0,13.5-4,16.6-1.9l0.3,1.8c0,0-6.5-1.4-15.5,2.7C31.8,27.8,36.7,36.2,46.8,31.7L46.8,31.7z"/>
<path id="_x2E_svg_2424_" fill="#5D5D5F" d="M55.2,64.1L45.1,36.6c0,0-9.6,0.7-16.3,6.8l13,26.6L55.2,64.1"/>
<g id="_x2E_svg_2423_">
	<path fill="#707070" d="M29.3,42.9c-0.2,0.1-0.3,0.3-0.5,0.4l0.2,0.4l0-0.1L29.3,42.9z"/>
	<polygon fill="#707070" points="38,42.5 37.2,40.5 35.9,43.3 	"/>
	<polygon fill="#595959" points="38.8,44.6 38,42.5 35.9,43.3 	"/>
	<path fill="#595959" d="M34.1,39.8c-0.5,0.3-1,0.5-1.5,0.8l0.6,1.4L34.1,39.8z"/>
	<path fill="#B2B2B2" d="M32.5,40.7c-0.4,0.2-0.7,0.5-1.1,0.7l1.7,0.7L32.5,40.7z"/>
	<polygon fill="#D9D9D9" points="31.8,45 29,43.7 29,43.8 29.9,45.7 	"/>
	<polygon fill="#595959" points="29.9,45.7 30.8,47.4 31.8,45 	"/>
	<polygon fill="#595959" points="33.4,49 35.5,48.2 34.7,46.2 	"/>
	<polygon fill="#707070" points="35.5,48.2 37.5,47.4 34.7,46.2 	"/>
	<polygon fill="#595959" points="34.7,46.2 35.9,43.3 33.9,44.1 	"/>
	<polygon fill="#707070" points="33.9,44.1 35.9,43.3 33.1,42.1 	"/>
	<polygon fill="#D9D9D9" points="33.1,42.1 31.8,45 33.9,44.1 	"/>
	<polygon fill="#B2B2B2" points="33.9,44.1 31.8,45 34.7,46.2 	"/>
	<polygon fill="#595959" points="37.5,47.4 38.8,44.6 36.7,45.4 	"/>
	<polygon fill="#707070" points="36.7,45.4 38.8,44.6 35.9,43.3 	"/>
	<polygon fill="#D9D9D9" points="36.7,45.4 35.9,43.3 34.7,46.2 	"/>
	<polygon fill="#B2B2B2" points="34.7,46.2 37.5,47.4 36.7,45.4 	"/>
	<polygon fill="#595959" points="35.9,43.3 37.2,40.5 35.1,41.3 	"/>
	<path fill="#707070" d="M35.1,41.3l2-0.8l-2.3-1c-0.1,0.1-0.2,0.1-0.4,0.2L35.1,41.3z"/>
	<path fill="#D9D9D9" d="M35.1,41.3l-0.7-1.7c-0.1,0.1-0.3,0.1-0.4,0.2l-1,2.3L35.1,41.3z"/>
	<polygon fill="#B2B2B2" points="35.9,43.3 35.1,41.3 33.1,42.1 	"/>
	<polygon fill="#707070" points="31,42.9 31.8,45 33.1,42.1 	"/>
	<path fill="#595959" d="M31.4,41.4c-0.3,0.2-0.5,0.4-0.8,0.5l0.4,1l2-0.8L31.4,41.4z"/>
	<path fill="#D9D9D9" d="M31,42.9l-0.4-1c-0.5,0.3-0.9,0.7-1.3,1L29,43.7L31,42.9z"/>
	<polygon fill="#595959" points="29,43.7 31.8,45 31,42.9 	"/>
	<polygon fill="#707070" points="32.6,47 33.4,49 34.7,46.2 	"/>
	<polygon fill="#595959" points="31.8,45 32.6,47 34.7,46.2 	"/>
	<polygon fill="#D9D9D9" points="30.8,47.4 30.9,47.7 32.6,47 31.8,45 	"/>
	<polygon fill="#B2B2B2" points="32.6,47 30.9,47.7 31.1,48 33.4,49 	"/>
	<polygon fill="#707070" points="45.9,38.7 45.2,36.8 44.1,39.5 	"/>
	<polygon fill="#595959" points="46.6,40.6 45.9,38.7 44.1,39.5 	"/>
	<path fill="#595959" d="M41.7,37.2c-0.3,0.1-0.5,0.1-0.8,0.2l0.4,0.9L41.7,37.2z"/>
	<path fill="#B2B2B2" d="M40.8,37.4c-0.3,0.1-0.7,0.2-1.1,0.3l1.4,0.6L40.8,37.4z"/>
	<polygon fill="#D9D9D9" points="37.1,39.9 37.9,41.9 40,41.1 	"/>
	<polygon fill="#595959" points="37.9,41.9 38.7,44 40,41.1 	"/>
	<polygon fill="#595959" points="41.6,45.2 43.6,44.4 42.8,42.3 	"/>
	<polygon fill="#707070" points="43.6,44.4 45.7,43.6 42.8,42.3 	"/>
	<polygon fill="#595959" points="42,40.3 42.8,42.3 44.1,39.5 	"/>
	<polygon fill="#707070" points="44.1,39.5 41.2,38.2 42,40.3 	"/>
	<polygon fill="#D9D9D9" points="41.2,38.2 40,41.1 42,40.3 	"/>
	<polygon fill="#B2B2B2" points="40,41.1 42.8,42.3 42,40.3 	"/>
	<polygon fill="#595959" points="44.9,41.5 45.7,43.6 46.8,41.1 46.7,40.8 	"/>
	<polygon fill="#707070" points="44.9,41.5 46.7,40.8 46.6,40.6 44.1,39.5 	"/>
	<polygon fill="#D9D9D9" points="42.8,42.3 44.9,41.5 44.1,39.5 	"/>
	<polygon fill="#B2B2B2" points="42.8,42.3 45.7,43.6 44.9,41.5 	"/>
	<polygon fill="#595959" points="45.2,36.8 45.3,36.6 45.2,36.7 	"/>
	<polygon fill="#595959" points="44.1,39.5 45.2,36.8 45.2,36.7 43.2,37.4 	"/>
	<path fill="#707070" d="M45.2,36.7L45.2,36.7c0-0.1-0.8,0-2.1,0.2l0.2,0.5L45.2,36.7z"/>
	<path fill="#D9D9D9" d="M43.2,37.4L43,36.9c-0.4,0.1-0.9,0.2-1.4,0.3l-0.5,1.1L43.2,37.4z"/>
	<polygon fill="#B2B2B2" points="43.2,37.4 41.2,38.2 44.1,39.5 	"/>
	<polygon fill="#707070" points="41.2,38.2 39.1,39 40,41.1 	"/>
	<path fill="#595959" d="M39.8,37.6c-0.3,0.1-0.7,0.2-1.1,0.3l0.4,1.1l2-0.8L39.8,37.6z"/>
	<path fill="#D9D9D9" d="M39.1,39L38.7,38c-0.3,0.1-0.6,0.2-0.9,0.3l-0.7,1.6L39.1,39z"/>
	<polygon fill="#595959" points="39.1,39 37.1,39.9 40,41.1 	"/>
	<polygon fill="#707070" points="40.8,43.1 41.6,45.2 42.8,42.3 	"/>
	<polygon fill="#595959" points="40.8,43.1 42.8,42.3 40,41.1 	"/>
	<polygon fill="#D9D9D9" points="40,41.1 38.7,44 40.8,43.1 	"/>
	<polygon fill="#B2B2B2" points="38.7,44 41.6,45.2 40.8,43.1 	"/>
	<polygon fill="#707070" points="41.7,50.7 40.9,48.6 39.7,51.5 	"/>
	<polygon fill="#595959" points="42.5,52.7 41.7,50.7 39.7,51.5 	"/>
	<polygon fill="#595959" points="38.1,47.4 36,48.2 36.8,50.2 	"/>
	<polygon fill="#B2B2B2" points="36,48.2 34,49 36.8,50.2 	"/>
	<polygon fill="#D9D9D9" points="33,52 33.9,53.8 35.6,53.1 	"/>
	<polygon fill="#595959" points="33.9,53.8 34.6,55.3 35.6,53.1 	"/>
	<polygon fill="#595959" points="37.2,57.2 39.3,56.4 38.4,54.3 	"/>
	<polygon fill="#707070" points="39.3,56.4 41.3,55.6 38.4,54.3 	"/>
	<polygon fill="#595959" points="38.4,54.3 39.7,51.5 37.6,52.3 	"/>
	<polygon fill="#707070" points="39.7,51.5 36.8,50.2 37.6,52.3 	"/>
	<polygon fill="#D9D9D9" points="37.6,52.3 36.8,50.2 35.6,53.1 	"/>
	<polygon fill="#B2B2B2" points="35.6,53.1 38.4,54.3 37.6,52.3 	"/>
	<polygon fill="#595959" points="41.3,55.6 42.5,52.7 40.5,53.5 	"/>
	<polygon fill="#707070" points="40.5,53.5 42.5,52.7 39.7,51.5 	"/>
	<polygon fill="#D9D9D9" points="40.5,53.5 39.7,51.5 38.4,54.3 	"/>
	<polygon fill="#B2B2B2" points="38.4,54.3 41.3,55.6 40.5,53.5 	"/>
	<polygon fill="#595959" points="39.7,51.5 40.9,48.6 38.9,49.4 	"/>
	<polygon fill="#707070" points="40.9,48.6 38.1,47.4 38.9,49.4 	"/>
	<polygon fill="#D9D9D9" points="38.9,49.4 38.1,47.4 36.8,50.2 	"/>
	<polygon fill="#B2B2B2" points="38.9,49.4 36.8,50.2 39.7,51.5 	"/>
	<polygon fill="#707070" points="36.8,50.2 34.8,51.1 35.6,53.1 	"/>
	<polygon fill="#595959" points="36.8,50.2 34,49 34.8,51.1 	"/>
	<polygon fill="#D9D9D9" points="34.8,51.1 34,49 32.8,51.6 32.9,51.8 	"/>
	<polygon fill="#595959" points="34.8,51.1 32.9,51.8 33,52 35.6,53.1 	"/>
	<polygon fill="#707070" points="36.4,55.1 37.2,57.2 38.4,54.3 	"/>
	<polygon fill="#595959" points="35.6,53.1 36.4,55.1 38.4,54.3 	"/>
	<polygon fill="#D9D9D9" points="34.6,55.3 34.9,55.8 36.4,55.1 35.6,53.1 	"/>
	<polygon fill="#B2B2B2" points="36.4,55.1 34.9,55.8 35.1,56.3 37.2,57.2 	"/>
	<polygon fill="#707070" points="49,47.2 48.6,45.9 47.8,47.6 	"/>
	<polygon fill="#595959" points="49.4,48.3 49,47.2 47.8,47.6 	"/>
	<polygon fill="#595959" points="46.2,43.5 44.2,44.3 45,46.4 	"/>
	<polygon fill="#B2B2B2" points="44.2,44.3 42.1,45.2 45,46.4 	"/>
	<polygon fill="#D9D9D9" points="40.9,48 41.7,50.1 43.7,49.2 	"/>
	<polygon fill="#595959" points="41.7,50.1 42.5,52.1 43.7,49.2 	"/>
	<polygon fill="#595959" points="45.3,53.3 47.4,52.5 46.6,50.5 	"/>
	<polygon fill="#707070" points="47.4,52.5 49.4,51.7 46.6,50.5 	"/>
	<polygon fill="#595959" points="45.8,48.4 46.6,50.5 47.8,47.6 	"/>
	<polygon fill="#707070" points="47.8,47.6 45,46.4 45.8,48.4 	"/>
	<polygon fill="#D9D9D9" points="45,46.4 43.7,49.2 45.8,48.4 	"/>
	<polygon fill="#B2B2B2" points="43.7,49.2 46.6,50.5 45.8,48.4 	"/>
	<polygon fill="#595959" points="48.6,49.7 49.4,51.7 50.1,50.2 49.8,49.2 	"/>
	<polygon fill="#707070" points="48.6,49.7 49.8,49.2 49.4,48.3 47.8,47.6 	"/>
	<polygon fill="#D9D9D9" points="46.6,50.5 48.6,49.7 47.8,47.6 	"/>
	<polygon fill="#B2B2B2" points="46.6,50.5 49.4,51.7 48.6,49.7 	"/>
	<polygon fill="#595959" points="48.6,45.9 48.2,45.1 47,45.6 47.8,47.6 	"/>
	<polygon fill="#707070" points="47,45.6 48.2,45.1 48,44.3 46.2,43.5 	"/>
	<polygon fill="#D9D9D9" points="47,45.6 46.2,43.5 45,46.4 	"/>
	<polygon fill="#B2B2B2" points="47.8,47.6 47,45.6 45,46.4 	"/>
	<polygon fill="#707070" points="42.9,47.2 43.7,49.2 45,46.4 	"/>
	<polygon fill="#595959" points="45,46.4 42.1,45.2 42.9,47.2 	"/>
	<polygon fill="#D9D9D9" points="42.1,45.2 40.9,48 42.9,47.2 	"/>
	<polygon fill="#595959" points="42.9,47.2 40.9,48 43.7,49.2 	"/>
	<polygon fill="#707070" points="44.5,51.3 45.3,53.3 46.6,50.5 	"/>
	<polygon fill="#595959" points="44.5,51.3 46.6,50.5 43.7,49.2 	"/>
	<polygon fill="#D9D9D9" points="43.7,49.2 42.5,52.1 44.5,51.3 	"/>
	<polygon fill="#B2B2B2" points="42.5,52.1 45.3,53.3 44.5,51.3 	"/>
	<polygon fill="#707070" points="45.4,59 44.6,56.9 43.4,59.8 	"/>
	<polygon fill="#595959" points="46.2,61 45.4,59 43.4,59.8 	"/>
	<polygon fill="#595959" points="41.7,55.7 39.7,56.5 40.5,58.6 	"/>
	<polygon fill="#B2B2B2" points="39.7,56.5 37.6,57.3 40.5,58.6 	"/>
	<polygon fill="#D9D9D9" points="37.2,60.5 37.9,62 39.3,61.4 	"/>
	<polygon fill="#595959" points="37.9,62 38.5,63.2 39.3,61.4 	"/>
	<polygon fill="#595959" points="40.9,65.5 42.9,64.7 42.1,62.7 	"/>
	<polygon fill="#707070" points="42.9,64.7 45,63.9 42.1,62.7 	"/>
	<polygon fill="#595959" points="42.1,62.7 43.4,59.8 41.3,60.6 	"/>
	<polygon fill="#707070" points="43.4,59.8 40.5,58.6 41.3,60.6 	"/>
	<polygon fill="#D9D9D9" points="41.3,60.6 40.5,58.6 39.3,61.4 	"/>
	<polygon fill="#B2B2B2" points="39.3,61.4 42.1,62.7 41.3,60.6 	"/>
	<polygon fill="#595959" points="45,63.9 46.2,61 44.2,61.8 	"/>
	<polygon fill="#707070" points="44.2,61.8 46.2,61 43.4,59.8 	"/>
	<polygon fill="#D9D9D9" points="44.2,61.8 43.4,59.8 42.1,62.7 	"/>
	<polygon fill="#B2B2B2" points="42.1,62.7 45,63.9 44.2,61.8 	"/>
	<polygon fill="#595959" points="43.4,59.8 44.6,56.9 42.5,57.8 	"/>
	<polygon fill="#707070" points="44.6,56.9 41.7,55.7 42.5,57.8 	"/>
	<polygon fill="#D9D9D9" points="42.5,57.8 41.7,55.7 40.5,58.6 	"/>
	<polygon fill="#B2B2B2" points="42.5,57.8 40.5,58.6 43.4,59.8 	"/>
	<polygon fill="#707070" points="40.5,58.6 38.4,59.4 39.3,61.4 	"/>
	<polygon fill="#595959" points="40.5,58.6 37.6,57.3 38.4,59.4 	"/>
	<polygon fill="#D9D9D9" points="38.4,59.4 37.6,57.3 36.7,59.5 36.9,60 	"/>
	<polygon fill="#595959" points="38.4,59.4 36.9,60 37.2,60.5 39.3,61.4 	"/>
	<polygon fill="#707070" points="40.1,63.5 40.9,65.5 42.1,62.7 	"/>
	<polygon fill="#595959" points="39.3,61.4 40.1,63.5 42.1,62.7 	"/>
	<polygon fill="#D9D9D9" points="38.5,63.2 38.8,63.9 40.1,63.5 39.3,61.4 	"/>
	<polygon fill="#B2B2B2" points="40.1,63.5 38.8,63.9 39.3,64.8 40.9,65.5 	"/>
	<polygon fill="#707070" points="52.1,55.7 51.9,55 51.5,55.9 	"/>
	<polygon fill="#595959" points="52.4,56.3 52.1,55.7 51.5,55.9 	"/>
	<polygon fill="#595959" points="49.9,51.9 47.8,52.7 48.6,54.7 	"/>
	<polygon fill="#B2B2B2" points="47.8,52.7 45.8,53.5 48.6,54.7 	"/>
	<polygon fill="#D9D9D9" points="44.5,56.3 45.3,58.4 47.4,57.6 	"/>
	<polygon fill="#595959" points="45.3,58.4 46.1,60.4 47.4,57.6 	"/>
	<polygon fill="#595959" points="49,61.7 51.1,60.9 50.2,58.8 	"/>
	<polygon fill="#707070" points="51.1,60.9 53.1,60 50.2,58.8 	"/>
	<polygon fill="#595959" points="49.4,56.8 50.2,58.8 51.5,55.9 	"/>
	<polygon fill="#707070" points="51.5,55.9 48.6,54.7 49.4,56.8 	"/>
	<polygon fill="#D9D9D9" points="48.6,54.7 47.4,57.6 49.4,56.8 	"/>
	<polygon fill="#B2B2B2" points="47.4,57.6 50.2,58.8 49.4,56.8 	"/>
	<polygon fill="#595959" points="52.3,58 53.1,60 53.4,59.3 52.9,57.8 	"/>
	<polygon fill="#707070" points="52.3,58 52.9,57.8 52.4,56.3 51.5,55.9 	"/>
	<polygon fill="#D9D9D9" points="50.2,58.8 52.3,58 51.5,55.9 	"/>
	<polygon fill="#B2B2B2" points="50.2,58.8 53.1,60 52.3,58 	"/>
	<polygon fill="#595959" points="51.9,55 51.4,53.6 50.7,53.9 51.5,55.9 	"/>
	<polygon fill="#707070" points="50.7,53.9 51.4,53.6 50.9,52.3 49.9,51.9 	"/>
	<polygon fill="#D9D9D9" points="50.7,53.9 49.9,51.9 48.6,54.7 	"/>
	<polygon fill="#B2B2B2" points="51.5,55.9 50.7,53.9 48.6,54.7 	"/>
	<polygon fill="#707070" points="46.6,55.5 47.4,57.6 48.6,54.7 	"/>
	<polygon fill="#595959" points="48.6,54.7 45.8,53.5 46.6,55.5 	"/>
	<polygon fill="#D9D9D9" points="45.8,53.5 44.5,56.3 46.6,55.5 	"/>
	<polygon fill="#595959" points="46.6,55.5 44.5,56.3 47.4,57.6 	"/>
	<polygon fill="#707070" points="48.2,59.6 49,61.7 50.2,58.8 	"/>
	<polygon fill="#595959" points="48.2,59.6 50.2,58.8 47.4,57.6 	"/>
	<polygon fill="#D9D9D9" points="47.4,57.6 46.1,60.4 48.2,59.6 	"/>
	<polygon fill="#B2B2B2" points="46.1,60.4 49,61.7 48.2,59.6 	"/>
	<polygon fill="#B2B2B2" points="43.5,64.7 41.4,65.5 44.3,66.7 	"/>
	<polygon fill="#595959" points="55.2,64.1 55.2,64.1 55.2,64.1 	"/>
	<polygon fill="#707070" points="55.2,64.1 55.2,64.1 55.2,64.1 	"/>
	<polygon fill="#595959" points="45.5,63.9 43.5,64.7 44.3,66.7 	"/>
	<polygon fill="#707070" points="48.4,65.1 45.5,63.9 46.3,65.9 	"/>
	<polygon fill="#D9D9D9" points="46.3,65.9 45.5,63.9 44.3,66.7 	"/>
	<polygon fill="#595959" points="44.3,66.7 41.4,65.5 42.2,67.5 	"/>
	<polygon fill="#D9D9D9" points="42.2,67.5 41.4,65.5 40.6,67.4 40.9,68.1 	"/>
	<polygon fill="#595959" points="53.6,60 51.6,60.8 52.4,62.9 	"/>
	<polygon fill="#B2B2B2" points="51.6,60.8 49.5,61.6 52.4,62.9 	"/>
	<polygon fill="#D9D9D9" points="54.4,62 53.6,60 52.4,62.9 	"/>
	<polygon fill="#595959" points="52.4,62.9 49.5,61.6 50.3,63.7 	"/>
	<polygon fill="#D9D9D9" points="49.5,61.6 48.3,64.5 50.3,63.7 	"/>
</g>
<path id="_x2E_svg_2414_" fill="#3F3E3F" d="M36.1,0C16.1,0,0,16.1,0,36.1s16.1,36.1,36.1,36.1S72.1,56,72.1,36.1S56,0,36.1,0z
	 M36.1,67.4c-17.5,0-31.7-14.1-31.7-31.7S18.6,4.1,36.1,4.1s31.7,14.1,31.7,31.7C67.7,53.2,53.6,67.4,36.1,67.4z"/>
<path id="_x2E_svg_2422_" fill="#848687" d="M45.1,36.6l1.1-2c0,0-5-1.4-10.7,1.5c-5.6,2.9-9,6.6-9,6.6l2.2,0.7
	C28.8,43.4,39.7,39.8,45.1,36.6z"/>
<path id="_x2E_svg_2421_" fill="#5D5D5F" d="M39.1,39.5c-5,2.1-10.3,3.9-10.3,3.9l-2.2-0.7c0,0,3.4-3.7,9-6.6
	c0.2-0.1,0.4-0.2,0.5-0.3C36.1,35.8,35.7,38.6,39.1,39.5L39.1,39.5z"/>
<path id="_x2E_svg_2420_" fill="#D9D9D9" d="M47.1,23.9c-19.4-1.6-27.6,12.7-27.6,12.7c-3.4-0.4-2-3.4-2-3.4s8.9-14.7,28.3-13.1
	C45.8,20.1,49.4,21.4,47.1,23.9L47.1,23.9z"/>
<path id="_x2E_svg_2419_" fill="#B2B2B2" d="M41.9,23.8c-15.7,1-22.4,12.8-22.4,12.8c-3.4-0.4-2-3.4-2-3.4s7-11.6,22.2-13
	C39.7,20.1,43.8,21,41.9,23.8L41.9,23.8z"/>
<path id="_x2E_svg_2418_" fill="#595959" d="M27.2,28.8c-5.3,3.6-7.7,7.8-7.7,7.8c-3.4-0.4-2-3.4-2-3.4s2.2-3.6,6.7-7
	C24.3,26.1,24.3,29.2,27.2,28.8L27.2,28.8z"/>
<polygon id="_x2E_svg_2417_" fill="#FBF7FA" points="53.8,27.1 45.9,22.3 40.2,29.5 44.9,21.6 37.7,15.8 45.6,20.6 51.4,13.4 
	46.6,21.3 "/>
<polygon id="_x2E_svg_2416_" fill="#FBF7FA" points="48,28.6 45.5,22 38.7,23.6 45.2,21.1 43.6,14.3 46.1,20.9 52.9,19.2 46.3,21.7 
	"/>
<g>
</g>
<g>
</g>
<g>
</g>
<g>
</g>
<g>
</g>
<g>
</g>
<g>
</g>
<g>
</g>
<g>
</g>
<g>
</g>
<g>
</g>
<g>
</g>
<g>
</g>
<g>
</g>
<g>
</g>
</svg>
