<?xml version="1.0" encoding="utf-8"?>
<!-- Generator: Adobe Illustrator 18.1.1, SVG Export Plug-In . SVG Version: 6.00 Build 0)  -->
<svg version="1.1" id="Layer_1" xmlns="http://www.w3.org/2000/svg" xmlns:xlink="http://www.w3.org/1999/xlink" x="0px" y="0px"
	 viewBox="0 0 72 72" enable-background="new 0 0 72 72" xml:space="preserve">
<g id="_x2E_svg_7362_">
	<circle id="_x2E_svg_7364_" fill="#F6DF66" cx="37" cy="36.2" r="33.2"/>
</g>
<path id="_x2E_svg_7392_" fill="#212121" d="M56,45.9c0,0-1.3,4-2,4.7s3.9,9.9,1.8,11.5l-7.3,5.5l-18.2,2.7l-22-13
	c0,0-4.3-9.9,4.8-21L56,45.9z"/>
<path id="_x2E_svg_7181_" fill="#FBB040" d="M0,36c0,19.9,16.1,36,36,36s36-16.1,36-36C72,16.1,55.9,0,36,0S0,16.1,0,36z M4.4,35.7
	C4.4,18.2,18.5,4.1,36,4.1s31.6,14.1,31.6,31.6c0,17.5-14.1,31.6-31.6,31.6S4.4,53.1,4.4,35.7z"/>
<path id="_x2E_svg_7391_" fill="#262626" d="M15.5,25.3c0,0-1.1,2.9-0.7,3.9S10.2,39.5,14.2,47S33,52.5,33,52.5s7.3,4,11.7-1.2
	c0,0,22.7-1.3,8.6-25.3c0,0,0-1.4-0.4-2.4c0,0,3.5-8.5,1.4-11.6c-2-3.1-7.7,4.1-7.7,4.1l-2,0.9l-1.1-1c-0.4-0.4-0.9-0.4-1.4-0.1
	l-1.2,0.9c0,0-6.6-1.3-10.9,0.4l-1.8-0.5c-0.8-0.2-1.7-0.1-2.5,0.3l-1.4,0.7l-2.2-1.3c0,0-2.6-3.8-6.8-4.5
	C11,11.2,13.5,23.4,15.5,25.3z"/>
<path id="_x2E_svg_7390_" fill="#212121" d="M38.3,32.9c0,0,2.5-10.3,8.7-8.8c6.2,1.4,7.5,6.2,7.6,7.7c0.1,1.4,0,9-2.8,10.6
	c-2.9,1.6-7.9,3.6-13.3-4.5C38.5,37.8,37.9,33.5,38.3,32.9z"/>
<path id="_x2E_svg_7389_" fill="#FFCE06" d="M33.2,32.8c0,0-0.7-2.2-4.1-2.7s-5.5,1.1-5.5,1.1s0.5,3.6,5.1,3.7S33.2,32.8,33.2,32.8z
	"/>
<path id="_x2E_svg_7387_" fill="#FFCE06" d="M42.9,31.7c0,0,0.2-2.5,3.5-3.2s4.6,2.2,4.6,2.2s-0.2,3-3.7,3S42.9,31.7,42.9,31.7z"/>
<path id="_x2E_svg_7386_" fill="#212121" d="M35.3,44.7c0,0,3.4,2.8,6.1-0.1c0,0,1.5,3.7-1,5.8S34.9,48.5,35.3,44.7z"/>
<path id="_x2E_svg_7385_" d="M30.1,31.4c0-0.4-0.1-0.9-0.2-1.2c-0.3-0.1-0.5-0.1-0.8-0.2C28.4,30,27.8,30,27.3,30
	c-0.2,0.4-0.3,0.9-0.3,1.4c0,1.4,0.7,2.5,1.6,2.5C29.4,33.9,30.1,32.8,30.1,31.4z"/>
<path id="_x2E_svg_7384_" d="M46.3,28.5c-0.3,0.1-0.6,0.2-0.9,0.3c-0.2,0.4-0.2,0.9-0.2,1.3c0,1.4,0.7,2.5,1.6,2.5
	c0.9,0,1.6-1.1,1.6-2.5c0-0.6-0.2-1.2-0.4-1.7C47.5,28.3,46.9,28.4,46.3,28.5z"/>
<ellipse id="_x2E_svg_7383_" fill="#FFFFFF" cx="26.6" cy="31.4" rx="0.8" ry="1.2"/>
<ellipse id="_x2E_svg_7382_" fill="#FFFFFF" cx="45.1" cy="30.3" rx="0.8" ry="1.2"/>
<path id="_x2E_svg_7381_" fill="#212121" d="M24.3,52.5c4.5,0.6,8.7,0,8.7,0s7.3,4,11.7-1.2c0,0,22.7-1.3,8.6-25.3
	c0,0,0-1.4-0.4-2.4c0,0,3.5-8.5,1.4-11.6c0,0-0.1,10.6-4.5,12.3c0,0,2.6,1.2,2,2.8c0,0,3.2,3,2.7,5.6s0.4,13.9-9.8,16
	c0,0-3.2,7-11.3,2.7C33.3,51.4,28.1,52.6,24.3,52.5L24.3,52.5z"/>
<path id="_x2E_svg_7380_" fill="#1B1A1C" d="M50.1,23.4c0,0-4.2-1.3-2.5-4c2.9-4.3,4.1-4.7,4.6-5.4c0.5-0.7,1.1-0.2,1.2,0.6
	c0.2,1.5,0.2,3.8-0.9,5.9C50.7,24.1,50.1,23.4,50.1,23.4z"/>
<path id="_x2E_svg_7379_" fill="#212121" d="M34.1,32c0,0,1.2-6.4-3-7.5s-5.7-0.3-7.6,1.6s-2.2,4.2-2.2,4.2s2.2-2,6.6-1.4
	C32.1,29.5,31.8,29.9,34.1,32z"/>
<path id="_x2E_svg_7378_" fill="#212121" d="M20.9,21c0.6-0.8,0.5-1.9-0.1-2.7c-1.2-1.6-4.1-3.7-5.3-4.1c-1.7-0.6-0.4,7,1.6,8.8
	C18.7,24.3,19.9,22.6,20.9,21z"/>
<path id="_x2E_svg_7377_" fill="#1B1A1C" d="M56.1,45.7c-3.6,5.2-11.4,5.6-11.4,5.6C40.3,56.5,33,52.5,33,52.5s-14.7,2-18.8-5.5
	c-0.3-0.6-0.6-1.2-0.8-1.9c0,0,0.9,10.6,18.9,9.4c0,0,2.9,4.1,6.8,4c4-0.1,6.4-3,6.6-4.5c0,0,4-0.2,8.3-3.4c0,0,1.6-3,1.9-4.2
	L56.1,45.7z"/>
<path id="_x2E_svg_7376_" fill="#212121" d="M17.3,50.2C16,49.4,15,48.4,14.2,47c-4-7.5,1-16.9,0.6-17.8s0.7-3.9,0.7-3.9
	c-1-1-2.2-5-2.5-8.4c0,0,2.4,8.2,4.2,8.5c0,0-1.3,2.9-0.2,5.2c0,0-7.2,11.6,0.2,19.9l0,0"/>
<g id="_x2E_svg_7375_">
	<path fill="#212121" d="M35.5,33.4c0,0-0.1,1.2-0.6,2.5c-0.6,1.3-1.6,2.9-3.6,3.6c-2.7,1-6.3,0.2-8.6-2.2c-1.9-2-4.7-0.7-4,1.9
		c0.1,0.5,0.4,1,0.9,1.3c1.5,1.2,2.9,1.9,4.6,2.4c1.7,0.5,3.1,1.2,5.6,0.8c2.5-0.4,4.7-1.3,6.2-2.9c0.8-0.8,1.3-1.7,1.7-2.8
		s0.6-2.2,0.5-3.5L35.5,33.4z"/>
	<path fill="#222222" d="M34.7,36.9c0,0.5-0.4,1.1-0.7,1.7c-0.4,1-1,2-1.3,2.9c-1.3,1.1-3.1,1.8-5.1,2c-2,0.2-3.6,0-5-0.4
		c-0.4-0.1-0.8-0.3-1.1-0.5c-0.9-0.5-1.8-1.1-2.6-1.8c-0.4-0.3-0.6-0.7-0.7-1.1c-0.6-2.2,2-3.7,3.5-2.3c1.2,1.1,2.9,1.6,4.5,1.6
		c0.8,0,1.7-0.1,2.4-0.4C28.5,38.7,33.9,38.2,34.7,36.9L34.7,36.9z"/>
	<path fill="#232323" d="M30.7,38.2c0,0.3,0,0.1-0.4,0.9c-0.5,1-0.9,2.1-0.9,3c-1.1,0.7-2.5,1-4.1,1c-1.5,0-2.8-0.2-3.9-0.6
		c-0.3-0.1-0.6-0.3-0.9-0.4c-0.7-0.4-1.4-0.9-2-1.5c-0.3-0.3-0.4-0.6-0.5-0.9c-0.5-1.7,1.3-2.9,2.4-2.2c0.9,0.6,2.1,1.1,3.4,1.1
		c0.6,0,1.3,0,1.8-0.2C25.7,38.5,28.5,39.3,30.7,38.2z"/>
	<path fill="#252524" d="M26.6,36.6c0.4,0.5,0.7,1,1.1,1.4c0,0.2-0.6,0.8-1.1,1.7c-0.5,1-0.9,2.1-0.5,3.1c-0.9,0.2-1.9,0.2-3,0
		c-1-0.2-1.9-0.4-2.7-0.8c-0.2-0.1-0.4-0.2-0.6-0.3c-0.5-0.3-1-0.7-1.3-1.2c-0.2-0.2-0.3-0.4-0.3-0.7c-0.3-1.2,0.6-2.1,1.3-2
		c0.6,0.1,1.4-0.1,2.3-0.2c0.4-0.1,0.8-0.2,1.3-0.3c0.8-0.3,1.4-0.6,1.9-0.9c0.3-0.3,0.5-0.5,0.6-0.4C25.6,36,26.4,36.4,26.6,36.6z"
		/>
	<path fill="#262626" d="M22.9,43.4c-0.7-0.3-1.3-0.6-2-1s-1.3-0.8-1.9-1.3c-0.5-0.4-0.7-0.8-0.9-1.3c-0.4-1.3,0.3-2.4,1.3-3
		c1-0.5,2.3-0.5,3.3,0.5c0.5,0.5,1,0.9,1.5,1.2c0,0-0.8,0.7-1.3,1.6C22.3,41.1,22,42.3,22.9,43.4L22.9,43.4z"/>
</g>
<path id="_x2E_svg_7374_" d="M35.3,32.9c0-0.2,0.3-0.6,0.5-0.6c0.7-0.2,2.8-0.9,4.3-0.1c1.7,0.8-1.3,3-1.3,3s-0.6,0.3-1.3,0.2
	C36.7,35.2,35.2,33.9,35.3,32.9z"/>
<path id="_x2E_svg_7373_" d="M37.9,35.5c0,0-0.9,6.9-7.2,7.7s-6-1.2-6-1.2s-0.5,2.9,5.9,2c5.4-0.8,6.8-3.9,7.1-4.8
	c0.1-0.3,0.5-0.4,0.7-0.2c0,0,0,0,0,0c0.4,0.3,3.3,5.3,8.2,4c0,0-7.4-0.5-8.3-7.7C38.4,35.2,38,34.9,37.9,35.5z"/>
<path id="_x2E_svg_7372_" fill="#FFFFFF" d="M32.2,37.6c0,0-1.3,0.9-3.1,2.5c-1.8,1.5-4.1,3.6-6.2,6c-1,1.2-2,2.4-2.9,3.6
	c-0.8,1.2-1.5,2.4-1.9,3.5c-0.2,0.5-0.4,1.1-0.5,1.5c-0.1,0.5-0.2,0.9-0.2,1.2c0,0.2,0,0.3,0,0.5c0,0.1,0,0.2,0,0.3
	c0,0.2,0,0.3,0,0.3s0-0.1,0-0.3c0-0.1,0-0.2,0-0.3c0-0.1,0-0.3,0-0.5c0-0.3,0.1-0.8,0.2-1.2c0.1-0.5,0.3-1,0.5-1.5
	c0.4-1.1,1.1-2.3,1.9-3.5c0.8-1.2,1.8-2.5,2.8-3.6c2.1-2.4,4.4-4.5,6.2-6C30.8,38.4,32.1,37.5,32.2,37.6
	C32.1,37.5,32.2,37.5,32.2,37.6C32.2,37.5,32.2,37.6,32.2,37.6L32.2,37.6z"/>
<path id="_x2E_svg_7371_" fill="#FFFFFF" d="M33.9,37.4c0,0-1,0.9-2.5,2.3c-0.7,0.7-1.6,1.5-2.5,2.4c-0.4,0.5-0.9,0.9-1.4,1.4
	c-0.2,0.2-0.5,0.5-0.7,0.7c-0.2,0.3-0.5,0.5-0.7,0.8c-0.4,0.5-0.9,1-1.3,1.6c-0.2,0.3-0.4,0.5-0.6,0.8c-0.2,0.3-0.4,0.5-0.6,0.8
	c-0.2,0.3-0.4,0.5-0.5,0.8c-0.2,0.3-0.3,0.5-0.5,0.8c-0.3,0.5-0.6,1-0.8,1.5c-0.1,0.2-0.2,0.5-0.3,0.7c-0.1,0.2-0.2,0.4-0.2,0.6
	c-0.1,0.2-0.1,0.4-0.2,0.6c-0.1,0.2-0.1,0.3-0.1,0.5C21,53.8,21,54,21,54.2c0,0.2,0,0.2,0,0.2s0-0.1,0-0.2c0-0.2,0-0.4,0.1-0.7
	c0-0.1,0.1-0.3,0.1-0.5c0.1-0.2,0.1-0.4,0.2-0.6c0.1-0.2,0.2-0.4,0.2-0.6c0.1-0.2,0.2-0.4,0.3-0.7c0.2-0.5,0.5-1,0.8-1.5
	c0.1-0.3,0.3-0.5,0.5-0.8c0.2-0.3,0.3-0.5,0.5-0.8c0.2-0.3,0.4-0.5,0.6-0.8c0.2-0.3,0.4-0.5,0.6-0.8c0.4-0.5,0.8-1.1,1.3-1.6
	c0.2-0.3,0.4-0.5,0.7-0.8c0.2-0.3,0.5-0.5,0.7-0.8c0.5-0.5,0.9-1,1.4-1.4c0.9-0.9,1.7-1.7,2.5-2.4C32.8,38.2,33.9,37.3,33.9,37.4
	C33.9,37.3,33.9,37.3,33.9,37.4C33.9,37.3,33.9,37.4,33.9,37.4L33.9,37.4z"/>
<path id="_x2E_svg_7370_" fill="#FFFFFF" d="M29.6,38.3c0,0-0.3,0.1-0.8,0.4c-0.2,0.1-0.5,0.3-0.9,0.4c-0.3,0.2-0.7,0.4-1.1,0.6
	c-0.4,0.2-0.8,0.5-1.3,0.8c-0.4,0.3-0.9,0.6-1.4,1c-0.2,0.2-0.5,0.4-0.7,0.5c-0.2,0.2-0.5,0.4-0.7,0.6c-0.2,0.2-0.5,0.4-0.7,0.6
	c-0.2,0.2-0.4,0.4-0.7,0.6c-0.2,0.2-0.4,0.5-0.6,0.7c-0.2,0.2-0.4,0.5-0.6,0.7c-0.4,0.5-0.7,1-1,1.5c-0.2,0.2-0.3,0.5-0.4,0.7
	c-0.1,0.1-0.1,0.2-0.2,0.4c-0.1,0.1-0.1,0.2-0.2,0.4c-0.1,0.1-0.1,0.2-0.2,0.4c-0.1,0.1-0.1,0.2-0.1,0.4c-0.1,0.2-0.2,0.5-0.2,0.7
	c-0.1,0.2-0.1,0.4-0.2,0.6c0,0.2-0.1,0.4-0.1,0.6c0,0,0,0.1,0,0.1c0,0,0,0.1,0,0.1c0,0.1,0,0.2,0,0.3c0,0.2,0,0.3-0.1,0.4
	c0,0.5-0.1,0.9-0.1,0.9s0-0.3,0.1-0.9c0-0.1,0-0.3,0.1-0.4c0-0.1,0-0.2,0-0.3c0,0,0-0.1,0-0.1c0,0,0-0.1,0-0.1
	c0-0.2,0.1-0.4,0.1-0.6c0.1-0.2,0.1-0.4,0.2-0.6c0.1-0.2,0.2-0.4,0.2-0.7c0-0.1,0.1-0.2,0.1-0.4c0.1-0.1,0.1-0.2,0.2-0.4
	c0.1-0.1,0.1-0.2,0.2-0.4c0.1-0.1,0.1-0.2,0.2-0.4c0.1-0.3,0.3-0.5,0.4-0.7c0.3-0.5,0.7-1,1-1.5c0.2-0.2,0.4-0.5,0.6-0.7
	c0.2-0.2,0.4-0.5,0.6-0.7c0.2-0.2,0.4-0.4,0.7-0.7c0.2-0.2,0.5-0.4,0.7-0.6c0.2-0.2,0.5-0.4,0.7-0.6c0.2-0.2,0.5-0.4,0.7-0.5
	c0.5-0.3,0.9-0.7,1.4-1c0.4-0.3,0.9-0.6,1.3-0.8C28.4,38.8,29.5,38.3,29.6,38.3C29.5,38.3,29.6,38.3,29.6,38.3
	C29.6,38.3,29.6,38.3,29.6,38.3L29.6,38.3z"/>
<path id="_x2E_svg_7369_" fill="#FFFFFF" d="M43.2,37.6c0,0,1.3,0.9,3.1,2.5c1.8,1.5,4.1,3.6,6.2,6c1,1.2,2,2.4,2.9,3.6
	c0.8,1.2,1.5,2.4,1.9,3.5c0.2,0.5,0.4,1.1,0.5,1.5c0.1,0.5,0.2,0.9,0.2,1.2c0,0.2,0,0.3,0,0.5c0,0.1,0,0.2,0,0.3c0,0.2,0,0.3,0,0.3
	s0-0.1,0-0.3c0-0.1,0-0.2,0-0.3c0-0.1,0-0.3,0-0.5c0-0.3-0.1-0.8-0.2-1.2c-0.1-0.5-0.3-1-0.5-1.5c-0.4-1.1-1.1-2.3-1.9-3.5
	c-0.8-1.2-1.8-2.5-2.8-3.6c-2.1-2.4-4.4-4.5-6.2-6C44.5,38.4,43.3,37.5,43.2,37.6C43.3,37.5,43.2,37.5,43.2,37.6
	C43.2,37.5,43.2,37.6,43.2,37.6L43.2,37.6z"/>
<path id="_x2E_svg_7368_" fill="#FFFFFF" d="M41.5,37.4c0,0,1,0.9,2.5,2.3c0.7,0.7,1.6,1.5,2.5,2.4c0.4,0.5,0.9,0.9,1.4,1.4
	c0.2,0.2,0.5,0.5,0.7,0.7c0.2,0.3,0.5,0.5,0.7,0.8c0.4,0.5,0.9,1,1.3,1.6c0.2,0.3,0.4,0.5,0.6,0.8c0.2,0.3,0.4,0.5,0.6,0.8
	c0.2,0.3,0.4,0.5,0.5,0.8c0.2,0.3,0.3,0.5,0.5,0.8c0.3,0.5,0.6,1,0.8,1.5c0.1,0.2,0.2,0.5,0.3,0.7c0.1,0.2,0.2,0.4,0.2,0.6
	c0.1,0.2,0.1,0.4,0.2,0.6c0.1,0.2,0.1,0.3,0.1,0.5c0.1,0.3,0.1,0.5,0.1,0.7c0,0.2,0,0.2,0,0.2s0-0.1,0-0.2c0-0.2,0-0.4-0.1-0.7
	c0-0.1-0.1-0.3-0.1-0.5c-0.1-0.2-0.1-0.4-0.2-0.6c-0.1-0.2-0.2-0.4-0.2-0.6c-0.1-0.2-0.2-0.4-0.3-0.7c-0.2-0.5-0.5-1-0.8-1.5
	c-0.1-0.3-0.3-0.5-0.5-0.8c-0.2-0.3-0.3-0.5-0.5-0.8c-0.2-0.3-0.4-0.5-0.6-0.8c-0.2-0.3-0.4-0.5-0.6-0.8c-0.4-0.5-0.8-1.1-1.3-1.6
	c-0.2-0.3-0.4-0.5-0.7-0.8c-0.2-0.3-0.5-0.5-0.7-0.8c-0.5-0.5-0.9-1-1.4-1.4c-0.9-0.9-1.7-1.7-2.5-2.4
	C42.6,38.2,41.5,37.3,41.5,37.4C41.5,37.3,41.5,37.3,41.5,37.4C41.5,37.3,41.5,37.4,41.5,37.4L41.5,37.4z"/>
<path id="_x2E_svg_7367_" fill="#FFFFFF" d="M45.8,38.3c0,0,0.3,0.1,0.8,0.4c0.2,0.1,0.5,0.3,0.9,0.4c0.3,0.2,0.7,0.4,1.1,0.6
	c0.4,0.2,0.8,0.5,1.3,0.8c0.4,0.3,0.9,0.6,1.4,1c0.2,0.2,0.5,0.4,0.7,0.5c0.2,0.2,0.5,0.4,0.7,0.6c0.2,0.2,0.5,0.4,0.7,0.6
	c0.2,0.2,0.4,0.4,0.7,0.6c0.2,0.2,0.4,0.5,0.6,0.7c0.2,0.2,0.4,0.5,0.6,0.7c0.4,0.5,0.7,1,1,1.5c0.2,0.2,0.3,0.5,0.4,0.7
	c0.1,0.1,0.1,0.2,0.2,0.4c0.1,0.1,0.1,0.2,0.2,0.4c0.1,0.1,0.1,0.2,0.2,0.4c0.1,0.1,0.1,0.2,0.1,0.4c0.1,0.2,0.2,0.5,0.2,0.7
	c0.1,0.2,0.1,0.4,0.2,0.6c0,0.2,0.1,0.4,0.1,0.6c0,0,0,0.1,0,0.1c0,0,0,0.1,0,0.1c0,0.1,0,0.2,0,0.3c0,0.2,0,0.3,0.1,0.4
	c0,0.5,0.1,0.9,0.1,0.9s0-0.3-0.1-0.9c0-0.1,0-0.3-0.1-0.4c0-0.1,0-0.2,0-0.3c0,0,0-0.1,0-0.1c0,0,0-0.1,0-0.1
	c0-0.2-0.1-0.4-0.1-0.6c-0.1-0.2-0.1-0.4-0.2-0.6c-0.1-0.2-0.2-0.4-0.2-0.7c0-0.1-0.1-0.2-0.1-0.4c-0.1-0.1-0.1-0.2-0.2-0.4
	C57,48.1,57,48,56.9,47.9c-0.1-0.1-0.1-0.2-0.2-0.4c-0.1-0.3-0.3-0.5-0.4-0.7c-0.3-0.5-0.7-1-1-1.5c-0.2-0.2-0.4-0.5-0.6-0.7
	c-0.2-0.2-0.4-0.5-0.6-0.7c-0.2-0.2-0.4-0.4-0.7-0.7c-0.2-0.2-0.5-0.4-0.7-0.6c-0.2-0.2-0.5-0.4-0.7-0.6c-0.2-0.2-0.5-0.4-0.7-0.5
	c-0.5-0.3-0.9-0.7-1.4-1c-0.4-0.3-0.9-0.6-1.3-0.8C47,38.8,45.9,38.3,45.8,38.3C45.8,38.3,45.8,38.3,45.8,38.3
	C45.8,38.3,45.8,38.3,45.8,38.3L45.8,38.3z"/>
<path id="_x2E_svg_7366_" fill="#D7B129" d="M32.8,32.1c0.3,0.4,0.3,0.6,0.3,0.6s0,2.2-4.6,2.1s-5.1-3.7-5.1-3.7s1.1,3.7,5.5,3.5
	C33.6,34.4,32.8,32.1,32.8,32.1z"/>
<path id="_x2E_svg_7365_" fill="#D7B129" d="M50.7,30.3c0.2,0.3,0.3,0.5,0.3,0.5s-0.2,3-3.7,3s-4.4-2-4.4-2s0-0.5,0.4-1.1
	c0,0,0.4,2.7,4,2.7C50.9,33.4,50.7,30.3,50.7,30.3z"/>
<g>
</g>
<g>
</g>
<g>
</g>
<g>
</g>
<g>
</g>
<g>
</g>
<g>
</g>
<g>
</g>
<g>
</g>
<g>
</g>
<g>
</g>
<g>
</g>
<g>
</g>
<g>
</g>
<g>
</g>
</svg>
