<?xml version="1.0" encoding="utf-8"?>
<!-- Generator: Adobe Illustrator 18.1.1, SVG Export Plug-In . SVG Version: 6.00 Build 0)  -->
<svg version="1.1" id="Layer_1" xmlns="http://www.w3.org/2000/svg" xmlns:xlink="http://www.w3.org/1999/xlink" x="0px" y="0px"
	 viewBox="0 0 72 72" enable-background="new 0 0 72 72" xml:space="preserve">
<g id="_x2E_svg_2177_">
	<circle fill="#84B841" cx="36.6" cy="36.1" r="33.2"/>
</g>
<path id="_x2E_svg_2131_" fill="#0098CC" d="M0,36c0,19.9,16.1,36,36,36s36-16.1,36-36C72,16.1,55.9,0,36,0S0,16.1,0,36z M4.4,35.7
	C4.4,18.2,18.5,4.1,36,4.1s31.6,14.1,31.6,31.6c0,17.5-14.1,31.6-31.6,31.6S4.4,53.1,4.4,35.7z"/>
<g id="eU6L5U.svg">
	<g>
		<path fill="#3F3E3F" stroke="#FFFFFF" stroke-width="0.25" stroke-miterlimit="10" d="M50.7,45.7c0.1,0.8,0,1.6,0,2.4
			c0,0.6-0.1,1.3-0.1,1.8c0,0.4,0.2,0.8-0.1,1.2c-0.4,0.6-1.9,0.7-2.6,0.8c-0.5,0.1-1.7,0.5-2-0.2c-0.1-0.3,0.2-0.4,0.1-0.6
			c0-0.1-0.3-0.1-0.3-0.3c-0.1-1.4,1.8-1.7,2.4-2.9c-0.9-0.2-1.6-1.1-0.2-1c-0.4-0.9-0.7-1.8-1-2.7c-0.1-0.3-0.1-0.9-0.3-1.1
			c-0.2-0.3-0.5-0.2-0.7-0.4c-0.3-0.3-0.6-0.7-0.9-1.1c-0.1-0.2-0.4-0.5-0.4-0.7c-0.1-0.6,0.3-0.5,0.3-1c0-0.6-1.3-1.7-1.7-2.2
			c-0.6-0.6-1.2-1.3-1.8-1.9c-0.2-0.2-0.4-0.7-0.7-0.7c-0.2,0-0.3,0.2-0.5,0.2c-0.5-0.1-0.7-0.1-0.4-0.7c-0.7,0.2-0.5-0.2-0.8-0.5
			c-0.2-0.2-0.7-0.4-0.8-0.7c-0.2-0.6,0.2-0.5,0.3-1.1c0.1-0.4-0.2-0.7-0.2-1.1c0-0.7,0.4-1,0.8-1.5c0.4-0.6,0.5-1.3,0.8-1.9
			c0.6-1,1.1-2,2.4-2.2c1.3-0.3,2.9,0.2,4.2,0.4c0.3,0,0.4,0.2,0.5,0c0.2-0.2-0.1-1.1,0-1.3c0.2-0.8,0.4-0.7,1-0.8
			c0.5-0.1,0.9-0.6,1.3-0.7c0.7-0.2,1.4,0.4,1.9,0.8c1.1,0.9,2.2,2.2,1,3.5c0.9,0.3,1.7,1.2,2.3,1.9c0.3,0.3,0.5,0.7,0.8,1
			c0.2,0.2,0.5,0.2,0.7,0.4c1.3,1.1,1.6,2.5,1.8,4.1c0.2,1.4,1.3,2.7,1.8,4c0.4,0.8,0.7,1.6,1.1,2.3c0.1,0.2-0.1,0.4,0.1,0.5
			c0.3,0.2,1,0.1,1.3,0.2c0.8,0.2,1.5,0.7,2.3,0.8c0.4,0.1,1.3,0.1,1.6,0.4c0.6,0.6,1,4.6,0.3,5.1c-0.3,0.2-1.2-0.3-1.4-0.5
			c-0.3-0.4-0.4-0.9-0.6-1.3c-0.1-0.2,0-0.6-0.3-0.7C64,45.4,62.8,46,63.1,45c-0.8,0-1.6,0-2.5-0.1c-1.2-0.1-2.2,0.3-3.1-0.8
			c-0.3-0.3-0.3-0.7-0.5-1.1c-0.2-0.3-0.5-0.5-0.8-0.8c-0.6-0.8-1.2-1.7-1.8-2.5c-0.4-0.6-0.8-1.3-1.5-1c-0.5,0.2-1.4,1-1.7,1.3
			c-0.4,0.4-1.3,1.1-1.3,1.5c0,0.3,0.5,0.7,0.6,1c0.2,0.4,0.2,0.9,0.3,1.3c0.2,0.9,1,1.5,1.7,2.1c0.7,0.8,1.4,1.5,2.1,2.3
			c1.3,1.4,2.8,3.8,4.7,4.3c1.1,0.2,2.3,0.1,3.3,0c0.6-0.1,1.9-0.6,2.4-0.1c0.7,0.7-0.2,1.5-0.9,1.6c-1.1,0.3-2.6,0.3-3.7,0.2
			c-2.2-0.1-3.8-2.4-5.2-3.8C54.7,50,50.6,45.8,50.7,45.7C50.7,45.9,50.7,45.7,50.7,45.7z M45.8,39.1c0.3-0.1,0.3-0.8,0.3-1.1
			c0.2-0.7,0.7-1.3,1.1-1.9c0.5-0.8,0.7-2.4,0.1-3.3c-0.2-0.3-0.6-0.3-0.7-0.6c-0.1-0.2-0.1-0.4-0.2-0.6c-0.2-0.4-0.7-0.8-1.1-1
			c-0.8-0.6-1.7-1.1-2.4-1.6c-0.2,0.4-0.3,0.4-0.7,0.6c0.4,1.1-0.2,1.7-0.3,2.7c0,0.2,0.1,0.4,0.1,0.6c0,0.3-0.2,0.5-0.4,0.6
			c0,0-0.2,0.7-0.2,0.7c0,0.6,1.6,1.8,2,2.3C44.1,37.4,45,38.2,45.8,39.1C45.9,39,45.5,38.8,45.8,39.1z M49.2,50.4
			c0-0.7-1.3,0.7-1.3,0.5C47.9,51.1,49.2,50.8,49.2,50.4z"/>
		<path fill="#3F3E3F" stroke="#FFFFFF" stroke-width="0.25" stroke-miterlimit="10" d="M62.3,49.9c1.3,0,1.2,1.8-0.1,1.6
			C61.1,51.4,61.3,50.1,62.3,49.9C62.7,49.9,62.2,49.9,62.3,49.9z"/>
	</g>
</g>
<path id="_x2E_svg_2132_" fill="#3F3E3F" stroke="#FFFFFF" stroke-width="0.25" stroke-miterlimit="10" d="M46.8,8.9
	c0.3-0.3,0.6-0.5,0.8-0.8c0,0,0,0-0.1-0.1c-0.3,0.1-0.6,0.3-0.9,0.4c-0.1-0.1,0,0,0-0.1c0.2-0.3,0.3-0.7,0.5-1c0,0,0,0-0.1-0.1
	l-0.7,0.8l0-0.7c-0.3,0.6-0.5,1.1-0.8,1.7L45,8.9l0.6,1c-0.6,0.4-1.2,0.7-1.8,1c-0.2,0.1-0.5,0.3-0.7,0.3c-0.5,0-1.1-0.7-1.2-1.2
	c-0.1-0.4-0.2-0.8-0.4-1c-0.3-0.3-0.7-0.5-1.2-0.8c0.3-0.2,0.3-0.5,0.3-0.7C40.8,7.4,40.9,7.2,41,7c0.1-0.4-0.1-0.9-0.2-1.2
	c0-0.2,0-0.4-0.1-0.7c-0.3-0.8-1-0.9-1.6-1.2c-0.1,0-0.2,0-0.3,0c-1.2,0.4-1.9,1.2-1.8,2.5c-0.1-0.1-0.2-0.1-0.3-0.1
	c-1-0.6-1.5-0.6-2.4,0.1c-0.2,0.2-0.6,0.2-0.9,0.3c-0.9,0.1-1.7,0.1-2.6,0.2c-0.2,0-0.4,0.1-0.5,0.3c-0.9,1-1.8,2-2.7,3
	c-0.1,0.1-0.2,0.4-0.1,0.6c0.2,0.6,0.5,1.2,0.8,1.8c0.2,0.5,0.7,0.5,1.1,0.4c1-0.3,1.9-1.5,1.9-2.5c0-0.8-0.3-1.4-0.9-1.6
	c0.4-0.6,0.8-0.7,1.4-0.3c0.3,0.2,0.7,0.3,1,0.5C33,9,33.3,9.2,33.3,9.3c-0.1,0.8-0.1,1.7-0.4,2.4c-0.2,0.6-0.6,1.2-0.9,1.8
	c-0.4,0.7-0.7,1.4-1.2,2c-0.6,0.6-0.9,1.2-1,2.1c-0.1,0.5-0.2,1-0.5,1.5c-0.4,0.6-0.8,1.3-1.3,1.8c-0.4,0.6-0.9,1.1-1.7,1.2
	c-1,0.2-1.9,0.7-2.6,1.3c-0.6,0.6-1.3,1.1-2,1.7c-0.1,0.1-0.4,0.1-0.5,0.1c-0.4,0-0.8,0-1.2,0c-0.1,0-0.3,0.2-0.3,0.3
	c0,0.3,0.1,0.6,0.1,0.8c0,0.4,0.3,0.9-0.2,1.3c0,0,0,0.1,0,0.1c0.1,0.5,0.3,1.1,0.4,1.6c0.1,0.2,0.3,0.3,0.4,0.4
	c0.1-0.2,0.3-0.3,0.3-0.5c0.3-1.2,0.9-2.3,1.9-3c1.7-1.3,3.5-2.4,5.7-2.8c0.3-0.1,0.7-0.2,0.9-0.4c1.2-1.1,2.5-2,3.4-3.4
	c0.2-0.3,0.7-0.7,1-0.7c1-0.1,2-0.1,3-0.1c0.6,0,1.2,0,1.8,0.1c0.4,0,0.5,0.2,0.6,0.6c0.1,0.6,0.2,1.3,0.5,1.8
	c0.8,1.4,1.6,2.7,1.6,4.4c0,0.6-0.2,1.5,0.3,1.3c0.5-0.2,1.6-0.5,1.9-0.8c0.7-0.5,1-0.6,1.5-1.1c0.1-0.1,0.5-0.4,0.6-0.5
	c-0.2-0.1-0.7-0.1-0.9-0.1c-0.6-0.1-0.9,0.1-1.5,0c-0.7-0.1-1.1-1-1.2-1.7c-0.1-0.5-0.1-0.9-0.2-1.4c-0.4-1.3-0.8-2.7-1.2-4
	c-0.1-0.3-0.4-0.6-0.6-0.7c-1.3-0.5-2.6-0.9-3.9-1.3c-0.1,0-0.3-0.1-0.6-0.1c0.4-0.4,0.6-0.8,1-1.1c1.2-0.8,2.3-1.6,3.5-2.4
	c0.1-0.1,0.4,0,0.5,0.1c0.3,0.1,0.5,0.5,0.7,0.5c0.8,0.1,1.5,0.1,2.3,0.2c0.2,0,0.4-0.1,0.5-0.2c0.8-0.8,1.6-1.6,2.4-2.4
	c0.5-0.4,0.5-1.3,1.4-1.2C47.4,9,47.2,8.9,46.8,8.9z M40.8,6.9c0,0.1-0.1,0.2-0.2,0.3c0-0.1-0.1-0.2-0.1-0.3l0.3-0.1
	C40.8,6.8,40.8,6.9,40.8,6.9z M39.9,6.1c0.3,0,0.5,0,0.7,0c0.1,0.1,0.1,0.3,0.1,0.5l-0.4,0.2c0-0.1,0-0.1,0-0.2l-0.5-0.2
	C39.9,6.1,39.9,6.1,39.9,6.1z"/>
<g id="BmcFqg.svg">
	<g>
		<path fill="#3F3E3F" stroke="#FFFFFF" stroke-width="0.25" stroke-miterlimit="10" d="M12.4,27c0.6-0.5,1.2-0.9,1.8-1.4
			c0.3-0.2,0.7-0.4,0.8-0.8c0-0.2-0.1-0.5-0.2-0.7c-0.3-0.5-0.8-0.7-0.6-1.3c0.1-0.3,0.2-0.4,0.2-0.8c0-0.3,0-0.6,0.1-0.9
			c0.4-1.2,1.9-1.3,2.7-0.4c0.2,0.2,0.3,0.4,0.3,0.7c0.1,0.3,0.3,0.7,0.3,0.9c0.1,0.6-0.2,1.4-0.3,2.1c0.7-0.1,1.6-0.3,2.4-0.1
			c0.3,0.1,0.5,0.4,0.8,0.6c0.3,0.2,0.7,0.4,1,0.6c0.4,0.2,0.8,0.3,1.2,0.5c0.1,0,0.2,0,0.3,0.1c0.1,0.1,0,0.2,0,0.3
			c0.2,0.6,1.2,1.1,1.6,1.5c1.1,1,2.1,2,2.1,3.6c0,0.7-0.1,1.4,0.2,2.1c0.3,0.7,1.1,1.2,1.2,2c-0.2-0.1-0.4-0.3-0.6-0.4
			c0,0.3,0.3,1.3-0.2,0.8c-0.2-0.3-0.1-0.8-0.6-0.6c0.2,0.4,0.3,0.8,0.5,1.2c-0.5,0.1-0.7-0.9-0.9-1.3c-0.4,0.4,0.1,1.3-0.7,1.5
			c0-0.5,0-0.9,0-1.4c-0.2,0.1-0.9,0.6-0.8,0.1c0.1-0.3,0.5-0.5,0.6-0.8c0.3-0.7,0.1-1.6,0-2.3c-0.1-0.7-0.4-1.7-0.8-2.3
			c-0.5-0.5-1.7-0.7-2.4-1c0.1,0.7,0.1,1.5,0.1,2.2c0,0.2,0.1,0.5,0.1,0.7c0,0.2-0.1,0.3-0.2,0.5c-0.1,0.3-0.1,0.6-0.2,0.9
			c-0.1,0.4-0.2-0.1-0.1,0.4c0,0.2,0.1,0.3,0.2,0.5c0.1,0.4,0.1,0.7,0.1,1.1c-0.1,0.8-0.6,1.4-0.8,2.2c-0.2,0.6-0.4,1.3-0.8,1.8
			c-0.2,0.2-0.4,0.3-0.5,0.6c-0.1,0.3,0,0.8,0,1.1c0,0.7,0.2,1.9-0.2,2.5c-0.4,0.7-0.9,0-1.1-0.4c-0.8,0.7-2.2,2.1-3,0.5
			c-0.5-0.9-0.2-2.3,0.6-3c-0.5-0.1,0.3-1.2,0-1.3c-0.1,0-0.4,0.4-0.5,0.6c0,0.1-0.2,0.4-0.3,0.4c-0.1,0-0.3-0.2-0.4-0.2
			c-0.8,0-1.4,1.6-1.6,2.2c-0.3,1.1-0.5,2.3-0.9,3.4c-0.1,0.5-0.3,1-0.3,1.5c0,0.5,0.3,1,0.3,1.5c0,0.4,0.2,0.8-0.1,1.2
			c-0.1,0.1-0.4,0.2-0.5,0.3c-0.2,0.2-0.4,0.4-0.7,0.5c-0.5,0.3-2.4,0.7-2.4-0.3c0-0.5,0.6-0.7,0.9-1c0.4-0.3,1.1-0.7,1.2-1.2
			c0.1-0.4,0-1-0.1-1.5c-0.1-0.7-0.2-1.3-0.2-2c-0.1-1.3,0.2-2.9,0.7-4.2c0.4-0.9,0.6-1.5-0.3-2.1c0.9-1.3,1.8-2.5,2.7-3.8
			c0.3-0.4,0.8-0.9,0.9-1.4c0-0.3-0.1-0.3,0.1-0.6c0.2-0.3,0.4-0.5,0.4-0.9c0-0.6-0.5-1-0.9-1.5c-0.2-0.2-0.3-0.5-0.5-0.7
			c-0.2-0.2-0.3-0.3-0.5,0c-0.4,0.4-0.6,1.2-1,1.7c-0.3,0.4-0.9,1-0.8,1.5c0,0.2,0.2,0.3,0.2,0.5c0,0.1,0.1,0.2,0.1,0.3
			c0,0.1-0.2,0.2-0.2,0.3c0,0.2,0.2,0.4,0.2,0.6c0.1,0.3,0.1,0.6,0,0.8c-0.1,1.1-1,2-2.1,2.2C9,37.7,7.9,37,7.5,36
			c-0.5-1.1,0.1-2.3,0.8-3.2c0.5-0.6,1-0.5,1.6-0.8c0.5-0.2,0.9-0.6,1.1-1.1C11.5,29.8,12.7,28.2,12.4,27
			C13.2,26.4,12.5,27.2,12.4,27z"/>
	</g>
</g>
<g id="ynvrGF.svg">
	<g>
		<path fill="#3F3E3F" stroke="#FFFFFF" stroke-width="0.25" stroke-miterlimit="10" d="M53.7,20.6c-0.5,0.5-0.9,1-1.5,1.4
			c-3.2,1.8-6.4,3.6-9.6,5.3c0.3,1,0.3,1-1.6,1.2c0,0.9-0.4,1.6-1,2.3c-0.4,0.5-0.3,1.6-0.2,2.4c0.2,1.3,0.1,2.5-0.3,3.7
			c-0.4,1-0.6,1.1-1.5,0.4c-0.6-0.5-1.2-1-1.8-1.6c-0.3,1.3-0.6,2.6-1.1,3.8c-0.5,1.1-0.5,2-0.1,3.2c0.6,1.8,0.8,3.7-0.8,5.2
			c-0.1,0.1-0.2,0.4-0.1,0.6c0.3,1.3,0.6,2.6,1,3.9c0.2,0.8,0.8,1.2,1.7,1.3c2.2,0.4,4.4,1,6.6,1.5c0.8,0.2,1.6,0.1,2.4,0.2
			c0.4,0,0.9,0,1.3,0.2c1.1,0.3,1.1,0.9,0.4,1.8c-0.6,0.7-1,1.5-1.4,2.3c-0.6,1.1-2.2,1.8-3.5,1.4c0.4-0.5,0.8-0.9,1-1.3
			c0.2-0.3,0.5-0.8,0.4-1.1c-0.2-0.6-0.4-1.5-1.3-1.5c-1.3,0-2.6,0.1-3.9,0c-1.7-0.1-3.4-0.2-5-0.4c-0.4-0.1-0.9-0.5-1.1-0.8
			c-0.9-1.4-1.7-2.8-2.6-4.3c-1.5,1.3-2.8,2.6-3.8,4.3c-0.8,1.4-2,2.5-3,3.7c-1.1,1.2-1.9,2.5-1.5,4.3c0,0.2-0.4,0.7-0.6,0.7
			c-1.7,0-3.4,0-5-0.1c-0.3,0-0.7-0.6-1-0.9c0.3-0.3,0.6-0.8,1-0.9c1.7-0.4,2.8-1.6,3.9-2.9c2.1-2.5,3.3-5.5,4.7-8.4
			c0.9-1.9,2-3.7,2.9-5.6c0.2-0.5,0.1-1.1,0.2-1.7c0.1-0.8,0.2-1.5,0.3-2.3c0-0.2,0.1-0.4,0-0.5c-0.4-2-0.8-4.1-1.1-6.1
			c-0.2-1.3-0.3-2.5-0.3-3.8c0-1.1,0.5-1.9,1.8-2.1c0.3,0,0.6-0.2,0.8-0.3c0-0.5,0-0.9-0.1-1.5c0,0-0.3-0.1-0.4-0.3
			c-0.2-0.3-0.6-0.8-0.5-1.1c0.1-0.3,0.6-0.5,0.9-0.7c0.2-0.1,0.5-0.3,0.6-0.4c0.8-1,1.5-1.3,2.7-0.8c0.6,0.2,1.3,0.6,1.8,1
			c1.1,0.9,1.3,2,0.3,3.5c1.4-0.3,2.5-0.5,3.5-0.8c0.9-0.3,1.7-0.7,2.6-1c0.1-0.1,0.3-0.1,0.4-0.1c2.2,0.1,3.6-1.4,5.1-2.5
			c2.1-1.5,4.2-3,6.4-4.5c0.3-0.2,0.8,0,1.2,0.1C53.6,20.1,53.7,20.3,53.7,20.6z M37.9,32.5c0.2-1,0.4-2.1,0.7-3.3
			c-1,0.5-1.7,0.9-2.4,1.2C36.8,31.1,37.4,31.8,37.9,32.5z"/>
	</g>
</g>
<g>
</g>
<g>
</g>
<g>
</g>
<g>
</g>
<g>
</g>
<g>
</g>
<g>
</g>
<g>
</g>
<g>
</g>
<g>
</g>
<g>
</g>
<g>
</g>
<g>
</g>
<g>
</g>
<g>
</g>
</svg>
