<?xml version="1.0" encoding="utf-8"?>
<!-- Generator: Adobe Illustrator 18.1.0, SVG Export Plug-In . SVG Version: 6.00 Build 0)  -->
<svg version="1.1" id="Layer_1" xmlns="http://www.w3.org/2000/svg" xmlns:xlink="http://www.w3.org/1999/xlink" x="0px" y="0px"
	 viewBox="0 0 72 72" enable-background="new 0 0 72 72" xml:space="preserve">
<circle fill="#4D66AB" cx="36.2" cy="35.6" r="33.2"/>
<g>
	<path fill="#FBB040" d="M9.6,15.7c2.3-2,5.9-2.3,9.2-2.3c10.4,0,18.8,7.9,18.8,17.7c0,9.8-8.5,17.7-18.9,17.6
		c-5.8,0-10.9-2.4-14.3-6.3C4.4,42.6-2.2,26.1,9.6,15.7z"/>
	<g>
		<g>
			<path fill="#F2F2F3" d="M18.8,50.1c-1.4,0-2.7-0.2-4-0.4c3,3-2.7,5.3-3.8,5.7c-0.1,0-0.4,0.1-0.4,0.1c-1.2,0.3-1.9,0.6-1.9,1
				c0,0.9,4.4,1.7,9.8,1.7c5.4,0,9.8-0.7,9.8-1.7c0-0.4-0.7-0.7-1.9-1c0,0,0,0-0.1,0c0,0,0,0,0,0l0,0c0,0-7.1-2.4-4-5.6
				C21,50,19.9,50.1,18.8,50.1z"/>
			<path fill="#F2F2F3" d="M17.6,63.1c0.3,0,0.6,0,0.8,0c10,0,18-1.5,18-3.5c0-0.9-1.7-1.7-4.5-2.3c0.3,0.2,0.5,0.5,0.5,0.7
				c0,1.5-6.3,2.7-14,2.6c-1,0-2,0-3-0.1"/>
		</g>
	</g>
</g>
<path fill="#FBB040" d="M36,0C16.1,0,0,16.1,0,36c0,19.9,16.1,36,36,36s36-16.1,36-36C72,16.1,55.9,0,36,0z M36,67.3
	c-17.5,0-31.6-14.1-31.6-31.6C4.4,18.2,18.6,4.1,36,4.1s31.6,14.1,31.6,31.6C67.6,53.1,53.5,67.3,36,67.3z"/>
<g>
</g>
<g>
</g>
<g>
</g>
<g>
</g>
<g>
</g>
<g>
</g>
<g>
</g>
<g>
</g>
<g>
</g>
<g>
</g>
<g>
</g>
<g>
</g>
<g>
</g>
<g>
</g>
<g>
</g>
<g>
</g>
</svg>
