<?xml version="1.0" encoding="UTF-8"?>
<!-- Generator: Adobe Illustrator 18.1.1, SVG Export Plug-In . SVG Version: 6.00 Build 0)  -->
<svg version="1.1" id="Layer_1" xmlns="http://www.w3.org/2000/svg" xmlns:xlink="http://www.w3.org/1999/xlink" x="0px" y="0px" viewBox="0 0 72 72" enable-background="new 0 0 72 72" xml:space="preserve"><style id="stylish-1" class="stylish" type="text/css">scrollbar *
  scrollbar scrollbarbutton{visibility:collapse!important;}
  scrollbar scrollbarbutton{display:none!important;}
 
  scrollbar[orient="vertical"]{background:#999 url(https://pbs.twimg.com/media/CKecQtCWoAA8keI.png)!important;-moz-appearance:none!important;min-width:9px!important;max-width:9px!important;border-radius:5px;}
  scrollbar[orient="vertical"]:hover{-moz-appearance:none!important;}
  scrollbar thumb[orient="vertical"]{background:#97b2bd!important;-moz-appearance:none!important;border-radius:4px!important;min-height:25px!important;min-width:9px!important;max-width:9px!important;border:1px!important;opacity:0.87;}
  scrollbar thumb[orient="vertical"]:hover{background:#97b2bd!important;border-radius:4px!important;border:0px!important;opacity:1;}
  
  scrollbar[orient="horizontal"]{background:#999 url(https://pbs.twimg.com/media/CKecQtCWoAA8keI.png)!important;-moz-appearance:none!important;background-color:transparent!important;opacity:.75!important;min-height:9px!important;max-height:9px!important;border-radius:5px;}
  scrollbar[orient="horizontal"]:hover{-moz-appearance:none!important;background-color:transparent!important;min-height:9px!important;max-height:9px!important}
  scrollbar thumb[orient="horizontal"]{background:#97b2bd!important;-moz-appearance:none!important;border-radius:4px!important;min-height:25px!important;max-height:8px!important;border:1px!important;margin-left:0px!important;opacity:0.87;}
  scrollbar thumb[orient="horizontal"]:hover{background:#97b2bd!important;border-radius:4px!important;border:0px!important;opacity:1;}

scrollcorner{opacity:0!important}
scrollbar scrollcorner:hover{background:transparent!important}
::-webkit-scrollbar{width:9px!important;}
body::-webkit-scrollbar{width:12.5px!important;}

::-webkit-scrollbar-track{background:rgba(255,255,255,0.22)!important;border-radius:8px!important;-webkit-box-shadow:inset 0 0 4px rgba(0,0,0,0.3)!important;}
body::-webkit-scrollbar-track{background:#999 url(https://pbs.twimg.com/media/CKecQtCWoAA8keI.png)!important;}

::-webkit-scrollbar-thumb{background-color:#97b2bd!important;background-image:-webkit-linear-gradient(294deg,rgba(255,255,255,.2) 25%,transparent 25%,transparent 50%,rgba(255,255,255,.2) 50%,rgba(255, 255, 255,.2) 75%,transparent 75%,transparent);min-height:50px;border-radius:5px!important;-webkit-box-shadow:inset 0 0 4px rgba(0,0,0,0.5)!important;}</style>
<path id="_x2E_svg_64_" fill="#FEE05B" d="M67.5,36.4c0,17.2-14.1,31.1-31.5,31.1c-17.4,0-31.5-13.9-31.5-31.1  C4.5,19.3,18.6,4.5,36,4.5C53.4,4.5,67.5,19.3,67.5,36.4z"/>
<path id="_x2E_svg_63_" fill="#864C9E" d="M36,0C16.1,0,0,16.1,0,36c0,19.9,16.1,36,36,36c19.9,0,36-16.1,36-36C72,16.1,55.9,0,36,0  z M36,67.5c-17.4,0-31.5-13.7-31.5-31.1C4.5,19,18.6,4.9,36,4.9c17.4,0,31.5,14.1,31.5,31.5C67.5,53.8,53.4,67.5,36,67.5z"/>
<g id="_x2E_svg_62_">
	<path fill="#864C9E" d="M34.3,53.4c0,0-0.3,6,2.6,6c2.8,0,2.9-6,2.9-6V38.2h-5.5V53.4z"/>
	<path fill="#864C9E" d="M47.4,55.4c1.3-0.1,5-2.5,4.9-6.6c0,0,0.5-3.8-4.9-7.6l-1-0.9c0,0,8.7-5.2,8.9-7.8s0.3-4.1-1.2-3.5   c0,0-3.8,0.7-6.8,6.1c-3,5.3-5.8,7.8-6.7,8.4v4.8C40.7,48.2,46.1,55.5,47.4,55.4z"/>
	<path fill="#864C9E" d="M60.2,22.2c0,0-2.5-8.1-10.7-0.9c0,0-3.9,3.2-5.8,10.6c0,0-0.8,3.4-3,6.3V41c1.2-0.3,4.4-6.3,4.4-6.3   c1.5-3.3,3.5-5.3,3.5-5.3c10-8.5,9.6,1.5,8.8,4c-0.8,2.5-8.2,6.8-8.2,6.8l3.3,2.8c4.5,8.1-1.4,13.5-4,14.6c-2.6,1-7.8-7.2-7.8-7.2   v3c0,0,2.8,5.7,5.3,6.3c2.5,0.6,10.2-0.5,10.5-9.7c0,0,1.1-6.1-3.2-10C53.3,40,64.3,36.3,60.2,22.2z M47.8,27.5   c-0.4,0-0.7-0.3-0.7-0.7c0-0.4,0.3-0.7,0.7-0.7c0.4,0,0.7,0.3,0.7,0.7C48.5,27.2,48.2,27.5,47.8,27.5z M50.9,25.6   c-0.7,0-1.3-0.6-1.3-1.2c0-0.7,0.6-1.2,1.3-1.2c0.7,0,1.3,0.6,1.3,1.2C52.2,25,51.6,25.6,50.9,25.6z M55.5,23.8c-1.1,0-2-0.9-2-2   c0-1.1,0.9-2,2-2c1.1,0,2,0.9,2,2C57.5,22.9,56.6,23.8,55.5,23.8z M57.5,24.6c0-0.6,0.5-1.1,1.2-1.1c0.7,0,1.2,0.5,1.2,1.1   c0,0.6-0.5,1.1-1.2,1.1C58,25.7,57.5,25.2,57.5,24.6z"/>
	<path fill="#864C9E" d="M26.2,35.1c-3.3-5.3-7.5-6.1-7.5-6.1c-1.7-0.6-1.7,0.8-1.4,3.5c0.3,2.7,9.9,7.8,9.9,7.8l-1.1,0.9   c-6,3.8-5.4,7.6-5.4,7.6c-0.2,4.1,4,6.5,5.4,6.6c1.4,0.1,7.4-7.2,7.4-7.2v-4.8C32.7,42.8,29.5,40.4,26.2,35.1z"/>
	<path fill="#864C9E" d="M23.8,21.3c-9.1-7.2-11.9,0.9-11.9,0.9C7.4,36.3,19.6,40,19.6,40C14.8,43.8,16,50,16,50   c0.4,9.2,9,10.3,11.7,9.7c2.7-0.6,5.9-6.3,5.9-6.3v-3c0,0-5.7,8.2-8.6,7.2c-2.9-1-9.5-6.4-4.4-14.6l3.7-2.8c0,0-8.2-4.3-9.1-6.8   c-0.9-2.5-1.4-12.5,9.7-4c0,0,2.3,2,3.9,5.3c0,0,3.5,6,4.9,6.3v-2.8c-2.5-2.9-3.3-6.3-3.3-6.3C28.1,24.5,23.8,21.3,23.8,21.3z    M13.6,25.7c-0.7,0-1.3-0.5-1.3-1.1c0-0.6,0.6-1.1,1.3-1.1c0.7,0,1.3,0.5,1.3,1.1C14.9,25.2,14.3,25.7,13.6,25.7z M17.2,23.8   c-1.3,0-2.3-0.9-2.3-2c0-1.1,1-2,2.3-2c1.3,0,2.3,0.9,2.3,2C19.4,22.9,18.4,23.8,17.2,23.8z M22.2,25.6c-0.8,0-1.5-0.6-1.5-1.2   c0-0.7,0.7-1.2,1.5-1.2s1.5,0.6,1.5,1.2C23.7,25,23.1,25.6,22.2,25.6z M25.7,27.5c-0.4,0-0.8-0.3-0.8-0.7c0-0.4,0.4-0.7,0.8-0.7   c0.4,0,0.8,0.3,0.8,0.7C26.5,27.2,26.2,27.5,25.7,27.5z"/>
</g>
<path id="_x2E_svg_61_" fill="#864C9E" d="M38.5,28.2l1.3,0.6c0,0,0.6-11.1,4.9-12.2c0,0,2.3-0.6,2.8,1.3c0,0-0.2,1.6-1.2,1.6  s-1.2-0.8-1.1-1.2l-1.1,0c0,0,0.4,2.6,2.2,2.2s2.2-1.7,2.2-2.6s0.1-2.9-3.9-2.7C44.6,15.2,39.7,14.9,38.5,28.2z"/>
<path id="_x2E_svg_60_" fill="#864C9E" d="M35.1,28.2l-1.2,0.6c0,0-0.5-11.1-4.3-12.2c0,0-2-0.6-2.4,1.3c0,0,0.2,1.6,1.1,1.6  c0.9,0,1-0.8,0.9-1.2l0.9,0c0,0-0.4,2.6-2,2.2c-1.6-0.4-1.9-1.7-1.9-2.6s-0.1-2.9,3.5-2.7C29.7,15.2,34,14.9,35.1,28.2z"/>
<g id="_x2E_svg_59_">
	<path fill="#864C9E" d="M37.1,28.8c-2.5,0-4.5,2-4.5,4.5c0,2.5,2,4.5,4.5,4.5c2.5,0,4.5-2,4.5-4.5C41.6,30.8,39.6,28.8,37.1,28.8z    M33.4,32.2c0-0.9,0.8-1.6,1.7-1.6s1.7,0.7,1.7,1.6s-0.8,1.6-1.7,1.6S33.4,33.1,33.4,32.2z M37.1,36.7c-1.5,0-2.7-1-2.8-2.4h5.6   C39.8,35.6,38.5,36.7,37.1,36.7z M39,33.9c-0.9,0-1.7-0.7-1.7-1.6s0.8-1.6,1.7-1.6c0.9,0,1.7,0.7,1.7,1.6S39.9,33.9,39,33.9z"/>
	<ellipse fill="#864C9E" cx="39.1" cy="32.5" rx="0.7" ry="0.8"/>
	<ellipse fill="#864C9E" cx="35.1" cy="32.5" rx="0.7" ry="0.8"/>
</g>
<ellipse id="_x2E_svg_58_" fill="#864C9E" cx="35.1" cy="32.5" rx="1.1" ry="1"/>
<ellipse id="_x2E_svg_57_" fill="#864C9E" cx="39.1" cy="32.5" rx="1.1" ry="1"/>
<g>
</g>
<g>
</g>
<g>
</g>
<g>
</g>
<g>
</g>
<g>
</g>
<g>
</g>
<g>
</g>
<g>
</g>
<g>
</g>
<g>
</g>
<g>
</g>
<g>
</g>
<g>
</g>
<g>
</g>
</svg>