<?xml version="1.0" encoding="utf-8"?>
<!-- Generator: Adobe Illustrator 18.1.0, SVG Export Plug-In . SVG Version: 6.00 Build 0)  -->
<svg version="1.1" id="Layer_1" xmlns="http://www.w3.org/2000/svg" xmlns:xlink="http://www.w3.org/1999/xlink" x="0px" y="0px"
	 viewBox="0 0 72 72" enable-background="new 0 0 72 72" xml:space="preserve">
<circle fill="#794D9A" cx="36.3" cy="36.4" r="34.3"/>
<path fill="#513568" d="M68,49.2c-6.2,8.6-20.2,21.5-31.7,21.5C17.4,70.7,2,55.4,2,36.4c0-0.9,0-1.7,0.1-2.6
	c0,0,16.1,24.7,34.1,18.4C57.5,44.9,68,49.2,68,49.2z"/>
<path fill="#794D9A" d="M70.3,32.2c-1.4,17.6-16,38.5-34,38.5C17.4,70.7,2,55.4,2,36.4c0-5.8,1.5-11.3,4-16.2
	c0,0,0.8,25.2,30.2,25.2S70.3,32.2,70.3,32.2z"/>
<path fill="#898B86" d="M0.9,41.2c0.4-0.1,0,0,0.5,0c0,0,0.6-1.8,1.5-1.8c0,0-1.6-0.7-2.2-1.6c-0.6-0.9,1.7-3.1,4.3-3
	c0,0,1.4-1.3,3-2c1.6-0.7,2.4-3.4,4.8-4.3c2.4-0.9,2.3-0.1,3-1c0,0,1.5-2.2,2.4-2.6c0.9-0.4,1.4-2,1.4-2s1.7-1.9,2.5,0.9
	c0,0,2.2,3,1,6.4c0,0,1-1,2-0.3c1,0.7,1.4,2.4,0,4.1c-1.4,1.7-2.4,3.1-2.1,4.6c0.3,1.5,1.1,3.1,0.3,4.7c0,0-0.1,1.9,1.7,1.8
	c0,0,0.8,3.1-4.1,2.4c0,0-1.8,3.7-6,4.5c0,0-2.4-2.2-2.6-4.9c0,0-3.2,4.2-6.9,4.9c0,0-2.3-4.2-1.7-6.4c0,0-0.7,0.1-1.7,0.1"/>
<path fill="#040605" d="M22.3,26c-0.1,0.3-0.4,0.4-1,0.8c0,0,0.7,2-0.9,3c0,0,0.2,1.4-0.2,1.7c0,0,1.4-0.7,2.1,0.4
	c0.7,1.1,2.5-1.2,2.5-1.5s-1.9,0.5-1.9,0.5s-0.5-0.1,0.1-2.3C23.6,26.4,22.3,26,22.3,26z"/>
<path fill="#040605" d="M22.1,23.9C21.4,21,19.7,23,19.7,23s-0.1,0.5-0.4,1c0,0,1.2-0.4,1.6,0.6C20.9,24.6,21.7,24.7,22.1,23.9
	L22.1,23.9z"/>
<polygon fill="#ECEFDE" points="15.5,28.7 13.8,28.7 12.7,30.4 14.5,30.1 "/>
<path fill="#081515" d="M2.9,39.4c0,0-1.6-0.7-2.2-1.6c-0.6-0.9,1.7-3.1,4.3-3c0,0,0.1-0.1,0.2-0.2c0,0,0.5,0.2,0,0.4
	c-0.5,0.2-3.1,0.4-3.2,1.5c0,0,1.9-0.5,1.2-0.2c-0.4,0.1-1.1,1.2-0.7,1.8c0,0,1.1-1.4,2.3-1c0,0-0.4,0.7-0.9,0.8c-0.5,0,0.5,0,0.5,0
	s0.3,0.4,1.8-0.1c0,0,1.8,0.7,0.2,1.4c0,0-0.6-0.2-1.4,0s-0.9,0.2-1.3-0.3c0,0,0,0.8,0.6,1.2C4.4,40,3.3,40,2.9,39.4z"/>
<path fill="#081515" d="M1.3,41.8c0.3-0.1,0.6-0.2,1.1-0.3c0,0,0-0.8-1.6-0.7c0,0,1.1-2,2.2-1.3L4.4,40c0,0,1,1.9,3.3,1.4
	c0,0-0.4,3.4,0.9,4.1c0,0,3-0.1,5.6-3.7c0,0,1.2,5.2,2.6,5.4c0,0,3.2-1.8,3.4-3.8c0,0,0.5,0.5,1.6,0.6c0,0,0.6-0.6-0.1-2.2
	c0,0,1.5,2.6,3.2,2.1c0,0-0.9,3.2-4.2,1.6c0,0-2.1,2.8-4.3,3.5c0,0-3.2-3.4-2.6-5.4c0,0-4.3,5.8-6.5,5.8c-0.3,0-2.5-4.4-0.9-6.4
	c0,0-2,0.9-3.8,1"/>
<path fill="#9B9065" d="M10.5,59.9c0.1-0.5,0.4-1.1,0.9-1.6c0,0-1-0.4-2,0"/>
<path fill="#9B9065" d="M8.4,56.3c0.3-0.1,0.6-0.1,1,0c0,0-0.1-2.7,3.3-3.7c0,0-2.4-0.8-2.3-2c0.1-1.1,2.2-2.3,2.2-2.3
	s1.8-0.5,2.4-1.3c0,0,3.8-5.9,9.1-7.1c0,0,3,0.2,3.9-1.2c0.9-1.4,3.1-3,3.1-3s0.9-1.4,1.7-1.5c0.8-0.1,1.9,0.3,2.1,2.3
	c0,0,2.3,1.6-0.4,5.8c0,0,0.8,0.5,1.6-0.1c0.8-0.7,2.5-0.3,2.5,1.5c0,1.7-0.7,2.7-2.5,3.5c-1.9,0.8-3.9,7.8-0.1,12.7
	c0,0,2.7,1,2.8,3.4c0,0-2.4,1.9-4.7,0.5c0,0-0.4,2.9-2.5,4.4c0,0-4.8-1.9-6.1-5.3c0,0-0.4,2.5-2.9,4.1c0,0-5.1-1.7-5.7-5
	c0,0-0.6,0.4-1.9,0.7"/>
<path fill="#302825" d="M20.1,47.6c-0.3,0.2-1.9,2.1-4.1,2.6s-3.8,3.1,0.7,4.8c4.6,1.6,5.4-0.3,7.5,0.1c2,0.4-1.2-1.4-1.8-1.2
	c0,0-0.1-0.8,1.2-1.1c1.3-0.3-3.4-2.3-4.1,0.2c0,0-1.2,0-0.3-1.5c0,0-0.6-1.4-1.7-0.4c0,0-0.2-1,1.7-1.3c0,0-0.3-0.8,0.6-1
	L20.1,47.6z"/>
<path fill="#040605" d="M34.9,36.5c-0.2-2-1.3-2.4-2.1-2.3c-0.8,0.1-1.7,1.5-1.7,1.5s0.3,1,1.7,1.2c1.4,0.3,1-0.5,1.9-0.4L34.9,36.5
	z"/>
<path fill="#040605" d="M37.7,42.6c0,0-0.5-0.6-1.4-0.1c-0.9,0.5-1.4,0.6-1.9,0.3c-0.5-0.3-2,2.6,1.2,2.8
	C38.9,45.7,37.7,42.6,37.7,42.6z"/>
<polygon fill="#ECEFDE" points="28.3,41.3 26.2,42.3 25.5,45.7 28.3,43.7 "/>
<path fill="#302825" d="M12.6,52.6c0,0-2.9,0-4.5,1.9c0,0,0.4,3,6.2,1.3c0,0-3.1,1.7-2.4,5.5c0,0,2.6,0.2,6.3-2.4c0,0-0.4,4,3.3,6
	c0,0,2.6-0.2,4.2-4.3c0,0,1.3,3.3,4.8,4.7c0,0,0.8,2.1,3.4-2.9c0,0-0.5,0,2.1,0.5c0,0,0.6-2.1,3.1-1.7c0,0-1.1-2.6-3.8-2.1
	c0,0-2.8,4.1-4.6,2.6c-0.6-0.5-4.3-4.5-4.3-4.5s-1.5,2-3.3,2.9c-1.8,0.8-4.2-2.9-2.9-4.2c0,0-3.5,2.8-5.2,2.4
	c-1.7-0.3,0.3-3.5,0.3-3.5s-2,0.6-4.1-0.9C11.3,53.9,11.4,52.5,12.6,52.6z"/>
<path fill="#081515" d="M64.1,53c-2.9-11.4-9.1-11.1-9-12c0.1-1-1.2-3.8-1.4-4c-0.2-0.1-1.3-2.7-1.3-2.7c0.1-1.8-2.2-1.6-2.2-1.6
	c-4.7,3.9-4,8.2-4,8.2c-1.6,1-1.4-1.2-3.1-1.2c-1.7,0.1-2.9,1.9-1.1,4.7c1.8,2.7,0.9,5.2,0.9,5.2c-5.4,3-5.4,9.6-5.1,12.6
	c0,0-2.5,1.4-2.6,3.5c0,0,3.3,1.4,7.2-2.3c0,0-0.6,2.9,4.4,5.1c0,0,2.3-0.7,4.9-4.6c0,0,0.5,1.3,1.3,2.4"/>
<path fill="#040605" d="M47.8,36.4c0,0-1.4,1.9-1,4.6c0,0-0.5,1-2,0.4c0,0-1.1-1.2-1.5-0.7c-0.6,0.8,1.9,2.1,4.1,1.8
	c2.2-0.3-0.2-2.5,1-5.5C48.3,36.9,48,36.2,47.8,36.4z"/>
<path fill="#040605" d="M49.2,33.8c0.4-0.4,0.8-0.8,1.2-1.1c0,0,2.2-0.2,2.2,1.6c0,0,0.1,0.2,0.3,0.6c0,0-0.7,0.3-1.8-0.6
	C49.9,33.5,49.2,33.8,49.2,33.8z"/>
<path fill="#898B86" d="M60.5,58.3L58.3,57c0,0-1.8,2.8-3.6,2.9c-1.7,0.1-4.9-4.3-4.9-4.3s-1.7,3.8-3.2,4.1
	c-1.5,0.3-3.4-4.2-3.4-4.2s-3.5,2.4-4.8,2.8c-1.2,0.4,0.1-3.2,0.1-3.2s-1.7,1.3-1.7,2.2c0.1,0.9-2.2,1.6-2.2,1.6s0.9,4.1,7.2,1.2
	c0,0,2.5-0.5,3.2,2.8c0,0,1.7,0.1,4.3-3.3c0,0,3.4,1.5,4.2,3.7c0,0,2.8,0.3,5-2.9c0,0,0.2,0.3,0.6,0.7"/>
<polygon fill="#ECEFDE" points="55.2,43.2 57.5,44.9 57.1,48.3 54.8,46 "/>
<path fill="#21376C" d="M36,0C16.1,0,0,16.1,0,36c0,19.9,16.1,36,36,36s36-16.1,36-36C72,16.1,55.9,0,36,0z M36,67.3
	c-17.5,0-31.6-14.1-31.6-31.6C4.4,18.2,18.6,4.1,36,4.1s31.6,14.1,31.6,31.6C67.6,53.1,53.5,67.3,36,67.3z"/>
<path fill="#898B86" d="M5.6,34.8c0,0-2.6,0.1-3.6,2.3c0,0,1.9,2.6,3.6,2.8C5.6,40,6.7,35.8,5.6,34.8z"/>
<circle fill="#ECEFDE" cx="43.7" cy="15.2" r="11.8"/>
<path fill="#081515" d="M3.6,39.4c0,0-2.4-0.9-2.9-1.8c-0.5-0.9,2.5-2.9,4.9-2.8c0,0,0.1-0.1,0.2-0.2c0,0,0.4,0.2,0,0.4
	c-0.4,0.2-2.9,0.4-2.9,1.5c0,0,1.7-0.5,1.1-0.2c-0.4,0.1-1,1.2-0.6,1.8c0,0,1-1.4,2.1-1c0,0-0.4,0.7-0.9,0.8c-0.5,0,0.5,0,0.5,0
	s0.3,0.4,1.7-0.1c0,0,1.6,0.7,0.2,1.4c0,0-0.5-0.2-1.3,0c-0.8,0.2-0.8,0.2-1.2-0.3c0,0,0,0.8,0.6,1.2C5,40,4,40,3.6,39.4z"/>
<path fill="#898B86" d="M63.3,51.1c0,0,1.7,1.5,1.9,3.1c0.2,1.6-2.3,1.7-3.1,1.8c0,0-2.1-0.9-2.6-1.9c0,0,0.6,0.4,1,0.4
	c0.4,0-0.6-1.6-0.6-1.6s0.6,0.6,1.1,0.6c0,0-0.2,0-0.5-0.7c-0.2-0.7-1-1.1-1-1.1s1,0.1,1.5,1c0,0,0.4-0.2,0.2-0.5
	c-0.1-0.4,0.7-0.8,1.3-0.4c0,0,0.4-0.1,0.3-0.3C62.7,51.2,63.3,51.1,63.3,51.1z"/>
<path fill="#081515" d="M62.6,52.2c0,0,1.4,0.4,1.8,1.4c0.4,1-2.5,1.2-2.5,1.2s0-0.9,0.7-0.8c0,0,0.3-0.1-0.1-0.6
	C62.1,53,62.6,52.2,62.6,52.2z"/>
<circle fill="#ECEFDE" cx="25.5" cy="14.3" r="1.3"/>
<path fill="#ECEFDE" d="M20.5,16.1c0.7,0,1.3,0.6,1.3,1.3s-0.6,1.3-1.3,1.3"/>
<circle fill="#ECEFDE" cx="57.5" cy="29.3" r="1.3"/>
<g>
</g>
<g>
</g>
<g>
</g>
<g>
</g>
<g>
</g>
<g>
</g>
<g>
</g>
<g>
</g>
<g>
</g>
<g>
</g>
<g>
</g>
<g>
</g>
<g>
</g>
<g>
</g>
<g>
</g>
</svg>
