<?xml version="1.0" encoding="utf-8"?>
<!-- Generator: Adobe Illustrator 18.1.1, SVG Export Plug-In . SVG Version: 6.00 Build 0)  -->
<svg version="1.1" id="Layer_1" xmlns="http://www.w3.org/2000/svg" xmlns:xlink="http://www.w3.org/1999/xlink" x="0px" y="0px"
	 viewBox="0 0 72.1 72.1" enable-background="new 0 0 72.1 72.1" xml:space="preserve">
<circle id="_x2E_svg_2036_" fill="#90C5EB" cx="36.1" cy="36.1" r="34.2"/>
<path id="_x2E_svg_2035_" fill="#4F67AB" d="M36.1,0C16.1,0,0,16.1,0,36.1s16.1,36.1,36.1,36.1S72.1,56,72.1,36.1S56,0,36.1,0z
	 M36.1,67.4c-17.5,0-31.7-14.1-31.7-31.7S18.6,4.1,36.1,4.1s31.7,14.1,31.7,31.7C67.7,53.2,53.6,67.4,36.1,67.4z"/>
<circle id="_x2E_svg_2034_" fill="#6EC498" cx="36.1" cy="36.1" r="34.2"/>
<path id="_x2E_svg_2060_" fill="#407F5C" d="M6.8,53.7c0,0,34.1-4.8,58.6,0c0,0-13.1,16.6-27.9,16.6S6.8,54.6,6.8,54.6"/>
<path id="_x2E_svg_2021_" fill="#3F3E3F" d="M36.1,0C16.1,0,0,16.1,0,36.1s16.1,36.1,36.1,36.1S72.1,56,72.1,36.1S56,0,36.1,0z
	 M36.1,67.4c-17.5,0-31.7-14.1-31.7-31.7S18.6,4.1,36.1,4.1s31.7,14.1,31.7,31.7C67.7,53.2,53.6,67.4,36.1,67.4z"/>
<polygon id="_x2E_svg_2059_" fill="#F6DF66" points="8.3,22.1 15.1,47.1 24.1,49.1 34.1,46.6 38.1,22.1 23.2,25.3 "/>
<path id="_x2E_svg_2058_" fill="none" stroke="#F2EFAE" stroke-miterlimit="10" d="M19.3,46.1c0,0-3.8,6.2,2.2,12.2l-4.8,2"/>
<path id="_x2E_svg_2057_" fill="none" stroke="#F6DF66" stroke-miterlimit="10" d="M29.3,46.1c-0.1,1.7,7.5,8.5,7.5,8.5l1.2-5.5"/>
<path id="_x2E_svg_2056_" fill="none" stroke="#F2EFAE" stroke-miterlimit="10" d="M15.3,35.6c0,0-13.5-4.5-8.5,8"/>
<path id="_x2E_svg_2055_" fill="none" stroke="#F6DF66" stroke-miterlimit="10" d="M33.7,35.6c0,0,3.9,7.2,7.4,0.5"/>
<polygon id="_x2E_svg_2054_" fill="#F2EFAE" points="23.2,25.3 24.1,49.1 15.1,47.1 8.3,22.1 "/>
<ellipse id="_x2E_svg_2053_" fill="#FFFFFF" cx="27.1" cy="34.4" rx="2.3" ry="4.8"/>
<ellipse id="_x2E_svg_2052_" fill="#FFFFFF" cx="33.7" cy="33.3" rx="2.3" ry="4.8"/>
<path id="_x2E_svg_2051_" fill="#5D5E5E" d="M28.3,40.8c0,0,3.1,7,4.6-0.7L28.3,40.8z"/>
<path id="_x2E_svg_2050_" fill="#3F3E3F" d="M31.1,43.7c-1,0.3-2-1.2-2.5-2.1l3.4-0.6C32.1,41,32.3,42.4,31.1,43.7L31.1,43.7z"/>
<path id="_x2E_svg_2049_" fill="#CF4450" d="M29.2,42.4c0,0,2.2-1.8,3.1,0c0,0-0.2,1.2-1.1,1.3C30.4,43.9,30,43.5,29.2,42.4z"/>
<ellipse id="_x2E_svg_2048_" fill="#3F3E3F" cx="27.1" cy="34.4" rx="1" ry="2.1"/>
<ellipse id="_x2E_svg_2047_" fill="#3F3E3F" cx="34.8" cy="33.3" rx="1" ry="2.1"/>
<ellipse id="_x2E_svg_2046_" transform="matrix(0.986 -0.167 0.167 0.986 -7.1996 1.5317)" fill="#F2EFAE" cx="5.5" cy="43.6" rx="1.9" ry="1"/>
<ellipse id="_x2E_svg_2045_" transform="matrix(0.986 -0.167 0.167 0.986 -5.3472 7.5573)" fill="#F6DF66" cx="42.3" cy="35.6" rx="1.9" ry="1"/>
<path id="_x2E_svg_2044_" fill="#FFFFFF" d="M18.4,23.4c-0.2-0.7-0.6-1.3-1.2-1.6c0-0.2,0-0.4,0-0.5c0-2.1-1.4-3.9-3.2-3.9
	s-3.2,1.7-3.2,3.9c0,0.5,0.1,1,0.3,1.5c-0.3,0.4-0.5,1-0.5,1.6c0,1.3,0.9,2.4,2,2.4c0.6,0,1.2-0.4,1.6-0.9c0.2,0.2,0.4,0.3,0.7,0.3
	c0.4,0,0.7-0.2,0.9-0.5c0.4,0.3,0.9,0.5,1.4,0.4C18.1,25.7,18.7,24.6,18.4,23.4z"/>
<path id="_x2E_svg_2043_" fill="#FFFFFF" d="M24.1,25.1c-0.2-0.7-0.6-1.3-1.2-1.6c0-0.2,0-0.4,0-0.5c0-2.1-1.4-3.9-3.2-3.9
	s-3.2,1.7-3.2,3.9c0,0.5,0.1,1,0.3,1.5c-0.3,0.4-0.5,1-0.5,1.6c0,1.3,0.9,2.4,2,2.4c0.6,0,1.2-0.4,1.6-0.9c0.2,0.2,0.4,0.3,0.7,0.3
	c0.4,0,0.7-0.2,0.9-0.5c0.4,0.3,0.9,0.5,1.4,0.4C23.8,27.5,24.4,26.3,24.1,25.1z"/>
<path id="_x2E_svg_2042_" fill="#FFFFFF" d="M31.4,17.1c-0.3,0.7-0.2,1.5,0.1,2c-0.1,0.1-0.2,0.3-0.3,0.4c-1.1,1.8-0.8,4.1,0.7,5
	c1.5,0.9,3.7,0.2,4.8-1.6c0.3-0.5,0.5-0.9,0.6-1.4c0.5-0.2,1-0.6,1.3-1.1c0.7-1.1,0.5-2.5-0.4-3.1c-0.5-0.3-1.2-0.3-1.8,0
	c-0.1-0.2-0.2-0.4-0.5-0.6c-0.3-0.2-0.7-0.2-1.1-0.1c-0.2-0.5-0.5-0.9-1-1.1C32.9,15.3,31.8,15.9,31.4,17.1z"/>
<path id="_x2E_svg_2041_" fill="#FFFFFF" d="M24.1,22c0.4,0.7,1,1.1,1.6,1.2c0,0.2,0.1,0.4,0.1,0.5c0.6,2.1,2.5,3.3,4.2,2.8
	c1.7-0.5,2.6-2.6,2-4.7c-0.2-0.5-0.4-1-0.7-1.4c0.2-0.5,0.2-1.1,0-1.7c-0.4-1.3-1.5-2-2.6-1.7c-0.6,0.2-1,0.7-1.2,1.3
	c-0.2-0.1-0.5-0.1-0.7,0c-0.4,0.1-0.6,0.4-0.7,0.8c-0.5-0.2-1-0.2-1.5,0.1C23.8,19.7,23.5,20.9,24.1,22z"/>
<path id="_x2E_svg_2040_" fill="#FFFFFF" d="M26.9,24.4c0-0.8-0.3-1.5-0.7-1.9c0.1-0.2,0.1-0.3,0.2-0.5c0.6-2.1-0.4-4.1-2.1-4.6
	s-3.6,0.9-4.1,2.9c-0.1,0.5-0.2,1-0.1,1.5c-0.4,0.3-0.8,0.8-0.9,1.4c-0.3,1.3,0.2,2.5,1.3,2.8c0.6,0.2,1.2,0,1.7-0.5
	c0.2,0.2,0.4,0.4,0.6,0.4c0.4,0.1,0.7,0,1-0.3c0.3,0.4,0.8,0.7,1.3,0.7C26,26.6,26.8,25.7,26.9,24.4z"/>
<path id="_x2E_svg_2039_" fill="#FFFFFF" d="M17.3,22.8c0-0.8-0.3-1.5-0.7-1.9c0.1-0.2,0.1-0.3,0.2-0.5c0.6-2.1-0.4-4.1-2.1-4.6
	s-3.6,0.9-4.1,2.9c-0.1,0.5-0.2,1-0.1,1.5c-0.4,0.3-0.8,0.8-0.9,1.4c-0.3,1.3,0.2,2.5,1.3,2.8c0.6,0.2,1.2,0,1.7-0.5
	c0.2,0.2,0.4,0.4,0.6,0.4c0.4,0.1,0.7,0,1-0.3c0.3,0.4,0.8,0.7,1.3,0.7C16.4,25,17.3,24,17.3,22.8z"/>
<path id="_x2E_svg_2038_" fill="#FFFFFF" d="M28.8,18.2c0-0.8-0.3-1.5-0.7-1.9c0.1-0.2,0.1-0.3,0.2-0.5c0.6-2.1-0.4-4.1-2.1-4.6
	c-1.7-0.5-3.6,0.9-4.1,2.9c-0.1,0.5-0.2,1-0.1,1.5c-0.4,0.3-0.8,0.8-0.9,1.4c-0.3,1.3,0.2,2.5,1.3,2.8c0.6,0.2,1.2,0,1.7-0.5
	c0.2,0.2,0.4,0.4,0.6,0.4c0.4,0.1,0.7,0,1-0.3c0.3,0.4,0.8,0.7,1.3,0.7C27.9,20.4,28.7,19.4,28.8,18.2z"/>
<path id="_x2E_svg_2037_" fill="#FFFFFF" d="M28.3,12.2c-0.3,0.7-0.3,1.4,0,2c-0.1,0.1-0.3,0.3-0.4,0.4c-1.3,1.7-1.2,4,0.3,5
	s3.6,0.5,4.9-1.2c0.3-0.4,0.6-0.9,0.7-1.4c0.5-0.1,1-0.5,1.4-1c0.8-1.1,0.7-2.4-0.2-3.1c-0.5-0.4-1.2-0.4-1.8-0.2
	c-0.1-0.2-0.2-0.5-0.4-0.6c-0.3-0.2-0.7-0.3-1.1-0.2c-0.1-0.5-0.5-0.9-0.9-1.1C30,10.5,28.8,11.1,28.3,12.2z"/>
<path id="_x2E_svg_2033_" fill="#FFFFFF" d="M13.6,16.7c0.3,0.7,1,1.2,1.6,1.3c0,0.2,0,0.4,0.1,0.5c0.5,2.1,2.4,3.5,4.4,3
	c2-0.4,3.2-2.5,2.7-4.6c-0.1-0.5-0.3-1-0.6-1.4c0.3-0.5,0.4-1.1,0.3-1.7c-0.3-1.3-1.5-2.1-2.7-1.9c-0.7,0.1-1.2,0.6-1.5,1.3
	c-0.3-0.1-0.5-0.1-0.8-0.1c-0.4,0.1-0.7,0.4-0.9,0.7c-0.5-0.2-1.1-0.2-1.6,0C13.4,14.4,13,15.6,13.6,16.7z"/>
<path id="_x2E_svg_2032_" fill="#CF4450" d="M67.9,25.2l-5.3,23.9c0,0-8.2,2.8-13.5,0l-6-23.9"/>
<ellipse id="_x2E_svg_2031_" fill="#9C4343" cx="55.5" cy="25.2" rx="12.4" ry="1.4"/>
<ellipse id="_x2E_svg_2030_" fill="#FFFFFF" cx="55.5" cy="33.3" rx="2.3" ry="4.8"/>
<ellipse id="_x2E_svg_2029_" transform="matrix(0.9731 -0.2302 0.2302 0.9731 -6.3288 11.6403)" fill="#FFFFFF" cx="46.7" cy="32.9" rx="2.3" ry="4.8"/>
<ellipse id="_x2E_svg_2028_" fill="#3F3E3F" cx="46.7" cy="33.3" rx="1" ry="2.1"/>
<ellipse id="_x2E_svg_2027_" fill="#3F3E3F" cx="55.7" cy="33.3" rx="1" ry="2.1"/>
<path id="_x2E_svg_2026_" fill="#3F3E3F" d="M49.2,41l9.4-1.9c0,0,2.2,6.3-3.8,7.6S49.2,41,49.2,41z"/>
<path id="_x2E_svg_2025_" fill="#DBA2A8" d="M58.9,41.6c0,0-8.4,0.3-6.4,5.2C52.6,46.8,58.8,47.6,58.9,41.6z"/>
<polyline id="_x2E_svg_2024_" fill="none" stroke="#CF4450" stroke-miterlimit="10" points="51.4,49.1 47.7,58.2 44.1,53.7 "/>
<polyline id="_x2E_svg_2023_" fill="none" stroke="#CF4450" stroke-miterlimit="10" points="58.9,49.1 54.8,58.2 52.2,53.2 "/>
<line id="_x2E_svg_2022_" fill="none" stroke="#CF4450" stroke-miterlimit="10" x1="47.8" y1="40.7" x2="40.4" y2="44.6"/>
<path id="_x2E_svg_2020_" fill="none" stroke="#CF4450" stroke-miterlimit="10" d="M64.4,37.3c0,0,4.3-0.1,4.3,3.9s-5.1,3.4-5.1,3.4
	"/>
<ellipse id="_x2E_svg_2019_" transform="matrix(0.9276 0.3736 -0.3736 0.9276 21.9229 -20.9415)" fill="#CF4450" cx="65" cy="46.1" rx="2.1" ry="1.5"/>
<ellipse id="_x2E_svg_2018_" fill="#CF4450" cx="39.3" cy="44.4" rx="1.8" ry="0.9"/>
<path id="_x2E_svg_2017_" fill="#FFFFFF" d="M42.3,25.7c0,0,9.5,5.2,26,0l-0.1-1.1c0,0-5.8-1.7-12.1-1.2c-6.4,0.5-13.7,1.2-13.7,1.2
	V25.7z"/>
<polyline id="_x2E_svg_2016_" fill="none" stroke="#FFFFFF" stroke-miterlimit="10" points="55.1,26.5 52.2,11.5 38.3,7.8 "/>
<path id="_x2E_svg_2015_" fill="#CCCCCC" d="M68.1,24.6l0.1,1.1c-16.5,5.2-26,0-26,0v-1.1c0,0,6.3,2.5,13.6,1.9
	C63.2,25.9,68.1,24.6,68.1,24.6z"/>
<g>
</g>
<g>
</g>
<g>
</g>
<g>
</g>
<g>
</g>
<g>
</g>
<g>
</g>
<g>
</g>
<g>
</g>
<g>
</g>
<g>
</g>
<g>
</g>
<g>
</g>
<g>
</g>
<g>
</g>
</svg>
