<?xml version="1.0" encoding="utf-8"?>
<!-- Generator: Adobe Illustrator 18.1.1, SVG Export Plug-In . SVG Version: 6.00 Build 0)  -->
<svg version="1.1" id="Layer_1" xmlns="http://www.w3.org/2000/svg" xmlns:xlink="http://www.w3.org/1999/xlink" x="0px" y="0px"
	 viewBox="0 0 72.1 72.1" enable-background="new 0 0 72.1 72.1" xml:space="preserve">
<circle id="_x2E_svg_2519_" fill="#0098CC" cx="35.8" cy="36.1" r="34.2"/>
<path id="_x2E_svg_2517_" fill="#21376C" d="M36.1,0C16.1,0,0,16.1,0,36.1s16.1,36.1,36.1,36.1S72.1,56,72.1,36.1S56,0,36.1,0z
	 M36.1,67.4c-17.5,0-31.7-14.1-31.7-31.7S18.6,4.1,36.1,4.1s31.7,14.1,31.7,31.7C67.7,53.2,53.6,67.4,36.1,67.4z"/>
<g id="OvJXTf.svg_1_">
	<g>
		<path fill="#3F3E3F" d="M66.4,22.9c-0.2,0.3-0.6,0.5-0.7,0.8c-0.4,1-0.7,2-1.1,3.1c-0.9-0.4-1.6-0.5-2.1,0.4
			c0,0.6,0.1,1.2,0.1,1.8c0,1-0.3,1.2-1,0.9c-0.7,0.5-1.4,1-2,1.5c-0.1-0.1-0.1-0.1-0.2-0.2c0,0.2,0,0.4,0.1,0.8
			c-0.5-0.1-0.9-0.3-1.4-0.4c-1.2,1.8-3.3,2.5-5.1,3.5c-0.1-0.2-0.2-0.4-0.3-0.7c0.2-0.2,0.4-0.3,0.5-0.6c0.1-0.3,0.1-0.6,0.1-1
			c-0.4,0-0.9-0.2-1.2,0c-0.7,0.6-1.3,1.3-2,1.9c-0.1,0.1-0.4,0.3-0.6,0.2c-0.6-0.2-1,0.1-0.9,0.7c0.1,0.3,0.6,0.6,1,0.8
			c0.1,0.1,0.2,0,0.4,0.1c0,0.1,0.1,0.3,0.1,0.4c0.1,0.3,0.1,0.7,0.3,0.8c0.2,0.1,0.6-0.1,0.8-0.3c0.6-0.5,1.8-0.4,2.6,0.4
			c-1.7,0.3-2.7,1.4-3.6,2.9c1.2,0.5,1.7,1.5,1.9,2.6c0,0.2,0.3,0.3,0.4,0.5c0.7,0.8,0.7,1.4-0.1,2.1c-0.1,0.1-0.2,0.3-0.3,0.3
			c0.4,0.3,0.9,0.6,0.9,0.9c0,0.6-0.3,1.1-0.6,1.7c-0.5,0.9-1.1,1.8-1.7,2.7c-0.3,0.4-0.6,0.9-1,1.3c-0.7,0.7-1.5,1.5-2.3,2
			c-0.6,0.4-1.4,0.4-2.1,0.5c-0.5,0-0.7,0.1-1.1,0.4c-0.6,0.5-1.4,0.6-2.2,0.8c-0.7,0.2-1.2,0.4-0.8,1.4c-0.1,0-0.2,0-0.3,0
			c-0.1-0.4-0.2-0.9-0.3-1.4c-0.6,0-1.2,0-1.9,0c-0.9,0-1.4-0.5-1.3-1.3c-0.4-0.2-0.9-0.3-1.3-0.5c-0.2-0.1-0.4-0.1-0.5,0
			c-0.7,0.8-1.6,0.5-2.4,0.6c-0.4,0-0.8,0.2-1.2,0.4c0.1,0.4,0.1,0.8,0.2,1.2c-0.9-0.4-1.6-0.7-2.4-1c0.1-0.1,0.1-0.1,0.2-0.2
			c-0.3-0.7-0.6-1.3-0.9-1.9c-0.4-0.2-0.8-0.3-1.1-0.5c0.2-0.4,0.3-0.8,0.5-1.2c0.9-1,0.8-2.8-0.4-3.5c0,0-0.1-0.1-0.1,0
			c-1.1,0.4-1.3-0.6-1.8-1.3c-1,0.3-1.8,0.6-2.7,0.9c-0.1,0-0.3,0.1-0.3,0.2c-0.6,1.2-1.7,0.9-2.5,0.5c-0.9-0.4-1.3,0-1.7,0.5
			c-0.2-0.2-0.5-0.4-0.6-0.4c-1.8,0.4-3.2-0.1-4.5-1.4c-0.6-0.6-1.5-0.9-2.2-1.4c-0.2-0.1-0.4,0-0.6,0c-0.1,0-0.3,0.1-0.4,0.1
			c-0.9-0.8-2.4-1-2.5-2.4c0.3-0.1,0.7-0.2,0.9-0.4c0.1-0.1-0.2-0.5-0.3-0.8c-0.1-0.4-0.3-0.8-0.3-1.2c-0.3-0.5-0.7-0.9-1-1.4
			c-0.5-0.2-1-0.4-1.5-0.6c-0.2-0.1-0.3-0.3-0.4-0.4c-0.3-0.4-0.7-0.8-1.1-1.3C4.6,37,4.1,35.7,3,35.6c-0.2-1.2,0-1.7,1.1-2.2
			c0.2-0.1,0.5,0,0.7,0c0.2,0,0.5,0.1,0.6,0c0.6-0.7,1.3-0.8,2.1-1c0.6-0.2,1.2-0.7,1.7-1.1c0.2-0.2,0.4-0.4,0.5-0.7
			c0.1-0.1,0-0.4,0.1-0.5c1-1.1-0.2-2.1,0.1-3.4c0.6-0.1,1.4-0.1,2.1-0.2c0.2-0.9,0.4-1.9,0.6-2.9c0.7,0.1,1.2,0.4,1.8,0.4
			c0.6,0,1.2-0.2,1-1c-0.1-0.7-0.2-1.3,0.8-1.5c0.1,0,0.3-0.3,0.4-0.4c0.2-0.2,0.5-0.5,0.8-0.7c0.5,1,0.9,1.7,1.9,1.9
			c0.9,0.2,1.9,2,1.5,3.1c-0.3,0.9-0.2,1.2,0.8,1.3c1.2,0.1,2.4,0.3,3.3,1.1c0.3,0.3,0.7,0.7,0.9,1.1c0.3,0.7,0.7,1.2,1.6,1.1
			c1.3,0,2.6,0.1,3.9,0.3c0.7,0.1,1.3,0.4,1.9,0.7c1.3,0.6,2.4,0.6,3.7-0.1c0.6-0.3,1.5-0.4,2.3-0.4c0.9-0.1,1.7-0.3,2.4-1
			c0.3-0.4,0.8-0.6,1.2-0.9c-0.2-0.2-0.4-0.4-0.4-0.6c0-0.4,0-0.7,0.1-1.1c0-0.1,0.5,0,0.8,0c0.3,0,0.5,0.3,0.7,0.2
			c1-0.5,2.3-0.7,3-1.5c0.8-1,1.8-1.1,2.9-1.3c0.3,0,0.6,0,0.9,0.1c0.1-1.4-1.3-2.4-2.5-2c-0.5,0.2-1.2,0.1-1.7,0.1
			c0,0-0.1-0.3-0.1-0.4c0.3-0.8,0.6-1.6,1-2.6c1,0.9,1.7-0.1,2.6-0.4c0.1,0,0.2-0.2,0.2-0.4c0.4-0.9,0.8-1.8,1.2-2.7
			c0.3-0.6,0.3-1.1-0.4-1.5c0.5-1,1.5-1,2.3-1.2c0.3-0.1,0.5-0.2,0.8-0.2c0.1,0,0.1,0,0.2,0c0.4,0.3,0.9,0.7,1.3,0.7
			c0.9,0,1.3,0.6,1.6,1.3c0.5,1.2,0.9,2.5,1.3,3.8c0.2,0.6,0.3,0.9,1,0.9c1.3,0.1,2.1,0.9,2.4,2.2c0.1,0.3,0.5,0.7,0.8,0.7
			c0.5,0,1-0.2,1.5-0.4c0.5-0.2,1-0.4,1.6-0.6c0.2,0.3,0.3,0.6,0.4,0.9C66.4,22.8,66.4,22.9,66.4,22.9z"/>
		<path fill="#3F3E3F" d="M41.6,58.3c-0.4,0.5-0.7,1-1.1,1.3c-0.2,0.2-0.7-0.1-1.1-0.1c0.1-0.3,0.1-0.8,0.3-0.9
			c0.5-0.3,1.1-0.4,1.7-0.6C41.5,58.1,41.5,58.2,41.6,58.3z"/>
	</g>
</g>
<g id="OvJXTf.svg">
	<g>
		<path fill="#DD2D26" d="M67.2,22.1c-0.2,0.3-0.6,0.5-0.7,0.8c-0.4,1-0.7,2-1.1,3.1c-0.9-0.4-1.6-0.5-2.1,0.4
			c0,0.6,0.1,1.2,0.1,1.8c0,1-0.3,1.2-1,0.9c-0.7,0.5-1.4,1-2,1.5c-0.1-0.1-0.1-0.1-0.2-0.2c0,0.2,0,0.4,0.1,0.8
			c-0.5-0.1-0.9-0.3-1.4-0.4c-1.2,1.8-3.3,2.5-5.1,3.5c-0.1-0.2-0.2-0.4-0.3-0.7c0.2-0.2,0.4-0.3,0.5-0.6c0.1-0.3,0.1-0.6,0.1-1
			c-0.4,0-0.9-0.2-1.2,0c-0.7,0.6-1.3,1.3-2,1.9c-0.1,0.1-0.4,0.3-0.6,0.2c-0.6-0.2-1,0.1-0.9,0.7c0.1,0.3,0.6,0.6,1,0.8
			c0.1,0.1,0.2,0,0.4,0.1c0,0.1,0.1,0.3,0.1,0.4c0.1,0.3,0.1,0.7,0.3,0.8c0.2,0.1,0.6-0.1,0.8-0.3c0.6-0.5,1.8-0.4,2.6,0.4
			c-1.7,0.3-2.7,1.4-3.6,2.9c1.2,0.5,1.7,1.5,1.9,2.6c0,0.2,0.3,0.3,0.4,0.5c0.7,0.8,0.7,1.4-0.1,2.1c-0.1,0.1-0.2,0.3-0.3,0.3
			c0.4,0.3,0.9,0.6,0.9,0.9c0,0.6-0.3,1.1-0.6,1.7c-0.5,0.9-1.1,1.8-1.7,2.7c-0.3,0.4-0.6,0.9-1,1.3c-0.7,0.7-1.5,1.5-2.3,2
			c-0.6,0.4-1.4,0.4-2.1,0.5c-0.5,0-0.7,0.1-1.1,0.4c-0.6,0.5-1.4,0.6-2.2,0.8c-0.7,0.2-1.2,0.4-0.8,1.4c-0.1,0-0.2,0-0.3,0
			c-0.1-0.4-0.2-0.9-0.3-1.4c-0.6,0-1.2,0-1.9,0c-0.9,0-1.4-0.5-1.3-1.3c-0.4-0.2-0.9-0.3-1.3-0.5c-0.2-0.1-0.4-0.1-0.5,0
			c-0.7,0.8-1.6,0.5-2.4,0.6c-0.4,0-0.8,0.2-1.2,0.4c0.1,0.4,0.1,0.8,0.2,1.2c-0.9-0.4-1.6-0.7-2.4-1c0.1-0.1,0.1-0.1,0.2-0.2
			c-0.3-0.7-0.6-1.3-0.9-1.9c-0.4-0.2-0.8-0.3-1.1-0.5c0.2-0.4,0.3-0.8,0.5-1.2c0.9-1,0.8-2.8-0.4-3.5c0,0-0.1-0.1-0.1,0
			c-1.1,0.4-1.3-0.6-1.8-1.3c-1,0.3-1.8,0.6-2.7,0.9c-0.1,0-0.3,0.1-0.3,0.2c-0.6,1.2-1.7,0.9-2.5,0.5c-0.9-0.4-1.3,0-1.7,0.5
			c-0.2-0.2-0.5-0.4-0.6-0.4c-1.8,0.4-3.2-0.1-4.5-1.4c-0.6-0.6-1.5-0.9-2.2-1.4c-0.2-0.1-0.4,0-0.6,0c-0.1,0-0.3,0.1-0.4,0.1
			c-0.9-0.8-2.4-1-2.5-2.4c0.3-0.1,0.7-0.2,0.9-0.4c0.1-0.1-0.2-0.5-0.3-0.8C9.2,41.4,9,41,9,40.6c-0.3-0.5-0.7-0.9-1-1.4
			c-0.5-0.2-1-0.4-1.5-0.6c-0.2-0.1-0.3-0.3-0.4-0.4c-0.3-0.4-0.7-0.8-1.1-1.3c0.4-0.6-0.1-1.9-1.2-1.9c-0.2-1.2,0-1.7,1.1-2.2
			c0.2-0.1,0.5,0,0.7,0c0.2,0,0.5,0.1,0.6,0c0.6-0.7,1.3-0.8,2.1-1c0.6-0.2,1.2-0.7,1.7-1.1c0.2-0.2,0.4-0.4,0.5-0.7
			c0.1-0.1,0-0.4,0.1-0.5c1-1.1-0.2-2.1,0.1-3.4c0.6-0.1,1.4-0.1,2.1-0.2c0.2-0.9,0.4-1.9,0.6-2.9c0.7,0.1,1.2,0.4,1.8,0.4
			c0.6,0,1.2-0.2,1-1c-0.1-0.7-0.2-1.3,0.8-1.5c0.1,0,0.3-0.3,0.4-0.4c0.2-0.2,0.5-0.5,0.8-0.7c0.5,1,0.9,1.7,1.9,1.9
			c0.9,0.2,1.9,2,1.5,3.1c-0.3,0.9-0.2,1.2,0.8,1.3c1.2,0.1,2.4,0.3,3.3,1.1c0.3,0.3,0.7,0.7,0.9,1.1c0.3,0.7,0.7,1.2,1.6,1.1
			c1.3,0,2.6,0.1,3.9,0.3c0.7,0.1,1.3,0.4,1.9,0.7c1.3,0.6,2.4,0.6,3.7-0.1c0.6-0.3,1.5-0.4,2.3-0.4c0.9-0.1,1.7-0.3,2.4-1
			c0.3-0.4,0.8-0.6,1.2-0.9c-0.2-0.2-0.4-0.4-0.4-0.6c0-0.4,0-0.7,0.1-1.1c0-0.1,0.5,0,0.8,0c0.3,0,0.5,0.3,0.7,0.2
			c1-0.5,2.3-0.7,3-1.5c0.8-1,1.8-1.1,2.9-1.3c0.3,0,0.6,0,0.9,0.1c0.1-1.4-1.3-2.4-2.5-2c-0.5,0.2-1.2,0.1-1.7,0.1
			c0,0-0.1-0.3-0.1-0.4c0.3-0.8,0.6-1.6,1-2.6c1,0.9,1.7-0.1,2.6-0.4c0.1,0,0.2-0.2,0.2-0.4c0.4-0.9,0.8-1.8,1.2-2.7
			c0.3-0.6,0.3-1.1-0.4-1.5c0.5-1,1.5-1,2.3-1.2c0.3-0.1,0.5-0.2,0.8-0.2c0.1,0,0.1,0,0.2,0c0.4,0.3,0.9,0.7,1.3,0.7
			c0.9,0,1.3,0.6,1.6,1.3c0.5,1.2,0.9,2.5,1.3,3.8c0.2,0.6,0.3,0.9,1,0.9c1.3,0.1,2.1,0.9,2.4,2.2c0.1,0.3,0.5,0.7,0.8,0.7
			c0.5,0,1-0.2,1.5-0.4c0.5-0.2,1-0.4,1.6-0.6c0.2,0.3,0.3,0.6,0.4,0.9C67.2,22,67.2,22.1,67.2,22.1z"/>
		<path fill="#DD2D26" d="M42.4,57.5c-0.4,0.5-0.7,1-1.1,1.3c-0.2,0.2-0.7-0.1-1.1-0.1c0.1-0.3,0.1-0.8,0.3-0.9
			c0.5-0.3,1.1-0.4,1.7-0.6C42.2,57.3,42.3,57.4,42.4,57.5z"/>
	</g>
</g>
<polygon id="_x2E_svg_2504_" fill="#FEDE00" points="18,31.3 19.2,35 23.1,35 19.9,37.2 21.1,40.9 18,38.7 14.9,40.9 16.1,37.2 
	12.9,35 16.8,35 "/>
<polygon id="_x2E_svg_2503_" fill="#FEDE00" points="26.2,27.9 25.7,28.4 24.2,27.5 24.9,29.1 23.6,30.2 25.4,30.1 26.1,31.7 
	26.4,30 28.2,29.8 26.7,28.9 26.7,28.7 "/>
<polygon id="_x2E_svg_2502_" fill="#FEDE00" points="27.6,31.3 28.6,32.7 30.2,32.3 29.1,33.7 30.1,35.1 28.5,34.5 27.3,35.8 
	27.4,34.1 25.8,33.5 27.5,33 "/>
<polygon id="_x2E_svg_2501_" fill="#FEDE00" points="28.9,36.3 29.1,38.1 30.8,38.5 29.2,39.2 29.3,40.9 28.2,39.6 26.6,40.3 
	27.5,38.8 26.3,37.5 28,37.8 "/>
<polygon id="_x2E_svg_2499_" fill="#FEDE00" points="27.7,41.5 27.1,43.1 28.4,44.2 26.6,44.1 26,45.7 25.6,44 23.8,43.9 25.3,42.9 
	24.9,41.2 26.2,42.4 "/>
<g>
</g>
<g>
</g>
<g>
</g>
<g>
</g>
<g>
</g>
<g>
</g>
<g>
</g>
<g>
</g>
<g>
</g>
<g>
</g>
<g>
</g>
<g>
</g>
<g>
</g>
<g>
</g>
<g>
</g>
</svg>
