<?xml version="1.0" encoding="utf-8"?>
<!-- Generator: Adobe Illustrator 18.1.0, SVG Export Plug-In . SVG Version: 6.00 Build 0)  -->
<svg version="1.1" id="Layer_1" xmlns="http://www.w3.org/2000/svg" xmlns:xlink="http://www.w3.org/1999/xlink" x="0px" y="0px"
	 viewBox="0 0 72 72" enable-background="new 0 0 72 72" xml:space="preserve">
<path fill="#6467AF" d="M36,0C16.1,0,0,16.1,0,36s16.1,36,36,36s36-16.1,36-36S55.9,0,36,0z M36,67.5C18.6,67.5,4.5,53.4,4.5,36
	C4.5,18.6,18.6,4.5,36,4.5c17.4,0,31.5,14.1,31.5,31.5C67.5,53.4,53.4,67.5,36,67.5z"/>
<circle fill="#FFFFFF" cx="36" cy="36" r="31.5"/>
<g>
	<path fill="#B5B4DA" d="M52.6,33.1c0,8-6.9,14.4-15.4,14.4c-8.5,0-15.4-6.5-15.4-14.4c0-8,6.9-14.4,15.4-14.4
		C45.8,18.7,52.6,25.1,52.6,33.1z"/>
	<g>
		<path fill="#B5B4DA" d="M37.3,48.6c-1.1,0-2.2-0.1-3.3-0.3c2.5,2.4-2.2,4.3-3.1,4.6c-0.1,0-0.4,0.1-0.3,0.1
			c-1,0.2-1.6,0.5-1.6,0.8c0,0.8,3.6,1.4,8,1.4c4.4,0,8-0.6,8-1.4c0-0.3-0.6-0.6-1.6-0.8c0,0,0,0-0.1,0c0,0,0,0,0,0l0,0
			c0,0-5.8-2-3.3-4.6C39.1,48.5,38.2,48.6,37.3,48.6z"/>
		<path fill="#B5B4DA" d="M48,54.4c0.3,0.2,0.4,0.4,0.4,0.6c0,1.2-5.1,2.2-11.4,2.2c-6.3,0-11.4-1-11.4-2.2c0-0.2,0.1-0.4,0.4-0.6
			c-2.3,0.5-3.7,1.2-3.7,1.9c0,1.6,6.6,2.8,14.7,2.8c8.1,0,14.7-1.3,14.7-2.8C51.7,55.6,50.3,55,48,54.4z"/>
	</g>
</g>
<path fill="#6467AF" d="M27.2,15.4c0,0,1.7-1,2.1-1.1c0.3-0.1,23-1.4,23.3-1.4c0.4,0,1.3,0.1,1.3,0.1s0.4,0.5,0.2,0.6
	C54,13.7,33.8,25.8,33.8,25.8L8.6,27.7c0,0-0.4-0.4-0.2-0.6C8.6,26.8,27.2,15.4,27.2,15.4z"/>
<path fill="#6467AF" d="M17.5,25.7l1.2,3.6c0,0,6.2,2.5,15.2-0.3c9-2.8,12.9-8.5,12.9-8.5l-1-3.2l-12,8.1L17.5,25.7z"/>
<path fill="#6467AF" d="M16.7,26.5l0.9,0.4c0,0-0.9,7.3,0,9.5c0,0,0.9-0.3,1.3,0.6c0.4,0.9,0,1.4,0,1.4l0.5,1.5c0,0,1.1-0.1,1.7,1.4
	c0.6,1.4,1,2.8,1,2.8l-1.2-0.8l-0.5,1.5L19,43.5l-0.3,1.2l-1.2-3.2c0,0-0.2-1.3,0.8-1.7l-0.5-1.1c0,0-1.7,0.3-1.2-1.5
	c0.2-0.8,0.1-0.5,0.1-0.5S16.3,35.5,16.7,26.5z"/>
<g>
</g>
<g>
</g>
<g>
</g>
<g>
</g>
<g>
</g>
<g>
</g>
<g>
</g>
<g>
</g>
<g>
</g>
<g>
</g>
<g>
</g>
<g>
</g>
<g>
</g>
<g>
</g>
<g>
</g>
</svg>
