<?xml version="1.0" encoding="utf-8"?>
<!-- Generator: Adobe Illustrator 18.1.1, SVG Export Plug-In . SVG Version: 6.00 Build 0)  -->
<svg version="1.1" id="Layer_1" xmlns="http://www.w3.org/2000/svg" xmlns:xlink="http://www.w3.org/1999/xlink" x="0px" y="0px"
	 viewBox="0 0 612 612" enable-background="new 0 0 612 612" xml:space="preserve">
<g id="_x2E_svg_7562_">
	<circle id="_x2E_svg_7564_" fill="#0098CC" cx="314.5" cy="307.7" r="282.2"/>
</g>
<path id="_x2E_svg_7561_" fill="#139B62" d="M0,306c0,169.2,136.9,306,306,306s306-136.8,306-306S475.2,0,306,0S0,136.9,0,306z
	 M37.4,303.5C37.4,154.7,157.2,34.8,306,34.8s268.6,119.9,268.6,268.6S454.8,572.1,306,572.1S37.4,451.3,37.4,303.5z"/>
<g id="dDCEbN.svg_1_">
	<g>
		<path d="M193.8,233.8c-2.5,0-2.5,1.7-1.7,4.2c0.9-0.9,1.7-1.7,2.5-0.9c-0.9,4.2-1.7,6.8-1.7,10.2c-4.2,1.7-2.6-6.8-7.7-4.2
			c-0.8-0.9,0-11.9-4.2-5.1c0-0.9-8.5-2.5-10.2-2.5c2.5-3.4,5.9,0,4.2-5.1c4.2-0.9,12.8,2.5,15.3-1.7
			C192.1,230.4,193,231.2,193.8,233.8C193,233.8,193.8,231.2,193.8,233.8z"/>
		<path d="M211.6,337.5c0.9,1.7,0,0.8,3.4,0.8c-0.8,3.4-11-2.5-14.4-3.4C200.6,333.2,215.9,333.2,211.6,337.5
			C211.6,337.5,212.5,336.6,211.6,337.5z"/>
		<path d="M210,321.3c-2.6-1.7,0.8-3.4,3.4-4.2C216.8,324.7,208.2,325.5,210,321.3C209.1,321.3,210,321.3,210,321.3z"/>
		<path d="M292.4,115.6C283,102.9,300.9,112.2,292.4,115.6C291.5,114.8,293.2,114.8,292.4,115.6z"/>
		<path d="M165.8,475.2c0.9,2.5,1.7-0.9,2.5,0.8c1.7,2.5-9.3,4.2-9.3,5.1C157.2,476.8,164,475.2,165.8,475.2
			C165.8,475.2,164.9,475.2,165.8,475.2z"/>
		<path d="M185.3,257.5c2.6-6.8,5.1-1.7,7.7-2.5C193,258.4,187,257.5,185.3,257.5C185.3,257.5,186.1,257.5,185.3,257.5z"/>
		<path d="M196.4,510.8c-6.8-0.8,5.9-3.4,6.8-3.4C204,507.5,197.2,512.5,196.4,510.8C195.5,510.8,196.4,510.8,196.4,510.8z"/>
		<path d="M368,104.6C359.5,107.1,363.8,96.9,368,104.6C367.2,105.4,366.3,101.1,368,104.6z"/>
		<path d="M215.9,343.4c0-2.6,1.7-4.2,4.2-4.2C220.1,341.7,218.5,343.4,215.9,343.4C215,341.7,218.5,343.4,215.9,343.4z"/>
		<path d="M215,316.2c-3.4,0.8-3.4,1.7-5.9,0.8c0-1.7,3.4,0.9,0-0.8C210,315.3,215,314.5,215,316.2C213.4,317,215,316.2,215,316.2z"
			/>
		<path d="M204.9,323.8c5.1-0.8-1.7,0,1.7-1.7c-0.8,0-0.8-0.9-0.8-2.6c1.7,2.6,2.5,2.6,2.5,5.1C207.4,324.7,206.5,323.8,204.9,323.8
			C205.7,323.8,206.5,324.7,204.9,323.8z"/>
		<path d="M223.5,532.1c-0.8-1.7,0,1.7-2.5,0c0.9-1.7,2.5-2.5,4.2-2.5C226.1,530.4,225.2,531.2,223.5,532.1
			C223.5,532.1,224.4,531.2,223.5,532.1z"/>
		<path d="M220.1,345.1c0.9-2.5,2.6-3.4,3.4-0.8C222.7,346,221.9,346,220.1,345.1C221,343.4,221,345.1,220.1,345.1z"/>
		<path d="M316.2,79.1c0,1.7-4.2,0.8-4.2-1.7C313.7,77.4,315.3,78.2,316.2,79.1C316.2,79.9,315.3,78.2,316.2,79.1z"/>
		<path d="M227.8,528.7c0,0,1.7-2.5,0.9-2.5c0.9,0,1.7-0.8,1.7-1.7C231.2,526.2,231.2,530.4,227.8,528.7L227.8,528.7z"/>
		<path d="M176.8,510.8c1.7,2.5,0,3.4-5.1,3.4C171.7,512.5,176,511.7,176.8,510.8C176.8,511.7,176,511.7,176.8,510.8z"/>
		<path d="M221,503.2c0.9-0.9,2.5-1.7,3.4-2.5C225.2,501.5,222.7,504.9,221,503.2C221.9,502.3,221,503.2,221,503.2z"/>
		<path d="M147.9,458.2C148.8,457.3,147.9,458.2,147.9,458.2c0.9-0.9,4.2-2.6,4.2-4.2"/>
		<path d="M302.6,99.4c1.7-0.8,2.6,0,2.6,1.7C303.5,102,302.6,101.1,302.6,99.4C303.5,99.4,302.6,100.3,302.6,99.4z"/>
		<path d="M261.8,328.1c-0.9,0.9-2.5,0-3.4,0.9C259.2,327.2,260.1,327.2,261.8,328.1z"/>
		<path d="M316.2,89.2c0.8-2.6,0.8,0,2.5,0C317,91.8,317.9,90.1,316.2,89.2L316.2,89.2z"/>
		<path d="M257.5,388.5C258.4,387.6,259.2,388.5,257.5,388.5L257.5,388.5z"/>
		<path d="M227,524.5C227,522.8,230.4,525.3,227,524.5C227,523.6,227.8,525.3,227,524.5z"/>
		<path d="M191.2,248.2c0.9,0,1.7,0,1.7,1.7C192.1,249,191.2,249,191.2,248.2z"/>
		<path d="M215,315.3C211.6,313.7,214.2,312.8,215,315.3C214.2,314.5,215,314.5,215,315.3z"/>
		<path d="M470,293.2C468.3,295,467.5,292.4,470,293.2C469.2,293.2,469.2,292.4,470,293.2z"/>
		<path d="M210,318.8C208.2,319.6,207.4,317,210,318.8C210,318.8,210,317.9,210,318.8z"/>
		<path d="M306.8,97.8c-0.8,0-0.8-0.9-1.7-1.7C305.2,95.2,306,96.1,306.8,97.8z"/>
		<path d="M170,498.1c0-0.8,0.9-0.8,1.7-0.8C170.9,498.1,170.9,498.1,170,498.1z"/>
		<path d="M305.2,99.4C306,96.1,306.8,99.4,305.2,99.4C305.2,98.6,305.2,99.4,305.2,99.4z"/>
		<path d="M317.9,88.4C316.2,85,319.6,88.4,317.9,88.4L317.9,88.4z"/>
		<path d="M217.6,524.5c1.7-1.7,2.5-2.5,2.5-0.8C219.3,525.3,218.5,526.2,217.6,524.5C218.5,524.5,217.6,524.5,217.6,524.5z"/>
		<path d="M311.1,493C309.4,493.8,309.4,491.3,311.1,493C311.1,493,311.1,492.2,311.1,493z"/>
		<path d="M271.1,151.3C272,154.7,270.3,151.3,271.1,151.3C272,152.1,271.1,151.3,271.1,151.3z"/>
		<path d="M221.9,374C221,372.3,224.4,372.3,221.9,374C221.9,373.2,221.9,373.2,221.9,374z"/>
		<path d="M191.2,312C191.2,312.8,191.2,312,191.2,312"/>
		<path d="M373.2,63.8c7.6,0,11.9,7.6,17,11.1c2.5,1.7,13.6,4.2,14.4,6.8c0,3.4-11.9,8.5-14.4,10.2c-7.7,6.8-15.3,14.4-18.7,22.1
			c-2.5,6.8-10.2,21.2-9.4,28.1c-5.9,0.8-23.8,0.8-25.5,5.1c-2.5,6.8,10.2,10.2,13.6,7.7c0.8,0.8,0.8,1.7,1.7,2.5
			c0,0-8.5,6.8-8.5,7.6c-3.4,1.7-9.4,0.9-11.1,1.7c-5.9,2.5-6.8,8.5-15.3,9.4c5.1,1.7,11.9,13.6,16.2,17.8c1.7,2.6,4.2,4.2,6,6
			c5.9,6-0.9,2.5,5.9,6.8c1.7,0.9,6.8,1.7,8.5,2.6c1.7,0.9,2.6,4.2,4.2,5.1c6,3.4,8.5,0,13.6-1.7c-1.7,5.1,6.8,5.1,10.2,1.7
			c-3.4,2.5,7.6-13.6,6.8-10.2c0-1.7-1.7-6.8-1.7-7.6c1.7-6.8,10.2-23,19.5-8.5c4.2,6.8,1.7,11,7.7,17c7.6,6.8,6.8,0,10.2,11
			c2.5,8.5-2.6,6.8,6.8,8.5c4.2,0.9,12.8-0.9,12.8-5.9c2.5-1.7,16.1,6.8,17,8.5c3.4,12.8-17,3.4-17,3.4c5.1-1.7-1.7,5.9,0,8.5
			c1.7,5.1,4.2,4.2,6.8,8.5c0.8,2.5,0,7.6,5.1,8.5c-6.8,6.8,0,17,3.4,22.9c0.8,1.7,6,3.4,6,6c0,3.4-6.8,7.7-6.8,6
			c9.3,0,4.2,1.7-0.9,4.2c1.7,2.5,11,7.6,11,10.2c0,5.1-10.2-5.1-7.6,0.8c6.8-2.5-1.7,1.7-4.2,1.7c2.5,0.8,3.4,1.7,0.8,1.7
			c4.2,0.8,7.7,11.9,9.4,20.4c2.5,11.9,5.9,21.2,2.5,32.3c-2.5,8.5-8.5,15.3-10.2,23.8c-0.8,5.1,0.8,11-0.8,15.3
			c0,0.8-12.8,25.5-11.9,25.5c-1.7,0.8-9.3-0.9-7.7-3.4c-0.8,0-2.5,2.5-3.4,2.5c5.1-0.8,4.2,6,8.5,5.1c-0.9,2.5,0.8,6.8,3.4,6
			c0.9-1.7-1.7,8.5-1.7,9.3c-3.4,0-4.2-1.7-1.7-5.1c-3.4,5.9-2.5,1.7-6,1.7c2.5,5.1-23.8-1.7-23.8-2.5c1.7,2.5,4.2-3.4,2.5-4.2
			c0,1.7-4.2,4.2-5.1,5.1c5.1,0.8-5.1,10.2-6.8,10.2c-0.8-3.4,0.9-7.6,0-11c-0.8-3.4-6.8-6.8-5.1-11c-0.8,0.8,1.7,14.5,3.4,15.3
			c-4.2,5.1-4.2,4.2-10.2,6c-0.9-1.7,0-3.4,1.7-3.4c-0.9-1.7-1.7-1.7-3.4-0.8c-2.5,6-29.8,6-35.7,10.2c0,1.7,6,1.7,6.8,2.5
			c1.7,5.1-14.4,9.3-11.9,12.8c-2.5,0.8-5.1-0.8-6.8,0c-0.9,0.8-5.1,3.4-6.8,4.2c0.9,0.8,1.7,1.7,2.6,2.5c0,1.7-9.4,2.5-10.2,4.2
			c-1.7,2.5,1.7,1.7,1.7,2.5c-5.1,2.6-13.6,6.8-17.9,4.2c-3.4-1.7,0-5.9,2.5-6.8c-1.7,0-8.5,0-9.3,1.7c1.7,0,2.5,0,4.2,0l-1.7,2.5
			c4.2,0.9-6,19.5-14.5,13.6c0.9,2.5-1.7,7.6-0.8,11c-3.4-0.9-7.7-6.8-11.9-4.2c6.8,4.2-6.8,6.8-4.2,6c-2.5,0.8-6.8,0.8-8.5,1.7
			l-5.1,5.1c0-3.4-12.7-6-13.6-6c2.6,6-1.7,8.5-0.9,3.4c-2.5,6.8-5.9,9.3-9.3,4.2c0,2.5-4.2,6-6,3.4c0.9-0.9,1.7-1.7,1.7-2.6
			c-0.9,0.9-1.7,0.9-2.6,0.9c0.9-1.7-1.7-1.7-2.5-1.7c1.7-0.8,1.7-2.5,2.5-4.2c-0.9,0-2.5,0-3.4-0.8c0.9,5.9-4.2,3.4-6,3.4
			c-0.8,1.7-3.4,4.2-5.9,4.2c0.9-0.8-0.9-2.5-1.7-2.5c-0.9,2.5-4.2,2.5-6,6c5.1-1.7,2.6-0.8-1.7,1.7c0.9-0.8,0.9-1.7-0.9-2.5
			c-0.9,1.7-1.7,2.5-3.4,1.7c0.9-2.5,0.9-2.5-0.9-3.4c2.5-0.8,21.2-11.9,20.4-15.3c-1.7,2.5-17,7.7-21.2,8.5
			c8.5-9.3,24.6-10.2,28.1-21.2c-5.1,2.5-5.1-2.5-6.8-1.7c0,10.2-10.2,6-12.8,6.8c0,0.9-22.1,11.9-22.1,11c1.7-2.5-5.9,0-7.6,0.8
			c2.6-6.8,3.4,0,6-4.2c1.7-2.5-1.7-5.1-1.7-5.1s18.7-4.2,6-5.1c3.4-1.7,5.9-3.4,8.5-6c-0.9,5.1,1.7,0,2.5-1.7
			c0.9,0.8,3.4,0.8,3.4,1.7c1.7-1.7,0-2.5-2.5-2.5c6-2.5,13.6-6,18.7-11c-1.7-2.5-16.2,6-17.9,7.7c0-3.4-2.6,0.8-4.2,2.5
			c0.9,0.8-2.6-3.4-2.6-3.4c-0.8,0-12.8,7.7-16.1,10.2c-1.7-3.4,0-1.7-5.9-5.1c5.9-11.1-1.7-4.2-8.5,0c-2.6-6,3.4-4.2-4.2-6.8
			c0.8-0.8,3.4-11.9,10.2-7.6c0-3.4-4.2-0.9,0.9-4.2c0,0.8-6-0.9-6-0.9c4.2-3.4,6.8-5.1,11.9-7.6c1.7-0.9,16.1-7.7,13.6-8.5
			c-0.8,0.8-0.8,2.5,0,3.4c0,0,4.2-8.5,5.1-8.5c0,0.9,0,1.7,0.9,2.6c2.5,1.7,7.6-4.2,8.5-5.1c-5.1,0.9-9.4-0.8-14.5,1.7
			c0,0,3.4,3.4,2.6,4.2c2.5-5.1-13.6-0.8-14.5-0.8c0,0-11.9-1.7-10.2-2.6c-0.9,0.9-0.9,0.9-1.7,0.9c6.8,1.7,0,1.7-3.4,0
			c-1.7-0.9-0.9,1.7,0.9,2.5c-12.8,3.4-9.4-7.7-4.2-11c0,0.8,0.8,5.1,2.5,3.4c1.7-1.7,0-5.1,0.9-6.8c0,0.9,12.8-6.8,14.4-6
			c0,4.2,1.7,1.7-1.7,6c7.6-1.7,6.8-4.2,8.5-8.5c1.7,0.9,2.5,0.9,2.5-0.8c1.7,2.5-2.5,6,2.5,8.5c2.6,0.8,12.8-0.8,11.9-1.7
			c-3.4,0.8,5.1-0.8,4.2,0c0-0.8-12.8-4.2-9.4-5.1c1.7,0.8,1.7,0.8,0.9,2.5c0,0,2.5-0.8,2.5-1.7c-6,0.8,1.7-4.2,0-8.5
			c-0.9-2.5-8.5-2.5-7.6-4.2c0.9-3.4,9.4-2.5,12.8-5.1c4.2-3.4,3.4-6,5.9-8.5c1.7-1.7,11.1-11.9,13.6-3.4c5.1-6,9.4-0.8,15.3-2.5
			c5.9-0.8,11-4.2,13.6-6c5.1-1.7,15.3-2.5,23.8-6c-6.8-1.7-14.4,1.7-17-3.4c1.7-0.9,2.6-6,2.6-7.7c-1.7,1.7-10.2,6.8-2.6,6.8
			c-0.8,3.4-6.8-1.7-5.9,5.1c0.9,0,1.7-2.6,2.5-1.7l0.9,0.8c-5.1,2.5-29.8,16.2-17.9,5.1c4.2,6.8-24.7-3.4-21.2-3.4
			c5.1,6.8-9.4,2.5-8.5,9.3c-5.1,0.9-11.1,2.6-17,2.6c4.2-5.1,9.3-6.8,15.3-11.1c2.5-2.5,5.1-6.8,6.8-7.6c0,0,7.7-4.2,6-2.5
			c4.2-4.2,18.7-28.9,4.2-22.1c-0.9-2.5,11.9-24.6,13.6-25.5c2.5-1.7,5.9,3.4,8.5,2.5c4.2-0.8-0.9-3.4,3.4-4.2
			c0.9,0,6.8,0.9,6.8,0.9c-1.7,0-2.5-0.9-2.5-1.7c11.9-1.7,1.7-0.8,7.6,1.7c-1.7-2.5-1.7-4.2,0.9-6c-1.7-1.7-6.8,0.8-9.4-1.7
			c14.5-3.4-2.5,0,6-2.5c-1.7,0-1.7-0.8,0-2.5c-10.2-1.7-23,5.1-34,3.4c-9.4-0.8-4.2-5.1-7.6-6.8c-0.9,2.5-2.6,5.1-3.4,6.8
			c-0.8-0.8,0-9.3-0.8-11c0.8-0.8,2.5,0,3.4,0.9c-0.9-2.6,0.9-1.7,1.7-2.6c-3.4-3.4-0.8-2.5-1.7-4.2c-3.4,0-2.6,4.2-0.9,4.2
			c-0.9,3.4-4.2,1.7-6,0.9c0.9,0,1.7,0,3.4-0.9c-6.8-0.8-2.6-0.8,0-1.7c-0.9-0.9-0.9-2.6-0.9-3.4c-4.2,1.7-10.2,9.3-12.8,11.9
			c-0.9-0.9,4.2-3.4-0.9-2.6c-0.9,0.9-0.9,1.7-0.9,2.6c-0.9-0.9-1.7-0.9-2.5-1.7l2.5-1.7c-0.9,0-1.7-0.8-1.7-1.7
			c0.8,1.7,0,2.5-1.7,2.5c-5.1-4.2,3.4-6.8,6.8-9.3c0,0-1.7-0.8-2.5-1.7c3.4-1.7-2.5,1.7-2.5,2.5c-0.9,0-1.7-0.8-1.7-2.5
			c0.9,0,4.2-1.7,4.2-1.7c-3.4-1.7-3.4,3.4-5.1,0c0,1.7,1.7,6,0,6c-0.9-1.7-0.9-2.5-0.9-4.2c-0.9,0-2.5,5.1-3.4,5.1
			c-1.7-0.8-2.5,0-0.9-1.7c-6.8,0-6.8-3.4-11.9-2.6c0.9-1.7-1.7-2.5-3.4-0.8c0-1.7,0.9-2.5,1.7-4.2c-0.9,0.8-0.9,0.8-1.7,0.8
			c2.5-4.2,10.2,0.9,9.4-3.4c-8.5-1.7-0.9,0-4.2-2.5c1.7-0.9,2.5-0.9,4.2,0.8c-1.7-2.5-12.8-6.8-7.6-7.7c-6.8-0.8,6.8,0,1.7-4.2
			c1.7,0,11.1,1.7,10.2,2.6c-2.6-0.9,0.9-0.9,0.9-1.7c-0.9,0-6.8-2.5-5.1-4.2c-0.9,0.8,13.6-0.9,13.6-0.9c-0.9,0-0.9-0.8-1.7-1.7
			c0.9,0,12.8,6.8,12.8,2.5c-7.6,0-15.3-2.5-16.1-11c-0.9-11.9,10.2-7.7,18.7-11.9c-0.8,3.4,6.8-0.8,6.8-0.8c-6-0.9-2.6-1.7-5.1-6
			c4.2,1.7,1.7-1.7,4.2-4.2c-3.4,0.8,0,0,0-0.9c-1.7,0-2.5,0-4.2,0.9c1.7-4.2-19.5,3.4-21.2,1.7c-4.2-4.2,11.9-17,8.5-8.5
			c-1.7-4.2-6-2.5-7.6-5.9c2.5-0.9,3.4-0.9,5.1,0.8c0-0.8,0-0.8,0.8-0.8c-0.8-1.7-7.6-13.6,0-13.6c-0.8-0.9-4.2,1.7-4.2,1.7
			c0.9,4.2-2.5,4.2-5.1,4.2c0.8-1.7,0-3.4-1.7-5.1c5.1-0.9,4.2-6.8,0.9-9.4c0.9-1.7,2.5,1.7,3.4,0c0.9-0.9-3.4-6-5.1-6
			c0,0,0.9,3.4,0,5.1c-0.9-0.9-1.7-1.7-2.5-0.9c0.9,0.9,0.9,3.4,0,3.4c0-2.5-1.7-0.9-3.4,0c0.8,0.9,1.7,0.9,2.5,1.7
			c-2.5,0.9,0,4.2-1.7,2.5c-0.8,2.6,0.9,0.9,1.7,3.4c-3.4,5.1-4.2-3.4-4.2-4.2c0-5.9,7.6-10.2,0.9-12.8c0-0.8,6.8-5.1,7.6-7.6
			c2.5,1.7,4.2,6,8.5,4.2c-2.5,5.1-0.9,5.1-6,6c6,6,7.7-6,11.1-7.6c-11.9-6.8,30.6-5.1,30.6-0.9c7.6-5.1,16.1,4.2,17,13.6
			c5.1-10.2,4.2-12.8,15.3-12.8c3.4,0,17,0.9,20.4,4.2c1.7-4.2,1.7-3.4,2.5-6.8c1.7,0.9,1.7,7.7,6.8,2.6c-4.2-3.4-6.8,0-5.1-6
			c-2.6-0.9-4.2,2.5-5.1,2.5c-5.1-9.3,10.2-9.3,12.8-18.7c6.8,0,8.5,0.9,14.5-6c3.4-3.4,3.4-9.4,6.8-12.8c3.4-4.2-0.8,11.1,2.5-2.5
			c-1.7,1.7-9.3,5.1-11.9,5.9c-1.7-1.7-0.9-3.4,1.7-5.1c-1.7-2.6-11.1,9.3-13.6,8.5c0.9-1.7,6-6.8,6-6.8c-2.5-3.4-5.1,6.8-3.4-2.5
			c-2.5,0.9-0.8,6-4.2,5.1c0-0.9,0-1.7,0-3.4c-5.9,0.8-8.5,4.2-14.4,0.8c-1.7,0.9-6.8-7.6-7.7-9.3c7.7-4.2,7.7-9.4,19.5-8.5
			c0-0.9-1.7-0.9-1.7-2.6c1.7,0,2.5,0,4.2,0c0-0.9-5.1-4.2-6-4.2c3.4-2.6,4.2-4.2,7.7-1.7c-0.8-1.7,5.1,1.7,4.2-4.2
			c0.8,0,4.2,0,5.1,0c-2.5-0.9-3.4-2.6-3.4,0.9c-5.1-2.6-6.8-5.1-6-10.2c1.7-1.7,0.8,3.4,6,1.7c-6-4.2-8.5-3.4-3.4-7.7
			c1.7-1.7-2.5-4.2-2.5-5.9c6-1.7,4.2,6.8,10.2-1.7c0.8-1.7,0-7.6,1.7-8.5c3.4-2.6,3.4,0.9,7.6-0.9c2.5-0.8,7.7-0.8,11-3.4
			c0.9-0.9,0-4.2,0.9-5.1c7.6-1.7,1.7,0.9,5.1,3.4c1.7,0.8,6.8-0.9,6,3.4c3.4-0.9-1.7-6.8-0.8-9.4c5.1,0.9,1.7-1.7,5.9-3.4
			c-1.7,9.4,0.9,1.7,1.7-0.9c3.4,3.4,4.2-3.4,8.5-2.5c-0.8,6.8,1.7,7.6-0.8,15.3c0.8-1.7,2.5-3.4,4.2-4.2c9.3,6,0.8,12.8-3.4,17
			c0.9,0,3.4-1.7,5.1,0c1.7,2.6-6,7.7-6,10.2c9.3-3.4,13.6-11.9,14.5-18.7c-1.7,0.9-4.2-5.1-8.5-10.2c1.7-0.8,2.5-3.4,4.2-5.1
			c-1.7,0-2.6-4.2-2.6-6c4.2-0.8,1.7-0.8,3.4,0c0.8-5.1,14.5-1.7,11-0.8c0.9,1.7,4.3,2.6,5.1,1.7c-5.1-3.4-7.7-5.1-5.1-9.3
			C375.7,67.2,369.8,65.4,373.2,63.8C374,63.8,373.2,63.8,373.2,63.8z M351,97.8c3.4-0.9,2.5-8.5,0-8.5
			C350.2,91.8,350.2,96.1,351,97.8L351,97.8z M293.2,206.5c0,0-4.2-2.5-5.1-3.4c-1.7,4.2,0,0.9,0.8,4.2
			C292.4,206.5,278.8,205.7,293.2,206.5C293.2,206.5,291.5,206.5,293.2,206.5z M346,88.4c-0.9-1.7-1.7-2.5-2.5-4.2
			C341.7,86.7,343.4,88.4,346,88.4C345.1,87.6,345.1,88.4,346,88.4z M301.8,480.2c1.7,0,4.2,0,5.1-1.7
			C304.3,480.2,301.8,477.7,301.8,480.2C303.5,480.2,301.8,480.2,301.8,480.2z M290.7,192.1c0,2.5,1.7,2.5,3.4,1.7
			C292.4,193,291.5,192.1,290.7,192.1C289.8,193,290.7,192.1,290.7,192.1z M338.3,93.5C340,95.2,341.7,90.9,338.3,93.5
			C338.3,93.5,339.2,92.6,338.3,93.5z M173.4,471.8c1.7,0,1.7,0,2.6-1.7C174.2,470.9,173.4,471.8,173.4,471.8z M263.5,319.6
			c-1.7,0-1.7,0-1.7,0.9C262.6,320.5,262.6,320.5,263.5,319.6z M340,471.8c0.8-1.7,0.8-1.7-0.8-1.7C340,470,340,470.9,340,471.8z"/>
	</g>
</g>
<path id="_x2E_svg_7687_" fill="#F68842" d="M394.3,68.8c2.5,1.7,13.6,4.2,14.4,6.8c0,3.4-11,7.7-14.4,10.2V68.8z"/>
<path id="_x2E_svg_7686_" d="M474.3,284.8C472.6,287.3,471.8,284.8,474.3,284.8C474.3,285.6,473.5,284.8,474.3,284.8z"/>
<path id="_x2E_svg_7685_" fill="#F68842" d="M394.4,182.8c3.4-9.4,10.2-11,16.1-0.9c4.2,6.8,1.7,11.1,7.7,17
	c7.6,6.8,6.8,0,10.2,11.1c2.5,8.5-2.6,6.8,6.8,8.5c4.2,0.8,12.8-0.9,12.8-6c2.5-1.7,16.1,6.8,17,8.5c3.4,12.8-17,3.4-17,3.4
	c5.1-1.7-1.7,6,0,8.5c1.7,5.1,4.2,4.2,6.8,8.5c0.8,2.6,0,7.6,5.1,8.5c-6.8,6.8,0,17,3.4,22.9c0.8,1.7,6,3.4,6,6c0,3.4-6.8,7.7-6.8,6
	c9.3,0,4.2,1.7-0.9,4.2c1.7,2.5,11,7.7,11,10.2c0,5.1-10.2-5.1-7.6,0.8c6.8-2.5-1.7,1.7-4.2,1.7c2.5,0.8,3.4,1.7,0.8,1.7
	c4.2,0.8,7.7,11.9,9.4,20.4c2.5,11.9,5.9,21.2,2.5,32.3c-2.5,8.5-8.5,15.3-10.2,23.8c-0.8,5.1,0.8,11-0.8,15.3
	c0,0.8-12.8,25.5-11.9,25.5c-1.7,0.8-9.3-0.8-7.7-3.4c-0.8,0-2.5,2.6-3.4,2.6c5.1-0.9,4.2,5.9,8.5,5.1c-0.9,2.5,0.8,6.8,3.4,6
	c0.9-1.7-1.7,8.5-1.7,9.3c-3.4,0-4.2-1.7-1.7-5.1c-3.4,6-2.5,1.7-6,1.7c2.5,5.1-23.8-1.7-23.8-2.6c1.7,2.6,4.2-3.4,2.5-4.2
	c0,1.7-4.2,4.2-5.1,5.1c5.1,0.8-5.1,10.2-6.8,10.2c-0.8-3.4,0.9-7.7,0-11.1c-0.8-3.4-6.8-6.8-5.1-11c-0.8,0.9,1.7,14.5,3.4,15.3
	c-4.2,5.1-4.2,4.2-10.2,6c-0.9-1.7,0-3.4,1.7-3.4c-0.9-1.7-0.9-1.7-2.6-0.9h-2.5L394.4,182.8z"/>
<path id="_x2E_svg_7682_" fill="#139B62" d="M198,225.2c-2.5,0-2.5,1.7-1.7,4.2c0.9-0.9,1.7-1.7,2.5-0.9c-0.9,4.2-1.7,6.8-1.7,10.2
	c-4.2,1.7-2.6-6.8-7.7-4.2c-0.8-0.9,0-11.9-4.2-5.1c0-0.9-8.5-2.5-10.2-2.5c2.5-3.4,5.9,0,4.2-5.1c4.2-0.9,12.8,2.5,15.3-1.7
	C196.4,222.7,197.2,223.5,198,225.2C197.2,226.1,198,223.5,198,225.2z"/>
<path id="_x2E_svg_7681_" fill="#139B62" d="M215.9,329.8c0.9,1.7,0,0.9,3.4,0.9c-0.8,3.4-11-2.6-14.4-3.4
	C205.7,325.5,220.1,325.5,215.9,329.8C216.8,329.8,216.8,329,215.9,329.8z"/>
<path id="_x2E_svg_7680_" fill="#139B62" d="M214.2,313.7c-2.6-1.7,0.8-3.4,3.4-4.2C221,317,212.5,317.9,214.2,313.7
	C213.4,313.7,214.2,313.7,214.2,313.7z"/>
<path id="_x2E_svg_7679_" fill="#139B62" d="M170,466.7c0.9,2.5,1.7-0.9,2.5,0.8c1.7,2.5-9.3,4.2-9.3,5.1
	C162.4,468.3,169.1,466.7,170,466.7C170,467.5,170,466.7,170,466.7z"/>
<path id="_x2E_svg_7678_" fill="#139B62" d="M189.5,249.9c2.6-6.8,5.1-1.7,7.7-2.5C197.2,250.8,191.2,249.9,189.5,249.9
	C189.5,249.9,190.4,249.9,189.5,249.9z"/>
<path id="_x2E_svg_7677_" fill="#139B62" d="M200.6,503.2c-6.8-0.9,5.9-3.4,6.8-3.4C208.2,499.8,201.5,504.9,200.6,503.2
	C199.8,502.3,200.6,503.2,200.6,503.2z"/>
<path id="_x2E_svg_7676_" fill="#139B62" d="M220.1,334.9c0-2.6,1.7-4.2,4.2-4.2C224.4,334,222.7,335.8,220.1,334.9
	C219.3,334,222.7,335.8,220.1,334.9z"/>
<path id="_x2E_svg_7675_" fill="#139B62" d="M219.3,308.5c-3.4,0.9-3.4,1.7-5.9,0.9c0-1.7,3.4,0.8,0-0.9
	C214.2,306.8,219.3,306,219.3,308.5C217.6,308.5,219.3,308.5,219.3,308.5z"/>
<path id="_x2E_svg_7674_" fill="#139B62" d="M209.1,316.2c5.1-0.9-1.7,0,1.7-1.7c-0.8,0-0.8-0.8-0.8-2.5c1.7,2.5,2.5,2.5,2.5,5.1
	C211.6,316.2,210.8,316.2,209.1,316.2C210,316.2,210.8,317,209.1,316.2z"/>
<path id="_x2E_svg_7673_" fill="#139B62" d="M227.8,524.5c-0.8-1.7,0,1.7-2.5,0c0.9-1.7,2.5-2.5,4.2-2.5
	C230.4,522.8,229.5,523.6,227.8,524.5C227.8,524.5,228.6,523.6,227.8,524.5z"/>
<path id="_x2E_svg_7672_" fill="#139B62" d="M224.4,337.5c0.9-2.5,2.6-3.4,3.4-0.9C227,338.3,226.1,338.3,224.4,337.5
	C225.2,335.8,225.2,337.5,224.4,337.5z"/>
<path id="_x2E_svg_7671_" fill="#139B62" d="M232,521c0,0,1.7-2.5,0.9-2.5c0.9,0,1.7-0.8,1.7-1.7C235.5,518.5,235.5,522.8,232,521
	L232,521z"/>
<path id="_x2E_svg_7670_" fill="#139B62" d="M181,503.2c1.7,2.5,0,3.4-5.1,3.4C176,504.9,180.2,503.2,181,503.2
	C181,503.2,180.2,503.2,181,503.2z"/>
<path id="_x2E_svg_7669_" fill="#139B62" d="M226.1,495.5c0.9-0.8,2.5-1.7,3.4-2.5C229.5,493.8,227.8,497.2,226.1,495.5
	C226.1,494.7,226.1,495.5,226.1,495.5z"/>
<path id="_x2E_svg_7667_" d="M266,320.5c-0.9,0.8-2.5,0-3.4,0.8C263.5,319.6,264.4,319.6,266,320.5z"/>
<path id="_x2E_svg_7666_" d="M261.8,380.8C262.6,380,263.5,380.8,261.8,380.8C261.8,380,261.8,380.8,261.8,380.8z"/>
<path id="_x2E_svg_7665_" fill="#139B62" d="M231.2,516.8C232,514.2,235.5,517.7,231.2,516.8C231.2,516,232,516.8,231.2,516.8z"/>
<path id="_x2E_svg_7664_" fill="#139B62" d="M195.5,239.7c0.9,0,1.7,0,1.7,1.7C196.4,241.4,195.5,240.5,195.5,239.7z"/>
<path id="_x2E_svg_7661_" fill="#139B62" d="M174.2,490.5c0-0.9,0.9-0.9,1.7-0.9C176,490.5,175.1,490.5,174.2,490.5z"/>
<path id="_x2E_svg_7660_" fill="#139B62" d="M221.9,516.8c1.7-1.7,2.5-2.5,2.5-0.8C223.5,517.7,222.7,518.5,221.9,516.8
	C222.7,516.8,221.9,516.8,221.9,516.8z"/>
<path id="_x2E_svg_7659_" d="M226.1,366.3C225.2,364.7,229.5,363.8,226.1,366.3C226.1,365.5,226.1,365.5,226.1,366.3z"/>
<path id="_x2E_svg_7658_" d="M196.4,304.3C195.5,305.2,195.5,304.3,196.4,304.3"/>
<path id="_x2E_svg_7657_" fill="#139B62" d="M281.3,380.8c-6.8-1.7-14.4,1.7-17-3.4c1.7-0.9,2.6-6,2.6-7.7
	c-1.7,1.7-10.2,6.8-2.6,6.8c-0.9,3.4-6.8-1.7-5.9,5.1c0.8,0,1.7-2.6,2.5-1.7l0.9,0.8c-5.1,2.5-29.8,16.2-17.9,5.1
	c4.2,6.8-24.7-3.4-21.2-3.4c5.1,6.8-9.4,2.5-8.5,9.3c-5.1,0.9-11.1,2.5-17,2.5c4.2-5.1,9.3-6.8,15.3-11c2.5-2.5,5.1-6.8,6.8-7.6
	c0,0,7.6-4.2,6-2.6c4.2-4.2,18.7-28.9,4.2-22.1c-0.9-2.5,11.9-24.7,13.6-25.5c2.5-1.7,5.9,3.4,8.5,2.5c4.2-0.8-0.9-3.4,3.4-4.2
	c0.9,0,6.8,0.9,6.8,0.9c-1.7,0-2.5-0.9-2.5-1.7c11.9-1.7,1.7-0.9,7.6,1.7c-1.7-2.6-1.7-4.2,0.9-6c-1.7-1.7-6.8,0.8-9.4-1.7
	c14.4-3.4-2.5,0,6-2.5c-1.7,0-1.7-0.9,0-2.5c-10.2-1.7-23,5.1-34,3.4c-9.4-0.8-4.2-5.1-7.6-6.8c-0.9,2.5-2.6,5.1-3.4,6.8
	c-0.8-0.8,0-9.3-0.8-11c0.8-0.8,2.5,0,3.4,0.8c-0.9-2.5,0.9-1.7,1.7-2.5c-3.4-3.4-0.8-2.5-1.7-4.2c-3.4,0-2.6,4.2-0.9,4.2
	c-0.9,3.4-4.2,1.7-6,0.9c0.9,0,1.7,0,3.4-0.9c-6.8-0.8-2.5-0.8,0-1.7c-0.8-0.8-0.8-2.5-0.8-3.4c-4.2,1.7-10.2,9.3-12.8,11.9
	c-0.9-0.8,4.2-3.4-0.9-2.5c-0.9,0.9-0.9,1.7-0.9,2.5c-0.9-0.8-1.7-0.8-2.5-1.7l2.5-1.7c-0.9,0-1.7-0.9-1.7-1.7
	c0.9,1.7,0,2.5-1.7,2.5c-5.1-4.2,3.4-6.8,6.8-9.3c0,0-1.7-0.9-2.5-1.7c3.4-1.7-2.6,1.7-2.6,2.5c-0.8,0-1.7-0.8-1.7-2.5
	c0.9,0,4.2-1.7,4.2-1.7c-3.4-1.7-3.4,3.4-5.1,0c0,1.7,1.7,6,0,6c-0.9-1.7-0.9-2.5-0.9-4.2c-0.9,0-2.5,5.1-3.4,5.1
	c-1.7-0.8-2.5,0-0.9-1.7c-6.8,0-6.8-3.4-11.9-2.5c0.9-1.7-1.7-2.5-3.4-0.8c0-1.7,0.9-2.5,1.7-4.2c-0.8,0.8-0.8,0.8-1.7,0.8
	c2.5-4.2,10.2,0.9,9.4-3.4c-8.5-1.7-0.9,0-4.2-2.6c1.7-0.8,2.5-0.8,4.2,0.9c-1.7-2.5-12.8-6.8-7.7-7.7c-6.8-0.8,6.8,0,1.7-4.2
	c1.7,0,11,1.7,10.2,2.5c-2.6-0.8,0.8-0.8,0.8-1.7c-0.8,0-6.8-2.6-5.1-4.2c-0.9,0.8,13.6-0.9,13.6-0.9c-0.8,0-0.8-0.9-1.7-1.7
	c0.9,0,12.8,6.8,12.8,2.5c-7.6,0-15.3-2.5-16.1-11c-0.9-11.9,10.2-7.6,18.7-11.9c-0.9,3.4,6.8-0.9,6.8-0.9c-6-0.9-2.6-1.7-5.1-6
	c4.2,1.7,1.7-1.7,4.2-4.2c-3.4,0.9,0,0,0-0.9c-1.7,0-2.6,0-4.2,0.9c1.7-4.2-19.6,3.4-21.2,1.7c-4.2-4.2,11.9-17,8.5-8.5
	c-1.7-4.2-6-2.6-7.6-6c2.5-0.9,3.4-0.9,5.1,0.9c0-0.9,0-0.9,0.9-0.9c-0.9-1.7-7.6-13.6,0-13.6c-0.9-0.8-4.2,1.7-4.2,1.7
	c0.9,4.2-2.5,4.2-5.1,4.2c0.9-1.7,0-3.4-1.7-5.1c5.1-0.9,4.2-6.8,0.9-9.4c0.8-1.7,2.5,1.7,3.4,0c0.9-0.8-3.4-5.9-5.1-5.9
	c0,0,0.9,3.4,0,5.1c-0.9-0.9-1.7-1.7-2.5-0.9c0.8,0.9,0.8,3.4,0,3.4c0-2.5-1.7-0.9-3.4,0c0.9,0.9,1.7,0.9,2.6,1.7
	c-2.6,0.8,0,4.2-1.7,2.5c-0.9,2.5,0.9,0.9,1.7,3.4c-3.4,5.1-4.2-3.4-4.2-4.2c0-5.9,7.6-10.2,0.9-12.8c0-0.9,6.8-5.1,7.6-7.6
	c2.5,1.7,4.2,6,8.5,4.2c-2.6,5.1-0.9,5.1-6,6c6,5.9,7.6-6,11.1-7.7c-11.9-6.8,30.6-5.1,30.6-0.8c7.7-5.1,16.2,4.2,17,13.6
	c5.1-10.2,4.3-12.8,15.3-12.8c2.5,0,9.3,0.9,14.5,1.7v313.7c-1.7,0.8-3.4,0.8-2.5,0.8c-2.6,0.8-6.8,0.8-8.5,1.7l-5.1,5.1
	c0-3.4-12.8-6-13.6-6c2.6,6-1.7,8.5-0.8,3.4c-2.6,6.8-6,9.3-9.4,4.2c0,2.5-4.2,6-6,3.4c0.9-0.8,1.7-1.7,1.7-2.5
	c-0.9,0.8-1.7,0.8-2.6,0.8c0.9-1.7-1.7-1.7-2.5-1.7c1.7-0.8,1.7-2.5,2.5-4.2c-0.8,0-2.5,0-3.4-0.8c0.9,6-4.2,3.4-5.9,3.4
	c-0.9,1.7-3.4,4.2-6,4.2c0.9-0.9-0.9-2.5-1.7-2.5c-0.9,2.5-4.2,2.5-5.9,5.9c5.1-1.7,2.5-0.8-1.7,1.7c0.9-0.8,0.9-1.7-0.9-2.5
	c-0.9,1.7-1.7,2.5-3.4,1.7c0.9-2.5,0.9-2.5-0.9-3.4c2.6-0.8,21.2-11.9,20.4-15.3c-1.7,2.6-17,7.7-21.2,8.5
	c8.5-9.3,24.7-10.2,28.1-21.2c-5.1,2.6-5.1-2.5-6.8-1.7c0,10.2-10.2,5.9-12.8,6.8c0,0.8-22.1,11.9-22.1,11c1.7-2.5-6,0-7.7,0.8
	c2.6-6.8,3.4,0,6-4.2c1.7-2.5-1.7-5.1-1.7-5.1s18.7-4.2,6-5.1c3.4-1.7,6-3.4,8.5-6c-0.9,5.1,1.7,0,2.5-1.7c0.9,0.8,3.4,0.8,3.4,1.7
	c1.7-1.7,0-2.5-2.6-2.5c6-2.6,13.6-6,18.7-11.1c-1.7-2.5-16.1,6-17.9,7.7c0-3.4-2.5,0.8-4.2,2.5c0.9,0.9-2.5-3.4-2.5-3.4
	c-0.9,0-12.8,7.6-16.2,10.2c-1.7-3.4,0-1.7-5.9-5.1c5.9-11-1.7-4.2-8.5,0c-2.6-6,3.4-4.2-4.2-6.8c0.9-0.8,3.4-11.9,10.2-7.7
	c0-3.4-4.2-0.8,0.9-4.2c0,0.9-5.9-0.8-5.9-0.8c4.2-3.4,6.8-5.1,11.9-7.7c1.7-0.8,16.1-7.6,13.6-8.5c-0.9,0.9-0.9,2.5,0,3.4
	c0,0,4.2-8.5,5.1-8.5c0,0.8,0,1.7,0.9,2.5c2.6,1.7,7.6-4.2,8.5-5.1c-5.1,0.8-9.4-0.9-14.4,1.7c0,0,3.4,3.4,2.5,4.2
	c2.5-5.1-13.6-0.9-14.5-0.9c0,0-11.9-1.7-10.2-2.5c-0.9,0.8-0.9,0.8-1.7,0.8c6.8,1.7,0,1.7-3.4,0c-1.7-0.8-0.9,1.7,0.9,2.6
	c-12.8,3.4-9.4-7.7-4.2-11.1c0,0.9,0.9,5.1,2.5,3.4c1.7-1.7,0-5.1,0.9-6.8c0,0.8,12.8-6.8,14.5-6c0,4.2,1.7,1.7-1.7,6
	c7.6-1.7,6.8-4.2,8.5-8.5c1.7,0.8,2.5,0.8,2.5-0.9c1.7,2.6-2.5,6,2.6,8.5c2.5,0.9,12.8-0.8,11.9-1.7c-3.4,0.8,5.1-0.9,4.2,0
	c0-0.9-12.8-4.2-9.4-5.1c1.7,0.9,1.7,0.9,0.9,2.5c0,0,2.5-0.8,2.5-1.7c-5.9,0.8,1.7-4.2,0-8.5c-0.8-2.6-8.5-2.6-7.6-4.2
	c0.9-3.4,9.4-2.6,12.8-5.1c4.2-3.4,3.4-6,6-8.5c1.7-1.7,11-11.9,13.6-3.4c5.1-6,9.3-0.9,15.3-2.6c6-0.8,11-4.2,13.6-5.9
	C262.6,384.2,273.7,383.3,281.3,380.8"/>
<path id="_x2E_svg_7656_" fill="#139B62" d="M177.6,464.1c1.7,0,1.7,0,2.6-1.7C178.5,463.2,177.6,464.1,177.6,464.1z"/>
<path id="_x2E_svg_7295_" d="M267.8,312c-1.7,0-1.7,0-1.7,0.8C266.9,312.8,266.9,312.8,267.8,312z"/>
<path id="_x2E_svg_7663_" fill="#139B62" d="M283.9,148.5c-1.7-2.5-4.2-6.8-5.1-7.6c2.5-0.9,3.4-2.6,5.1-3.4V148.5z"/>
<g id="_x2E_svg_7662_">
	<path fill="#FFFFFF" d="M296.7,107.1C305.2,104.6,287.3,95.2,296.7,107.1L296.7,107.1z"/>
	<path fill="#FFFFFF" d="M320.5,71.4c-1.7-0.8-2.5-1.7-4.2-1.7C316.2,71.4,320.5,73.1,320.5,71.4z"/>
	<path fill="#FFFFFF" d="M309.4,93.5c0-1.7-0.9-2.6-2.6-1.7C306.8,93.5,307.7,94.4,309.4,93.5z"/>
	<path fill="#FFFFFF" d="M323,81.6c-1.7,0-1.7-2.6-2.5,0C322.2,82.4,322.2,83.3,323,81.6z"/>
	<path fill="#FFFFFF" d="M309.4,88.4c0.8,0.9,0.8,0.9,1.7,1.7C310.2,88.4,309.4,87.6,309.4,88.4z"/>
	<path fill="#FFFFFF" d="M309.4,90.9C311.1,91.8,310.2,87.6,309.4,90.9L309.4,90.9z"/>
	<path fill="#FFFFFF" d="M322.2,80.8C323.8,80.8,320.5,77.4,322.2,80.8L322.2,80.8z"/>
	<path fill="#FFFFFF" d="M391,190.4c0,0.9,1.7,6,1.7,7.6c0.8-3.4-10.2,12.8-6.8,10.2c-4.2,3.4-11.9,3.4-10.2-1.7
		c-5.1,1.7-8.5,5.1-13.6,1.7c-1.7-0.9-2.5-4.2-4.2-5.1c-0.8-0.9-5.9-1.7-8.5-2.5c-6.8-4.2,0-0.9-5.9-6.8c-1.7-1.7-4.2-3.4-6-5.9
		c-4.2-4.2-11-16.1-16.2-17.9c8.5-0.9,9.4-6.8,15.3-9.4c1.7-0.9,7.7,0,11.1-1.7c0.8,0,8.5-7.7,8.5-7.7c0-0.8-0.9-1.7-1.7-2.5
		c-3.4,2.5-16.2-0.9-13.6-7.6c1.7-5.1,19.6-4.2,25.5-5.1c-0.8-6.8,6.8-21.2,9.4-28.1c3.4-7.6,11-15.3,18.7-22.1v-17
		c-5.1-3.4-9.4-11.1-17-11.1c-3.4,0,2.6,1.7,4.3,1.7c-2.6,4.2,0,5.9,5.1,9.4c-0.8,0.8-4.2,0-5.1-0.9c3.4-1.7-10.2-4.2-11.1,0.9
		c-1.7-1.7,0-0.9-3.4,0c-0.9,1.7,0.8,5.9,2.5,5.9c-1.7,1.7-2.5,4.2-4.2,5.1c3.4,4.2,6.8,11.1,8.5,10.2c0,1.7-0.8,4.2-1.7,5.9
		l-0.8,1.7c-2.5,4.2-6,8.5-11.9,10.2c0.9-2.6,7.7-7.6,6-10.2c-0.8-1.7-3.4,0-5.1,0c4.2-4.2,12.8-11.9,3.4-17
		c-1.7,0.9-3.4,1.7-4.2,4.2c2.5-7.6,0-8.5,0.9-15.3c-4.2-0.8-6,5.9-8.5,2.6c-0.9,2.6-3.4,9.4-1.7,0.9c-4.2,1.7-0.9,4.2-6,3.4
		c-0.8,2.6,4.2,8.5,0.8,9.4c0-4.2-5.1-2.6-5.9-3.4c-4.2-2.6,2.5-5.1-5.1-3.4c-0.8,0,0,4.2-0.8,5.1c-3.4,1.7-8.5,1.7-11,3.4
		c-4.2,1.7-4.2-1.7-7.7,0.8c-1.7,1.7-0.8,7.7-1.7,8.5c-5.1,7.7-4.2,0-10.2,1.7c0,0.8,4.2,4.2,2.6,5.9c-5.1,5.1-2.6,3.4,3.4,7.6
		c-5.1,1.7-3.4-3.4-6-1.7c0,5.1,0.9,7.6,6,9.4c-0.8,0-0.8,0-1.7,0c0,5.9-5.1,2.5-4.2,4.2c-3.4-1.7-5.1-0.9-7.6,1.7
		c0.8,0,5.1,3.4,6,4.2c-1.7,0-3.4,0-4.2,0c0,0.9,1.7,0.9,1.7,2.6c-8.5-0.8-11,2.6-14.4,5.1l0,0v11c0.8,1.7,2.5,2.5,2.5,1.7
		c6,4.2,9.3,0,14.5-0.9c0,0.9,0,1.7,0,3.4c3.4,0.9,1.7-3.4,4.2-5.1c-1.7,9.4,0.8-0.9,3.4,2.6c0,0.8-4.2,5.9-6,6.8
		c2.6,0.9,11.1-11,13.6-8.5c-2.5,1.7-2.5,3.4-1.7,5.1c2.5-0.9,10.2-4.2,11.9-6c-3.4,13.6,0.8-1.7-2.6,2.6c-3.4,3.4-3.4,9.3-6.8,12.8
		c-5.1,5.9-6.8,5.9-14.5,5.9c-2.5,9.4-17.8,9.4-12.8,18.7c0.9,0,2.6-3.4,5.1-2.6c-1.7,6,0.8,2.6,5.1,6c-5.1,5.1-5.1-1.7-6.8-2.5
		c0,4.2-0.8,2.5-2.5,6.8c-0.9-1.7-4.2-2.5-7.7-3.4c0,0.9,0,313.6,0,314.5c2.5-0.8,6.8-2.5,2.5-5.9c4.2-1.7,8.5,3.4,11.9,4.2
		c-0.8-3.4,1.7-8.5,0.8-11.1c8.5,6,18.7-12.8,14.5-13.6l1.7-2.5c-1.7,0-2.5,0-4.2,0c0.8-0.9,6.8-1.7,9.3-1.7
		c-2.5,0.8-5.9,5.1-2.5,6.8c4.2,2.5,13.6-1.7,17.9-4.2c0-0.8-3.4,0-1.7-2.5c0.8-1.7,10.2-2.5,10.2-4.2c-0.9-0.8-1.7-1.7-2.6-2.5
		c1.7-0.9,6-3.4,6.8-4.2c1.7-1.7,5.1,0.8,6.8,0c-2.5-3.4,13.6-7.7,11.9-12.8c0-0.9-6.8-0.9-6.8-2.5c6-4.2,32.3-4.2,35.7-10.2V181.1
		C393.5,184.5,391.8,187.9,391,190.4z M354.5,81.6c3.4,0,3.4,7.6,0,8.5C354.5,88.4,354.5,83.3,354.5,81.6z M347.7,76.5
		c0.8,0.9,1.7,2.6,2.5,4.2C347.7,80.8,346,79.1,347.7,76.5z M342.5,85.9C346,83.3,344.2,86.7,342.5,85.9L342.5,85.9z M307.7,118.1
		c0-3.4,0.8-1.7,3.4,0C311.1,118.1,309.4,118.1,307.7,118.1z M295,184.5L295,184.5c0.8,0,1.7,0.8,3.4,1.7
		C295.8,187,295,186.1,295,184.5z M293.2,199.8C293.2,198.9,293.2,198.9,293.2,199.8C293.2,198.9,294.1,198.9,293.2,199.8z
		 M292.4,198c-0.9-1.7-1.7,0,0-3.4c0.8,0.9,5.1,3.4,5.1,3.4C295,198,293.2,198,292.4,198z M306,472.6c0-3.4,2.5-0.8,5.1-1.7
		C310.2,473.5,307.7,472.6,306,472.6z M344.2,464.1c0-0.8,0-1.7-0.8-1.7C345.1,462.4,345.1,462.4,344.2,464.1z"/>
	<path fill="#FFFFFF" d="M350.2,80.8C349.3,79.9,349.3,80.8,350.2,80.8L350.2,80.8z"/>
	<path fill="#FFFFFF" d="M297.5,198.9C297.5,198.9,295.8,198.9,297.5,198.9L297.5,198.9z"/>
	<path fill="#FFFFFF" d="M306,472.6C307.7,472.6,306,471.8,306,472.6L306,472.6z"/>
	<path fill="#FFFFFF" d="M395.2,439.5L395.2,439.5L395.2,439.5L395.2,439.5z"/>
	<path fill="#FFFFFF" d="M282.2,147L282.2,147L282.2,147z"/>
</g>
<path id="_x2E_svg" fill="#139B62" d="M281.6,192.2c0,0,1.1-0.2,1.9,0.1v314.2c0,0-0.9,0.9-2-0.5
	C280.4,504.5,281.6,192.2,281.6,192.2z"/>
<g>
</g>
<g>
</g>
<g>
</g>
<g>
</g>
<g>
</g>
<g>
</g>
<g>
</g>
<g>
</g>
<g>
</g>
<g>
</g>
<g>
</g>
<g>
</g>
<g>
</g>
<g>
</g>
<g>
</g>
</svg>
