<?xml version="1.0" encoding="utf-8"?>
<!-- Generator: Adobe Illustrator 18.1.1, SVG Export Plug-In . SVG Version: 6.00 Build 0)  -->
<svg version="1.1" id="Layer_1" xmlns="http://www.w3.org/2000/svg" xmlns:xlink="http://www.w3.org/1999/xlink" x="0px" y="0px"
	 viewBox="0 0 72.1 72.1" enable-background="new 0 0 72.1 72.1" xml:space="preserve">
<circle id="_x2E_svg_2432_" fill="#F2EFAE" cx="37.8" cy="36.1" r="34.2"/>
<ellipse id="_x2E_svg_2453_" fill="#3F3E3F" cx="49.5" cy="60.8" rx="6.9" ry="1.1"/>
<path id="_x2E_svg_2431_" fill="#EACB46" d="M36.1,0C16.1,0,0,16.1,0,36.1s16.1,36.1,36.1,36.1S72.1,56,72.1,36.1S56,0,36.1,0z
	 M36.1,67.4c-17.5,0-31.7-14.1-31.7-31.7S18.6,4.1,36.1,4.1s31.7,14.1,31.7,31.7C67.7,53.2,53.6,67.4,36.1,67.4z"/>
<ellipse id="_x2E_svg_2452_" fill="#8B672F" cx="29.7" cy="61.4" rx="10.8" ry="1.6"/>
<polyline id="_x2E_svg_2451_" fill="none" stroke="#000000" stroke-width="0.5" stroke-linecap="round" stroke-miterlimit="10" points="
	34.5,49.3 32.6,56.9 33.5,60.5 35.3,60.9 "/>
<polyline id="_x2E_svg_2450_" fill="none" stroke="#000000" stroke-width="0.5" stroke-linecap="round" stroke-miterlimit="10" points="
	24.9,49.3 26.7,56.9 25.8,60.5 24,60.9 "/>
<ellipse id="_x2E_svg_2449_" fill="#605F5F" cx="29.6" cy="31.4" rx="22.9" ry="20"/>
<path id="_x2E_svg_2448_" fill="#FFFFFF" d="M48.5,31.4C48.5,40.6,40,48,29.6,48s-18.9-7.4-18.9-16.5c0-8.5,4.6-15.5,14-16.4
	c0.7-0.1,4.2,2.7,4.9,2.7c0.6,0,3.9-2.7,4.5-2.7C43.7,15.7,48.5,22.8,48.5,31.4z"/>
<path id="_x2E_svg_2447_" fill="#CF4450" d="M47.9,28c0,7-8.2,16.3-18.4,16.3S11.2,35,11.2,28c0-6.5,4.4-12.3,13.6-13
	c0.7-0.1,4.1,2.5,4.8,2.5c0.6,0,3.8-2.6,4.4-2.5C43.2,15.6,47.9,21.4,47.9,28z"/>
<circle id="_x2E_svg_2446_" fill="#3F3E3F" cx="41.6" cy="20.7" r="2.1"/>
<circle id="_x2E_svg_2444_" fill="#3F3E3F" cx="18" cy="20.7" r="2.1"/>
<polygon id="_x2E_svg_2443_" fill="#EACB46" points="30.1,29.6 34.2,22.5 26,22.5 30.1,29.6 34.2,22.5 26,22.5 "/>
<path id="_x2E_svg_2442_" fill="#CF4450" d="M33,19.1c0,0-4.4,5.9,4.7,6.8"/>
<path id="_x2E_svg_2441_" fill="#CF4450" d="M39.1,22.8c0,0,2.7-2.6,4.9,0"/>
<path id="_x2E_svg_2440_" fill="#CF4450" d="M15.4,22.8c0,0,2.7-2.6,4.9,0"/>
<path id="_x2E_svg_2439_" fill="#3A3A3A" d="M49.1,34.2c0,0-0.8,4.4,0.7,6.6c0,0,1.3-1.6,1.7-3.7C51.6,37.1,50.7,33.8,49.1,34.2z"/>
<path id="_x2E_svg_2437_" fill="#3A3A3A" d="M9.5,34.4c0,0,1.4,4.4-0.2,6.6c0,0-1.5-2.2-2-4.3C7.4,36.7,7.9,34.1,9.5,34.4z"/>
<path id="_x2E_svg_2436_" fill="#605F5F" d="M51.1,24.8c0,0,6.4,17.7,3.4,15.4c-0.9-0.7-5.4-6.1-5.4-6.1S48.2,27.7,51.1,24.8z"/>
<path id="_x2E_svg_2435_" fill="#605F5F" d="M8.2,25c0,0-7.6,17.3-4.4,15.2c0.9-0.6,5.8-5.7,5.8-5.7S10.9,28,8.2,25z"/>
<g id="_x2E_svg_2434_">
	<path fill="#EB8EBB" d="M47.8,61.9c-0.5-0.2-2.2-2-3.5-5.6c-0.5-1.3-0.7-3.5,0.7-6c1.3-2.3,3.5-4,6.4-6c3.1-2,6.9-4.5,7.1-6.7
		c0.1-0.6-0.2-1.3-0.6-2c-0.6-0.9-0.4-2,0.3-2.7l0,0c1-1,2.7-0.8,3.5,0.4c1,1.6,1.5,3.2,1.3,4.9c-0.5,4.3-4.9,7.2-9.1,10
		c-2.4,1.6-4.2,3.4-5,4.7c-0.7,1.2-0.3,2-0.2,2.4c0.5,1.5,4,6.2,4.7,6.5L47.8,61.9z"/>
</g>
<path id="_x2E_svg_2433_" fill="#CC71AD" d="M50.4,45c0,0,2.4-0.1,3.4,3.1l-0.8,0.5c0,0,7.8-1.5,9.1-6.1c0,0-1.3-3.1-4.5-3.1
	C54.5,39.4,50.4,45,50.4,45z"/>
<g>
</g>
<g>
</g>
<g>
</g>
<g>
</g>
<g>
</g>
<g>
</g>
<g>
</g>
<g>
</g>
<g>
</g>
<g>
</g>
<g>
</g>
<g>
</g>
<g>
</g>
<g>
</g>
<g>
</g>
</svg>
