<?xml version="1.0" encoding="utf-8"?>
<!-- Generator: Adobe Illustrator 18.1.0, SVG Export Plug-In . SVG Version: 6.00 Build 0)  -->
<svg version="1.1" id="Layer_1" xmlns="http://www.w3.org/2000/svg" xmlns:xlink="http://www.w3.org/1999/xlink" x="0px" y="0px"
	 viewBox="0 0 72 72" enable-background="new 0 0 72 72" xml:space="preserve">
<circle fill="#0098CC" cx="36.3" cy="36.3" r="34.3"/>
<path fill="#EE3424" d="M21.8,62.5v4.8c0,0,18.5,5.8,29,0l1-4.3C51.8,63,29.8,58,21.8,62.5z"/>
<path fill="#3F3E3F" d="M36,0C16.1,0,0,16.1,0,36c0,19.9,16.1,36,36,36s36-16.1,36-36C72,16.1,55.9,0,36,0z M36,67.3
	c-17.5,0-31.6-14.1-31.6-31.6C4.4,18.2,18.6,4.1,36,4.1s31.6,14.1,31.6,31.6C67.6,53.1,53.5,67.3,36,67.3z"/>
<path fill="#FED839" d="M25.3,15.3v-4.9c0,0,1.2-3.4,11.9-3.4c10.7,0,11.7,3.6,11.7,3.6v6.1L25.3,15.3z"/>
<path fill="#FBCF12" d="M25.5,11.8c0,0,12.1-5.6,23.1,1V18l-23.1-1.4V11.8z"/>
<path fill="#FED839" d="M33.5,63.9H18.6l0.3-2.4c-7.4-2.1-8.4-9.8-8.4-9.8C9.9,44.4,12,22.5,12,22.5s5.8-9.8,23.5-9.8l2.4,0.1
	c17.6,1,22.9,11,22.9,11s0.9,22,0,29.3c0,0-1.5,7.6-9,9.3l0.1,2.4L36.3,64L33.5,63.9z"/>
<circle cx="44.9" cy="31.3" r="3"/>
<circle cx="29.1" cy="29.7" r="3"/>
<path d="M21.8,34.2c0,0,18.4,8.1,28.3,3.6c0,0,0.9,8.2-12.9,8.6C21.4,47,21.8,34.2,21.8,34.2z"/>
<path fill="#EE3424" d="M27.7,44c2.2,1.2,5.2,1.9,9.4,1.7c2.7-0.1,4.9-0.5,6.6-1C43.7,44.7,36.8,40.4,27.7,44L27.7,44z"/>
<path fill="#FFFFFF" d="M23.5,35.5c4.6,1.8,17.4,6.2,25.5,3.3c0,0,0.5,0.9-0.3,1.2c0,0-5.9,5-25.2-3C23.5,37,22.7,35.2,23.5,35.5z"
	/>
<path fill="#FBCF12" d="M58.9,21.5c1.3,1.4,1.9,2.5,1.9,2.5c0,0,0.9,22,0,29.3c0,0-1.5,7.6-9,9.3c0,0-11-3.4-31.6-1.4
	c0,0,12.4-7.7,29.6-4.4c0,0,6.6-3,6.7-7.1c0,0,5.1-20.2,2.4-27.9L58.9,21.5z"/>
<circle fill="#FFFFFF" cx="28.3" cy="28.9" r="1.4"/>
<circle fill="#FFFFFF" cx="44.1" cy="30.4" r="1.4"/>
<path fill="#21376C" d="M36,0C16.1,0,0,16.1,0,36c0,19.9,16.1,36,36,36s36-16.1,36-36C72,16.1,55.9,0,36,0z M36,67.3
	c-17.5,0-31.6-14.1-31.6-31.6C4.4,18.2,18.6,4.1,36,4.1s31.6,14.1,31.6,31.6C67.6,53.1,53.5,67.3,36,67.3z"/>
<g>
</g>
<g>
</g>
<g>
</g>
<g>
</g>
<g>
</g>
<g>
</g>
<g>
</g>
<g>
</g>
<g>
</g>
<g>
</g>
<g>
</g>
<g>
</g>
<g>
</g>
<g>
</g>
<g>
</g>
<g>
</g>
</svg>
