<?xml version="1.0" encoding="utf-8"?>
<!-- Generator: Adobe Illustrator 18.1.1, SVG Export Plug-In . SVG Version: 6.00 Build 0)  -->
<svg version="1.1" id="Layer_1" xmlns="http://www.w3.org/2000/svg" xmlns:xlink="http://www.w3.org/1999/xlink" x="0px" y="0px"
	 viewBox="0 0 72 72" enable-background="new 0 0 72 72" xml:space="preserve">
<g id="_x2E_svg_322_">
	<circle id="_x2E_svg_232_" fill="#B1CD47" cx="36.6" cy="36.1" r="33.2"/>
</g>
<g id="_x2E_svg_319_">
	<circle id="_x2E_svg_231_" fill="#263520" cx="36.6" cy="36.1" r="33.2"/>
</g>
<path fill="#8B672F" d="M26.5,40.3L54,30l16.5,1c0,0-0.5,36.2-33.9,38.3C3.2,71.5,26.5,40.3,26.5,40.3z"/>
<polygon fill="#AAABAB" points="46.8,43.8 67.7,48.3 61.5,55.3 36.2,48.8 "/>
<path fill="#84B841" d="M10.5,31.6c2.1-2.5,4.8-4.5,7.8-5.6c1.2-0.4,2.4-0.7,3.4-0.7c3,0.3,12.9,12,12.8,15.6
	c-0.1,3.6,14.5,9.4,14.3,24.8C48.7,81-3,59.3,3.4,43.5C5.6,38.1,8.4,34.1,10.5,31.6z"/>
<polygon fill="#AAABAB" points="48.7,23.1 66,22.3 69.8,31.2 67.5,46.1 49,42.5 "/>
<polygon fill="#5D5D5F" points="64.7,25.9 69,24.7 69.8,31.2 67.9,46.4 56.7,44.2 63.6,27.1 "/>
<path fill="#007D40" d="M19.5,21.7c0,0,3.5-7.2,9.6-5.9s4.8,7,4.8,7s-0.1,2.4-3.4,2.5c0,0,4.6,4.2,3.5,10.4
	C32.9,41.8,11.4,36.8,19.5,21.7z"/>
<path fill="#0098CC" d="M33.5,37.7c0.7,1.3,1.1,2.4,1.1,3.1c-0.1,3.6,14.5,9.4,14.3,24.8C48.7,81-3,59.3,3.4,43.5
	c2.2-5.5,5-9.5,7.1-12c1.1-1.3,2.2-2.4,3.6-3.3C14.1,28.2,19.5,43.1,33.5,37.7L33.5,37.7z"/>
<path fill="#4D66AB" d="M48,59.4c0.5,1.9,0.8,3.9,0.8,6.2C48.7,81-3,59.3,3.4,43.5c2.2-5.5,5-9.5,7.1-12c1.1-1.3,2.2-2.4,3.6-3.3
	c0,0-12.9,15.7,0.1,26.1s23.6,15.9,33.5,5.8L48,59.4z"/>
<path id="_x2E_svg_316_" fill="#3F3E3F" d="M0,36c0,19.9,16.1,36,36,36s36-16.1,36-36C72,16.1,55.9,0,36,0S0,16.1,0,36z M4.4,35.7
	C4.4,18.2,18.5,4.1,36,4.1s31.6,14.1,31.6,31.6c0,17.5-14.1,31.6-31.6,31.6S4.4,53.1,4.4,35.7z"/>
<path id="_x2E_svg_315_" fill="#FBB040" d="M0,36c0,19.9,16.1,36,36,36s36-16.1,36-36C72,16.1,55.9,0,36,0S0,16.1,0,36z M4.4,35.7
	C4.4,18.2,18.5,4.1,36,4.1s31.6,14.1,31.6,31.6c0,17.5-14.1,31.6-31.6,31.6S4.4,53.1,4.4,35.7z"/>
<path fill="#84B841" d="M20.5,20.7c0,0,3.5-7.2,9.6-5.9s4.8,7,4.8,7s-0.1,2.4-3.4,2.5c0,0,4.6,4.2,3.5,10.4
	C33.9,40.8,12.4,35.8,20.5,20.7z"/>
<line fill="#FFFFFF" stroke="#000000" stroke-width="0.5" stroke-miterlimit="10" x1="27.4" y1="22.3" x2="21.6" y2="20"/>
<path fill="#FFFFFF" stroke="#000000" stroke-width="0.5" stroke-miterlimit="10" d="M35.2,24.9h-2.4c-0.3,0-0.5-0.2-0.5-0.5v-2.3
	c0-0.3,0.2-0.5,0.5-0.5h2.4c0.3,0,0.5,0.2,0.5,0.5v2.3C35.7,24.7,35.5,24.9,35.2,24.9z"/>
<path fill="#263520" d="M31.5,27.6c0,0-3.3-0.6-7.4,0.7c0,0,6.6-0.8,7.7,0C31.8,28.2,32,27.7,31.5,27.6z"/>
<path fill="#FFFFFF" d="M27.7,28c0,0,1.1-1.6,0.1-3.2c0,0,2.3,0.5,2.6,3C30.5,27.9,29.3,28.4,27.7,28z"/>
<path fill="#FBB040" d="M36.6,27.4c0.8,1.9-1.4,3-2.6,2.6c-1.1-0.4-1.8-0.8-2.6-2.7c-0.8-1.9-1.4-3.5-0.2-3.9S35.8,25.5,36.6,27.4z"
	/>
<path fill="#84B841" d="M20.6,24.1c0,0,1.8-4.8,0.9-5.5c-0.4-0.3-0.6-1.3-0.7-2.3c-0.1-0.8-1.1-1.1-1.6-0.5
	c-2.1,2.5-5.3,7.5-1.6,11.2C22.9,32.2,20.6,24.1,20.6,24.1z"/>
<path fill="#007D40" d="M17.8,20c0,0,1-2.1,2.1-1.5s1.1,2.5,0.2,3.1c-0.8,0.6-1.4,1.6-0.9,2.5c0.5,0.9-1,1.8-1.4,0.7
	S17.1,21.7,17.8,20z"/>
<polygon fill="#AAABAB" points="65,45.3 49,42.5 48.7,23.1 64.7,25.9 "/>
<polygon fill="#FFFFFF" points="63.8,43.7 50.2,41.3 49.9,24.7 63.6,27.1 "/>
<path fill="#4D66AB" d="M17.3,35.6c0,0,5.8,17.8,18.4,14.6C35.7,50.2,22.7,63.6,17.3,35.6z"/>
<path fill="#FFFFFF" stroke="#000000" stroke-width="0.5" stroke-miterlimit="10" d="M30.3,24.2h-2.4c-0.3,0-0.5-0.2-0.5-0.5v-2.3
	c0-0.3,0.2-0.5,0.5-0.5h2.4c0.3,0,0.5,0.2,0.5,0.5v2.3C30.8,24,30.6,24.2,30.3,24.2z"/>
<line fill="#FFFFFF" stroke="#000000" stroke-width="0.5" stroke-miterlimit="10" x1="30.8" y1="22.6" x2="32.3" y2="23"/>
<polyline fill="none" stroke="#263520" stroke-miterlimit="10" points="26.6,19 31.5,20.5 34.5,19.6 "/>
<g>
	<path fill="#4D66AB" d="M43.2,50.3c-6.6,3.2-12.3,4-16.6,2.2C18.8,49.3,17,38.8,17,38.6L12,39.4c0.1,0.5,2.3,13.4,12.7,17.7
		c2.2,0.9,4.5,1.3,7,1.3c4.3,0,9.1-1.3,14.3-3.9C46,54.5,43.7,50.5,43.2,50.3L43.2,50.3z"/>
</g>
<g>
	<path fill="#84B841" d="M31.7,56.7c-2.6,0-5-0.5-7.2-1.4c-10.7-4.4-12.9-17.5-13-18c-0.3-1.6,0.8-3.2,2.5-3.4
		c1.6-0.3,3.2,0.8,3.4,2.5l0,0c0,0.1,1.8,10.4,9.4,13.5c6.1,2.5,15-0.3,25.7-8.1c1.3-1,3.2-0.7,4.2,0.7c1,1.3,0.7,3.2-0.7,4.2
		C46.8,53.3,38.7,56.7,31.7,56.7z"/>
</g>
<g>
	<path fill="#0098CC" d="M21.2,53.5c-7.8-5.4-9.6-15.8-9.7-16.2c-0.3-1.6,0.8-3.2,2.5-3.4c1.6-0.3,3.2,0.8,3.4,2.5l0,0
		c0,0.1,1.9,8.3,7.5,12.2C25,48.5,21.1,50,21.2,53.5L21.2,53.5z"/>
</g>
<polygon fill="#FBB040" points="52.8,35.1 56.7,35.6 56.7,31.8 59.3,31.8 54.8,26 50.8,31.2 53.1,31.4 "/>
<polygon fill="#4D66AB" points="61.3,33.6 57.3,33.2 57.3,36.9 54.7,36.9 59.3,42.8 63.3,37.5 60.9,37.3 "/>
<g>
</g>
<g>
</g>
<g>
</g>
<g>
</g>
<g>
</g>
<g>
</g>
<g>
</g>
<g>
</g>
<g>
</g>
<g>
</g>
<g>
</g>
<g>
</g>
<g>
</g>
<g>
</g>
<g>
</g>
</svg>
