<?xml version="1.0" encoding="utf-8"?>
<!-- Generator: Adobe Illustrator 18.1.0, SVG Export Plug-In . SVG Version: 6.00 Build 0)  -->
<svg version="1.1" id="Layer_1" xmlns="http://www.w3.org/2000/svg" xmlns:xlink="http://www.w3.org/1999/xlink" x="0px" y="0px"
	 viewBox="0 0 72 72" enable-background="new 0 0 72 72" xml:space="preserve">
<circle id="_x2E_svg_488_" fill="#FFFFFF" cx="36.3" cy="36.4" r="34.3"/>
<path id="_x2E_svg_487_" fill="#3F3E3F" d="M9.1,60c6.6,7.4,16.2,12,26.9,12c19.9,0,36-16.1,36-36C72,16.1,55.9,0,36,0S0,16.1,0,36
	C0,45.2,3.5,53.6,9.1,60 M36,67.3c-17.5,0-31.6-14.1-31.6-31.6C4.4,18.2,18.6,4.1,36,4.1s31.6,14.1,31.6,31.6
	C67.6,53.1,53.5,67.3,36,67.3z"/>
<rect id="_x2E_svg_486_" x="14.6" y="31.1" fill="#231C11" width="41.3" height="23.7"/>
<rect id="_x2E_svg_485_" x="14.6" y="31.1" fill="#FFFFFF" width="41.3" height="5.4"/>
<polygon id="_x2E_svg_484_" fill="#231C11" points="17.7,31.1 14.6,36.5 14.6,31.1 "/>
<polygon id="_x2E_svg_483_" fill="#231C11" points="25.3,31.1 23.6,36.8 19.3,36.8 21.6,31.1 "/>
<polygon id="_x2E_svg_482_" fill="#231C11" points="33.5,31.1 31.8,36.8 27.5,36.8 29.8,31.1 "/>
<polygon id="_x2E_svg_481_" fill="#231C11" points="41.3,31.1 39.5,36.8 35.3,36.8 37.5,31.1 "/>
<polygon id="_x2E_svg_480_" fill="#231C11" points="55.5,31.1 53.8,36.8 49.5,36.8 51.8,31.1 "/>
<polygon id="_x2E_svg_479_" fill="#231C11" points="48.4,31.1 46.7,36.8 42.4,36.8 44.7,31.1 "/>
<g id="_x2E_svg_478_">
	
		<rect x="12.3" y="18.6" transform="matrix(0.9353 -0.3539 0.3539 0.9353 -5.4044 13.0503)" fill="#FFFFFF" width="41.3" height="5.4"/>
	<polygon fill="#231C11" points="14.6,31.1 12.7,26.1 17.5,30 	"/>
	<polygon fill="#231C11" points="21.1,28.7 17.1,24.4 20.6,23.1 24.6,27.3 	"/>
	<polygon fill="#231C11" points="28.8,25.7 24.8,21.5 28.3,20.2 32.3,24.4 	"/>
	<polygon fill="#231C11" points="36.1,23 32.1,18.8 35.6,17.4 39.6,21.7 	"/>
	<polygon fill="#231C11" points="49.4,18 45.4,13.7 48.9,12.4 52.9,16.6 	"/>
	<polygon fill="#231C11" points="42.7,20.5 38.7,16.3 42.2,14.9 46.2,19.2 	"/>
</g>
<g>
</g>
<g>
</g>
<g>
</g>
<g>
</g>
<g>
</g>
<g>
</g>
<g>
</g>
<g>
</g>
<g>
</g>
<g>
</g>
<g>
</g>
<g>
</g>
<g>
</g>
<g>
</g>
<g>
</g>
</svg>
