<?xml version="1.0" encoding="utf-8"?>
<!-- Generator: Adobe Illustrator 18.1.1, SVG Export Plug-In . SVG Version: 6.00 Build 0)  -->
<svg version="1.1" id="Layer_1" xmlns="http://www.w3.org/2000/svg" xmlns:xlink="http://www.w3.org/1999/xlink" x="0px" y="0px"
	 viewBox="0 0 72 72" enable-background="new 0 0 72 72" xml:space="preserve">
<circle id="_x2E_svg_613_" fill="#0098CC" cx="36.3" cy="36.4" r="34.3"/>
<polygon id="_x2E_svg_612_" fill="#CF4450" points="14.4,11.5 22.3,8.8 21.8,11.5 29.5,8.8 29.5,18.8 21.8,21.5 22.3,18.8 
	14.4,21.5 "/>
<circle id="_x2E_svg_611_" fill="#00B4E4" cx="27.2" cy="43.4" r="23.4"/>
<circle id="_x2E_svg_610_" fill="#38C6F4" cx="20" cy="50.4" r="12.9"/>
<rect id="_x2E_svg_609_" x="11.5" y="11.5" fill="#CCCCCB" width="2.9" height="50.9"/>
<path id="_x2E_svg_608_" fill="#CCCCCB" d="M24.3,21.3L24.3,21.3c-0.8,0-1.4,0.6-1.4,1.4v46.7h2.9V22.8C25.8,22,25.1,21.3,24.3,21.3
	z"/>
<path id="_x2E_svg_607_" fill="#CCCCCB" d="M34.8,34.5L34.8,34.5c-0.8,0-1.4,0.6-1.4,1.4v36h2.9V36C36.2,35.2,35.6,34.5,34.8,34.5z"
	/>
<path id="_x2E_svg_606_" fill="#CCCCCB" d="M46.3,46.6L46.3,46.6c-0.8,0-1.4,0.6-1.4,1.4v20.4h2.9V48C47.8,47.2,47.1,46.6,46.3,46.6
	z"/>
<path id="_x2E_svg_605_" fill="#593015" d="M18.4,6.1"/>
<path id="_x2E_svg_604_" fill="#D85E27" d="M9.1,60c6.6,7.4,16.2,12,26.9,12c19.9,0,36-16.1,36-36C72,16.1,55.9,0,36,0S0,16.1,0,36
	C0,45.2,3.5,53.6,9.1,60 M36,67.3c-17.5,0-31.6-14.1-31.6-31.6C4.4,18.2,18.6,4.1,36,4.1s31.6,14.1,31.6,31.6
	C67.6,53.1,53.5,67.3,36,67.3z"/>
<polygon id="_x2E_svg_603_" fill="#EACB46" points="25.8,23 33.2,20.2 32.7,23 39.9,20.2 39.9,30.2 32.7,33 33.2,30.2 25.8,33 "/>
<polygon id="_x2E_svg_602_" fill="#B1CD47" points="36.2,35.8 44.1,33.1 43.6,35.8 51.3,33.1 51.3,43.1 43.6,45.8 44.1,43.1 
	36.2,45.8 "/>
<polygon id="_x2E_svg_601_" fill="#21376C" points="47.6,47.5 55.6,44.8 55,47.5 62.7,44.8 62.7,54.8 55,57.5 55.6,54.8 47.6,57.5 
	"/>
<polygon id="_x2E_svg_600_" fill="#9A3341" points="22.3,18.8 21.8,21.5 29.5,18.8 29.5,8.8 21.8,11.5 "/>
<polygon id="_x2E_svg_599_" fill="#CDB13C" points="33.2,30.2 32.7,33 39.9,30.2 39.9,20.2 32.7,23 "/>
<polygon id="_x2E_svg_598_" fill="#85993A" points="44.1,43.1 43.6,45.8 51.3,43.1 51.3,33.1 43.6,35.8 "/>
<polygon id="_x2E_svg_597_" fill="#172B4C" points="55.6,54.8 55,57.5 62.7,54.8 62.7,44.8 55,47.5 "/>
<g>
</g>
<g>
</g>
<g>
</g>
<g>
</g>
<g>
</g>
<g>
</g>
<g>
</g>
<g>
</g>
<g>
</g>
<g>
</g>
<g>
</g>
<g>
</g>
<g>
</g>
<g>
</g>
<g>
</g>
</svg>
