<?xml version="1.0" encoding="utf-8"?>
<!-- Generator: Adobe Illustrator 18.1.0, SVG Export Plug-In . SVG Version: 6.00 Build 0)  -->
<svg version="1.1" id="Layer_1" xmlns="http://www.w3.org/2000/svg" xmlns:xlink="http://www.w3.org/1999/xlink" x="0px" y="0px"
	 viewBox="0 0 72 72" enable-background="new 0 0 72 72" xml:space="preserve">
<circle fill="#FBB040" cx="36.3" cy="36.4" r="34.3"/>
<g>
	<path fill="#5D5E5E" d="M49.1,25.6l-4.8-15l-2.9,0.8l4.8,15C46.2,26.4,48.5,28.1,49.1,25.6z"/>
</g>
<g>
	<path fill="#5D5E5E" d="M41.7,12.1c-1.6-1.7-2.7-3.8-3.3-6c-0.1-0.3-0.2-0.8,0.1-1c0.4-0.3,1,0,1.2,0.4C39.9,6,39.9,6.6,40,7.1
		c0.1,0.6,0.3,1.2,0.8,1.4C41.1,8.2,41,7.7,41,7.2c0-1,0.3-2.1,1-2.8c0.8-0.7,2.2-0.7,2.7,0.2c0.1,0.1,0.1,0.2,0.1,0.3
		c0,0.3-0.4,0.4-0.6,0.5c-0.8,0.2-1.6,0.9-1.4,1.7c0,0.1,0.1,0.3,0.2,0.3c0.1,0,0.3,0,0.4-0.1C44,7,44.5,6.5,45.2,6.3
		c0.6-0.2,1.4-0.1,1.8,0.4c0.2,0.3,0.3,0.7,0,1c-0.1,0.1-0.3,0.2-0.5,0.2c-0.4,0.1-0.8,0.3-1.2,0.6c-0.3,0.2-0.6,0.7-0.3,1
		c0.3,0.2,0.7,0,0.9-0.2c0.4-0.3,0.8-0.5,1.3-0.6c0.5-0.1,1,0.1,1.3,0.4c0.3,0.4,0.2,1.1-0.3,1.3c-0.4,0.2-0.8,0-1.2-0.1
		c-0.8-0.1-1.6,0.4-2,1.1c-0.1,0.3-0.2,0.6-0.4,0.8c-0.2,0.2-0.4,0.3-0.6,0.3c-1,0.3-2.1,0-2.9-0.7"/>
</g>
<path fill="none" stroke="#5D5E5E" stroke-miterlimit="10" d="M50.5,6.2"/>
<path fill="none" stroke="#5D5E5E" stroke-miterlimit="10" d="M50.2,20.9"/>
<path fill="#5D5E5E" d="M15.3,43.9L4.1,48.3c0,0-7.8-7.6,8.5-10.6L15.3,43.9z"/>
<path fill="#D35D68" d="M36,0C16.1,0,0,16.1,0,36c0,19.9,16.1,36,36,36s36-16.1,36-36C72,16.1,55.9,0,36,0z M36,67.3
	c-17.5,0-31.6-14.1-31.6-31.6C4.4,18.2,18.6,4.1,36,4.1s31.6,14.1,31.6,31.6C67.6,53.1,53.5,67.3,36,67.3z"/>
<polyline fill="#AEADAE" points="54.3,21.6 59.1,40.1 32,37.5 20.6,46.1 12.6,22.2 26,11.9 52.5,16.9 "/>
<polygon fill="#5D5E5E" points="20.6,46.1 45.3,49 59.1,40.1 32,36 "/>
<polygon fill="#DEDDDD" points="32,36 26,11.9 53.1,17 59.1,40.1 "/>
<g>
	<path fill="#D3D3D3" d="M10.8,43.7c-0.4,1.7-0.7,4.7,1.1,7.5c1.6,2.6,4.7,4,9.1,4.2c0.4,0,0.7,0,1.1,0c3.7,0,6.5-1.1,8.3-3.3
		c3-3.6,2.1-8.8,1.8-9.9c-2.4-0.7-2.7,2-2.7,2c-0.2,1.4,0.3,3.9-1.4,6c-1.3,1.6-3.7,2.4-6.9,2.2c-3.4-0.2-5.6-1.1-6.7-2.8
		c-1.2-2-0.9-5-0.7-6.4C13.8,43.3,11.9,41.8,10.8,43.7z"/>
</g>
<g>
	<path fill="#D3D3D3" d="M41.4,43.6l22.4,8.8l1.7-2.5l-18.9-6.3C46.6,43.6,42.6,42.1,41.4,43.6z"/>
</g>
<path fill="#5D5E5E" d="M63.8,52.5c0,0-4.7-7.7,1.1-9.5c0,0,1.5-1.2,3.5,0c0,0,2.1,5-1.8,9.5C66.6,52.5,64.3,53.3,63.8,52.5z"/>
<path fill="#FDFDFE" d="M26,11.9c0,0,1.5,16.1,14.5,18.8c0,0,16.5,4.9,26.2,1.4c0,0-8.5-1.3-10.8-6.2c-1.6-3.3-2.8-6.5-2.8-9
	L26,11.9z"/>
<path fill="#5D5E5E" d="M45.3,32.2c0,0-6.3-4-5.5-6.4l-6.2,1.7C33.7,27.5,36,30.1,45.3,32.2z"/>
<polyline fill="#D35D68" points="26,11.9 12.6,22.2 15.7,31.4 29.1,22.2 "/>
<path fill="#EF95A2" d="M29.3,22.1c-2.8-5-3.3-10.2-3.3-10.2L53.1,17c0.4,1.7,1.1,3.9,1.6,6.4L29.3,22.1z"/>
<line fill="#D35D68" x1="15.7" y1="31.4" x2="29.1" y2="22.2"/>
<g>
	<path fill="#5D5E5E" d="M22.1,31.4l-3.6-14.6l2.9-0.6L25,30.8C25,30.8,23.9,33.3,22.1,31.4z"/>
</g>
<ellipse fill="#E18426" cx="35.1" cy="61.4" rx="15.4" ry="2.1"/>
<g>
	<path d="M33.5,14.3l5.3,0.4l-0.1,1.3L35,15.8l-0.1,1.7l3.3,0.3L38,19l-3.3-0.3l-0.3,3.1l-1.5-0.1L33.5,14.3z"/>
	<path d="M43.5,17.1L40,16.8l-0.1,1.4l3.2,0.3L43,19.6l-3.2-0.3L39.7,21l3.6,0.3l-0.1,1.2l-4.9-0.4l0.5-6.5l4.8,0.4L43.5,17.1z"/>
	<path d="M48.8,17.3c0.2,0.3,0.2,0.6,0.2,0.9c0,0.4-0.1,0.6-0.3,0.8c-0.1,0.1-0.3,0.2-0.5,0.3c0.3,0.1,0.5,0.3,0.6,0.6
		s0.2,0.5,0.2,0.9c0,0.4-0.1,0.7-0.3,0.9c-0.1,0.2-0.3,0.3-0.5,0.4c-0.2,0.1-0.4,0.2-0.7,0.2c-0.3,0-0.5,0-0.8,0L44,22.2l0.5-5.9
		l2.9,0.2C48,16.6,48.5,16.9,48.8,17.3z M45.4,19.7l-0.1,1.6l1.4,0.1c0.3,0,0.5,0,0.6-0.1c0.3-0.1,0.4-0.3,0.4-0.7
		c0-0.3-0.1-0.5-0.3-0.7c-0.1-0.1-0.3-0.1-0.6-0.1L45.4,19.7z M45.6,17.5l-0.1,1.3l1.4,0.1c0.3,0,0.5,0,0.6-0.1
		c0.2-0.1,0.3-0.3,0.3-0.5c0-0.3-0.1-0.5-0.3-0.6c-0.2-0.1-0.4-0.1-0.7-0.1L45.6,17.5z"/>
</g>
<g>
	<path fill="#5D5E5E" d="M21.1,16.8c1.3-1.9,2.2-4.1,2.5-6.4c0-0.4,0-0.8-0.2-1c-0.4-0.3-1,0.1-1.2,0.6c-0.2,0.5-0.1,1.1-0.1,1.7
		c0,0.6-0.1,1.2-0.6,1.5c-0.3-0.4-0.3-0.9-0.4-1.3c-0.1-1-0.5-2.1-1.4-2.6c-0.9-0.6-2.2-0.4-2.7,0.6C17,9.9,16.9,10,17,10.2
		c0.1,0.3,0.4,0.4,0.7,0.4c0.8,0.1,1.7,0.7,1.6,1.5c0,0.1-0.1,0.3-0.2,0.3c-0.1,0.1-0.3,0-0.4-0.1c-0.6-0.3-1.2-0.7-1.8-0.8
		c-0.7-0.1-1.4,0.1-1.8,0.7c-0.2,0.3-0.2,0.7,0.1,1c0.2,0.1,0.3,0.1,0.5,0.2c0.4,0.1,0.9,0.2,1.3,0.4c0.3,0.2,0.7,0.6,0.4,0.9
		c-0.2,0.3-0.6,0.1-0.9-0.1c-0.4-0.2-0.9-0.4-1.4-0.5c-0.5,0-1,0.2-1.2,0.6c-0.2,0.4,0,1.1,0.4,1.2c0.4,0.1,0.8-0.1,1.2-0.2
		c0.8-0.2,1.7,0.2,2.1,0.8c0.2,0.3,0.3,0.6,0.5,0.8c0.2,0.1,0.4,0.2,0.6,0.2c1,0.1,2.1-0.3,2.8-1"/>
</g>
<g>
</g>
<g>
</g>
<g>
</g>
<g>
</g>
<g>
</g>
<g>
</g>
<g>
</g>
<g>
</g>
<g>
</g>
<g>
</g>
<g>
</g>
<g>
</g>
<g>
</g>
<g>
</g>
<g>
</g>
</svg>
