<?xml version="1.0" encoding="utf-8"?>
<!-- Generator: Adobe Illustrator 18.1.1, SVG Export Plug-In . SVG Version: 6.00 Build 0)  -->
<svg version="1.1" id="Layer_1" xmlns="http://www.w3.org/2000/svg" xmlns:xlink="http://www.w3.org/1999/xlink" x="0px" y="0px"
	 viewBox="0 0 72 72" enable-background="new 0 0 72 72" xml:space="preserve">
<g id="_x2E_svg_9887_">
	<circle id="_x2E_svg_8554_" fill="#90C5EB" cx="36.2" cy="36.1" r="33.2"/>
</g>
<path id="_x2E_svg_9926_" fill="#0098CC" d="M7.4,54.4H64c0,0-7.7,14.9-26.2,14.9S7.4,54.4,7.4,54.4z"/>
<path id="_x2E_svg_9925_" fill="none" stroke="#21376C" stroke-miterlimit="10" d="M64.6,17.6l-16.1,1.2L48,56.7l15.9-0.1
	C63.9,56.6,79.4,32.9,64.6,17.6z"/>
<line id="_x2E_svg_9924_" fill="none" stroke="#21376C" stroke-miterlimit="10" x1="52.6" y1="18.5" x2="52.6" y2="56.7"/>
<line id="_x2E_svg_9923_" fill="none" stroke="#21376C" stroke-miterlimit="10" x1="58.3" y1="18.1" x2="58.3" y2="56.7"/>
<line id="_x2E_svg_9922_" fill="none" stroke="#21376C" stroke-miterlimit="10" x1="64" y1="17.6" x2="63.9" y2="56.6"/>
<path id="_x2E_svg_9921_" fill="none" stroke="#21376C" stroke-miterlimit="10" d="M8.7,17.6l16.1,1.2l0.5,37.9L9.4,56.6
	C9.4,56.6-6.1,32.9,8.7,17.6z"/>
<path id="_x2E_svg_9880_" fill="#21376C" d="M0,36c0,19.9,16.1,36,36,36s36-16.1,36-36C72,16.1,55.9,0,36,0S0,16.1,0,36z M4.4,35.7
	C4.4,18.2,18.5,4.1,36,4.1s31.6,14.1,31.6,31.6c0,17.5-14.1,31.6-31.6,31.6S4.4,53.1,4.4,35.7z"/>
<path id="_x2E_svg_9920_" d="M30,20.4c0,0,3.1,0.3,3.8,2.1C34.4,24.4,29.9,23.9,30,20.4z"/>
<path id="_x2E_svg_9919_" fill="#E5D09E" d="M26.1,7.7c0,0,0.1-0.5,0.1-0.8c0,0,0.3-0.9-0.3-2.1c0,0,0.3-0.2,0.3-0.4
	s-0.3-0.7-0.4-0.7c-0.1,0-0.3,0-0.4,0.1l-0.2-0.2L25,3.6c0,0-0.2,0-0.6-0.2c0,0-0.3,0-0.4,0.1c0,0-0.1,0.5-0.2,0.6L23.7,4
	c0,0,0.1-0.2,0.1-0.3c0,0,0.4-0.4,0.2-0.6c0,0-0.1-0.1-0.2-0.1c-0.1,0-0.2,0.3-0.2,0.3s-0.2,0.2-0.3,0.5s-0.4,0.4-0.1,0.7
	c0,0,0.2,0.5,0.3,0.8c0,0.2,0.4,0.5,0.5,0.7c0.1,0.2,0.6,0.8,0.6,0.8l0.1,0.6C24.6,7.2,25,8.2,26.1,7.7z"/>
<path id="_x2E_svg_9918_" fill="#FFFFFF" d="M31.9,58.9l-0.4,0.5v0.1h-0.2c0,0-0.2,0.5-0.9,0.8c-0.8,0.3-2.3-0.9-1.8-2.4
	c0.5-1.5,1.6-2,2.1-1.8C31.3,56.3,31.9,58.9,31.9,58.9z"/>
<path id="_x2E_svg_9917_" fill="#1C2126" d="M31,60c0,0-0.4,0.1-0.5,0.3c0,0-0.4-0.3-0.6-0.4c-0.2,0-1.1-0.6-1-1.3
	c0-0.7,0.8-2.3,1.6-2.4l0.3-0.2c0,0-0.3-0.3-0.4-0.3c0,0-0.1-0.3-1-0.4c-0.9-0.1-1.8,1.8-2,2.6l0.2,0.1c0,0-0.6,1.2-1.1,1.7
	c-0.5,0.5-1.8,4,0.5,5.3c0,0,0.6,0.1,0.9-0.1c0.3-0.3,0.4-0.8,0.4-0.8V64l0.4-0.6l0-0.3l0.3-0.2c0,0,0.1-0.3,0.1-0.4
	c0,0,0.2-0.2,0.3-0.4c0.1-0.3,0.9-1.1,1.1-1.5c0,0,0.2-0.2,0.3-0.3C30.9,60.3,31,60,31,60z"/>
<path id="_x2E_svg_9916_" fill="#FFFFFF" d="M50.6,55.4c0,0-0.1,1.1-0.1,1.2c0,0.1,0,1-0.5,1.4s-2.8-0.9-1.9-2.8
	C49,53.3,50.6,55.4,50.6,55.4z"/>
<path id="_x2E_svg_9915_" fill="#1C2126" d="M50.4,57.3c0,0-0.1,0.3-0.3,0.4C50,57.8,50,57.9,50,57.9s-0.1-0.3-0.5-0.4
	c-0.4-0.1-1.2-0.8-1.2-1.9c0-1.1,0.1-1.6,0.1-1.6s-0.6-0.1-0.9,0.1c0,0-0.1-0.1-0.3-0.1c-0.2,0-0.7,0.1-0.7,0.1s-0.5,0.4-0.3,1.3
	c0.2,0.9,0.5,1.9,0.5,1.9l0.3-0.1c0,0,0.3,0.8,0.2,1.3c-0.1,0.5-0.4,1.3-0.1,2.1c0.3,0.8,0.4,1.5,0.9,1.8c0.5,0.4,0.8,0.4,0.8,0.4
	s0.6,0.1,0.7-0.2c0.1-0.2,0-0.3,0-0.3s0.1-0.6-0.1-1c0,0,0-0.3,0-0.4c0-0.1,0.1-0.3,0.1-0.3l0.1-0.6c0,0,0.1-0.2,0.1-0.3
	c0,0,1-1.5,1-2.2c0,0-0.1,0-0.2,0C50.5,57.6,50.5,57.4,50.4,57.3z"/>
<line id="_x2E_svg_9874_" fill="none" stroke="#21376C" stroke-miterlimit="10" x1="20.7" y1="18.5" x2="20.7" y2="56.7"/>
<path id="_x2E_svg_9914_" fill="#343D4C" d="M33.9,22c0,0,0.3,0.4,0.4,0.7c0,0,0.1,0.2,0.2,0.4c0,0,0.3,0,0.4,0.1
	c0.2,0.1,1,0.3,1.4,0.6c0,0,1.3,1.4,1.7,2.2c0.3,0.7,0.9,2.5,0.7,3.4c-0.1,0.9,0.4,4.6,0.5,4.6c0,0.1,0,0.1,0,0.1s0.2,0.1,0.1,0.5
	c-0.1,0.3,0,0.1,0,0.1S32.3,25.3,33.9,22z"/>
<path id="_x2E_svg_9913_" fill="#343D4C" d="M36.2,23.8c0,0,1,0.1,1.3,1.1c0,0,0,0.1,0.1,0.1c0.1,0,1.1,1.1,1.3,1.5
	c0,0,0.2-0.1,0.2,0.2c0,0,0.4,0.5,0.4,0.5c0,0,0.4-0.2,0.5,0.2c0,0,0.4,0.2,0.5,0.4c0.1,0.2,0.4,0.4,0.4,0.4s0.6-0.2,0.9-0.2
	s1,0.6,1.3,0.6c0.4,0,1,0.1,1,0.1l0.8,0.4c0,0,0.3-0.1,0.4-0.1c0,0,0.6,0,0.8-0.1c0.2-0.1,1.9,0.1,2.2,0.1c0.3,0,1.9-0.1,2.2,0.2
	c0.3,0.2,0.1,2.3-0.3,2.9c0,0-0.3,0.1-0.3,0.1c-0.1,0-1.2,0-1.2,0s-0.1,0.1-0.1,0.1c-0.1,0-2.4-0.1-2.9-0.1c-0.5-0.1-1.7,0.1-2.2,0
	c0,0-1.2,0-2.2-0.3c-1-0.4-2.5-0.7-2.5-0.7L36.2,23.8z"/>
<path id="_x2E_svg_9912_" fill="#1C2126" d="M50.4,29.1C50.5,29.1,50.5,29.1,50.4,29.1c0.4,0.3,0.2,2.4-0.2,2.9c0,0-0.3,0.1-0.3,0.1
	c0,0-0.6-0.1-0.6-1c0-0.9,0.3-1.6,0.3-1.6S50,29.1,50.4,29.1L50.4,29.1z"/>
<path id="_x2E_svg_9911_" fill="#E5D09E" d="M50.1,29.1c-0.3,0.1-0.6,0.4-0.6,0.4s-0.1,0.3-0.2,0.7c0,0,0.3,0.6,1,0.6
	c0,0,0.5,0.3,1.1,0.1c0,0,0.5,0.2,0.7,0.1l0.2,0l0.3,0.1c0,0,0.3,0.1,0.5,0c0.1,0,0.5-0.3,0.5-0.3s0.1-0.3-0.2-0.5
	c0,0,0-0.2-0.2-0.4c0,0,0-0.2-0.1-0.3l0.1-0.2c0,0,0.2-0.4-0.1-0.5c-0.3-0.1-0.6-0.5-0.6-0.5s-0.2-0.3-0.6,0s-1.1,0.6-1.3,0.6
	S50.1,29.1,50.1,29.1z"/>
<path id="_x2E_svg_9910_" fill="#1C2126" d="M20.2,34.5l0.5,0.3c0,0,3,2,3.5,2.2V37l1.3,0.7h0.1c0,0,1.7,0.9,2.4,1.2
	c0.7,0.2,1.6,0.6,1.6,0.6s1.7,0.8,1.8,0.9c0.2,0.1,0.8,0.4,1,0.4c0.1,0-1.9-8.6-1.9-8.6l-2.4-3.8C28.1,28.4,22.9,30.9,20.2,34.5z"/>
<path id="_x2E_svg_9909_" fill="#E5D09E" d="M30,20.7v-0.5c0,0,0-0.2-0.2-0.4c-0.2-0.2-0.4-0.6-0.4-0.8c0,0-0.1-0.6-0.2-0.8
	c0,0,0-0.4,0.1-0.6c0,0-0.1-0.6-0.1-0.8c0,0-0.1,0.1-0.1,0.1c0,0,0.1-0.4,0.1-0.5c0-0.1,0.1-0.9,0.5-1.4c0,0,0.7-1.2,1.7-1.2
	s1,0.1,1,0.1s0.6-0.3,1.1,0c0,0,0.6,0,1,0.2c0,0,0-0.1-0.1-0.2c0,0,0.2,0,0.4,0.3c0,0,0-0.2-0.1-0.3c0,0,0.7,0.3,0.7,0.7
	c0,0.4,0.1,0.4,0.1,0.6c0,0,0.1-0.5-0.1-0.6c0,0,0.5,0.3,0.2,1.1c0,0,0.2-0.2,0.2-0.5c0,0,0.1,0.6-0.2,0.8c-0.3,0.2-0.4,0.3-0.4,0.3
	s0.1,0,0.1,0c0,0,0,0.1-0.2,0.1c-0.2,0,0,0.2-0.1,0.4c0,0,0,0.1,0,0.2c0,0,0.1,0.7-0.2,0.7c0,0,0,0.1,0,0.2c0,0,0.2,0.3,0,0.5
	c0,0-0.1,0.1,0,0.2c0,0.1,0,0.3,0,0.3c0,0.1,0.2,1.2-0.6,2.4c-0.8,1.1-0.2,1.5-1.1,1.8c-0.9,0.3-1.9-0.9-1.9-0.9S30.1,21.3,30,20.7z
	"/>
<path id="_x2E_svg_9908_" d="M35,17.7c0.3-0.1,0.2-0.7,0.2-0.7c0-0.1,0-0.2,0-0.2c0.1-0.1,0-0.3,0.1-0.4c0.2,0,0.2-0.1,0.2-0.1
	c-0.1,0-0.1,0-0.1,0s0.1-0.1,0.4-0.3c0.3-0.2,0.2-0.8,0.2-0.8c0,0.3-0.2,0.5-0.2,0.5c0.3-0.9-0.2-1.1-0.2-1.1
	c0.1,0.2,0.1,0.6,0.1,0.6c0-0.2-0.1-0.2-0.1-0.6c0-0.4-0.7-0.7-0.7-0.7c0.1,0.1,0.1,0.3,0.1,0.3c-0.2-0.3-0.4-0.3-0.4-0.3
	c0.1,0.1,0.1,0.2,0.1,0.2c-0.4-0.2-1-0.2-1-0.2c-0.4-0.3-1.1,0-1.1,0s0-0.1-1-0.1s-1.7,1.2-1.7,1.2c-0.5,0.5-0.5,1.2-0.5,1.4
	c0,0.1-0.1,0.5-0.1,0.5c0.1-0.1,0.1-0.1,0.1-0.1c0,0.2,0.1,0.8,0.1,0.8c-0.1,0.2-0.1,0.6-0.1,0.6c0.1,0.1,0.1,0.3,0.2,0.5
	c0,0,0-0.3,0.1-0.5c0.1-0.1,0.1-0.3,0.3-0.3c0.1,0,0.5,0.3,0.5,0.5c0,0.2-0.3,1,0.2,1.3c0,0,0.4,0,0.4-0.4c0,0-0.2-0.2-0.2-0.5
	c0-0.2,0.2-0.5,0.1-0.7c0-0.2,0.3-0.6,0.3-1.1c0,0,0.5-0.3,0.7-0.6c0,0,0.3,0.1,0.5,0.1c0,0-0.2,0.3-0.5,0.4c0,0,1,0,1.4-0.4
	c0,0,0.2-0.1,0.5,0c0.3,0.1,0.2-0.2,0.5-0.1c0.2,0,0.6,0.3,0.6,0.6C34.8,17.3,35,17.5,35,17.7L35,17.7z"/>
<path id="_x2E_svg_9907_" fill="#FFFFFF" d="M29.6,21.2c0,0,0.3-0.5,0.4-0.8c0,0,0.1,0.3,0.2,0.5c0.1,0.2,1.9,1.6,1.9,1.6l0.5,0.6
	l0.2,0.3l0.2-0.3c0,0,0.6,0,0.8-0.5c0,0,0.2,0,0.1,0.4c0,0.4,0.5,0.8,0.5,1.2l-0.1,0.3c0,0,0.5,0.6,0.6,0.7c0,0.1,1.7,2.7,1.7,2.7
	s0.7,2,0.8,2.2l0.6,0.6c0,0,0.4,0.9,0.4,1.2l0,0.2l0.2,0.2l-0.1,0.4l0.3,0.6v0.2l-0.6,0.2H38l-0.1,0c0,0-0.5,0.1-0.6,0.1l0,0.1h-0.6
	c0,0-0.8,0.2-0.9,0.2c-0.1,0.1-2.5,0.2-4.3,1.1l-0.6,0.2c0,0-0.7-0.3-1-1.4c-0.3-1.1-1.4-4.5-1.8-5C27.6,28.4,29.6,21.2,29.6,21.2z"
	/>
<path id="_x2E_svg_9906_" d="M35.7,34.1c-0.1,0.1-2.5,0.2-4.3,1.1l-0.6,0.2c0,0-0.7-0.3-1-1.4c0-0.2-0.1-0.4-0.2-0.6h1
	c0,0,0.2-0.1,0.4,0C31.3,33.6,35.7,34.1,35.7,34.1z"/>
<path id="_x2E_svg_9905_" d="M29.1,23.3c-0.1,0.4-0.2,0.8-0.3,1.2l2.3,1.2c0,0,0.6,0.2,0.8,0.4c0,0,1.1-0.1,1.3,0c0,0,0.3,0.1,0.9,1
	c0,0,0.5,0,0.7-0.1c0.1-0.1,0.9-0.2,1.2,0l0,0c-0.2-0.3-0.4-0.6-0.6-0.9l-0.2,0.1c0,0-0.4-0.3-0.5-0.4c-0.1,0-0.4,0.1-0.8,0.1
	c-0.4,0-0.7,0-0.7,0L32.3,25L29.1,23.3z"/>
<path id="_x2E_svg_9904_" d="M28.4,25.9c-0.1,0.5-0.2,0.9-0.3,1.3l1.1,0.3c0,0,0.4,0.1,0.5,0.2c0,0,0.4,0,0.5,0.1
	c0.1,0.1,1.1,0,1.6,0.4c0.5,0.3,3.2,0.1,3.2,0.1l0.4,0.2h0.2l0.7,0.6l0.6-0.1c-0.2-0.6-0.4-1.2-0.4-1.2s-0.7,0-0.9,0.1
	C35.4,28,34.9,28,34.9,28l-0.8-1c0,0-0.9,0-1.3,0.1c-0.4,0-1.6-0.4-2.1-0.4C30.2,26.7,28.4,25.9,28.4,25.9z"/>
<path id="_x2E_svg_9903_" d="M28,28.6c0,0.2,0,0.4,0,0.4c0.1,0.2,0.3,0.5,0.5,1l0.8-0.1c0,0,0.3-0.2,0.6,0c0.3,0.1,1.1,0.2,1.1,0.2
	s0.2,0,0.3,0.1c0.1,0,2.3,0.1,2.6,0.3c0.3,0.1,2.4,0.2,2.4,0.2l0.1,0.1c0,0,0.4-0.2,0.5-0.1l1-0.1l-0.6-0.6l-0.6-0.6
	c0,0-0.5,0-0.6,0.1l-0.1-0.2c0,0-1.2,0.1-1.6,0c-0.5-0.1-1.2,0-1.6-0.2c0,0-1.6-0.2-2.1-0.2c0,0-1.1-0.5-1.8-0.4L28,28.6z"/>
<path id="_x2E_svg_9902_" d="M28.8,31c0.1,0.4,0.3,0.8,0.4,1.1l1.1,0.1c0,0,0.2-0.1,0.3,0c0,0,3,0.4,3.3,0.5c0.2,0,3.3,0.2,3.3,0.2
	s0.1,0,0.1-0.1c0,0,0.7-0.1,0.8-0.2h0.3l0.1-0.4L38.2,32l0-0.2c0,0-0.2-0.1-0.2-0.1c0,0-0.1,0-0.1,0l-0.2-0.2l-0.3,0l-0.6,0.3
	l-0.1-0.1l-0.2,0.1l-0.6,0c0,0-1.2-0.2-1.9-0.2c-0.7,0-1.6-0.1-1.6-0.1s-0.2-0.1-0.4-0.1S29.6,31,29.6,31H28.8z"/>
<path id="_x2E_svg_9901_" d="M32.5,24.8c0,0,0.4-0.1,0.4-0.1h0.4h0.1l0.1,0.1c0,0,0.1-0.2,0.2,0.1c0,0,0.4,0.2,0.5,0.3l0.7,0
	c0-0.1-0.6-0.7-0.6-0.7l0-0.2c0,0-0.7-0.5-1.2-0.6l-0.3,0l-0.1-0.1l-0.1,0.1l-0.4,0L32.5,24.8z"/>
<path id="_x2E_svg_9900_" fill="#343D4C" d="M29,21.2c0,0,0.6-0.1,0.8,0.2c0.2,0.2,0.7,0.6,0.8,0.8c0,0,0.7,0.1,1.1,0.3
	c0.2,0.1,0.2,0.6,0.2,0.6s0.3,0,0.4-0.1c0.1-0.1,0.3,0.4,0.3,0.6c0,0.1,0.5,1.5-0.5,1.8c-1,0.3-1.7,0.9-1.9,1.1
	c-0.1,0.2-2,2.7-3.3,3.3c-1.3,0.6-3.9,2.3-4,2.5c-0.1,0.2-2.6,2.4-3,2.7c0,0-0.4-0.1-0.4-0.3c-0.1-0.2-0.8-0.8-0.8-0.8
	s0.2-0.3,0.4-0.4c0,0,0.9-1.2,1.2-1.6c0.3-0.3,1.9-2.3,2.3-2.8c0,0,1-1.3,1.2-1.5c0.2-0.3,1.5-2,1.9-2.4c0,0-0.2-0.2-0.1-0.5
	c0,0-0.1-0.1,0-0.2c0,0-0.2-0.4-0.3-0.6c0,0-1.4-1.6-1.6-2.9c0,0-0.2-0.5-0.2-0.8c0,0-0.3-0.6-0.3-1c-0.1-0.5-0.7-2.8-0.6-3.9
	c0,0-0.1-1.5,0.2-2.1c0.3-0.6,0.6-2.2,0.7-2.5c0,0-0.1-0.6,0.2-0.9c0,0,0.1-0.5,0.4-0.8c0,0,0-0.3,0.2-0.4c0,0,0-0.3,0-0.5l-0.1-0.9
	c0,0,1.1-0.1,1.6,0.3c0,0,0.2,0,0.3,0.1l0.2,0.1l0,0.2c0,0,0.2,0.6,0.1,0.9c0,0,0,0.3,0,0.4c0,0.1,0.1,0.6,0.1,0.9
	c0,0,0.3,1,0.1,1.4c0,0,0.2,0.7,0,1.5c0,0,0.1,0.2-0.1,0.7c0,0,0.3,0.6,0.1,0.9c0,0-0.1,0.1,0.1,0.2c0.1,0.1,0.3,0.4,0.2,0.8
	c0,0,0.4,0.4,0.5,0.6c0,0.2,0,0.4,0,0.5c0,0.1,0.2,0.7,0.4,1.1c0.2,0.4,0.3,0.5,0.3,1.9c0,0,0.2,0.4,0.2,0.8c0,0,0.2,0.2,0.2,0.3
	c0,0,0.3,0.2,0.4,0.3L29,21.2z"/>
<path id="_x2E_svg_9899_" fill="#343D4C" d="M30.8,35.4c0,0-0.3,0.4,0.1,1l-0.2,0.3l0,0.3c0,0,0.3,1,0.3,1.3
	c-0.1,0.3,0.4,0.6,0.4,0.6s0.3,1.4,0.5,2c0.3,0.7,0.4,0.9,0.4,0.9s0.1,0.2,0.2,0.3c0,0.1,1.4,2.2,2.2,2.8c0,0,0.2,0.2,0.2,0.3
	c0,0.1,0.4,0.7,0.6,0.8c0.2,0.1,0.3,0.5,0.3,0.6c0,0.1,0.3,0.3,0.3,0.3s0.2,0.2,0.2,0.3c0,0.2,0.3,0.4,0.5,0.5c0,0-0.2,0.9,0.5,1.4
	l-0.3,0c0,0-0.4,0.4-0.6,0.6c-0.1,0.2-0.6,0.8-0.7,0.9c-0.1,0.1-0.5,0.6-0.5,0.7c-0.1,0.1-0.6,0.6-0.8,1c0,0-0.3,0.3-0.4,0.4
	c-0.1,0.1-1.4,1.3-1.8,2.1c0,0-0.9,0.3-1.1,0.8l0,0.3c0,0-0.3,0-0.4,0.1c0,0-0.8,0.4-0.5,1.3c0.3,0.9,1.8,2.1,1.8,2.1
	s0.9,0.9,1.3,0.9c0,0,0.6,0.6,1.3,0.4c0,0,0.3-0.2,0.5-0.6c0,0,0.2-0.2,0.2-0.3c0.1-0.1,2.6-3,2.9-3.5c0,0,1.1-1.3,1.3-1.7
	c0.3-0.4,1.7-2.5,2.1-3.3c0,0,0.7-0.6,0.7-1c0,0,0.4-0.3,0.3-0.8c-0.1-0.6-0.3-2.3-1.2-3.5c0,0-0.6-1.5-1-2c0,0-0.3-0.4-0.4-0.6
	c0,0,1,0.2,1.4,0.3c0.4,0.1,0.9,0.4,1.2,0.4c0.3,0.1,1.4,0.7,1.7,0.9c0.3,0.2,2.2,0.8,2.2,0.8s0.3,0,0.5-0.1l0.4,0
	c0,0,0.3,0.8,0.7,0.5c0,0-0.4,0.3-0.3,0.5c0.1,0.3,0.4,0.4,0.4,0.4s0.1,0.3,0,0.5c-0.1,0.2-0.2,1.7-0.2,1.7s0,1.4,0,1.8
	c0,0.5,0.2,1.2,0.2,1.2s0,0.4,0,0.6c0,0.2,0.1,0.8,0.1,0.8l-0.3,0.1c0,0,0.1,0.4,0,0.7c-0.1,0.3-0.3,0.8,0,1c0,0,0.5,0.7,1.5,0.5
	c1-0.1,3.2,0.1,3.1-1.1c0,0,0-0.6,0-0.8c0,0,0.1-0.6,0-1c0,0,0,0,0-0.1c0-0.4,0.4-2.7,0.1-4.8c0,0,0-0.5,0-0.8
	c0-0.3,0.2-1.5-0.5-3.2V44c0,0-0.9-0.9-1.8-1.3c0,0-4.9-3.8-6.1-4.3l-0.2-0.1L44,38.1l-0.1,0l-1.2-0.5l0-0.1l-0.2,0l-0.1-0.1l-0.1,0
	l-0.1-0.1l-0.5-0.2c0,0-0.2-0.2-0.4-0.2l-0.1-0.2l-0.2,0l-0.3-0.4l-0.2,0L40,35.6c0,0,0.3-0.1,0.1-0.4s-0.3-0.4-0.8-0.5l-0.1-0.2
	l0-0.2l-0.4-1C38.7,33.4,31.5,33.8,30.8,35.4z"/>
<g id="_x2E_svg_9898_">
	<g>
		<path fill="none" stroke="#FFFFFF" stroke-width="6.003000e-02" stroke-miterlimit="10" d="M31.8,36.6c0,0,0,0.1-0.1,0.3"/>
		<path fill="none" stroke="#FFFFFF" stroke-width="6.003000e-02" stroke-miterlimit="10" stroke-dasharray="0.6467,0.6467" d="
			M31.5,37.6c0,0.2,0,0.4,0,0.5c0,0,0.4,0.4,0.5,0.6c0.1,0.1,0.1,0.6,0.3,1"/>
		<path fill="none" stroke="#FFFFFF" stroke-width="6.003000e-02" stroke-miterlimit="10" d="M32.4,39.9C32.4,40,32.4,40,32.4,39.9
			c0.3,0.2,0.1,0.2,0.1,0.2l0.5,0.1v0.3c0,0,0.1,0.1,0.3,0.2"/>
		<path fill="none" stroke="#FFFFFF" stroke-width="6.003000e-02" stroke-miterlimit="10" stroke-dasharray="0.7364,0.7364" d="
			M33.7,41.3c1.8,1.7,6.1,6,6.9,8.9c0,0-0.2,1.2-1,2.2c-0.8,1-1.7,2.5-1.7,2.5s-1.8,2.4-2.3,2.8c-0.5,0.4-0.7,1.1-1.1,1.2l-0.6,0.9"
			/>
		
			<line fill="none" stroke="#FFFFFF" stroke-width="6.003000e-02" stroke-miterlimit="10" x1="33.7" y1="60.1" x2="33.5" y2="60.4"/>
	</g>
</g>
<path id="_x2E_svg_9897_" fill="none" stroke="#FFFFFF" stroke-width="6.003000e-02" stroke-miterlimit="10" stroke-dasharray="0.7204" d="
	M31.3,36.3c0,0,3.7-1.1,4.6-1.1c0.9-0.1,3.3-0.7,3.3-0.7"/>
<path id="_x2E_svg_9896_" fill="none" stroke="#FFFFFF" stroke-width="6.003000e-02" stroke-miterlimit="10" stroke-dasharray="0.7204" d="
	M32.1,38.5c0,0,1-1.1,1.7-1.4c0.8-0.3,1.8-1.5,1.2-1.8"/>
<path id="_x2E_svg_9895_" fill="none" stroke="#FFFFFF" stroke-width="6.003000e-02" stroke-miterlimit="10" stroke-dasharray="0.7204" d="
	M37.9,34.8c0.1,0,0.4,0.4,0.3,0.9c0,0,0.3,0.4,0,0.7c-0.3,0.3,0.5,0.6,0.5,0.9c0,0.2,0.3,0.3-0.1,0.7c0,0-0.1,0.3,0.3,0.2
	c0.4-0.1,0.7,1.2,0.6,1.3c0,0,0.4-0.1,0.4-0.5c0-0.3-0.1-1.1-0.9-1c0,0-0.2,0.1,0-0.4c0.2-0.4-0.8-0.9-0.8-0.9"/>
<path id="_x2E_svg_9894_" fill="none" stroke="#FFFFFF" stroke-width="6.003000e-02" stroke-miterlimit="10" stroke-dasharray="0.7204" d="
	M39.2,41.8c0,0,4.5,0.3,7.9,3c0.1,0.1,0.9,0.7,1.2,1.2c0.3,0.5,1.5,0.4,0.9,1.4s0.2,2,0.4,3.8s0.4,3-0.4,3.7c0,0-0.7,0.4-0.8,0.7"/>
<path id="_x2E_svg_9892_" fill="none" stroke="#FFFFFF" stroke-width="6.003000e-02" stroke-miterlimit="10" stroke-dasharray="0.7204" d="
	M30.8,22.9c0,0-1.9,2-2.5,2.9c-0.6,0.9-3.4,1.8-4.1,2.8c-0.7,1-4.7,6-4.7,6"/>
<path id="_x2E_svg_9890_" fill="none" stroke="#FFFFFF" stroke-width="6.003000e-02" stroke-miterlimit="10" stroke-dasharray="0.7204" d="
	M25.4,24.1c0,0,1.1-0.3,1.7-1c0.6-0.7,1.3-1.5,1.8-1.8"/>
<path id="_x2E_svg_9886_" fill="none" stroke="#FFFFFF" stroke-width="6.003000e-02" stroke-miterlimit="10" stroke-dasharray="0.7204" d="
	M27.5,22.5c0,0-0.5-3.5-0.6-4.1c-0.1-0.7-1-5-1-6c0-1-0.1-1.4,0-1.8c0.1-0.5-0.1-1.9-0.1-1.9l0.2-1.1"/>
<path id="_x2E_svg_9885_" fill="none" stroke="#FFFFFF" stroke-width="6.003000e-02" stroke-miterlimit="10" stroke-dasharray="0.7204" d="
	M26.3,8.8c0,0-1.3-0.8-2.2-0.6"/>
<path id="_x2E_svg_9884_" fill="none" stroke="#FFFFFF" stroke-width="6.003000e-02" stroke-miterlimit="10" stroke-dasharray="0.7204" d="
	M35.2,24.6c0,0,1.8,1.1,2.2,2s0.6,1.6,0.6,1.6s0.2,2.2,0.3,2.5c0.1,0.4,0.3,1.3,0.3,1.3"/>
<path id="_x2E_svg_9883_" fill="none" stroke="#FFFFFF" stroke-width="6.003000e-02" stroke-miterlimit="10" stroke-dasharray="0.7204" d="
	M38.6,29.4c0,0,1.5,0.4,2.3,0.9"/>
<path id="_x2E_svg_9882_" fill="none" stroke="#FFFFFF" stroke-width="6.003000e-02" stroke-miterlimit="10" stroke-dasharray="0.7204" d="
	M43.5,29.9c0,0,1.3-0.5,2.9-0.2c1.6,0.3,3.2-0.2,3.2-0.2"/>
<path id="_x2E_svg_9881_" fill="none" stroke="#FFFFFF" stroke-width="6.003000e-02" stroke-miterlimit="10" stroke-dasharray="0.7204" d="
	M48.6,32.1c0,0-0.8-2.2,0.6-3.1"/>
<ellipse id="_x2E_svg_9879_" fill="#FFFFFF" cx="31.1" cy="24.7" rx="0.3" ry="0.3"/>
<ellipse id="_x2E_svg_9878_" fill="#FFFFFF" cx="28.4" cy="27.4" rx="0.3" ry="0.3"/>
<ellipse id="_x2E_svg_9877_" fill="#FFFFFF" cx="25.5" cy="29.6" rx="0.3" ry="0.3"/>
<ellipse id="_x2E_svg_9876_" transform="matrix(0.9067 -0.4218 0.4218 0.9067 -11.5314 12.5142)" fill="#FFFFFF" cx="22.5" cy="32.3" rx="0.3" ry="0.1"/>
<path id="_x2E_svg_9875_" fill="#1C2126" d="M37.2,26.9c0,0,0.4,0.8,0.5,0.9c0,0,0.5-0.8,0.6-0.9c0,0-0.1-0.3-0.2-0.4L37.9,26
	L37.2,26.9z"/>
<line id="_x2E_svg_9873_" fill="none" stroke="#21376C" stroke-miterlimit="10" x1="15" y1="18.1" x2="15" y2="56.7"/>
<line id="_x2E_svg_9872_" fill="none" stroke="#21376C" stroke-miterlimit="10" x1="9.2" y1="17.6" x2="9.4" y2="56.6"/>
<g>
</g>
<g>
</g>
<g>
</g>
<g>
</g>
<g>
</g>
<g>
</g>
<g>
</g>
<g>
</g>
<g>
</g>
<g>
</g>
<g>
</g>
<g>
</g>
<g>
</g>
<g>
</g>
<g>
</g>
</svg>
