<?xml version="1.0" encoding="utf-8"?>
<!-- Generator: Adobe Illustrator 18.1.1, SVG Export Plug-In . SVG Version: 6.00 Build 0)  -->
<svg version="1.1" id="Layer_1" xmlns="http://www.w3.org/2000/svg" xmlns:xlink="http://www.w3.org/1999/xlink" x="0px" y="0px"
	 viewBox="0 0 72 72" enable-background="new 0 0 72 72" xml:space="preserve">
<g id="_x2E_svg_1455_">
	<circle id="_x2E_svg_1298_" fill="#0098CC" cx="36.6" cy="36.1" r="33.2"/>
</g>
<path id="_x2E_svg_1448_" d="M0,36c0,19.9,16.1,36,36,36s36-16.1,36-36C72,16.1,55.9,0,36,0S0,16.1,0,36z M4.4,35.7
	C4.4,18.2,18.5,4.1,36,4.1s31.6,14.1,31.6,31.6c0,17.5-14.1,31.6-31.6,31.6S4.4,53.1,4.4,35.7z"/>
<path id="_x2E_svg_1470_" fill="#3F3E3F" d="M28.6,30.9c0,0,8.9-14,4.5-14.5c-7.8-0.9-11.6,7.9-11.4,14.1
	C21.7,30.5,23.2,33.5,28.6,30.9z"/>
<circle id="_x2E_svg_1469_" fill="#90C5EB" cx="46.6" cy="41.1" r="7.2"/>
<path id="_x2E_svg_1468_" fill="#FBB040" d="M43.8,47.8c0,0,9-2,8.2-11.5c0,0-3.8-4.7-9.9-0.9S40.9,47.2,43.8,47.8z"/>
<path id="_x2E_svg_1467_" fill="#744D33" d="M46.8,27.2c0,0,11.7,1.6,12,5c0.3,3.4-22.1,3.4-32.3-3.5C26.4,28.7,36.3,25.7,46.8,27.2
	z"/>
<g id="_x2E_svg_1445_">
	
		<ellipse transform="matrix(1 2.911659e-03 -2.911659e-03 1 0.1011 -0.105)" fill="#FBB040" cx="36.1" cy="34.7" rx="13.6" ry="12.8"/>
	<g>
		<path d="M36.1,48.4c-1,0-2-0.1-2.9-0.3c2.2,2.1-2,3.8-2.7,4.1c-0.1,0-0.3,0.1-0.3,0.1c-0.9,0.2-1.4,0.5-1.4,0.7
			c0,0.7,3.2,1.2,7.1,1.3c3.9,0,7.1-0.5,7.1-1.2c0-0.3-0.5-0.5-1.4-0.7c0,0,0,0-0.1,0c0,0,0,0,0,0l0,0c0,0-5.1-1.8-2.9-4.1
			C37.7,48.3,36.9,48.4,36.1,48.4z"/>
		<path d="M45.6,53.6c0.2,0.2,0.3,0.3,0.3,0.5c0,1.1-4.5,1.9-10.1,1.9c-5.6,0-10.1-0.9-10.1-2c0-0.2,0.1-0.3,0.3-0.5
			c-2,0.4-3.3,1-3.3,1.7c0,1.4,5.8,2.5,13.1,2.6c7.2,0,13.1-1.1,13.1-2.5C48.8,54.7,47.6,54.1,45.6,53.6z"/>
	</g>
</g>
<path id="_x2E_svg_1466_" fill="#8B672F" d="M22.5,29.7c0,0-11.7,1.6-12,5C10.3,38,32.6,38,42.8,31.1C42.8,31.1,33,28.1,22.5,29.7z"
	/>
<path id="_x2E_svg_1465_" fill="#744D33" d="M23.6,29.5c0,0-1.2-13.4,12.5-13.4s13.6,14.6,13.6,14.6s-1.6,2-6.9,0.4
	S23.6,29.5,23.6,29.5z"/>
<path id="_x2E_svg_1464_" fill="#5D5D5F" d="M42.8,31.1c0,0-9.8-14-5.4-14.8c8.7-1.6,12.6,8.2,12.3,14.4
	C49.8,30.7,48.3,33.7,42.8,31.1z"/>
<path id="_x2E_svg_1463_" fill="#3F3E3F" d="M32.1,13.2c-4.2-2.2-4.1,2.5-2.9,3.3c1.2,0.9,5.9,0,5.9,0S36.3,15.4,32.1,13.2z
	 M33.7,16.1c0,0-3.3,0.6-4.1,0c-0.8-0.6-0.9-3.9,2-2.3C34.6,15.3,33.7,16.1,33.7,16.1z"/>
<path id="_x2E_svg_1462_" fill="#3F3E3F" d="M34.8,16.5c0,0,4.7,0.9,5.9,0c1.2-0.9,1.3-5.6-2.9-3.3C33.5,15.4,34.8,16.5,34.8,16.5z
	 M38.1,13.8c3-1.5,2.9,1.7,2,2.3c-0.8,0.6-4.1,0-4.1,0S35.1,15.3,38.1,13.8z"/>
<path id="_x2E_svg_1461_" fill="#14181B" d="M18.2,56c0,0,0.9-0.6,1.6-2c0.7-1.5,2.4-3.7,3.7-6.1s2.6-4.6,5.3-5.4
	c0,0,0.6,0.2,0.7-0.1c0.1-0.4-1.3-1.5-2.2-0.9c0,0-1.7,0.6-2.8,1.6c-1.1,1-6,7.2-6.1,7.4C18.3,50.5,18.2,56,18.2,56z"/>
<path id="_x2E_svg_1460_" fill="#3A1610" d="M22.5,49.5c-1.1,1.7-2.2,3.3-2.8,4.5c-0.7,1.5-1.6,2-1.6,2s0.1-5.5,0.2-5.6
	c0-0.1,0.9-1.2,2-2.5C20.3,47.8,21.9,48,22.5,49.5L22.5,49.5z"/>
<path id="_x2E_svg_1459_" fill="#5F2811" d="M12,51.2c0,0-0.6,0.4-0.5,2.2c0.1,1.8,1.6,3.8,3.7,3.7s3.8-0.6,4-3.8
	c0,0,0.1-1.3-0.6-2.2S12,51.2,12,51.2z"/>
<path id="_x2E_svg_1458_" fill="#3A1610" d="M12.3,50.8c0,0-0.4,0.2-0.2,0.6c0.2,0.4,1.4,1,3.4,0.9c0,0,2.4,0,3.2-0.8
	c0,0,0.3-0.3,0-0.6C18.4,50.6,12.3,50.8,12.3,50.8z"/>
<path id="_x2E_svg_1457_" fill="#5F2811" d="M12.3,50.6c0,0-0.4,0.2-0.2,0.6c0.2,0.4,1.4,1,3.4,0.9c0,0,2.4,0,3.2-0.8
	c0,0,0.3-0.3,0-0.6C18.4,50.4,12.3,50.6,12.3,50.6z"/>
<path id="_x2E_svg_1454_" fill="#3A1610" d="M12.6,49.5c0,0-0.5,0.7-0.4,1.2s1.6,1,3.1,1s2.6-0.2,3.4-1c0,0-0.2-0.8-0.6-1.2
	C17.6,49.1,12.6,49.5,12.6,49.5z"/>
<ellipse id="_x2E_svg_1453_" fill="#65351F" cx="15.3" cy="49.5" rx="2.7" ry="1"/>
<ellipse id="_x2E_svg_1452_" fill="#161D1C" cx="15.3" cy="49.5" rx="1.8" ry="0.6"/>
<circle id="_x2E_svg_1451_" fill="none" stroke="#3F3E3F" stroke-width="1.5665" stroke-miterlimit="10" cx="46.6" cy="41.1" r="7.2"/>
<circle id="_x2E_svg_1450_" fill="#F6DF66" cx="53.9" cy="46.8" r="1.8"/>
<path id="_x2E_svg_1449_" fill="#B29A33" d="M55.4,47.8c-0.3,0.5-0.9,0.8-1.5,0.8c-1,0-1.8-0.8-1.8-1.8c0-0.2,0-0.4,0.1-0.5
	c0,0,0.6,2.1,2.8,1.6L55.4,47.8z"/>
<path id="_x2E_svg_1447_" fill="#3F3E3F" d="M62.7,53.4l-0.1,0.1c-0.2,0.3-0.6,0.3-0.9,0.1l-7.3-5.4c-0.3-0.2-0.3-0.6-0.1-0.9
	l0.1-0.1c0.2-0.3,0.6-0.3,0.9-0.1l7.3,5.4C62.8,52.7,62.9,53.1,62.7,53.4z"/>
<g>
</g>
<g>
</g>
<g>
</g>
<g>
</g>
<g>
</g>
<g>
</g>
<g>
</g>
<g>
</g>
<g>
</g>
<g>
</g>
<g>
</g>
<g>
</g>
<g>
</g>
<g>
</g>
<g>
</g>
</svg>
