<?xml version="1.0" encoding="utf-8"?>
<!-- Generator: Adobe Illustrator 18.1.0, SVG Export Plug-In . SVG Version: 6.00 Build 0)  -->
<svg version="1.1" id="Layer_1" xmlns="http://www.w3.org/2000/svg" xmlns:xlink="http://www.w3.org/1999/xlink" x="0px" y="0px"
	 viewBox="0 0 72 72" enable-background="new 0 0 72 72" xml:space="preserve">
<circle fill="#434343" cx="36.3" cy="36.4" r="34.3"/>
<path fill="#2D2D2D" d="M5.8,52l61.1-31c0,0-13.4-27.6-44.6-15.8S5.8,52,5.8,52z"/>
<polygon fill="#56984F" points="14.7,46.1 49.9,22.9 54.2,32.2 16.1,49.6 "/>
<path fill="#56984F" d="M36,0C16.1,0,0,16.1,0,36c0,19.9,16.1,36,36,36s36-16.1,36-36C72,16.1,55.9,0,36,0z M36,67.3
	c-17.5,0-31.6-14.1-31.6-31.6C4.4,18.2,18.6,4.1,36,4.1s31.6,14.1,31.6,31.6C67.6,53.1,53.5,67.3,36,67.3z"/>
<polygon fill="#56984F" points="22.3,68.2 28.6,47.2 30,47.2 43.6,69.4 42,69.4 30,49.5 29.1,49.5 23.7,68.2 "/>
<circle fill="#56984F" cx="28.1" cy="43.9" r="4.4"/>
<circle fill="#2D2D2D" cx="28.1" cy="43.9" r="2.2"/>
<polygon fill="#56984F" points="15.1,47.2 13.1,48.4 14.1,50.4 16.4,48.8 "/>
<polygon fill="#56984F" points="46.1,25.4 44.9,21.2 50.4,18.5 58,34.6 52.8,36.3 "/>
<polygon fill="#56984F" points="12.6,47.2 14.8,51 13.1,52 11.6,48.4 "/>
<polygon fill="#2D2D2D" points="42.6,27.8 46.6,35.7 45.4,36.3 41.5,28.5 "/>
<polygon fill="#2D2D2D" points="34.4,33.1 37.7,39.7 36.5,40.3 33.3,33.9 "/>
<polygon fill="#2D2D2D" points="19.5,43 21.6,47.1 20.4,47.7 18.4,43.7 "/>
<path fill="#FFFFFF" d="M23,12c3.1-1.3,6.7,0.1,8.1,3.2c0.8,1.9,0.6,4.1-0.5,5.8c2.9-1.5,4.1-4.9,2.8-7.9c-1.3-3.1-5-4.5-8.1-3.2
	c-1.2,0.5-2.1,1.3-2.7,2.3C22.8,12.1,22.9,12.1,23,12z"/>
<polygon fill="#FFFFFF" points="13.3,26.8 15.6,28.3 17.7,26.6 17,29.2 19.3,30.7 16.6,30.8 15.9,33.5 14.9,30.9 12.2,31.1 
	14.3,29.4 "/>
<polygon fill="#FFFFFF" points="55.3,47.8 55.7,50.5 58.4,51 55.9,52.1 56.3,54.8 54.4,52.8 51.9,54 53.2,51.6 51.4,49.7 54,50.2 
	"/>
<polygon fill="#FFFFFF" points="44,46.7 43.9,47.8 44.9,48.2 43.8,48.4 43.7,49.4 43.2,48.5 42.2,48.7 42.9,48 42.4,47.1 43.3,47.5 
	"/>
<polygon fill="#FFFFFF" points="46.1,10.5 45.9,13.2 48.3,14.3 45.7,14.9 45.4,17.6 44,15.2 41.4,15.8 43.2,13.8 41.8,11.4 
	44.3,12.5 "/>
<g>
</g>
<g>
</g>
<g>
</g>
<g>
</g>
<g>
</g>
<g>
</g>
<g>
</g>
<g>
</g>
<g>
</g>
<g>
</g>
<g>
</g>
<g>
</g>
<g>
</g>
<g>
</g>
<g>
</g>
</svg>
