<?xml version="1.0" encoding="utf-8"?>
<!-- Generator: Adobe Illustrator 18.1.1, SVG Export Plug-In . SVG Version: 6.00 Build 0)  -->
<svg version="1.1" id="Layer_1" xmlns="http://www.w3.org/2000/svg" xmlns:xlink="http://www.w3.org/1999/xlink" x="0px" y="0px"
	 viewBox="0 0 72 72" enable-background="new 0 0 72 72" xml:space="preserve">
<g id="_x2E_svg_2521_">
	<circle id="_x2E_svg_2372_" fill="#0098CC" cx="36.6" cy="36.1" r="33.2"/>
</g>
<path id="_x2E_svg_2427_" fill="#90C5EB" d="M11,52.7c0,0,23.3-12.9,53.9-6.9c0,0,7.8-22.1-12.4-35.1C28.7-4.5,7.2,17.5,6.1,32.1
	C5,46.1,11,52.7,11,52.7z"/>
<path id="_x2E_svg_2426_" fill="#FFFFFF" d="M25.6,10.5c0,0-4.1,2.6-1.1,7.5C24.4,18,18.3,14.1,25.6,10.5z"/>
<path id="_x2E_svg_2425_" fill="#FFFFFF" d="M20.9,12.3c0,0-1.1,2.5,0.4,4.4C21.3,16.7,18.2,14.5,20.9,12.3z"/>
<path id="_x2E_svg_2424_" fill="#D78E2F" d="M7.9,54.5c0,0,30.4-16,59.4-7.6c0,0-7.2,21.2-27.9,23.4S7.9,54.5,7.9,54.5z"/>
<path id="_x2E_svg_2423_" fill="#526EB2" d="M38.1,26.3c-2.2,0-4.3,0.1-6.2,0.3c1.1,0.2,2.1,0.5,2.8,0.9c1.1-0.1,2.2-0.1,3.3-0.1
	c7.4,0,13.3,1.7,13.4,3.8c0,2.1-6,3.8-13.3,3.8c-6.3,0-11.6-1.2-13-2.9c-0.2,0-0.3,0-0.5,0c-1.3,0-2.5-0.1-3.7-0.2
	c0.5,4.1,8,6,16.9,5.9c9.5,0,17.5-1.9,17.3-6.7C55.2,28.5,47.6,26.3,38.1,26.3z"/>
<path id="_x2E_svg_2422_" fill="#B2732A" d="M65.3,46.4c0.7,0.2,1.3,0.3,2,0.5c0,0-7.2,21.2-27.9,23.4S7.9,54.5,7.9,54.5
	s1-0.5,2.8-1.3c0,0,12,12.9,28.8,11.7C55.9,63.6,65.3,46.4,65.3,46.4z"/>
<path id="_x2E_svg_2376_" fill="#3F3E3F" d="M0,36c0,19.9,16.1,36,36,36s36-16.1,36-36C72,16.1,55.9,0,36,0S0,16.1,0,36z M4.4,35.7
	C4.4,18.2,18.5,4.1,36,4.1s31.6,14.1,31.6,31.6c0,17.5-14.1,31.6-31.6,31.6S4.4,53.1,4.4,35.7z"/>
<path id="_x2E_svg_2421_" fill="#627EBE" d="M34.6,21.1c-11.5,1-20.4,4-20.4,6.7c0,4.7,9.7,5.9,21.1,4.9c11.5-1,21-3.7,20.5-8.5
	C55.5,21.5,46.1,20.1,34.6,21.1z M35.3,29.7c-8.9,0.8-16.3-0.3-16.5-2.4c-0.2-2.1,6.9-4.4,15.9-5.2c8.9-0.8,16.3,0.3,16.5,2.4
	S44.3,28.9,35.3,29.7z"/>
<path id="_x2E_svg_2420_" fill="#4D66AB" d="M40.2,35.8c-7.5-0.3-13.3,1.1-13.7,2.9c-0.4,2,5.7,4.4,13.2,4.6
	c7.5,0.3,13.9-1.3,13.9-3.7C53.7,37.7,47.7,36,40.2,35.8z M40,41.8c-5.8-0.2-10.5-1.5-10.4-3s4.8-2.5,10.6-2.3s10.5,1.5,10.4,3
	C50.6,41,45.9,42,40,41.8z"/>
<path id="_x2E_svg_2419_" fill="#2F4066" d="M36.7,48.8c-3.4,0.3-6,1.2-6.1,2c-0.1,0.9,2.8,1.7,6.2,1.4c3.4-0.3,6.2-1.3,6.1-2.4
	C42.9,49,40.1,48.6,36.7,48.8z M36.9,51.6c-2.7,0.2-4.8-0.2-4.9-0.8c-0.1-0.7,2.1-1.4,4.7-1.6c2.7-0.2,4.8,0.2,4.9,0.8
	C41.6,50.7,39.5,51.4,36.9,51.6z"/>
<g id="_x2E_svg_2418_">
	<path fill="#475E99" d="M40,45c-4.3-0.1-7.8-1.4-8-2.8c-0.8-0.2-1.5-0.4-2.1-0.7c-0.1,0.2-0.2,0.3-0.2,0.5c-0.3,2,4.4,4.3,10.1,4.5
		s10.6-1.4,10.7-3.8c0-0.2,0-0.3-0.1-0.5c-0.7,0.2-1.4,0.4-2.2,0.5C47.9,44.1,44.4,45.1,40,45z"/>
</g>
<g id="_x2E_svg_2417_">
	<path fill="none" d="M39.8,46.5c-3.2-0.1-6.1-0.9-7.9-1.9c-1.1,0.2-1.9,0.6-1.9,1.1c-0.1,1.1,3,2.4,7,2.9c4,0.5,7.4,0,7.5-1
		c0-0.4-0.3-0.8-0.9-1.2C42.4,46.5,41.2,46.5,39.8,46.5z"/>
	<path fill="#3B4E80" d="M44.6,47.5c-0.1,1.1-3.5,1.6-7.5,1c-4-0.5-7.2-1.8-7-2.9c0.1-0.5,0.8-0.9,1.9-1.1c-0.4-0.2-0.7-0.4-1-0.6
		c-1.7,0.2-2.8,0.7-3,1.4c-0.4,1.5,3.7,3.6,8.8,4.3c5.2,0.7,9.7-0.1,9.9-1.9c0.1-0.5-0.5-1.1-1.5-1.7c-0.5,0.1-1,0.2-1.5,0.2
		C44.3,46.7,44.6,47.1,44.6,47.5z"/>
	<path fill="none" d="M35.9,44.5c1.1,0.2,2.3,0.4,3.6,0.5c-0.6-0.1-1.3-0.2-2-0.3C37,44.5,36.5,44.5,35.9,44.5z"/>
</g>
<g id="_x2E_svg_2416_">
	<path fill="none" d="M35.9,52.3c-0.1,0.1-0.2,0.3-0.2,0.4c0.1,0.7,1.8,1,3.9,0.7c2-0.3,3.6-1,3.5-1.7c0-0.3-0.5-0.6-1.1-0.7
		c-1.1,0.6-3,1-5.1,1.2C36.5,52.3,36.2,52.3,35.9,52.3z"/>
	<path fill="#24314C" d="M42.5,50.7c-0.2,0.1-0.3,0.2-0.6,0.4c0.7,0.1,1.1,0.4,1.1,0.7c0.1,0.7-1.5,1.4-3.5,1.7
		c-2,0.3-3.8,0-3.9-0.7c0-0.1,0.1-0.3,0.2-0.4c-0.3,0-0.6,0-0.9,0c-0.2,0.2-0.3,0.4-0.3,0.6c0,0.9,2.3,1.6,4.9,1.2
		c2.6-0.4,4.7-1.5,4.6-2.5C44.1,51.2,43.5,50.8,42.5,50.7z"/>
</g>
<g id="_x2E_svg_2373_">
	
		<ellipse transform="matrix(0.8537 -0.5208 0.5208 0.8537 -0.7101 19.0656)" fill="#FBB040" cx="33.6" cy="10.8" rx="9.5" ry="8.9"/>
	<g>
		<path fill="#212121" d="M38.8,19.4c-0.6,0.4-1.3,0.7-1.9,0.9c2.2,0.5,0.2,3.1-0.1,3.6c0,0-0.2,0.2-0.2,0.2c-0.5,0.5-0.7,0.8-0.6,1
			c0.3,0.4,2.4-0.4,4.8-1.9c2.4-1.5,4.2-3,3.9-3.4c-0.1-0.2-0.5-0.1-1.1,0.1c0,0,0,0,0,0c0,0,0,0,0,0l0,0c0,0-3.8,0.8-3.3-1.4
			C39.8,18.8,39.3,19.1,38.8,19.4z"/>
		<path fill="#212121" d="M46.6,19c0.2,0,0.3,0.1,0.4,0.2c0.4,0.7-2.1,2.9-5.5,5c-3.5,2.1-6.6,3.3-7,2.6c-0.1-0.1-0.1-0.3,0-0.4
			c-1.1,1-1.6,1.9-1.4,2.3c0.5,0.9,4.6-0.6,9-3.4c4.5-2.7,7.6-5.6,7.1-6.5C49.1,18.4,48.1,18.5,46.6,19z"/>
	</g>
</g>
<path id="_x2E_svg_2415_" fill="#F2EFAE" d="M50.5,52.3C50.5,52.3,50.5,52.3,50.5,52.3c-0.1-1.6-1.4-2.9-3.1-2.9
	c-1.6,0-2.8,1.2-3,2.7c-0.8,0.4-1.3,1.2-1.3,2.2c0,1.4,1.1,2.5,2.5,2.5c0.7,0,1.3-0.3,1.7-0.7c0.3,1.5,1.6,2.6,3.1,2.6
	c1.8,0,3.2-1.4,3.2-3.2S52.3,52.3,50.5,52.3z"/>
<circle id="_x2E_svg_2414_" fill="#F2EFAE" cx="42.5" cy="54.9" r="1"/>
<circle id="_x2E_svg_2413_" fill="#F2EFAE" cx="47.2" cy="55.9" r="0.7"/>
<circle id="_x2E_svg_2412_" fill="#F2EFAE" cx="51.3" cy="50.6" r="0.8"/>
<circle id="_x2E_svg_2411_" fill="#F2EFAE" cx="55" cy="50.5" r="2.2"/>
<circle id="_x2E_svg_2410_" fill="#F2EFAE" cx="55" cy="54.2" r="0.9"/>
<circle id="_x2E_svg_2409_" fill="#F2EFAE" cx="29.7" cy="53.2" r="1.2"/>
<circle id="_x2E_svg_2408_" fill="#F2EFAE" cx="30.6" cy="55.3" r="0.3"/>
<path id="_x2E_svg_2407_" fill="#F2EFAE" d="M38.9,55.3c0-0.5-0.4-0.9-0.9-0.9c-0.2,0-0.4,0.1-0.5,0.2c-0.2-0.4-0.7-0.7-1.2-0.7
	c-0.3,0-0.6,0.1-0.9,0.3c-0.3-0.6-1-1-1.7-1c-1.1,0-1.9,0.9-1.9,1.9c0,0.3,0.1,0.6,0.2,0.8c-0.7,0.4-1.1,1.2-1.1,2
	c0,1.3,1.1,2.4,2.4,2.4c1.1,0,2.1-0.8,2.3-1.8c0.2,0.1,0.4,0.1,0.6,0.1c1.1,0,2-0.9,2-2c0-0.2,0-0.4-0.1-0.6
	C38.6,56,38.9,55.7,38.9,55.3z"/>
<g id="_x2E_svg_2406_">
	<path fill="#D2962A" d="M23.4,38.3c0,0,0.1,0,0.3-0.2c0.2-0.1,0.4-0.3,0.6-0.6c0.4-0.5,0.5-1.2,0.5-1.2s0,0.2,0,0.4
		c0,0.3-0.1,0.6-0.3,0.9c-0.2,0.3-0.4,0.6-0.6,0.8c-0.2,0.2-0.4,0.3-0.4,0.3L23.4,38.3z"/>
</g>
<line id="_x2E_svg_2405_" fill="none" stroke="#3F3E3F" stroke-width="0.5438" stroke-miterlimit="10" x1="10" y1="41.1" x2="9.5" y2="41.6"/>
<line id="_x2E_svg_2404_" fill="none" stroke="#FFFFFF" stroke-width="0.5438" stroke-miterlimit="10" x1="12.5" y1="38.8" x2="10" y2="41.1"/>
<line id="_x2E_svg_2403_" fill="none" stroke="#3F3E3F" stroke-width="0.5438" stroke-miterlimit="10" x1="12.2" y1="41.1" x2="11.7" y2="41.6"/>
<line id="_x2E_svg_2402_" fill="none" stroke="#FFFFFF" stroke-width="0.5438" stroke-miterlimit="10" x1="13.9" y1="39.6" x2="12.2" y2="41.1"/>
<line id="_x2E_svg_2401_" fill="none" stroke="#3F3E3F" stroke-width="0.5438" stroke-miterlimit="10" x1="18.9" y1="47.7" x2="19" y2="48.5"/>
<line id="_x2E_svg_2400_" fill="none" stroke="#FFFFFF" stroke-width="0.5438" stroke-miterlimit="10" x1="18" y1="42.7" x2="18.9" y2="47.7"/>
<line id="_x2E_svg_2399_" fill="none" stroke="#3F3E3F" stroke-width="0.5438" stroke-miterlimit="10" x1="22.4" y1="45.8" x2="22.7" y2="46.5"/>
<line id="_x2E_svg_2398_" fill="none" stroke="#FFFFFF" stroke-width="0.5438" stroke-miterlimit="10" x1="20.6" y1="42.2" x2="22.4" y2="45.8"/>
<polygon id="_x2E_svg_2397_" fill="#FFFFFF" points="16.2,34.3 22.2,37.4 19.2,40.7 12.8,36.4 "/>
<polygon id="_x2E_svg_2396_" fill="#BFBFBF" points="22.2,37.4 21.2,42.2 19,44.2 19.2,40.7 "/>
<polygon id="_x2E_svg_2395_" fill="#E5E5E5" points="19,44.2 11.7,38.7 12.8,36.4 19.2,40.7 "/>
<path id="_x2E_svg_2394_" fill="#FFFFFF" d="M20.6,40l2.1,2c0.5,0.5,1.2,0.5,1.8,0.1l0,0c0.6-0.4,0.8-1.3,0.5-1.9l-1.2-2.1
	C23.7,38.1,21.6,37.8,20.6,40z"/>
<g id="_x2E_svg_2393_">
	<path fill="#D2962A" d="M21.6,39.3c0,0-0.2-0.1-0.4-0.3c-0.2-0.2-0.4-0.5-0.6-0.8c-0.2-0.3-0.2-0.7-0.3-0.9c0-0.3,0-0.4,0-0.4
		s0.1,0.7,0.5,1.2c0.2,0.3,0.4,0.5,0.6,0.6c0.2,0.1,0.3,0.2,0.3,0.2L21.6,39.3z"/>
</g>
<path id="_x2E_svg_2392_" fill="none" stroke="#3F3E3F" stroke-width="0.5438" stroke-miterlimit="10" d="M12.3,33.9
	c-0.1-0.2-0.2-0.5-0.2-0.7"/>
<path id="_x2E_svg_2391_" fill="none" stroke="#FFFFFF" stroke-width="0.5438" stroke-miterlimit="10" d="M14.2,35.8
	c0,0-1.4-0.9-1.9-1.8"/>
<path id="_x2E_svg_2390_" fill="#3F3E3F" d="M14.7,37.7l0.2-0.1c0.5-0.4,1.2-0.6,1.8-0.6c0.1,0,0.2,0,0.3,0c0.1,0,0.2,0.1,0.2,0.2
	c0.2,0.4,0.1,0.9-0.2,1.3L16.7,39c0,0-0.2,1.2,0.2,1.8c0.5,0.7-1.9-0.3-1.9-0.8S14.1,39,14.7,37.7z"/>
<path id="_x2E_svg_2389_" fill="#3F3E3F" d="M19.2,35.9c0,0-1.3,0.4-0.9,0.9c0.5,0.5,1.5,0.1,2.1-0.3L19.2,35.9z"/>
<path id="_x2E_svg_2388_" fill="#3F3E3F" d="M12.4,37.2c0,0,1,1.1,0.1,2.2l-0.9-0.7L12.4,37.2z"/>
<path id="_x2E_svg_2387_" fill="#3F3E3F" d="M17.7,43.2c0,0,0-0.6,0.5-0.6c0.5,0,0.9-0.5,0.9-0.5s0.6-0.1,0.8,0.4
	c0.2,0.4,0,0.9,0,0.9L19,44.2L17.7,43.2z"/>
<ellipse id="_x2E_svg_2386_" fill="#3F3E3F" cx="22.6" cy="40.1" rx="0.2" ry="0.4"/>
<ellipse id="_x2E_svg_2385_" fill="#3F3E3F" cx="24.4" cy="39.5" rx="0.2" ry="0.3"/>
<path id="_x2E_svg_2384_" fill="#FFFFFF" d="M7.9,39c0,0-1.2,4.7,4.3,6.2C12.2,45.2,5,46.5,7.9,39z"/>
<path id="_x2E_svg_2383_" fill="#FFFFFF" d="M43.5,14.9c0,0,4.3-2.3,1.8-7.4C45.3,7.6,51.1,12,43.5,14.9z"/>
<path id="_x2E_svg_2382_" fill="#FFFFFF" d="M48.4,13.6c0,0,1.3-2.4,0-4.4C48.4,9.2,51.2,11.6,48.4,13.6z"/>
<path id="_x2E_svg_2381_" fill="#FFFFFF" d="M8.3,45.7c0,0,0,1.5,2.7,0.8C11,46.5,7.8,48.3,8.3,45.7z"/>
<path id="_x2E_svg_2380_" fill="#8B672F" d="M60.4,32c0,0,1.7,3.9-0.5,6.3c-2.2,2.4-2.5,2.4-2.5,2.4s1.7,0.6,1.3,0.7
	c-0.1,0-1.3-0.4-1.7-0.4c-0.4,0-2-2.2-3.1-1.2c0,0,0.1-0.6,1.7-0.5s3.5-3.8,3.5-3.8s0.2-2.8-0.1-3.1C58.8,32.3,60.2,31.6,60.4,32z"
	/>
<circle id="_x2E_svg_2379_" fill="#84B841" cx="64" cy="27.7" r="0.8"/>
<circle id="_x2E_svg_2378_" fill="#84B841" cx="63.6" cy="25.7" r="0.3"/>
<circle id="_x2E_svg_2377_" fill="#84B841" cx="62.9" cy="26.7" r="0.3"/>
<g id="_x2E_svg_2375_">
	<path fill="#744D33" d="M60.4,32c-0.2-0.4-1.6,0.2-1.3,0.6c0.2,0.2,0.2,1.2,0.1,2c0.4-0.2,0.7-0.5,0.8-0.9c0.3,0.3,0.6,0.4,1,0.5
		C60.8,33,60.4,32,60.4,32z"/>
</g>
<path id="_x2E_svg_2374_" fill="#84B841" d="M63,29.1c-0.3-0.9-1.2-1.3-2.1-1.1c-0.7-0.7-1.8-0.9-2.8-0.5c-1.4,0.5-2,2.1-1.5,3.4
	c0.1,0.3,0.3,0.5,0.4,0.7c-0.3,0.4-0.3,0.9-0.1,1.4c0.3,0.8,1.2,1.2,2,0.9c0.4-0.2,0.7-0.5,0.9-0.9c0.5,0.5,1.3,0.7,2,0.4
	c1-0.4,1.5-1.5,1.1-2.5c0-0.1-0.1-0.2-0.1-0.2C63.1,30.3,63.2,29.7,63,29.1z"/>
<g>
</g>
<g>
</g>
<g>
</g>
<g>
</g>
<g>
</g>
<g>
</g>
<g>
</g>
<g>
</g>
<g>
</g>
<g>
</g>
<g>
</g>
<g>
</g>
<g>
</g>
<g>
</g>
<g>
</g>
</svg>
