<?xml version="1.0" encoding="utf-8"?>
<!-- Generator: Adobe Illustrator 18.1.1, SVG Export Plug-In . SVG Version: 6.00 Build 0)  -->
<svg version="1.1" id="Layer_1" xmlns="http://www.w3.org/2000/svg" xmlns:xlink="http://www.w3.org/1999/xlink" x="0px" y="0px"
	 viewBox="0 0 72 72" enable-background="new 0 0 72 72" xml:space="preserve">
<circle id="_x2E_svg_8958_" fill="#F2EFAE" cx="36.2" cy="36.1" r="33.2"/>
<path id="_x2E_svg_8950_" fill="#D78E2F" d="M0,36c0,19.9,16.1,36,36,36s36-16.1,36-36C72,16.1,55.9,0,36,0S0,16.1,0,36z M4.4,35.7
	C4.4,18.2,18.5,4.1,36,4.1s31.6,14.1,31.6,31.6c0,17.5-14.1,31.6-31.6,31.6S4.4,53.1,4.4,35.7z"/>
<g id="_x2E_svg_8924_">
	<path fill="#FBB040" d="M32.7,18.6v14.5H18.2V18.6H32.7 M34.7,16.6H16.2v18.5h18.5V16.6L34.7,16.6z"/>
</g>
<rect id="_x2E_svg_8923_" x="37.2" y="16.6" fill="#FBB040" width="18.5" height="18.5"/>
<rect id="_x2E_svg_8922_" x="37.2" y="37.2" fill="#FBB040" width="18.5" height="18.5"/>
<rect id="_x2E_svg_8921_" x="16.2" y="37.2" fill="#FBB040" width="18.5" height="18.5"/>
<polygon id="_x2E_svg_8920_" stroke="#FFFFFF" stroke-width="0.5" stroke-miterlimit="10" points="38.1,22.9 30.7,22.5 24.5,22.1 
	28.4,27.1 32.7,32.9 33.8,29 41.3,33 42.8,30 35.4,26 "/>
<g>
</g>
<g>
</g>
<g>
</g>
<g>
</g>
<g>
</g>
<g>
</g>
<g>
</g>
<g>
</g>
<g>
</g>
<g>
</g>
<g>
</g>
<g>
</g>
<g>
</g>
<g>
</g>
<g>
</g>
</svg>
