<?xml version="1.0" encoding="utf-8"?>
<!-- Generator: Adobe Illustrator 18.1.1, SVG Export Plug-In . SVG Version: 6.00 Build 0)  -->
<svg version="1.1" id="Layer_1" xmlns="http://www.w3.org/2000/svg" xmlns:xlink="http://www.w3.org/1999/xlink" x="0px" y="0px"
	 viewBox="0 0 72 72" enable-background="new 0 0 72 72" xml:space="preserve">
<linearGradient id="_x2E_svg_1_" gradientUnits="userSpaceOnUse" x1="35.9792" y1="71.9864" x2="35.9792" y2="0">
	<stop  offset="0" style="stop-color:#FDE267"/>
	<stop  offset="0.5488" style="stop-color:#FFD743"/>
	<stop  offset="0.5651" style="stop-color:#F9C01C"/>
	<stop  offset="1" style="stop-color:#C97829"/>
</linearGradient>
<ellipse id="_x2E_svg_8865_" fill="url(#_x2E_svg_1_)" cx="36" cy="36" rx="36" ry="36"/>
<linearGradient id="_x2E_svg_2_" gradientUnits="userSpaceOnUse" x1="35.9792" y1="3.9101" x2="35.9792" y2="68.0763">
	<stop  offset="0" style="stop-color:#FDE267"/>
	<stop  offset="0.3794" style="stop-color:#FFD743"/>
	<stop  offset="0.5587" style="stop-color:#F9C01C"/>
	<stop  offset="1" style="stop-color:#C97829"/>
</linearGradient>
<ellipse id="_x2E_svg_8864_" fill="url(#_x2E_svg_2_)" cx="36" cy="36" rx="32.1" ry="32.1"/>
<g id="_x2E_svg_8863_">
	<path fill="#A05B26" d="M68,37.1l-4-5.9l-30.7-2.5L13.1,50.5l17.1,17c2.1,0.5,10.9,1.2,18-1.8C57.5,61.6,66.8,54,68,37.1z"/>
</g>
<path id="_x2E_svg_8862_" fill="#A05B26" d="M53.1,24.6c-3.9,0-7.4,1.8-9.7,4.8c-2.3-3-5.8-4.8-9.8-4.8c-2.8,0-5.4,0.9-7.5,2.6v-2.3
	L25,23.8l-0.3,1.1h-7.1l-9.2,2.5l2.4,9.7l-0.8,0.2l1.1,1.1l2.2-0.5v11.4H12l1.1,1.1h12.9v-2.1c2.1,1.6,4.7,2.5,7.5,2.5
	c3.9,0,7.4-1.8,9.7-4.8c2.3,3,5.8,4.8,9.8,4.8c7.1,0,12.4-5.7,12.4-13.2S60.3,24.6,53.1,24.6z"/>
<radialGradient id="_x2E_svg_3_" cx="35.7788" cy="36.6306" r="22.3076" gradientTransform="matrix(1 0 0 1.0004 0 0)" gradientUnits="userSpaceOnUse">
	<stop  offset="0" style="stop-color:#FBBF32"/>
	<stop  offset="0.5488" style="stop-color:#FFD743"/>
	<stop  offset="0.5651" style="stop-color:#F9C01C"/>
	<stop  offset="1" style="stop-color:#F2A229"/>
</radialGradient>
<path id="_x2E_svg_8861_" fill="url(#_x2E_svg_3_)" d="M51.9,49.8c-4,0-7.5-1.8-9.8-4.8c-2.3,3-5.8,4.8-9.7,4.8
	c-2.8,0-5.4-0.9-7.5-2.5v2.1H12V36.8l-2.2,0.5l-2.7-11l9.2-2.5H25v2.3c2.1-1.7,4.8-2.6,7.6-2.6c4,0,7.5,1.8,9.8,4.8
	c2.3-3,5.8-4.8,9.7-4.8c7.2,0,12.3,5.5,12.3,13.1C64.3,44.1,59,49.8,51.9,49.8z"/>
<linearGradient id="_x2E_svg_4_" gradientUnits="userSpaceOnUse" x1="35.879" y1="48.7262" x2="35.879" y2="24.5636">
	<stop  offset="0" style="stop-color:#FDE267"/>
	<stop  offset="0.5488" style="stop-color:#FFD743"/>
	<stop  offset="0.5651" style="stop-color:#F9C01C"/>
	<stop  offset="1" style="stop-color:#C97829"/>
</linearGradient>
<path id="_x2E_svg_8860_" fill="url(#_x2E_svg_4_)" d="M52,24.6c-4.2,0-7.8,2.3-9.7,5.8c-1.9-3.5-5.4-5.8-9.7-5.8
	c-3.6,0-6.6,1.6-8.7,4.2v-3.9h-7.3l-8,2.2l2.2,8.9l2.5-0.5v12.8h10.6v-3.7c2,2.5,5,4.1,8.6,4.1c4.2,0,7.8-2.3,9.7-5.8
	c1.9,3.5,5.4,5.8,9.7,5.8c6.4,0,11.3-5.2,11.3-12C63.2,29.7,58.5,24.6,52,24.6z"/>
<linearGradient id="_x2E_svg_5_" gradientUnits="userSpaceOnUse" x1="16.4863" y1="27.1703" x2="16.4863" y2="46.0191">
	<stop  offset="0" style="stop-color:#FDE267"/>
	<stop  offset="0.3958" style="stop-color:#FFD743"/>
	<stop  offset="0.5511" style="stop-color:#F9C01C"/>
	<stop  offset="1" style="stop-color:#C97829"/>
</linearGradient>
<path id="_x2E_svg_8859_" fill="url(#_x2E_svg_5_)" stroke="#A05B26" stroke-width="0.2352" stroke-miterlimit="10" d="M15.4,32.6
	l-3,0.7l-1.1-4.6l5.6-1.5h4.7V46h-6.1V32.6H15.4z"/>
<linearGradient id="_x2E_svg_6_" gradientUnits="userSpaceOnUse" x1="32.4715" y1="26.8696" x2="32.4715" y2="46.4202">
	<stop  offset="0" style="stop-color:#FDE267"/>
	<stop  offset="0.3958" style="stop-color:#FFD743"/>
	<stop  offset="0.5511" style="stop-color:#F9C01C"/>
	<stop  offset="1" style="stop-color:#C97829"/>
</linearGradient>
<path id="_x2E_svg_8858_" fill="url(#_x2E_svg_6_)" stroke="#A05B26" stroke-width="0.2352" stroke-miterlimit="10" d="M23.5,36.7
	L23.5,36.7c0-5.2,3.4-9.8,9-9.8c5.7,0,9,4.5,9,9.7v0.1c0,5.1-3.4,9.7-9,9.7C26.8,46.4,23.5,41.8,23.5,36.7z M35.3,36.7L35.3,36.7
	c0-2.6-1.1-4.4-2.8-4.4c-1.7,0-2.8,1.7-2.8,4.3v0.1c0,2.6,1.1,4.3,2.8,4.3C34.2,41,35.3,39.2,35.3,36.7z"/>
<radialGradient id="_x2E_svg_7_" cx="32.4715" cy="36.6306" r="3.6661" gradientTransform="matrix(1 0 0 1.0004 0 0)" gradientUnits="userSpaceOnUse">
	<stop  offset="0" style="stop-color:#FDE267"/>
	<stop  offset="0.156" style="stop-color:#FADD64"/>
	<stop  offset="0.3351" style="stop-color:#F3D15B"/>
	<stop  offset="0.5257" style="stop-color:#E9BD4E"/>
	<stop  offset="0.7243" style="stop-color:#DCA23D"/>
	<stop  offset="0.9271" style="stop-color:#CE842D"/>
	<stop  offset="1" style="stop-color:#C97829"/>
</radialGradient>
<path id="_x2E_svg_8857_" fill="url(#_x2E_svg_7_)" d="M32.5,32.3c-1.7,0-2.8,1.7-2.8,4.3v0.1c0,2.6,1.1,4.3,2.8,4.3
	s2.8-1.8,2.8-4.3C35.3,34.1,34.2,32.3,32.5,32.3z"/>
<radialGradient id="_x2E_svg_8_" cx="51.8141" cy="36.6306" r="3.6661" gradientTransform="matrix(1 0 0 1.0004 0 0)" gradientUnits="userSpaceOnUse">
	<stop  offset="0" style="stop-color:#FDE267"/>
	<stop  offset="0.156" style="stop-color:#FADD64"/>
	<stop  offset="0.3351" style="stop-color:#F3D15B"/>
	<stop  offset="0.5257" style="stop-color:#E9BD4E"/>
	<stop  offset="0.7243" style="stop-color:#DCA23D"/>
	<stop  offset="0.9271" style="stop-color:#CE842D"/>
	<stop  offset="1" style="stop-color:#C97829"/>
</radialGradient>
<path id="_x2E_svg_8856_" fill="url(#_x2E_svg_8_)" d="M51.8,32.3c-1.7,0-2.8,1.7-2.8,4.3v0.1c0,2.6,1.1,4.3,2.8,4.3
	s2.8-1.8,2.8-4.3C54.6,34.1,53.4,32.3,51.8,32.3z"/>
<linearGradient id="_x2E_svg_9_" gradientUnits="userSpaceOnUse" x1="52.0145" y1="26.8696" x2="52.0145" y2="46.4202">
	<stop  offset="0" style="stop-color:#FDE267"/>
	<stop  offset="0.3958" style="stop-color:#FFD743"/>
	<stop  offset="0.5511" style="stop-color:#F9C01C"/>
	<stop  offset="1" style="stop-color:#C97829"/>
</linearGradient>
<path id="_x2E_svg_8855_" fill="url(#_x2E_svg_9_)" stroke="#A05B26" stroke-width="0.2352" stroke-miterlimit="10" d="M43,36.7
	L43,36.7c0-5.2,3.4-9.8,9-9.8c5.7,0,9,4.5,9,9.7v0.1c0,5.1-3.4,9.7-9,9.7C46.3,46.4,43,41.8,43,36.7z M54.8,36.7L54.8,36.7
	c0-2.6-1.1-4.4-2.8-4.4s-2.8,1.7-2.8,4.3v0.1c0,2.6,1.1,4.3,2.8,4.3C53.7,41,54.8,39.2,54.8,36.7z"/>
<path id="_x2E_svg_8854_" fill="#A05B26" d="M32,38.9L32,38.9c0-2.6,1.1-4.3,2.8-4.3c0.1,0,0.2,0,0.3,0c-0.4-1.4-1.3-2.3-2.5-2.3
	c-1.7,0-2.8,1.7-2.8,4.3v0.1c0,2.4,1,4.1,2.6,4.3C32.1,40.3,32,39.6,32,38.9z"/>
<path id="_x2E_svg_8853_" fill="#A05B26" d="M51.4,38.9L51.4,38.9c0-2.6,1.1-4.3,2.8-4.3c0.1,0,0.2,0,0.3,0
	c-0.4-1.4-1.3-2.3-2.5-2.3c-1.7,0-2.8,1.7-2.8,4.3v0.1c0,2.4,1,4.1,2.6,4.3C51.5,40.3,51.4,39.6,51.4,38.9z"/>
<linearGradient id="_x2E_svg_10_" gradientUnits="userSpaceOnUse" x1="35.9792" y1="0" x2="35.9792" y2="71.9864">
	<stop  offset="0" style="stop-color:#FDE267"/>
	<stop  offset="0.5488" style="stop-color:#FFD743"/>
	<stop  offset="0.5651" style="stop-color:#F9C01C"/>
	<stop  offset="1" style="stop-color:#C97829"/>
</linearGradient>
<path id="_x2E_svg_8852_" fill="url(#_x2E_svg_10_)" d="M36,0C16.1,0,0,16.1,0,36s16.1,36,36,36s36-16.1,36-36S55.8,0,36,0z M36,69
	C17.7,69,3,54.1,3,36C3,17.7,17.7,3,36,3c18.1,0,33,14.7,33,33C69,54.1,54.1,69,36,69z"/>
<g id="_x2E_svg_8851_">
	<polygon fill="#FFFFFF" points="44.7,26.3 53.4,23.5 45.2,27.5 48,36.2 43.9,28.1 35.3,30.9 43.4,26.8 40.6,18.1 	"/>
</g>
<g>
</g>
<g>
</g>
<g>
</g>
<g>
</g>
<g>
</g>
<g>
</g>
<g>
</g>
<g>
</g>
<g>
</g>
<g>
</g>
<g>
</g>
<g>
</g>
<g>
</g>
<g>
</g>
<g>
</g>
</svg>
