<?xml version="1.0" encoding="utf-8"?>
<!-- Generator: Adobe Illustrator 18.1.0, SVG Export Plug-In . SVG Version: 6.00 Build 0)  -->
<svg version="1.1" id="Layer_1" xmlns="http://www.w3.org/2000/svg" xmlns:xlink="http://www.w3.org/1999/xlink" x="0px" y="0px"
	 viewBox="0 0 72 72" enable-background="new 0 0 72 72" xml:space="preserve">
<path fill="#90C5EB" d="M67.5,36.4c0,17.2-14.1,31.1-31.5,31.1c-17.4,0-31.5-13.9-31.5-31.1S18.6,4.5,36,4.5
	C53.4,4.5,67.5,19.3,67.5,36.4z"/>
<path fill="#A12321" d="M29.5,21.1c0,0-9.7,12.2-7.2,25.9l1.3,0.3c0,0,8.7-28,23.1-28.3C46.7,19,31.8,21.6,29.5,21.1z"/>
<path fill="#B1CD47" d="M69.1,44.3c-2.7-4.9-7.9-8.3-13.9-8.3c-6.9,0-12.8,4.5-14.9,10.7c-1.5-0.5-3.1-0.7-4.7-0.7
	c-2.2,0-4.3,0.5-6.2,1.3c-2.9-3.2-7.1-5.3-11.8-5.3c-5.1,0-9.6,2.4-12.4,6.1c0,0,6.9,21.7,30.9,21.8C60,70.1,69.1,44.3,69.1,44.3z"
	/>
<path fill="#FFFFFF" d="M19.8,30.5c0-0.1,0-0.2,0-0.3c0-1.5-1.2-2.8-2.8-2.8c-0.1,0-0.3,0-0.4,0c-0.7-1.1-1.9-1.8-3.3-1.8
	c-2.2,0-3.9,1.8-3.9,3.9c0,0.4,0.1,0.8,0.2,1.2C8.3,31.2,7.4,32,7.4,33c0,1.4,1.8,2.5,3.9,2.5c1.4,0,2.6-0.5,3.3-1.1
	c0.5,0.4,1.2,0.6,2,0.6c1.5,0,2.8-0.9,2.8-1.9c0,0,0,0,0,0c1,0,1.9-0.6,1.9-1.2C21.4,31.1,20.7,30.6,19.8,30.5z"/>
<path fill="#FFFFFF" d="M29.2,14c0.2-0.1,0.3-0.3,0.3-0.5c0-0.5-0.8-0.9-1.8-0.9c0,0,0,0,0,0c-0.6-1-2-1.7-3.5-1.7
	c-2.1,0-3.9,1.3-3.9,2.8c0,0.1,0,0.2,0,0.4c-0.7,0.3-1.1,0.9-1.1,1.5c0,1,1.2,1.8,2.7,1.8c0.4,0,0.8-0.1,1.1-0.2
	c0.3,0.4,0.9,0.6,1.5,0.6c0.7,0,1.3-0.3,1.6-0.7c0.5,0.2,1,0.3,1.6,0.3c1.8,0,3.2-0.8,3.2-1.8C31,15,30.3,14.3,29.2,14z"/>
<path fill="#FFFFFF" d="M54.4,9.6c0-1-1.3-1.8-2.9-1.8c-0.6,0-1.1,0.1-1.6,0.3c-0.6-1-2-1.7-3.6-1.7c-1.6,0-3,0.7-3.6,1.8
	c-1.6,0.2-2.8,0.8-2.8,1.6c0,0.4,0.4,0.9,1,1.2c-0.8,0.2-1.4,0.5-1.4,0.9c0,0.6,1.4,1.1,3.1,1.1c1.4,0,2.5-0.3,2.9-0.8
	c0.3,0,0.5,0.1,0.8,0.1c0.8,0,1.4-0.2,2-0.4c0.4,0.3,1,0.4,1.7,0.4c1,0,1.9-0.4,2.1-0.9C53.5,11.2,54.4,10.5,54.4,9.6z"/>
<path fill="#CF4450" d="M29.5,21.1c0,0,0.2-2,2.8-0.7c0,0,0.3-2.2,2.8-0.5c0,0,1-2.2,3.4-0.7c0,0,0.5-2.1,2.9-0.6c0,0-0.3-2,3.6-0.6
	c0,0,16.1,5.5,17.8,36.8c0,0-4.5,11.9-23.6,15C39.1,69.9,40.8,32.2,29.5,21.1z"/>
<path fill="#4D66AB" d="M41.4,18.7c0,0,15.5,2.1,20,37l6.1-5.9c0,0-5.7-22.7-20.3-30.6C41.7,16.3,41.4,18.7,41.4,18.7z"/>
<path fill="#56984F" d="M38.5,19c0,0,15.5,6,20.1,40.9l3-3.8c0,0-3-28.7-17.6-36.7C38.5,16.5,38.5,19,38.5,19z"/>
<path fill="#FED839" d="M35,20c0,0,17.4,6.4,19.4,43.3l4.2-3.3c0,0-3.3-33.7-19.1-40.4C35.1,17.7,35,20,35,20z"/>
<path fill="#FBB040" d="M32.2,20.4c0,0,14.7,8.6,16.8,45.6l5.4-2.8c0,0-1-33.1-17.9-42.5C31.7,18,32.2,20.4,32.2,20.4z"/>
<path fill="#6D6F71" d="M36,0C16.1,0,0,16.1,0,36c0,19.9,16.1,36,36,36c19.9,0,36-16.1,36-36C72,16.1,55.9,0,36,0z M36,67.5
	c-17.4,0-31.5-13.7-31.5-31.1C4.5,19,18.6,4.9,36,4.9c17.4,0,31.5,14.1,31.5,31.5C67.5,53.8,53.4,67.5,36,67.5z"/>
<g>
</g>
<g>
</g>
<g>
</g>
<g>
</g>
<g>
</g>
<g>
</g>
<g>
</g>
<g>
</g>
<g>
</g>
<g>
</g>
<g>
</g>
<g>
</g>
<g>
</g>
<g>
</g>
<g>
</g>
<g>
</g>
</svg>
