<?xml version="1.0" encoding="utf-8"?>
<!-- Generator: Adobe Illustrator 18.1.1, SVG Export Plug-In . SVG Version: 6.00 Build 0)  -->
<svg version="1.1" id="Layer_1" xmlns="http://www.w3.org/2000/svg" xmlns:xlink="http://www.w3.org/1999/xlink" x="0px" y="0px"
	 viewBox="0 0 72 72" enable-background="new 0 0 72 72" xml:space="preserve">
<circle id="_x2E_svg_4661_" fill="#4D66AB" cx="36" cy="36" r="34.1"/>
<circle id="_x2E_svg_4677_" fill="#0098CC" cx="36" cy="34.5" r="27.5"/>
<path id="_x2E_svg_4536_" fill="#CF4450" d="M36,0C16.1,0,0,16.1,0,36c0,19.9,16.1,36,36,36s36-16.1,36-36C72,16.1,55.9,0,36,0z
	 M36,67.3c-17.5,0-31.6-14.1-31.6-31.6C4.4,18.2,18.6,4.1,36,4.1s31.6,14.1,31.6,31.6C67.6,53.1,53.5,67.3,36,67.3z"/>
<circle id="_x2E_svg_4676_" fill="#3F3E3F" cx="36" cy="34.5" r="23.5"/>
<circle id="_x2E_svg_4675_" fill="#D78E2F" cx="36" cy="34.5" r="7.1"/>
<circle id="_x2E_svg_4674_" fill="#3F3E3F" cx="36" cy="34.5" r="4.6"/>
<circle id="_x2E_svg_4673_" fill="#0098CC" cx="36" cy="34.5" r="1"/>
<path id="_x2E_svg_4672_" fill="none" stroke="#FFFFFF" stroke-linecap="round" stroke-miterlimit="10" d="M56.1,34.5
	c0,11.1-9,20.1-20.1,20.1"/>
<path id="_x2E_svg_4671_" fill="none" stroke="#FFFFFF" stroke-linecap="round" stroke-miterlimit="10" d="M15.9,34.8
	c-0.2-11.1,8.7-20.2,19.8-20.4"/>
<path id="_x2E_svg_4670_" fill="none" stroke="#FFFFFF" stroke-linecap="round" stroke-miterlimit="10" d="M53.1,34.5
	c0,9.4-7.6,17.1-17.1,17.1"/>
<path id="_x2E_svg_4669_" fill="none" stroke="#FFFFFF" stroke-linecap="round" stroke-miterlimit="10" d="M18.9,34.7
	c-0.1-9.4,7.4-17.2,16.8-17.3"/>
<path id="_x2E_svg_4668_" fill="none" stroke="#FFFFFF" stroke-linecap="round" stroke-miterlimit="10" d="M50.1,34.5
	c0,7.8-6.3,14.1-14.1,14.1"/>
<path id="_x2E_svg_4667_" fill="none" stroke="#FFFFFF" stroke-linecap="round" stroke-miterlimit="10" d="M21.9,34.7
	c-0.1-7.8,6.1-14.2,13.9-14.3"/>
<circle id="_x2E_svg_4666_" fill="#AAABAB" cx="35.9" cy="63.2" r="4.6"/>
<path id="_x2E_svg_4665_" fill="none" stroke="#FFFFFF" stroke-linecap="round" stroke-miterlimit="10" d="M43.1,67.4l-17.6-9.8
	c-1.6-0.9-2.6-2.6-2.6-4.5V39.1"/>
<circle id="_x2E_svg_4664_" fill="#3F3E3F" cx="35.9" cy="63.2" r="2.7"/>
<path id="_x2E_svg_4663_" fill="#CF4450" d="M22.3,43.8c0,0,0.5-0.5,1.1,0s0.7-5.6,0.7-5.6s-1.5-1.8-2.2,0
	C21.1,40,22.3,43.8,22.3,43.8z"/>
<path id="_x2E_svg_4662_" fill="#3F3E3F" d="M40.5,68.3l0.4,0.2c0.6,0.3,1.4,0.1,1.7-0.5l0.6-1.1c0.3-0.6,0.1-1.4-0.5-1.7l-0.4-0.2
	c-0.6-0.3-1.4-0.1-1.7,0.5L40,66.5C39.7,67.1,39.9,67.9,40.5,68.3z"/>
<g>
</g>
<g>
</g>
<g>
</g>
<g>
</g>
<g>
</g>
<g>
</g>
<g>
</g>
<g>
</g>
<g>
</g>
<g>
</g>
<g>
</g>
<g>
</g>
<g>
</g>
<g>
</g>
<g>
</g>
</svg>
