<?xml version="1.0" encoding="utf-8"?>
<!-- Generator: Adobe Illustrator 18.1.1, SVG Export Plug-In . SVG Version: 6.00 Build 0)  -->
<svg version="1.1" id="Layer_1" xmlns="http://www.w3.org/2000/svg" xmlns:xlink="http://www.w3.org/1999/xlink" x="0px" y="0px"
	 viewBox="0 0 72.1 72.1" enable-background="new 0 0 72.1 72.1" xml:space="preserve">
<circle id="_x2E_svg_2733_" fill="#CEE295" cx="35.8" cy="36.1" r="34.2"/>
<path id="_x2E_svg_2732_" fill="#3F3E3F" d="M41.1,18.8c0,0-2.1-0.5-3.5-0.6C37.6,18.2,39,18.8,41.1,18.8z"/>
<path id="_x2E_svg_2731_" fill="#3F3E3F" d="M36.1,0C16.1,0,0,16.1,0,36.1s16.1,36.1,36.1,36.1S72.1,56,72.1,36.1S56,0,36.1,0z
	 M36.1,67.4c-17.5,0-31.7-14.1-31.7-31.7S18.6,4.1,36.1,4.1s31.7,14.1,31.7,31.7C67.7,53.2,53.6,67.4,36.1,67.4z"/>
<path id="_x2E_svg_2730_" fill="#3F3E3F" d="M41.9,20.9c0,0-3.7-1-6-1.1C35.8,19.9,38.4,21.1,41.9,20.9z"/>
<polygon id="_x2E_svg_2729_" fill="#E5D09E" points="11.1,53 62.6,45.2 44,60.4 "/>
<polygon id="_x2E_svg_2728_" fill="#C1967D" points="11.1,53 11.1,57.3 44.1,64.8 44,60.4 "/>
<polygon id="_x2E_svg_2727_" fill="#CCB27A" points="44.1,64.8 62.6,53.6 62.6,49.2 44,60.4 "/>
<ellipse id="_x2E_svg_2726_" fill="#9C4343" cx="25.5" cy="55.1" rx="14.1" ry="3"/>
<ellipse id="_x2E_svg_2725_" fill="#FFFFFF" cx="14.4" cy="54.5" rx="1" ry="0.3"/>
<ellipse id="_x2E_svg_2724_" fill="#FFFFFF" cx="15.6" cy="55.7" rx="1" ry="0.3"/>
<ellipse id="_x2E_svg_2723_" fill="#FFFFFF" cx="18.1" cy="53.9" rx="1" ry="0.3"/>
<ellipse id="_x2E_svg_2722_" fill="#FFFFFF" cx="35.9" cy="55" rx="1" ry="0.3"/>
<ellipse id="_x2E_svg_2721_" fill="#FFFFFF" cx="29.4" cy="53.3" rx="1" ry="0.3"/>
<ellipse id="_x2E_svg_2720_" fill="#FFFFFF" cx="19.5" cy="56.3" rx="1" ry="0.3"/>
<ellipse id="_x2E_svg_2719_" fill="#FFFFFF" cx="17.9" cy="55.1" rx="1" ry="0.3"/>
<ellipse id="_x2E_svg_2718_" fill="#FFFFFF" cx="26.8" cy="54.8" rx="1" ry="0.3"/>
<ellipse id="_x2E_svg_2717_" fill="#FFFFFF" cx="24.7" cy="57" rx="1" ry="0.3"/>
<ellipse id="_x2E_svg_2716_" fill="#FFFFFF" cx="22.7" cy="55.9" rx="1" ry="0.3"/>
<ellipse id="_x2E_svg_2715_" fill="#FFFFFF" cx="31.7" cy="54.5" rx="1" ry="0.3"/>
<ellipse id="_x2E_svg_2714_" fill="#FFFFFF" cx="33.4" cy="56" rx="1" ry="0.3"/>
<ellipse id="_x2E_svg_2713_" fill="#FFFFFF" cx="21.3" cy="53.3" rx="1" ry="0.3"/>
<ellipse id="_x2E_svg_2712_" fill="#FFFFFF" cx="24.7" cy="53.6" rx="1" ry="0.3"/>
<ellipse id="_x2E_svg_2711_" fill="#FFFFFF" cx="28.6" cy="56.8" rx="1" ry="0.3"/>
<ellipse id="_x2E_svg_2710_" fill="#9C4343" cx="38.4" cy="57" rx="14.1" ry="3"/>
<ellipse id="_x2E_svg_2709_" fill="#FFFFFF" cx="27.3" cy="56.4" rx="1" ry="0.3"/>
<ellipse id="_x2E_svg_2708_" fill="#FFFFFF" cx="28.5" cy="57.6" rx="1" ry="0.3"/>
<ellipse id="_x2E_svg_2707_" fill="#FFFFFF" cx="31" cy="55.8" rx="1" ry="0.3"/>
<ellipse id="_x2E_svg_2706_" fill="#FFFFFF" cx="48.8" cy="56.8" rx="1" ry="0.3"/>
<ellipse id="_x2E_svg_2705_" fill="#FFFFFF" cx="42.3" cy="55.2" rx="1" ry="0.3"/>
<ellipse id="_x2E_svg_2704_" fill="#FFFFFF" cx="32.4" cy="58.2" rx="1" ry="0.3"/>
<ellipse id="_x2E_svg_2703_" fill="#FFFFFF" cx="30.8" cy="57" rx="1" ry="0.3"/>
<ellipse id="_x2E_svg_2702_" fill="#FFFFFF" cx="39.7" cy="56.7" rx="1" ry="0.3"/>
<ellipse id="_x2E_svg_2701_" fill="#FFFFFF" cx="37.6" cy="58.8" rx="1" ry="0.3"/>
<ellipse id="_x2E_svg_2700_" fill="#FFFFFF" cx="35.5" cy="57.8" rx="1" ry="0.3"/>
<ellipse id="_x2E_svg_2699_" fill="#FFFFFF" cx="44.6" cy="56.4" rx="1" ry="0.3"/>
<ellipse id="_x2E_svg_2698_" fill="#FFFFFF" cx="46.3" cy="57.9" rx="1" ry="0.3"/>
<ellipse id="_x2E_svg_2697_" fill="#FFFFFF" cx="34.2" cy="55.2" rx="1" ry="0.3"/>
<ellipse id="_x2E_svg_2696_" fill="#FFFFFF" cx="37.6" cy="55.5" rx="1" ry="0.3"/>
<ellipse id="_x2E_svg_2695_" fill="#FFFFFF" cx="41.4" cy="58.7" rx="1" ry="0.3"/>
<ellipse id="_x2E_svg_2694_" fill="#9C4343" cx="48.8" cy="53" rx="14.1" ry="3"/>
<ellipse id="_x2E_svg_2693_" fill="#FFFFFF" cx="37.7" cy="52.4" rx="1" ry="0.3"/>
<ellipse id="_x2E_svg_2692_" fill="#FFFFFF" cx="39" cy="53.6" rx="1" ry="0.3"/>
<ellipse id="_x2E_svg_2691_" fill="#FFFFFF" cx="41.4" cy="51.8" rx="1" ry="0.3"/>
<ellipse id="_x2E_svg_2690_" fill="#FFFFFF" cx="59.3" cy="52.8" rx="1" ry="0.3"/>
<ellipse id="_x2E_svg_2689_" fill="#FFFFFF" cx="52.7" cy="51.2" rx="1" ry="0.3"/>
<ellipse id="_x2E_svg_2688_" fill="#FFFFFF" cx="42.9" cy="54.2" rx="1" ry="0.3"/>
<ellipse id="_x2E_svg_2687_" fill="#FFFFFF" cx="41.3" cy="53" rx="1" ry="0.3"/>
<ellipse id="_x2E_svg_2686_" fill="#FFFFFF" cx="50.2" cy="52.7" rx="1" ry="0.3"/>
<ellipse id="_x2E_svg_2685_" fill="#FFFFFF" cx="48.1" cy="54.8" rx="1" ry="0.3"/>
<ellipse id="_x2E_svg_2684_" fill="#FFFFFF" cx="46" cy="53.8" rx="1" ry="0.3"/>
<ellipse id="_x2E_svg_2683_" fill="#FFFFFF" cx="55" cy="52.4" rx="1" ry="0.3"/>
<ellipse id="_x2E_svg_2682_" fill="#FFFFFF" cx="56.7" cy="53.9" rx="1" ry="0.3"/>
<ellipse id="_x2E_svg_2681_" fill="#FFFFFF" cx="44.6" cy="51.2" rx="1" ry="0.3"/>
<ellipse id="_x2E_svg_2680_" fill="#FFFFFF" cx="48.1" cy="51.5" rx="1" ry="0.3"/>
<ellipse id="_x2E_svg_2679_" fill="#FFFFFF" cx="51.9" cy="54.7" rx="1" ry="0.3"/>
<path id="_x2E_svg_2678_" fill="#84B841" d="M11.6,49.5c0,0-4.8-2-5.4,2.4s2.1,1,4.8,1.7c2.7,0.7,4.1,3.7,5.9,2
	c1.8-1.7,4.9-3.2,8.8-2c3.9,1.2,2,3.9,6.9,2.7c4.9-1.2,10,2.5,10,2.5s11.6-4.6,13.3-4.9c1.7-0.2,9.9-6.5,10.1-7.5
	c0.2-1-2.1-1.6-3-1.6c-0.9,0-10.9,3.6-11.6,3.1c-0.7-0.5-17.9-2.2-22.4-1.5C24.6,47.1,13.9,50,11.6,49.5z"/>
<path id="_x2E_svg_2677_" fill="#BACC72" d="M47.9,56.7c2.8-1.1-5.3,2-5.3,2s-5.1-3.7-10-2.5c-4.9,1.2-3-1.5-6.9-2.7
	c-3.9-1.2-7,0.3-8.8,2c-1.8,1.7-3.2-1.3-5.9-2c-2.7-0.7-5.3,2.7-4.8-1.7c0.2-1.7,1-2.4,2-2.7c0,0-1.7,2.4,0.6,2.6
	c2.3,0.2,5.4,1.3,6.1,2.8c0.8,1.5,1.9-3.9,9.3-3.8c7.4,0.1,7.8,3.8,7.8,3.8s5.7-3.4,10.6,1.6C42.6,56.2,45,57.7,47.9,56.7z"/>
<path id="_x2E_svg_2676_" fill="#BACC72" d="M43.1,57.2L64.5,48c0,0-4.3,3.8-7.7,5.6c-3.4,1.7-12.2,4.1-14.2,5.2L43.1,57.2z"/>
<polygon id="_x2E_svg_2675_" fill="#FBB040" points="9.6,46.6 9.6,50.6 40.3,55.7 63.6,48.2 63.6,45.2 40.5,53 "/>
<polygon id="_x2E_svg_2674_" fill="#F29923" points="9.6,46.6 38.7,42.7 63.6,45.2 40.5,53 "/>
<ellipse id="_x2E_svg_2673_" fill="#9C4343" cx="24.5" cy="45.9" rx="14.1" ry="3"/>
<ellipse id="_x2E_svg_2672_" fill="#FFFFFF" cx="13.4" cy="43.4" rx="1" ry="0.3"/>
<ellipse id="_x2E_svg_2671_" fill="#FFFFFF" cx="14.6" cy="46.6" rx="1" ry="0.3"/>
<ellipse id="_x2E_svg_2670_" fill="#FFFFFF" cx="17.1" cy="42.7" rx="1" ry="0.3"/>
<ellipse id="_x2E_svg_2669_" fill="#FFFFFF" cx="34.9" cy="43.8" rx="1" ry="0.3"/>
<ellipse id="_x2E_svg_2668_" fill="#FFFFFF" cx="28.4" cy="42.1" rx="1" ry="0.3"/>
<ellipse id="_x2E_svg_2667_" fill="#FFFFFF" cx="18.5" cy="47.2" rx="1" ry="0.3"/>
<ellipse id="_x2E_svg_2666_" fill="#FFFFFF" cx="16.9" cy="43.9" rx="1" ry="0.3"/>
<ellipse id="_x2E_svg_2665_" fill="#FFFFFF" cx="25.8" cy="43.7" rx="1" ry="0.3"/>
<ellipse id="_x2E_svg_2664_" fill="#FFFFFF" cx="23.7" cy="45.8" rx="1" ry="0.3"/>
<ellipse id="_x2E_svg_2663_" fill="#FFFFFF" cx="21.7" cy="46.8" rx="1" ry="0.3"/>
<ellipse id="_x2E_svg_2662_" fill="#FFFFFF" cx="30.7" cy="43.4" rx="1" ry="0.3"/>
<ellipse id="_x2E_svg_2661_" fill="#FFFFFF" cx="32.4" cy="44.9" rx="1" ry="0.3"/>
<ellipse id="_x2E_svg_2660_" fill="#FFFFFF" cx="20.3" cy="42.1" rx="1" ry="0.3"/>
<ellipse id="_x2E_svg_2659_" fill="#FFFFFF" cx="23.7" cy="42.4" rx="1" ry="0.3"/>
<ellipse id="_x2E_svg_2658_" fill="#FFFFFF" cx="27.6" cy="45.7" rx="1" ry="0.3"/>
<ellipse id="_x2E_svg_2657_" fill="#9C4343" cx="37.4" cy="47.8" rx="14.1" ry="3"/>
<ellipse id="_x2E_svg_2656_" fill="#FFFFFF" cx="26.3" cy="45.2" rx="1" ry="0.3"/>
<ellipse id="_x2E_svg_2655_" fill="#FFFFFF" cx="27.5" cy="48.4" rx="1" ry="0.3"/>
<ellipse id="_x2E_svg_2654_" fill="#FFFFFF" cx="30" cy="44.6" rx="1" ry="0.3"/>
<ellipse id="_x2E_svg_2653_" fill="#FFFFFF" cx="47.8" cy="45.7" rx="1" ry="0.3"/>
<ellipse id="_x2E_svg_2652_" fill="#FFFFFF" cx="41.3" cy="44" rx="1" ry="0.3"/>
<ellipse id="_x2E_svg_2651_" fill="#FFFFFF" cx="31.4" cy="49.1" rx="1" ry="0.3"/>
<ellipse id="_x2E_svg_2650_" fill="#FFFFFF" cx="29.8" cy="45.8" rx="1" ry="0.3"/>
<ellipse id="_x2E_svg_2649_" fill="#FFFFFF" cx="38.7" cy="45.6" rx="1" ry="0.3"/>
<ellipse id="_x2E_svg_2648_" fill="#FFFFFF" cx="36.6" cy="49.7" rx="1" ry="0.3"/>
<ellipse id="_x2E_svg_2647_" fill="#FFFFFF" cx="34.5" cy="48.6" rx="1" ry="0.3"/>
<ellipse id="_x2E_svg_2646_" fill="#FFFFFF" cx="43.6" cy="45.2" rx="1" ry="0.3"/>
<ellipse id="_x2E_svg_2645_" fill="#FFFFFF" cx="45.3" cy="48.8" rx="1" ry="0.3"/>
<ellipse id="_x2E_svg_2644_" fill="#FFFFFF" cx="33.2" cy="44" rx="1" ry="0.3"/>
<ellipse id="_x2E_svg_2643_" fill="#FFFFFF" cx="36.6" cy="44.3" rx="1" ry="0.3"/>
<ellipse id="_x2E_svg_2642_" fill="#FFFFFF" cx="40.4" cy="49.6" rx="1" ry="0.3"/>
<ellipse id="_x2E_svg_2641_" fill="#9C4343" cx="47.8" cy="43.8" rx="14.1" ry="3"/>
<ellipse id="_x2E_svg_2640_" fill="#FFFFFF" cx="36.7" cy="41.2" rx="1" ry="0.3"/>
<ellipse id="_x2E_svg_2639_" fill="#FFFFFF" cx="38" cy="42.4" rx="1" ry="0.3"/>
<ellipse id="_x2E_svg_2638_" fill="#FFFFFF" cx="40.4" cy="40.6" rx="1" ry="0.3"/>
<ellipse id="_x2E_svg_2637_" fill="#FFFFFF" cx="58.3" cy="41.7" rx="1" ry="0.3"/>
<ellipse id="_x2E_svg_2636_" fill="#FFFFFF" cx="51.7" cy="40" rx="1" ry="0.3"/>
<ellipse id="_x2E_svg_2635_" fill="#FFFFFF" cx="41.9" cy="43.1" rx="1" ry="0.3"/>
<ellipse id="_x2E_svg_2634_" fill="#FFFFFF" cx="40.3" cy="41.8" rx="1" ry="0.3"/>
<ellipse id="_x2E_svg_2633_" fill="#FFFFFF" cx="49.2" cy="41.5" rx="1" ry="0.3"/>
<ellipse id="_x2E_svg_2632_" fill="#FFFFFF" cx="47.1" cy="43.7" rx="1" ry="0.3"/>
<ellipse id="_x2E_svg_2631_" fill="#FFFFFF" cx="45" cy="42.6" rx="1" ry="0.3"/>
<ellipse id="_x2E_svg_2630_" fill="#FFFFFF" cx="54" cy="41.2" rx="1" ry="0.3"/>
<ellipse id="_x2E_svg_2629_" fill="#FFFFFF" cx="55.7" cy="44.8" rx="1" ry="0.3"/>
<ellipse id="_x2E_svg_2628_" fill="#FFFFFF" cx="43.6" cy="40" rx="1" ry="0.3"/>
<ellipse id="_x2E_svg_2627_" fill="#FFFFFF" cx="47.1" cy="40.3" rx="1" ry="0.3"/>
<ellipse id="_x2E_svg_2626_" fill="#FFFFFF" cx="50.9" cy="43.6" rx="1" ry="0.3"/>
<path id="_x2E_svg_2625_" fill="#C42129" d="M34,43.8c0,1.1-6.4,2.1-14.4,2.1S5.2,44.9,5.2,43.8v-2H34V43.8z"/>
<ellipse id="_x2E_svg_2624_" fill="#CF4450" cx="19.6" cy="41.8" rx="14.4" ry="2.1"/>
<path id="_x2E_svg_2623_" fill="#C42129" d="M52.3,45.8c0,1.1-6.4,2.1-14.4,2.1s-14.4-0.9-14.4-2.1v-2h28.8V45.8z"/>
<ellipse id="_x2E_svg_2622_" fill="#CF4450" cx="37.9" cy="42.8" rx="14.4" ry="2.1"/>
<path id="_x2E_svg_2621_" fill="#C42129" d="M60,42.7c0,1.1-6.4,2.1-14.4,2.1s-14.4-0.9-14.4-2.1v-2H60V42.7z"/>
<path id="_x2E_svg_2620_" fill="#E5A3AC" d="M16,40.7c-0.5,0-8.7,0.5-8.7,0.9c0,0.4,1.1,1.1,2.6,1.2L16,40.7z"/>
<path id="_x2E_svg_2619_" fill="#E5A3AC" d="M16.7,41.2c-0.4,0.1-4.7,1.9-4.7,1.9s4.8,0.7,5.8,0.3L16.7,41.2z"/>
<path id="_x2E_svg_2618_" fill="#E5A3AC" d="M18.9,43.4c0.4-0.1,4.8-1.8,4.8-1.8S19,40.8,18,41.3L18.9,43.4z"/>
<ellipse id="_x2E_svg_2617_" fill="#CF4450" cx="45.6" cy="38.7" rx="14.4" ry="2.1"/>
<path id="_x2E_svg_2616_" fill="#84B841" d="M62.9,37.7c0,0,5-2,5.6,2.4c0.5,4.4-2.2,1-5,1.7c-2.8,0.7-4.2,3.7-6.1,2s-5.2-3.2-9.2-2
	c-4,1.2-2.1,3.9-7.2,2.7c-5.1-1.2-10.4,2.5-10.4,2.5s-12.1-4.6-13.9-4.9C15,41.8,6.4,35.6,6.2,34.6c-0.2-1,2.2-1.6,3.1-1.6
	c0.9,0,11.3,3.6,12.1,3.1c0.7-0.5,18.6-2.2,23.3-1.5C49.4,35.3,60.5,38.2,62.9,37.7z"/>
<path id="_x2E_svg_2615_" fill="#BACC72" d="M25.1,44.9c-2.9-1.1,5.5,2,5.5,2s5.3-3.7,10.4-2.5c5.1,1.2,3.2-1.5,7.2-2.7
	c4-1.2,7.3,0.3,9.2,2s3.3-1.3,6.1-2c2.8-0.7,5.6,2.7,5-1.7c-0.2-1.7-1.1-2.4-2.1-2.7c0,0,1.8,2.4-0.6,2.6c-2.4,0.2-5.6,1.3-6.4,2.8
	c-0.8,1.5-2-3.9-9.7-3.8c-7.7,0.1-8.1,3.8-8.1,3.8s-6-3.4-11.1,1.6C30.6,44.4,28,45.9,25.1,44.9z"/>
<ellipse id="_x2E_svg_2614_" fill="#9C4343" cx="25.5" cy="39" rx="14.1" ry="3"/>
<ellipse id="_x2E_svg_2613_" fill="#FFFFFF" cx="14.4" cy="38.4" rx="1" ry="0.3"/>
<ellipse id="_x2E_svg_2612_" fill="#FFFFFF" cx="15.6" cy="39.6" rx="1" ry="0.3"/>
<ellipse id="_x2E_svg_2611_" fill="#FFFFFF" cx="18.1" cy="37.8" rx="1" ry="0.3"/>
<ellipse id="_x2E_svg_2610_" fill="#FFFFFF" cx="35.9" cy="38.9" rx="1" ry="0.3"/>
<ellipse id="_x2E_svg_2609_" fill="#FFFFFF" cx="29.4" cy="37.2" rx="1" ry="0.3"/>
<ellipse id="_x2E_svg_2608_" fill="#FFFFFF" cx="19.5" cy="40.3" rx="1" ry="0.3"/>
<ellipse id="_x2E_svg_2607_" fill="#FFFFFF" cx="17.9" cy="39" rx="1" ry="0.3"/>
<ellipse id="_x2E_svg_2606_" fill="#FFFFFF" cx="26.8" cy="38.7" rx="1" ry="0.3"/>
<ellipse id="_x2E_svg_2605_" fill="#FFFFFF" cx="24.7" cy="40.9" rx="1" ry="0.3"/>
<ellipse id="_x2E_svg_2604_" fill="#FFFFFF" cx="22.7" cy="39.8" rx="1" ry="0.3"/>
<ellipse id="_x2E_svg_2603_" fill="#FFFFFF" cx="31.7" cy="38.4" rx="1" ry="0.3"/>
<ellipse id="_x2E_svg_2602_" fill="#FFFFFF" cx="33.4" cy="39.9" rx="1" ry="0.3"/>
<ellipse id="_x2E_svg_2601_" fill="#FFFFFF" cx="21.3" cy="37.2" rx="1" ry="0.3"/>
<ellipse id="_x2E_svg_2600_" fill="#FFFFFF" cx="24.7" cy="37.5" rx="1" ry="0.3"/>
<ellipse id="_x2E_svg_2599_" fill="#FFFFFF" cx="28.6" cy="40.7" rx="1" ry="0.3"/>
<ellipse id="_x2E_svg_2598_" fill="#9C4343" cx="38.4" cy="40.9" rx="14.1" ry="3"/>
<ellipse id="_x2E_svg_2597_" fill="#FFFFFF" cx="27.3" cy="40.3" rx="1" ry="0.3"/>
<ellipse id="_x2E_svg_2596_" fill="#FFFFFF" cx="28.5" cy="41.5" rx="1" ry="0.3"/>
<ellipse id="_x2E_svg_2595_" fill="#FFFFFF" cx="31" cy="39.7" rx="1" ry="0.3"/>
<ellipse id="_x2E_svg_2594_" fill="#FFFFFF" cx="48.8" cy="40.7" rx="1" ry="0.3"/>
<ellipse id="_x2E_svg_2593_" fill="#FFFFFF" cx="42.3" cy="39.1" rx="1" ry="0.3"/>
<ellipse id="_x2E_svg_2592_" fill="#FFFFFF" cx="32.4" cy="42.1" rx="1" ry="0.3"/>
<ellipse id="_x2E_svg_2591_" fill="#FFFFFF" cx="30.8" cy="40.9" rx="1" ry="0.3"/>
<ellipse id="_x2E_svg_2590_" fill="#FFFFFF" cx="39.7" cy="40.6" rx="1" ry="0.3"/>
<ellipse id="_x2E_svg_2589_" fill="#FFFFFF" cx="37.6" cy="42.7" rx="1" ry="0.3"/>
<ellipse id="_x2E_svg_2588_" fill="#FFFFFF" cx="35.5" cy="41.7" rx="1" ry="0.3"/>
<ellipse id="_x2E_svg_2587_" fill="#FFFFFF" cx="44.6" cy="40.3" rx="1" ry="0.3"/>
<ellipse id="_x2E_svg_2586_" fill="#FFFFFF" cx="46.3" cy="41.8" rx="1" ry="0.3"/>
<ellipse id="_x2E_svg_2585_" fill="#FFFFFF" cx="39.6" cy="48.1" rx="1" ry="0.3"/>
<ellipse id="_x2E_svg_2584_" fill="#FFFFFF" cx="34.2" cy="39.1" rx="1" ry="0.3"/>
<ellipse id="_x2E_svg_2583_" fill="#FFFFFF" cx="37.6" cy="39.4" rx="1" ry="0.3"/>
<ellipse id="_x2E_svg_2582_" fill="#FFFFFF" cx="41.4" cy="42.6" rx="1" ry="0.3"/>
<ellipse id="_x2E_svg_2581_" fill="#9C4343" cx="48.8" cy="36.9" rx="14.1" ry="3"/>
<ellipse id="_x2E_svg_2580_" fill="#FFFFFF" cx="37.7" cy="36.3" rx="1" ry="0.3"/>
<ellipse id="_x2E_svg_2579_" fill="#FFFFFF" cx="39" cy="37.5" rx="1" ry="0.3"/>
<ellipse id="_x2E_svg_2578_" fill="#FFFFFF" cx="41.4" cy="35.7" rx="1" ry="0.3"/>
<ellipse id="_x2E_svg_2577_" fill="#FFFFFF" cx="59.3" cy="36.7" rx="1" ry="0.3"/>
<ellipse id="_x2E_svg_2576_" fill="#FFFFFF" cx="52.7" cy="35.1" rx="1" ry="0.3"/>
<ellipse id="_x2E_svg_2575_" fill="#FFFFFF" cx="42.9" cy="38.1" rx="1" ry="0.3"/>
<ellipse id="_x2E_svg_2574_" fill="#FFFFFF" cx="41.3" cy="36.9" rx="1" ry="0.3"/>
<ellipse id="_x2E_svg_2573_" fill="#FFFFFF" cx="50.2" cy="36.6" rx="1" ry="0.3"/>
<ellipse id="_x2E_svg_2572_" fill="#FFFFFF" cx="48.1" cy="38.7" rx="1" ry="0.3"/>
<ellipse id="_x2E_svg_2571_" fill="#FFFFFF" cx="46" cy="37.7" rx="1" ry="0.3"/>
<ellipse id="_x2E_svg_2570_" fill="#FFFFFF" cx="55" cy="36.3" rx="1" ry="0.3"/>
<ellipse id="_x2E_svg_2569_" fill="#FFFFFF" cx="56.7" cy="37.8" rx="1" ry="0.3"/>
<ellipse id="_x2E_svg_2568_" fill="#FFFFFF" cx="44.6" cy="35.1" rx="1" ry="0.3"/>
<ellipse id="_x2E_svg_2567_" fill="#FFFFFF" cx="48.1" cy="35.4" rx="1" ry="0.3"/>
<ellipse id="_x2E_svg_2566_" fill="#FFFFFF" cx="51.9" cy="38.6" rx="1" ry="0.3"/>
<path id="_x2E_svg_2565_" fill="#84B841" d="M9.3,33.4c0,0-5-2-5.6,2.4s2.2,1,5,1.7c2.8,0.7,4.2,3.7,6.1,2c1.9-1.7,5.2-3.2,9.2-2
	c4,1.2,2.1,3.9,7.2,2.7c5.1-1.2,10.4,2.5,10.4,2.5s12.1-4.6,13.9-4.9c1.7-0.2,10.3-6.5,10.5-7.5c0.2-1-2.2-1.6-3.1-1.6
	c-0.9,0-11.3,3.6-12.1,3.1c-0.7-0.5-18.6-2.2-23.3-1.5C22.8,31,11.7,33.9,9.3,33.4z"/>
<path id="_x2E_svg_2564_" fill="#BACC72" d="M47.1,40.6c2.9-1.1-5.5,2-5.5,2s-5.3-3.7-10.4-2.5c-5.1,1.2-3.2-1.5-7.2-2.7
	c-4-1.2-7.3,0.3-9.2,2c-1.9,1.7-3.3-1.3-6.1-2c-2.8-0.7-5.6,2.7-5-1.7c0.2-1.7,1.1-2.4,2.1-2.7c0,0-1.8,2.4,0.6,2.6
	c2.4,0.2,5.6,1.3,6.4,2.8c0.8,1.5,2-3.9,9.7-3.8c7.7,0.1,8.1,3.8,8.1,3.8s6-3.4,11.1,1.6C41.6,40.1,44.2,41.6,47.1,40.6z"/>
<path id="_x2E_svg_2563_" fill="#BACC72" d="M42.1,41.1l22.3-9.2c0,0-4.4,3.8-8.1,5.6c-3.5,1.7-12.7,4.1-14.8,5.2L42.1,41.1z"/>
<polygon id="_x2E_svg_2562_" fill="#FBB040" points="9.6,28.5 9.6,32.5 40.3,37.6 63.6,30.1 63.6,27.1 40.5,34.9 "/>
<polygon id="_x2E_svg_2561_" fill="#F29923" points="9.6,28.5 38.7,24.6 63.6,27.1 40.5,34.9 "/>
<polygon id="_x2E_svg_2560_" fill="#E5D09E" points="8.5,23 60,21.6 41.4,30.4 "/>
<polygon id="_x2E_svg_2558_" fill="#C1967D" points="8.5,23 8.5,27.3 41.5,34.8 41.4,30.4 "/>
<polygon id="_x2E_svg_2557_" fill="#CCB27A" points="41.5,34.8 60,25.9 60,21.6 41.4,30.4 "/>
<path id="_x2E_svg_2556_" fill="#E5A3AC" d="M36.7,26l4.4-17c0,0,1.3-0.2,2.3,0l-6.1,17H36.7z"/>
<polygon id="_x2E_svg_2555_" fill="#CCB27A" points="37.2,26 49.1,26.8 47.1,27.7 36.7,26 "/>
<circle id="_x2E_svg_2554_" fill="#FBB040" cx="41.3" cy="12.6" r="4.9"/>
<path id="_x2E_svg_2553_" d="M37.6,18.2l-1.5,0.3c0,0,2.3,1.9,5.9,1.2l-0.9-0.9C41.1,18.8,39.2,18.8,37.6,18.2z"/>
<path id="_x2E_svg_2552_" d="M35.8,19.9l-2.5,0.2c0,0,4,2.4,10.1,2l-1.5-1.1C41.9,20.9,38.6,20.8,35.8,19.9z"/>
<path id="_x2E_svg_2475_" fill="#F9C785" d="M39,10.1c-0.5,0.7-0.6,1.4-0.9,1.3c-0.8-0.3-0.5-1.3-0.1-2c0.5-0.7,1.1-1,1.8-0.5
	C40.6,9.4,39.5,9.4,39,10.1z"/>
<g>
</g>
<g>
</g>
<g>
</g>
<g>
</g>
<g>
</g>
<g>
</g>
<g>
</g>
<g>
</g>
<g>
</g>
<g>
</g>
<g>
</g>
<g>
</g>
<g>
</g>
<g>
</g>
<g>
</g>
</svg>
