<?xml version="1.0" encoding="utf-8"?>
<!-- Generator: Adobe Illustrator 18.1.1, SVG Export Plug-In . SVG Version: 6.00 Build 0)  -->
<svg version="1.1" id="Layer_1" xmlns="http://www.w3.org/2000/svg" xmlns:xlink="http://www.w3.org/1999/xlink" x="0px" y="0px"
	 viewBox="0 0 72 72" enable-background="new 0 0 72 72" xml:space="preserve">
<circle id="_x2E_svg_7387_" fill="#A685BD" cx="36.2" cy="35.6" r="33.2"/>
<circle id="_x2E_svg_6940_" fill="#794D9A" cx="36.2" cy="36.6" r="26"/>
<path id="_x2E_svg_7395_" fill="#5D5D5F" d="M55.2,62.8h-39c-1.5,0-2.7-1.2-2.7-2.7v-33c0-1.5,1.2-2.7,2.7-2.7h39
	c1.5,0,2.7,1.2,2.7,2.7v33C57.8,61.6,56.6,62.8,55.2,62.8z"/>
<path id="_x2E_svg_7394_" fill="#3F3E3F" d="M55.2,59.8H19.4c-3.5,0-3.7-2.2-3.7-3.7V27.2c0-1.5,1.2-2.7,2.7-2.7h-2.2
	c-1.5,0-2.7,1.2-2.7,2.7v33c0,1.5,1.2,2.7,2.7,2.7h39c1.5,0,2.7-1.2,2.7-2.7v-4.1C57.8,57.6,56.6,59.8,55.2,59.8z"/>
<path id="_x2E_svg_7393_" fill="#FBB040" d="M48.7,53.8H22.6c-1.5,0-2.7-1.2-2.7-2.7V32.5c0-1.5,1.2-2.7,2.7-2.7h26.2
	c1.5,0,2.7,1.2,2.7,2.7v18.6C51.4,52.6,50.2,53.8,48.7,53.8z"/>
<path id="_x2E_svg_7392_" fill="#D78E2F" d="M49,52.4H23.6c-1.3,0-2.4-1.1-2.4-2.4V32.2c0-1.3,1.1-2.4,2.4-2.4h-1.4
	c-1.3,0-2.4,1.1-2.4,2.4v19.2c0,1.3,1.1,2.4,2.4,2.4H49c1.3,0,2.4-1.1,2.4-2.4v-1.4C51.4,51.4,50.3,52.4,49,52.4z"/>
<path id="_x2E_svg_7391_" fill="#5D5D5F" d="M17.9,24.5c0,0,2.3,3.9,15.7,3.2c11.9-0.6,14.2-1.9,14.2-1.9S21.2,24.1,17.9,24.5z"/>
<path id="_x2E_svg_7386_" fill="#EACB46" d="M0,36c0,19.9,16.1,36,36,36s36-16.1,36-36C72,16.1,55.9,0,36,0S0,16.1,0,36z M4.4,35.7
	C4.4,18.2,18.5,4.1,36,4.1s31.6,14.1,31.6,31.6c0,17.5-14.1,31.6-31.6,31.6S4.4,53.1,4.4,35.7z"/>
<path id="_x2E_svg_7390_" fill="#3F3E3F" d="M10.3,23.1l4.2-2.2v3l3.1-0.5c0,0,3,3.5,9.8,3.9s20.1,0.2,24.8-3.2l2.5-1.4l3,1.5l5.8-1
	l-4.5-0.8L56,19.6l-7.7,2.5l0.8-1.9h-1.7l0.3-0.6c0,0-6.1-4.8-7.5-8.6s-5.7-9.5-5.7-9.5s-1.2,7.1-2.7,8.1c-1.5,1-5.9,7-6.4,10
	l-1.2,1.1l0.9,1.1l-1.4,0.4c0,0-2.7,1.8-4.6-0.6l-3.4,0.9l-0.7-3L10.3,23.1z"/>
<path id="_x2E_svg_7389_" fill="#3F3E3F" d="M34.6,1.5c0,0-1.9-0.9-3.4,0.3s0.5,3.7-1.7,5.4c0,0,2.9-1.2,3.1-3.4
	c0.2-2.2,1.2,3.6,1.2,3.6S35.9,4.2,34.6,1.5z"/>
<circle id="_x2E_svg_7388_" fill="#3F3E3F" cx="23.9" cy="57.8" r="2.7"/>
<circle id="_x2E_svg_7385_" fill="#3F3E3F" cx="46.6" cy="57.8" r="2.7"/>
<circle id="_x2E_svg_7384_" fill="#CCCCCB" cx="23.9" cy="57.8" r="1.5"/>
<circle id="_x2E_svg_7383_" fill="#CCCCCB" cx="46.6" cy="57.8" r="1.5"/>
<path id="_x2E_svg_7382_" fill="#F9CE95" d="M49.8,33.1c0.5,1.5,0.3,3-0.5,3.2s-0.4-1.2-0.9-2.8c-0.5-1.5-1.7-2.5-0.9-2.8
	S49.3,31.5,49.8,33.1z"/>
<circle id="_x2E_svg_7381_" fill="#F9CE95" cx="48.7" cy="37.8" r="0.8"/>
<path id="_x2E_svg_7380_" fill="#3F3E3F" d="M38.1,35.6l0.9-0.5l-0.5-2l1.9,2.6c0,0,0.4,0.1,0.5,0.3c0,0,4.5-1.4,2.2-4.6
	c0,0,5.2,2.1,2.6,8.8c0,0-0.7-2-1.3-2c-0.6-0.1-1,1.8-1,1.8s-0.8-0.5-1.1-0.4s0,1.5,0.9,2c0,0-1.3-0.1-2.2-0.9c0,0-0.6,0.2-0.5,0.7
	c0,0-1-0.8-1.9-0.4s-1.8,2.4,0.2,3.4c0,0-6.6-0.4-6.1-8.6c0,0,2.7,4.5,5.2,1.7c0,0-0.1-0.3,0.1-0.4l-1.5-3L38.1,35.6z"/>
<path id="_x2E_svg_7379_" fill="#3F3E3F" d="M29.8,44.5l0.7,0.2l0.8-1.1l-0.5,2c0,0,0.1,0.2,0.1,0.3c0,0,2.6,1.7,3.3-0.9
	c0,0,1.2,3.5-3.3,5.1c0,0,0.7-1.2,0.4-1.5C31,48.3,30,49,30,49s-0.1-0.6-0.3-0.8s-0.8,0.7-0.6,1.3c0,0-0.5-0.7-0.5-1.5
	c0,0-0.4-0.2-0.6,0.1c0,0,0-0.8-0.6-1.1c-0.6-0.3-1.9,0.1-1.6,1.6c0,0-2.6-3.5,1.7-6.8c0,0-1.1,3.3,1.4,3.4c0,0,0.1-0.1,0.2-0.1
	l0.9-2L29.8,44.5z"/>
<g>
</g>
<g>
</g>
<g>
</g>
<g>
</g>
<g>
</g>
<g>
</g>
<g>
</g>
<g>
</g>
<g>
</g>
<g>
</g>
<g>
</g>
<g>
</g>
<g>
</g>
<g>
</g>
<g>
</g>
</svg>
