<?xml version="1.0" encoding="utf-8"?>
<!-- Generator: Adobe Illustrator 18.1.1, SVG Export Plug-In . SVG Version: 6.00 Build 0)  -->
<svg version="1.1" id="Layer_1" xmlns="http://www.w3.org/2000/svg" xmlns:xlink="http://www.w3.org/1999/xlink" x="0px" y="0px"
	 viewBox="0 0 72 72" enable-background="new 0 0 72 72" xml:space="preserve">
<g id="_x2E_svg_6503_">
	<circle id="_x2E_svg_5983_" fill="#5D5D5F" cx="36.5" cy="36.4" r="33.2"/>
</g>
<path id="_x2E_svg_6377_" fill="#CF4450" d="M0,36c0,19.9,16.1,36,36,36s36-16.1,36-36C72,16.1,55.9,0,36,0S0,16.1,0,36z M4.4,35.7
	C4.4,18.2,18.5,4.1,36,4.1s31.6,14.1,31.6,31.6c0,17.5-14.1,31.6-31.6,31.6S4.4,53.1,4.4,35.7z"/>
<g id="_x2E_svg_6386_">
	<circle fill="#3F3E3F" cx="36" cy="36" r="29"/>
	<path fill="#FFFFFF" d="M36,65.5C19.7,65.5,6.5,52.3,6.5,36S19.7,6.5,36,6.5S65.5,19.7,65.5,36S52.3,65.5,36,65.5z M36,7.5
		C20.3,7.5,7.5,20.3,7.5,36S20.3,64.5,36,64.5S64.5,51.7,64.5,36S51.7,7.5,36,7.5z"/>
</g>
<g id="_x2E_svg_6385_">
	<linearGradient id="SVGID_1_" gradientUnits="userSpaceOnUse" x1="11.4658" y1="25.5888" x2="60.7129" y2="25.5888">
		<stop  offset="0" style="stop-color:#63BC47"/>
		<stop  offset="0.5224" style="stop-color:#FED839"/>
		<stop  offset="1" style="stop-color:#ED1C24"/>
	</linearGradient>
	<path fill="url(#SVGID_1_)" d="M60.7,37.9h-4c0-11.4-9.3-20.6-20.6-20.6c-11.4,0-20.6,9.3-20.6,20.6h-4c0-13.6,11-24.6,24.6-24.6
		S60.7,24.3,60.7,37.9z"/>
</g>
<g id="_x2E_svg_6384_">
	<line fill="#3F3E3F" x1="10.6" y1="42.8" x2="37.8" y2="42.8"/>
	<path fill="#FFFFFF" d="M37.8,44.3H10.6c-0.8,0-1.5-0.7-1.5-1.5s0.7-1.5,1.5-1.5h27.2c0.8,0,1.5,0.7,1.5,1.5S38.6,44.3,37.8,44.3z"
		/>
</g>
<g id="_x2E_svg_6383_">
	<line fill="#3F3E3F" x1="55.7" y1="22.2" x2="37.8" y2="42.8"/>
	<path fill="#FFFFFF" d="M37.8,44.3c-0.3,0-0.7-0.1-1-0.4c-0.6-0.5-0.7-1.5-0.1-2.1l17.9-20.5c0.5-0.6,1.5-0.7,2.1-0.1
		c0.6,0.5,0.7,1.5,0.1,2.1L38.9,43.7C38.6,44.1,38.2,44.3,37.8,44.3z"/>
</g>
<path id="_x2E_svg_6382_" fill="#FFFFFF" d="M37.8,41.8c0,0,5.4-10.2,3.3-22.3C41.2,19.5,51.3,25.8,37.8,41.8z"/>
<path id="_x2E_svg_6381_" fill="#FFFFFF" d="M37.8,41.8c0,0,9.8-15.8-8.3-20.8C29.5,21,38.1,27.3,37.8,41.8z"/>
<path id="_x2E_svg_6380_" fill="#FFFFFF" d="M37.8,41.8c0,0,0.7-15.1-16-15.2C21.9,26.6,32.5,32.4,37.8,41.8z"/>
<path id="_x2E_svg_6379_" fill="#FFFFFF" d="M37.8,41.8c0,0-6.8-13.5-21.4-5.3C16.4,36.5,28.5,36.2,37.8,41.8z"/>
<g id="_x2E_svg_6378_">
	<path fill="#FFFFFF" d="M25.3,54.3l0.8-4.1c0.1-0.6,0.2-1.2,0.3-1.7h0.9L27,49.6h0c0.5-0.8,1.3-1.2,2-1.2c0.9,0,1.3,0.6,1.4,1.3
		c0.5-0.8,1.3-1.3,2.1-1.3c0.7,0,1.4,0.4,1.4,1.5c0,0.3,0,0.7-0.1,1l-0.6,3.4h-1l0.6-3.3c0-0.2,0.1-0.5,0.1-0.8c0-0.6-0.2-1-0.9-1
		c-0.7,0-1.6,0.8-1.8,2.1l-0.6,3h-1l0.6-3.4c0-0.3,0.1-0.5,0.1-0.7c0-0.5-0.1-1-0.9-1c-0.7,0-1.6,1-1.9,2.2l-0.5,2.9H25.3z"/>
	<path fill="#FFFFFF" d="M34.4,56.7l1.2-6.1c0.1-0.7,0.2-1.5,0.3-2.1h0.9l-0.2,1.1h0c0.5-0.8,1.3-1.2,2.1-1.2c1.3,0,1.8,1,1.8,2.1
		c0,2-1.5,4-3.4,4c-0.6,0-1-0.1-1.3-0.3h0l-0.5,2.5H34.4z M36.1,53.4c0.3,0.2,0.6,0.3,1.1,0.3c1.3,0,2.4-1.6,2.4-3.1
		c0-0.6-0.3-1.3-1.1-1.3c-0.8,0-1.8,0.9-2.1,2.5L36.1,53.4z"/>
	<path fill="#FFFFFF" d="M41.3,54.3l1.6-8.5h1l-0.7,3.7h0c0.5-0.7,1.2-1.2,2.1-1.2c0.7,0,1.4,0.4,1.4,1.6c0,0.3,0,0.7-0.1,1L46,54.3
		h-1l0.6-3.3c0-0.2,0.1-0.5,0.1-0.8c0-0.5-0.3-1-0.9-1c-0.8,0-1.7,0.9-2,2.2l-0.5,2.9H41.3z"/>
</g>
<g>
</g>
<g>
</g>
<g>
</g>
<g>
</g>
<g>
</g>
<g>
</g>
<g>
</g>
<g>
</g>
<g>
</g>
<g>
</g>
<g>
</g>
<g>
</g>
<g>
</g>
<g>
</g>
<g>
</g>
</svg>
