<?xml version="1.0" encoding="utf-8"?>
<!-- Generator: Adobe Illustrator 18.1.0, SVG Export Plug-In . SVG Version: 6.00 Build 0)  -->
<svg version="1.1" id="Layer_1" xmlns="http://www.w3.org/2000/svg" xmlns:xlink="http://www.w3.org/1999/xlink" x="0px" y="0px"
	 viewBox="0 0 72 72" enable-background="new 0 0 72 72" xml:space="preserve">
<ellipse transform="matrix(-1 4.173418e-03 -4.173418e-03 -1 73.0094 70.2783)" fill="#3F66AF" cx="36.4" cy="35.2" rx="33.8" ry="32.8"/>
<path fill="#EC1D24" d="M36,0C16.1,0,0,16.1,0,36c0,19.9,16.1,36,36,36s36-16.1,36-36C72,16.1,55.9,0,36,0z M36,67.5
	C18.6,67.5,4.5,53.4,4.5,36S18.6,4.5,36,4.5S67.5,18.6,67.5,36S53.4,67.5,36,67.5z"/>
<polygon fill="#1D4991" points="31.8,23.9 36.3,9 39.4,24.7 50.6,15.3 48.2,26.8 64.9,23.5 53.4,33.2 66.4,37.9 49.1,39.3 
	43.4,45.5 43.6,62.7 37.4,51.8 27.7,62.9 30.1,46 11.3,53.5 24,39.6 9.9,39.8 27.3,33.5 23.3,22.1 "/>
<polygon fill="#FDE500" points="32.8,23.4 38.5,9 40.3,24.8 52.3,16.4 48.9,27.7 65.8,25.7 53.6,34.4 66.2,40.1 48.8,40.1 
	42.7,45.9 41.4,63 36.1,51.7 25.6,62 29.3,45.3 10,51.3 23.8,38.5 10,37.5 27.5,32.6 23.7,16.2 "/>
<g>
	<path fill="#CDB62C" d="M44.6,55.4c-0.9,0-1.6-0.3-2.2-0.8L30.9,40.4l9.1-9.4l1.2,1.1L53,44c1.7,1.7,0.7,5.2-2.3,8.3
		C48.8,54.2,46.4,55.4,44.6,55.4C44.6,55.4,44.6,55.4,44.6,55.4z"/>
	<path fill="#FFFFFF" d="M52.3,44.7L40.4,32.8l0,0c1.3,1.3,0.2,4.3-2.3,6.8c-2.5,2.5-6,1.1-6,1.1l11.1,13.2c1.3,1.3,4.3,0.2,6.8-2.3
		C52.5,49,53.6,46,52.3,44.7z"/>
</g>
<ellipse transform="matrix(0.7071 -0.7071 0.7071 0.7071 -14.7554 36.2829)" fill="#CE2027" cx="36.4" cy="36" rx="6.5" ry="3.2"/>
<ellipse transform="matrix(0.7071 -0.7071 0.7071 0.7071 -15.4538 38.3045)" fill="#A41E22" cx="38.5" cy="37.8" rx="4.1" ry="2"/>
<path fill="#EC1D24" d="M38.6,38.2c-2.5,2.5-5.6,3.6-6.8,2.3l0,0l11.9,11.9c1.3,1.3,4.3,0.2,6.8-2.3c2.5-2.5,3.6-5.6,2.3-6.8
	L41,31.3l0,0C42.2,32.6,41.2,35.7,38.6,38.2z"/>
<g>
	<path fill="#FFFFFF" d="M51.3,42.7l-9.8-9.8c0,0.1,0,0.3,0,0.5l9.4,9.4C51,42.7,51.2,42.7,51.3,42.7z"/>
	<path fill="none" d="M52.9,43.2c-0.4-0.4-0.9-0.5-1.5-0.5l2.1,2.1C53.4,44.1,53.2,43.6,52.9,43.2z"/>
	<path fill="none" d="M46,45.5c-2.5,2.5-3.6,5.6-2.3,6.9c1.3,1.3,4.3,0.2,6.9-2.3c1.6-1.6,2.6-3.4,2.8-4.9l-2.5-2.5
		C49.4,42.9,47.6,43.9,46,45.5z"/>
	<path fill="#FFFFFF" d="M53.4,44.8l-2.1-2.1c-0.1,0-0.3,0-0.5,0l2.5,2.5C53.4,45.1,53.4,44.9,53.4,44.8z"/>
</g>
<g>
	<path fill="#FFFFFF" d="M41,35c-0.1,0.2-0.2,0.5-0.4,0.7l7.8,7.8c0.2-0.1,0.5-0.3,0.7-0.4L41,35z"/>
	<path fill="none" d="M46,45.5c-2.5,2.5-3.6,5.6-2.3,6.9c1.3,1.3,4.3,0.2,6.9-2.3c0.8-0.8,1.4-1.6,1.9-2.5l-4-4
		C47.6,44.1,46.8,44.7,46,45.5z"/>
	<path fill="none" d="M52.9,43.2c-0.7-0.7-2.1-0.7-3.7,0l3.7,3.7C53.6,45.4,53.6,44,52.9,43.2z"/>
	<path fill="#FFFFFF" d="M48.5,43.6l4,4c0.1-0.2,0.3-0.5,0.4-0.7l-3.7-3.7C49,43.3,48.7,43.5,48.5,43.6z"/>
</g>
<g>
	<path fill="#FFFFFF" d="M46.3,45.3L39,38c-0.1,0.1-0.2,0.2-0.3,0.3c-0.2,0.2-0.4,0.4-0.6,0.6l7.3,7.3c0.2-0.2,0.4-0.4,0.6-0.6
		C46.1,45.4,46.2,45.4,46.3,45.3z"/>
	<path fill="none" d="M43.7,52.4c1.2,1.2,3.9,0.4,6.3-1.8l-4.5-4.5C43.3,48.5,42.5,51.2,43.7,52.4z"/>
	<path fill="none" d="M52.9,43.2c-1.2-1.2-4.1-0.3-6.6,2.1l4.5,4.5C53.2,47.3,54.1,44.4,52.9,43.2z"/>
	<path fill="#FFFFFF" d="M46,45.5c-0.2,0.2-0.4,0.4-0.6,0.6l4.5,4.5c0.2-0.2,0.4-0.4,0.6-0.6c0.1-0.1,0.2-0.2,0.3-0.3l-4.5-4.5
		C46.2,45.4,46.1,45.4,46,45.5z"/>
</g>
<g>
	<path fill="#FFFFFF" d="M35.8,40.4c-0.3,0.1-0.5,0.2-0.8,0.3l8.5,8.5c0.1-0.2,0.2-0.5,0.3-0.8L35.8,40.4z"/>
	<path fill="none" d="M46,45.5c-0.9,0.9-1.6,1.9-2.1,2.9l3.8,3.8c1-0.5,2-1.2,2.9-2.1c2.5-2.5,3.6-5.6,2.3-6.9
		C51.6,42,48.5,43,46,45.5z"/>
	<path fill="none" d="M43.7,52.4c0.7,0.7,1.9,0.7,3.2,0.2l-3.4-3.4C43,50.5,43,51.7,43.7,52.4z"/>
	<path fill="#FFFFFF" d="M43.5,49.2l3.4,3.4c0.2-0.1,0.5-0.2,0.8-0.3l-3.8-3.8C43.7,48.7,43.6,48.9,43.5,49.2z"/>
</g>
<g>
	<path fill="#FFFFFF" d="M33.2,41.1c-0.2,0-0.4,0-0.6-0.1l10.5,10.6c0-0.2-0.1-0.4-0.1-0.6L33.2,41.1z"/>
	<path fill="none" d="M46,45.5c-1.8,1.8-2.9,4-2.8,5.5l1.9,1.9c1.5,0,3.6-1,5.5-2.8c2.5-2.5,3.6-5.6,2.3-6.9
		C51.6,42,48.5,43,46,45.5z"/>
	<path fill="none" d="M43.7,52.4c0.2,0.2,0.5,0.4,0.8,0.5l-1.3-1.3C43.3,51.9,43.5,52.2,43.7,52.4z"/>
	<path fill="#FFFFFF" d="M43.2,51.6l1.3,1.3c0.2,0,0.4,0.1,0.6,0.1L43.2,51C43.2,51.2,43.2,51.4,43.2,51.6z"/>
</g>
<path fill="#1D4991" d="M27.2,41.1l-2.6-2.9l-3.5,4.6l2.1-6.3l-12.6-3.9c-2.3-0.8-2.8-4.5-1.4-8.5c0.9-2.6,2.6-4.6,4.2-5.4
	c0.8-0.4,1.6-0.4,2.3-0.2l11.6,4.3l3.4-3.5l-0.2,4.3l2.3,0.2l-2.1,2.6l3,1.9l-3.7,1.8l2.3,2.3l-3,0.6l2.4,3.8l-5-1.1L27.2,41.1z"/>
<path fill="#FFFFFF" d="M27.7,32.8c0.1-0.1,0.1-0.2,0.2-0.3l4-0.2l-3.1-2.1c0-0.2,0.1-0.3,0.1-0.5l3.2-2.3l-2.9-0.8l2.5-3.6l-2.9,2
	l3.8-9.1l-4.8,8.1l0,0l-12.2-4.5c-1.7-0.6-4,1.6-5.2,5c-1.2,3.4-0.9,6.6,0.8,7.2l12.2,4.5L21.3,42l3.3-5.9l2.5,4.8l-1.2-5.7l5.1,1.2
	L27.7,32.8z"/>
<path fill="#2BC2DF" d="M31.9,22.8l-3.3,0.7l4.1-8l-5.2,7l0,0L15.3,18c-1.7-0.6-4,1.6-5.2,5c-1.2,3.4-0.9,6.6,0.8,7.2L23,34.6
	l-0.6,4.8l2.1-4.9l1.8,4.2l-0.4-5.1l4.7,2.7l-3-5c0.1-0.1,0.1-0.2,0.2-0.3l4.3,1.1l-1.7-1.7c-1.6-1.9-1.6-2-1.5-2.2l2.9-1.4L29,25
	l0,0L31.9,22.8z"/>
<ellipse transform="matrix(0.3451 -0.9386 0.9386 0.3451 -14.0237 28.0194)" fill="#FFFFFF" cx="13.1" cy="24.1" rx="5.9" ry="2.9"/>
<path fill="#2BC2DF" d="M14.7,19.5c1.2,0.5,1.5,2.8,0.6,5.3c-0.9,2.5-2.7,4.1-3.9,3.7c-1.2-0.5-1.5-2.8-0.6-5.3
	C11.7,20.7,13.5,19.1,14.7,19.5z"/>
<polygon fill="#3F66AF" points="16.9,26 18.5,25.8 19.3,24.4 19.9,25.9 21.5,26.2 20.3,27.3 20.5,28.9 19.1,28.1 17.7,28.8 18,27.2 
	"/>
<polygon fill="#3F66AF" points="21.3,27.6 22.9,27.5 23.7,26.1 24.4,27.5 26,27.8 24.8,28.9 25,30.5 23.6,29.7 22.1,30.4 22.4,28.8 
	"/>
<polygon fill="#FFFFFF" points="17,25.5 18.6,25.3 19.4,23.9 20,25.4 21.6,25.7 20.4,26.8 20.6,28.4 19.2,27.6 17.8,28.3 18.1,26.7 
	"/>
<polygon fill="#FFFFFF" points="21.4,27.1 23,27 23.8,25.5 24.5,27 26.1,27.3 24.9,28.4 25.1,30 23.7,29.2 22.2,29.9 22.5,28.3 "/>
<g>
</g>
<g>
</g>
<g>
</g>
<g>
</g>
<g>
</g>
<g>
</g>
<g>
</g>
<g>
</g>
<g>
</g>
<g>
</g>
<g>
</g>
<g>
</g>
<g>
</g>
<g>
</g>
<g>
</g>
</svg>
