<?xml version="1.0" encoding="utf-8"?>
<!-- Generator: Adobe Illustrator 18.1.1, SVG Export Plug-In . SVG Version: 6.00 Build 0)  -->
<svg version="1.1" id="Layer_1" xmlns="http://www.w3.org/2000/svg" xmlns:xlink="http://www.w3.org/1999/xlink" x="0px" y="0px"
	 viewBox="0 0 72 72" enable-background="new 0 0 72 72" xml:space="preserve">
<circle id="_x2E_svg_3106_" fill="#6EC498" cx="36.3" cy="36.4" r="34.3"/>
<ellipse id="_x2E_svg_3098_" fill="#579975" cx="31.5" cy="60.7" rx="11.9" ry="1.1"/>
<path id="_x2E_svg_3097_" fill="#CF4450" d="M14.3,32.4C14.3,32.2,29,31,30.7,38.3C30.7,38.3,17.1,44.4,14.3,32.4z"/>
<path id="_x2E_svg_3096_" fill="none" stroke="#FFFFFF" stroke-miterlimit="10" d="M9.6,36c0,0,0.8,11.1-6.8,6.5"/>
<path id="_x2E_svg_3063_" fill="#FBB040" d="M36,0C16.1,0,0,16.1,0,36c0,19.9,16.1,36,36,36s36-16.1,36-36C72,16.1,55.9,0,36,0z
	 M36,67.3c-17.5,0-31.6-14.1-31.6-31.6C4.4,18.2,18.6,4.1,36,4.1s31.6,14.1,31.6,31.6C67.6,53.1,53.5,67.3,36,67.3z"/>
<path id="_x2E_svg_3095_" fill="none" stroke="#FFFFFF" stroke-miterlimit="10" d="M19.5,41.6c0,0-7,8.6,1.7,18.1l-6.6,0.7"/>
<polyline id="_x2E_svg_3094_" fill="none" stroke="#FFFFFF" stroke-miterlimit="10" points="29.2,41.6 41,58.2 44.7,53.2 "/>
<path id="_x2E_svg_3093_" fill="#FFFFFF" d="M34.6,23.8c-2.8-8.9-11.4-14.1-19.1-11.6C7.8,14.6,3.9,23.8,6.7,32.7
	s11.4,14.1,19.1,11.6C33.5,41.8,37.5,32.6,34.6,23.8z M27.2,37.7c-5.1,1.6-10.6-1.2-12.3-6.3c-1.6-5.1,6.7-1.4,11.8-3.1
	c5.1-1.6,5.2-8,6.8-2.9C35.1,30.5,32.3,36,27.2,37.7z"/>
<circle id="_x2E_svg_3092_" fill="#5D5E5E" cx="22.7" cy="24.9" r="1.5"/>
<circle id="_x2E_svg_3090_" fill="#5D5E5E" cx="27.7" cy="23.4" r="1.5"/>
<ellipse id="_x2E_svg_3089_" fill="#FFFFFF" cx="19" cy="29" rx="1.6" ry="2.2"/>
<ellipse id="_x2E_svg_3088_" fill="#FFFFFF" cx="22.2" cy="29" rx="1.6" ry="2.2"/>
<ellipse id="_x2E_svg_3087_" fill="#FFFFFF" cx="25.4" cy="29" rx="1.6" ry="2.2"/>
<ellipse id="_x2E_svg_3086_" transform="matrix(0.9271 -0.3747 0.3747 0.9271 -7.8422 13.2119)" fill="#FFFFFF" cx="30.1" cy="26.8" rx="1.3" ry="1.8"/>
<path id="_x2E_svg_3085_" fill="none" stroke="#FFFFFF" stroke-miterlimit="10" d="M34,34.1c0,0,5.3,21.9,7.2-1.3"/>
<ellipse id="_x2E_svg_3084_" transform="matrix(0.9574 -0.2887 0.2887 0.9574 -5.3868 16.1466)" fill="#5D5E5E" cx="52" cy="26.3" rx="0.6" ry="3.5"/>
<g id="_x2E_svg_3083_">
	<path fill="#5D5E5E" d="M18.4,22.5C18.4,22.5,18.4,22.5,18.4,22.5c-0.3,0-0.4-0.2-0.4-0.4c0.1-1.5,0.6-2.5,1.5-2.9
		c1.2-0.6,2.5,0.1,2.5,0.2c0.2,0.1,0.3,0.4,0.2,0.5c-0.1,0.2-0.4,0.3-0.5,0.2c0,0-1-0.6-1.8-0.2c-0.6,0.3-0.9,1.1-1,2.3
		C18.8,22.3,18.6,22.5,18.4,22.5z"/>
</g>
<g id="_x2E_svg_3082_">
	<path fill="#5D5E5E" d="M25.3,19.4C25.3,19.3,25.3,19.3,25.3,19.4c-0.2-0.2-0.2-0.4-0.1-0.6c1-1.1,2-1.6,2.9-1.4
		c1.3,0.2,1.9,1.6,1.9,1.7c0.1,0.2,0,0.4-0.2,0.5c-0.2,0.1-0.4,0-0.5-0.2c0,0-0.5-1.1-1.3-1.2c-0.6-0.1-1.4,0.3-2.2,1.2
		C25.7,19.5,25.5,19.5,25.3,19.4z"/>
</g>
<path id="_x2E_svg_3081_" fill="none" stroke="#FBB040" stroke-miterlimit="10" d="M52,18.9c0,0,6.8,4.5,3.7,13.3"/>
<path id="_x2E_svg_3080_" fill="none" stroke="#FBB040" stroke-miterlimit="10" d="M54,16.2c0,0,8.9,5.9,4.9,17.5"/>
<path id="_x2E_svg_3079_" fill="none" stroke="#FBB040" stroke-miterlimit="10" d="M55.4,13.2c0,0,11.2,7.4,6.1,22"/>
<path id="_x2E_svg_3078_" fill="#5D5E5E" d="M51.1,21.1c-0.2-0.4-0.7-0.5-1-0.2L41,27.3l-1.2-1.5l-2.1,1.5l0.5,1.2l-1.7,0.6l1,2.2
	l1.6-0.4l0.9,1.1l3,5.1l3.1-2L43,31.3c-0.2-0.3,0-0.7,0.4-0.7L53.4,32c0.4,0,0.8-0.3,0.8-0.7C54.1,29.7,53.7,25.7,51.1,21.1z
	 M53.6,31.6c-0.5,0.1-1.6-2.1-2.5-5c-0.9-2.9-1.2-5.4-0.7-5.5c0.5-0.1,1.6,2.1,2.5,5C53.8,29,54.1,31.4,53.6,31.6z"/>
<g>
</g>
<g>
</g>
<g>
</g>
<g>
</g>
<g>
</g>
<g>
</g>
<g>
</g>
<g>
</g>
<g>
</g>
<g>
</g>
<g>
</g>
<g>
</g>
<g>
</g>
<g>
</g>
<g>
</g>
</svg>
