<?xml version="1.0" encoding="utf-8"?>
<!-- Generator: Adobe Illustrator 18.1.1, SVG Export Plug-In . SVG Version: 6.00 Build 0)  -->
<svg version="1.1" id="Layer_1" xmlns="http://www.w3.org/2000/svg" xmlns:xlink="http://www.w3.org/1999/xlink" x="0px" y="0px"
	 viewBox="0 0 72 72" enable-background="new 0 0 72 72" xml:space="preserve">
<g id="_x2E_svg_9835_">
	<circle id="_x2E_svg_9815_" fill="#794D9A" cx="36.2" cy="36.1" r="33.2"/>
	<circle fill="#74549F" cx="34.8" cy="34.7" r="31.8"/>
	<circle fill="#705BA4" cx="33.4" cy="33.3" r="30.4"/>
	<circle fill="#6B61A9" cx="32" cy="31.9" r="29"/>
	<circle id="_x2E_svg_9814_" fill="#6567AF" cx="30.6" cy="30.5" r="27.5"/>
</g>
<g id="_x2E_svg_9854_">
	<circle fill="#6567AF" cx="30" cy="22.8" r="20.5"/>
	<circle fill="#8582BC" cx="28.2" cy="19.6" r="16.9"/>
	<circle fill="#A7A4CC" cx="26.3" cy="16.5" r="13.4"/>
	<circle fill="#CFCDDE" cx="24.4" cy="13.4" r="9.8"/>
	<circle fill="#FFFEF2" cx="22.5" cy="10.3" r="6.3"/>
</g>
<path id="_x2E_svg_9832_" fill="#122835" d="M0,36c0,19.9,16.1,36,36,36s36-16.1,36-36C72,16.1,55.9,0,36,0S0,16.1,0,36z M4.4,35.7
	C4.4,18.2,18.5,4.1,36,4.1s31.6,14.1,31.6,31.6c0,17.5-14.1,31.6-31.6,31.6S4.4,53.1,4.4,35.7z"/>
<ellipse id="_x2E_svg_9853_" fill="#F5D896" cx="20.6" cy="31.8" rx="0.4" ry="0.5"/>
<path id="_x2E_svg_9852_" fill="#F5D896" d="M55.6,41.1l1.2,0.7c0,0,0.3-0.1,0.4,0c0.1,0.1,2,0.2,2,0.2l-1.1,0.6
	c0,0-0.1,0.6-0.4,0.8c-0.3,0.2-2.6-0.2-2.6-0.2S54.7,41.5,55.6,41.1z"/>
<path id="_x2E_svg_9851_" fill="#CDA352" d="M61.6,41.8l3-1.4c0,0,1.2,0,1.2,0.9s0,1.5-0.6,1.6c0,0-0.5,0.5,0,0.9
	c0.6,0.5,1.9-0.6,1.4-2.5s-1.2-2-2.1-1.7S62,40.7,62,40.7l-0.5,0.7L61.6,41.8z"/>
<path id="_x2E_svg_9850_" fill="#CDA352" d="M50.3,46.9L49,47.7C48.9,47.7,49,48,49.1,48l1.9-0.7C51,47.3,50.6,46.8,50.3,46.9z"/>
<path id="_x2E_svg_9849_" fill="#122835" d="M58.1,42.5l1.1-0.7c0,0,2.2-0.9,2.4-0.9c0.2,0,0.4,0,0.4,0l-0.5,0.5l0.1,0.2l0.5-0.3
	c0,0-0.1,0.6,0.4,0.5l-0.3,0.5c0,0-0.3,0.4-0.4,0.5l-0.1,0.8l0.1,2.1h-0.2l0.1,0.2L61.3,46c0,0-0.3,0.2-0.5,0s-0.6,0.2-1,0.1
	c0,0-0.4,0.1-0.5,0c0,0-0.6,0.2-0.7,0c-0.1-0.2-1.2-0.2-1.7-0.1c-0.5,0.1-2.3,0.6-3,0.5c-0.6,0-2.9,0.7-2.9,0.7h-0.3
	c0,0-0.6,0.1-0.5-0.5l0.7-0.5l0.9-0.7c0,0,0.6-0.7,1-0.8c0.4-0.1,0.6-0.2,0.7-0.3c0.2-0.1,1.9-1.3,3.2-1.3L58.1,42.5z"/>
<path id="_x2E_svg_9848_" fill="#FDFEFF" d="M61.5,41.3l0.5-0.5c0,0-0.2,0-0.4,0c-0.2,0-2.4,0.9-2.4,0.9l-1.1,0.7l-1.5,0.7
	c-1.3,0-3,1.2-3.2,1.3c-0.2,0.1-0.4,0.2-0.7,0.3c-0.4,0.1-1,0.8-1,0.8l-0.9,0.7l-0.7,0.5c-0.1,0.7,0.5,0.5,0.5,0.5H51
	c0,0,0.3-0.1,0.7-0.2c0,0-0.5-0.2-0.7-0.1l3.8-1.8l-0.5,0l-2.5,1.1c0,0-0.4,0.1-0.5,0c0,0,0.9-0.2,1.1-0.6c0.2-0.4,0.5-0.6,0.6-0.6
	c0,0-0.4,0.4,0,0.4c0.4,0,0.5-0.4,1.1-0.5l0.2-0.2l0.5-0.4l0.3,0l0.3-0.5h0.3l0.3-0.1l0.1-0.2c0,0,0.2-0.2,0.3,0l1.7-0.9h0.3l1-0.4
	l0.1-0.2c0,0,0.6-0.2,0.6-0.4l0.3,0.2l0.2-0.4L61.5,41.3z"/>
<path id="_x2E_svg_9847_" fill="#CDA352" d="M58.1,42.5c0,0-0.1,0.5-0.4,0.7c-0.3,0.2-2.6,0-2.6,0S55,42.6,55,42.1
	c0,0,0.3,0.9,0.6,0.9c0.1,0,0.1,0,0.2-0.1c0.2-0.1,0.5-0.2,0.7-0.1c0.2,0.1,0.4,0.1,0.5,0C57.6,42.7,58.1,42.5,58.1,42.5z"/>
<path id="_x2E_svg_9846_" fill="#5496D1" d="M39.9,27.4l1.4-1.4c0.1-0.1,0.1-0.1,0.2-0.1l0.3-0.1c0.1,0,0.3,0,0.4,0.1l0,0
	c0.1,0.1,0.2,0.1,0.3,0.1l0,0c0.2,0,0.3,0.1,0.4,0.2l0.8,1.1L39.9,27.4z"/>
<path id="_x2E_svg_9845_" fill="#122835" d="M38.9,32.4c0,0-1.2-1.1-0.7-2.9c0.5-1.8,2.1-2.6,4.2-2.6c2.2,0,3,0.5,2.9,1.5
	c-0.1,1-0.7,3-0.7,3s-0.9,1.4-2.7,1.8C40.1,33.6,38.9,32.4,38.9,32.4z"/>
<path id="_x2E_svg_9844_" fill="#FDFEFF" d="M55.6,41.1v1.2l-0.2,0.2v0.1h-0.4C55.1,42.5,55.2,41.2,55.6,41.1z"/>
<path id="_x2E_svg_9843_" fill="#F5D896" d="M42,32.7l1-0.6v-0.4c0,0,0.6,0,0.7-0.7c0.1-0.8,0.4-1.9,0-2.7c0,0,0.1-0.5-0.8-0.8
	c-0.9-0.3-1.7,0.1-1.9,0.7c0,0-0.9,0.5-0.9,1.4c0,0,0-1-0.1-1s-0.2,1.3-0.5,1.4c-0.3,0.1,0.2,0.4,0.2,0.4l-0.1,0.5l0.7,0
	c0,0,0.4,0.6,0.3,1.5l0.2,0.3h0.2H42z"/>
<path id="_x2E_svg_9842_" fill="#5496D1" d="M55.7,40.9l-3.9-2c0,0-0.4,0-0.5,0c-0.1,0-0.2-0.3-0.2-0.3h-0.4l-0.2-0.2l-0.6-0.1
	l-0.2-0.2H49l-0.7-0.5l-0.9-0.4l-0.1-0.3L47,36.8c0,0-0.5-0.5-0.5-0.7c0-0.2-0.3-0.6-0.7-0.7c-0.4-0.1-0.7-0.4-0.7-0.4l-0.8-0.5
	l-0.9-0.1c0,0-0.1-0.2-0.4-0.4c-0.2-0.2-0.5-1.2-0.5-1.2l-0.7,0.7l-1.1,0.5l-0.2,0.5l-0.5,0.5l-0.1,0.4l-0.6,0.4l0.4-1.3l0.4-0.2
	l0.1-1c0,0,0.3-1,0.2-1.2C40.2,32,39.7,32,39.7,32l0.5-1.1h-0.9l-0.7,1.2c-0.3,0-0.4,0.2-0.4,0.2c-1.2-0.3-4.1-0.7-4.1-0.7l-0.7,0.7
	c-0.2,0-0.3,0.3-0.3,0.3c-0.2,0.2-0.7,0.3-0.9,0.2c-0.4,0-0.8,0.2-0.8,0.2c-0.3-0.2-0.6,0.1-0.6,0.1c-0.4-0.2-0.7,0.1-0.7,0.1
	c-0.3-0.1-0.7,0-0.7,0c-0.4-0.2-0.5,0.1-0.5,0.1h-0.6c-0.4-0.3-0.7,0-0.7,0L23.7,33l-0.1,3.1c0,0,2.3,0,2.4,0.1
	c0.9,0.4,1.9,0.3,2.1,0.3c0.3,0,0.7,0.1,0.7,0.1s0.4,0,0.4,0.1c0.1,0.1,0.9,0,0.9,0s0.5-0.1,0.7-0.1c0.2,0,0.3,0.1,0.3,0.1l0.5-0.2
	l0.4,0l0.3,0.1l0.2-0.1l0.4,0l0.2-0.1c0,0,0.2,0.5,0,0.9s-0.1,1-0.1,1l-0.1,0.7c-0.7,0.3-0.4,1.2-0.4,1.2l-0.8,1.1
	c-0.1,0-0.5,0-0.5,0l-1.9,2.2l-0.1,0.4c-0.4,0.2-0.7,0.9-0.7,0.9c-0.5,0.4-0.6,1-0.6,1c-0.5,0.6-1.2,2.1-1.7,2.9c-0.5,0.8-1,2-1,2
	c-0.4-0.1-1,0.6-1,0.6s-1.1,1.4-1.3,3.1c-0.2,1.7,1.1,6.9,1.1,6.9l1,1.6c0,0-1.6,1.5-1.2,2.3c0.4,0.8,1.8,0.1,2.1,0
	c0.3-0.1,0.5-1.3,0.5-1.3s0.8-0.3,0.8-0.6s-0.5-0.9-0.5-0.9l0.1-0.4c0,0-0.2,0.4,0-0.1c0.2-0.5,0.2-1.9,0.2-1.9
	c0.2-0.8,0.2-2.1,0.2-2.1s4.2,1.5,4.5,1.5s1.1-0.9,1.3-1.1s0.3-0.9,0.3-0.9c1.8-1.2,2.6-4.8,2.6-4.8c0.3-0.2,0.4-0.9,0.4-0.9
	c0.4-0.2,0.4-1.6,0.4-1.6l0.8,0.2h0.4l0.1-0.3c0,0,1-2.4,1.5-2.9c0.5-0.5,0.6-2,0.6-2c0.5-0.2,0.4-0.8,0.4-0.8
	c0.3-0.4,0.4-0.9,0.4-0.9c0.2-0.1,0.4-0.6,0.4-0.6c0.4-0.1,0.3-0.3,0.3-0.3l0.2,0l0.1-0.4c0.7-0.4,2.2-1.9,2.2-1.9l1.4,0.4l2,1.1
	c0,0,1.8,0.3,2,0.3c0.3,0,1.1,0.3,1.1,0.3l0.7,0.4l0.7-0.1l0.5,0.2l0.2,0l0.5,0.3l1.7,0.2C55,42.4,55.7,40.9,55.7,40.9z M30.3,53.4
	l0,0.3c0,0-0.3,0.1-0.3,0.2l-1.1-0.4l0.7-0.7l0.1-0.2c0,0,0.4-0.4,0.4-0.7s0.4-0.2,0.6-0.5l0.1,1.6C30.8,52.9,30.3,53.1,30.3,53.4z"
	/>
<path id="_x2E_svg_9841_" fill="#122835" d="M40.2,30.9c0,0,0.4,0.8,0.3,1.5l0.2,0.3H42l1-0.6c0,0-0.2,0.5-0.5,0.7l-0.7,0.7
	l-1.1,0.5l-0.2,0.5l-0.5,0.5l-0.1,0.4l-0.6,0.4l0.4-1.3l0.4-0.2l0.1-1c0,0,0.3-0.9,0.2-1.2S39.7,32,39.7,32L40.2,30.9z"/>
<path id="_x2E_svg_9840_" fill="#CDA352" d="M42,28.1c0,0-0.1-0.4-0.4-0.4c-0.3,0-0.5,0.4-0.5,0.4s0,0.1,0.1,0.1
	C41.4,28.2,41.7,28,42,28.1z"/>
<path id="_x2E_svg_9839_" fill="#FDFEFF" d="M40.8,32.7c0,0,0.5,0.3,0.5,1.1l0.4-0.2c0,0,0.4-0.6,0.3-0.9H40.8z"/>
<path id="_x2E_svg_9838_" fill="#FDFEFF" d="M40.8,33.4l0.2,0.5l-0.3,0.1h-0.2c0,0-0.1-0.4-0.1-0.5C40.3,33.5,40.5,33.4,40.8,33.4z"
	/>
<path id="_x2E_svg_9837_" fill="#122835" d="M39.1,36.2l-1,1.5l0.2-0.9c0,0,0.6-0.6,0.6-0.9C38.9,35.9,39.1,35.9,39.1,36.2z"/>
<path id="_x2E_svg_9834_" fill="#122835" d="M54.7,42.8c-0.3-0.2,0-1.4,0-1.4l-0.3,0.3c0,0-0.6-0.8-0.8-0.4
	c-0.2,0.4-0.6,0.3-0.7-0.2c-0.1-0.5-0.5-1-0.5-1s0,1-0.5,0.9c-0.4-0.1-0.6-1-0.6-1c0.1,0.9-1.5,0.3-1.5,0.3c-1,0.4-1.5-0.1-1.5-0.1
	c1.1,0,1.1-0.4,1.1-0.4c-0.4,0.3-0.9,0-0.9,0s0.6,0.3,0.9-0.3c0.3-0.5,1.7-0.4,1.7-0.4s-1-0.3-1.7,0.1s-2.1,0.3-2.1,0.3
	c0-0.1,1.2-0.4,1.2-0.4c-0.3-0.3-1.4,0-1.4,0c0.2-0.1,0.5-0.4,0.5-0.4c-0.9,0.4-0.8-0.1-0.8-0.1l0.2-0.5c0,0-0.2-0.3-0.7-0.2
	c-0.5,0.1-0.8,1-0.9,1.2s-0.4,0.1-0.4-0.3c0-0.4,1-1.2,1-1.2c-0.4,0-1.3,1.1-1.3,1.1l0,0.7L44.3,40l1.4,0.4l2,1.1c0,0,1.8,0.3,2,0.3
	c0.3,0,1.1,0.3,1.1,0.3l0.7,0.4l0.7-0.1l0.5,0.2l0.2,0l0.5,0.3l1.5,0.2C54.9,43.1,54.9,43,54.7,42.8z M30,53.9
	c0-0.1,0.3-0.2,0.3-0.2l0-0.3c0-0.3,0.5-0.5,0.5-0.5l-0.1-1.6l0.2-0.5l0.3-0.4l0-0.9l0.6-0.5v-0.3l0.2-0.1v-0.2l0.9-0.7l0.3-0.7
	c0,0,0.9-1.5,1.1-1.6c0.2-0.1,0.5-1.2,0.7-1.4c0.2-0.2,0.6-0.7,0.6-0.7l0.4-0.5c0,0-0.1,1.9-0.9,4.2c-0.8,2.3,1.9,3,1.9,3
	s-0.3,0-0.2,0.3c0.1,0.4-0.2,1-0.2,1s-0.1-0.7-0.3-0.5c-0.3,0.1-0.8-0.5-0.8-0.5s-1.1-0.4-0.8,0.1s0.6,2.3,0.6,2.3
	c0-0.2-1.3-2.1-1.3-2.1s-0.5,0.1-0.7-0.1c-0.2-0.2-0.5,0-0.5,0c1.2,1.7,1.2,3.6,1.2,3.6c-0.1-1.2-2-3.2-2-3.2c1,1.1,1.3,6.1,1.2,4.5
	c0,0,0-0.1,0-0.1c-0.2-1.5-1.8-3.1-1.8-3.1c1.1,1.8,0.8,3.3,0.8,3.3c-0.3-1.4-1.1-2-1.1-2c0.4,0.7,0.6,1.9,0.6,1.9
	c-0.3-0.3-0.8-2.5-1.1-1.5c-0.2,1,0.7,3.5,0.2,3.4c-0.5-0.2-0.4-2.4-0.5-2.8L30,53.9z"/>
<path id="_x2E_svg_9833_" fill="#122835" d="M37.9,38c0,0-0.2,1.2-0.5,1.4c-0.3,0.2-0.8,1.6-0.8,1.6l-0.4,0.3c0,0,0.2-1.3,0.4-1.5
	c0.2-0.2,0.9-1.5,0.9-1.9s0.2-0.7,0.2-0.7L37.9,38z"/>
<path id="_x2E_svg_9831_" fill="#122835" d="M23.8,51.7c-0.3,0.6-0.8,1.5-0.9,2.5c-0.2,1.7,1.1,6.9,1.1,6.9l1,1.6
	c0,0-1.6,1.5-1.2,2.3c0.4,0.8,1.8,0.1,2.1,0c0.3-0.1,0.5-1.3,0.5-1.3s0.8-0.3,0.8-0.6s-0.5-0.9-0.5-0.9l0.1-0.4c0,0-0.2,0.4,0-0.1
	c0.2-0.5,0.2-1.9,0.2-1.9c0.2-0.8,0.2-2.1,0.2-2.1s4.2,1.5,4.5,1.5c0.2,0,0.5-0.3,0.8-0.5c0,0-0.3-0.1-0.3-0.3
	c0-0.3-0.1-1.1-0.1-1.1l-0.9-0.1c0,0-0.1,0.6-0.2,0.8c-0.1,0.1-0.1-0.5-0.3-0.8c-0.2-0.2-0.4-1.7-0.4-1.7s-0.5,0.4-0.7,0.1
	s-0.5-0.8-0.3-1.1c0.3-0.3-0.2-0.4-0.2-0.4l-0.3,0.6c0,0-0.3-0.9-0.5-0.9c0,0,0.3,1.1-0.4,1.4c0,0-0.3-0.1-0.3,0l-0.1,0.4
	c0,0-0.3-0.8-0.7-0.6c-0.4,0.2,0.5,0.7,0.5,0.7s0,0.6-0.5,0.6c-0.4,0-0.4-0.5-0.4-0.5s0-1.3-0.1-1.8s-0.7-0.7-1.1-0.2
	c-0.3,0.5-0.4,1.2-0.5,1.3c-0.1,0.1-0.2,0.2-0.2,0.2l-0.1,0.8h-0.2l0-1l-0.1-0.3c0,0,0.2-1.5,0.4-2c0.2-0.5,0.2-1.2,0.2-1.2
	l-0.8,0.4L23.8,51.7z M30.3,53.4l0,0.3c0,0-0.3,0.1-0.3,0.2l-1.1-0.4l0.7-0.7l0.1-0.2c0,0,0.4-0.4,0.4-0.7s0.4-0.2,0.6-0.5l0.1,1.6
	C30.8,52.9,30.3,53.1,30.3,53.4z"/>
<path id="_x2E_svg_9830_" fill="#122835" d="M36,42.4c0,0,1.8,0.4,2.4,0.8c0,0,2,0.8,2.1,1.2c0,0-0.1,0.3-0.3,0.4L40,44.5l0.1-0.3
	c0,0-0.9-0.6-1.6-0.7C37.7,43.3,36.7,42.6,36,42.4z"/>
<path id="_x2E_svg_9829_" fill="#122835" d="M33.1,46.9c0,0,0.9-1.5,1.1-1.6c0.2-0.1,0.5-1.2,0.7-1.4c0.2-0.2,0.6-0.7,0.6-0.7
	l0.4-0.5l-1.2,1.1l0-0.5l-0.4,0.4c0,0-0.2-0.2-0.4-0.2c-0.2,0.1,0-0.2,0-0.2l1.8-1.1l0.1,0.2l0.5-0.3L36,42.1l-0.2-0.2
	c0,0-0.3-2.6,0.2-3.5s-0.5-0.5-0.5-0.5l-0.4,0.7l-0.3-0.1l0-0.7l-0.2-0.4v-0.4h-0.3l-0.2,1.4l0-0.6l-0.6-0.1l0.2-0.4l-0.4,0.4
	l0.1,0.7c0,0-0.2,0.7-0.1,0.9c0,0-0.5,0.3-0.1,0.7s0.7-0.1,0.3,0.8c0,0-0.1,0.8-0.4,0.9c-0.3,0.1-0.5-0.2-0.5-0.2v0.2
	c0,0-0.8-0.3-1.1,1c0,0-0.8,0-0.9,0.2c0,0,0.7,0.5-0.6,0.6c0,0-0.4,0.6,0.1,0.7s1.5,0.3,1.5,0.3l-0.1,0.2c0,0-0.1,0.1-0.2,0.1
	s-0.1,0-0.1,0s-0.4-0.1-0.5,0c-0.2,0.1-0.5,0-0.5,0L29.6,45l-0.3,0l-0.7,0l0.2,0.3l-0.2-0.1l-0.2,0.2v0.2l-0.4,0l0.2,0.3
	c0,0,3,1.2,3.3,1.6c0,0,0.5,0.1,0.7-0.1C32.6,47.2,33.1,46.9,33.1,46.9z"/>
<path id="_x2E_svg_9828_" fill="#122835" d="M23.8,36.1c0.6,0,2.1,0,2.2,0.1c0.9,0.4,1.9,0.3,2.1,0.3c0.3,0,0.7,0.1,0.7,0.1
	s0.4,0,0.4,0.1c0.1,0.1,0.9,0,0.9,0s0.3,0,0.5-0.1c0.1,0,0.2,0,0.2,0c0.2,0,0.3,0.1,0.3,0.1l0.5-0.2l0.4,0l0.3,0.1l0.2-0.1l0.4,0
	l0.2-0.1c0,0,0.4,0.1,0.4,0.2c0.1,0.1,0.2-0.4,0.2-0.4s0-0.4,0-0.7c0-0.3-0.2-1.2-0.2-1.2l-0.3,0.3l-0.4,0.4l0.1-0.4l-0.3-0.2
	l-0.2-0.2l-0.2-0.2l-0.1,0.5l0,0.4l-0.6-0.4c0,0-0.3-0.8-0.7-1c0,0,0.5,0.7,0.5,0.9c0,0.3-0.3,0.2-0.3,0.2l1.1,0.6l-0.7-0.1l0.6,0.3
	l-0.1,0.2l-1.8-1.2c0,0,0-0.8-0.3-0.9c0,0,0.2,0.7,0,0.7s-2-0.9-2-0.9h-0.1l3.9,2.5L31.5,36l-1.2-0.7l0.4,0.7l0.3,0.1l-0.1,0.3
	l-0.4,0.1l-0.1-0.6L30,35.1l-2.2-1.4c0,0-0.1,0.3,0,0.5c0.1,0.1,0.7,0.9,0.7,1.2c0,0-0.1-0.6-0.3-0.8s1.3,0.6,1.6,1.4
	s0.1,0.6,0.1,0.6l-0.4,0.1l-0.9-1l-0.4-0.3v0.7l-0.5-0.5l-0.1,0.8c0,0-0.3-2-0.7-2.2c-0.4-0.2-0.9,0.4-0.9,0.4l-0.5-0.7h-0.5l0,0.3
	l-0.2-0.3h-0.6l0.1,1.5l-0.3-0.9L23.8,36.1z M30.3,53.4l0,0.3c0,0-0.3,0.1-0.3,0.2l-1.1-0.4l0.7-0.7l0.1-0.2c0,0,0.4-0.4,0.4-0.7
	s0.4-0.2,0.6-0.5l0.1,1.6C30.8,52.9,30.3,53.1,30.3,53.4z"/>
<path id="_x2E_svg_9827_" fill="#665434" d="M41.7,29.6c0,0.1-0.1,0.1-0.1,0.2c-0.1,0.1-0.1,0.2-0.1,0.3c0,0.1,0.5,0.4,0.5,0.4
	s0.5,0.1,0.6,0.1c0.1,0.1,0.3-0.3,0.3-0.6s-0.1-0.5-0.3-0.7C42.3,29.2,41.9,29.1,41.7,29.6z"/>
<path id="_x2E_svg_9826_" fill="#FDFEFF" d="M41.7,29.5c0.2-0.4,0.6-0.3,0.8-0.2c0.2,0.2,0.3,0.3,0.3,0.7c0,0-0.2,0.1-0.2-0.1
	S42.4,29.4,41.7,29.5L41.7,29.5z"/>
<path id="_x2E_svg_9825_" fill="#122835" d="M41.2,28.2c0.4-0.4,0.8-0.1,0.8-0.1s-0.3-0.1-0.4,0C41.5,28.2,41.2,28.2,41.2,28.2z"/>
<path id="_x2E_svg_9824_" fill="#122835" d="M42.3,28.7c0,0,0-0.2,0.2-0.2C42.5,28.5,42.6,28.6,42.3,28.7z"/>
<path id="_x2E_svg_9823_" fill="#122835" d="M42.8,28.7c0,0,0.2,0,0.1,0.3C42.9,29,42.8,29,42.8,28.7z"/>
<path id="_x2E_svg_9822_" fill="#CDA352" d="M43.8,29L43.8,29C43.8,28.9,43.8,28.9,43.8,29c0-0.1,0-0.1,0-0.1c0,0,0-0.1,0-0.1
	c0,0,0,0,0-0.1c0,0,0-0.1,0-0.1c0,0,0,0,0,0c0,0,0-0.1-0.1-0.1c0,0,0.1-0.5-0.8-0.8c-0.2-0.1-0.5-0.1-0.7-0.1c0,0,1.6,0.5,1.3,1.3
	l0.1,0.1c0,0,0,0.1,0,0.1c0,0,0.2,0.3,0,0.6c-0.1,0.2,0.1,1.7-0.8,2.3c-0.2,0.1-0.3,0.2-0.4,0.3c-0.4-0.4-1.1-0.7-1-0.5
	c0.1,0.2-0.8,0.8-0.8,0.8l-0.1,0l0.2,0.3h0.2h0.9H42l0.7-0.4l0,0l0.4-0.2v-0.4c0,0,0.6,0,0.7-0.7C43.7,30.4,43.9,29.6,43.8,29z"/>
<circle id="_x2E_svg_9821_" fill="#FFFEF2" cx="22.5" cy="10.3" r="6.3"/>
<path id="_x2E_svg_9820_" fill="#122835" d="M43.7,29.1c0-0.5-0.5-0.4-0.5-0.4s0.3,0.1,0.3,0.2C43.6,29,43.7,29.1,43.7,29.1z"/>
<path id="_x2E_svg_9819_" fill="#CDA352" d="M58.1,42.5c0,0,0.4,0.6,0.8,0.8c0.2,0.1,0.2,0.4-0.1,0.5c0,0,0,0,0,0
	c-0.4,0-0.9-0.6-1.1-0.7S57.6,42.6,58.1,42.5z"/>
<path id="_x2E_svg_9818_" fill="#122835" d="M19.3,65.9L20.7,25L20.6,25l-0.1-0.4l-0.1-0.1l0-0.3c0,0-0.4-0.4,0-0.8
	c0,0-0.1-0.3-0.5-0.4c0,0-0.1-0.4,0.3-0.8c0,0-0.4-0.7-0.9-0.8c-0.4-0.1,0.2-0.2,0.2-0.4c0-0.2-0.2-0.4-0.2-0.4l-0.3-0.2L19,19.8
	l-0.2-0.4v-0.2c0,0-0.5-0.3-0.4-1.1c0,0-0.4-0.4-0.3-0.7h1.3c0,0,0.3,0.3,0.4,0.2c0.1-0.1,0.2-0.2,0.2-0.2s-1.2,0-1.2-0.5
	c0-0.4,0-0.8,0.2-0.9c0.2-0.1,0-0.5,0-0.5s1.6-0.5,3.6-0.4l0,0c1.9,0,3.6,0.6,3.6,0.6s-0.2,0.4,0,0.5c0.2,0.1,0.2,0.4,0.1,0.9
	c-0.1,0.4-1.2,0.4-1.2,0.4s0,0.1,0.2,0.2c0.1,0.1,0.4-0.2,0.4-0.2l1.3,0.1c0.1,0.4-0.3,0.7-0.3,0.7c0.1,0.8-0.5,1.1-0.5,1.1l0,0.2
	L26,20l-0.2,0.6l-0.3,0.2c0,0-0.2,0.2-0.2,0.4s0.6,0.3,0.2,0.4s-0.9,0.8-0.9,0.8c0.3,0.4,0.3,0.8,0.3,0.8c-0.4,0.1-0.5,0.4-0.5,0.4
	c0.4,0.4-0.1,0.8-0.1,0.8l0,0.3l-0.1,0.1l-0.1,0.4l-0.1,0.1l-0.1,40.9C23.9,66.1,21.5,67,19.3,65.9z"/>
<path id="_x2E_svg_9817_" fill="#F5D896" d="M20.4,35c0,0-0.5-0.1-0.5-0.5c0,0-0.2-0.2-0.2-0.5c0,0-0.3-0.2-0.1-0.6
	c0,0-0.1-0.6,0.1-0.7c0.2-0.1,0.9-0.6,1.1-0.1c0,0,0.1,0.2-0.1,0.3c0,0,0.4,0.3,0,0.5c0,0,0.1,0.4-0.1,0.5C20.4,34,20.4,34,20.4,34
	s0.2,0.2,0.1,0.4C20.3,34.6,20.6,34.7,20.4,35z"/>
<g>
</g>
<g>
</g>
<g>
</g>
<g>
</g>
<g>
</g>
<g>
</g>
<g>
</g>
<g>
</g>
<g>
</g>
<g>
</g>
<g>
</g>
<g>
</g>
<g>
</g>
<g>
</g>
<g>
</g>
</svg>
