<?xml version="1.0" encoding="utf-8"?>
<!-- Generator: Adobe Illustrator 18.1.1, SVG Export Plug-In . SVG Version: 6.00 Build 0)  -->
<svg version="1.1" id="Layer_1" xmlns="http://www.w3.org/2000/svg" xmlns:xlink="http://www.w3.org/1999/xlink" x="0px" y="0px"
	 viewBox="0 0 72 72" enable-background="new 0 0 72 72" xml:space="preserve">
<g id="_x2E_svg_9786_">
	<circle id="_x2E_svg_8373_" fill="#1D1E33" cx="36.2" cy="36.1" r="33.2"/>
	<path fill="#27273F" d="M34,3.1c0.3,0,0.7,0,1,0c15.8,0.7,28.3,14.1,28.3,30.1c0,16.7-13.5,30.2-30.2,30.2
		c-16.2,0-29.7-12.7-30-28.7C2.7,21,14.5,2.3,34,3.1z"/>
	<path fill="#30304C" d="M31.7,3.2c0.2,0,0.7,0,0.9,0c13.8,0.9,24.6,12.9,24.6,27.1c0,15.1-12.2,27.3-27.3,27.3
		C15.9,57.6,3.7,47,3,33.4C2.6,24.2,10.9,1.6,31.7,3.2z"/>
	<path fill="#383859" d="M29.5,3.4c0.1,0,0.7,0,0.7,0c11.8,1,20.8,11.8,20.8,24c0,13.4-10.9,24.3-24.3,24.3C14.9,51.7,4,43.3,3,32
		C2.6,27.4,7.4,1,29.5,3.4z"/>
	<path fill="#414066" d="M27.9,3.5c9.8,2,17.1,10.6,17.1,21c0,11.8-9.6,21.4-21.4,21.4c-9.7,0-17.9-6.4-20.5-15.3
		c0,0,1.3-20.8,24.2-27.1H27.9z"/>
</g>
<path id="_x2E_svg_9785_" fill="#1A2E33" d="M35.9,42c-4.1,0-7.4,0.4-7.4,0.9c0,0.1,0,0.1,0.1,0.2C28.1,43,27.6,43,27,43
	c0,0,0,0,0,0c0-0.3-3-0.6-6.7-0.6c-3.7,0-6.7,0.3-6.7,0.6c0,0.3,3,0.6,6.7,0.6c0.1,0,0.1,0,0.2,0c-0.1,0.1-0.2,0.1-0.2,0.2
	c0,0.5,2.6,0.8,5.8,0.8c3.2,0,5.8-0.4,5.8-0.8c0,0,0-0.1-0.1-0.1c1.2,0.1,2.5,0.1,4,0.1c4.1,0,7.4-0.4,7.4-0.9S40,42,35.9,42z"/>
<g id="_x2E_svg_9784_">
	<circle fill="#414066" cx="21.2" cy="23.7" r="15.2"/>
	<circle fill="#4D4D6C" cx="21.2" cy="23.7" r="14.1"/>
	<circle fill="#595972" cx="21.2" cy="23.7" r="13"/>
	<circle fill="#676679" cx="21.2" cy="23.7" r="11.9"/>
	<circle fill="#74737F" cx="21.2" cy="23.7" r="10.8"/>
</g>
<path id="_x2E_svg_9783_" fill="#1A2E33" d="M25.9,7.2c0-0.9-0.7-1.7-1.6-1.7c-0.7,0-1.3,0.4-1.6,1c-0.1,0-0.1,0-0.2,0
	c-0.8,0-1.6,0.4-2,1.1c-0.6-0.4-1.2-0.6-1.9-0.6c-2.1-0.1-3.9,1.6-4,3.7c0,0.2,0,0.4,0,0.6c0,0-0.1,0-0.1,0
	c-0.4-0.4-0.9-0.6-1.5-0.6c-1.2,0-2.3,0.9-2.3,2.2c0,0.4,0.1,0.7,0.2,1.1c-0.7,0.4-1.1,1-1.2,1.8c-0.1,0-0.2,0-0.2,0
	c-1.1,0-2,0.8-2,1.9c0,1.1,0.8,2,1.9,2c0.9,0,1.6-0.5,1.9-1.3c0.2,0.1,0.5,0.2,0.8,0.2c1.3,0.1,2.5-1,2.5-2.3c0-0.2,0-0.3,0-0.5
	c0.2,0.1,0.4,0.1,0.6,0.1c0.9,0,1.7-0.5,2.1-1.2c0.4,0.1,0.7,0.2,1.2,0.2c1.1,0,2.1-0.4,2.8-1.1c0.3,0.2,0.6,0.3,0.9,0.3
	c0.5,0,1-0.2,1.4-0.5c0.2,0.1,0.3,0.2,0.5,0.2c0.5,0,1-0.4,1-0.9c0-0.5-0.3-0.8-0.7-1c0.2-0.2,0.3-0.5,0.3-0.8
	c0-0.4-0.1-0.7-0.3-0.9c0.2-0.3,0.4-0.7,0.4-1.1C25.3,8.6,25.9,7.9,25.9,7.2z"/>
<circle id="_x2E_svg_9782_" fill="#E6F6FD" cx="21.2" cy="23.7" r="8.5"/>
<path id="_x2E_svg_9781_" fill="#1A2E33" d="M62.1,23.5c0.2-0.6,0.4-1.3,0.4-2c0-3.1-2.5-5.6-5.6-5.6c-0.1,0-0.2,0-0.3,0
	c-0.6-1.5-2.1-2.5-3.8-2.5c-2.1,0-3.9,1.6-4,3.7c-1.1-0.4-2.4-0.5-3.7-0.1c-1.5,0.5-2.7,1.6-3.3,3c-0.6,1.4-0.6,2.7-0.3,3.8
	c0,0,0,0,0,0c-1.2,0-2.1,0.7-2.5,1.7c-0.4-0.1-0.7-0.2-1.1-0.2c-1.4,0-2.6,0.8-3.2,1.9c-0.1,0-0.2,0-0.2,0c-0.7,0-1.3,0.4-1.6,1
	c-0.6-1.1-1.8-1.9-3.1-1.9c-1.7,0-3,1.1-3.4,2.7c0,0,0,0,0,0c-0.1-0.4-0.3-0.8-0.5-1.1c0.4-0.4,0.6-0.9,0.6-1.5c0-1.1-0.8-2-1.9-2.1
	c0.5-0.1,0.8-0.5,0.8-1c0-0.5-0.4-1-1-1c-0.5,0-1,0.4-1,1c0,0,0,0,0,0.1c-0.1,0-0.2-0.1-0.3-0.1c-0.7,0-1.3,0.6-1.3,1.3
	c0,0.4,0.2,0.8,0.6,1.1c-0.1,0.2-0.1,0.5-0.1,0.7c0,0,0,0.1,0,0.1c-1.3,0.3-2.3,1.4-2.5,2.8c-0.5-0.6-1.3-0.9-2.1-0.9
	c-1.2,0-2.2,0.8-2.6,1.9c-0.4-0.7-1.1-1.2-2-1.2c-0.5,0-1,0.2-1.4,0.5c-0.8-1.8-2.6-3.1-4.7-3c-2.6,0.2-4.6,2.6-4.5,5.2
	c0.1,2.4,0.8,4,3.3,4c1,0,3.4,0.1,4.2-0.5c0.4,0.3,0.7,0.5,1.4,0.5c0.4,0,1.3,0.2,1.6,0c0.4,0.2,1.4,0.2,2.4,0.2
	c1,0,1.7,0.1,2.4-0.3c0.2,0,0.3,0.1,0.5,0.1c0.3,0,0.6-0.1,0.9-0.2c0.4,0.2,1.4,0,1.9,0c0.8,0,1,0.2,1.5-0.3c0.2,0.1,0.7-0.1,1-0.1
	c0.4,0,0.7,0,1-0.1c0.4,0.1,1.2-0.2,1.6-0.4c0.8-0.3,1.3-0.4,1.7-0.5c0.5-0.2,0.8-0.4,1.3-0.3c0.2,0,0.5-0.3,0.7-0.4
	c2.8-1,2.6-1.2,3.6-2.1c0.5-0.3,0.6-0.5,1.1-0.5c0.1,0,0.2,0,0.2,0c1.4,0.3,1.9,0,3.3,0c1.9,0,2.3-0.2,3.5-0.4c0,0,0,0,0,0
	c0.2,0-0.2,0,0,0c1,0.2,2.1-0.1,3.2-0.1c1.2,0,1.5-0.3,2.6-0.9c0.5,0.4,1.3-0.2,2-0.3c0.7-0.1,1-0.3,1.3-0.9
	c0.4-0.7,0.3-1.3,0.1-1.8c0.6-0.6,1.1-1.3,1.4-2.1c0.4,0.6,0.9,1.2,1.5,1.6c0.7,1.7,2.3,2.8,4.2,2.8c1.3,0,2.4-0.5,3.2-1.3
	c0.5,0.3,1.1,0.4,1.7,0.2c0.7-0.2,1.3-0.9,1.5-1.6C64.2,24.8,63.3,23.7,62.1,23.5z"/>
<path id="_x2E_svg_9780_" fill="#1E2C33" d="M11.7,58.9c0,0,4.8-5.2,9.5-5.3s15.1,10.5,15.1,10.5S15.3,67.2,11.7,58.9z"/>
<path id="_x2E_svg_9779_" fill="#3A6572" d="M30.8,59.1c-3.3-2.7-7.3-5.6-9.7-5.5c-1.4,0-2.9,0.5-4.2,1.2c0,0,6-2.7,13.7,4.3
	L30.8,59.1z"/>
<path id="_x2E_svg_9778_" fill="#1E2C33" d="M47.3,59.1c0,0-4.8-5.2-9.5-5.3S22.7,64.3,22.7,64.3S43.8,67.4,47.3,59.1z"/>
<polygon id="_x2E_svg_9777_" fill="#3C5666" points="36,46.4 36,39 36.6,38.4 36.6,37.3 36.3,37.1 37.2,35.4 40.4,33.4 40.4,32.8 
	44.1,31.4 44.1,33.2 47.5,31.4 48.5,31.8 52.5,29.8 53,39.2 52,51.4 "/>
<polygon id="_x2E_svg_9776_" fill="#3C5666" points="37.5,36 37.5,29.5 38.4,26.7 39.5,29.4 39.5,35.7 "/>
<polygon id="_x2E_svg_9775_" fill="#3C5666" points="44,33.7 44,27.6 45.3,22.6 46.5,26.7 46.7,33.7 "/>
<polygon id="_x2E_svg_9774_" fill="#1E2C33" points="66.7,52.3 56.8,60.9 54.9,52.2 "/>
<polygon id="_x2E_svg_9773_" fill="#1E2C33" points="36.2,53.6 36.2,49.6 34.5,47.9 34.5,46.4 48.1,46 48.1,51.1 "/>
<path id="_x2E_svg_9772_" fill="#3A6572" d="M52.3,65.7l2.7-12.3l-7.6-5.1c0,0-2.1-0.6-2.7-0.6c-0.6,0-2.5,0.9-2.5,0.9v0.9l-0.8,0.3
	l-0.4,0.9l-1.6,0.5h-1h-1l-0.4,0.8c0,0-1.2,1.1-1.3,1.8c-0.1,0.8,1,1.8,1,1.8c-0.1,2.4,0.3,7.8,0.3,7.8l-2.2,2.4v2.8l-0.9,0.8
	L52.3,65.7z"/>
<path id="_x2E_svg_9771_" fill="#8EAAB2" d="M37.3,51.1h1h1l1.6-0.5l0.4-0.9l0.8-0.3v-0.9c0,0,1.8-0.9,2.5-0.9l1.4,2.5l-1.1,0.6
	L44.3,53l-1.5-0.2L41,55l-2.2-2.4l-0.3-0.8L37.3,51.1z"/>
<polygon id="_x2E_svg_9770_" fill="#587C99" points="63.6,33.2 67.2,24.6 69.3,33.7 "/>
<polygon id="_x2E_svg_9769_" fill="#1E2C33" points="58.7,32.8 70.3,33.7 66.7,52.3 61.6,52.3 "/>
<polygon id="_x2E_svg_9768_" fill="#7B9CAF" points="47.4,35.9 47.4,37.8 47.7,38 47.8,43.6 47.4,43.8 47.4,46 48.7,45.9 48.7,43.8 
	48.5,43.6 48.3,37.9 48.7,37.5 48.6,35.7 "/>
<polygon id="_x2E_svg_9767_" fill="#7B9CAF" points="49.4,35.5 49.4,37.5 49.6,37.6 49.7,43.3 49.4,43.5 49.4,45.2 50.7,45.2 
	50.7,43.5 50.4,43.2 50.2,37.5 50.7,37.2 50.6,35.3 "/>
<polygon id="_x2E_svg_9766_" fill="#8EAAB2" points="41.7,58.9 43.1,57.1 44.5,56.6 45.2,54.9 47.6,52.2 51.6,51.1 53.2,52.2 
	51.3,52.6 47.5,53 46,55 45.2,57.3 43.4,57.8 "/>
<path id="_x2E_svg_9765_" fill="#3A6572" d="M60.8,61.2c0,0-1.1-3.7-2.2-4.6c-1.1-0.9-4.1,0.6-4.1,0.6l-0.9,2.1h-1.4l-0.7,1.4
	l-0.6,1.7l-1.6,1.3l0.3,0.9l-2.3,3.7L47,69L60.8,61.2z"/>
<polygon id="_x2E_svg_9764_" fill="#587C99" points="52.7,34.6 52.5,29.8 48.5,31.8 47.5,31.4 44.1,33.2 44.1,31.4 40.4,32.8 
	40.4,33.4 37.2,35.4 36.3,37.1 "/>
<path id="_x2E_svg_9763_" fill="#2D414C" d="M50.4,31.4v-1.5c0,0,2-1.3,4.8-1.3c2.8,0,4.6,2,4.6,2v11l-8.5-1.3L50.4,31.4z"/>
<path id="_x2E_svg_9762_" fill="#1E2C33" d="M51.3,40.3l10.4-2.5l3.1,3l-0.2,11.7c0,0-13.7-0.3-13.8-0.7S51.3,40.3,51.3,40.3z"/>
<polygon id="_x2E_svg_9761_" fill="#587C99" points="37.5,29.5 39.5,29.4 38.4,26.7 "/>
<path id="_x2E_svg_9760_" fill="#3A6572" d="M54.5,65.7l2.3-4.8c0,0-0.5-4.7-0.6-7.9c-0.1-3.2-3.1-3.6-3.1-3.6l-0.7,0.7h-1.3
	c-1.8,1.5-1.9,5.2-2.7,6.1c-0.8,0.9-0.7,1.8-0.7,1.8l-1.8,6.5h-0.5L45,65.3l-1.3,0.9l0.5,0.6l-0.9,2.9L54.5,65.7z"/>
<polygon id="_x2E_svg_9759_" fill="#587C99" points="44,27.6 46.5,26.7 45.3,22.6 "/>
<path id="_x2E_svg_9758_" fill="#FBB040" d="M63.1,48.4v-4.6c0,0,0.7-1.2,2.5-1.2c2.2,0,1,6.3,1,6.3L63.1,48.4z"/>
<polygon id="_x2E_svg_9757_" fill="#3E5A66" points="47.6,52.2 47.5,44.8 52.6,44.6 52.3,51.6 "/>
<circle id="_x2E_svg_9756_" fill="#FBB040" cx="63.5" cy="51.2" r="0.4"/>
<path id="_x2E_svg_9755_" fill="#8EAAB2" d="M50.9,62.4l0.6-1.7l0.7-1.4h1.4l0.9-2.1c0,0,1.7-0.8,3.1-0.8c0,0-1.7,1.1-2,3l-2.9,0.5
	c0,0-0.4,0.6-0.5,1C52.1,61.3,50.9,62.4,50.9,62.4z"/>
<path id="_x2E_svg_9754_" fill="#D78E2F" d="M65.7,48.8l1,0.2c0,0,1.2-6.3-1-6.3c-0.8,0-1.4,0.2-1.8,0.5c0,0,1.9-0.8,1.9,5.6
	L65.7,48.8z"/>
<path id="_x2E_svg_9753_" fill="#8EAAB2" d="M45.9,64.6l1.8-6.5c0,0-0.1-0.9,0.7-1.8c0.8-0.9,0.9-4.6,2.7-6.1h1.3l0.7-0.7l0.8,1.2
	l-1.2,0.5l-0.6,2.5l-1.9,0.8l-0.4,2.1c0,0-1.4,1.1-1.5,1.9l-0.3,2.5L45.9,64.6z"/>
<path id="_x2E_svg_9752_" fill="#5E808E" d="M17.1,61.9c0,0,4.8,0.6,6.1,0s6.7,0.3,8.2,0.2s4.5-0.9,8.1-0.9s12.2,0.7,14.7,0.2
	s4.4-0.9,4.4-0.9s-12.1,9.5-20.8,9.5S17.1,61.9,17.1,61.9z"/>
<path id="_x2E_svg_9751_" fill="#E6F6FD" d="M20.1,64.2c0,0,1.1-0.3,2.3-0.9c0,0,1.1,1,2.8,1.2c0,0-2.3,0.1-2.9-0.3
	C22.3,64.1,21.3,64.1,20.1,64.2z"/>
<path id="_x2E_svg_9750_" fill="#E6F6FD" d="M44.2,64.6c0,0,1.1-0.3,2.3-0.9c0,0,1.1,1,2.8,1.2c0,0-2.3,0.1-2.9-0.3
	C46.4,64.5,45.3,64.6,44.2,64.6z"/>
<path id="_x2E_svg_9709_" fill="#1A2E33" d="M0,36c0,19.9,16.1,36,36,36s36-16.1,36-36C72,16.1,55.9,0,36,0S0,16.1,0,36z M4.4,35.7
	C4.4,18.2,18.5,4.1,36,4.1s31.6,14.1,31.6,31.6c0,17.5-14.1,31.6-31.6,31.6S4.4,53.1,4.4,35.7z"/>
<polygon id="_x2E_svg_9749_" fill="#587C99" points="60,28.2 55.5,7.2 50,27.5 "/>
<polygon id="_x2E_svg_9748_" fill="#3C5666" points="51.1,23.7 50.9,19.6 50.3,19.5 50.3,18.3 51.8,17.8 52.2,19.6 "/>
<polygon id="_x2E_svg_9747_" fill="#587C99" points="50.3,18.3 49.8,18.6 50.3,13.5 52.7,17.4 "/>
<polygon id="_x2E_svg_9746_" fill="#7B9CAF" points="37.5,36.9 37.5,38.6 37.7,38.7 37.8,44.4 37.5,44.6 37.5,46.3 38.7,46.3 
	38.7,44.6 38.5,44.3 38.3,38.7 38.7,38.3 38.7,36.7 "/>
<polygon id="_x2E_svg_9745_" fill="#7B9CAF" points="39.5,36.7 39.5,38.6 39.8,38.7 39.9,44.4 39.5,44.6 39.5,46.1 40.8,46.1 
	40.8,44.6 40.5,44.3 40.4,38.7 40.8,38.3 40.7,36.4 "/>
<polygon id="_x2E_svg_9744_" fill="#7B9CAF" points="41.3,36.3 41.3,38.2 41.5,38.4 41.6,44 41.3,44.2 41.3,46 42.6,45.9 42.6,44.2 
	42.3,44 42.1,38.3 42.6,37.9 42.5,36.1 "/>
<polygon id="_x2E_svg_9743_" fill="#7B9CAF" points="43.2,36.3 43.2,38.2 43.5,38.4 43.6,44 43.2,44.2 43.2,46.1 44.5,46.1 
	44.5,44.2 44.2,44 44.1,38.3 44.5,37.9 44.4,36.1 "/>
<polygon id="_x2E_svg_9742_" fill="#7B9CAF" points="45.4,35.9 45.4,37.8 45.6,38 45.7,43.6 45.4,43.8 45.4,46.1 46.7,46 46.7,43.8 
	46.4,43.6 46.2,37.9 46.7,37.5 46.6,35.7 "/>
<polygon id="_x2E_svg_9741_" fill="#FBB040" points="36.8,39.8 37.5,39.7 37.5,43.4 36.8,43.5 "/>
<polygon id="_x2E_svg_9740_" fill="#FBB040" points="38.7,39.6 39.4,39.5 39.4,43.2 38.7,43.3 "/>
<polygon id="_x2E_svg_9739_" fill="#FBB040" points="40.6,39.6 41.3,39.5 41.3,43.2 40.6,43.3 "/>
<polygon id="_x2E_svg_9738_" fill="#FBB040" points="42.6,39.3 43.2,39.2 43.2,42.9 42.6,43 "/>
<polygon id="_x2E_svg_9737_" fill="#FBB040" points="44.6,39 45.2,38.9 45.2,42.7 44.6,42.8 "/>
<polygon id="_x2E_svg_9736_" fill="#FBB040" points="46.7,38.8 47.4,38.7 47.4,42.4 46.7,42.5 "/>
<polygon id="_x2E_svg_9735_" fill="#FBB040" points="53.4,41 55.3,40.6 55.3,44.4 53.4,44.7 "/>
<polygon id="_x2E_svg_9734_" fill="#FBB040" points="53.4,45.5 54.2,45.4 54.2,49.1 53.4,49.3 "/>
<polygon id="_x2E_svg_9733_" fill="#FBB040" points="54.7,45.3 55.5,45.2 55.5,48.9 54.7,49 "/>
<polygon id="_x2E_svg_9732_" fill="#FBB040" points="57.2,44.9 58,44.8 58,48.6 57.2,48.7 "/>
<polygon id="_x2E_svg_9731_" fill="#FBB040" points="58.4,44.7 59.2,44.6 59.2,48.3 58.4,48.5 "/>
<polygon id="_x2E_svg_9730_" fill="#FBB040" points="57.2,40.2 59.1,39.9 59.1,43.6 57.2,44 "/>
<polygon id="_x2E_svg_9729_" fill="#FBB040" points="48.7,38.7 49.4,38.6 49.4,42.3 48.7,42.4 "/>
<polygon id="_x2E_svg_9728_" fill="#4C6B7F" points="47.5,44.8 50.3,40.3 52.6,44.6 "/>
<path id="_x2E_svg_9727_" fill="#7B9CAF" d="M50,30.4v-2.8c0,0,1.2-1.8,5.1-1.8c3.9,0,4.9,2.5,4.9,2.5V31c0,0-1.6-1.8-4.8-1.8
	C52.1,29.2,50,30.4,50,30.4z"/>
<polygon id="_x2E_svg_9726_" fill="#FBB040" points="51.7,30.4 52.4,30.3 52.4,31.7 51.7,31.8 "/>
<polygon id="_x2E_svg_9725_" fill="#FBB040" points="51.7,32.8 52.4,32.6 52.4,34.1 51.7,34.2 "/>
<polygon id="_x2E_svg_9723_" fill="#FBB040" points="51.7,35.2 52.4,35 52.4,36.4 51.7,36.6 "/>
<polygon id="_x2E_svg_9722_" fill="#FBB040" points="55.9,30 55.3,29.8 55.3,31.3 55.9,31.4 "/>
<polygon id="_x2E_svg_9721_" fill="#FBB040" points="55.9,32.3 55.3,32.2 55.3,33.6 55.9,33.8 "/>
<polygon id="_x2E_svg_9720_" fill="#FBB040" points="58.2,30.5 57.6,30.4 57.6,31.8 58.2,32 "/>
<polygon id="_x2E_svg_9719_" fill="#FBB040" points="58.2,32.9 57.6,32.8 57.6,34.2 58.2,34.3 "/>
<polygon id="_x2E_svg_9717_" fill="#FBB040" points="58.2,35.7 57.6,35.6 57.6,36.4 58.2,36.4 "/>
<polygon id="_x2E_svg_9716_" fill="#FBB040" points="55.9,34.7 55.3,34.6 55.3,36 55.9,36.1 "/>
<polygon id="_x2E_svg_9715_" fill="#FBB040" points="51.7,37.5 52.4,37.4 52.4,38.8 51.7,38.9 "/>
<polygon id="_x2E_svg_9714_" fill="#FBB040" points="53.4,37.1 54,37.1 54,38.5 53.4,38.5 "/>
<polygon id="_x2E_svg_9713_" fill="#FBB040" points="53.4,34.7 54,34.7 54,36.1 53.4,36.1 "/>
<polygon id="_x2E_svg_9712_" fill="#FBB040" points="53.4,32.3 54,32.3 54,33.7 53.4,33.7 "/>
<polygon id="_x2E_svg_9711_" fill="#FBB040" points="53.4,29.9 54,29.9 54,31.3 53.4,31.4 "/>
<circle id="_x2E_svg_9710_" fill="#FBB040" cx="61" cy="48.4" r="0.4"/>
<circle id="_x2E_svg_9708_" fill="#FBB040" cx="62.4" cy="48.7" r="0.4"/>
<circle id="_x2E_svg_9707_" fill="#FBB040" cx="63.7" cy="49.4" r="0.4"/>
<path id="_x2E_svg_9706_" fill="#587C99" d="M36,25.8c-0.7,0.3-1.2,0.9-1.6,1.5c-0.1,0-0.2,0-0.2,0c-0.7,0-1.3,0.4-1.6,1
	c-0.6-1.1-1.8-1.9-3.1-1.9c-1.7,0-3,1.1-3.4,2.7c0,0,0,0,0,0c-0.1-0.4-0.3-0.8-0.5-1.1c0.4-0.4,0.6-0.9,0.6-1.5c0-1.1-0.8-2-1.9-2.1
	c0.5-0.1,0.8-0.5,0.8-1c0-0.5-0.4-1-1-1c-0.5,0-1,0.4-1,1c0,0,0,0,0,0.1c-0.1,0-0.2-0.1-0.3-0.1c-0.7,0-1.3,0.6-1.3,1.3
	c0,0.4,0.2,0.8,0.6,1.1c-0.1,0.2-0.1,0.5-0.1,0.7c0,0,0,0.1,0,0.1c-1.3,0.3-2.3,1.4-2.5,2.8c-0.5-0.6-1.3-0.9-2.1-0.9
	c-1.2,0-2.2,0.8-2.6,1.9c-0.4-0.7-1.1-1.2-2-1.2c-0.5,0-1,0.2-1.4,0.5c-0.6-1.4-1.7-2.4-3.1-2.8c0,0,3.1,2.6,3,4.2
	c0,0,0.3-1.1,1.7-1.2s1.8,1.5,1.8,1.5s0.8-2.3,2.6-2.1c1.8,0.2,2.3,1,2.3,1s0.4-2.9,2.5-3c0,0,0-1.3,0.6-1.6c0,0-1-0.6-0.6-1.3
	s1-0.4,1.2-0.1c0,0-0.2-1.4,1-1.5c0,0,0.8,0.3,0.3,0.9s-0.9,0.8-0.9,0.8s2.2,0.4,2.1,1.9c-0.2,1.5-1.3,2.1-1.3,2.1s1.5,0.1,1.6,1.6
	c0,0,1.5-3.3,3.5-3.2s3.2,2.2,3.2,2.2s0.4-1.5,2.2-1.5C34.9,27.6,34.9,26.7,36,25.8L36,25.8z"/>
<path id="_x2E_svg_9705_" fill="#587C99" d="M24.2,9.9c0.2,0.3,0.3,0.6,0.3,0.9c0,0.3-0.1,0.6-0.3,0.8c0.4,0.1,0.7,0.5,0.7,1
	c0,0.5-0.5,1-1,0.9c-0.2,0-0.4-0.1-0.5-0.2c-0.4,0.3-0.8,0.5-1.4,0.5c-0.3,0-0.7-0.1-0.9-0.3c-0.7,0.7-1.7,1.1-2.8,1.1
	c-0.4,0-0.8-0.1-1.2-0.2c-0.4,0.7-1.2,1.2-2.1,1.2c-0.2,0-0.4-0.1-0.6-0.1c0,0.2,0,0.3,0,0.5c-0.1,1.3-1.2,2.4-2.5,2.3
	c0,0,2.8-0.9,2-3.9c0,0,0.9,1,2,0.6s0.7-1.6,0.7-1.6s0.8,1.1,2.5,0.7c1.8-0.4,1.8-1.6,1.8-1.6s0.4,1.1,1.2,0.9s1.1-0.9,1.1-0.9
	s0.4,0.7,1,0.5s0.3-1.2-0.8-1.3C23.5,11.6,24.7,11,24.2,9.9L24.2,9.9z"/>
<path id="_x2E_svg_9704_" fill="#587C99" d="M47.5,16.8c-0.8-0.1-1.6-0.1-2.5,0.2c-1.5,0.5-2.7,1.6-3.3,3c-0.6,1.4-0.6,2.7-0.3,3.8
	c0,0,0,0,0,0c-0.6,0-1.1,0.2-1.5,0.4c0,0,1.8-0.3,2.4,0.4C42.2,24.7,39.2,18.4,47.5,16.8L47.5,16.8z"/>
<path id="_x2E_svg_9703_" fill="#10171A" d="M28.5,64.9l-0.8-1.5v-1.9l1.2-0.2c0,0,0.6-0.8,1.2-1.2c0,0-0.5-1.5,0.4-1.9
	c0.9-0.5,1.5,0.5,1.5,0.5s0-0.3,0.7-0.6c0.7-0.3,0.9,0,0.9,0s0.1-0.3,0.6-0.1c0.5,0.2,0.4,1,0.4,1l0.4,1.3c0,0-0.3,0.4,0.4,0.6
	c0.7,0.3,1.2,0.9,1,1.2c-0.1,0.4-0.5,1.4-0.5,1.4l-0.6,1.6H28.5z"/>
<path id="_x2E_svg_9702_" fill="none" stroke="#10171A" stroke-width="0.5" stroke-miterlimit="10" d="M32.6,58.5
	c0,0,0.3-2.3,0.2-3.5"/>
<g id="_x2E_svg_9701_">
	<path fill="#4D4D6C" d="M34.4,54.5c0.5,0.7-0.7,1.6-1.6,1.6c-0.9,0-2-0.8-1.6-1.6c0.8-1.3,1.3-1.6,1.6-1.6
		C33,52.9,33.8,53.6,34.4,54.5z"/>
	<path fill="#70666C" d="M34.2,54.5c0.4,0.7-0.6,1.4-1.4,1.4c-0.8,0-1.8-0.7-1.4-1.4c0.7-1.2,1.2-1.4,1.4-1.4
		C33,53.1,33.7,53.7,34.2,54.5z"/>
	<path fill="#968468" d="M34,54.5c0.4,0.6-0.5,1.2-1.2,1.2s-1.5-0.6-1.2-1.2c0.6-1,1-1.2,1.2-1.2C33,53.3,33.6,53.8,34,54.5z"/>
	<path fill="#C3A85D" d="M33.8,54.5c0.3,0.5-0.5,1-1,1c-0.6,0-1.3-0.5-1-1c0.5-0.9,0.9-1.1,1-1C33,53.4,33.5,53.9,33.8,54.5z"/>
	<path fill="#F9D640" d="M33.7,54.5c0.3,0.4-0.4,0.9-0.9,0.9s-1.1-0.5-0.9-0.9c0.4-0.7,0.7-0.9,0.9-0.9C32.9,53.6,33.4,54,33.7,54.5
		z"/>
</g>
<path id="_x2E_svg_9700_" fill="#F6AC41" d="M28.9,61.3c0,0,1-1.2,1.7-1.2c0,0-0.7-0.8-0.2-1.7c0.5-0.8,1.5,0.5,1.5,0.5
	s0.5-0.7,0.8-0.6c0.3,0,0.5,0.1,0.8,0s0.9-0.4,1,0.4c0,0,0.3,1.1,0.2,1.6c-0.1,0.3,0.7,0.4,0.7,0.4c-0.7-0.3-0.4-0.6-0.4-0.6
	l-0.4-1.3c0,0,0-0.8-0.4-1c-0.5-0.2-0.6,0.1-0.6,0.1s-0.2-0.3-0.9,0C32,58.2,32,58.5,32,58.5s-0.6-1-1.5-0.5
	c-0.9,0.5-0.4,1.9-0.4,1.9C29.5,60.4,28.9,61.2,28.9,61.3"/>
<path id="_x2E_svg_9699_" fill="#29393F" d="M27.9,61.6l3.9,0.5c0,0,4-0.7,3.8-0.6s-4.5,1.4-4.5,1.4l0.7,0.3v1.6l-3.2-0.1l-0.8-1.5
	L27.9,61.6z"/>
<path id="_x2E_svg_9697_" fill="#E6F6FD" d="M27.5,64.9c0,0,0.6-0.1,1.4-0.5c0,0,0.6,0.6,1.6,0.8c0,0-1.4,0-1.7-0.2
	C28.8,64.9,28.2,64.9,27.5,64.9z"/>
<path id="_x2E_svg_9696_" fill="#E6F6FD" d="M36.4,62.9c0,0,0.6-0.2,1.4-0.6c0,0,0.6,0.6,1.7,0.7c0,0-1.4,0-1.7-0.2
	C37.7,62.8,37.1,62.9,36.4,62.9z"/>
<path id="_x2E_svg_9695_" fill="#E6F6FD" d="M36.8,65.6c0,0,0.9-0.2,2-0.8c0,0,0.9,0.9,2.4,1c0,0-2,0-2.5-0.3
	C38.7,65.5,37.8,65.6,36.8,65.6z"/>
<path id="_x2E_svg_9694_" fill="#E6F6FD" d="M40.2,62c0,0,0.5-0.1,1-0.4c0,0,0.5,0.4,1.2,0.5c0,0-1,0-1.3-0.1
	C41.1,61.9,40.7,62,40.2,62z"/>
<path id="_x2E_svg_9693_" fill="#E6F6FD" d="M24.6,62.5c0,0,0.5-0.1,1-0.4c0,0,0.5,0.4,1.2,0.5c0,0-1,0-1.3-0.1
	C25.6,62.4,25.1,62.5,24.6,62.5z"/>
<g>
</g>
<g>
</g>
<g>
</g>
<g>
</g>
<g>
</g>
<g>
</g>
<g>
</g>
<g>
</g>
<g>
</g>
<g>
</g>
<g>
</g>
<g>
</g>
<g>
</g>
<g>
</g>
<g>
</g>
</svg>
