<?xml version="1.0" encoding="UTF-8" standalone="no"?>
<!DOCTYPE svg PUBLIC "-//W3C//DTD SVG 1.1//EN" "http://www.w3.org/Graphics/SVG/1.1/DTD/svg11.dtd">
<svg id="Layer_1" data-name="Layer 1" xmlns="http://www.w3.org/2000/svg" viewBox="0 0 500 500"><style id="stylish-1" class="stylish" type="text/css">scrollbar *
  scrollbar scrollbarbutton{visibility:collapse!important;}
  scrollbar scrollbarbutton{display:none!important;}
 
  scrollbar[orient="vertical"]{background:#999 url(https://pbs.twimg.com/media/CKecQtCWoAA8keI.png)!important;-moz-appearance:none!important;min-width:9px!important;max-width:9px!important;border-radius:5px;}
  scrollbar[orient="vertical"]:hover{-moz-appearance:none!important;}
  scrollbar thumb[orient="vertical"]{background:#97b2bd!important;-moz-appearance:none!important;border-radius:4px!important;min-height:25px!important;min-width:9px!important;max-width:9px!important;border:1px!important;opacity:0.87;}
  scrollbar thumb[orient="vertical"]:hover{background:#97b2bd!important;border-radius:4px!important;border:0px!important;opacity:1;}
  
  scrollbar[orient="horizontal"]{background:#999 url(https://pbs.twimg.com/media/CKecQtCWoAA8keI.png)!important;-moz-appearance:none!important;background-color:transparent!important;opacity:.75!important;min-height:9px!important;max-height:9px!important;border-radius:5px;}
  scrollbar[orient="horizontal"]:hover{-moz-appearance:none!important;background-color:transparent!important;min-height:9px!important;max-height:9px!important}
  scrollbar thumb[orient="horizontal"]{background:#97b2bd!important;-moz-appearance:none!important;border-radius:4px!important;min-height:25px!important;max-height:8px!important;border:1px!important;margin-left:0px!important;opacity:0.87;}
  scrollbar thumb[orient="horizontal"]:hover{background:#97b2bd!important;border-radius:4px!important;border:0px!important;opacity:1;}

scrollcorner{opacity:0!important}
scrollbar scrollcorner:hover{background:transparent!important}
::-webkit-scrollbar{width:9px!important;}
body::-webkit-scrollbar{width:12.5px!important;}

::-webkit-scrollbar-track{background:rgba(255,255,255,0.22)!important;border-radius:8px!important;-webkit-box-shadow:inset 0 0 4px rgba(0,0,0,0.3)!important;}
body::-webkit-scrollbar-track{background:#999 url(https://pbs.twimg.com/media/CKecQtCWoAA8keI.png)!important;}

::-webkit-scrollbar-thumb{background-color:#97b2bd!important;background-image:-webkit-linear-gradient(294deg,rgba(255,255,255,.2) 25%,transparent 25%,transparent 50%,rgba(255,255,255,.2) 50%,rgba(255, 255, 255,.2) 75%,transparent 75%,transparent);min-height:50px;border-radius:5px!important;-webkit-box-shadow:inset 0 0 4px rgba(0,0,0,0.5)!important;}</style><defs><style>.cls-1{fill:#010101;}.cls-2{fill:none;stroke:#000;stroke-miterlimit:10;stroke-width:18.44px;}.cls-3,.cls-4,.cls-5{fill:#f05223;}.cls-4{font-size:179.96px;}.cls-4,.cls-5{font-family:Stag;}.cls-5{font-size:177px;letter-spacing:8.58px;}.cls-6{letter-spacing:13.72px;}</style></defs><title>rating</title><path class="cls-1" d="M272.44,76.57L251.55,18.86,228,76.53c7.23-.67,14.56-1.06,22-1.06C257.57,75.48,265.05,75.87,272.44,76.57Z"/><path class="cls-1" d="M227.56,423.43l20.89,57.71L272,423.47c-7.23.68-14.56,1.06-22,1.06C242.42,424.52,234.95,424.13,227.56,423.43Z"/><path class="cls-1" d="M423.43,272.44l57.71-20.89L423.46,228c0.68,7.23,1.06,14.56,1.06,22C424.52,257.57,424.13,265.05,423.43,272.44Z"/><path class="cls-1" d="M76.57,227.56L18.86,248.45,76.54,272c-0.68-7.23-1.06-14.56-1.06-22C75.48,242.42,75.87,234.95,76.57,227.56Z"/><line class="cls-2" x1="377.63" y1="122.37" x2="392.65" y2="107.35"/><line class="cls-2" x1="107.35" y1="392.65" x2="122.37" y2="377.63"/><line class="cls-2" x1="122.37" y1="122.37" x2="107.35" y2="107.35"/><line class="cls-2" x1="392.65" y1="392.65" x2="377.63" y2="377.63"/><path class="cls-3" d="M252,386V418.2a167.74,167.74,0,0,0,117.4-49.8l-22.79-22.79A135.57,135.57,0,0,1,252,386Z"/><path class="cls-3" d="M250,386a135.58,135.58,0,0,1-96.88-40.66l-22.85,22.72A167.75,167.75,0,0,0,250,418.22l2,0V386Z"/><path class="cls-3" d="M386,250.89a135.55,135.55,0,0,1-39.37,94.72L369.4,368.4A167.72,167.72,0,0,0,418.25,251.1Z"/><path class="cls-3" d="M114,250v0c0-.05,0-0.1,0-0.15,0-.24,0-0.48,0-0.72l-32.27-.21c0,0.3,0,.59,0,0.89,0,0.07,0,.15,0,0.22a167.71,167.71,0,0,0,48.54,118.08l22.85-22.72A135.55,135.55,0,0,1,114,250Z"/><path class="cls-1" d="M250,114c0.67,0,1.33,0,2,0V81.78c-0.66,0-1.33,0-2,0A167.65,167.65,0,0,0,131.6,130.6l22.8,22.8A135.53,135.53,0,0,1,250,114Z"/><path class="cls-3" d="M255,114.13c1.25,0,2.5.1,3.75,0.18,1,0.07,2.07.15,3.1,0.24,1.25,0.11,2.49.23,3.72,0.37,1,0.12,2,.25,3,0.39,1.23,0.17,2.45.35,3.67,0.55,1,0.17,2,.35,3,0.54,1.2,0.23,2.4.46,3.59,0.72,1,0.22,2,.45,3,0.69,1.17,0.28,2.33.57,3.48,0.88,1,0.27,2,.56,3,0.85s2.25,0.67,3.36,1,2,0.67,3,1,2.15,0.75,3.22,1.16,2,0.78,3,1.19,2.05,0.83,3.06,1.27,2,0.91,3,1.37,1.93,0.89,2.88,1.36,2.05,1,3.07,1.57,1.81,0.94,2.7,1.44c1,0.58,2.07,1.18,3.09,1.78,0.84,0.49,1.68,1,2.5,1.49,1.05,0.65,2.08,1.32,3.11,2,0.77,0.51,1.55,1,2.32,1.53,1.06,0.73,2.1,1.48,3.14,2.24,0.7,0.51,1.4,1,2.09,1.53,1.08,0.81,2.13,1.66,3.18,2.5,0.62,0.5,1.26,1,1.87,1.51,1.08,0.9,2.14,1.83,3.19,2.77,0.56,0.49,1.12,1,1.67,1.48,1.08,1,2.14,2,3.19,3l0.88,0.86,22.87-22.74-1.55-1.51c-1.2-1.17-2.4-2.34-3.64-3.47-0.79-.73-1.61-1.43-2.42-2.14-1.19-1-2.38-2.1-3.59-3.11-0.89-.74-1.81-1.46-2.72-2.18-1.17-.94-2.34-1.88-3.54-2.79-1-.75-2-1.46-3-2.19-1.16-.84-2.31-1.68-3.49-2.49s-2.18-1.44-3.28-2.15-2.28-1.49-3.45-2.21-2.36-1.41-3.55-2.1-2.25-1.32-3.39-2-2.54-1.35-3.81-2c-1.1-.57-2.2-1.15-3.32-1.7-1.34-.66-2.71-1.28-4.07-1.91-1.09-.5-2.17-1-3.27-1.48-1.42-.61-2.86-1.19-4.29-1.77-1.07-.43-2.14-0.87-3.23-1.27-1.49-.56-3-1.08-4.51-1.6-1.06-.36-2.12-0.74-3.19-1.08-1.56-.5-3.13-1-4.71-1.42-1.05-.3-2.1-0.62-3.16-0.9-1.61-.43-3.24-0.82-4.87-1.21-1.05-.25-2.1-0.5-3.16-0.73-1.65-.36-3.32-0.67-5-1-1.06-.2-2.12-0.4-3.19-0.57-1.69-.28-3.39-0.51-5.09-0.74-1.07-.14-2.14-0.29-3.22-0.41-1.72-.19-3.44-0.35-5.17-0.49-1.09-.09-2.18-0.18-3.28-0.25-1.73-.11-3.46-0.17-5.2-0.23l-2.12-.05-1.25,0V114Z"/><path class="cls-1" d="M114.27,241.9c0-.83.13-1.66,0.19-2.49q0.22-2.85.55-5.67c0.1-.85.21-1.69,0.32-2.54q0.43-3.07,1-6.09c0.11-.57.19-1.15,0.31-1.72q0.78-3.92,1.78-7.75a136.06,136.06,0,0,1,36-62.24l-22.8-22.8a168.33,168.33,0,0,0-44.93,79c-0.05.21-.1,0.43-0.15,0.64q-1,4.14-1.8,8.36c-0.13.66-.24,1.33-0.36,2q-0.65,3.64-1.13,7.33c-0.11.87-.23,1.74-0.33,2.62-0.27,2.33-.48,4.69-0.65,7.05-0.07.91-.16,1.81-0.21,2.72q-0.24,4.24-.28,8.54L114,249.08Q114.05,245.47,114.27,241.9Z"/><path class="cls-3" d="M346.45,154.23c1.08,1.08,2.12,2.2,3.17,3.32,0.43,0.46.86,0.91,1.28,1.37,1.06,1.18,2.1,2.38,3.12,3.6,0.37,0.43.74,0.86,1.1,1.3,1,1.27,2.05,2.57,3.05,3.88,0.31,0.41.63,0.81,0.94,1.22,1,1.37,2,2.77,3,4.19,0.26,0.37.52,0.73,0.77,1.11,1,1.48,1.95,3,2.89,4.5,0.2,0.33.42,0.65,0.62,1,1,1.57,1.87,3.18,2.76,4.79,0.16,0.29.33,0.58,0.49,0.87,0.9,1.67,1.76,3.36,2.6,5.07,0.13,0.26.26,0.51,0.39,0.77,0.85,1.77,1.65,3.56,2.43,5.37,0.09,0.21.19,0.42,0.28,0.63,0.78,1.86,1.52,3.74,2.23,5.64l0.2,0.52q1.07,2.92,2,5.91l0.13,0.38q1,3.05,1.76,6.17l0.07,0.27q0.81,3.16,1.48,6.39l0,0.18q0.67,3.28,1.18,6.61v0.07A136.4,136.4,0,0,1,386,250v0c0,0.3,0,.59,0,0.89l32.27,0.21c0-.38,0-0.75,0-1.13a168.88,168.88,0,0,0-1.94-25.56l0-.11q-0.63-4.11-1.46-8.15c0-.12-0.06-0.24-0.08-0.36q-0.81-3.92-1.8-7.77c0-.15-0.09-0.3-0.13-0.45q-1-3.79-2.14-7.51c-0.07-.22-0.15-0.44-0.22-0.66-0.76-2.4-1.56-4.78-2.42-7.13-0.1-.27-0.21-0.52-0.31-0.79-0.85-2.3-1.75-4.58-2.7-6.83-0.13-.32-0.28-0.62-0.42-0.94-0.94-2.18-1.91-4.35-2.94-6.48-0.18-.37-0.38-0.74-0.56-1.11-1-2.06-2-4.1-3.13-6.11-0.24-.43-0.49-0.86-0.73-1.29-1.07-1.93-2.15-3.84-3.29-5.72-0.29-.48-0.61-0.95-0.9-1.43-1.12-1.8-2.25-3.6-3.44-5.36-0.36-.54-0.75-1.06-1.12-1.59-1.15-1.67-2.32-3.33-3.53-5-0.44-.59-0.9-1.16-1.35-1.74-1.18-1.54-2.36-3.08-3.6-4.57-0.52-.63-1.06-1.24-1.59-1.87-1.2-1.41-2.39-2.82-3.64-4.2-0.61-.67-1.24-1.32-1.86-2-1.2-1.29-2.41-2.58-3.65-3.83l-0.58-.56-22.87,22.74Z"/><text class="cls-4" transform="translate(166.73 322.74)">4</text><text class="cls-5" transform="translate(264.08 263.8) scale(0.58)">.<tspan class="cls-6" x="41.06" y="0">1</tspan></text></svg>