<?xml version="1.0" encoding="utf-8"?>
<!-- Generator: Adobe Illustrator 19.2.1, SVG Export Plug-In . SVG Version: 6.00 Build 0)  -->
<svg version="1.1" id="Layer_1" xmlns="http://www.w3.org/2000/svg" xmlns:xlink="http://www.w3.org/1999/xlink" x="0px" y="0px"
	 viewBox="0 0 263 263" style="enable-background:new 0 0 263 263;" xml:space="preserve">
<style type="text/css">
	.st0{fill:#FFFFFF;}
	.st1{fill:none;stroke:#EDEFF1;stroke-miterlimit:10;}
	.st2{opacity:0.36;fill:none;stroke:#008150;stroke-miterlimit:10;enable-background:new    ;}
	.st3{fill:#7C9391;}
	.st4{fill:#EDEFF1;}
	.st5{fill:#FFDD35;}
	.st6{fill:#C3C4B6;}
	.st7{fill:#E02D33;}
	.st8{fill:#FAC487;}
	.st9{fill:#F8B571;}
	.st10{fill:#0099A9;}
	.st11{fill:#383C43;}
	.st12{fill:#96382B;}
	.st13{fill:#ED8253;}
	.st14{fill:#F9BB79;}
	.st15{fill:#9D3A2C;}
	.st16{fill:#EAE8EA;}
	.st17{fill:#D52B31;}
	.st18{fill:#F7F8FB;}
	.st19{fill:#364152;}
	.st20{fill:#97392D;}
	.st21{fill:#FBCA95;}
	.st22{fill:#46A3B0;}
	.st23{fill:#79B5C2;}
	.st24{fill:#FCD3A9;}
	.st25{fill:#67656A;}
	.st26{fill:#97C2CE;}
	.st27{fill:#FDDDBE;}
	.st28{fill:#B0DDF4;}
	.st29{fill:#3B495C;}
	.st30{fill:#25424E;}
	.st31{fill:#B4B4A6;}
	.st32{fill:#73B1DE;}
	.st33{fill:#096634;}
	.st34{clip-path:url(#SVGID_4_);fill:#096634;}
	.st35{clip-path:url(#SVGID_8_);fill:#096634;}
	.st36{clip-path:url(#SVGID_12_);fill:#096634;}
	.st37{clip-path:url(#SVGID_16_);fill:#096634;}
	.st38{clip-path:url(#SVGID_20_);fill:#096634;}
	.st39{clip-path:url(#SVGID_24_);fill:#096634;}
	.st40{clip-path:url(#SVGID_28_);fill:#096634;}
	.st41{clip-path:url(#SVGID_31_);fill:#096634;}
	.st42{clip-path:url(#SVGID_33_);fill:#096634;}
	.st43{clip-path:url(#SVGID_35_);fill:#096634;}
	.st44{clip-path:url(#SVGID_37_);fill:#096634;}
	.st45{clip-path:url(#SVGID_39_);fill:#096634;}
	.st46{clip-path:url(#SVGID_41_);fill:#096634;}
	.st47{clip-path:url(#SVGID_43_);fill:#096634;}
	.st48{clip-path:url(#SVGID_45_);fill:#096634;}
	.st49{fill:none;}
	.st50{fill:#C8C7C7;}
	.st51{fill:#B6B7B6;}
	.st52{fill:#D7D8D8;}
	.st53{fill:#2D241F;}
	.st54{opacity:0.22;}
	.st55{fill:#008150;}
	.st56{opacity:0.76;fill:#76B143;enable-background:new    ;}
	.st57{fill:#FFEBBC;}
	.st58{fill:#152C3C;}
	.st59{fill:#F39F6F;}
	.st60{fill:#E78223;}
</style>
<circle class="st0" cx="131.5" cy="131.5" r="131.5"/>
<path class="st1" d="M178.8,207.3c4.1-5.7,10.9-8.9,17.7-10c2.6-0.4,5.2-0.6,7.7-0.2c4.8,0.7,9.2,3.3,13.5,5.5
	c6.9,3.5,14.4,6.3,22.1,5.9c7.7-0.3,15.6-4.4,18.8-11.4c0.9-2,1.5-4.3,1.1-6.5c-0.3-2.5-1.7-4.7-3.2-6.6
	c-5.3-6.6-13.2-10.7-21.3-13.2c-8.1-2.5-16.6-3.7-24.8-5.8c-6.3-1.6-12.4-3.8-18.4-5.9"/>
<path class="st2" d="M178.8,207.3c4.1-5.7,10.9-8.9,17.7-10c2.6-0.4,5.2-0.6,7.7-0.2c4.8,0.7,9.2,3.3,13.5,5.5
	c6.9,3.5,14.4,6.3,22.1,5.9c7.7-0.3,15.6-4.4,18.8-11.4c0.9-2,1.5-4.3,1.1-6.5c-0.3-2.5-1.7-4.7-3.2-6.6
	c-5.3-6.6-13.2-10.7-21.3-13.2c-8.1-2.5-16.6-3.7-24.8-5.8c-6.3-1.6-12.4-3.8-18.4-5.9"/>
<g>
	<g>
		<rect x="90.9" y="51.6" class="st3" width="155.1" height="92.4"/>
		<path class="st4" d="M245.9,143.9h-155V51.6h154.9v92.3H245.9z M248.8,42.6H88c-3.3,0-6,2.7-6,6v107.2c0,3.3,2.7,6,6,6h160.9
			c3.3,0,6-2.7,6-6V48.6C254.8,45.3,252.1,42.6,248.8,42.6"/>
		<rect x="102.4" y="60.7" class="st0" width="78.6" height="35.2"/>
		<polygon class="st5" points="134.6,72.3 134.8,73.4 133.8,72.9 132.8,73.4 133,72.3 132.2,71.5 133.3,71.3 133.8,70.3 134.3,71.3 
			135.4,71.5 		"/>
		<polygon class="st5" points="142.9,72.3 143.1,73.4 142.1,72.9 141.1,73.4 141.3,72.3 140.5,71.5 141.6,71.3 142.1,70.3 
			142.6,71.3 143.7,71.5 		"/>
		<polygon class="st5" points="147.1,72.3 147.3,73.4 146.3,72.9 145.3,73.4 145.5,72.3 144.7,71.5 145.8,71.3 146.3,70.3 
			146.8,71.3 147.9,71.5 		"/>
		<polygon class="st5" points="151.2,72.3 151.4,73.4 150.4,72.9 149.5,73.4 149.6,72.3 148.8,71.5 149.9,71.3 150.4,70.3 
			150.9,71.3 152,71.5 		"/>
		<polygon class="st5" points="138.8,72.3 138.9,73.4 138,72.9 137,73.4 137.2,72.3 136.4,71.5 137.5,71.3 138,70.3 138.5,71.3 
			139.6,71.5 		"/>
		<rect x="132.2" y="66.4" class="st6" width="19.4" height="1.4"/>
		<rect x="132.2" y="86.1" class="st6" width="11.8" height="1.4"/>
		<rect x="146.1" y="86.1" class="st6" width="18.7" height="1.4"/>
		<rect x="166.7" y="86.1" class="st6" width="10.7" height="1.4"/>
		<rect x="132.2" y="81.9" class="st6" width="33.7" height="1.4"/>
		<rect x="167.9" y="81.9" class="st6" width="9.5" height="1.4"/>
		<rect x="132.2" y="90.3" class="st6" width="20.7" height="1.4"/>
		<rect x="155.1" y="90.3" class="st6" width="22.4" height="1.4"/>
		<path class="st7" d="M129.6,76.8c0,6.5-5.3,11.8-11.8,11.8S106,83.3,106,76.8S111.3,65,117.8,65C124.3,65,129.6,70.3,129.6,76.8"
			/>
		<rect x="118.6" y="78.7" class="st8" width="3.1" height="8.6"/>
		<rect x="120.6" y="78.7" class="st9" width="1.1" height="8.6"/>
		<path class="st9" d="M121.7,73.3c0-1.9-1.6-3.5-3.5-3.5h-2.7c-1.7,0-3.1,1.2-3.4,2.8c0,0.2-0.1,0.4-0.1,0.7v5.3
			c0,1.9,1.6,3.5,3.5,3.5h2.7c1.9,0,3.5-1.6,3.5-3.5v-2.3V73.3z"/>
		<path class="st8" d="M118.7,69.9c-0.1,0-0.3,0-0.5,0h-2.7c-1.9,0-3.5,1.6-3.5,3.5v1.9v3.4c0,1.4,0.8,2.5,1.9,3.1
			c0.1,0,0.3,0,0.5,0h2.7c1.9,0,3.5-1.6,3.5-3.5v-0.4V73C120.6,71.6,119.8,70.4,118.7,69.9"/>
		<path class="st10" d="M117.8,88.7c2.8,0,5.3-1,7.4-2.6c-0.3-0.4-0.8-0.6-1.3-0.6h-7.3c-1,0-1.7,0.8-1.7,1.7v1.1
			C115.7,88.5,116.7,88.7,117.8,88.7"/>
		<path class="st11" d="M113.3,76.1c0,0.2-0.1,0.3-0.2,0.3c-0.1,0-0.2-0.1-0.2-0.3c0-0.2,0.1-0.3,0.2-0.3
			C113.2,75.8,113.3,75.9,113.3,76.1"/>
		<path class="st11" d="M116.9,76.1c0,0.2-0.1,0.3-0.2,0.3s-0.2-0.1-0.2-0.3c0-0.2,0.1-0.3,0.2-0.3S116.9,75.9,116.9,76.1"/>
		<path class="st9" d="M115.8,78.3h-1c-0.1,0-0.2-0.1-0.2-0.2v-2.3c0-0.1,0.1-0.2,0.2-0.2c0.1,0,0.2,0.1,0.2,0.2V78h0.9
			c0.1,0,0.2,0.1,0.2,0.2C116,78.2,115.9,78.3,115.8,78.3"/>
		<path class="st9" d="M115.8,80.5c-0.2,0-0.4,0-0.4,0c-0.1,0-0.2-0.2-0.2-0.3c0-0.1,0.2-0.2,0.3-0.2c0,0,1.1,0.3,1.9-1
			c0.1-0.1,0.2-0.2,0.4-0.1c0.1,0.1,0.2,0.2,0.1,0.4C117.1,80.3,116.3,80.5,115.8,80.5"/>
		<path class="st12" d="M117.8,74.8L117.8,74.8c-0.9-0.5-1.7,0-1.7,0c-0.1,0-0.2,0-0.2-0.1s0-0.2,0.1-0.2c0,0,0.9-0.5,2,0
			c0.1,0,0.1,0.1,0.1,0.2L117.8,74.8z"/>
		<path class="st12" d="M113.9,74.8L113.9,74.8c-0.9-0.5-1.7,0-1.7,0c-0.1,0-0.2,0-0.2-0.1s0-0.2,0.1-0.2c0,0,0.9-0.5,2,0
			c0.1,0,0.1,0.1,0.1,0.2L113.9,74.8z"/>
		<path class="st13" d="M112.4,71.8L112.4,71.8L112.4,71.8"/>
		<path class="st14" d="M120.1,71.1c-0.9,0.6-2.5,1-4.3,1c-1.3,0-2.4-0.2-3.3-0.5c0,0.1-0.1,0.1-0.1,0.2l0,0
			c0.9,0.4,2.1,0.6,3.4,0.6c1.9,0,3.5-0.4,4.4-1.1L120.1,71.1z"/>
		<path class="st15" d="M121.6,72.5L121.6,72.5L121.6,72.5L121.6,72.5z"/>
		<path class="st8" d="M121.1,75.4c-0.3,0-0.5,0.1-0.7,0.3c-0.2,0.2-0.3,0.4-0.3,0.7c0,0.6,0.5,1,1,1c0.6,0,1-0.5,1-1
			c0-0.2,0-0.3-0.1-0.5C121.8,75.6,121.5,75.4,121.1,75.4"/>
		<path class="st8" d="M118.2,85.5c0,0.9,0.9,1.7,2,1.7s2-0.8,2-1.7H118.2z"/>
		<path class="st16" d="M181,80.2h-51.8c-0.3,0.9-0.6,1.8-1.1,2.6v13.1h1V81.2h52L181,80.2L181,80.2z"/>
		<path class="st17" d="M129.1,80.2H128v2.6C128.5,82,128.8,81.1,129.1,80.2"/>
		<rect x="129" y="81.2" class="st0" width="78.6" height="35.2"/>
		<polygon class="st5" points="161.2,92.7 161.4,93.8 160.4,93.3 159.4,93.8 159.6,92.7 158.8,92 159.9,91.8 160.4,90.8 160.9,91.8 
			162,92 		"/>
		<polygon class="st5" points="169.5,92.7 169.7,93.8 168.7,93.3 167.7,93.8 167.9,92.7 167.1,92 168.2,91.8 168.7,90.8 169.2,91.8 
			170.3,92 		"/>
		<polygon class="st5" points="173.6,92.7 173.8,93.8 172.8,93.3 171.9,93.8 172.1,92.7 171.3,92 172.4,91.8 172.8,90.8 173.3,91.8 
			174.4,92 		"/>
		<polygon class="st5" points="177.8,92.7 178,93.8 177,93.3 176,93.8 176.2,92.7 175.4,92 176.5,91.8 177,90.8 177.5,91.8 
			178.6,92 		"/>
		<polygon class="st5" points="165.3,92.7 165.5,93.8 164.5,93.3 163.5,93.8 163.7,92.7 162.9,92 164,91.8 164.5,90.8 165,91.8 
			166.1,92 		"/>
		<rect x="158.8" y="86.9" class="st6" width="19.4" height="1.4"/>
		<rect x="158.8" y="106.5" class="st6" width="11.8" height="1.4"/>
		<rect x="172.7" y="106.5" class="st6" width="18.7" height="1.4"/>
		<rect x="193.2" y="106.5" class="st6" width="10.7" height="1.4"/>
		<rect x="158.8" y="102.3" class="st6" width="33.7" height="1.4"/>
		<rect x="194.5" y="102.3" class="st6" width="9.5" height="1.4"/>
		<rect x="158.8" y="110.7" class="st6" width="20.7" height="1.4"/>
		<rect x="181.6" y="110.7" class="st6" width="22.4" height="1.4"/>
		<path class="st10" d="M156.2,97.3c0,6.5-5.3,11.8-11.8,11.8s-11.8-5.3-11.8-11.8s5.3-11.8,11.8-11.8
			C150.9,85.4,156.2,90.7,156.2,97.3"/>
		<rect x="144.1" y="105" class="st18" width="4.3" height="1.3"/>
		<rect x="144.7" y="99.2" class="st8" width="3" height="7"/>
		<rect x="146.7" y="99.2" class="st9" width="1.1" height="7"/>
		<path class="st19" d="M144.4,109.1c2.6,0,5-0.8,7-2.3c-0.3-0.6-0.8-1-1.5-1h-7.2c-0.9,0-1.7,1-1.7,2.2v0.6
			C142,108.9,143.2,109.1,144.4,109.1"/>
		<path class="st9" d="M147.8,93.8c0-1.9-1.5-3.4-3.4-3.4h-2.7c-1.7,0-3.1,1.2-3.4,2.8c0,0.2-0.1,0.4-0.1,0.6V99
			c0,1.9,1.5,3.4,3.4,3.4h2.7c1.9,0,3.4-1.5,3.4-3.4v-2.3v-2.9H147.8z"/>
		<path class="st8" d="M144.8,90.4c-0.1,0-0.3,0-0.4,0h-2.7c-1.9,0-3.4,1.5-3.4,3.4v1.9v3.4c0,1.3,0.8,2.5,1.9,3.1
			c0.1,0,0.3,0,0.4,0h2.7c1.9,0,3.4-1.5,3.4-3.4v-0.4v-4.8C146.7,92.1,145.9,90.9,144.8,90.4"/>
		<path class="st11" d="M139.4,96.5c0,0.2-0.1,0.3-0.2,0.3c-0.1,0-0.2-0.1-0.2-0.3s0.1-0.3,0.2-0.3
			C139.4,96.2,139.4,96.4,139.4,96.5"/>
		<path class="st11" d="M143,96.5c0,0.2-0.1,0.3-0.2,0.3c-0.1,0-0.2-0.1-0.2-0.3s0.1-0.3,0.2-0.3C142.9,96.2,143,96.4,143,96.5"/>
		<path class="st9" d="M142,98.7h-1c-0.1,0-0.2-0.1-0.2-0.2v-2.3c0-0.1,0.1-0.2,0.2-0.2c0.1,0,0.2,0.1,0.2,0.2v2.1h0.9
			c0.1,0,0.2,0.1,0.2,0.2C142.1,98.6,142,98.7,142,98.7"/>
		<path class="st9" d="M141.9,100.9c-0.2,0-0.4,0-0.4,0c-0.1,0-0.2-0.2-0.2-0.3s0.2-0.2,0.3-0.2c0,0,1.1,0.3,1.9-1
			c0.1-0.1,0.2-0.2,0.4-0.1c0.1,0.1,0.2,0.2,0.1,0.4C143.2,100.7,142.4,100.9,141.9,100.9"/>
		<path class="st12" d="M143.9,95.3L143.9,95.3c-0.9-0.5-1.7,0-1.7,0c-0.1,0-0.2,0-0.2-0.1s0-0.2,0.1-0.2c0,0,0.9-0.5,1.9,0
			c0.1,0,0.1,0.1,0.1,0.2L143.9,95.3z"/>
		<path class="st12" d="M140,95.3L140,95.3c-0.9-0.5-1.7,0-1.7,0c-0.1,0-0.2,0-0.2-0.1s0-0.2,0.1-0.2c0,0,0.9-0.5,1.9,0
			c0.1,0,0.1,0.1,0.1,0.2L140,95.3z"/>
		<path class="st14" d="M146.1,91.6c-0.9,0.6-2.4,1-4.2,1c-1.3,0-2.4-0.2-3.3-0.5c0,0.1-0.1,0.2-0.1,0.2c0.9,0.4,2.1,0.6,3.4,0.6
			c1.8,0,3.5-0.4,4.3-1.1L146.1,91.6z"/>
		<path class="st20" d="M147.7,93L147.7,93L147.7,93L147.7,93z M149.5,91.2L149.5,91.2L149.5,91.2c0-1.2-0.9-2-1.9-2h-0.2
			c-0.5-1.2-2.2-1.6-3.7-1.6c-1.3,0-2.6,0.3-3.8,0.7c-0.8,0.3-2.1,0.7-2.4,1.5c-0.4,0.9,0,1.8,0.8,2.2c-0.1,0.3-0.1,0.7-0.1,1.1v0.1
			c0.1-0.4,0.2-0.7,0.4-1.1c0.9,0.3,2,0.5,3.3,0.5c1.5,0,2.8-0.3,3.7-0.7l0.8,4.2c0.2-0.2,0.4-0.3,0.7-0.3c0.4,0,0.8,0.2,0.9,0.6
			c0.4-0.6,0.8-1.2,1-1.9C149,94.5,149.6,92.6,149.5,91.2"/>
		<path class="st15" d="M147.7,93L147.7,93L147.7,93L147.7,93z M146.7,94.3L146.7,94.3L146.7,94.3L146.7,94.3z M148.5,92.2
			L148.5,92.2L148.5,92.2c0-1.4-0.9-2.4-1.9-2.4h-0.2c-0.5-1.4-2.2-1.9-3.7-1.9c-1.3,0-2.6,0.4-3.8,0.9c-0.2,0.1-0.5,0.2-0.8,0.4
			c-0.3,0.2-0.5,0.4-0.6,0.7c-0.4,0.9,0,1.8,0.8,2.2c-0.1,0.3-0.1,0.7-0.1,1.1v0.1c0.1-0.4,0.2-0.7,0.4-1.1c0.9,0.3,2,0.5,3.3,0.5
			c1.5,0,2.8-0.3,3.7-0.7l0.8,4.2c0.2-0.2,0.4-0.3,0.7-0.3s0.6,0.2,0.8,0.4c0-0.1,0-0.2,0.1-0.3C148,96,148.6,93.8,148.5,92.2"/>
		<path class="st21" d="M144.2,95.5h-0.5c0.1,0,0.3,0.1,0.3,0.3V97c0,0.1-0.1,0.3-0.3,0.3h-1.3c0,0,0,0-0.1,0c0,0,0,0-0.1,0H142
			c-0.1,0-0.3-0.1-0.3-0.3v-1.2c0-0.1,0.1-0.3,0.3-0.3h-0.2c-0.1,0-0.3,0.1-0.3,0.3V97c0,0.1,0.1,0.3,0.3,0.3h2.3
			c0.1,0,0.3-0.1,0.3-0.3v-1.2C144.4,95.7,144.3,95.5,144.2,95.5 M142.3,95.5h-0.1C142.2,95.5,142.2,95.5,142.3,95.5L142.3,95.5"/>
		<path class="st22" d="M137.7,95.8L137.7,95.8V97c0,0.1,0.1,0.3,0.3,0.3h0.2l0,0c0,0,0,0-0.1,0h-0.2c-0.1,0-0.3-0.1-0.3-0.3v-1.2
			H137.7z"/>
		<path class="st21" d="M140,95.5h-0.6c0.1,0,0.3,0.1,0.3,0.3V97c0,0.1-0.1,0.3-0.3,0.3h-1h-0.1h-0.1l0,0h1.8c0.1,0,0.3-0.1,0.3-0.3
			v-1.2C140.3,95.7,140.2,95.5,140,95.5"/>
		<path class="st22" d="M138.2,95.5L138.2,95.5L138.2,95.5L138.2,95.5z"/>
		<path class="st21" d="M138.4,95.5h-0.2l0,0H138.4C138.3,95.6,138.4,95.5,138.4,95.5"/>
		<path class="st23" d="M138.1,95.5h-0.2c-0.1,0-0.3,0.1-0.3,0.3V97c0,0.1,0.1,0.3,0.3,0.3h0.2c0,0,0,0,0.1,0v-0.1v-0.1v-1.2
			c0-0.1,0-0.1,0-0.1L138.1,95.5C138.2,95.5,138.2,95.5,138.1,95.5"/>
		<path class="st24" d="M138.2,95.5L138.2,95.5C138.2,95.6,138.2,95.6,138.2,95.5C138.2,95.6,138.2,95.5,138.2,95.5 M138.2,97.2v0.1
			C138.2,97.3,138.2,97.3,138.2,97.2L138.2,97.2"/>
		<path class="st24" d="M139.5,95.5h-0.8c0.1,0,0.1,0.1,0.1,0.3V97c0,0.1-0.1,0.3-0.1,0.3c-0.1,0-0.1-0.1-0.1-0.3v-1.2
			c0-0.1,0.1-0.3,0.1-0.3h-0.3h-0.1c0.1,0,0.1,0.1,0.1,0.2v1.2c0,0.1,0,0.2-0.1,0.2h0.1h1.1c0.1,0,0.3-0.1,0.3-0.3v-1.2
			C139.7,95.7,139.6,95.5,139.5,95.5 M139.3,96.8c-0.1,0-0.2-0.1-0.2-0.3s0.1-0.3,0.2-0.3c0.1,0,0.2,0.1,0.2,0.3
			C139.4,96.7,139.4,96.8,139.3,96.8"/>
		<path class="st25" d="M139.3,96.2c-0.1,0-0.2,0.1-0.2,0.3s0.1,0.3,0.2,0.3c0.1,0,0.2-0.1,0.2-0.3
			C139.4,96.4,139.4,96.2,139.3,96.2"/>
		<path class="st26" d="M138.2,95.7L138.2,95.7V97c0,0.1,0,0.1,0,0.1V95.7z"/>
		<path class="st27" d="M138.3,95.6C138.2,95.6,138.2,95.6,138.3,95.6L138.3,95.6l-0.1,1.6c0,0,0,0.1,0.1,0.1s0.1-0.1,0.1-0.2v-1.2
			C138.4,95.7,138.3,95.6,138.3,95.6"/>
		<path class="st27" d="M138.7,95.5L138.7,95.5c-0.1,0-0.1,0.1-0.1,0.3V97c0,0.1,0.1,0.3,0.1,0.3c0.1,0,0.1-0.1,0.1-0.3v-1.2
			C138.8,95.7,138.8,95.5,138.7,95.5"/>
		<path class="st24" d="M142.2,95.5H142c-0.1,0-0.3,0.1-0.3,0.3V97c0,0.1,0.1,0.3,0.3,0.3h0.2c0,0,0,0,0.1,0c-0.1,0-0.2-0.1-0.2-0.3
			v-1.2C142,95.7,142.1,95.6,142.2,95.5L142.2,95.5"/>
		<path class="st24" d="M143.6,95.5h-0.3c0.1,0,0.3,0.1,0.3,0.3V97c0,0.1-0.1,0.3-0.3,0.3l0,0c-0.1,0-0.3-0.1-0.3-0.3v-1.2
			c0-0.1,0.1-0.3,0.3-0.3h-1c0,0,0,0-0.1,0c0.1,0,0.2,0.1,0.2,0.3V97c0,0.1-0.1,0.2-0.2,0.3c0,0,0,0,0.1,0h1.3
			c0.1,0,0.3-0.1,0.3-0.3v-1.2C143.9,95.7,143.8,95.5,143.6,95.5 M142.8,96.8c-0.1,0-0.2-0.1-0.2-0.3s0.1-0.3,0.2-0.3
			c0.1,0,0.2,0.1,0.2,0.3C143,96.7,142.9,96.8,142.8,96.8"/>
		<path class="st25" d="M142.8,96.2c-0.1,0-0.2,0.1-0.2,0.3s0.1,0.3,0.2,0.3c0.1,0,0.2-0.1,0.2-0.3C143,96.4,142.9,96.2,142.8,96.2"
			/>
		<path class="st27" d="M142.2,95.5c-0.1,0-0.2,0.1-0.2,0.3V97c0,0.1,0.1,0.2,0.2,0.3c0.1,0,0.2-0.1,0.2-0.3v-1.2
			C142.4,95.7,142.4,95.6,142.2,95.5"/>
		<path class="st27" d="M143.3,95.5L143.3,95.5c-0.2,0-0.3,0.1-0.3,0.3V97c0,0.1,0.1,0.3,0.3,0.3l0,0c0.1,0,0.3-0.1,0.3-0.3v-1.2
			C143.5,95.7,143.4,95.5,143.3,95.5"/>
		<rect x="140.3" y="96.2" class="st19" width="1.3" height="0.4"/>
		<rect x="144.5" y="95.9" class="st19" width="2.7" height="0.4"/>
		<path class="st8" d="M147.1,95.8c-0.3,0-0.5,0.1-0.7,0.3c-0.2,0.2-0.3,0.4-0.3,0.7c0,0.6,0.5,1,1,1c0.6,0,1-0.5,1-1
			c0-0.2,0-0.3-0.1-0.4C147.9,96.1,147.5,95.8,147.1,95.8"/>
		<path class="st19" d="M138,95.8L138,95.8v1.3l0,0h2.1l0,0v-1.2l0,0H138V95.8z M140,97.5h-2.1c-0.3,0-0.5-0.2-0.5-0.5v-1.2
			c0-0.3,0.2-0.5,0.5-0.5h2.1c0.3,0,0.5,0.2,0.5,0.5V97C140.5,97.3,140.3,97.5,140,97.5"/>
		<path class="st19" d="M141.8,95.8L141.8,95.8v1.3l0,0h2.3l0,0v-1.2l0,0h-2.3V95.8z M144.2,97.5h-2.3c-0.3,0-0.5-0.2-0.5-0.5v-1.2
			c0-0.3,0.2-0.5,0.5-0.5h2.3c0.3,0,0.5,0.2,0.5,0.5V97C144.6,97.3,144.4,97.5,144.2,97.5"/>
		<path class="st28" d="M145,109.1c0.9,0,1.8-0.2,2.7-0.5l0.7-2.8h-4.2L145,109.1z"/>
		<path class="st8" d="M144.3,105.8c0,0.4,0.9,0.7,1.9,0.7c1.1,0,1.9-0.3,1.9-0.7H144.3z"/>
		<polygon class="st7" points="145.3,106.6 145.3,106.6 145.8,107.8 146.7,107.8 147.2,106.6 147.2,106.6 		"/>
		<path class="st7" d="M146.8,108.9l-0.1-1h-0.9l-0.1,1.2C146.1,109,146.4,108.9,146.8,108.9"/>
		<path class="st29" d="M144.1,105.8h-0.3l-1,2.1l1.2,1.2c0.1,0,0.2,0,0.3,0c0.2,0,0.4,0,0.6,0L144.1,105.8z"/>
		<path class="st29" d="M149.6,107.9l-1-2.1h-0.2l-0.7,2.8C148.3,108.4,149,108.2,149.6,107.9"/>
		<path class="st0" d="M145,106c-0.5-0.4-0.8-0.8-0.9-1v2.3l2.2-0.8C146.1,106.5,145.5,106.4,145,106"/>
		<path class="st0" d="M147.5,106c0.5-0.4,0.8-0.8,0.9-1v2.3l-2.2-0.8C146.4,106.5,147,106.4,147.5,106"/>
		<polygon class="st30" points="207.5,116.4 207.5,116.4 207.5,100.7 		"/>
		<path class="st16" d="M207.5,100.7h-51.8c-0.3,0.9-0.7,1.8-1.2,2.7v13h53V100.7 M194.5,102.3h9.5v1.4h-9.5V102.3z M158.8,102.3
			h33.7v1.4h-33.7V102.3z M193.2,106.5h10.7v1.4h-10.7V106.5z M172.7,106.5h18.7v1.4h-18.7V106.5z M158.8,106.5h11.8v1.4h-11.8
			V106.5z M181.6,110.7H204v1.4h-22.4V110.7z M158.8,110.7h20.7v1.4h-20.7V110.7z"/>
		<rect x="158.8" y="106.5" class="st31" width="11.8" height="1.4"/>
		<rect x="172.7" y="106.5" class="st31" width="18.7" height="1.4"/>
		<rect x="193.2" y="106.5" class="st31" width="10.7" height="1.4"/>
		<rect x="158.8" y="102.3" class="st31" width="33.7" height="1.4"/>
		<rect x="194.5" y="102.3" class="st31" width="9.5" height="1.4"/>
		<rect x="158.8" y="110.7" class="st31" width="20.7" height="1.4"/>
		<rect x="181.6" y="110.7" class="st31" width="22.4" height="1.4"/>
		<rect x="155.5" y="101.6" class="st0" width="78.6" height="35.2"/>
		<polygon class="st5" points="187.7,113.2 187.9,114.3 186.9,113.8 185.9,114.3 186.1,113.2 185.3,112.4 186.4,112.2 186.9,111.3 
			187.4,112.2 188.5,112.4 		"/>
		<polygon class="st5" points="196,113.2 196.2,114.3 195.2,113.8 194.2,114.3 194.4,113.2 193.6,112.4 194.7,112.2 195.2,111.3 
			195.7,112.2 196.8,112.4 		"/>
		<polygon class="st5" points="200.2,113.2 200.3,114.3 199.4,113.8 198.4,114.3 198.6,113.2 197.8,112.4 198.9,112.2 199.4,111.3 
			199.9,112.2 201,112.4 		"/>
		<polygon class="st5" points="204.3,113.2 204.5,114.3 203.5,113.8 202.5,114.3 202.7,113.2 201.9,112.4 203,112.2 203.5,111.3 
			204,112.2 205.1,112.4 		"/>
		<polygon class="st5" points="191.8,113.2 192,114.3 191,113.8 190.1,114.3 190.2,113.2 189.5,112.4 190.6,112.2 191,111.3 
			191.5,112.2 192.6,112.4 		"/>
		<rect x="185.3" y="107.3" class="st6" width="19.4" height="1.4"/>
		<path class="st32" d="M182.7,117.7c0,6.5-5.3,11.8-11.8,11.8s-11.8-5.3-11.8-11.8s5.3-11.8,11.8-11.8S182.7,111.2,182.7,117.7"/>
		<path class="st15" d="M163.4,126.9c2,1.7,4.7,2.7,7.5,2.7c2.7,0,5.1-0.9,7.1-2.4v-4h-14.6V126.9z"/>
		<path class="st9" d="M174.9,116.2c0,3.6-2.2,6.5-4.8,6.5c-2.7,0-4.8-2.9-4.8-6.5s2.2-6.5,4.8-6.5
			C172.7,109.6,174.9,112.6,174.9,116.2"/>
		<path class="st7" d="M176.5,125.9h-6.9c-1.1,0-1.9,0.9-1.9,1.9v1.3c1,0.3,2.1,0.5,3.3,0.5c2.8,0,5.3-1,7.3-2.6
			C177.9,126.3,177.2,125.9,176.5,125.9"/>
		<path class="st8" d="M170.8,125.9c0,1,1,1.9,2.2,1.9s2.2-0.8,2.2-1.9H170.8z"/>
		<path class="st8" d="M174.5,116.2c0,3.6-2.2,6.5-4.8,6.5c-2.7,0-4.8-2.9-4.8-6.5s2.2-6.5,4.8-6.5
			C172.3,109.6,174.5,112.6,174.5,116.2"/>
		<path class="st11" d="M167,117.1c0,0.2-0.1,0.3-0.1,0.3c-0.1,0-0.1-0.1-0.1-0.3s0.1-0.3,0.1-0.3C167,116.8,167,116.9,167,117.1"/>
		<path class="st11" d="M170.4,117.1c0,0.2-0.1,0.3-0.1,0.3s-0.1-0.1-0.1-0.3s0.1-0.3,0.1-0.3S170.4,116.9,170.4,117.1"/>
		<path class="st9" d="M169.1,119.1h-0.6c-0.1,0-0.2-0.1-0.2-0.2v-2.2c0-0.1,0.1-0.2,0.2-0.2s0.2,0.1,0.2,0.2v2h0.4
			c0.1,0,0.2,0.1,0.2,0.2C169.3,119.1,169.2,119.1,169.1,119.1"/>
		<path class="st9" d="M169.4,121.2c-0.2,0-0.3,0-0.4,0c-0.1,0-0.2-0.2-0.2-0.3s0.2-0.2,0.3-0.2c0,0,1,0.2,1.8-1
			c0.1-0.1,0.2-0.1,0.3-0.1c0.1,0.1,0.1,0.2,0.1,0.3C170.6,121,169.8,121.2,169.4,121.2"/>
		<path class="st12" d="M171.2,115.9L171.2,115.9c-0.9-0.4-1.6,0-1.6,0h-0.2v-0.2c0,0,0.8-0.5,1.8,0l0.1,0.2H171.2z"/>
		<path class="st12" d="M167.6,115.9L167.6,115.9c-0.9-0.4-1.6,0-1.6,0h-0.2v-0.2c0,0,0.8-0.5,1.8,0l0.1,0.2H167.6z"/>
		<path class="st15" d="M171.7,124.6v-2.3c-0.5,0.3-1.1,0.4-1.7,0.4h-0.2h-0.2c-2.7,0-4.8-2.9-4.8-6.5v-0.1c1-0.6,2.2-1.8,2.6-2.3
			c0.4-0.4,1-1.2,1.4-2c0.3,0.7,0.9,1.4,1.9,2.2c1.3,1.1,3,2.2,4.2,3c-0.1,0.8-0.2,1.5-0.5,2.2h0.1v5.4h3.6v-9.4
			c0-4-3.3-7.3-7.3-7.3s-7.3,3.3-7.3,7.3v9.4L171.7,124.6L171.7,124.6z"/>
		<path class="st8" d="M174.4,116.5c-0.3,0-0.6,0.1-0.8,0.3s-0.3,0.5-0.3,0.8c0,0.6,0.5,1.1,1.1,1.1s1.1-0.5,1.1-1.1
			c0-0.2,0-0.3-0.1-0.5C175.2,116.8,174.8,116.5,174.4,116.5"/>
		<path class="st8" d="M171.7,122.3v3.6h2.7v-6.7h-0.1C173.8,120.6,172.8,121.7,171.7,122.3"/>
		<path class="st9" d="M174.4,125.9v-6.8c-0.2,0.7-0.6,1.3-1,1.8v5.1h1V125.9z"/>
		<g>
			<g>
				<path id="SVGID_1_" class="st33" d="M185.5,111.1c-0.2,0-0.4,0.2-0.4,0.4v2.9c0,0.2,0.1,0.3,0.3,0.4h3.1c0.2,0,0.3-0.2,0.3-0.4
					v-2.9c0-0.2-0.2-0.4-0.4-0.4H185.5z"/>
			</g>
			<g>
				<defs>
					<path id="SVGID_2_" d="M185.5,111.1c-0.2,0-0.4,0.2-0.4,0.4v2.9c0,0.2,0.1,0.3,0.3,0.4h3.1c0.2,0,0.3-0.2,0.3-0.4v-2.9
						c0-0.2-0.2-0.4-0.4-0.4H185.5z"/>
				</defs>
				<clipPath id="SVGID_4_">
					<use xlink:href="#SVGID_2_"  style="overflow:visible;"/>
				</clipPath>
				<rect x="185.2" y="111.1" class="st34" width="3.6" height="3.6"/>
			</g>
		</g>
		<g>
			<g>
				<path id="SVGID_3_" class="st33" d="M189.6,111.1c-0.2,0-0.4,0.2-0.4,0.4v2.9c0,0.2,0.1,0.3,0.3,0.4h3.1c0.2,0,0.3-0.2,0.3-0.4
					v-2.9c0-0.2-0.2-0.4-0.4-0.4H189.6z"/>
			</g>
			<g>
				<defs>
					<path id="SVGID_6_" d="M189.6,111.1c-0.2,0-0.4,0.2-0.4,0.4v2.9c0,0.2,0.1,0.3,0.3,0.4h3.1c0.2,0,0.3-0.2,0.3-0.4v-2.9
						c0-0.2-0.2-0.4-0.4-0.4H189.6z"/>
				</defs>
				<clipPath id="SVGID_8_">
					<use xlink:href="#SVGID_6_"  style="overflow:visible;"/>
				</clipPath>
				<rect x="189.2" y="111.1" class="st35" width="3.6" height="3.6"/>
			</g>
		</g>
		<g>
			<g>
				<path id="SVGID_5_" class="st33" d="M193.6,111.1c-0.2,0-0.4,0.2-0.4,0.4v2.9c0,0.2,0.1,0.3,0.3,0.4h3.1c0.2,0,0.3-0.2,0.3-0.4
					v-2.9c0-0.2-0.2-0.4-0.4-0.4H193.6z"/>
			</g>
			<g>
				<defs>
					<path id="SVGID_10_" d="M193.6,111.1c-0.2,0-0.4,0.2-0.4,0.4v2.9c0,0.2,0.1,0.3,0.3,0.4h3.1c0.2,0,0.3-0.2,0.3-0.4v-2.9
						c0-0.2-0.2-0.4-0.4-0.4H193.6z"/>
				</defs>
				<clipPath id="SVGID_12_">
					<use xlink:href="#SVGID_10_"  style="overflow:visible;"/>
				</clipPath>
				<rect x="193.2" y="111.1" class="st36" width="3.6" height="3.6"/>
			</g>
		</g>
		<g>
			<g>
				<path id="SVGID_7_" class="st33" d="M197.6,111.1c-0.2,0-0.4,0.2-0.4,0.4v2.9c0,0.2,0.1,0.3,0.3,0.4h3.1c0.2,0,0.3-0.2,0.3-0.4
					v-2.9c0-0.2-0.2-0.4-0.4-0.4H197.6z"/>
			</g>
			<g>
				<defs>
					<path id="SVGID_14_" d="M197.6,111.1c-0.2,0-0.4,0.2-0.4,0.4v2.9c0,0.2,0.1,0.3,0.3,0.4h3.1c0.2,0,0.3-0.2,0.3-0.4v-2.9
						c0-0.2-0.2-0.4-0.4-0.4H197.6z"/>
				</defs>
				<clipPath id="SVGID_16_">
					<use xlink:href="#SVGID_14_"  style="overflow:visible;"/>
				</clipPath>
				<rect x="197.2" y="111.1" class="st37" width="3.6" height="3.6"/>
			</g>
		</g>
		<g>
			<g>
				<path id="SVGID_9_" class="st33" d="M201.6,111.1c-0.2,0-0.4,0.2-0.4,0.4v2.9c0,0.2,0.1,0.3,0.3,0.4h3.1c0.1,0,0.2-0.2,0.3-0.3
					v-3c0-0.2-0.2-0.3-0.4-0.3L201.6,111.1L201.6,111.1z"/>
			</g>
			<g>
				<defs>
					<path id="SVGID_18_" d="M201.6,111.1c-0.2,0-0.4,0.2-0.4,0.4v2.9c0,0.2,0.1,0.3,0.3,0.4h3.1c0.1,0,0.2-0.2,0.3-0.3v-3
						c0-0.2-0.2-0.3-0.4-0.3L201.6,111.1L201.6,111.1z"/>
				</defs>
				<clipPath id="SVGID_20_">
					<use xlink:href="#SVGID_18_"  style="overflow:visible;"/>
				</clipPath>
				<rect x="201.2" y="111.1" class="st38" width="3.6" height="3.6"/>
			</g>
		</g>
		<g>
			<g>
				<path id="SVGID_11_" class="st33" d="M159.3,90.5c-0.2,0-0.4,0.2-0.4,0.4v2.9c0,0.2,0.1,0.3,0.3,0.4h3.1c0.2,0,0.3-0.2,0.3-0.4
					v-2.9c0-0.2-0.2-0.4-0.4-0.4H159.3z"/>
			</g>
			<g>
				<defs>
					<path id="SVGID_22_" d="M159.3,90.5c-0.2,0-0.4,0.2-0.4,0.4v2.9c0,0.2,0.1,0.3,0.3,0.4h3.1c0.2,0,0.3-0.2,0.3-0.4v-2.9
						c0-0.2-0.2-0.4-0.4-0.4H159.3z"/>
				</defs>
				<clipPath id="SVGID_24_">
					<use xlink:href="#SVGID_22_"  style="overflow:visible;"/>
				</clipPath>
				<rect x="158.9" y="90.5" class="st39" width="3.6" height="3.6"/>
			</g>
		</g>
		<g>
			<g>
				<path id="SVGID_13_" class="st33" d="M163.3,90.5c-0.2,0-0.4,0.2-0.4,0.4v2.9c0,0.2,0.1,0.3,0.3,0.4h3.1c0.2,0,0.3-0.2,0.3-0.4
					v-2.9c0-0.2-0.2-0.4-0.4-0.4H163.3z"/>
			</g>
			<g>
				<defs>
					<path id="SVGID_26_" d="M163.3,90.5c-0.2,0-0.4,0.2-0.4,0.4v2.9c0,0.2,0.1,0.3,0.3,0.4h3.1c0.2,0,0.3-0.2,0.3-0.4v-2.9
						c0-0.2-0.2-0.4-0.4-0.4H163.3z"/>
				</defs>
				<clipPath id="SVGID_28_">
					<use xlink:href="#SVGID_26_"  style="overflow:visible;"/>
				</clipPath>
				<rect x="162.9" y="90.5" class="st40" width="3.6" height="3.6"/>
			</g>
		</g>
		<g>
			<g>
				<path id="SVGID_15_" class="st33" d="M167.3,90.5c-0.2,0-0.4,0.2-0.4,0.4v2.9c0,0.2,0.1,0.3,0.3,0.4h3.1c0.2,0,0.3-0.2,0.3-0.4
					v-2.9c0-0.2-0.2-0.4-0.4-0.4H167.3z"/>
			</g>
			<g>
				<defs>
					<path id="SVGID_30_" d="M167.3,90.5c-0.2,0-0.4,0.2-0.4,0.4v2.9c0,0.2,0.1,0.3,0.3,0.4h3.1c0.2,0,0.3-0.2,0.3-0.4v-2.9
						c0-0.2-0.2-0.4-0.4-0.4H167.3z"/>
				</defs>
				<clipPath id="SVGID_31_">
					<use xlink:href="#SVGID_30_"  style="overflow:visible;"/>
				</clipPath>
				<rect x="166.9" y="90.5" class="st41" width="3.6" height="3.6"/>
			</g>
		</g>
		<g>
			<g>
				<path id="SVGID_17_" class="st33" d="M171.3,90.5c-0.2,0-0.4,0.2-0.4,0.4v2.9c0,0.2,0.1,0.3,0.3,0.4h3.1c0.2,0,0.3-0.2,0.3-0.4
					v-2.9c0-0.2-0.2-0.4-0.4-0.4H171.3z"/>
			</g>
			<g>
				<defs>
					<path id="SVGID_32_" d="M171.3,90.5c-0.2,0-0.4,0.2-0.4,0.4v2.9c0,0.2,0.1,0.3,0.3,0.4h3.1c0.2,0,0.3-0.2,0.3-0.4v-2.9
						c0-0.2-0.2-0.4-0.4-0.4H171.3z"/>
				</defs>
				<clipPath id="SVGID_33_">
					<use xlink:href="#SVGID_32_"  style="overflow:visible;"/>
				</clipPath>
				<rect x="170.9" y="90.5" class="st42" width="3.6" height="3.6"/>
			</g>
		</g>
		<g>
			<g>
				<path id="SVGID_19_" class="st33" d="M175.3,90.5c-0.2,0-0.4,0.2-0.4,0.4v2.9c0,0.2,0.1,0.3,0.3,0.4h3.1c0.1,0,0.2-0.2,0.3-0.3
					v-3c0-0.2-0.2-0.3-0.4-0.3L175.3,90.5L175.3,90.5z"/>
			</g>
			<g>
				<defs>
					<path id="SVGID_34_" d="M175.3,90.5c-0.2,0-0.4,0.2-0.4,0.4v2.9c0,0.2,0.1,0.3,0.3,0.4h3.1c0.1,0,0.2-0.2,0.3-0.3v-3
						c0-0.2-0.2-0.3-0.4-0.3L175.3,90.5L175.3,90.5z"/>
				</defs>
				<clipPath id="SVGID_35_">
					<use xlink:href="#SVGID_34_"  style="overflow:visible;"/>
				</clipPath>
				<rect x="174.9" y="90.5" class="st43" width="3.6" height="3.6"/>
			</g>
		</g>
		<g>
			<g>
				<path id="SVGID_21_" class="st33" d="M132.7,70.2c-0.2,0-0.4,0.2-0.4,0.4v2.9c0,0.2,0.1,0.3,0.3,0.4h3.1c0.2,0,0.3-0.2,0.3-0.4
					v-2.9c0-0.2-0.2-0.4-0.4-0.4H132.7z"/>
			</g>
			<g>
				<defs>
					<path id="SVGID_36_" d="M132.7,70.2c-0.2,0-0.4,0.2-0.4,0.4v2.9c0,0.2,0.1,0.3,0.3,0.4h3.1c0.2,0,0.3-0.2,0.3-0.4v-2.9
						c0-0.2-0.2-0.4-0.4-0.4H132.7z"/>
				</defs>
				<clipPath id="SVGID_37_">
					<use xlink:href="#SVGID_36_"  style="overflow:visible;"/>
				</clipPath>
				<rect x="132.3" y="70.2" class="st44" width="3.6" height="3.6"/>
			</g>
		</g>
		<g>
			<g>
				<path id="SVGID_23_" class="st33" d="M136.7,70.2c-0.2,0-0.4,0.2-0.4,0.4v2.9c0,0.2,0.1,0.3,0.3,0.4h3.1c0.2,0,0.3-0.2,0.3-0.4
					v-2.9c0-0.2-0.2-0.4-0.4-0.4H136.7z"/>
			</g>
			<g>
				<defs>
					<path id="SVGID_38_" d="M136.7,70.2c-0.2,0-0.4,0.2-0.4,0.4v2.9c0,0.2,0.1,0.3,0.3,0.4h3.1c0.2,0,0.3-0.2,0.3-0.4v-2.9
						c0-0.2-0.2-0.4-0.4-0.4H136.7z"/>
				</defs>
				<clipPath id="SVGID_39_">
					<use xlink:href="#SVGID_38_"  style="overflow:visible;"/>
				</clipPath>
				<rect x="136.3" y="70.2" class="st45" width="3.6" height="3.6"/>
			</g>
		</g>
		<g>
			<g>
				<path id="SVGID_25_" class="st33" d="M140.7,70.2c-0.2,0-0.4,0.2-0.4,0.4v2.9c0,0.2,0.1,0.3,0.3,0.4h3.1c0.2,0,0.3-0.2,0.3-0.4
					v-2.9c0-0.2-0.2-0.4-0.4-0.4H140.7z"/>
			</g>
			<g>
				<defs>
					<path id="SVGID_40_" d="M140.7,70.2c-0.2,0-0.4,0.2-0.4,0.4v2.9c0,0.2,0.1,0.3,0.3,0.4h3.1c0.2,0,0.3-0.2,0.3-0.4v-2.9
						c0-0.2-0.2-0.4-0.4-0.4H140.7z"/>
				</defs>
				<clipPath id="SVGID_41_">
					<use xlink:href="#SVGID_40_"  style="overflow:visible;"/>
				</clipPath>
				<rect x="140.3" y="70.2" class="st46" width="3.6" height="3.6"/>
			</g>
		</g>
		<g>
			<g>
				<path id="SVGID_27_" class="st33" d="M144.7,70.2c-0.2,0-0.4,0.2-0.4,0.4v2.9c0,0.2,0.1,0.3,0.3,0.4h3.1c0.2,0,0.3-0.2,0.3-0.4
					v-2.9c0-0.2-0.2-0.4-0.4-0.4H144.7z"/>
			</g>
			<g>
				<defs>
					<path id="SVGID_42_" d="M144.7,70.2c-0.2,0-0.4,0.2-0.4,0.4v2.9c0,0.2,0.1,0.3,0.3,0.4h3.1c0.2,0,0.3-0.2,0.3-0.4v-2.9
						c0-0.2-0.2-0.4-0.4-0.4H144.7z"/>
				</defs>
				<clipPath id="SVGID_43_">
					<use xlink:href="#SVGID_42_"  style="overflow:visible;"/>
				</clipPath>
				<rect x="144.3" y="70.2" class="st47" width="3.6" height="3.6"/>
			</g>
		</g>
		<g>
			<g>
				<path id="SVGID_29_" class="st33" d="M148.7,70.2c-0.2,0-0.4,0.2-0.4,0.4v2.9c0,0.2,0.1,0.3,0.3,0.4h3.1c0.1,0,0.2-0.2,0.3-0.3
					v-3c0-0.2-0.2-0.3-0.4-0.3L148.7,70.2L148.7,70.2z"/>
			</g>
			<g>
				<defs>
					<path id="SVGID_44_" d="M148.7,70.2c-0.2,0-0.4,0.2-0.4,0.4v2.9c0,0.2,0.1,0.3,0.3,0.4h3.1c0.1,0,0.2-0.2,0.3-0.3v-3
						c0-0.2-0.2-0.3-0.4-0.3L148.7,70.2L148.7,70.2z"/>
				</defs>
				<clipPath id="SVGID_45_">
					<use xlink:href="#SVGID_44_"  style="overflow:visible;"/>
				</clipPath>
				<rect x="148.3" y="70.2" class="st48" width="3.6" height="3.6"/>
			</g>
		</g>
		<path class="st7" d="M129.6,76.8c0,6.5-5.3,11.8-11.8,11.8S106,83.3,106,76.8S111.3,65,117.8,65C124.3,65,129.6,70.3,129.6,76.8"
			/>
		<path class="st10" d="M156.2,97.3c0,6.5-5.3,11.8-11.8,11.8s-11.8-5.3-11.8-11.8s5.3-11.8,11.8-11.8
			C150.9,85.4,156.2,90.7,156.2,97.3"/>
		<path class="st32" d="M182.7,117.7c0,6.5-5.3,11.8-11.8,11.8s-11.8-5.3-11.8-11.8s5.3-11.8,11.8-11.8S182.7,111.2,182.7,117.7"/>
		<rect x="184.8" y="118.5" class="st6" width="42.5" height="14"/>
		<rect x="158.7" y="97.1" class="st6" width="42.5" height="4.5"/>
		<rect x="132.2" y="76.5" class="st6" width="42.5" height="4.5"/>
	</g>
	<g>
		<rect x="166.8" y="51.6" class="st49" width="79" height="92.4"/>
		<rect x="90.9" y="51.6" class="st49" width="75.9" height="92.4"/>
		<rect x="166.8" y="164.2" class="st50" width="19.2" height="13.3"/>
		<rect x="148.6" y="164.2" class="st51" width="18.2" height="13.3"/>
		<path class="st52" d="M133.8,180.7l-6.5,6.5c-1.7,1.7-0.5,4.7,2,4.7h37.6v-12.1h-31.1C135,179.8,134.3,180.1,133.8,180.7z"/>
		<path class="st4" d="M205.4,191.9c2.5,0,3.7-3,2-4.7l-6.5-6.5c-0.5-0.5-1.2-0.8-2-0.8h-32.1V192h38.6V191.9z"/>
		<path class="st4" d="M248.8,42.6h-82v8.9h79v92.4h-79v17.9h82c3.3,0,6-2.7,6-6V48.6C254.8,45.3,252.1,42.6,248.8,42.6z"/>
		<path class="st52" d="M90.9,143.9V51.6h75.9v-8.9H87.9c-3.3,0-6,2.7-6,6v107.2c0,3.3,2.7,6,6,6h78.9V144L90.9,143.9L90.9,143.9z"
			/>
	</g>
	<polygon class="st53" points="95.5,145.8 96.1,145.8 96.1,145.8 	"/>
</g>
<g class="st54">
	<path class="st55" d="M254.2,158.5c0.4-0.8,0.6-1.7,0.6-2.7V48.6c0-3.3-2.7-6-6-6h-82H87.9c-2.5,0-4.6,1.5-5.5,3.6
		c-0.3,0.7-0.5,1.5-0.5,2.3v107.2l0,0c0,1.8,0.8,3.5,2.2,4.6c0.1,0.1,0.3,0.2,0.5,0.3c0.2,0.2,0.5,0.3,0.8,0.4
		c0.8,0.4,1.6,0.6,2.6,0.6l0,0h78.9h82c0.8,0,1.6-0.2,2.3-0.5c0.4-0.2,0.7-0.3,1-0.6c0.2-0.1,0.3-0.2,0.5-0.3
		c0.4-0.3,0.8-0.7,1.1-1.2c0.1-0.1,0.1-0.2,0.2-0.3C254,158.8,254.1,158.7,254.2,158.5z"/>
	<polygon class="st55" points="186,177.4 186,164.2 166.8,164.2 148.6,164.2 148.6,177.4 166.8,177.4 	"/>
	<path class="st55" d="M200.9,180.7c-0.5-0.5-1.2-0.8-2-0.8h-32.1h-31.1c-0.7,0-1.4,0.3-2,0.8l-6.5,6.5c-1.7,1.7-0.5,4.7,2,4.7h37.6
		h38.6c2.5,0,3.7-3,2-4.7L200.9,180.7z"/>
</g>
<path class="st4" d="M156.8,210.2c3.9-8.9,14.6-14.3,24.1-12.2c1.5,0.3,3.1,0.9,4.1,2.1c1.2,1.4,1.4,3.3,1,5.1
	c-0.4,1.7-1.5,3.3-2.7,4.6c-3.7,4.2-8.9,7-14.5,7.7c-2.9,0.4-6.1,0.2-8.5-1.4s-4-4.9-3-7.6"/>
<path class="st56" d="M156.8,210.2c3.9-8.9,14.6-14.3,24.1-12.2c1.5,0.3,3.1,0.9,4.1,2.1c1.2,1.4,1.4,3.3,1,5.1
	c-0.4,1.7-1.5,3.3-2.7,4.6c-3.7,4.2-8.9,7-14.5,7.7c-2.9,0.4-6.1,0.2-8.5-1.4s-4-4.9-3-7.6"/>
<path class="st57" d="M143.7,214.3c4.8-2.8,7.5-8.3,12.1-11.5c4.7-3.2,10.8-3.6,16.5-3.9c0.9,0,1.9,0,2.4,0.7s0.1,1.7-0.5,2.2
	s-1.5,0.7-2.3,0.9c-3.1,0.6-6.2,1.3-9.3,1.9c-0.1,0.7,0.6,1.3,1.2,1.4c0.7,0.1,1.4-0.1,2-0.4c3.8-1.4,7.8-2.3,11.9-2.7
	c-0.1,2.1-2.2,3.5-4.1,4.4c-2.5,1.2-5,2.3-7.5,3.3c0,0.4,0.3,0.8,0.7,0.9c3.4-1.7,7.1-3.1,10.8-4c0.8,0.9-0.3,2.1-1.3,2.8
	c-3.2,2-6.4,4.1-9.6,6.1c0.1,0.4,0.5,0.6,0.9,0.6c2.1-1.9,4.5-3.3,7.2-4.2c0.3,1.1-0.8,2.1-1.8,2.7c-3,2-5.9,4-8.9,6
	c-1.5,1-3.1,2.1-4.9,2.4c-3.1,0.7-6.6-0.8-9.5,0.7c-0.7,0.4-1.4,0.9-2.1,1.2c-1.2,0.4-2.5,0.1-3.6-0.5c-2.1-1.1-3.7-3.3-3.8-5.7
	s1.5-4.8,3.8-5.4"/>
<path class="st55" d="M142.9,214.2c-1.9,0-2.8,2.8-4.7,3.6h0.6c-6.5,1.7-13,3.4-19.5,5c-5.5,1.4-10.9,2.8-16.4,4.2
	c-1.4,0.4-3,0.8-4.3,1.5c-0.7-0.1-1.1-0.1-1.1-0.1s2.3-42.6,2.8-63.2c0.1-2.9,0-5.9-0.9-8.7c-1-2.8-3-5.5-6-6.8
	c-3.2-1.4-7-1.2-10.5-1.9s-7.2-3-6.8-6.1c0.3-2.1,2.3-4.3,0.8-5.9c-0.5-0.5-1.2-0.8-1.9-1c-3.7-1.2-7.5-1.9-11.5-2.1
	c-5.6,1.4-12.5,2-18.1,3.3c-0.4,0.1-0.9,0.2-1.3,0.5c-1.4,1-0.3,2.9-0.5,4.5c-0.2,1.7-2,2.9-3.8,3.5s-3.8,0.7-5.6,1.4
	c-4.2,1.6-6.4,5.6-8.2,9.3c-2.7,5.6-5.5,11.2-6.9,17.2c-0.7,3-1.1,6.1-1.5,9.1c-2.1,16.7-3.7,33.8,0.8,50.2c0.2,0.6,0.4,1.3,0.8,1.8
	c0.5,0.7,1.4,1.2,2.2,1.6c9.3,4.6,20.5,5.1,31.2,5.1c7.3,0,14.6-0.2,21.8-0.5l0.5-0.2c0.6,2.8,1.4,5.7,3.8,7.7
	c2.6,2.2,6.3,2.6,10,2.2c2.4,0.1,4.9-0.5,7.3-1.1c13.6-3.5,26.9-8.2,40.1-13c2-0.7,4-1.5,5.6-2.8c1.3-1.1,2.3-2.7,3.5-3.9
	c1.3-1.2,4.7-0.8,4.7-1.6C150.1,225.7,144.9,214.2,142.9,214.2z"/>
<g>
	<g>
		<path class="st57" d="M85,44.7c7.3,1.5,12.8,7.3,17.1,13.4c5.4,7.7,9.6,16.2,12.3,25.2c2.7,8.9,4,18.4,1.8,27.4
			s-8.2,17.4-16.8,20.8c-8.6,3.4-19.7,0.8-24.7-7.1L52.1,95.5l2.8-20.9L85,44.7z"/>
	</g>
	
		<ellipse transform="matrix(0.9841 -0.1779 0.1779 0.9841 -13.1257 20.2049)" class="st58" cx="106.1" cy="83.3" rx="1.5" ry="5.6"/>
	<path class="st59" d="M115.4,84.8c-0.3,0-0.6,0-0.9,0.1c2.1,1.5,3.8,3.5,5.1,5.8c0.2,0.4,0.5,0.9,0.5,1.4c0.2,1.7-1.6,2.9-3.2,3.7
		c-0.8-2.8-1.7-5.6-2.5-8.5c-0.3-0.9-0.5-1.9,0.1-2.6"/>
	<path class="st59" d="M77.4,89.7c-0.4-2.2-1.6-4.3-3.2-5.9c-0.3-0.3-0.6-0.5-0.9-0.6c-0.5-0.1-1,0-1.5,0.2
		c-1.4,0.6-2.6,1.4-3.8,2.3c1.5-1,3.6-0.7,5.2,0.1s2.8,2.3,4,3.6"/>
	<path class="st59" d="M117.1,106c-2.5,0.2-4.9,0.7-7.3,1.5c-0.2,0.1-0.5,0.2-0.6,0.4c-0.2,0.3-0.1,0.8,0.1,1.2
		c1.1,2.4,2.3,5,4.7,6.1c1.8-2.4,2.5-5.5,2.1-8.5"/>
	<path class="st60" d="M94.8,44.5l0.1,0.7c-11.8-8.8-27.2-12.7-41.7-10.5c-12,1.9-23.8,8.3-29.8,18.8c-2,3.4-3.3,7.2-4.4,11
		c-5.2,18.3-4.4,38.2,2.2,56c2.5,6.7,6.3,13.6,12.8,16.5c2.2,1,4.6,1.4,7,1.8c2.2,0.4,4.5,0.8,6.8,1.1c1.5,1,3.1,2,4.7,2.9
		c4.3,2.2,9.3,3.1,14.2,2.5c-1.7-4.9-2.7-10-2.9-15.2c0.7,3.4,1.4,6.9,3,10c1.5,3.1,4,6,7.2,7.2c-0.3-1.4-0.2-3,0.2-4.4
		c1.6,1.5,4.1,1.9,6.1,1.1c-3.4-6.7-4.1-14.4-4.6-21.9c-0.5-6.5-0.9-13.1-1.3-19.7c0-0.7-0.1-1.4-0.4-2c-0.6-1.3-2.1-1.9-3.4-2.6
		c-3.6-1.9-6.3-5.8-6.3-9.9s3-8.1,7-9c4-0.8,8.5,2.1,9.1,6.1c8.4-2.8,16.2-8.6,19.6-16.7C103.6,60.5,101.8,50,94.8,44.5z"/>
</g>
</svg>
