<?xml version="1.0" encoding="utf-8"?>
<!-- Generator: Adobe Illustrator 19.1.0, SVG Export Plug-In . SVG Version: 6.00 Build 0)  -->
<svg version="1.1" baseProfile="tiny" id="Lager_1" xmlns="http://www.w3.org/2000/svg" xmlns:xlink="http://www.w3.org/1999/xlink"
	 x="0px" y="0px" width="108.5px" height="250px" viewBox="0 0 108.5 250" xml:space="preserve">
<metadata><?xpacket begin="﻿" id="W5M0MpCehiHzreSzNTczkc9d"?>
<x:xmpmeta xmlns:x="adobe:ns:meta/" x:xmptk="Adobe XMP Core 5.6-c067 79.157747, 2015/03/30-23:40:42        ">
   <rdf:RDF xmlns:rdf="http://www.w3.org/1999/02/22-rdf-syntax-ns#">
      <rdf:Description rdf:about=""
            xmlns:dc="http://purl.org/dc/elements/1.1/"
            xmlns:xmp="http://ns.adobe.com/xap/1.0/"
            xmlns:xmpGImg="http://ns.adobe.com/xap/1.0/g/img/"
            xmlns:xmpMM="http://ns.adobe.com/xap/1.0/mm/"
            xmlns:stRef="http://ns.adobe.com/xap/1.0/sType/ResourceRef#"
            xmlns:stEvt="http://ns.adobe.com/xap/1.0/sType/ResourceEvent#"
            xmlns:illustrator="http://ns.adobe.com/illustrator/1.0/"
            xmlns:xmpTPg="http://ns.adobe.com/xap/1.0/t/pg/"
            xmlns:stDim="http://ns.adobe.com/xap/1.0/sType/Dimensions#"
            xmlns:xmpG="http://ns.adobe.com/xap/1.0/g/"
            xmlns:pdf="http://ns.adobe.com/pdf/1.3/">
         <dc:format>image/svg+xml</dc:format>
         <dc:title>
            <rdf:Alt>
               <rdf:li xml:lang="x-default">Utskrift</rdf:li>
            </rdf:Alt>
         </dc:title>
         <xmp:MetadataDate>2015-12-03T12:45:20+01:00</xmp:MetadataDate>
         <xmp:ModifyDate>2015-12-03T12:45:20+01:00</xmp:ModifyDate>
         <xmp:CreateDate>2015-12-03T12:45:20+01:00</xmp:CreateDate>
         <xmp:CreatorTool>Adobe Illustrator CC 2015 (Windows)</xmp:CreatorTool>
         <xmp:Thumbnails>
            <rdf:Alt>
               <rdf:li rdf:parseType="Resource">
                  <xmpGImg:width>108</xmpGImg:width>
                  <xmpGImg:height>256</xmpGImg:height>
                  <xmpGImg:format>JPEG</xmpGImg:format>
                  <xmpGImg:image>/9j/4AAQSkZJRgABAgEASABIAAD/7QAsUGhvdG9zaG9wIDMuMAA4QklNA+0AAAAAABAASAAAAAEA&#xA;AQBIAAAAAQAB/+4ADkFkb2JlAGTAAAAAAf/bAIQABgQEBAUEBgUFBgkGBQYJCwgGBggLDAoKCwoK&#xA;DBAMDAwMDAwQDA4PEA8ODBMTFBQTExwbGxscHx8fHx8fHx8fHwEHBwcNDA0YEBAYGhURFRofHx8f&#xA;Hx8fHx8fHx8fHx8fHx8fHx8fHx8fHx8fHx8fHx8fHx8fHx8fHx8fHx8fHx8f/8AAEQgBAABsAwER&#xA;AAIRAQMRAf/EAaIAAAAHAQEBAQEAAAAAAAAAAAQFAwIGAQAHCAkKCwEAAgIDAQEBAQEAAAAAAAAA&#xA;AQACAwQFBgcICQoLEAACAQMDAgQCBgcDBAIGAnMBAgMRBAAFIRIxQVEGE2EicYEUMpGhBxWxQiPB&#xA;UtHhMxZi8CRygvElQzRTkqKyY3PCNUQnk6OzNhdUZHTD0uIIJoMJChgZhJRFRqS0VtNVKBry4/PE&#xA;1OT0ZXWFlaW1xdXl9WZ2hpamtsbW5vY3R1dnd4eXp7fH1+f3OEhYaHiImKi4yNjo+Ck5SVlpeYmZ&#xA;qbnJ2en5KjpKWmp6ipqqusra6voRAAICAQIDBQUEBQYECAMDbQEAAhEDBCESMUEFURNhIgZxgZEy&#xA;obHwFMHR4SNCFVJicvEzJDRDghaSUyWiY7LCB3PSNeJEgxdUkwgJChgZJjZFGidkdFU38qOzwygp&#xA;0+PzhJSktMTU5PRldYWVpbXF1eX1RlZmdoaWprbG1ub2R1dnd4eXp7fH1+f3OEhYaHiImKi4yNjo&#xA;+DlJWWl5iZmpucnZ6fkqOkpaanqKmqq6ytrq+v/aAAwDAQACEQMRAD8A9U4qx7zT+YfknypPaQeY&#xA;9ZttMmviRapO/EsF6saA8VH8zUGKp3ZX1lf2kV5Y3Ed1aTrzhuIHWSN1P7SupKsPliqtirsVdirs&#xA;VdirsVdiryzz75485z+ZdT8t+Urqw0ey0Cwj1HzT5nv1a4+pRzCR0SG3XZpBFC0nx/DTw7qvnw6z&#xA;qXnPztot35Nm8weedU0C/t9UvL/WJYrLT41tnD8YoV/d28cjDdnoaCgB64q+hfJX5t3jebNZ8n+f&#xA;7jR9I8xWT2p0+G0ncRXEd1D6nBWuCpeWM7NQDqKDuVXqOKvNPz11XULHSPL0EWp3WkaXqut22nax&#xA;e6eSl2lvcJLT0nCuyVkVQSo5eGKvGvPVpN+UN2POPliJvNWn3c6adc6tqtxJeTWcCxUlsHjKoq+u&#xA;zc1kNaUC8R+2q9N8j61pfljzTpwsI/qnkT8x4IdR8uxABIbLVHhEktpxHwRi5jIdVG3qBlAxVnX5&#xA;ifmHpPkfRor+9gnvrq7mFtp2mWa+pcXM7AtxRdtlUFmY9B70BVRH5f8AnG385+TdL8zW9u9pFqUR&#xA;kFtIwZkKu0bDkNj8SGh8MVZDirsVdiqSed7PXr3yjq9t5eu2sdcktZP0ddIFJWcLyQfFUDkRxr2r&#xA;XFXif5YeffzF0zy3pXm7Uxq3nDyprUMqX0MUUdzqOm31tI0TOqRiNnt5DGwIpVaBu9Cqq6BoHnLz&#xA;l+Wv5h6rplmtrrXnnU7pLZdT9S2ZNMhVbeBCvpyEuI1dBWgqeu2KpB/yqXzpov5K6f8Al1pdrLae&#xA;Z/MuqmTXrz1AloltRg3O5jZlZDHHGPSryb4vgxV19cflbpVr5o8v6tcxeevOUGhyjUNVlt4mP1i1&#xA;j9OG3t2Hxc05M8jBy3wj4uVFCrM/+Vh6J/0LZ636SvP0j+jf8Oer6c3179NfVvQ9Ph/ec/V+Lr07&#xA;1xVgWvavovneLU9Z/Mnzze+U7Z9UfTtI8r2Rdks2sW5RveQiORhMx+PmQvs24VVWc/lL+XcFtY66&#xA;r+a7f8wPKHm/1Zp7eWIqz3nMCaZpPUlHQ0kNOXIKRuKFVP5/y2sU/LHTfyzv9Qa41SOMvpGoW0LC&#xA;W1kt5fUhuR8Z4rbM6qWLrzHwjdqYqxfVm1XSfMlumvazN5//ADIt7KeDQvLum2cVtbWRvYxG91cO&#xA;NowyqAZJXHwk8Vpir1f8t/LE/lbyHoPl64ZHudNs4obloyShmC1l4k7kcyaHFWSYqk3mnzh5e8rW&#xA;lrea5di0t727hsLeRgSDPcEhFNAaCgJJOwAJxVOcVcSFBJNANyT0AxV4f5x8s+cvyqh1bzl5H1MX&#xA;XlkXEmp655QvUDRASuDPJZzKA8VKluHTv8XTFXpWp6adTs4fMnlub0NXeBLizlBpBdxlOccF0n2X&#xA;RwaB/tJWqkbgqoy51XQ7zye+raoipolzYfW7yO6UUFtJD6jrKp/yDuMVfOQ80WWi6PonmDQPygtt&#xA;K8q39/FPbeYJUj1C+RTJyWaO1QCaN+KkxcpOHSm3VVOvqPnT/A/+Kv0BqHo/4+/xV+ifS/3J/omt&#xA;f95619Tntw/k398VS385tD0fzF+bevWl5eHy/oOk6HDfebJIuIudVihJnjFtG/7t3jChA53BqN+m&#xA;KvYvyg8wfl1qHlyPTPJaNa2ukRxwPp9xG8N1HG4M0UkiSfGyy+ozq/Rqn3xVPPLqXEmu+Zrq5iZJ&#xA;Rew2lu7d7WGzhljCnuvq3EzexYjFWFflDC995/8AzQ8yOKi41mLSI5PbSYBEQOveTfxOKoWb87n8&#xA;v/nbqHkTzTwi0i/+qv5f1MAIsTTQL+5nPdZJlcK/Y7Hb7Kr2DFXhH5qeV7j82PM3mHy9bMTYeTdL&#xA;YWvFiqya/eqJoVqDxIihjCt/KZDir0b8ofOi+cvy80fW2b/TWhFvqSN9pLu3/dzhh1HJl5AHsRir&#xA;yv8A5ye8/wCq3Oia15N8tOAmnWaXnm+/qQsNvNIkdvZqw/3bcO4LL/J4gtRV7WdKtW8l/onWTytG&#xA;036pqRY9YzB6c1Tv+zXFWKf8483l/d/kx5WlvuXqpavDEWFCbeCaSK2NKn/dCJ3xVidn6v50ahNY&#xA;WrNp/wCU3l+5FnNbJyjn1e4tgremehjtY/h2+03z+wq9ugght4I4IEWKGJQkUaAKqqooqqB0AGKr&#xA;8VYJ+Zf5R6L57+rzzXdxpWowRTWb6hZ8PUlsrlGSa1kDhkZG5chUVVtxiqn5x/LOzk0+11Xy3dya&#xA;D5n8v2f1fS9Who5e3hT4bW7jb4Z4W4jZhUHcd6qo/wDKPzdqfm/8udE8x6nHFFf6hC7XCQBhHyjl&#xA;eOqhixHIJWlcVYV/zj28ml63+Y3k+YlpdI8wS3sTv9poNQFYj90HL6cVQ/5ueT9E1b81NCstajrp&#xA;XnPSLzQppQADDdWbC9tJlY9JQxYJ49DscVRX5U/mRf6U+q/l/wCf7jh5m8qQPNHqEh21DTIk5rcq&#xA;zH4nWP7fcjc7h6Ksg/InT54/y+t9au146j5puLjX70nqWv5DJF91v6YxV5jqfnS7/J38w/O2iwWb&#xA;3Vv5qjTWvKFlGrMr6pcuIJIAqD9uUlmFfsoO7DFVTzp5DufKn5JLpuozfWvNnnDW9NfzBfEh2mvZ&#xA;7tJilf2kj9Pio6dT3xV6h+fGunQ/yg803yvwkeya0jYdQ14wthT3/e4qh/IHmzyxoH5e6BpuoyTa&#xA;VPpml2sVzbX1tcW8oeKBRJRXjX1PiB3jqD2xVK/+cXLV4/yc028kXg+p3N7eFPDncug6gdo8Ves4&#xA;q7FXYqlnmiV4vLWrSxnjJHZXDI3gRExBxV5r+RcXnOP8ovLFrYwaZb2zWnqQ38lxPdPSWRpKvarF&#xA;bjl8e6i426VxVLtJsNS8qf8AOSpbUb1bxPPWjORKsQgU3mncaoiAv8KW8VRVifi3O2Ksj/5yD0+5&#xA;f8vW1+xXlqflO9tdesvnZyAygkdvRZycVUvzJ/KXyx+bekaLq8V7Lpt0IkltNWtlBlksLpOUlu4q&#xA;tVkjc0qTxJOxBYFV6TZ2lvZWcFnbIIra2jSGCMdFSNQqqPkBiqGu9A0S81Sy1a7sYZ9T00SCwvHQ&#xA;NLCJhxk9NjuvIDfFXnP58xx3U/5d6fJULcecNNkenQpCkrMpoQfiqMVSv/nJe8F5H5I8moQX8yeY&#xA;LVZ4+vK2gdRJUeAeZCflir0n8w736j5A8zXvT6tpV7N4/Yt3bp9GKpH+Q0DQfk75SRgATp8clB4S&#xA;EuPwbFWe4q7FXYqlnmiN5PLOrxoOTvZXCqo6kmJgBirEfyAZW/JrymVII+pAVG+4dgfxxVjn/OQt&#xA;xf2L+VPMWiwctW8uavBJJfTI31K3tb4G2kFy6kNxdmjqEqwG5AqMVYd+d35v6/5PNxoGqeYLHU9U&#xA;v7Zhc6BZ6UfqkVvOhT07ieS89Wrqf2aGm/EAiqqI/I7/AJyC/L/Rvyj0uz81a0lpqek+pZ/VuEss&#xA;zxI5aAqkSOePpsqV6bb4qnn/AEOH+UHren/uS4Vp631VePz/ALzl/wALiqZad/zlZ+Sl4/CTWJrI&#xA;k0H1i0uKHp3jSQDr3xVgf58/mz5L1LXfy8m0HzHatBbalLc3mpWwW6eySkcazNCeVGUOzorod16d&#xA;iqn+paBoU/58/l3p+ksLq0sNOvdfur9pPrE10Z09OG4luCWaWsiKVJNKbLQYq9E/O6RI/wAovNzO&#xA;eIOl3KgnxZCoH0k4qmv5bWsdp+Xfle2jT00i0mxUJShFLdK1969cVZHirsVdiriARQ7g9Riryz/n&#xA;G6Zk/LNNGk/vvL2o6hpUo6kGG5dwD8llAxVmH5iaLY635D1/Sr5hHa3VhcLJKekZEZZZP9gwDfRi&#xA;r83Nb1vVdc1SfVNWuXu9QueJnuJPtMUUItaeCqBiqCVWZgqgszGiqNySewxV9x/kV+Rml6Z+VD6V&#xA;5z0uK7uvMEgvr+xuUq0K8eMEdRRkkRPiJBDKzEYqwjz9/wA4Wxs0l35G1b06ksNK1KpUd6R3KAn2&#xA;AdD7tir5986flZ5+8lzrF5i0ea0SQt6VwvGaB+AqeMsRdPs70JrTFWd/84t/mB5b8o/mFcT+ZLoW&#xA;lrf6e9jBfS1McTmaOUK5oeKN6Z36A0r4hV7r+ev52/lbd/ltr2h6f5gt9Q1TUrX0rS3s+c4Zmdft&#xA;SIpjSgFfiYYq9K/KjUTdeS7W1e6W+l0h5dLa9XpPHaOY7efYnea39OQ+7Yqy/FXYq7FXYq8c/Ke7&#xA;j0384vzS8rI6+kb221qFAf276EPcmn+s6VxVd/zlN56Xyz+Vl5ZQvx1HzCf0bbgHcROK3LfL0qp8&#xA;2GKvhzQfL+t+YNUg0rRbKXUNRuDxhtoFLMfEnsqjqWOwHXFX2P8AkX/zjFp3k+S38xea/T1HzMlJ&#xA;LW1X47azbqGFf7yYfzdF/Z3AbFXvmKvM/MvnPztrmqP5e8kWE+mW8TEax5x1S2kgtrWNDSQWkVws&#xA;ZuJRQ704D5bhVOvIGjeRNNWcaJqUOt6xIvHVNXlukvb+cqan1peTMFBbZBRV7DFWD/8AOQ35K+X/&#xA;ADB5C1LUdD0e1tvMmnD67FPbQJFLOkQJmhYxgF+SFioNfiAxV8/X/wDzj/aW/wCTB89R6nPJqEdt&#xA;DfyIYkWxaOZ0RrdHLCUyxepUvx4MQVWvXFXrf/OHfma1tvI40OZnlvtS1m/NsgIIjhtbG0eR2qah&#xA;Q0irsOrDFX0jirsVdirsVfG3/OW9pr/lj80LTzLpN9Ppw13T1iNxaSPbyM9qyrJGzxlSw4+k2/t4&#xA;DFXkcuvedfP2r6BpXmPWby+gkuorGyubtmmEX1mRI3YciOTdC1TU03OKvtSPyD+Xv5W/l/dQ2Md5&#xA;ZxyelFd6nYmmqXMruFRfrA48OTGn2kROtV3OKvMr3y6uqu66b+mbYUSX/cb5umvLorIk0gdw8FzZ&#xA;KKWzhme6Va0HL4hVV6j+SfljyxaaVJrel6xrGuXk/K1nm16Z5Lq0KMGktREwUQ/HRm68tjyK0xVv&#xA;81fLHnLzTq+naRYWyP5cW2nlvXndBbSXbkRwrMok9WkKFpU/cyKZOPIbVCqO0H8n/Lthq9rrt8I7&#xA;rWrOT1rWa3gisooXMQhb0xAqysrKKsssjqWJNBXFWe4q+Ovz/wDOt55Y0bVfyfson+qvqS3tnMKc&#xA;F0u443cdogHxfu7pmUf5CgYq9Y/5xf8Ayo1Tyh5W/THmCNodb1KPjb2Ug4taWjN6nBl6rLM1Gkrv&#xA;RUU0K4q9uxV2KuxV2Kvj/wD5zdGsf4s8tmUn9DfUJfqY7C69Y/Wfvj9DFWWeU9f0PXv+ceNEmsJi&#xA;k/lu80W01PT04kI8OrW5eVo6f7tQ+oHG/UV+2MVfSeKpdqXlzy9qbFtS0u0vmNKm5gimJp0+2reG&#xA;KsH803tjpnmDRvJmnhvLuh3zI93caXGtvJLNcO6W9tC0aj0+bQs0zp8YAXoGLBVMPJWq6xbzajFq&#xA;KXUXl+1D+nearNE81rNCVEkMk/I+tG6OrpJVuLCRWbZcVc/nfUdZ852Gg+WUSTTrel3r+qSKSBbF&#xA;CYY7cEcT6z8fjJ3Wpj5UYoqzDUdRsNMsJ9Q1C4jtLG1Qy3FzMwSNEXcszHYDFXx7r94/mz/nITyd&#xA;51EP/Ov69rENvoSSoQ8trpkkMRuCrD7MkzOVrvtvir7MxV2KuxV2KuxV5P8An/8AldrHnnQo1sWF&#xA;6tn8Y0d/Sicvv++tborySanwlJSY3X+VqNir4eu4fNPlbUtU0ljeaXcx/uNStm5QsYwysgnRSVoT&#xA;xYVJFaEHocVfoP8Alh5/0n8wPJNlrFpOpuZYVi1S3jbjJb3PGkqGhDL8VSh7ihGKpXL5E89aXdvJ&#xA;ovmm7vLJlosOoSGW5hPIElJHDwzClQqvGp8XOKqJXzjE0a6jr2sJKDVl/RNtLxFACyNZW18nJhy2&#xA;9UHemKqy+V9Q1OVWjjnaUGqaxqQkT067F7aCeWa7SUU6KYE3r8X2SquvvMfkb8rbC20C0gub/W9Q&#xA;L3NvpNlGbrU7+eRv3lxJxAFWYHk7lVFKDYBcVSGT8tfOf5kXsOofmdMNN8uwuJbLyPYTFkJHRtQu&#xA;Up6rj+WPYdiN6qpL+YNnbP8A85J/lbotrEsFrYWdzPBbxgJEiRRzMqoq7CgtgKU8MVe+Yq7FXYq7&#xA;FXYq7FXkOpwjyt/zkdpuqt8Gn+etLk06V9qfpCw4yRlj/lQqqL4n8FWReevy48p3huPNIurjyzrV&#xA;hC88vmLS3ME4iiUu/wBYRQyXCUXdXUmmwxVCafb/AJ1W9lDLp+v+X/NNlKiyW97eW89jJKjrVW9S&#xA;0e5hIIpuse+KqWov/wA5IyRcbCDyhbP3eWfU5j9AEEQ+/FVN/wAx/wA1LDjZal+W9zeamy8YbjS7&#xA;23lsZZKdWll9N7dTv/eKae+Kpz5C8t6no9vqfmfzfLbHzRq7G41OeI1hs7SIfubOKRqH0oEHJj3c&#xA;sd+uKswsr20vrOC9s5VuLS6jSa3njPJJI5FDI6kdQymoxV4nfqmp/wDOXumV/wClH5cdwP8ALkeV&#xA;SRUdeN32xV7nirsVdirsVdirsVeV/wDOSGmXT/l6vmOwWuqeUb+11uzI2P8Ao8gWQV/l4OWPyxV6&#xA;FHLYeYPL6ywt6lhq1oHjcioaG5jqDSvdXxV8v/8AOM35yjyxf3P5aecrkWsVvcSQ6TdTtRIJ1crL&#xA;auxpxVnqUJ6NUdxRV9CX35ufldYy+jdebNJjlGzRi8gZgf8AKCsade+KorTPzI/L3VGVNO8zaVdy&#xA;NSkUV7bs+/T4A/IdPDFXgP8Azk9+b9zqWoRflZ5Tm53V7LFb6zcRNQM8xAjs1YfzFgZKf6v8wxV9&#xA;JaBpEOjaFpujwGsGm2sNpEaU+CCNY12HTZcVeL+UJ2uv+cvPOjp8UVnoMNsW5VHJvqMlAO2/L6cV&#xA;e8Yq7FXYq7FXYq7FUv8AMOjwa1oGpaNP/calazWkpO/wzxtGfwbFXnH/ADjJrtzqf5S2FneH/TtB&#xA;nn0i6BpVTbPWNDT+WGRFxV88/mb+U955l/5ya1Pyrpksdl+mJBqAuZQxVFkthcTvxFOR9QPQDqe4&#xA;3oqxf81vyJ1byFp0WsQ6taa9orXb6dPeWnwtBeR8uUM0dX4kFGH2jQihptVVkn5a/wDOMM/nTyZa&#xA;a7J5kg0vUtVSeXSNKkiEjSxW0npPI7CRXC86VKo3EEHvTFWOf849+WnvPzy0DT7sBH066luJlO9J&#xA;LGN5AB7+pGMVfoHir59/ICZtW/On82dbPxLFfLZxOa7oJ50SlQP2LZflir6DxV2KuxV2KuxV2Kux&#xA;V4r+SxOj/mt+anlRvhjXUodYtUHQC/RpZPuDxjFXkX/OVMPmfyj+celedtMuJIGubeKTTrtQKRz2&#xA;n7uWHwYcSrMD1DkdMVeb/mX+evnX8wtMtdL1eOys9PtpjdNb6fC8Sy3BUr6spd5SWAZuhA36YqmX&#xA;kD/nIzzb5K8qfoCwsLG6ktlnj0nU7mMtcWkd04klRCCOSGQc+J/a61AAxV6H/wA4g/lrrF55hm/M&#xA;XUfUjsbdZoNPZ/tXVxMCk0m+5RFJBPdj/knFX1pdXMVrazXMx4wwI0kjeCoCxO/sMVeAf84aW9xc&#xA;eVvM/mCcASarq5BNKEmKJZGPhTlcECnvir6FxV2KuxV2KuxV2KuxV4l5QvrCf/nKfzqtncrN/uGt&#xA;kuUQ1AnhaBGXbqUHXwJIxV6l5u8m+W/N+iy6L5hsUvtPlIbg1VZHH2XjdSGRhXqp/DFXzd5q/wCc&#xA;JZWvGl8qeYUS0c1W11KNuaD/AIzQg8v+RYxVN/If/OGGh6fdxXvnHVTq/pkMNMtFaC3YjtJKT6jr&#xA;7KE+eKvo6ysrOxtIbOygjtrS3RY7e3hUJHGiiiqiqAFAHQDFWH/nT5jt9A/K/wAy3j3CQXMmn3EF&#xA;nydVZppkMScASKkM4O2Ksb/5xV0pLD8k9FkApJqEl1dy9OpuHiXp/wAVxLir1vFXYq7FXYq7FXYq&#xA;8w/Oz8y9X8vQWHlXylB9d89+ZS0OlQCh+rx9HunB2HH9jl8OxJ2UjFVL8tPyA8oeVtDprFtDrnma&#xA;7Zp9S1u4TlN6zmpEEjfvIgK/aUhmO58AqyweSri1I/RHmLVrCMb/AFeSaO/jPsTqEd1MB/qyLirT&#xA;aJ5/VVWHzPbGleTTaYHY77f3dxCv4Yqq/obzpIymfzHFGBXktpp6Rg+H9/LckYqtbydeXBA1HzLq&#xA;93F+1BHJb2Smo3o9jDbTgf8APXbxxVs/lx5Gazu7WTRraZb+Jre9nnUzXM0bggrJcyF5267Evtir&#xA;yD8vNb1P8nvPC/lf5nmaXynq0ry+TNZk+yhkeptpD0FXah8HNfsvUKvoTFXYq7FXYq7FULqup2Ol&#xA;aZd6nfyiCxsYXuLqZuiRRKXdj8gMVeM/kHZ3vm/X/MH5va1CRLrMrWPlqKTrb6bbsVPDsObLxJHd&#xA;WP7WKvb8VdirsVU7eeG4gjuIHEkMyrJFIu4ZWFVI+YxVe3LieIBanwgmgr86HFVGxvI7y1juEHEP&#xA;UMhpVHUlXRqftIwKn3GKsc/Mn8utC8/+V7jQdWXjy/eWV4gBlt51HwSxk/cw7rUYqwX8ovzL1mx1&#xA;uT8rvzCkEXnDTAF0zUGJ9PU7UAlJEdqcpOI+bD/KDYq9lxV2KuxV2KvAPzg803v5j+aofyc8nzEx&#xA;NIsvnLVoxWO2toWDNCGGxYNTl/lcUr9qir2LyjaWllpSWGmQC20PT1Wy0qID7UVuOBlr3DOCB4gc&#xA;q/FiqqtzNf64I7dqafpnL61IDtJdMtFiHisSMWf/ACilNwwCqb4q7FUm8lMjeTdBZEMaNp1oVjYU&#xA;KgwJQEdqYqnOKpDqEK2N6/Pl+idYYW92EYqYbmUekkikGqibaM8ej8T+0xxVMdLupJI3tblq31pR&#xA;Lg0pzqPgmAAA4yAV22BqvVTirCPzk/KKz/MDSIJbWf8ARnmnSm9fQ9XSqtHIp5CN2X4+DMAajdT8&#xA;Q7gqpF+Tf5yajqeoy+QfP0X6L8/6XWNlkARL5EFfUjp8PqcfiIXZh8S7VCqvYsVcSAKnYDqcVeIe&#xA;dvzO80edtYuPIn5Sn1JUJi1/zfv9UskaoZIJR9qU70Za/wCR3ZVWR/l3+XGieUNKbyz5bZnq4bzN&#xA;5hb4Z7iUDeFHBqrb0+E/ulrQ+oeWKs01e+ezS10rS0RdRuwY7KML+7gijADzugp+7hDLQbcmKpUc&#xA;qhVSlsYEbT9CtSwhhZby7atXKRSc15uP257ijMT9sCTviqeYq7FUn8nFW8raVKgCpPbRzoikEKsw&#xA;9RVBG3whqbYqnGKobU7CPUNOurGVmSO6ieFnQ0ZQ6leSnsRWoxVJbGW+vrKO+UIvmLSybTUYBVY5&#xA;XQAyRHl0SUFZYWO4DKehZSqnOm6jbahaLc2/IKSyPG44ujoSrxuvZlYUIxV4l/zlAfy0XTrOTVJJ&#xA;4/P6cT5XbSv+Ol6vP91Wn+6fV8d614fFiqcfX/8AnIL/AJUh631G3/5WH9njyj9X6r/v3h/c/WeP&#xA;7Fae3L4cVTf88vIv5hecvL0Wl+Utdh0mIlxqVpMJIxdowHFDcRB3RRQgqF+Ku52xV50vmX86/wAv&#xA;9It9IvPy7tYfK1vyW6uPKjO0npUoWjBeeVGP7cki8iN+St8QVeleS/zl/LjzDocTeXLlWvR+6h8u&#xA;ELFf+tQt6QgJ3+ySzglAKszAAkKsrs4F0q0utW1iZDeyIJNQuVB9NI4wSsUVRy9OPkeO1WJJpVsV&#xA;VtEtbhY5b68UrfX7CWWM7+kgFIoBu392n2qGhcsw+1iqZYq0wJUgHiSNj4YqlHk12k8oaG7LwZ9P&#xA;tWK77EwKabhT94xVOMVdirEvOOu6L5SuY/Mt9fQWVu4S21OKaVIzLBy+CWNWILSQM5NF3ZCwoW4U&#xA;VeUea/z6fVvMJ0z8mbCfzD5iuR6eoXYhYaeFpwSZ+fp/HGdhK3FKUBLjiAqyX8pvyLk0LVJPOfni&#xA;8HmDz5eH1GupDzitC1arDUCrUNOVAFHwoAOqr2DFXYq7FWBefvyX8oebpRqQR9F8zwn1LPzHpp9C&#xA;7jkA+FnZePqj2benQjFXnWoa1/zkZ5fvLLT/ADH5Xh876Jp8gnXUNKkFvPdPCeUDzp+83iYc+AhW&#xA;rhfiNDyVUr3/AJyl1aDzHbeXNV8sr5Ou7hTJJf6/NM0UKcWZGaCGGORw5XiPjUVxVldh5t0jUx6k&#xA;n5y2SXLV42+nDR7aEEb7Q3qXs5H/AD1xVKfNH592/kewS8k8yaH55tWmWE2+nTxwamisDV2SB7qG&#xA;TjTc8Yh/FVX/AC0/5yD8iXVsnl+9i1DS9bt5LkfoqSxuJZI4RM7xKRbRyU4wsoaqjfFXoc35h6EI&#xA;/wDQoNQ1G4YfBbW1jchulfjkmSGGHY9ZpEHvirybz9+YP5la35/8veQfLWrWGivrYkfUn09lvruz&#xA;t4gWcyzkCNZCiOQiKCGFOZqDirLNL/5xo/K+C5N9rVvd+ZtUf+91DWbqW4kc+LKpjQ/7JTir0PQf&#xA;LXl7y/Z/UtC0220y0J5NDaRJCpb+ZggFT7nFUyxV2KuxV2KuxV2Kvln/AJyS0Lydcfnn5Ok81z/V&#xA;dB1Kwa21OcMY+Ajeb05C6g8fjlWpOwA32xVCz/8AOPH/ADjpfMW0j8x4460YxvqOnT8Qa9gImH04&#xA;qwbWPyg8mad+a3k3y15W8yx+ZI9UuozqbQvDJ9XSOZS4LQM45GIO3E0O3virLf8AnIzybrmsf85D&#xA;aNpuh3qWGo6/p0P1e7lkeGNXQzxspkiVnFViA2B64qg2/wCcO/zbvplGqeYtLkhZuUkhuL2dwenI&#xA;K8CAn/ZYqm3/ADix5Jh0D85vOGn3Ey3l35et5LGO4VeKlmuFV3UGpB/d0+k4q+ssVdirsVdirsVd&#xA;irsVdir5Z/5ygm8qaj+cfknRPMt2LPRIbZp9WuPiBSGeZhTkgZgW+r0G21a4qllz+RP/ADjVfEz6&#xA;Z+ZcNlCxr6Nxf2DEVFaASei9N+9cVSjyp5O8k+Sv+cg/JFv5Y8zQeZrK6ZzNPbyQy+lK8csSozQM&#xA;6b1B8cVT3/nI3TPM/mn/AJyB8v6D5Sk9LXbTS45bWcSeiYpo5Li5L+qD8PFFUj3xVRl/JT/nK7Vn&#xA;FvqHmqWO3bZjLq1x6VP8pIQxP/A4qmH/ADi9oGo+Ufzm85+U9UmjudStrEPNcRMzK/CaJuQLBWNR&#xA;cCte+KvqnFXYq7FXYq7FXYq7FXYq+YvzQ8q2vmj/AJyUEF95euPMukafoccmp6dZyxRT8XMqxuhl&#xA;ntK8ZJU2D174qoXX5DflbK4kPkfzpY8qkQRNZygCviJ7j/iWKsMk8leXfJn50/l9Np+j69o2mXuo&#xA;wr/ucFt6kk8c6IDD6DP8AMqcuW+/TFWQfnpovnCb/nJXTo/K2pJpWu32lRz6feSTegoWNJ0kUuA3&#xA;2lhcUI3xVfffll/zlZeKRfedkt4HAEcg1WWBJVNTVfRRSRQ71GKoL8hbG48g/wDOQV/pHmfWrC6v&#xA;r/TXg/SKXRliuJ7iWCVI0mmEbNKzJxoRUmoxV9g4q7FXYq7FXYq7FXYq7FXkOlBIf+cptcQsS915&#xA;WgnUU2Aju0jIrX5HFXruKvBvzAhi8wf85SeQ9EuB6lnolhLqxUAmk/KV0r4Ue2iNcVRP5keWfL+o&#xA;/wDOR3kM6xZQalb6rpeoWb2d3Es8J+pxy3CMUcMtR6rU2xVni/kt+UisGHlDSag1FbSIjbxBWmKv&#xA;Mfz28qeT7HWfy38uaJo1ho9zq3mKCU3Njaw28iw2xVZQDEq97lWp4gYq+g8VdirsVdirsVdirsVd&#xA;iryLzCV0n/nJryrfbKvmPQb3SjtSrWchvNz404jfFXrmKvA/LH+5P/nMHzXNJ8cWj6LFFbsCKK7p&#xA;aVB/5HSYqn/5vgaf+av5U6/9lU1K70qR60qdRgWKMb/7LFXruKvEvzBRdS/5yZ/LfTZBzh0+yvtR&#xA;Za0ozRyhG/5GW64q9uxV2KuxV2KuxV2KuxV2KvFPzkmC/nb+UCxSfvxdajzQGpEbpAtePbl8Qr/T&#xA;FXtWKvCPyntZpP8AnI/80byZQJIUtoV8eEoUpSm26wiuKp1/zk8fq3kTSdaqVGha/puolx+z6btH&#xA;X/krir13FXjTQtd/85aI70I0/wAo84+oIDXhTt1NZz1xV7NirsVdirsVdirsVdirF/zI/MTQPIHl&#xA;e41/WHqqfu7S0U0kuLgglIY+u5puewqcVeY/k/5Q84ebvNw/N7z8n1W7aExeVtGFVW2tZFZfUZTu&#xA;OSOeNdzyLH9nFXuuKvEPyiS4H5+fmyZgeQksKHr8JRzHuP8AIpirIP8AnJu1mufyN8zxwpzdUtZS&#xA;AK0WK9gkc/Qik4qz7y3qNtqfl7TNRtZRPb3lrDPFMDXmskYYNX3rirzz8zLQ+UfOuk/mtAjPY2kB&#xA;0bzZHGCzDTZ5A0Vyqj/lnnoz0FSvyxV6lBPDcQRzwOssMqh4pEIZWVhVWUjqCMVX4q7FXYq7FXYq&#xA;7FXz95e0F/zT/O3zFrnmb975f8hXr6XouiSCsTXMbENPIp2YEx8/8r4QdloVX0BirAfzK/N7SfJk&#xA;1rpNtZT695s1IE6b5fsRyncD9uQgN6cex+LiehoKAkKvNvIGqeedE8zeZ/OHmSKztdT8zyWr3GlG&#xA;e2ighgskaKP960pdnEb0+BTuKmtdlXu8baT5j0JlkjF1pepQvFNFIrBZIpFKOpDBSVIJFe+KvI/+&#xA;cfru+8t675s/KjUZmm/wzc/WtDkkNWbTro81H+x5ox93I7Yq9lv7Gz1CxuLC9hW4s7uN4LmBxVXj&#xA;kUq6sPAqaYq8U/J3zld+VfNep/k5rfqT/oGRjoOpnm7SWExR7aJwqNuqygciwUfZ7Yq9zxV2KuxV&#xA;2KuxV2KvEby61D8pvzK8xa/fafc3vkPze8V3cahZRNO+n3salZPXiQcvTl5E86eA3NcVVdY/5yU0&#xA;DVoTpP5Y2tz5s81XSlbOBLaaG3hJ29W4edYaInU9v8odcVQP5ffkb5mt7u/17zRdev5m1cI2pX15&#xA;6Nz8Q+JkhijB4xD7H98KgA8VoAFXqei+R7DTXjlkkW6kRV5IbSxhj9RQR6i+lAsoO5pWQ4qyTFXj&#xA;35oafrPlb8zNB/M/SdLuNU0+O0l0jzTbWKmS4FozepFOsS7v6bmrf6o+YVTX/oYX8uZwY9JOqazf&#xA;UJXT7DSr97hiOwEkMa1/2WKvNtGs/MvmXz9rvnrUNFuLA6nCmlRaDcWd9LNDaQmJvUuGge2o8jRf&#xA;ZBam4PTdV9B+XbTULTSIIL+YTXCDqFZeK/soeUkxbj05ct8VTLFXYq//2Q==</xmpGImg:image>
               </rdf:li>
            </rdf:Alt>
         </xmp:Thumbnails>
         <xmpMM:InstanceID>xmp.iid:7aec0cae-47d6-5640-b189-a0205b9003ab</xmpMM:InstanceID>
         <xmpMM:DocumentID>xmp.did:7aec0cae-47d6-5640-b189-a0205b9003ab</xmpMM:DocumentID>
         <xmpMM:OriginalDocumentID>uuid:5D20892493BFDB11914A8590D31508C8</xmpMM:OriginalDocumentID>
         <xmpMM:RenditionClass>proof:pdf</xmpMM:RenditionClass>
         <xmpMM:DerivedFrom rdf:parseType="Resource">
            <stRef:instanceID>xmp.iid:f9e1071f-494f-d744-9c4c-3335b3177f2e</stRef:instanceID>
            <stRef:documentID>xmp.did:f9e1071f-494f-d744-9c4c-3335b3177f2e</stRef:documentID>
            <stRef:originalDocumentID>uuid:5D20892493BFDB11914A8590D31508C8</stRef:originalDocumentID>
            <stRef:renditionClass>proof:pdf</stRef:renditionClass>
         </xmpMM:DerivedFrom>
         <xmpMM:History>
            <rdf:Seq>
               <rdf:li rdf:parseType="Resource">
                  <stEvt:action>saved</stEvt:action>
                  <stEvt:instanceID>xmp.iid:43125416-340d-5d40-8e16-191af16f54f8</stEvt:instanceID>
                  <stEvt:when>2015-12-03T10:08:15+01:00</stEvt:when>
                  <stEvt:softwareAgent>Adobe Illustrator CC 2015 (Windows)</stEvt:softwareAgent>
                  <stEvt:changed>/</stEvt:changed>
               </rdf:li>
               <rdf:li rdf:parseType="Resource">
                  <stEvt:action>saved</stEvt:action>
                  <stEvt:instanceID>xmp.iid:7aec0cae-47d6-5640-b189-a0205b9003ab</stEvt:instanceID>
                  <stEvt:when>2015-12-03T12:45:20+01:00</stEvt:when>
                  <stEvt:softwareAgent>Adobe Illustrator CC 2015 (Windows)</stEvt:softwareAgent>
                  <stEvt:changed>/</stEvt:changed>
               </rdf:li>
            </rdf:Seq>
         </xmpMM:History>
         <illustrator:StartupProfile>Print</illustrator:StartupProfile>
         <xmpTPg:HasVisibleOverprint>False</xmpTPg:HasVisibleOverprint>
         <xmpTPg:HasVisibleTransparency>False</xmpTPg:HasVisibleTransparency>
         <xmpTPg:NPages>1</xmpTPg:NPages>
         <xmpTPg:MaxPageSize rdf:parseType="Resource">
            <stDim:w>108,500000</stDim:w>
            <stDim:h>250,000000</stDim:h>
            <stDim:unit>Pixels</stDim:unit>
         </xmpTPg:MaxPageSize>
         <xmpTPg:PlateNames>
            <rdf:Seq>
               <rdf:li>Cyan</rdf:li>
               <rdf:li>Magenta</rdf:li>
               <rdf:li>Yellow</rdf:li>
               <rdf:li>Black</rdf:li>
            </rdf:Seq>
         </xmpTPg:PlateNames>
         <xmpTPg:SwatchGroups>
            <rdf:Seq>
               <rdf:li rdf:parseType="Resource">
                  <xmpG:groupName>Standardfärgrutegrupp</xmpG:groupName>
                  <xmpG:groupType>0</xmpG:groupType>
                  <xmpG:Colorants>
                     <rdf:Seq>
                        <rdf:li rdf:parseType="Resource">
                           <xmpG:swatchName>Vit</xmpG:swatchName>
                           <xmpG:mode>RGB</xmpG:mode>
                           <xmpG:type>PROCESS</xmpG:type>
                           <xmpG:red>255</xmpG:red>
                           <xmpG:green>255</xmpG:green>
                           <xmpG:blue>255</xmpG:blue>
                        </rdf:li>
                        <rdf:li rdf:parseType="Resource">
                           <xmpG:swatchName>Svart</xmpG:swatchName>
                           <xmpG:mode>RGB</xmpG:mode>
                           <xmpG:type>PROCESS</xmpG:type>
                           <xmpG:red>29</xmpG:red>
                           <xmpG:green>29</xmpG:green>
                           <xmpG:blue>27</xmpG:blue>
                        </rdf:li>
                        <rdf:li rdf:parseType="Resource">
                           <xmpG:swatchName>CMYK röd</xmpG:swatchName>
                           <xmpG:mode>RGB</xmpG:mode>
                           <xmpG:type>PROCESS</xmpG:type>
                           <xmpG:red>227</xmpG:red>
                           <xmpG:green>6</xmpG:green>
                           <xmpG:blue>19</xmpG:blue>
                        </rdf:li>
                        <rdf:li rdf:parseType="Resource">
                           <xmpG:swatchName>CMYK gul</xmpG:swatchName>
                           <xmpG:mode>RGB</xmpG:mode>
                           <xmpG:type>PROCESS</xmpG:type>
                           <xmpG:red>255</xmpG:red>
                           <xmpG:green>237</xmpG:green>
                           <xmpG:blue>0</xmpG:blue>
                        </rdf:li>
                        <rdf:li rdf:parseType="Resource">
                           <xmpG:swatchName>CMYK grön</xmpG:swatchName>
                           <xmpG:mode>RGB</xmpG:mode>
                           <xmpG:type>PROCESS</xmpG:type>
                           <xmpG:red>0</xmpG:red>
                           <xmpG:green>150</xmpG:green>
                           <xmpG:blue>64</xmpG:blue>
                        </rdf:li>
                        <rdf:li rdf:parseType="Resource">
                           <xmpG:swatchName>CMYK cyan</xmpG:swatchName>
                           <xmpG:mode>RGB</xmpG:mode>
                           <xmpG:type>PROCESS</xmpG:type>
                           <xmpG:red>0</xmpG:red>
                           <xmpG:green>159</xmpG:green>
                           <xmpG:blue>227</xmpG:blue>
                        </rdf:li>
                        <rdf:li rdf:parseType="Resource">
                           <xmpG:swatchName>CMYK blå</xmpG:swatchName>
                           <xmpG:mode>RGB</xmpG:mode>
                           <xmpG:type>PROCESS</xmpG:type>
                           <xmpG:red>49</xmpG:red>
                           <xmpG:green>39</xmpG:green>
                           <xmpG:blue>131</xmpG:blue>
                        </rdf:li>
                        <rdf:li rdf:parseType="Resource">
                           <xmpG:swatchName>CMYK magenta</xmpG:swatchName>
                           <xmpG:mode>RGB</xmpG:mode>
                           <xmpG:type>PROCESS</xmpG:type>
                           <xmpG:red>230</xmpG:red>
                           <xmpG:green>0</xmpG:green>
                           <xmpG:blue>126</xmpG:blue>
                        </rdf:li>
                        <rdf:li rdf:parseType="Resource">
                           <xmpG:swatchName>C=15 M=100 Y=90 K=10</xmpG:swatchName>
                           <xmpG:mode>RGB</xmpG:mode>
                           <xmpG:type>PROCESS</xmpG:type>
                           <xmpG:red>190</xmpG:red>
                           <xmpG:green>22</xmpG:green>
                           <xmpG:blue>34</xmpG:blue>
                        </rdf:li>
                        <rdf:li rdf:parseType="Resource">
                           <xmpG:swatchName>C=0 M=90 Y=85 K=0</xmpG:swatchName>
                           <xmpG:mode>RGB</xmpG:mode>
                           <xmpG:type>PROCESS</xmpG:type>
                           <xmpG:red>230</xmpG:red>
                           <xmpG:green>51</xmpG:green>
                           <xmpG:blue>42</xmpG:blue>
                        </rdf:li>
                        <rdf:li rdf:parseType="Resource">
                           <xmpG:swatchName>C=0 M=80 Y=95 K=0</xmpG:swatchName>
                           <xmpG:mode>RGB</xmpG:mode>
                           <xmpG:type>PROCESS</xmpG:type>
                           <xmpG:red>233</xmpG:red>
                           <xmpG:green>78</xmpG:green>
                           <xmpG:blue>27</xmpG:blue>
                        </rdf:li>
                        <rdf:li rdf:parseType="Resource">
                           <xmpG:swatchName>C=0 M=50 Y=100 K=0</xmpG:swatchName>
                           <xmpG:mode>RGB</xmpG:mode>
                           <xmpG:type>PROCESS</xmpG:type>
                           <xmpG:red>243</xmpG:red>
                           <xmpG:green>146</xmpG:green>
                           <xmpG:blue>0</xmpG:blue>
                        </rdf:li>
                        <rdf:li rdf:parseType="Resource">
                           <xmpG:swatchName>C=0 M=35 Y=85 K=0</xmpG:swatchName>
                           <xmpG:mode>RGB</xmpG:mode>
                           <xmpG:type>PROCESS</xmpG:type>
                           <xmpG:red>249</xmpG:red>
                           <xmpG:green>178</xmpG:green>
                           <xmpG:blue>51</xmpG:blue>
                        </rdf:li>
                        <rdf:li rdf:parseType="Resource">
                           <xmpG:swatchName>C=5 M=0 Y=90 K=0</xmpG:swatchName>
                           <xmpG:mode>RGB</xmpG:mode>
                           <xmpG:type>PROCESS</xmpG:type>
                           <xmpG:red>252</xmpG:red>
                           <xmpG:green>234</xmpG:green>
                           <xmpG:blue>16</xmpG:blue>
                        </rdf:li>
                        <rdf:li rdf:parseType="Resource">
                           <xmpG:swatchName>C=20 M=0 Y=100 K=0</xmpG:swatchName>
                           <xmpG:mode>RGB</xmpG:mode>
                           <xmpG:type>PROCESS</xmpG:type>
                           <xmpG:red>222</xmpG:red>
                           <xmpG:green>220</xmpG:green>
                           <xmpG:blue>0</xmpG:blue>
                        </rdf:li>
                        <rdf:li rdf:parseType="Resource">
                           <xmpG:swatchName>C=50 M=0 Y=100 K=0</xmpG:swatchName>
                           <xmpG:mode>RGB</xmpG:mode>
                           <xmpG:type>PROCESS</xmpG:type>
                           <xmpG:red>149</xmpG:red>
                           <xmpG:green>193</xmpG:green>
                           <xmpG:blue>31</xmpG:blue>
                        </rdf:li>
                        <rdf:li rdf:parseType="Resource">
                           <xmpG:swatchName>C=75 M=0 Y=100 K=0</xmpG:swatchName>
                           <xmpG:mode>RGB</xmpG:mode>
                           <xmpG:type>PROCESS</xmpG:type>
                           <xmpG:red>58</xmpG:red>
                           <xmpG:green>170</xmpG:green>
                           <xmpG:blue>53</xmpG:blue>
                        </rdf:li>
                        <rdf:li rdf:parseType="Resource">
                           <xmpG:swatchName>C=85 M=10 Y=100 K=10</xmpG:swatchName>
                           <xmpG:mode>RGB</xmpG:mode>
                           <xmpG:type>PROCESS</xmpG:type>
                           <xmpG:red>0</xmpG:red>
                           <xmpG:green>141</xmpG:green>
                           <xmpG:blue>54</xmpG:blue>
                        </rdf:li>
                        <rdf:li rdf:parseType="Resource">
                           <xmpG:swatchName>C=90 M=30 Y=95 K=30</xmpG:swatchName>
                           <xmpG:mode>RGB</xmpG:mode>
                           <xmpG:type>PROCESS</xmpG:type>
                           <xmpG:red>0</xmpG:red>
                           <xmpG:green>102</xmpG:green>
                           <xmpG:blue>51</xmpG:blue>
                        </rdf:li>
                        <rdf:li rdf:parseType="Resource">
                           <xmpG:swatchName>C=75 M=0 Y=75 K=0</xmpG:swatchName>
                           <xmpG:mode>RGB</xmpG:mode>
                           <xmpG:type>PROCESS</xmpG:type>
                           <xmpG:red>47</xmpG:red>
                           <xmpG:green>172</xmpG:green>
                           <xmpG:blue>102</xmpG:blue>
                        </rdf:li>
                        <rdf:li rdf:parseType="Resource">
                           <xmpG:swatchName>C=80 M=10 Y=45 K=0</xmpG:swatchName>
                           <xmpG:mode>RGB</xmpG:mode>
                           <xmpG:type>PROCESS</xmpG:type>
                           <xmpG:red>0</xmpG:red>
                           <xmpG:green>161</xmpG:green>
                           <xmpG:blue>154</xmpG:blue>
                        </rdf:li>
                        <rdf:li rdf:parseType="Resource">
                           <xmpG:swatchName>C=70 M=15 Y=0 K=0</xmpG:swatchName>
                           <xmpG:mode>RGB</xmpG:mode>
                           <xmpG:type>PROCESS</xmpG:type>
                           <xmpG:red>54</xmpG:red>
                           <xmpG:green>169</xmpG:green>
                           <xmpG:blue>225</xmpG:blue>
                        </rdf:li>
                        <rdf:li rdf:parseType="Resource">
                           <xmpG:swatchName>C=85 M=50 Y=0 K=0</xmpG:swatchName>
                           <xmpG:mode>RGB</xmpG:mode>
                           <xmpG:type>PROCESS</xmpG:type>
                           <xmpG:red>29</xmpG:red>
                           <xmpG:green>113</xmpG:green>
                           <xmpG:blue>184</xmpG:blue>
                        </rdf:li>
                        <rdf:li rdf:parseType="Resource">
                           <xmpG:swatchName>C=100 M=95 Y=5 K=0</xmpG:swatchName>
                           <xmpG:mode>RGB</xmpG:mode>
                           <xmpG:type>PROCESS</xmpG:type>
                           <xmpG:red>45</xmpG:red>
                           <xmpG:green>46</xmpG:green>
                           <xmpG:blue>131</xmpG:blue>
                        </rdf:li>
                        <rdf:li rdf:parseType="Resource">
                           <xmpG:swatchName>C=100 M=100 Y=25 K=25</xmpG:swatchName>
                           <xmpG:mode>RGB</xmpG:mode>
                           <xmpG:type>PROCESS</xmpG:type>
                           <xmpG:red>41</xmpG:red>
                           <xmpG:green>35</xmpG:green>
                           <xmpG:blue>92</xmpG:blue>
                        </rdf:li>
                        <rdf:li rdf:parseType="Resource">
                           <xmpG:swatchName>C=75 M=100 Y=0 K=0</xmpG:swatchName>
                           <xmpG:mode>RGB</xmpG:mode>
                           <xmpG:type>PROCESS</xmpG:type>
                           <xmpG:red>102</xmpG:red>
                           <xmpG:green>36</xmpG:green>
                           <xmpG:blue>131</xmpG:blue>
                        </rdf:li>
                        <rdf:li rdf:parseType="Resource">
                           <xmpG:swatchName>C=50 M=100 Y=0 K=0</xmpG:swatchName>
                           <xmpG:mode>RGB</xmpG:mode>
                           <xmpG:type>PROCESS</xmpG:type>
                           <xmpG:red>149</xmpG:red>
                           <xmpG:green>27</xmpG:green>
                           <xmpG:blue>129</xmpG:blue>
                        </rdf:li>
                        <rdf:li rdf:parseType="Resource">
                           <xmpG:swatchName>C=35 M=100 Y=35 K=10</xmpG:swatchName>
                           <xmpG:mode>RGB</xmpG:mode>
                           <xmpG:type>PROCESS</xmpG:type>
                           <xmpG:red>163</xmpG:red>
                           <xmpG:green>25</xmpG:green>
                           <xmpG:blue>91</xmpG:blue>
                        </rdf:li>
                        <rdf:li rdf:parseType="Resource">
                           <xmpG:swatchName>C=10 M=100 Y=50 K=0</xmpG:swatchName>
                           <xmpG:mode>RGB</xmpG:mode>
                           <xmpG:type>PROCESS</xmpG:type>
                           <xmpG:red>214</xmpG:red>
                           <xmpG:green>11</xmpG:green>
                           <xmpG:blue>82</xmpG:blue>
                        </rdf:li>
                        <rdf:li rdf:parseType="Resource">
                           <xmpG:swatchName>C=0 M=95 Y=20 K=0</xmpG:swatchName>
                           <xmpG:mode>RGB</xmpG:mode>
                           <xmpG:type>PROCESS</xmpG:type>
                           <xmpG:red>231</xmpG:red>
                           <xmpG:green>29</xmpG:green>
                           <xmpG:blue>115</xmpG:blue>
                        </rdf:li>
                        <rdf:li rdf:parseType="Resource">
                           <xmpG:swatchName>C=25 M=25 Y=40 K=0</xmpG:swatchName>
                           <xmpG:mode>RGB</xmpG:mode>
                           <xmpG:type>PROCESS</xmpG:type>
                           <xmpG:red>203</xmpG:red>
                           <xmpG:green>187</xmpG:green>
                           <xmpG:blue>160</xmpG:blue>
                        </rdf:li>
                        <rdf:li rdf:parseType="Resource">
                           <xmpG:swatchName>C=40 M=45 Y=50 K=5</xmpG:swatchName>
                           <xmpG:mode>RGB</xmpG:mode>
                           <xmpG:type>PROCESS</xmpG:type>
                           <xmpG:red>164</xmpG:red>
                           <xmpG:green>138</xmpG:green>
                           <xmpG:blue>123</xmpG:blue>
                        </rdf:li>
                        <rdf:li rdf:parseType="Resource">
                           <xmpG:swatchName>C=50 M=50 Y=60 K=25</xmpG:swatchName>
                           <xmpG:mode>RGB</xmpG:mode>
                           <xmpG:type>PROCESS</xmpG:type>
                           <xmpG:red>123</xmpG:red>
                           <xmpG:green>106</xmpG:green>
                           <xmpG:blue>88</xmpG:blue>
                        </rdf:li>
                        <rdf:li rdf:parseType="Resource">
                           <xmpG:swatchName>C=55 M=60 Y=65 K=40</xmpG:swatchName>
                           <xmpG:mode>RGB</xmpG:mode>
                           <xmpG:type>PROCESS</xmpG:type>
                           <xmpG:red>99</xmpG:red>
                           <xmpG:green>78</xmpG:green>
                           <xmpG:blue>66</xmpG:blue>
                        </rdf:li>
                        <rdf:li rdf:parseType="Resource">
                           <xmpG:swatchName>C=25 M=40 Y=65 K=0</xmpG:swatchName>
                           <xmpG:mode>RGB</xmpG:mode>
                           <xmpG:type>PROCESS</xmpG:type>
                           <xmpG:red>202</xmpG:red>
                           <xmpG:green>158</xmpG:green>
                           <xmpG:blue>103</xmpG:blue>
                        </rdf:li>
                        <rdf:li rdf:parseType="Resource">
                           <xmpG:swatchName>C=30 M=50 Y=75 K=10</xmpG:swatchName>
                           <xmpG:mode>RGB</xmpG:mode>
                           <xmpG:type>PROCESS</xmpG:type>
                           <xmpG:red>177</xmpG:red>
                           <xmpG:green>127</xmpG:green>
                           <xmpG:blue>74</xmpG:blue>
                        </rdf:li>
                        <rdf:li rdf:parseType="Resource">
                           <xmpG:swatchName>C=35 M=60 Y=80 K=25</xmpG:swatchName>
                           <xmpG:mode>RGB</xmpG:mode>
                           <xmpG:type>PROCESS</xmpG:type>
                           <xmpG:red>147</xmpG:red>
                           <xmpG:green>96</xmpG:green>
                           <xmpG:blue>55</xmpG:blue>
                        </rdf:li>
                        <rdf:li rdf:parseType="Resource">
                           <xmpG:swatchName>C=40 M=65 Y=90 K=35</xmpG:swatchName>
                           <xmpG:mode>RGB</xmpG:mode>
                           <xmpG:type>PROCESS</xmpG:type>
                           <xmpG:red>125</xmpG:red>
                           <xmpG:green>78</xmpG:green>
                           <xmpG:blue>36</xmpG:blue>
                        </rdf:li>
                        <rdf:li rdf:parseType="Resource">
                           <xmpG:swatchName>C=40 M=70 Y=100 K=50</xmpG:swatchName>
                           <xmpG:mode>RGB</xmpG:mode>
                           <xmpG:type>PROCESS</xmpG:type>
                           <xmpG:red>104</xmpG:red>
                           <xmpG:green>60</xmpG:green>
                           <xmpG:blue>17</xmpG:blue>
                        </rdf:li>
                        <rdf:li rdf:parseType="Resource">
                           <xmpG:swatchName>C=50 M=70 Y=80 K=70</xmpG:swatchName>
                           <xmpG:mode>RGB</xmpG:mode>
                           <xmpG:type>PROCESS</xmpG:type>
                           <xmpG:red>67</xmpG:red>
                           <xmpG:green>41</xmpG:green>
                           <xmpG:blue>24</xmpG:blue>
                        </rdf:li>
                     </rdf:Seq>
                  </xmpG:Colorants>
               </rdf:li>
               <rdf:li rdf:parseType="Resource">
                  <xmpG:groupName>Gråtoner</xmpG:groupName>
                  <xmpG:groupType>1</xmpG:groupType>
                  <xmpG:Colorants>
                     <rdf:Seq>
                        <rdf:li rdf:parseType="Resource">
                           <xmpG:swatchName>C=0 M=0 Y=0 K=100</xmpG:swatchName>
                           <xmpG:mode>RGB</xmpG:mode>
                           <xmpG:type>PROCESS</xmpG:type>
                           <xmpG:red>29</xmpG:red>
                           <xmpG:green>29</xmpG:green>
                           <xmpG:blue>27</xmpG:blue>
                        </rdf:li>
                        <rdf:li rdf:parseType="Resource">
                           <xmpG:swatchName>C=0 M=0 Y=0 K=90</xmpG:swatchName>
                           <xmpG:mode>RGB</xmpG:mode>
                           <xmpG:type>PROCESS</xmpG:type>
                           <xmpG:red>60</xmpG:red>
                           <xmpG:green>60</xmpG:green>
                           <xmpG:blue>59</xmpG:blue>
                        </rdf:li>
                        <rdf:li rdf:parseType="Resource">
                           <xmpG:swatchName>C=0 M=0 Y=0 K=80</xmpG:swatchName>
                           <xmpG:mode>RGB</xmpG:mode>
                           <xmpG:type>PROCESS</xmpG:type>
                           <xmpG:red>87</xmpG:red>
                           <xmpG:green>87</xmpG:green>
                           <xmpG:blue>86</xmpG:blue>
                        </rdf:li>
                        <rdf:li rdf:parseType="Resource">
                           <xmpG:swatchName>C=0 M=0 Y=0 K=70</xmpG:swatchName>
                           <xmpG:mode>RGB</xmpG:mode>
                           <xmpG:type>PROCESS</xmpG:type>
                           <xmpG:red>112</xmpG:red>
                           <xmpG:green>111</xmpG:green>
                           <xmpG:blue>111</xmpG:blue>
                        </rdf:li>
                        <rdf:li rdf:parseType="Resource">
                           <xmpG:swatchName>C=0 M=0 Y=0 K=60</xmpG:swatchName>
                           <xmpG:mode>RGB</xmpG:mode>
                           <xmpG:type>PROCESS</xmpG:type>
                           <xmpG:red>135</xmpG:red>
                           <xmpG:green>135</xmpG:green>
                           <xmpG:blue>135</xmpG:blue>
                        </rdf:li>
                        <rdf:li rdf:parseType="Resource">
                           <xmpG:swatchName>C=0 M=0 Y=0 K=50</xmpG:swatchName>
                           <xmpG:mode>RGB</xmpG:mode>
                           <xmpG:type>PROCESS</xmpG:type>
                           <xmpG:red>157</xmpG:red>
                           <xmpG:green>157</xmpG:green>
                           <xmpG:blue>156</xmpG:blue>
                        </rdf:li>
                        <rdf:li rdf:parseType="Resource">
                           <xmpG:swatchName>C=0 M=0 Y=0 K=40</xmpG:swatchName>
                           <xmpG:mode>RGB</xmpG:mode>
                           <xmpG:type>PROCESS</xmpG:type>
                           <xmpG:red>178</xmpG:red>
                           <xmpG:green>178</xmpG:green>
                           <xmpG:blue>178</xmpG:blue>
                        </rdf:li>
                        <rdf:li rdf:parseType="Resource">
                           <xmpG:swatchName>C=0 M=0 Y=0 K=30</xmpG:swatchName>
                           <xmpG:mode>RGB</xmpG:mode>
                           <xmpG:type>PROCESS</xmpG:type>
                           <xmpG:red>198</xmpG:red>
                           <xmpG:green>198</xmpG:green>
                           <xmpG:blue>198</xmpG:blue>
                        </rdf:li>
                        <rdf:li rdf:parseType="Resource">
                           <xmpG:swatchName>C=0 M=0 Y=0 K=20</xmpG:swatchName>
                           <xmpG:mode>RGB</xmpG:mode>
                           <xmpG:type>PROCESS</xmpG:type>
                           <xmpG:red>218</xmpG:red>
                           <xmpG:green>218</xmpG:green>
                           <xmpG:blue>218</xmpG:blue>
                        </rdf:li>
                        <rdf:li rdf:parseType="Resource">
                           <xmpG:swatchName>C=0 M=0 Y=0 K=10</xmpG:swatchName>
                           <xmpG:mode>RGB</xmpG:mode>
                           <xmpG:type>PROCESS</xmpG:type>
                           <xmpG:red>237</xmpG:red>
                           <xmpG:green>237</xmpG:green>
                           <xmpG:blue>237</xmpG:blue>
                        </rdf:li>
                        <rdf:li rdf:parseType="Resource">
                           <xmpG:swatchName>C=0 M=0 Y=0 K=5</xmpG:swatchName>
                           <xmpG:mode>RGB</xmpG:mode>
                           <xmpG:type>PROCESS</xmpG:type>
                           <xmpG:red>246</xmpG:red>
                           <xmpG:green>246</xmpG:green>
                           <xmpG:blue>246</xmpG:blue>
                        </rdf:li>
                     </rdf:Seq>
                  </xmpG:Colorants>
               </rdf:li>
               <rdf:li rdf:parseType="Resource">
                  <xmpG:groupName>Skarpa färger</xmpG:groupName>
                  <xmpG:groupType>1</xmpG:groupType>
                  <xmpG:Colorants>
                     <rdf:Seq>
                        <rdf:li rdf:parseType="Resource">
                           <xmpG:swatchName>C=0 M=100 Y=100 K=0</xmpG:swatchName>
                           <xmpG:mode>RGB</xmpG:mode>
                           <xmpG:type>PROCESS</xmpG:type>
                           <xmpG:red>227</xmpG:red>
                           <xmpG:green>6</xmpG:green>
                           <xmpG:blue>19</xmpG:blue>
                        </rdf:li>
                        <rdf:li rdf:parseType="Resource">
                           <xmpG:swatchName>C=0 M=75 Y=100 K=0</xmpG:swatchName>
                           <xmpG:mode>RGB</xmpG:mode>
                           <xmpG:type>PROCESS</xmpG:type>
                           <xmpG:red>234</xmpG:red>
                           <xmpG:green>91</xmpG:green>
                           <xmpG:blue>12</xmpG:blue>
                        </rdf:li>
                        <rdf:li rdf:parseType="Resource">
                           <xmpG:swatchName>C=0 M=10 Y=95 K=0</xmpG:swatchName>
                           <xmpG:mode>RGB</xmpG:mode>
                           <xmpG:type>PROCESS</xmpG:type>
                           <xmpG:red>255</xmpG:red>
                           <xmpG:green>222</xmpG:green>
                           <xmpG:blue>0</xmpG:blue>
                        </rdf:li>
                        <rdf:li rdf:parseType="Resource">
                           <xmpG:swatchName>C=85 M=10 Y=100 K=0</xmpG:swatchName>
                           <xmpG:mode>RGB</xmpG:mode>
                           <xmpG:type>PROCESS</xmpG:type>
                           <xmpG:red>0</xmpG:red>
                           <xmpG:green>152</xmpG:green>
                           <xmpG:blue>58</xmpG:blue>
                        </rdf:li>
                        <rdf:li rdf:parseType="Resource">
                           <xmpG:swatchName>C=100 M=90 Y=0 K=0</xmpG:swatchName>
                           <xmpG:mode>RGB</xmpG:mode>
                           <xmpG:type>PROCESS</xmpG:type>
                           <xmpG:red>39</xmpG:red>
                           <xmpG:green>52</xmpG:green>
                           <xmpG:blue>139</xmpG:blue>
                        </rdf:li>
                        <rdf:li rdf:parseType="Resource">
                           <xmpG:swatchName>C=60 M=90 Y=0 K=0</xmpG:swatchName>
                           <xmpG:mode>RGB</xmpG:mode>
                           <xmpG:type>PROCESS</xmpG:type>
                           <xmpG:red>130</xmpG:red>
                           <xmpG:green>54</xmpG:green>
                           <xmpG:blue>140</xmpG:blue>
                        </rdf:li>
                     </rdf:Seq>
                  </xmpG:Colorants>
               </rdf:li>
            </rdf:Seq>
         </xmpTPg:SwatchGroups>
         <pdf:Producer>Adobe PDF library 10.01</pdf:Producer>
      </rdf:Description>
   </rdf:RDF>
</x:xmpmeta>
                                                                                                    
                                                                                                    
                                                                                                    
                                                                                                    
                                                                                                    
                                                                                                    
                                                                                                    
                                                                                                    
                                                                                                    
                                                                                                    
                                                                                                    
                                                                                                    
                                                                                                    
                                                                                                    
                                                                                                    
                                                                                                    
                                                                                                    
                                                                                                    
                                                                                                    
                                                                                                    
                           
<?xpacket end="w"?>
	</metadata>
<g>
	<path d="M85.4,239.7c-0.2,0-0.4,0-0.5-0.1c-0.2-0.2-0.6-0.3-0.7-0.1c-0.1,0.3,0,0.7,0,1c0.1,0.4,0.4,0.2,0.6,0.2
		c1.1,0.2,2.1,0.3,3.2,0.6c-1.3,0.2-2.5-0.5-3.8-0.4c0.6,1.1,0.4,2-0.3,3.1c1.5-0.1,2.8,0.3,4.2,0.2c0.5,0,1,0,1.5,0.2
		c0.1,0,0.3,0,0.3,0.2c0,0.2-0.3,0.2-0.4,0.1c-1.4-0.5-2.8-0.2-4.2-0.4c-1.2-0.1-2,0.3-2.7,1.3c2.2,0.2,4.3-0.2,6.4,0.3
		c-1.3,0.2-2.5-0.3-3.8-0.1c-1.2,0.1-2.6-0.5-3.6,0.7c0.3,0.1,0.6,0.2,1.1,0.4c-1.1,0.2-2.1-0.2-3.1,0.6c1.5,0.1,2.9-0.1,4.2,0.4
		c-1.3,0.1-2.5,0-3.7-0.1c-1.5-0.2-2.9,0.5-4.3,0.7c-2.3,0.3-4.5,0-6.3-1.5c-1.2-0.9-1.4-2.4-1.9-3.7c-1.1-3.1-2.1-6.3-3.9-9.2
		c-0.9-1.5-1.2-3.1-1.1-4.8c0.1-1.9-0.2-3.8-0.5-5.7c-0.2-1.6-0.4-3.3-0.6-4.9c-0.2-1.7-0.6-3.3-0.8-4.9c-0.2-1.7-0.5-3.3-0.5-5
		c0-1.2,0.2-2.6-0.4-3.8c-0.2-0.4-0.2-0.9-0.1-1.3c0.2-2.2-0.5-4.3-0.6-6.4c-0.1-1.6,0-3.3,0.3-4.9c0.1-0.6,0.3-1.2,0.3-1.8
		c0.1-2.6,0.3-5.1-0.3-7.7c-0.2-1.1-0.2-2.2-0.2-3.3c0-0.4-0.1-0.6-0.5-0.6c-0.2,0-0.4-0.1-0.6-0.2c-1.6-0.7-1.6-0.7-1.9,1.1
		c-0.2,1.7-0.7,3.4-1.1,5.1c-0.5,2.1-0.5,4.3-0.3,6.5c0.2,2.4,0.7,4.8,0.1,7.3c0,0.2-0.1,0.5,0,0.6c1.1,1.8,0.6,3.6-0.1,5.4
		c-0.5,1.4-0.7,2.8-0.7,4.2c0,1.8-0.5,3.7-0.7,5.5c-0.1,1.3,0,2.7-0.2,4c-0.2,1.8-0.3,3.7-0.5,5.5c-0.2,2,0,3.9-0.1,5.9
		c0,1.2,0.1,2.4-0.2,3.6c-0.2,0.8,0.4,1.7,0.2,2.6c-0.1,0.4-0.6,0.4-0.5,0.9c1.5,0.2,3,0.3,4.5,0.5c0,0.1,0,0.2,0,0.2
		c-0.7-0.2-1.4-0.1-2.1-0.2c-0.8-0.1-1.5-0.2-2.3-0.3c-0.6-0.1-0.8,0.5-1.1,0.7c-0.3,0.2-0.6,0.4-0.9,0.7c2.8,0.1,5.7,0.2,8.3,1.2
		c-1.1-0.2-2.2-0.4-3.4-0.6c-1.9-0.4-3.8-0.3-5.8-0.3c-0.5,0-0.7,0.5-1.1,0.7c-0.8,0.5-1.6,0.8-2.2,1.8c3.3,0,6.6,0.1,9.7,0.7
		c-0.6,0.1-1.1,0.1-1.7-0.1c-1.3-0.4-2.7-0.1-4-0.3c-1.1-0.1-2.1,0-3.2-0.1c-1.1-0.1-1.9,0.3-2.5,1.3c3.2,0,6.3,0.4,9.5,0.6
		c0,0.1,0,0.2,0,0.3c-0.7,0-1.5,0-2.2-0.1c-1-0.3-2-0.1-2.9-0.3c-1.1-0.1-2.1-0.3-3.2-0.3c-0.8,0-1.5,0.1-2.1,0.8
		c2.2,0.1,4.3,0.1,6.5,0.3c-0.2,0.6-0.5,0.1-0.7,0.1c-1.9,0-3.9-0.3-5.8-0.2c-0.5,0-0.5,0.4-0.7,0.6c-0.6,0.5-1,1.2-1.9,1.6
		c1.3,0.2,2.4-0.3,3.5,0c-0.3,0.3-0.7,0.2-1.1,0.2c-1.5,0-2.9,0.1-4.1,1.2c-0.8,0.7-1.8,1.1-2.8,1.1c-3.1,0-6-0.5-8-3.4
		c-1-1.4-1.3-2.9-1.4-4.4c0-0.5-0.2-0.9-0.2-1.4c-0.2-2,0.9-3.4,2.1-4.8c0.7-0.8,1.3-1.6,1.9-2.4c1.3-1.6,2.7-3,4.2-4.3
		c2.3-2.1,2.7-4.6,2.3-7.4c-0.2-1.5,0.1-3-0.2-4.5c-0.2-1.1-0.4-2.1-0.6-3.2c-0.4-2-0.5-4.1-0.5-6.1c0-0.8-0.1-1.6-0.2-2.4
		c-0.1-1.5,0.2-3,0.1-4.4c-0.1-1.7,0.2-3.3,0.1-5c-0.1-0.6,0.2-1.2,0.3-1.8c0.4-2,0.8-4.1,0.6-6.2c-0.1-0.8-0.2-1.6-0.1-2.5
		c0-1.7-0.5-3.4-0.6-5.1c0-0.2,0-0.3,0-0.5c0-0.4-0.2-0.9-0.3-1.3c-0.3-0.9-0.8-0.1-1.2-0.1c-2.4,0-4.7,0-6.9-1.1
		c-1.5-0.8-2.9-2-4.3-2.9c-2.7-1.7-5.6-2.9-8.6-3.9c-2.3-0.8-4.6-1.1-6.9-1.8c-0.7-0.2-1-0.8-1.7-0.8c-0.1,0-0.1-0.3,0-0.4
		c0.2-0.4,0.4-0.7,0.8-1c2.2-1.3,4.1-3,6-4.6c1.4-1.2,2.8-2.5,4.2-3.7c1.5-1.3,2.7-2.9,4.1-4.4c1.9-2,3-4.5,4.3-6.9
		c1.4-2.7,2.8-5.3,4.5-7.9c1.1-1.7,2.7-3.1,3.9-4.8c0.6-0.8,1.3-1.6,1.9-2.5c0.4-0.6,0.2-1.4,0.1-2c-0.3-1.7-0.2-3.4-0.5-5.1
		c-0.5-2.9-1-5.9-1.7-8.8c-0.5-2.1-0.9-4.1-1.4-6.2c-0.3-1.2-0.8-2.5-1.1-3.7c-0.8-3.3-2.1-6.5-3.1-9.8c-0.2-0.7-0.5-1.3-0.6-2
		c0-0.5-0.5-0.8-0.9-0.9c-1.8-0.4-2.9-1.8-4.3-2.8c-0.6-0.4-1.1-0.9-1.6-1.4c0.6-0.4,0.9-0.3,1.1-0.1c0.8,0.8,1.9,1.2,2.6,2
		c0.7,0.7,1.5,1.1,2.5,1.4c-0.1-0.7-0.4-1.2-1.1-1.6c-1.6-1-3-2.1-3.7-3.8c-0.6-1.5-1.3-2.9-1.3-4.6c0-0.7,0.3-1.3,0.8-1.7
		c0.5-0.4,0.5-0.8,0.3-1.4c-0.4-1.2-0.6-2.5-1.2-3.5c-0.6-1.1-0.3-2.2-0.5-3.3c0-0.2,0.1-0.4-0.2-0.5c-0.4-0.2-0.5-0.7-0.4-1.1
		c0.3-1.5,0-2.9-0.3-4.3c-0.3-1.6-0.7-3.2-0.9-4.7c-0.3-2-0.5-4.1-0.8-6.1c-0.2-1.7-0.5-3.4-0.4-5.1c0.1-1.8-0.1-3.6,0.2-5.3
		c0.1-0.9,0-1.8,0-2.7c0.1-1.3,0.2-2.5,0.2-3.8c0-0.6-0.1-1.2-0.2-1.8c-0.1-0.7-0.9-0.7-1.4-1c-1.6-1.1-2.8-2.6-4.2-3.8
		c-0.4-0.3-0.6-0.4-1.1-0.2c-0.5,0.2-0.4,0.7-0.3,1c0.3,1.2-0.1,2.1-0.7,3c-0.4,0.6-1.3,0.8-1.8,0.2c-1.5-1.5-2.8-3.2-3.5-5.2
		c-0.3-0.8,0.6-1.2,0.9-1.8C5.5,28,5.8,27.8,6,27.6c0.4-0.4,0.4-0.8,0-1.3c-1.1-1.2-2.2-2.4-3.3-3.6c-0.5-0.5-0.5-1,0-1.6
		c0.9-1.1,1.9-2.2,2.8-3.3c0.3-0.3,0.5-0.3,0.9-0.1C7,17.9,7.6,18.1,8.3,18c-0.6-1.2-0.6-2.5-0.9-3.7C7.2,13.5,7.1,12.8,7,12
		c-0.1-0.7,0.2-1.2,1-1.5c0.9-0.3,1.7-0.9,2.6-1.1c0.5-0.1,1-0.2,1.3,0.1c0.5,0.5,0.8,0.2,1.1-0.2c0.3-0.3,0.6-0.6,0.8-1
		c0.5-1.1,1.6-1.3,2.5-1c1.2,0.3,2.4,0.8,3.5,1.4c0.8,0.4,1.1,1.3,1.4,2.1c0.7,1.8,1.9,3.2,2.7,4.8c0.6,1,1.3,2,1.8,3
		c0.2,0.4,0.5,0.5,0.8,0.4c0.9-0.2,1.7-0.5,2.5-0.7c0.4-0.1,0.4-0.5,0.5-0.8c0.3-1,0.6-2.1,1.4-2.9c0.8-0.9,1.8-1.7,3.1-1.6
		c0.6,0,0.8,0.3,0.9,0.9c0.1,1-0.1,2.1-0.3,3c-0.2,1.2-0.2,2.4-0.5,3.5c-0.1,0.3-0.1,0.5-0.3,0.6c-1.2,1.1-2.4,2-3.9,2.6
		c-0.3,0.1-0.6,0.3-0.6,0.7c0,1.5-0.6,3-0.7,4.5c-0.1,1.1-0.6,2.1-0.7,3.2c-0.1,0.9,0,1.8,0.3,2.6c0.7,2.3,1.1,4.8,1.6,7.1
		c0.5,2.2,1.1,4.5,1.5,6.7c0.1,0.6,0.4,1.2,0.4,1.8c0.1,1,0.4,1,1.2,0.7c1.9-0.8,3.8-1.3,5.8-1c0.6,0.1,1.2,0.3,1.7,0.5
		c0.2,0.1,0.6,0.2,0.3-0.4c-0.3-0.9-0.6-1.8-0.8-2.7c-0.6-2.1-1.2-4.2-1.8-6.3c-0.5-1.5-0.9-2.9-1.2-4.4c-0.6-2.7-1.3-5.4-1.7-8.1
		c-0.1-0.5-0.2-0.9-0.3-1.4c-0.1-0.3,0.1-0.5,0.3-0.7c0.3-0.3,0.4,0,0.6,0.1c0.9,0.5,1.4,1.4,2,2.2c3.1,3.5,5.7,7.3,8.6,10.9
		c0.3,0.4,0.6,0.7,1,1.2c0.3-0.9,0.6-1.8,0.8-2.7c0.5-1.8,0.9-3.7,1.5-5.5c0.7-2.1,1.7-4.1,2.5-6.1c0.6-1.3,1.2-2.6,1.6-4
		c0.1-0.4,0.4-0.6,0.7-0.7c0.4-0.1,0.5,0.3,0.6,0.6c0.6,1.5,1.1,3.1,1.6,4.6c0.5,1.4,1.1,2.7,1.6,4c1.1,2.4,2,4.9,3.2,7.3
		c0.6-1,1.1-2.1,1.7-3.1c1.5-2.3,3-4.5,4.5-6.7c1-1.3,2-2.6,2.8-4.1c0.1-0.2,0.5-0.6,0.6-0.5c0.3,0.1,0.5,0.5,0.6,0.8
		c0.4,1.1,0.1,2.1,0,3.2c-0.2,1.4-0.4,2.9-0.5,4.3c-0.1,1.5-0.1,3-0.4,4.5c-0.2,0.9-0.2,1.8-0.2,2.7c0,2.4-0.7,4.8-0.6,7.2
		c0.1,1.3-0.3,2.6-0.1,3.9c1.1-1.4,2.4-2.4,4.1-3c0.4-0.1,1.2-0.1,1.3-0.3c0.3-0.7,0.5-1.5,0.6-2.3c0.2-1.4,0.6-2.8,1-4.2
		c0.3-1.3,0.6-2.7,0.8-4c0.4-2.3,0.9-4.6,1.6-6.9c0.3-1.1,0.2-2.2-0.1-3.2c-0.5-1.6-1.1-3.2-1.4-4.9c-0.1-0.4-0.3-0.7-0.7-0.9
		c-1.1-0.5-2.1-1.3-3.2-1.7C73.3,19,73,18,72.7,17c-0.6-1.9-1.1-3.8-2.2-5.5c-0.3-0.5-0.3-0.8,0.4-1c0.9-0.2,1.8-0.2,2.7-0.3
		c1.5-0.1,2.6,0.8,3.1,2.2c0.7,1.5,2,1.6,3.4,1.8c0.3,0,0.4-0.1,0.5-0.4c0.5-2.4,1.4-4.8,2-7.2c0.2-0.9,0.6-1.7,1.7-2.2
		c2.2-1,4.5-1.8,6.9-2.5c0.5-0.1,0.9-0.3,1.3-0.6c0.8-0.6,1.7-0.1,1.8,0.9c0.1,1-0.2,1.9-0.5,2.8c0.9,0.1,1.6-0.4,2.4-0.6
		c2.5-0.7,2.1,0.1,2.7,1.7c0.1,0.2,0.1,0.4,0.1,0.5c0.1,0.6,0,1.1,1.1,0.8c0.9-0.2,1.8,0.7,2.6,1.2c0.6,0.4,1.1,0.8,1.4,1.5
		c0.2,0.6-0.2,1.1-0.2,1.6c0,0.4-0.2,0.7-0.3,1.1c-0.1,0.6-0.3,1.3,0.8,1.2c0.4-0.1,0.7,0.3,0.9,0.8c0.4,1.4,0.2,2.9,0.3,4.3
		c0,0.4,0.2,0.7,0.2,1.1c-0.1,1.6-1.1,2.3-2.4,2.9c-0.2,0.1-0.5,0.2-0.7,0.3c-0.5,0.2-1,0.9-1.7,0.2c-0.4-0.4-1-0.7-1.1-1.4
		c-0.1-0.7-1.2-1-2.1-0.6c-0.5,0.2-1,0.5-1.2,1.2c-0.4,1.1-1.1,2.1-1.9,3c-0.9,1-1.8,2-3,2.8c-1.4,1-1.8,2.5-1.9,4.2
		c-0.2,2.3-0.5,4.6-0.8,6.9c-0.3,1.7,0.1,3.5-0.4,5.3c-0.3,1.1,0,2.2-0.2,3.2c-0.3,1.2-0.3,2.4-0.4,3.6c-0.1,1.4,0,2.8-0.2,4.1
		c-0.1,0.9,0.6,1.5,0.9,2.2c0.6,1.6,0.9,3.2,1.2,4.9c0.3,1.7,0.4,3.5,0.4,5.2c-0.1,2.1-0.6,4.2-1.7,6.1c0.4-0.3,1.6-1.9,1.8-2.3
		c0.7-1.4,1.5-2.7,1.8-4.3c0-0.2,0.2-0.4,0.4-0.3c0.2,0.1,0.2,0.3,0.2,0.6c0,1.6-0.7,2.9-1.4,4.2c-1,2-2.3,3.8-3.9,5.2
		c-1.1,1-1.4,1.9-1.3,3.3c0.1,2.5-0.1,5-0.4,7.5c-0.2,1.6-0.3,3.3-0.4,4.9c-0.1,1.8-0.4,3.6-0.6,5.4c-0.1,1.4-0.3,2.9-0.3,4.3
		c0,3-0.4,6.1-0.7,9.1c-0.2,1.8-0.3,3.6-0.6,5.4c-0.2,1.3-0.1,2.6-0.4,3.8c-0.5,2-0.5,4-1,5.9c-0.3,1.5-0.4,3.1-0.6,4.7
		c-0.2,1.1,0.6,1.8,1.1,2.5c1.2,1.6,2.5,3.1,3.7,4.7c1.9,2.6,4,4.9,6.1,7.2c3.6,3.9,7.4,7.5,11.1,11.2c0.7,0.7,1.5,1.3,2.2,2.1
		c0.4,0.5,0.3,0.7-0.1,0.9c-0.7,0.4-1.3,0.9-2,1.3c-0.5,0.3-0.9,0.8-1.4,1.2c-1.4,1.4-2.8,2.7-4.3,3.9c-1.6,1.3-3.4,2.5-5.3,3.4
		c-1.4,0.7-2.7,1.7-4.3,1.9c-1.2,0.2-2.5,0.3-3.7,0.7c-1.6,0.4-3.3,0.7-4.9,1.5c-1,0.5-1.4,1.4-1.7,2.3c-0.7,2.2-1.5,4.5-1.8,6.8
		c-0.1,0.5,0.1,1,0.1,1.5c0,2.2,0,4.4,0.2,6.6c0.3,2.9,0.4,5.8,0.4,8.8c0,0.2-0.2,0.5,0.3,0.6c1.8,0.4,1.8,0.4,1.9,2.1
		c0.1,1.1,0,2.1-0.4,3.1c-0.3,0.8-0.3,1.6-0.3,2.4c0.1,2-0.8,3.8-0.8,5.7c0,1.3-0.2,2.5-0.4,3.7c-0.2,1.8-0.3,3.7-0.5,5.5
		c-0.3,2.5,0.4,4.7,1.9,6.7c1.1,1.6,2.3,3.2,3.3,5c0.4,0.7,1,1.3,1.4,2.1c0.2,0.4,0.8,0.1,1.2,0.2c0.2,0,0.5-0.1,0.5,0.2
		c-0.1,0.4-0.3,0-0.5,0c-0.4,0-0.7,0-1.1,0c0.3,0.9,0.9,1.4,1.9,1.4C85.4,239.4,85.5,239.5,85.4,239.7L85.4,239.7z"/>
	<path d="M58.1,240.6c-3.2-0.2-6.3-0.5-9.4-0.7C48.9,239.6,57,240,58.1,240.6z"/>
	<path d="M87.6,247c-1.6-0.1-3.2,0.3-4.8-0.3C84.4,246.8,86,246.5,87.6,247z"/>
	<path d="M85,242.6c1.6-0.1,3.2-0.2,4.6,0.5C88.1,242.8,86.6,242.7,85,242.6z"/>
	<path d="M47,245.2c-1.4,0-2.7,0-4.1-0.1C44.2,244.5,45.6,245.3,47,245.2z"/>
	<path fill="#F2F2F2" d="M82.4,175.4c-0.2,0.3-0.3,0.7-0.5,1c-0.1,0-0.1-0.1-0.2-0.1c0.2-0.3,0.3-0.7,0.5-1
		C82.2,175.3,82.3,175.3,82.4,175.4z"/>
	<path d="M85.4,239.7c0.4-0.4,0.8,0,1.2,0.1C86.2,239.6,85.8,239.9,85.4,239.7C85.4,239.7,85.4,239.7,85.4,239.7z"/>
	<path fill="#E6E6E6" d="M38.5,49.2c0,0.1-0.2,0.1-0.3,0.1c-0.1,0-0.3,0-0.2-0.2c0-0.1,0.2-0.1,0.3-0.1C38.5,49,38.6,49,38.5,49.2z"
		/>
	<path fill="#F0F0F0" d="M39.5,47.4c-0.2-0.3-0.4-0.4-0.2-0.7C39.5,46.9,39.6,47.1,39.5,47.4z"/>
	<path d="M54,236.1c-0.3,0-0.6,0-1.1,0C53.5,235.9,53.8,235.9,54,236.1z"/>
	<path d="M55.7,236.1c-0.3,0.2-0.6,0.1-1.1,0.1C55.1,236,55.3,236.1,55.7,236.1z"/>
	<path fill="#FEFEFE" d="M30.5,174.7c1.3-1.4,2-3,2.9-4.5c1.5-2.5,3-4.9,4.2-7.5c0.9-2.1,2-4.1,2.8-6.3c0.1-0.3,0.3-0.7-0.1-0.9
		c-0.4-0.2-0.5,0.2-0.6,0.6c-0.1,0.5-0.5,1-0.7,1.5c-0.8,2.1-1.7,4.1-2.8,6.1c-1.4,2.4-2.7,4.9-4.3,7.2c-0.7,1-1.2,2.1-2,3.1
		c-0.4,0.6-0.8,0.5-1.2,0.3c-1.8-0.7-3.2-2-4.9-2.9c-0.3-0.2-0.2-0.3,0-0.5c1.7-1.8,3.3-3.8,4.9-5.7c1.2-1.3,2.2-2.8,3.2-4.2
		c1.2-1.8,2.5-3.6,3.7-5.4c1-1.5,2.2-2.9,2.9-4.6c0.3-0.7,0.7-1.4,0.8-2.2c0-0.2,0.3-0.3,0-0.4c-0.2-0.1-0.3,0-0.5,0.3
		c-0.5,1-1.1,1.9-1.6,2.8c-0.4,1-1,1.8-1.7,2.6c-1.2,1.5-2.1,3.2-3.2,4.8c-1.1,1.5-2.2,2.9-3.3,4.4c-0.9,1.2-1.9,2.4-2.9,3.5
		c-1.1,1.1-1.9,2.5-3.1,3.6c-0.3,0.3-0.6,0.4-1,0.2c-1.2-0.7-2.4-1.3-3.5-2.1c-0.9-0.6-2-0.8-3-1.1c6-5.1,11.8-10.5,14.3-18.3
		c-0.8,0.5-1.1,1.5-1.6,2.3c-1.4,2.2-2.3,4.8-4.3,6.6c-1,0.9-1.7,2.1-2.6,3c-1.7,1.8-3.6,3.4-5.4,5c-1,0.8-2.1,1-3.3,0.7
		c-0.8-0.2-1.6-0.4-2.5-0.4c-0.1,0-0.4,0-0.3-0.2c0-0.1,0.1-0.3,0.3-0.3c1.2-0.8,2.5-1.6,3.7-2.5c1.7-1.2,3.2-2.5,4.7-3.8
		c1.7-1.6,3.4-3.2,4.8-5c1.1-1.5,2.1-3,3-4.6c1-1.9,2-3.8,2.9-5.8c1.3-2.9,3.1-5.3,5.4-7.4c0.9-0.8,1.7-1.7,2.5-2.6
		c0.4-0.5,0.8-0.5,1.4-0.3c1.8,0.7,3.7,1.1,5.5,1.6c2.1,0.6,4.3,0.8,6.4,1c1.8,0.1,3.6,0.1,5.3,0.2c1.3,0.1,2.6-0.2,3.9-0.1
		c1,0,2-0.3,3-0.3c1.1,0,2.1-0.1,3.2-0.2c1.5-0.1,3-0.4,4.5-0.8c2.4-0.6,4.8-1.2,7.1-2c0.5-0.2,0.7,0.2,0.9,0.5
		c1.8,2.9,4.1,5.5,6.3,8.2c1.3,1.6,2.7,3.1,4,4.6c1.3,1.6,2.5,3.2,3.9,4.7c2.8,3,5.5,5.9,8.9,8.2c0.3,0.2,0.6,0.2,0.8,0.5
		c-0.5,0.8-1.4,1-2.2,1.5c-1.6,1.1-3,2.5-4.5,3.8c-0.7,0.6-1.5,0.8-2.1,1.5c-0.2,0.2-0.2-0.1-0.4-0.1c-1.5-0.9-2.5-2.2-3.6-3.5
		c-1.1-1.2-2.1-2.3-3.2-3.5c-1.5-1.7-2.8-3.5-4.1-5.3c-1.2-1.7-2.2-3.5-3-5.4c-0.1-0.3-0.2-0.4-0.4-0.3c-0.3,0.1-0.4,0.3-0.3,0.6
		c0.1,0.4,0.3,0.7,0.4,1.1c1.3,2.3,2.7,4.6,4.3,6.8c1.7,2.4,3.7,4.5,5.6,6.7c1,1.1,2.1,2.1,3.1,3.2c0.1,0.2,0.5,0.2,0.8,0.4
		c-1.5,1-3,1.7-4.6,2.4c-1.1,0.5-1.1,0.4-1.8-0.8c-0.4-0.7-0.9-1.2-1.3-1.9c-1.9-2.9-4.1-5.7-5.3-9.1c-0.8-2.1-1.9-4.2-3.3-6
		c-0.9-1.2-1.8-2.4-2.5-3.7c-0.7-1.3-1.4-2.6-2-3.9c-0.1-0.2,0-0.5-0.4-0.4c-0.3,0.1-0.4,0.2-0.3,0.6c0.6,1.5,1.4,2.8,2.1,4.2
		c1.2,2.3,3,4.3,4.3,6.6c0.5,0.9,1,1.8,1.2,2.9c0.3,1.3,1,2.4,1.6,3.5c1.4,2.7,3.3,5.1,5,7.6c0.6,0.9,0.5,1-0.5,1.3
		c-2.9,0.7-5.7,1.9-8.5,3.1c-2,0.8-3.8,1.9-5.8,2.8c-1.9,0.9-4.1,1.5-6.3,0.9c-0.4-0.1-0.9,0-1.4,0c-0.6,0-1.2-0.1-1.8-0.4
		c-0.7-0.4-1.5-0.1-2.3-0.3c-0.6-0.1-0.8-0.4-0.8-1c-0.2-2-0.6-4-0.8-6.1c-0.2-1.9-0.5-3.8-0.3-5.8c0.3-2.4,0.9-4.7,0.6-7.2
		c-0.4-2.7-0.3-5.4-0.4-8.1c0-0.5-0.3-1,0-1.6c0.2-0.4-0.3-0.5-0.5-0.5c-0.3,0-0.4,0.4-0.4,0.6c0,1.1,0,2.1,0,3.2
		c0,1.2,0.2,2.3,0.1,3.5c-0.1,1.6,0.4,3.1,0.4,4.7c0,1.7-0.5,3.3-0.7,5c-0.1,1.8-0.3,3.5,0,5.3c0.3,1.4,0.4,2.9,0.6,4.3
		c0.1,0.8,0.2,1.6,0.3,2.4c0,0.4-0.1,0.8-0.6,0.5c-1.7-0.7-3.5-1-5.2-1.7c-2.5-1-5-1.3-7.6-0.8c-2,0.4-3.9,1.1-5.9,1.6
		C36,175.5,32.4,175.4,30.5,174.7z"/>
	<path fill="#FEFEFE" d="M69,62.3c-2.4,0.7-4.6,1.8-6.6,3.2c-1.3,1-2.5,1.9-3.8,2.9c-0.5,0.4-1,0.7-1.7,0.6c-0.2,0-0.4-0.1-0.4,0.2
		c-0.1,0.3,0.1,0.3,0.3,0.4c1.4,0.7,2.7,0.3,4-0.3c1.7-0.8,2.9-2.3,4.4-3.5c1.1-0.8,2.1-1.6,3.3-2.1c0.2-0.1,0.4-0.2,0.4-0.3
		c0.1-0.9,1.1-0.8,1.5-0.7c1.4,0.5,2.8,0.9,4.3,1.2c0.6,0.1,1.1,0.4,1.7,0.5c0.4,0,0.7,0.2,0.6,0.7c-0.1,0.4,0.2,0.6,0.3,1
		c1.3,2.6,2.5,5.1,3.7,7.7c1.2,2.7,1.5,5.4,0.5,8.2c-0.4,1.1-1.3,1.9-2.1,2.6c-2.2,2.1-4.7,3.9-7.2,5.5c-1.4,0.9-2.9,1.7-4.4,2.4
		c-0.5,0.2-0.4,0.9-0.8,1.3c-1.2,1.5-1.9,3.4-3.8,4.2c-1.1,0.5-2.1,0.2-3.1,0c-0.8-0.1-1.6-0.5-2.5-0.7c-0.2,0-0.4-0.1-0.5-0.2
		c-0.9-1.3-2-0.6-3.1-0.4c-2,0.3-4,0.6-6.1,0.4c-1.4-0.2-2.8-0.4-4.1-0.7c-1.7-0.4-3.3-1.2-4.9-2c-1-0.5-2-0.8-2.9-1.7
		c-1.2-1.2-1.8-2.7-2.3-4.2c-0.9-2.7-0.9-5.5-0.9-8.3c0-1.2,0.1-2.4,0-3.6c0-0.6,0.5-1.1,0.1-1.7c0,0,0.2-0.3,0.3-0.4
		c1.5-1.3,3.1-2.3,4.8-3.4c3.8-2.5,7.5-5.1,10.7-8.3c1.5-1.5,2.7-3.4,3.5-5.5c0.2-0.6,0.2-1.2,0.4-1.8c0.1-0.4,0.2-0.4,0.5-0.2
		c1.1,0.6,2.2,1.3,3.3,2c1,0.6,2.1,1.1,3.2,1.5c1.9,0.8,3.7,1.6,5.6,2.2C66.5,61.4,67.7,61.9,69,62.3z"/>
	<path fill="#FEFEFE" d="M83.2,82.8c0,1.3,0,2.7,0,4c-0.1,2.5-0.4,5-0.5,7.5c-0.1,2-0.4,4-0.6,6c-0.1,1.6-0.2,3.3-0.3,4.9
		c-0.2,2-0.4,3.9-0.7,5.9c-0.3,1.8-0.5,3.6-0.7,5.4c-0.2,1.8-0.5,3.6-0.8,5.5c-0.2,1.1-0.3,2.2-0.4,3.4c-0.2,1.6-0.7,3.3-0.8,4.9
		c0,0.1-0.1,0.2-0.1,0.3c0,0.9-0.2,1.4-1.2,1.6c-2.1,0.4-4.1,1.2-6.1,1.6c-2.2,0.5-4.5,1-6.8,1.1c-2.1,0.1-4.3,0.2-6.4,0.5
		c-0.6,0.1-1.1-0.1-1.7-0.1c-2.2,0-4.5-0.1-6.7-0.3c-1.8-0.1-3.5-0.5-5.2-0.9c-1.6-0.4-3.2-0.9-4.8-1.2c-1-0.2-1.3-0.6-1.3-1.6
		c0.1-2.1-0.1-4.2-0.2-6.4c-0.2-2.1-0.7-4.1-1.1-6.2c-0.4-2.2-0.8-4.3-1.5-6.4c-0.5-1.6-0.9-3.2-1.4-4.7c-0.6-1.9-0.9-3.9-1.7-5.7
		c-1-2.4-1.6-4.9-2.3-7.5c-0.2-0.7-0.1-0.6,0.5-0.5c1,0.2,2,0.4,3,0.3c1.3-0.1,2.2,0.7,3.2,1.3c1.8,1,3.5,2,5.5,2.5
		c1.5,0.3,3.1,0.6,4.6,0.8c2.1,0.3,4.1,0,6.1,0.2c0.8,0.1,1.7,0,2.5-0.1c0.8-0.1,1.7,0.3,2.5,0.6c1.3,0.6,2.7,1,4,1.1
		c0.9,0.1,1.8-0.4,2.6-0.9c1.3-0.8,2.3-1.7,2.9-3.2c0.3-1,1.2-1.9,2.3-2.5c3.3-1.8,6.6-3.7,9.7-5.9c1.4-1,2.6-2.4,3.2-4.1
		C82.7,83.6,83,83.2,83.2,82.8z"/>
	<path fill="#FEFEFE" d="M34.8,246.5c-1.1,0-2.3,0-3.2-0.8c-1.2-1-2.1-2.2-2.2-3.8c0-0.7-0.2-1.3-0.3-2c0-0.5,0.1-1.1,0.4-1.5
		c1.3-2,2.8-3.8,4.5-5.4c1.8-1.7,3.5-3.4,5-5.4c0.6-0.8,0.7-1.7,0.8-2.5c0.2-2.5,0.1-5-0.2-7.5c-0.4-2.9-1.2-5.7-1.2-8.7
		c0-1.4-0.1-2.8-0.1-4.3c0-1.3,0-2.6-0.1-3.9c0-0.4,0.1-0.3,0.3-0.3c0.7-0.1,1.3,0.1,2,0.2c1.3,0.3,2.6,0.1,3.9,0.2
		c1.2,0.1,2.3,0.2,3.5,0.2c1.4,0,2.9-0.1,4.3-0.2c0.6,0,0.7,0.1,0.7,0.6c-0.2,2.2-0.9,4.3-1.1,6.5c-0.2,2-0.6,4-0.8,6.1
		c-0.2,2.2-0.2,4.4-0.5,6.6c-0.1,1.2,0,2.4,0.1,3.5c0.1,1.6-0.1,3.2-0.1,4.7c-0.1,1.6,0.2,3.1,0.3,4.6c0.2,2,0,2.4-1.8,3.2
		c-1.4,0.7-2.8,1.6-3.9,2.6c-1.5,1.4-2.9,2.9-4.3,4.4C39,245.3,37.3,246.7,34.8,246.5z"/>
	<path fill="#FEFEFE" d="M64.6,228.1c0-2.6-0.5-4.9-0.7-7.2c-0.3-3.7-1.4-7.3-1.4-11c0-1.3-0.3-2.6-0.3-3.8c0-0.7,0.1-1.3-0.2-2
		c-0.1-0.4-0.1-0.8,0.5-0.7c1.6,0.1,3.2,0.3,4.8,0.3c1,0,2-0.1,2.9-0.1c1.6-0.1,3.1-0.2,4.7-0.4c0.4,0,0.9-0.2,1.3-0.2
		c0.5,0,0.7,0.2,0.6,0.6c-0.2,1.3-0.4,2.6-0.8,3.8c-0.3,1-0.4,2.1-0.5,3.2c-0.3,2.5-0.5,4.9-0.8,7.4c-0.2,2.7-0.4,5.4-0.3,8
		c0,1,0.7,1.9,1.2,2.7c0.8,1.5,1.8,2.8,2.6,4.3c1.1,1.9,2.2,3.8,3,5.8c0.6,1.5,0.9,3,0.5,4.6c-0.3,1.2-1.2,1.7-2.2,2.2
		c-1.6,0.8-3.3,0.9-5,1.1c-1.4,0.2-2.7-0.2-3.7-1.4c-0.7-0.9-1.1-2-1.4-3.1c-0.7-2.5-1.4-5-2.6-7.3c-0.6-1-1.2-1.9-1.7-3
		C64.6,230.6,64.5,229.2,64.6,228.1z"/>
	<path fill="#FEFEFE" d="M70.4,28.9c-0.2,2.4-0.6,4.7-0.7,6.9c-0.1,1.9-0.5,3.7-0.6,5.6c-0.1,1.2-0.1,2.3-0.2,3.5
		c-0.3,3-0.3,6-0.9,8.9c-0.1,0.5-0.4,0.4-0.7,0.3c-1.7-0.3-3.3-0.7-5-0.9c-1.7-0.2-3.4-0.5-5.2-0.5c-1.6,0-3.1-0.2-4.7-0.2
		c-2.6,0-5,0.6-7.4,1.4c-0.6,0.2-0.8,0.1-1-0.5c-0.8-2.7-1.5-5.4-2.4-8.1c-0.7-2.1-1.2-4.3-1.9-6.5c-0.7-2.1-1.1-4.4-1.7-6.6
		c0-0.1,0-0.2,0-0.4c1.3,1.8,2.6,3.5,3.8,5.2c1.5,2.1,2.9,4.2,4.6,6.2c0.9,1,2.1,0.6,2.6-0.7c1.1-2.8,1.6-5.7,2.5-8.6
		c0.9-2.7,2.2-5.2,3.1-8c0.4,1,0.7,1.7,0.9,2.5c0.6,1.9,1.5,3.6,2.1,5.4c0.9,2.5,1.8,4.9,2.9,7.3c0.3,0.7,0.8,0.5,1.3,0.3
		c0.9-0.4,1.4-1.2,1.9-1.9c1.4-2.2,2.8-4.4,4.2-6.5C68.7,31.6,69.3,30.2,70.4,28.9z"/>
	<path fill="#FEFEFE" d="M32.7,15.3c0.6,1.5,0.3,3,0.1,4.6c0,0.5-0.2,0.7-0.6,0.9c-1.2,0.6-2.2,1.5-3.5,2c-1.4,0.6-1.1,1.9-1.4,3
		c-0.5,2.2-0.4,4.5-1.2,6.6c-0.4,1-0.2,2.2,0.2,3.3c0.6,1.9,0.7,3.8,1.3,5.7c0.1,0.3,0,0.5-0.3,0.6c-1.7,0.7-3.4,1.1-5.1,1.6
		c-0.7,0.2-1.4,0.1-2.1,0.2c-0.4,0.1-0.7,0-0.6-0.6c0.4-2.1-0.1-4.3,0.4-6.5c0.2-0.8,0-1.5-1-1.9c-1.7-0.7-3.2-1.7-4.4-3.2
		c-0.6-0.7-1.3-1.4-2-2c-0.6-0.6-1.4,0-2.1,0c-0.4,0-0.8,0.4-0.9-0.3c0-0.2-0.5-0.2-0.5,0.1c0,0.7-0.7,1.4,0.2,2.2
		c-0.8-0.2-1.3-0.7-1.8-0.1c-0.2,0.2-0.2-0.2-0.3-0.3c-0.2-0.4-0.7-0.8-0.2-1.3c0.6-0.7,1.4-1.2,2.1-1.8c0.8-0.7,1.7-1,2.5-1.7
		c0.2-0.2,0.8-0.2,0.5-0.9c-0.1-0.2,0.2-0.7,0.4-1c0.6-0.9,0.5-1.5-0.6-1.5c-1.5-0.1-2.9-0.8-4.5-0.6c-0.6,0.1-0.7-0.6-1.3-0.8
		c0,0.6,0.4,0.9,0.8,1.3c0.4,0.4,0.4,0.6,0.1,0.8c-0.3,0.2-0.4,0.8-1,0.2c-1.4-1.4-1.3-1.3-0.1-3c0.8-1.1,1.4-1.2,2.7-0.9
		c1.9,0.4,3.9,0.8,5.8,1.2c0.5,0.1,1,0,1.2-0.3c0.3-0.4-0.2-0.7-0.4-1.1c-0.9-1.2-1.6-2.5-2.3-3.8c-0.4-0.7-0.8-1.3-0.9-2.2
		c-0.1,1-0.1,2-0.4,3c-0.2-0.5-0.2-1.1-0.5-1.5c-0.3-0.4-0.6-0.9-1.2-0.3c-0.3,0.4-0.4,0.1-0.5-0.2c-0.1-0.4-0.2-0.9-0.3-1.3
		c-0.3-0.9-0.1-1.5,0.8-1.8c0.7-0.2,1.4-0.9,2.1,0c0.1,0.2,0.3,0.3,0.3,0.5c0,0.5,0.2,0.8,0.6,1.1c1.2,0.7,1.9,2,2.7,3.1
		c0.8,1,1.8,1.9,2.7,2.9c0.7,0.8,0.6,1-0.3,1.4c-2.7,1.3-4.5,3.4-5.4,6.2c1.5-1.5,2.3-3.7,4.3-4.9c1.9-1.2,3.9-2.1,5.8-3
		c-0.9,0-1.8,0.4-2.7,0.7c-0.4-2-0.8-3.9-1.1-5.8c-0.1-0.9-0.8-1-1.2-1.3c-0.4-0.3-0.8-0.5-0.3-1.1c0.2-0.2,0.3-0.6,0-0.9
		c-0.4,0.5-0.7,0.9-1,1.3c-0.3,0.3-0.7,0.4-0.6-0.2c0-0.4-0.2-0.7-0.4-1c-0.4-0.6-0.1-1.1,0.3-1.5c0.4-0.4,0.9-0.1,1.2,0.1
		c0.4,0.3,0.9,0.5,1.2,0.6c1.4,0.4,1.7,1.7,2.2,2.7c0.6,1.2,1.3,2.3,2,3.5c0.9,1.6,1.9,3.2,2.8,4.8c0.5,0.9,0.6,0.9,1.5,0.3
		c0.7-0.5,1.6-0.7,2.5-0.9c1.4-0.4,2-1,2.2-2.4C31.2,17.1,32,15.8,32.7,15.3z"/>
	<path fill="#FEFEFE" d="M92.3,4c-0.1,0.8-0.6,1.1-1.1,1.2c-1.2,0.5-2.5,0.8-3.7,1.3C87,6.7,86.6,7,86.5,7.6c-0.3,1.6-0.3,3.3-1,4.8
		c-0.1,0.3,0,0.6-0.5,0.3c-0.2-0.1-0.6,0.2-0.9,0.1c-0.2,0-0.2,0.1-0.2,0.3c0,0.2,0.2,0.4,0.3,0.4c1.2-0.6,2,0.5,3.1,0.7
		c0.6,0.1,1.1,0.4,1.7,0.1c0.4-0.2,0.7,0.2,1.1,0.3c2,0.6,3.7,1.7,5,3.3c0.6,0.8,1.3,0.7,2.1,0.4c0.2-0.1,0.4-0.3,0.6-0.4
		c0.8-0.4,1.5-1.1,2.7-0.4c1.2,0.7,1.6,0.4,2-1c0.2-0.5,0.5-0.7,0.9-0.7c0.3,0,0.8,0.3,0.7,0.8c0,0.2,0.1,0.4,0.1,0.5
		c-0.2,1.2-0.1,2.3-0.1,3.5c0,0.5,0.1,1-0.7,0.5c-0.3-0.2-0.9-0.1-1.4,0.1c0.6-0.6,0.9-1.2,1-2c0-0.4-0.1-0.7-0.4-0.7
		c-0.4-0.1-0.4,0.3-0.4,0.5c0,0.4-0.3,0.2-0.4,0.3c-1.5,0.5-3,0.9-4.6,1.1c-0.9,0.1-1.8,0.4-2.2,1.7c-0.3,1.2-1.4,2.2-2.1,3.2
		c-0.6,0.8-1.5,1.4-2.3,2.1c-1,0.8-1.7,1.9-2.7,2.7c-0.2,0.2-0.1,0.5-0.1,0.8c0,2.2-0.2,4.5-0.3,6.7c0,0.5-0.3,0.5-0.6,0.6
		c-2,0.4-4,0-5.8-0.9c-0.4-0.2-0.5-0.5-0.4-0.9c0.4-2,0.6-4.1,1.2-6.1c0.5-1.5,0.2-2.7-0.3-4.2c-0.6-1.5-0.9-3.1-1.4-4.6
		c-0.1-0.5-0.4-0.9-0.4-1.4c-0.1-0.7-0.9-0.8-1.4-1.1c-0.7-0.5-1.6-0.7-2.4-1.1c-1.1-0.5-1.9-2.3-1.6-3.4c0.3-1.3,0.3-1.3,0-2.5
		c0.5,0.1,0.9,0.5,1,0.8c0.7,2.4,2.7,2.9,4.8,3.2c0.5,0.1,1,0.4,1.6,0.2c0.5-0.1,0.7-0.3,0.8-0.8c0.4-2.8,1.1-5.5,1.7-8.3
		c0.1-0.4,0.4-0.6,0.8-0.8c1.5-0.9,3.1-1.4,4.6-2.1c0.2-0.1,0.6-0.1,1,0.1C90.9,4.5,91.6,4.3,92.3,4z"/>
	<path fill="#FEFEFE" d="M27.6,55.4c1.1-0.5,1.6-1.4,2.5-1.9c0.7-0.3,0.9-0.4,1.1,0.4c0.5,2.1,1,4.2,1.9,6.1
		c0.3,0.6-0.1,1.1-0.2,1.6c-0.9,2.8-1.9,5.5-3.1,8.2c-0.1,0.3-0.1,0.7-0.2,1c-0.4,1.2-1.3,1.5-2.9,0.9c-1.1-0.4-2.1-0.7-3.3-0.3
		c-0.4,0.1-0.5-0.2-0.6-0.4c-0.2-1.1-0.9-2.2-0.6-3.5c0.1-0.4-0.3-0.5-0.4-0.9c-0.2-1.3-0.6-2.5-0.9-3.8c-0.4-1.4-0.5-2.9-0.8-4.3
		c-0.8-3.6-0.6-7.2-0.8-10.8c0-0.9,0.1-1.9-0.1-2.8c-0.1-0.4,0.3-0.4,0.6-0.4c2.7,0.2,5.1-0.8,7.6-1.6c0.3-0.1,0.4-0.1,0.6,0.3
		c0.7,2,1.2,4.1,1.8,6.1c0.3,0.8,0.3,1.6,0.7,2.4c0.2,0.4-0.1,0.6-0.5,0.7C28.9,53.1,28.2,54.1,27.6,55.4z"/>
	<path fill="#FEFEFE" d="M85.2,60.8c-0.6-0.1-1.2,0.2-1.7,0.4c-1.5,0.6-3,0.8-4.6,0.3c-0.5-0.2-0.8-0.5-1.1-0.8
		c-1.1-1.2-1.2-2.6-0.9-4.1c0.6-3.1,1.2-6.2,1.8-9.3c0.4-2.1,0.6-4.2,0.9-6.2c0.1-0.8,0.5-1.5,0.6-2.2c0.1-0.4,0.3-0.3,0.7-0.2
		c1.6,0.8,3.2,0.8,4.9,0.9c0.4,0,0.9-0.5,1.2-0.1c0.1,0.2-0.1,0.8-0.1,1.2c-0.2,2.4-0.5,4.9-0.7,7.3c0,0.4,0,0.9,0,1.3
		c0,2.1-0.2,4.2-0.2,6.4c0,1.5-0.1,3.1-0.1,4.6C85.9,60.9,85.4,60.6,85.2,60.8z"/>
	<path fill="#FEFEFE" d="M39.4,181.5c2,0.5,3.9,0.6,5.9,0.9c2.2,0.3,4.4,0.2,6.5,0.2c0.8,0,0.9,0.3,0.6,1c-0.1,0.3-0.1,0.6-0.2,0.9
		c-0.4,1.5-0.4,1.5-1.9,1.5c-1.7,0-3.5,0-5.2,0c-1.5-0.1-3-0.2-4.4-0.4c-0.6-0.1-1-0.4-1.1-1C39.5,183.4,39.4,182.4,39.4,181.5z"/>
	<path fill="#FEFEFE" d="M54.2,176.8c0,0.7-0.2,0.9-0.9,1c-1.3,0.2-2.6,0.1-3.9,0.2c-1.9,0.2-3.9,0-5.8-0.2
		c-1.3-0.1-2.6-0.2-3.9-0.4c-0.9-0.1-0.4-0.8-0.7-1.2c-0.2-0.2,0.4-0.2,0.5-0.3c1.5-0.5,3-0.8,4.5-1.3c1.7-0.5,3.5-0.4,5.2,0
		c1.5,0.3,2.8,1,4.3,1.2C53.9,176,54.4,176.3,54.2,176.8z"/>
	<path fill="#FEFEFE" d="M62.2,194.2c-0.1-0.6-0.1-1.4,0.3-1.9c0.4-0.5,1.2-0.1,1.9-0.1c1.2-0.1,2.3,0,3.5,0c1.6,0,3.2-0.3,4.8-0.8
		c0.7-0.2,0.8,0,0.8,0.6c0,0.6,0.1,1.3,0.3,1.9c0.3,0.9-0.2,1-0.8,1.1c-2.1,0.3-4.2,0.7-6.4,0.8c-1.1,0-2.2,0-3.3,0.1
		c-0.8,0.1-1.1-0.2-1-1C62.3,194.7,62.2,194.5,62.2,194.2z"/>
	<path fill="#FEFEFE" d="M51.1,193.4c-3.1,0.2-6.1,0-9-0.4c-0.7-0.1-1.4-0.3-2.1-0.4c-1.1-0.2-0.2-1-0.3-1.5c0-0.3,0.2-0.6,0.2-0.9
		c-0.1-1,0.3-1.2,1.1-0.9c3.1,1,6.3,0.9,9.5,1c1.3,0,1.3,0,1.4,1.3c0.1,0.4,0,0.9,0.1,1.3C52.2,193.8,51.3,193.3,51.1,193.4z"/>
	<path fill="#FEFEFE" d="M62.8,184.1c1.4,0,2.9,0,4.4,0c1.2,0,2.4-0.1,3.5-0.4c0.7-0.2,1.5,0.2,2.2-0.4c0,0,0.4,0,0.4,0.4
		c-0.2,0.9-0.2,1.8-0.2,2.7c0,0.6-0.5,0.6-0.7,0.6c-2.9,0.5-5.7,0.9-8.6,0.8c-0.4,0-0.6-0.1-0.6-0.5
		C63.2,186.2,62.5,185.3,62.8,184.1z"/>
	<path fill="#FEFEFE" d="M39,196.4c1-0.2,1.7,0.4,2.6,0.4c0.7,0,1.4,0.2,2.1,0.3c2.5,0.2,5,0.2,7.5,0.2c0.4,0,1-0.1,0.8,0.5
		c-0.2,0.5,0.3,1.4-0.8,1.5c-3.7,0.2-7.3,0-11,0c-1.2,0-1.6-0.7-1.2-2.1C39.1,196.9,39.2,196.7,39,196.4z"/>
	<path fill="#FEFEFE" d="M84.5,69.8c0.1-1.1-0.4-1.9-1.2-2c-0.8-0.1-1.3,0.6-1.8,1.1c-0.3,0.3-0.6,0.6-0.8,0.9
		c-0.7-0.7-0.4-1.2,0.2-1.7c0.9-0.7,1.5-1.8,2.8-2c0.8-0.1,1.3,0.3,1.6,1c0.8,1.7,0.6,3.4-0.1,5.1c-0.4,1-0.9,2-1.4,3
		c-0.1,0.2-0.2,0.5-0.5,0.4c-0.2,0-0.2-0.3-0.2-0.5c-0.4-1.5-1-2.9-1.8-4.2c-0.2-0.4-0.1-0.6,0-0.8c0.4-0.5,0.9-0.9,1.4-1.4
		c0.3-0.3,0.6-0.2,0.9,0.1C84,69.1,84,69.6,84.5,69.8z"/>
	<path fill="#FEFEFE" d="M100.3,16.4c-0.8-1.6,0.2-3.4-0.5-5.1c-0.1,0.1-0.3,0.2-0.3,0.3c0.1,1.5-1.1,2.2-2,3
		c-0.8,0.7-1.7,1.2-2.4,1.9c-0.4,0.4-0.7,0.4-1,0c-0.4-0.6-1.2-0.7-1.5-1.4c1.2-0.1,1.7-1.2,2.4-1.7c0.7-0.5,1.3-1,2.2-1.1
		c0.7-0.1,1.3-0.4,1.3-1.4c0-0.5,0.7-0.7,1.1-1.1c0.5-0.6,0.8-0.3,1.2,0c1.6,1,1.6,1,1.2,2.9c-0.1,0.3-0.1,0.7-0.2,1
		c-0.1,0.4-0.1,0.8-0.7,0.5c-0.6-0.2-0.9,0.3-0.9,0.8C100.3,15.3,100.2,15.9,100.3,16.4z"/>
	<path fill="#FEFEFE" d="M74.5,201.4c-0.8,0.5-1.7,0.3-2.5,0.4c-1.3,0.2-2.6-0.1-3.9,0.2c-1,0.2-2-0.1-3-0.1c-0.6,0-1.1-0.1-1.7-0.1
		c-0.3,0-0.7,0.2-0.8-0.2c-0.2-0.6-0.3-1.2-0.2-1.9c0-0.1,0.2-0.1,0.3-0.1c0.9,0.3,1.9-0.1,2.9,0.1c0.8,0.2,1.7-0.1,2.5,0
		c0.5,0.1,1.1-0.2,1.7-0.1c1.1,0.1,2.1-0.1,3.2-0.3c1.1-0.1,1.3,0,1.2,1C74,201.1,74,201.1,74.5,201.4z"/>
	<path fill="#FEFEFE" d="M31.3,80.8c-0.7-0.6-1.2-1.6-2.2-1c-0.5,0.3-0.5,1.2,0.1,2.4c0.6-0.3-0.1-0.8,0.1-1.2
		c0.1-0.2-0.1-0.6,0.2-0.7c0.2-0.1,0.4,0.2,0.6,0.4c1,0.7,1.3,1.5,1.2,2.7c-0.1,1.3,0.2,2.6,0.4,4c-2.2-0.9-3.4-2.7-4.4-4.6
		c-0.4-0.9-0.5-1.8-0.4-2.8c0.1-1.2,1.5-2,2.6-1.5c0.5,0.2,0.9,0.6,1.5,0.6c0.3,0,0.2,0.2,0.2,0.4C31.3,79.8,31.3,80.2,31.3,80.8z"
		/>
	<path fill="#FEFEFE" d="M95.8,10.2c-0.4-0.4-0.2-0.9-0.5-1.2C95,8.5,95.3,8,95.1,7.6c-0.3,0-0.3,0.2-0.3,0.4
		c0.1,0.7-0.2,1.2-0.9,1.2c-1.3,0.1-1.2,1.1-1.2,1.9c0,1-0.5,1.9-0.7,2.9c-0.1,0.7-0.6,0.5-1,0.4c-0.6-0.2-1.1-0.7-1.7-0.8
		c-0.1,0-0.2-0.2-0.1-0.4c0.6-1.3,1.2-2.7,1.6-4.1c0.2-0.7,1-1,1.7-1.3c1.3-0.6,2.6-1.3,3.9-1.9c0.5-0.2,0.8-0.4,0.8,0.3
		c0,0.4,0.1,0.7,0.2,1.1c0.1,0.6,0.1,1.3-0.9,1.2c-0.5,0-0.6,0.4-0.5,0.6C96.2,9.6,95.8,9.8,95.8,10.2z"/>
	<path fill="#FEFEFE" d="M75.9,47.9c-0.5,2-0.7,4-0.9,6.1c0,0.3-0.1,0.5-0.2,0.8c-0.5,0.9-1.1,0.9-1.9-0.2c-0.6-0.7-1-1.5-1.8-2
		c-0.3-0.2-0.3-0.4,0-0.8c1.1-1.6,2.6-2.6,4.2-3.5C75.4,48.1,75.5,47.8,75.9,47.9z"/>
	<path fill="#FDFDFD" d="M34.4,57.2c-1-1.6-1.3-3.2-1.8-4.6c-0.1-0.3,0.2-0.3,0.4-0.3c2.4-1,4.8-1.2,7.5-0.7
		C37,51.8,35.3,54,34.4,57.2z"/>
	<path fill="#FEFEFE" d="M75.6,175.4c-0.2,0.6-0.2,1.1-0.2,1.6c0,0.5-0.6,1.2-0.8,1.1c-0.5-0.2-0.9,0.3-1.4,0.3
		c-2.2,0.3-4.5,0.6-6.8,0.7c-1,0-2,0.2-3,0c-0.3-0.1-0.5,0.2-0.8,0.2c-0.3,0-0.6-0.1-0.8-0.3c-0.1-0.2-0.1-0.5,0-0.7
		c0.2-0.2,0.5-0.1,0.8-0.1c2.2,0.1,4.4,0.5,6.6-0.1C71.6,177.6,73.4,176.1,75.6,175.4z"/>
	<path fill="#FEFEFE" d="M89,63.2c-1.2-1.4-1.7-2.8-1-4.6C88.5,60.2,88.8,61.6,89,63.2z"/>
	<path fill="#FEFEFE" d="M15,11.3c0,0.7-0.2,1.1-0.9,1.4c-0.4,0.2-0.5,0.1-0.7-0.1c-0.3-0.2-0.3-0.4,0-0.7c0.2-0.3,0.4-0.5,0.6-0.8
		c0.2-0.2,0.1-0.7,0.6-0.6C15.2,10.5,15,10.9,15,11.3z"/>
	<path fill="#FEFEFE" d="M11,17.1c-0.1,0.5-0.4,0.8-0.8,0.8C9.8,18,10,17.6,9.9,17.3c-0.1-0.5-0.2-0.9-0.3-1.4
		c-0.1-0.3,0-0.6,0.3-0.6c0.2-0.1,0.5-0.1,0.6,0.3C10.8,16.1,10.7,16.7,11,17.1z"/>
	<path fill="#FEFEFE" d="M97.6,10.4c0.1,0.3,0.4,0.6-0.2,0.7c-0.5,0-0.6-0.2-0.7-0.6c-0.1-0.3-0.1-0.7-0.2-1c0-0.4,0.2-0.6,0.6-0.6
		c0.4,0,0.6,0.1,0.5,0.5C97.5,9.8,98,10.1,97.6,10.4z"/>
	<path fill="#FEFEFE" d="M9,33.7c-0.6-0.4-1.1-0.8-1.3-1.4c-0.1-0.2-0.4-0.3-0.1-0.5c0.2-0.2,0.4-0.3,0.8-0.1
		C8.8,32,9.2,32.3,9,32.9C9,33.1,9,33.3,9,33.7z"/>
	<path fill="#FEFEFE" d="M7.1,24.3c0.4,0.1,0.7,0.6,1.2,0.8c0.2,0.1,0,0.4-0.2,0.5c-0.2,0.1-0.5,0.2-0.7-0.1c-0.3-0.3-0.4-0.7-0.7-1
		C6.5,24.5,6.6,24.2,7.1,24.3z"/>
	<path fill="#FEFEFE" d="M101.2,16.7c-0.5-0.4-0.4-1-0.4-1.6c0-0.2-0.1-0.6,0.4-0.4c0.3,0.1,0.7,0.1,0.4,0.6
		C101.4,15.7,101.8,16.3,101.2,16.7z"/>
	<path fill="#FEFEFE" d="M73.8,13.8c-0.3-0.5-0.5-1.1-0.8-1.5c-0.1-0.1-0.2-0.2-0.1-0.4c0.1-0.1,0.3-0.1,0.5,0
		C74,12.5,73.8,13.2,73.8,13.8z"/>
	<path fill="#FEFEFE" d="M91.1,3.8c0.3-0.3,0.7-0.8,1.3-0.5C92,3.5,91.5,3.7,91.1,3.8z"/>
	<path fill="#FEFEFE" d="M101.8,22.2c0.4-0.2,0.7-0.7,1.5-0.3C102.5,21.7,102.3,22.4,101.8,22.2z"/>
	<path d="M70.6,80.4c-0.2,1.7-0.8,3.2-1.9,4.4c-0.6,0.6-1.2,1.2-1.7,1.8c-2.5,2.5-5.1,4.6-8.6,5.5c-2.9,0.7-5.6,0.4-8.3-0.5
		c-1.2-0.4-2.3-0.8-3.5-1.1c-1.3-0.4-2.6-1.1-3.8-1.7c-0.5-0.2-1-0.5-1.5-0.7c-0.3-0.1-0.4-0.2-0.4-0.5c0-0.4,0.4-0.3,0.5-0.2
		c1.3,0.2,2.7,0.2,4,0.4c2.6,0.4,5.2,0.8,7.9,0.7c3.1-0.1,6-1,8.9-2.1c1.5-0.5,3-1.1,4.4-1.9c0.9-0.5,1.6-1.4,2.3-2.2
		C69.3,81.7,70.1,81.2,70.6,80.4z"/>
	<path d="M48.5,79c-2.1,0.1-4.2-0.4-6.4-0.7c-0.8-0.1-1.6-0.4-2.5-0.3c-0.2,0-0.7,0-0.8-0.4c-0.1-0.3,0.2-0.5,0.4-0.7
		c1.8-1.7,3.9-2.2,6.3-2.1c2.3,0.1,4.2,1.1,5.7,2.9c0.2,0.3,0.3,0.6,0.2,0.9c-0.1,0.4-0.5,0.4-0.9,0.4C49.9,79,49.2,79,48.5,79z"/>
	<path d="M60.5,76.5c-0.5,0.1-0.7-0.2-0.6-0.5c0.2-2.9,2.5-5.7,5.8-5.9c1.5-0.1,2.8,0.2,4.2,0.7c0.4,0.2,0.8,0.4,0.8,1
		c0,0.5-0.5,0.4-0.9,0.5c-2,0.7-3.9,1.4-5.7,2.4C62.9,75.5,61.7,76,60.5,76.5z"/>
	<path d="M49.7,73.7c-1.8,0.1-3.3-0.5-4.9-0.8c-1.4-0.2-2.8-0.3-4.2,0c-0.4,0.1-0.8-0.1-1.2,0.1c-0.1,0.1-0.3-0.1-0.3-0.3
		c0-0.2,0.1-0.3,0.2-0.3c1.4-0.3,2.6-1.1,4.1-1c1.7,0.1,3.4-0.1,5.1,0.1c1,0.1,2.1-0.1,3.1,0.2c0.4,0.1,1.2,0.2,1.4-0.6
		c0.1-0.3,0.2-0.3,0.4-0.2c0.3,0,0.2,0.3,0.2,0.4c-0.1,0.7-1.2,2-1.9,2.1C50.9,73.5,50.2,73.8,49.7,73.7z"/>
	<path d="M51.8,85.7c0.1-1.4,0.6-2.7,1.4-3.8c0.3-0.5,0.7-0.9,1.1-1.3c0.8-0.8,1.7-1.1,2.9-0.8c1.1,0.3,1.9,0.8,2.6,1.8
		c0.5,0.6,0.7,1.4,1.2,2c0.2,0.2,0.3,0.4,0.1,0.6c-0.2,0.2-0.5,0-0.6-0.2c-0.4-0.7-0.8-1.4-1.2-2.1c-1.2-1.8-3.7-2.1-5.2-0.1
		c-0.8,1.1-1.4,2.3-1.9,3.6C52.2,85.5,52.2,85.7,51.8,85.7z"/>
	<path d="M55.3,84.9c0.2,0.5-0.2,0.8-0.4,1.2c-0.2,0.3-0.6,0.6-1,0.3c-0.4-0.2-0.7-0.6-0.5-1.1c0.1-0.3,0.2-0.5,0.3-0.7
		c0.1-0.5,0.3-1,0.8-0.9C55.1,83.7,55.4,84.1,55.3,84.9z"/>
	<path d="M59.1,84.9c0,0.3-0.2,0.8-0.7,0.8c-0.7,0-1.5-1.3-1.5-2.2c0-0.5,0.3-0.5,0.7-0.5C58.4,83,59.2,83.9,59.1,84.9z"/>
	<path d="M40.3,100c0.9,0,1.2,0.7,1.6,1.2c1.3,1.8,2.6,3.7,3.9,5.4c0.6,0.8,1.4,1.4,2.1,2.2c0.2,0.2,0.3,0.1,0.5,0.1
		c2.7-0.2,5.4-1.1,8.1-0.7c1.8,0.2,3.6,0.3,5.4,0.6c1.1,0.2,2.3,0.3,3.4,0.7c0.2,0.1,0.2,0,0.2-0.1c0.8-1.5,2.1-2.8,3-4.2
		c1.1-1.6,2.4-3,3.4-4.6c0.1-0.2,0.2-0.4,0.5-0.3c0.2,0.1,0.4,0.3,0.4,0.6c0,1-0.1,2-0.3,3c-0.4,1.4-0.9,2.7-1.2,4.1
		c-0.3,1.2-0.7,2.4-0.8,3.6c-0.1,1.1-0.6,2.1-0.8,3.2c-0.2,0.9-0.1,1.7,0.1,2.5c0.2,0.7,0.1,1.4-0.2,2c-1.8,3.3-4.1,6.1-7.4,8
		c-1.8,1-3.7,1.7-5.8,1.9c-1.6,0.1-3.2-0.2-4.6-0.8c-1.9-0.8-3.8-1.7-5.5-3c-1-0.8-1.5-1.9-1.9-3c-0.3-0.7-0.7-1.4-0.8-2.3
		c-0.2-1.2,0.2-2.3,0.1-3.4c-0.2-2-0.5-3.9-1-5.8c-0.6-2.4-1.6-4.7-1.7-7.2c-0.1-1.1-0.4-2.2-0.6-3.3
		C40.3,100.3,40.3,100.2,40.3,100z"/>
	<path d="M20.4,31.5c-2-2.6,0.7-9,4-9.7C20.7,24,19.9,27.4,20.4,31.5z"/>
	<path d="M82.4,16.7c4.3,1.9,6.7,4.6,5.5,9.2c0.1-1.9,0-3.8-1.2-5.5C85.6,18.7,83.7,18,82.4,16.7z"/>
	<path fill="#FEFEFE" d="M45.5,89.3c0.9,0,1.8,0.1,2.7,0.4c0.9,0.3,1.8,0.2,2.7,0.3c1.4,0.1,2.8,0.5,4.2,0.3
		c1.8-0.2,3.6-0.5,5.3-1.1c1.3-0.5,2.7-0.9,4-1.6c0.1-0.1,0.3,0,0.5,0c-1.7,1.8-3.7,3.1-5.9,3.8c-2.7,0.9-5.4,0.8-8.2-0.1
		c-1.3-0.4-2.6-0.7-3.8-1.2c-0.5-0.2-0.8-0.6-1.3-0.6c0,0-0.1,0-0.1,0C45.5,89.5,45.5,89.4,45.5,89.3z"/>
	<path fill="#FEFEFE" d="M68.7,83.5c-0.6,0.6-1.2,1.4-1.9,1.9c-2.9,2-6.1,3.2-9.5,4c-2.3,0.5-4.5,0.3-6.8,0c-1.3-0.2-2.6-0.2-4-0.5
		c-1.4-0.3-2.8-0.6-4.2-1c0.6,0.1,1.2,0.1,1.8,0.2c2.6,0.6,5.2,0.9,7.9,1c2.3,0,4.7-0.4,7-1.1c2.2-0.7,4.3-1.5,6.4-2.4
		c1.2-0.5,2.3-1.2,3-2.3C68.6,83.4,68.6,83.5,68.7,83.5z"/>
	<path fill="#FEFEFE" d="M45.1,75.7c1.4-0.1,2.4,0.6,3.5,1c0.2,0.1,0.4,0.4,0.3,0.7c-0.2,0.4-0.4,0.9-0.9,0.9c-1-0.1-2,0.2-2.9-0.2
		c-0.7-0.3-1.2-1.8-0.7-2.3C44.6,75.5,44.9,75.7,45.1,75.7z"/>
	<path fill="#FEFEFE" d="M40.2,77.6c0.9-1,1.2-1.1,3.4-1.7c0.1,0.7-0.1,1.4,0.5,2.1C42.7,77.9,41.6,77.3,40.2,77.6z"/>
	<path fill="#FEFEFE" d="M49.5,77.3c0.3,0.4,0.9,0.6,0.7,1c-0.2,0.4-0.6-0.1-1,0.1C49,77.9,49.5,77.7,49.5,77.3z"/>
	<path fill="#FEFEFE" d="M66.3,72.2c0,0.5-0.1,0.8-0.5,1c-0.5,0.2-1.1,0.5-1.5,0.8c-0.8,0.7-1.5,0-2.1-0.3c-0.3-0.2,0-0.5,0.1-0.6
		c0.7-1.2,2-1.6,3.2-1.9C66.1,71,66.1,71.8,66.3,72.2z"/>
	<path fill="#FEFEFE" d="M67,72.7c-0.1-0.5,0.1-0.9-0.3-1.3c0.9-0.2,1.6,0.3,2.3,0.5C68.4,72.1,67.7,72.4,67,72.7z"/>
	<path fill="#FEFEFE" d="M62.8,75c-0.6,0.2-1.1,0.3-1.5,0.4C61.5,74.1,61.5,74.1,62.8,75z"/>
	<path fill="#FEFEFE" d="M54,85.6c-0.1-0.1,0-0.4,0-0.4c0.3-0.2,0-0.8,0.5-0.7c0.3,0.1,0.2,0.2,0.1,0.4C54.4,85.1,54.8,85.7,54,85.6
		z"/>
	<path fill="#FEFEFE" d="M58.6,84.4c0,0.3-0.1,0.5-0.3,0.5c-0.4,0-0.5-0.4-0.6-0.8c-0.1-0.2,0.2-0.5,0.3-0.4
		C58.2,84,58.6,84,58.6,84.4z"/>
	<path fill="#FEFEFE" d="M58.4,116.8c-0.1-1.3,0.5-2.2,1.1-3.1c0.4-0.6,1.1-0.9,1.9-0.6c0.5,0.2,0.9,0.3,1.4,0.4
		c1.4,0.4,1.8,1.5,1.8,2.8c0,1.5-0.4,2.9-1.8,3.7c-1.2,0.8-3.3,0.1-3.8-1.3C58.7,118.1,58.2,117.5,58.4,116.8z"/>
	<path fill="#FEFEFE" d="M49.2,113.5c2.4,0.1,3.8,1,4.4,2.7c0.4,1.1-0.5,2.9-1.5,3.4c-2,0.8-3.2,0.2-4.3-1.3
		c-0.3-0.4-0.7-0.8-0.9-1.3C46.2,115.2,47.3,113.5,49.2,113.5z"/>
	<path d="M46.4,76.4c0.3,0.1,0.7,0.2,0.6,0.7c0,0.3-0.1,0.7-0.4,0.6c-0.4-0.1-0.7-0.4-0.7-0.8C45.9,76.5,46.2,76.4,46.4,76.4z"/>
	<path d="M64.8,72.7c-0.2,0.3-0.1,0.8-0.5,0.8c-0.4,0-0.9-0.2-0.9-0.8c0-0.5,0.6-0.5,0.8-0.6C64.5,72,64.5,72.5,64.8,72.7z"/>
	<path d="M60.2,117.2c0-0.6,0.3-1,0.7-1c0.3,0,0.7,0.4,0.7,0.9c0,0.5-0.4,0.8-0.8,0.8C60.6,117.8,60.1,117.7,60.2,117.2z"/>
	<path d="M50.5,116.1c0.5,0,0.7,0.5,0.7,0.8c0.1,0.4-0.4,0.6-0.6,0.6c-0.4,0-0.7-0.4-0.8-0.7C49.8,116.5,50,116.1,50.5,116.1z"/>
</g>
</svg>
