<?xml version="1.0"?>
<svg width="640" height="480" xmlns="http://www.w3.org/2000/svg" xmlns:xlink="http://www.w3.org/1999/xlink">
	<defs>
		<filter height="1.235" y="-.118" width="1.232" x="-.116" id="c">
			<feGaussianBlur stdDeviation="1.642"/>
		</filter>
		<linearGradient id="a">
			<stop offset="0"/>
			<stop stop-opacity="0" offset="1"/>
		</linearGradient>
		<radialGradient r="17.015" fy="312.654" fx="349.336" cy="312.654" cx="349.336" gradientTransform="matrix(21.8536 127.831 -141.931 24.2641 36860.5 -52320.2)" gradientUnits="userSpaceOnUse" id="b" xlink:href="#a"/>
		<linearGradient y2=".324" x2=".453" y1=".891" x1=".844" id="d">
			<stop offset="0" stop-color="#7f0000"/>
			<stop offset="1" stop-opacity=".996"/>
		</linearGradient>
		<filter id="f">
			<feGaussianBlur stdDeviation=".5"/>
		</filter>
		<filter height="200%" width="200%" y="-50%" x="-50%" id="g">
			<feGaussianBlur stdDeviation="7"/>
		</filter>
		<radialGradient cy=".473" cx=".492" spreadMethod="pad" id="e" r=".5">
			<stop offset=".129" stop-color="#ad181d" stop-opacity=".992"/>
			<stop offset="1" stop-opacity=".996"/>
		</radialGradient>
		<radialGradient id="h" spreadMethod="pad">
			<stop stop-color="#fff" offset=".211"/>
			<stop offset="1"/>
		</radialGradient>
	</defs>
	<path stroke="#000" stroke-width="1.2" stroke-linecap="round" d="M478.427 317.913a163.35 160.838 0 1 1-326.701-81.31 163.35 160.838 0 1 1326.701 81.311 NaNz"/>
	<path fill="url(#b)" stroke="#000" stroke-width="1.2" stroke-linecap="round" filter="url(#c)" d="M460.96 316.29a146.084 143.837 0 1 1-292.169-72.716 146.084 143.837 0 1 1292.169 72.716 NaNz"/>
	<path fill="url(#d)" stroke="#000" stroke-width="1.2" stroke-linecap="round" filter="url(#c)" d="M467.96 316.29a146.084 143.837 0 1 1-292.169-72.716 146.084 143.837 0 1 1292.169 72.716 NaNz"/>
	<path fill="url(#e)" stroke="#000" stroke-width="1.2" stroke-linecap="round" filter="url(#c)" d="M466.883 321.026a148.507 146.745 0 1 1-297.015-74.187 148.507 146.745 0 1 1297.015 74.186 NaNz"/>
	<path filter="url(#f)" stroke="#000" stroke-width="1.2" stroke-linecap="round" d="M333.07 350.65a6.824 90.75 0 1 1-13.65-45.172 6.824 90.75 0 1 113.648 45.173 NaNz"/>
	<path fill-rule="evenodd" stroke="#000" stroke-width="1.062" d="M230.454 89.019c-144.487 71.976-202.64 210.61-202.64 210.61 19.037-27.742 41.988-52.269 66.71-73.84-38.053 59.472-55.119 115.31-55.119 115.31l-27.167 36.057c3.263 9.106 37.198 24.321 48.224-8.872 111.905-336.895 362.824-253.56 456.242-208.431.108.052.473.41.58.462.92.983 9.313 3.878 22.986 11.645-2.304 20.326-13.932 141.343-110.714 226.45-61.486 54.068-187.263 54.206-290.44 50.087 0 0 130.221 25.78 246.5-9.161 136.066-40.889 181.01-209.373 185.83-261.734 3.705-1.409 6.553-3.321 6.482-3.38-.113-.094 62.062-33.013 39.11-43.44-46.558-21.15-88.202-35.985-126.876-45.35-16.294-3.945-31.866-6.687-47.275-8.773C498.092 66.589 536.66 63.19 539.85 61.6c-.176-.072-.188-.395-.58-.462-5.554-.953-41.507-10.736-97.925-13.782-84.628-4.569-154.354 13.497-210.892 41.662z"/>
	<path filter="url(#g)" d="M217.426 278.925c2.29-33.97-.546-86.782 58.653-134.61 59.2-47.83 13.78 53.441 11.419 111.529-2.361 58.087-14.185 86.58-34.978 91.311-20.794 4.73-37.385-34.26-35.094-68.23z" transform="rotate(56.427 261.789 239.702)" stroke-linecap="round" stroke-width="1.2" stroke="#000" fill="url(#h)" fill-opacity=".67"/>
</svg>
