<svg id="Layer_1" data-name="Layer 1" xmlns="http://www.w3.org/2000/svg" viewBox="0 0 90.75 108.76">
	<defs>
		<style>
			.cls-1,.cls-3{fill:#ea2c5a;}.cls-2{fill:#0a1633;}.cls-3{stroke:#fff;stroke-miterlimit:10;}.cls-4{fill:#0d4d8c;}.cls-5{fill:#1795d2;}.cls-6{fill:#fff;}.cls-7{fill:#00adee;}
		</style>
	</defs>
	<path class="cls-1" d="M44.35 102.37c-.35-.15-9.4-3.84-19.35-12.95A79 79 0 0 1 .19 43.52L0 42.4l.73-.88A51.41 51.41 0 0 1 12.25 32a62.61 62.61 0 0 1 33-9.48h.28c26.59 0 43.64 17.73 44.35 18.48l.84.89-.19 1.21a78.26 78.26 0 0 1-24.68 46.14 72.89 72.89 0 0 1-19.63 13.12l-.93.38z" transform="translate(0 -.29)"/>
	<path class="cls-2" d="M88.09 42.71S71.26 24.88 45.29 25c-27.71.13-42.63 18.1-42.63 18.1 7.13 42.65 42.63 56.94 42.63 56.94s36.08-14.61 42.8-57.33z" transform="translate(0 -.29)"/>
	<path class="cls-3" d="M78.46 71.66a53.11 53.11 0 0 0-.75-16.31l1.89.65s-1.5-14-3.71-17.84c3.06-23.28-3.1-32.35-3.19-32.5l-2.29-3.85-2.07 4.24c-1.11 2.86-7.7 8-11.24 10.82l-1.3 1a18.7 18.7 0 0 0-2.16 2l-.39-1.44L50.64 20l1.12-4.84-4.94 3a20.05 20.05 0 0 0-3 2.24l-3.36.93c-.62.17-1.22.35-1.8.54a17.91 17.91 0 0 0-3.71-4l-1.3-1c-3.54-2.78-10.13-8-11.25-10.82l-1.8-4.63-2.5 4.26c-.25.42-6.09 10.46-3.19 32.5C14.28 39.93 11.15 56 11.15 56l1.43-.25c-1.6 8.75-.06 23.8-.06 23.8l1.71-2.49c.42 2.69 5.37 15.76 5.43 15.93L19 81.46c1.64 7.08 10.42 18.69 10.64 19l-1.45-7.38a33.72 33.72 0 0 0 4.08 4.83 118.66 118.66 0 0 0 10.12 8.41l2.87 2.12 1.45-1.19C47 107 53.19 102 57.37 97.9a38.51 38.51 0 0 0 4.15-4.8l-.38 6.78c.22-.29 7.86-11.34 9.5-18.42l-.06 9.69c.07-.19 4.63-11.93 5-15.17l2.92 4.73z" transform="translate(0 -.29)"/>
	<path class="cls-4" d="M62 33.1c-.21-.64 7.94 11.15 7.94 11.15L71.22 49l1.58 10.91s2.07 7.73-6.94 17.59-12.44 12.87-12.44 12.87l-8.29 10.51 1-62z" transform="translate(0 -.29)"/>
	<path class="cls-4" d="M26.74 33.1c.21-.64-7.94 11.15-7.94 11.15L17.52 49l-1.57 10.91a55.24 55.24 0 0 0 5.94 14.38c6.61 11.6 13.43 16.08 13.43 16.08l10.16 10.51L49.2 36z" transform="translate(0 -.29)"/>
	<path class="cls-5" d="M46 74.93l-2.8 4.93a6.62 6.62 0 0 1-6.1-4.2c-1.84-4.38-.76-9.52-.76-9.52s-4.93.21-6.43 2.79c0 0-1.5-7.36-.21-9.51a15 15 0 0 0-4.5 3.5s-1.72-4.93 0-8.37c0 0 1.7-5.7-.86-8.21a72.32 72.32 0 0 1 9 4.13C38.05 53 41 59.1 41 59.1s2.59-1.2 2.52-3.64c0 0-1.07 1.2-1.85.85a37.29 37.29 0 0 0-2.33-7.18c-1.91-4.18-4.72-8.38-4.68-9.92L45 43.54l.71 15.3z" transform="translate(0 -.29)"/>
	<path class="cls-5" d="M45.06 74.93l2.79 4.93a6.62 6.62 0 0 0 6.1-4.2c1.84-4.38.76-9.52.76-9.52s4.93.21 6.43 2.79c0 0 1.5-7.36.21-9.51a15 15 0 0 1 4.5 3.5s1.72-4.93 0-8.37c0 0-1.7-5.7.86-8.21a72.31 72.31 0 0 0-9 4.13C53 53 49.78 59.1 49.78 59.1a4.28 4.28 0 0 1-2.23-3.64s1.07 1.2 1.85.85a37.3 37.3 0 0 1 2.33-7.18c1.91-4.18 4.72-8.38 4.68-9.92l-10.35 4.33-.71 15.3z" transform="translate(0 -.29)"/>
	<path class="cls-6" d="M49.78 59.1a27.92 27.92 0 0 0 6.11.39l-1.14-.79s8.09-1.19 8.44-7.31c0 0-.79 2.17-4 2.89S52.4 55.5 52.4 55.5zM41 59.1a27 27 0 0 1-6 .39l1.14-.79s-8.14-1.2-8.5-7.32c0 0 .79 2.17 4 2.89s6.79 1.22 6.79 1.22z" transform="translate(0 -.29)"/>
	<path class="cls-2" d="M49.78 59.1a24.29 24.29 0 0 0 4.5-2.68 8.18 8.18 0 0 0 4.61-.21 6.25 6.25 0 0 0 4.29-4.83 3.06 3.06 0 0 1-1.51.7 4.74 4.74 0 0 1 1.19-2.74 11.39 11.39 0 0 1 3.86-3l.43-2.47a22.3 22.3 0 0 0-9.22 3.65c-3.61 2.4-5.68 5.79-8.15 11.58z" transform="translate(0 -.29)"/>
	<path class="cls-6" d="M60.18 49.12a8.86 8.86 0 0 0-2.47 1.34 2.16 2.16 0 0 0-1-.27c-1.2 0-3.15 2.58-3.15 3.79a4.11 4.11 0 0 0 2.84 1.07c2.52-.17 2.57-2.28 2.57-3.49-.02.01.59-1.28 1.21-2.44z" transform="translate(0 -.29)"/>
	<circle class="cls-1" cx="56.48" cy="51.67" r="1.84"/>
	<circle class="cls-7" cx="57.27" cy="51.17" r=".63"/>
	<path class="cls-2" d="M52.71 56a96 96 0 0 1 8.79-7.2l-4.15.29s-4.14 1.28-4.64 6.91zM45.27 67.73c-3.57 0-7 1.46-7.72 3.43s.53 5.15 2.68 7.4c2.36 2.47 8.15 2 10.08 0 2.14-2.26 3.4-5.57 2.68-7.4s-4.16-3.43-7.72-3.43z" transform="translate(0 -.29)"/>
	<path class="cls-6" d="M41.09 71.38h9s-5.14-3-9 0z" transform="translate(0 -.29)"/>
	<path class="cls-2" d="M56.81 59.21s6.6-1.67 8.93-5.12c0 0 .1 6.99-8.93 5.12zM34.21 59.21s-6.6-1.67-8.93-5.12c0 0-.1 6.99 8.93 5.12zM39 66.55s5.36-8.15 12-.64a18.87 18.87 0 0 0-12 .64zM44.95 86.19C41.41 86.19 40 85 40 85c-.34.68.27 2.68 1.77 3.68a6.85 6.85 0 0 0 6.65 0c1.53-1 2.12-3.06 1.77-3.68a11.6 11.6 0 0 1-5.24 1.19zM41 59.1a24.3 24.3 0 0 1-4.5-2.68 8.18 8.18 0 0 1-4.61-.21 6.25 6.25 0 0 1-4.29-4.83 3.06 3.06 0 0 0 1.51.7 4.73 4.73 0 0 0-1.19-2.74 11.39 11.39 0 0 0-3.86-3l-.43-2.47a22.3 22.3 0 0 1 9.22 3.65c3.59 2.4 5.66 5.79 8.15 11.58z" transform="translate(0 -.29)"/>
	<path class="cls-6" d="M30.57 49.12A8.87 8.87 0 0 1 33 50.47a2.16 2.16 0 0 1 1-.27c1.2 0 3.15 2.58 3.15 3.79a4.11 4.11 0 0 1-2.84 1.07c-2.52-.17-2.57-2.28-2.57-3.49.07 0-.54-1.29-1.17-2.45z" transform="translate(0 -.29)"/>
	<circle class="cls-1" cx="34.27" cy="51.67" r="1.84"/>
	<circle class="cls-7" cx="33.49" cy="51.17" r=".63"/>
	<path class="cls-2" d="M38 56a96 96 0 0 0-8.79-7.22l4.15.29S37.54 50.37 38 56zM51.92 31.17A13.75 13.75 0 0 1 57.5 19.8c4.1-3.25 11.8-9 13.3-12.87 0 0 5.79 9.65 2.79 31.53a42 42 0 0 1 2.57 12 30.73 30.73 0 0 0-5.58-3.86S62.71 34 51.92 31.17z" transform="translate(0 -.29)"/>
	<path class="cls-2" d="M66.93 34.81c-4.07-4.5-11.22-3.81-18.73-2.28l-2.82-2.72-4.33 3c-7.51-1.5-13.16-2.51-17.23 2a11.37 11.37 0 0 0-3 9.44c1.93-.43 6.65.64 6.65.64-2.79-1.93-1.72-6.43-1.72-6.43 1.07 3.86 9 6.11 9 6.11-2-3.22-.43-5.36-.43-5.36a26.06 26.06 0 0 0 6.65 7c1.51 1.12 4.36 12.66 4.36 12.66.78-1.38 2.92-11.54 4.43-12.66a26.06 26.06 0 0 0 6.65-7S58 41.35 56 44.57c0 0 7.94-2.25 9-6.11 0 0 1.07 4.5-1.72 6.43 0 0 4.72-1.07 6.65-.64a11.37 11.37 0 0 0-3-9.44z" transform="translate(0 -.29)"/>
	<path class="cls-4" d="M59.71 22.84S68.58 19.22 70 13a10.76 10.76 0 0 1-3.29 9.51 5 5 0 0 0 2.63.05S68.58 26 66 26.84a5.66 5.66 0 0 0 2.65 0l-1.39 1.91A23.23 23.23 0 0 1 71.44 36s-2-5-10-9.56a10.06 10.06 0 0 0 3.86-1.71s-4.12-.44-5.59-1.89z" transform="translate(0 -.29)"/>
	<path class="cls-2" d="M33 31.6l4.9-6.6a14.93 14.93 0 0 0-4.23-5.19c-4.1-3.25-11.8-9-13.3-12.87 0 0-5.79 9.65-2.79 31.53a42 42 0 0 0-2.57 12 30.73 30.73 0 0 1 5.58-3.86S22.25 34.39 33 31.6z" transform="translate(0 -.29)"/>
	<path class="cls-4" d="M31.45 22.84s-8.87-3.62-10.3-9.8a10.76 10.76 0 0 0 3.29 9.51 5 5 0 0 1-2.63.05s.77 3.36 3.34 4.23a5.66 5.66 0 0 1-2.65 0l1.39 1.91A23.22 23.22 0 0 0 19.73 36s2-5 10-9.56a10.06 10.06 0 0 1-3.86-1.71s4.13-.44 5.58-1.89z" transform="translate(0 -.29)"/>
	<path class="cls-2" d="M33.33 34l-9.51.85s4.08-7.43 17.52-11.15a13.92 13.92 0 0 0-1.86 6.22s3.86-6.65 8.79-9.65c0 0-1.79 7.72-.36 10.3 0 0 .57-6.36 4-8.37l1.43 5.22A18.81 18.81 0 0 1 67.93 36zM66.72 46.34s5.21.34 5.79 17.86l3.71 7.29S78.94 54.34 67.93 36zM24 46.34s-5.21.34-5.79 17.86l-3.71 7.29S11.81 54.34 22.82 36zM45 80.26c-4.11 0-7.61-1.92-8.94-4.6v.49c0 4.3 4 7.79 9 7.79s9-3.49 9-7.79v-.49c-1.45 2.68-4.95 4.6-9.06 4.6z" transform="translate(0 -.29)"/>
	<path class="cls-2" d="M76.22 71.49s0-8.72-2.9-11.58A12.22 12.22 0 0 1 73 64.2a19.72 19.72 0 0 0-4.86-2.57s2.07 1.93 1.79 6.22a31.86 31.86 0 0 0-5.15-1.5s1.64 6.51.21 10.51a16 16 0 0 0-6-3.79s1.38 6.62-2.53 12.06C52.83 90.2 45 94.44 45 94.44s-7.8-4.25-11.46-9.33C29.65 79.68 31 73.06 31 73.06a15.94 15.94 0 0 0-6 3.79c-1.43-4 .21-10.51.21-10.51a31.85 31.85 0 0 0-5.15 1.5c-.29-4.29 1.79-6.22 1.79-6.22A19.72 19.72 0 0 0 17 64.2a12.21 12.21 0 0 1-.29-4.29c-2.86 2.86-2.19 11.58-2.19 11.58a29.7 29.7 0 0 1 3.05-4.15c-2.57 5.72.29 13.73.29 13.73.29-2.57 3.15-4.86 3.15-4.86 0 8.58 6.29 16.87 6.29 16.87-1.43-5.43-.57-8.08-.57-8.08a34.28 34.28 0 0 0 7.45 11.16 129.87 129.87 0 0 0 11.22 9.19s6.3-5.16 10.45-9.19A40.56 40.56 0 0 0 63.73 85s.43 2.65-1 8.08c0 0 6.29-8.29 6.29-16.87 0 0 2.86 2.29 3.15 4.86 0 0 2.86-8 .29-13.73a19.21 19.21 0 0 1 3.76 4.15z" transform="translate(0 -.29)"/>
	<path class="cls-2" d="M50.92 95.3L45 94.44s7.9-3.86 9.47-10.58c.02 0 .59 6.72-3.55 11.44z" transform="translate(0 -.29)"/>
	<path class="cls-2" d="M39.19 95.3l5.89-.86s-7.9-3.86-9.47-10.58c0 0-.61 6.72 3.58 11.44z" transform="translate(0 -.29)"/>
	<path class="cls-5" d="M61.66 26.39h.24c5-.29 5.86-2.72 5.86-2.72-1.72.29-4.15-1.29-4.15-1.29 4-2.22 5.72-7 6.23-8.73-1.84 5.81-10.13 9.2-10.13 9.2 1.47 1.44 5.61 1.88 5.61 1.88a9.62 9.62 0 0 1-3.66 1.66zM29.43 26.39h-.23c-5-.29-5.86-2.72-5.86-2.72 1.72.29 4.15-1.29 4.15-1.29-4-2.22-5.72-7-6.23-8.73 1.84 5.81 10.13 9.2 10.13 9.2-1.47 1.44-5.61 1.88-5.61 1.88a9.62 9.62 0 0 0 3.65 1.66zM70 13c0 .17-.09.34-.14.5.14-.27.14-.5.14-.5z" transform="translate(0 -.29)"/>
</svg>
