<?xml version="1.0" encoding="utf-8"?>
<!-- Generator: Adobe Illustrator 17.1.0, SVG Export Plug-In . SVG Version: 6.00 Build 0)  -->
<!DOCTYPE svg PUBLIC "-//W3C//DTD SVG 1.1//EN" "http://www.w3.org/Graphics/SVG/1.1/DTD/svg11.dtd">
<svg version="1.1" id="Layer_1" xmlns="http://www.w3.org/2000/svg" xmlns:xlink="http://www.w3.org/1999/xlink" x="0px" y="0px"
	 viewBox="0 0 400 300" enable-background="new 0 0 400 300" xml:space="preserve">
<g id="House">
	<path fill="#666666" d="M65.85-129.422c-4.065,0-7.945,0.146-11.508,0.41c10.369,5.04,21.739,8.34,33.731,9.522
		c5.586-1.053,9.038-2.502,9.038-4.1C97.111-126.811,83.115-129.422,65.85-129.422z"/>
	<rect fill="#F2F2F2" width="400" height="300"/>
	<g>
		<g>
			<path fill="#E5E5E5" d="M110.256,121.392H98.853c-3.784,0-6.852,3.068-6.852,6.852v0.138c0,3.784,3.068,6.852,6.852,6.852h11.404
				c3.784,0,6.852-3.068,6.852-6.852v-0.138C117.108,124.459,114.04,121.392,110.256,121.392z M98.842,130.53
				c-1.225,0-2.218-0.993-2.218-2.218c0-1.225,0.993-2.218,2.218-2.218s2.218,0.993,2.218,2.218
				C101.06,129.537,100.067,130.53,98.842,130.53z"/>
		</g>
		<g>
			<path fill="#E5E5E5" d="M301.147,121.392h-11.404c-3.784,0-6.852,3.068-6.852,6.852v0.138c0,3.784,3.068,6.852,6.852,6.852
				h11.404c3.784,0,6.852-3.068,6.852-6.852v-0.138C307.999,124.459,304.931,121.392,301.147,121.392z M301.158,130.53
				c-1.225,0-2.218-0.993-2.218-2.218c0-1.225,0.993-2.218,2.218-2.218c1.225,0,2.218,0.993,2.218,2.218
				C303.376,129.537,302.383,130.53,301.158,130.53z"/>
		</g>
		<g>
			<path fill="#C2C2C2" d="M250.734,110.555h-41.256c-3.945,0-7.143-3.198-7.143-7.143v-1.323c0-3.945,3.198-7.143,7.143-7.143
				h41.256c3.945,0,7.143,3.198,7.143,7.143v1.323C257.877,107.357,254.679,110.555,250.734,110.555z"/>
		</g>
		<g>
			<path fill="#E5E5E5" d="M287.069,205.054H112.875c-4.011,0-7.262-3.251-7.262-7.262v-86.986c0-4.011,3.251-7.262,7.262-7.262
				h174.195c4.011,0,7.262,3.251,7.262,7.262v86.986C294.331,201.803,291.08,205.054,287.069,205.054z"/>
		</g>
		<g opacity="0.3">
			<rect x="105.613" y="119.248" fill="#333333" width="188.703" height="74.309"/>
		</g>
		<g>
			<rect x="105.684" y="121.491" fill="#D8D8D8" width="188.633" height="69.823"/>
		</g>
		<g opacity="0.1">
			<circle fill="#333333" cx="230.117" cy="154.3" r="48.231"/>
		</g>
		<g>
			<rect x="105.684" y="121.491" fill="#C2C2C2" width="13.67" height="69.823"/>
		</g>
		<g opacity="0.1">
			<circle fill="#5D5D5D" cx="144.871" cy="127.1" r="19.349"/>
		</g>
		<g>
			<circle fill="#E1E1E1" cx="144.871" cy="127.1" r="17.105"/>
		</g>
		<g>
			<circle fill="#8F8F8F" cx="144.871" cy="127.1" r="12.619"/>
		</g>
		<g>
			<circle fill="#EFEFEF" cx="230.117" cy="154.3" r="45.988"/>
		</g>
		<g>
			<circle fill="#8F8F8F" cx="230.117" cy="154.3" r="37.295"/>
		</g>
		<g>
			<circle fill="#D8D8D8" cx="230.117" cy="154.3" r="31.967"/>
		</g>
		<g>
			<circle fill="#8F8F8F" cx="230.117" cy="154.3" r="23.274"/>
		</g>
		<g>
			<circle fill="#FFFFFF" cx="223.358" cy="147.541" r="5.608"/>
		</g>
		<g opacity="0.3">
			<rect x="103.292" y="121.392" fill="#333333" width="2.391" height="13.842"/>
		</g>
		<g opacity="0.3">
			<rect x="294.316" y="121.392" fill="#333333" width="2.391" height="13.842"/>
		</g>
		<g>
			<rect x="118.924" y="97.091" fill="#B8B8B8" width="2.313" height="6.453"/>
		</g>
		<g>
			<rect x="121.238" y="97.091" fill="#E5E5E5" width="2.313" height="6.453"/>
		</g>
		<g>
			<rect x="123.551" y="97.091" fill="#B8B8B8" width="2.313" height="6.453"/>
		</g>
		<g>
			<rect x="125.864" y="97.091" fill="#E5E5E5" width="2.313" height="6.453"/>
		</g>
		<g>
			<rect x="128.178" y="97.091" fill="#B8B8B8" width="2.313" height="6.453"/>
		</g>
		<g>
			<rect x="130.491" y="97.091" fill="#E5E5E5" width="2.313" height="6.453"/>
		</g>
		<g>
			<rect x="132.805" y="97.091" fill="#B8B8B8" width="2.313" height="6.453"/>
		</g>
		<g>
			<rect x="135.118" y="97.091" fill="#E5E5E5" width="2.313" height="6.453"/>
		</g>
		<g>
			<rect x="137.431" y="97.091" fill="#B8B8B8" width="2.313" height="6.453"/>
		</g>
		<g>
			<rect x="139.745" y="97.091" fill="#E5E5E5" width="2.313" height="6.453"/>
		</g>
		<g>
			<rect x="142.058" y="97.091" fill="#B8B8B8" width="2.313" height="6.453"/>
		</g>
		<g>
			<rect x="144.371" y="97.091" fill="#E5E5E5" width="2.313" height="6.453"/>
		</g>
		<g>
			<rect x="146.685" y="97.091" fill="#B8B8B8" width="2.313" height="6.453"/>
		</g>
		<g>
			<rect x="118.924" y="101.468" fill="#B8B8B8" width="30.074" height="2.077"/>
		</g>
		<g>
			<rect x="157.249" y="97.091" fill="#B8B8B8" width="2.313" height="6.453"/>
		</g>
		<g>
			<rect x="159.563" y="97.091" fill="#E5E5E5" width="2.313" height="6.453"/>
		</g>
		<g>
			<rect x="161.876" y="97.091" fill="#B8B8B8" width="2.313" height="6.453"/>
		</g>
		<g>
			<rect x="164.189" y="97.091" fill="#E5E5E5" width="2.313" height="6.453"/>
		</g>
		<g>
			<rect x="166.503" y="97.091" fill="#B8B8B8" width="2.313" height="6.453"/>
		</g>
		<g>
			<rect x="168.816" y="97.091" fill="#E5E5E5" width="2.313" height="6.453"/>
		</g>
		<g>
			<rect x="171.129" y="97.091" fill="#B8B8B8" width="2.313" height="6.453"/>
		</g>
		<g>
			<rect x="173.443" y="97.091" fill="#E5E5E5" width="2.313" height="6.453"/>
		</g>
		<g>
			<rect x="175.756" y="97.091" fill="#B8B8B8" width="2.313" height="6.453"/>
		</g>
		<g>
			<rect x="178.069" y="97.091" fill="#E5E5E5" width="2.313" height="6.453"/>
		</g>
		<g>
			<rect x="180.383" y="97.091" fill="#B8B8B8" width="2.313" height="6.453"/>
		</g>
		<g>
			<rect x="182.696" y="97.091" fill="#E5E5E5" width="2.313" height="6.453"/>
		</g>
		<g>
			<rect x="185.009" y="97.091" fill="#B8B8B8" width="2.313" height="6.453"/>
		</g>
		<g>
			<rect x="157.249" y="101.468" fill="#B8B8B8" width="30.074" height="2.077"/>
		</g>
	</g>
</g>
<g id="Camera">
</g>
</svg>
