<?xml version="1.0" encoding="utf-8"?>
<!-- Generator: Adobe Illustrator 19.2.1, SVG Export Plug-In . SVG Version: 6.00 Build 0)  -->
<svg version="1.1" id="Capa_1" xmlns="http://www.w3.org/2000/svg" xmlns:xlink="http://www.w3.org/1999/xlink" x="0px" y="0px"
	 viewBox="0 0 97.8 97.8" style="enable-background:new 0 0 97.8 97.8;" xml:space="preserve">
<style type="text/css">
	.st0{fill:#114183;}
</style>
<g>
	<path class="st0" d="M48.9,0C21.9,0,0,21.9,0,48.9s21.9,48.9,48.9,48.9s48.9-21.9,48.9-48.9S75.9,0,48.9,0z M67.5,24.9l-6.8,0
		c-5.3,0-6.3,2.5-6.3,6.2v8.1h12.6l0,12.8H54.4v32.8H41.3V52h-11V39.3h11v-9.4c0-10.9,6.7-16.9,16.4-16.9l9.9,0L67.5,24.9L67.5,24.9
		z"/>
</g>
</svg>
