<?xml version="1.0" standalone="no"?>
<!DOCTYPE svg PUBLIC "-//W3C//DTD SVG 20010904//EN"
 "http://www.w3.org/TR/2001/REC-SVG-20010904/DTD/svg10.dtd">
<svg version="1.0" xmlns="http://www.w3.org/2000/svg"
 width="200.000000pt" height="200.000000pt" viewBox="0 0 200.000000 200.000000"
 preserveAspectRatio="xMidYMid meet">
<metadata>
Created by potrace 1.13, written by Peter Selinger 2001-2015
</metadata>
<g transform="translate(0.000000,200.000000) scale(0.100000,-0.100000)"
fill="#000000" stroke="none">
<path d="M1650 1941 c-354 -148 -535 -280 -657 -480 -1 -2 -25 17 -53 42 -113
101 -382 171 -712 184 -156 6 -158 6 -158 -15 0 -16 -7 -21 -32 -24 l-33 -3
-3 -704 c-1 -388 1 -708 5 -712 5 -4 95 -13 201 -18 420 -24 692 -89 721 -172
9 -28 13 -29 71 -29 55 0 61 2 70 24 34 91 291 154 714 175 110 6 203 14 208
19 4 4 7 325 6 713 l-3 704 -32 3 c-25 2 -33 8 -33 23 0 17 -7 19 -65 19 l-65
0 0 138 c0 128 -6 163 -29 162 -4 0 -58 -22 -121 -49z m98 -667 l-3 -656 -120
-52 c-238 -102 -373 -186 -512 -319 l-94 -90 3 639 3 639 27 45 c68 117 301
281 561 396 67 29 125 54 130 54 4 0 6 -295 5 -656z m-1318 350 c315 -38 525
-133 545 -246 3 -18 4 -307 3 -642 l-3 -609 -30 25 c-43 36 -97 62 -205 96
-127 40 -250 60 -457 74 l-173 11 0 652 c0 358 3 655 7 659 9 9 160 -1 313
-20z m1458 -635 l2 -655 -177 -12 c-185 -13 -363 -44 -500 -86 l-78 -25 40 35
c113 98 354 237 527 304 46 18 86 37 90 44 4 6 8 246 8 534 l0 523 43 -3 42
-3 3 -656z m-1818 -44 l0 -655 23 -4 c12 -3 90 -7 172 -10 176 -6 344 -33 480
-76 53 -17 95 -33 93 -35 -1 -2 -42 7 -91 20 -163 44 -422 75 -624 75 l-73 0
0 670 c0 440 3 670 10 670 7 0 10 -225 10 -655z m1880 -15 l0 -670 -79 0
c-192 0 -516 -40 -645 -80 -33 -11 -62 -17 -64 -15 -2 2 38 17 90 33 130 42
317 72 488 78 80 3 155 7 168 10 l22 4 0 655 c0 430 3 655 10 655 7 0 10 -230
10 -670z"/>
</g>
</svg>
