<svg xmlns="http://www.w3.org/2000/svg" xmlns:xlink="http://www.w3.org/1999/xlink" viewBox="6776.742 9685 43 43">
  <defs>
    <style>
      .cls-1 {
        fill: #000;
        fill-rule: evenodd;
      }
    </style>
    <filter id="Close-Icon" x="6776.742" y="9685" width="43" height="43" filterUnits="userSpaceOnUse">
      <feOffset dy="3" input="SourceAlpha"/>
      <feGaussianBlur stdDeviation="3" result="blur"/>
      <feFlood flood-opacity="0.494"/>
      <feComposite operator="in" in2="blur"/>
      <feComposite in="SourceGraphic"/>
    </filter>
  </defs>
  <g class="cls-2" transform="matrix(1, 0, 0, 1, 0, 0)">
    <path id="Close-Icon-2" data-name="Close-Icon" class="cls-1" d="M234.466,451.6a1.318,1.318,0,1,1-1.863,1.864l-3.105-3.1-3.1,3.1a1.318,1.318,0,1,1-1.863-1.864l3.1-3.1-3.1-3.1a1.318,1.318,0,1,1,1.863-1.866l3.1,3.1,3.105-3.1a1.318,1.318,0,1,1,1.863,1.866l-3.1,3.1ZM229.5,436A12.5,12.5,0,1,0,242,448.5,12.5,12.5,0,0,0,229.5,436Z" transform="translate(6568.74 9255)"/>
  </g>
</svg>
