<svg xmlns="http://www.w3.org/2000/svg" viewBox="-893.234 1830 41.706 51.368">
  <g id="noun_27587_cc" transform="translate(-905.763 1825.711)">
    <path id="Path_26" data-name="Path 26" d="M54.087,6.222A4.6,4.6,0,0,1,60.5,5.138c2.075,1.467,2.24,4,.772,6.068s-4.02,2.906-6.09,1.434A4.6,4.6,0,0,1,54.087,6.222Z" transform="translate(-18.055 0)"/>
    <path id="Path_27" data-name="Path 27" d="M59.645,22.833a2.416,2.416,0,0,0-2.724-2.127,2.379,2.379,0,0,0-1.519.887l-2.011,2.9-1.984,2.9s-2.813-2.73-3.69-3.44a22.337,22.337,0,0,0-2.859-1.938,11.832,11.832,0,0,0-5.214-1.2l-.8.116-7.852,1.136A3.493,3.493,0,0,0,28.62,23.8l-3.415,6.027a2.735,2.735,0,0,0-.445,1.794,2.261,2.261,0,0,0,2.551,1.8,2.969,2.969,0,0,0,1.894-1.284l2.98-4.845,3.454-.5L31.531,36.11c-2.285,4.018,1.231,6.561,2.483,7.812l.439.38,6.48,5.613-4.607,7.857a2.141,2.141,0,0,0-.332,1.24,2.773,2.773,0,0,0,2.73,2.81,2.891,2.891,0,0,0,2.562-1.573l1.195-2.092,3.9-6.828a4.589,4.589,0,0,0-.574-4.823l-6.616-6.616,1.766-3.049,4.128-7.075,5.352,3.145A2.518,2.518,0,0,0,54.1,32.13L55.966,29.4l3-4.435a.188.188,0,0,0,.017-.028A3.331,3.331,0,0,0,59.645,22.833Z" transform="translate(-5.412 -7.264)"/>
    <path id="Path_28" data-name="Path 28" d="M27.913,62.75l-.438-.381a15.09,15.09,0,0,1-2.427-2.649c-.03-.047-5.627,9.32-5.627,9.32L13.2,75.689a2.144,2.144,0,0,0-.6,1.137,2.772,2.772,0,0,0,2.043,3.342,2.893,2.893,0,0,0,2.846-.97l1.626-1.779,5.306-5.8c1.375-1.68,4.058-5.438,5.348-7.26Z" transform="translate(0 -24.583)"/>
  </g>
</svg>
