<svg id="Õ_xBA__x2264__x201E__x5F_1" xmlns="http://www.w3.org/2000/svg" viewBox="0 0 100 100">
	<path d="M82.7 36.5l-1.1-1.1a5.6 5.6 0 0 0-3.4-1.2H66.4v-1.3l-.1-1.4a9.4 9.4 0 0 0-9.4-7.9H45.1a9.5 9.5 0 0 0-9.5 9.3v1.3H23.8a5.8 5.8 0 0 0-5.7 5.7v34.3c0 1.5.6 2.9 1.6 3.9l.1.1c1 1 2.4 1.7 4 1.7h54.4c3.1 0 5.7-2.6 5.7-5.7V39.9a5 5 0 0 0-1.2-3.4zm-40.1-3.6c0-1.3 1.1-2.3 2.5-2.3h11.8c1.3 0 2.5 1.1 2.5 2.3v1.3H42.6v-1.3zm8.2 39.8A15.6 15.6 0 0 1 35.1 57a15.7 15.7 0 1 1 31.4 0c0 8.7-7 15.7-15.7 15.7z"/>
	<path d="M61.2 53.6v6.9h-7v6.9h-6.8v-6.9h-7v-6.9h7v-7h6.8v7z"/>
</svg>
