<svg data-name="Layer 1" xmlns="http://www.w3.org/2000/svg" width="80" height="80" viewBox="0 0 80 80">
  <path d="M40 27.48a2.4 2.4 0 0 1-2.41-2.25l-.5-9.29a2.82 2.82 0 0 1 .8-2.13 3 3 0 0 1 4.23 0 2.82 2.82 0 0 1 .8 2.13l-.25 4.71a.49.49 0 0 1-.53.47.5.5 0 0 1-.48-.53l.25-4.71a1.84 1.84 0 0 0-.52-1.39 2 2 0 0 0-2.75 0 1.84 1.84 0 0 0-.52 1.39l.5 9.29a1.4 1.4 0 0 0 2.8 0v-.66A.5.5 0 0 1 42 24a.5.5 0 0 1 .48.53v.66A2.4 2.4 0 0 1 40 27.48z" fill="#3e3e3e"/>
  <path d="M42 23.56a.64.64 0 0 1-.19 0 .56.56 0 0 1-.16-.11.49.49 0 0 1 0-.71.55.55 0 0 1 .72 0 .54.54 0 0 1 .14.36.5.5 0 0 1-.51.5zM40 33.67a2.56 2.56 0 0 1-1.54-.51.49.49 0 0 1-.1-.7.51.51 0 0 1 .71-.1 1.52 1.52 0 1 0-.61-1.21 1.59 1.59 0 0 0 0 .29.5.5 0 0 1-.41.58.51.51 0 0 1-.59-.4 2.51 2.51 0 0 1 0-.48A2.56 2.56 0 1 1 40 33.67z" fill="#3e3e3e"/>
  <path d="M53.64 42.35a.51.51 0 0 1-.36-.15.49.49 0 0 1 0-.71L57 37.8a.51.51 0 0 1 .72 0 .49.49 0 0 1 0 .71L54 42.2a.51.51 0 0 1-.36.15z" fill="#b3b3b3"/>
  <path d="M57.39 42.35a.51.51 0 0 1-.39-.15l-3.76-3.7a.49.49 0 0 1 0-.71.51.51 0 0 1 .72 0l3.76 3.7a.49.49 0 0 1 0 .71.51.51 0 0 1-.33.15z" fill="#c8c8c8"/>
  <path d="M66.94 62.25a.5.5 0 0 1-.51-.47l-.28-5.53c-.16-.78-1.44-2.26-6.53-4.52a.5.5 0 0 1-.25-.66.51.51 0 0 1 .67-.25c4.53 2 6.79 3.69 7.12 5.31l.29 5.6a.5.5 0 0 1-.48.52z" fill="#e8e8e8"/>
  <path d="M59.83 51.77a.5.5 0 0 1-.21 0c-1.3-.58-2.81-1.19-4.5-1.81a5.36 5.36 0 0 1-.75-.3c-6.14-2.18-6.79-2.53-7-2.69-.49-.35-1-1.28-1-5.09a5.7 5.7 0 0 1 1.37-3.56 6.29 6.29 0 0 0 .85-1.54.51.51 0 0 1 .66-.28.5.5 0 0 1 .28.65 7.22 7.22 0 0 1-1 1.79 4.74 4.74 0 0 0-1.15 2.94c0 3.69.51 4.22.62 4.29l.08.06c.14.08 1.25.57 6.69 2.51a5.11 5.11 0 0 0 .69.27c1.74.64 3.27 1.26 4.58 1.85a.5.5 0 0 1 .25.66.51.51 0 0 1-.46.25z" fill="#939393"/>
  <path d="M31 47.71a.51.51 0 0 1-.46-.3.5.5 0 0 1 .26-.66 4.32 4.32 0 0 0 1.38-.75c.1-.11.43-.69.43-3.33v-.83a4.74 4.74 0 0 0-1.16-2.94c-.9-1.14-1.58-3-2.07-5.82a5.71 5.71 0 0 0-.77-2 11.27 11.27 0 0 1-1.2-3.49 4.13 4.13 0 0 1-.03-2.59 6.47 6.47 0 0 0 .33-1.24c-.19-1.41-.37-2.93-.56-4.5-.2-2.26.78-4.69 2.92-7.22S35.56 8.15 40 8.15s7.78 1.3 9.93 3.85 3.12 5 2.92 7.21c-.19 1.58-.38 3.11-.56 4.58a11.78 11.78 0 0 0 .33 1.21 4.22 4.22 0 0 1-.07 2.66 11.17 11.17 0 0 1-1.18 3.44 5.64 5.64 0 0 0-.77 2 20.44 20.44 0 0 1-1.07 4 .51.51 0 0 1-.66.28.5.5 0 0 1-.28-.65 19.48 19.48 0 0 0 1-3.84 6.64 6.64 0 0 1 .92-2.4 10.27 10.27 0 0 0 1.05-3.15 3.28 3.28 0 0 0 .08-2.09 5.83 5.83 0 0 1-.37-1.53c.19-1.53.38-3.05.56-4.62.17-2-.73-4.14-2.69-6.47s-5-3.48-9.15-3.48-7.2 1.17-9.15 3.48-2.84 4.51-2.68 6.49c.18 1.55.37 3.07.56 4.54a5.31 5.31 0 0 1-.37 1.59 3.19 3.19 0 0 0 .07 2 10.36 10.36 0 0 0 1.06 3.2 6.71 6.71 0 0 1 .92 2.39 12.64 12.64 0 0 0 1.87 5.39 5.7 5.7 0 0 1 1.37 3.56v.83c0 2.86-.37 3.64-.69 4a5.14 5.14 0 0 1-1.7 1 .52.52 0 0 1-.25.09z" fill="#727272"/>
  <path d="M13.06 62.25a.5.5 0 0 1-.51-.5 41.06 41.06 0 0 1 .29-5.6c.42-2.1 4.14-4.37 11.69-7.17 1.14-.37 2.49-.84 4.08-1.39.9-.31 1.65-.59 2.23-.84a.51.51 0 0 1 .67.26.5.5 0 0 1-.26.66c-.6.26-1.37.55-2.3.87q-2.39.83-4.08 1.38c-8.7 3.23-10.8 5.26-11 6.4a40.92 40.92 0 0 0-.27 5.43.5.5 0 0 1-.54.5z" fill="#c4c4c4"/>
  <path d="M72.51 74a3.52 3.52 0 1 1 3.58-3.52A3.55 3.55 0 0 1 72.51 74zm0-6a2.52 2.52 0 1 0 2.56 2.52A2.55 2.55 0 0 0 72.51 68z" fill="#e8e8e8"/>
  <path d="M3.46 63.27a1.89 1.89 0 1 1 1.91-1.89 1.9 1.9 0 0 1-1.91 1.89zm0-2.77a.89.89 0 1 0 .9.89.89.89 0 0 0-.9-.89zM66.79 7.18a1.89 1.89 0 1 1 1.91-1.89 1.9 1.9 0 0 1-1.91 1.89zm0-2.77a.89.89 0 1 0 .9.89.89.89 0 0 0-.9-.89zM12 7.18a1.89 1.89 0 1 1 1.91-1.89A1.9 1.9 0 0 1 12 7.18zm0-2.77a.89.89 0 1 0 .9.89.89.89 0 0 0-.9-.89z" fill="#c4c4c4"/>
  <path d="M7.75 12.69a2.1 2.1 0 1 1 2.13-2.1 2.12 2.12 0 0 1-2.13 2.1zm0-3.19a1.1 1.1 0 1 0 1.11 1.1 1.11 1.11 0 0 0-1.11-1.1zM72.51 12a3.22 3.22 0 1 1 3.27-3.22A3.25 3.25 0 0 1 72.51 12zm0-5.44a2.22 2.22 0 1 0 2.25 2.22 2.24 2.24 0 0 0-2.25-2.23zM6.22 19.72a.49.49 0 0 1-.22-.07.48.48 0 0 1-.21-.65.54.54 0 0 1 .71-.19.47.47 0 0 1 .19.66.54.54 0 0 1-.47.25zM8 17.16a.51.51 0 0 1-.3-.09.5.5 0 0 1-.11-.7 39.91 39.91 0 0 1 5.27-5.87.51.51 0 0 1 .72 0 .5.5 0 0 1 0 .71A38.91 38.91 0 0 0 8.37 17a.51.51 0 0 1-.37.16z" fill="#999"/>
  <path d="M14.76 80a10.44 10.44 0 0 1-10.5-10.35 10.26 10.26 0 0 1 3.2-7.38 38.85 38.85 0 0 1-4.6-37.52.51.51 0 0 1 .66-.28.5.5 0 0 1 .28.65A37.87 37.87 0 0 0 8.54 62a.49.49 0 0 1-.07.67 9.17 9.17 0 0 0-3.19 6.95 9.48 9.48 0 0 0 17.6 4.78.51.51 0 0 1 .65-.2A39.1 39.1 0 0 0 40 77.84c21.5 0 39-17.23 39-38.42S61.5 1 40 1a39.15 39.15 0 0 0-23.22 7.56.51.51 0 0 1-.71-.1.49.49 0 0 1 .11-.7A40.17 40.17 0 0 1 40 0c22.06 0 40 17.68 40 39.42S62.06 78.84 40 78.84a40.09 40.09 0 0 1-16.49-3.54 10.43 10.43 0 0 1-8.75 4.7z" fill="#999"/>
  <path d="M68 47.66a.51.51 0 0 1-.36-.15l-4-3.94a.49.49 0 0 1 0-.71l4-3.94a.53.53 0 0 1 .72 0l4 3.94a.49.49 0 0 1 0 .71l-4 3.94a.51.51 0 0 1-.36.15zm-3.28-4.44L68 46.46l3.28-3.23L68 40z" fill="#c8c8c8"/>
  <path d="M15 37.6h-.14a.5.5 0 0 1-.35-.62l.58-2.06a.51.51 0 0 1 .62-.35.5.5 0 0 1 .35.62l-.58 2.06a.51.51 0 0 1-.48.35z" fill="#3e3e3e"/>
  <path d="M15.59 35.54a.51.51 0 0 1-.49-.37.5.5 0 0 1 .36-.61l2.1-.53a.51.51 0 0 1 .62.36.5.5 0 0 1-.36.61l-2.1.53z" fill="#3e3e3e"/>
  <path d="M15.59 35.54a.51.51 0 0 1-.36-.15l-1.52-1.52a.49.49 0 0 1 0-.71.51.51 0 0 1 .72 0l1.52 1.52a.49.49 0 0 1 0 .71.51.51 0 0 1-.36.15z" fill="#3e3e3e"/>
  <path d="M19.8 22.44a2.35 2.35 0 1 1 2.39-2.35 2.37 2.37 0 0 1-2.39 2.35zm0-3.7a1.35 1.35 0 1 0 1.37 1.35 1.36 1.36 0 0 0-1.37-1.35z" fill="#c8c8c8"/>
  <path d="M30.38 60.9a.51.51 0 0 1-.36-.15l-2.66-2.62a.49.49 0 0 1 0-.71.51.51 0 0 1 .72 0L30.74 60a.49.49 0 0 1 0 .71.51.51 0 0 1-.36.19z" fill="#999"/>
  <path d="M49.77 65.45l-3.08-.23a.51.51 0 0 1-.42-.28l-1.34-2.75a.49.49 0 0 1 0-.5l1.74-2.52a.51.51 0 0 1 .46-.22l3.08.23a.51.51 0 0 1 .42.28L52 62.22a.49.49 0 0 1 0 .5l-1.74 2.52a.51.51 0 0 1-.49.21zM47 64.25l2.5.18 1.41-2-1.09-2.23-2.48-.2-1.41 2zM66.94 26.63H60.3a.51.51 0 0 1-.44-.25.49.49 0 0 1 0-.5l3.32-5.67a.51.51 0 0 1 .44-.25.51.51 0 0 1 .44.25l3.32 5.67a.49.49 0 0 1 0 .5.51.51 0 0 1-.44.25zm-5.76-1h4.88l-2.44-4.17z" fill="#3e3e3e"/>
  <path d="M13.06 64.15a.48.48 0 0 1-.36-.15.47.47 0 0 1-.15-.35.5.5 0 0 1 .15-.36.45.45 0 0 1 .16-.1.52.52 0 0 1 .39 0 .46.46 0 0 1 .16.1.44.44 0 0 1 .11.17.4.4 0 0 1 0 .19.47.47 0 0 1-.15.35.48.48 0 0 1-.31.15z" fill="#c4c4c4"/>
</svg>
