<!-- Generated by IcoMoon.io -->
<svg version="1.1" xmlns="http://www.w3.org/2000/svg" width="34" height="32" viewBox="0 0 34 32">
<title>untitled238</title>
<path d="M7.429 22.857q-1.179 0-2.018-0.839t-0.839-2.018v-12.571q0-1.179 0.839-2.018t2.018-0.839h19.429q1.179 0 2.018 0.839t0.839 2.018v12.571q0 1.179-0.839 2.018t-2.018 0.839h-19.429zM6.857 7.429v12.571q0 0.232 0.17 0.402t0.402 0.17h19.429q0.232 0 0.402-0.17t0.17-0.402v-12.571q0-0.232-0.17-0.402t-0.402-0.17h-19.429q-0.232 0-0.402 0.17t-0.17 0.402zM31.429 24h2.857v1.714q0 0.714-0.839 1.214t-2.018 0.5h-28.571q-1.179 0-2.018-0.5t-0.839-1.214v-1.714h31.429zM18.571 25.714q0.286 0 0.286-0.286t-0.286-0.286h-2.857q-0.286 0-0.286 0.286t0.286 0.286h2.857z"></path>
</svg>
