<!-- Generated by IcoMoon.io -->
<svg version="1.1" xmlns="http://www.w3.org/2000/svg" width="32" height="32" viewBox="0 0 32 32">
<title>untitled382</title>
<path d="M26.286 24.571v-8.571h-12.571v-12.571h-8.571q-1.661 0-2.83 1.17t-1.17 2.83v8.571h12.571v12.571h8.571q1.661 0 2.83-1.17t1.17-2.83zM27.429 7.429v17.143q0 2.125-1.509 3.634t-3.634 1.509h-17.143q-2.125 0-3.634-1.509t-1.509-3.634v-17.143q0-2.125 1.509-3.634t3.634-1.509h17.143q2.125 0 3.634 1.509t1.509 3.634z"></path>
</svg>
