<!-- Generated by IcoMoon.io -->
<svg version="1.1" xmlns="http://www.w3.org/2000/svg" width="32" height="32" viewBox="0 0 32 32">
<title>untitled550</title>
<path d="M11.429 2.286q-0.946 0-1.616 0.67t-0.67 1.616v16l-2.696-3.607q-0.732-0.964-1.911-0.964-0.929 0-1.589 0.679t-0.661 1.607q0 0.768 0.464 1.375l6.857 9.143q0.679 0.911 1.821 0.911h12.821q0.393 0 0.705-0.241t0.402-0.616l1.643-6.571q0.429-1.714 0.429-3.464v-3.875q0-0.732-0.5-1.268t-1.214-0.536-1.214 0.5-0.5 1.214h-0.571v-1.089q0-0.857-0.571-1.455t-1.429-0.598q-0.821 0-1.411 0.589t-0.589 1.411v1.143h-0.571v-1.607q0-0.982-0.661-1.688t-1.625-0.705q-0.946 0-1.616 0.67t-0.67 1.616v1.714h-0.571v-10.179q0-0.982-0.661-1.688t-1.625-0.705zM11.429 0q1.911 0 3.241 1.384t1.33 3.295v3.929q0.393-0.036 0.571-0.036 1.768 0 3.089 1.232 0.839-0.375 1.768-0.375 2.018 0 3.286 1.554 0.482-0.125 1-0.125 1.679 0 2.839 1.205t1.161 2.884v3.875q0 2.071-0.5 4.018l-1.643 6.571q-0.286 1.143-1.214 1.866t-2.107 0.723h-12.821q-1.071 0-2.045-0.491t-1.616-1.33l-6.857-9.143q-0.911-1.214-0.911-2.75 0-1.875 1.33-3.223t3.205-1.348q1.268 0 2.321 0.625v-9.768q0-1.893 1.339-3.232t3.232-1.339zM13.714 25.143v-6.857h-0.571v6.857h0.571zM18.286 25.143v-6.857h-0.571v6.857h0.571zM22.857 25.143v-6.857h-0.571v6.857h0.571z"></path>
</svg>
