<!-- Generated by IcoMoon.io -->
<svg version="1.1" xmlns="http://www.w3.org/2000/svg" width="23" height="32" viewBox="0 0 23 32">
<title>untitled530</title>
<path d="M20.232 18.625q0.554 0.536 0.25 1.232-0.304 0.714-1.054 0.714h-6.821l3.589 8.5q0.179 0.446 0 0.875t-0.607 0.625l-3.161 1.339q-0.446 0.179-0.875 0t-0.625-0.607l-3.411-8.071-5.571 5.571q-0.339 0.339-0.804 0.339-0.214 0-0.429-0.089-0.714-0.304-0.714-1.054v-26.857q0-0.75 0.714-1.054 0.214-0.089 0.429-0.089 0.482 0 0.804 0.339z"></path>
</svg>
