<!-- Generated by IcoMoon.io -->
<svg version="1.1" xmlns="http://www.w3.org/2000/svg" width="32" height="32" viewBox="0 0 32 32">
<title>untitled534</title>
<path d="M18.286 22.286v7.429h-16.571q-0.714 0-1.214-0.5t-0.5-1.214v-24q0-0.714 0.5-1.214t1.214-0.5h24q0.714 0 1.214 0.5t0.5 1.214v16.571h-7.429q-0.714 0-1.214 0.5t-0.5 1.214zM20.571 22.857h6.804q-0.268 1.464-1.161 2.357l-3.286 3.286q-0.893 0.893-2.357 1.161v-6.804z"></path>
</svg>
