<svg id="logo" width="488" height="488" aria-label="Baldurs Photography." xmlns="http://www.w3.org/2000/svg">
	<style>
		.hammer, .circle { fill: #fff; }
	</style>
	<path class="hammer" d="M92.395 130.614l24.023-26.207v221.749l-24.023-26.207V130.614z" transform="rotate(18 243 243)"/>
	<path class="hammer" d="M371.43 130.614l24.022-26.207v221.749l-24.022-26.207V130.614z" transform="scale(-1 1) rotate(-18 140.441 2663.952)"/>
	<path class="hammer" d="M263.063 89.624l7.656 9.24h-53.59l7.656-9.24h38.278zM270.719 456.235l-53.59-28.494v-45.463l53.59 28.494v45.463zm0 6.279v6.855h-53.59v-35.35l53.59 28.495zm0-58.02L217.129 376v-40.898l53.59 28.494v40.898zm-48.18-72.794h48.18v25.617l-48.18-25.617z" transform="rotate(18 243 243)"/>
	<path class="circle" d="M243 486C108.795 486 0 377.205 0 243 0 108.795 108.795 0 243 0c134.205 0 243 108.795 243 243 0 134.205-108.795 243-243 243zm0-24.023c120.938 0 218.977-98.04 218.977-218.977 0-120.938-98.04-218.977-218.977-218.977-120.938 0-218.977 98.04-218.977 218.977 0 120.938 98.04 218.977 218.977 218.977z" transform="rotate(18 243 243)"/>
	<path class="hammer" d="M247.451 205.86l3.824-64.495-23.058 82.81h11.082l-3.823 64.496 23.058-82.81h-11.083zM121.962 104.408h243.924v221.749H121.962v-221.75z" transform="rotate(18 243 243)"/>
</svg>
