<?xml version="1.0" encoding="utf-8"?>
<!-- Generator: Adobe Illustrator 16.0.0, SVG Export Plug-In . SVG Version: 6.00 Build 0)  -->
<!DOCTYPE svg PUBLIC "-//W3C//DTD SVG 1.1//EN" "http://www.w3.org/Graphics/SVG/1.1/DTD/svg11.dtd">
<svg version="1.1" id="Layer_2" xmlns="http://www.w3.org/2000/svg" xmlns:xlink="http://www.w3.org/1999/xlink" x="0px" y="0px"
	 width="864px" height="864px" viewBox="0 0 864 864" enable-background="new 0 0 864 864" xml:space="preserve">
<polygon fill="#397237" points="418.037,145 496.037,723 338.037,723 "/>
<g>
	<polygon fill="#E2C675" points="417.528,88 433.742,120.854 470,126.123 443.764,151.697 449.958,187.808 417.528,170.759 
		385.098,187.808 391.292,151.697 365.056,126.123 401.313,120.854 	"/>
	<circle fill="#E2C675" cx="422" cy="223" r="6"/>
	<circle fill="#E2C675" cx="412" cy="271" r="8"/>
	<circle fill="#E2C675" cx="424" cy="327" r="7"/>
	<circle fill="#E2C675" cx="404" cy="367" r="7"/>
	<circle fill="#E2C675" cx="427.5" cy="395.5" r="7.5"/>
	<circle fill="#E2C675" cx="399" cy="485" r="6"/>
	<circle fill="#E2C675" cx="377" cy="570" r="6"/>
	<circle fill="#E2C675" cx="415.5" cy="589.5" r="8.5"/>
	<circle fill="#E2C675" cx="393" cy="617" r="8"/>
	<circle fill="#E2C675" cx="371" cy="637" r="7"/>
	<circle fill="#E2C675" cx="369" cy="708" r="8"/>
	<circle fill="#E2C675" cx="395" cy="681" r="8"/>
	<circle fill="#E2C675" cx="427" cy="704" r="8"/>
	<circle fill="#E2C675" cx="462" cy="683" r="9"/>
	<circle fill="#E2C675" cx="444.5" cy="645.5" r="8.5"/>
	<circle fill="#E2C675" cx="418" cy="198" r="4"/>
	<circle fill="#E2C675" cx="420" cy="245" r="6"/>
	<circle fill="#E2C675" cx="430.5" cy="294.5" r="5.5"/>
	<circle fill="#E2C675" cx="408" cy="307" r="6"/>
	<circle fill="#E2C675" cx="427.5" cy="358.5" r="5.5"/>
	<circle fill="#E2C675" cx="405" cy="407" r="5"/>
	<circle fill="#E2C675" cx="437" cy="498" r="5"/>
	<circle fill="#E2C675" cx="394.5" cy="450.5" r="5.5"/>
	<circle fill="#E2C675" cx="439" cy="450" r="7"/>
	<circle fill="#E2C675" cx="374" cy="538" r="5"/>
	<circle fill="#E2C675" cx="440" cy="570" r="6"/>
	<circle fill="#E2C675" cx="459" cy="548" r="6"/>
	<circle fill="#E2C675" cx="361" cy="672" r="5"/>
	<circle fill="#E2C675" cx="462" cy="578" r="5.5"/>
	<circle fill="#E2C675" cx="430.5" cy="670.5" r="4.5"/>
	<circle fill="#E2C675" cx="476.5" cy="709.5" r="6.5"/>
	<circle fill="#E2C675" cx="415" cy="505" r="5"/>
	<circle fill="#E2C675" cx="405" cy="552" r="5"/>
	<circle fill="#E2C675" cx="463" cy="621" r="5"/>
</g>
<g>
	<g>
		<path fill="#7E141F" d="M233.341,266.898v-4.636h89.362v4.636h-5.454c-4.957,0-8.924,0.877-11.898,2.631
			c-2.066,1.171-3.718,3.175-4.957,6.014c-0.91,2.005-1.363,7.267-1.363,15.786v83.189c0,16.287-1.611,28.127-4.834,35.519
			s-8.945,13.574-17.166,18.542c-8.223,4.969-18.117,7.455-29.685,7.455c-14.129,0-25.553-3.759-34.27-11.276
			C204.357,417.24,200,408.93,200,399.825c0-5.845,1.776-10.586,5.33-14.22c3.552-3.633,7.89-5.45,13.014-5.45
			c5.039,0,9.274,1.628,12.704,4.886c3.428,3.257,5.144,7.266,5.144,12.027c0,2.339-0.29,4.385-0.867,6.139
			c-0.332,0.836-1.633,2.944-3.904,6.327c-2.273,3.382-3.408,5.785-3.408,7.204c0,2.173,1.072,4.052,3.222,5.638
			c3.14,2.339,7.229,3.508,12.271,3.508c3.552,0,6.485-0.918,8.8-2.756c2.312-1.836,3.945-4.698,4.896-8.582
			c0.949-3.884,1.426-14.678,1.426-32.386v-90.832c0-8.686-0.477-14.114-1.426-16.287c-0.95-2.171-2.81-4.072-5.577-5.701
			c-2.77-1.628-6.507-2.443-11.217-2.443H233.341z"/>
		<path fill="#7E141F" d="M412.887,259.882c26.771-1.002,48.523,6.891,65.255,23.679c16.732,16.788,25.099,37.795,25.099,63.018
			c0,21.549-6.239,40.51-18.715,56.879c-16.527,21.718-39.869,32.575-70.027,32.575c-30.242,0-53.626-10.356-70.151-31.071
			c-13.056-16.369-19.582-35.788-19.582-58.257c0-25.224,8.489-46.25,25.47-63.081C367.214,266.794,388.099,258.88,412.887,259.882z
			 M414.374,267.9c-15.369,0-27.062,7.936-35.075,23.804c-6.528,13.029-9.792,31.74-9.792,56.127
			c0,28.984,5.039,50.408,15.121,64.271c7.022,9.69,16.856,14.533,29.498,14.533c8.51,0,15.617-2.086,21.318-6.264
			c7.27-5.344,12.931-13.885,16.979-25.621c4.048-11.734,6.073-27.04,6.073-45.917c0-22.467-2.066-39.277-6.197-50.427
			c-4.133-11.15-9.399-19.022-15.802-23.616C430.094,270.198,422.719,267.9,414.374,267.9z"/>
		<path fill="#7E141F" d="M672.694,262.262v4.636c-5.536,0.752-9.791,2.38-12.766,4.886c-4.133,3.508-10.659,13.073-19.583,28.69
			l-36.438,61.515v41.094c0,8.77,0.453,14.22,1.363,16.35c0.908,2.13,2.705,4.009,5.392,5.638c2.684,1.629,6.259,2.443,10.721,2.443
			h9.42v4.636h-94.32v-4.636h8.8c4.958,0,8.882-0.877,11.774-2.631c2.148-1.168,3.843-3.173,5.082-6.014
			c0.908-2.004,1.363-7.267,1.363-15.786v-34.078l-39.537-72.791c-7.852-14.365-13.386-22.822-16.608-25.371
			c-3.223-2.546-7.52-3.862-12.891-3.946v-4.636h80.562v4.636h-3.594c-4.877,0-8.285,0.71-10.226,2.13
			c-1.942,1.421-2.913,2.925-2.913,4.51c0,3.007,3.305,10.567,9.916,22.677l30.365,56.253l30.242-51.242
			c7.518-12.528,11.278-20.838,11.278-24.932c0-2.255-1.074-4.134-3.223-5.638c-2.81-2.087-7.975-3.34-15.492-3.759v-4.636H672.694z
			"/>
	</g>
	<g>
		<path fill="#7E141F" d="M332.309,578.229v2.095c-1.361,0.113-2.507,0.51-3.438,1.188c-0.932,0.68-1.755,1.719-2.471,3.114
			c-0.215,0.453-1.343,3.378-3.384,8.775l-22.828,63.353h-2.095l-18.047-49.481l-19.873,49.481h-1.988l-23.955-62.673
			c-2.436-6.303-4.136-10.115-5.103-11.437s-2.597-2.095-4.888-2.321v-2.095h31.582v2.095c-2.543,0.076-4.234,0.481-5.075,1.217
			c-0.842,0.736-1.263,1.652-1.263,2.746c0,1.435,0.877,4.473,2.632,9.115l14.288,37.253l11.44-29.101l-3.008-8.152
			c-1.647-4.453-2.919-7.426-3.813-8.917c-0.896-1.49-1.926-2.557-3.089-3.198c-1.164-0.642-2.873-0.963-5.129-0.963v-2.095h35.288
			v2.095c-2.471,0.038-4.243,0.246-5.317,0.623c-0.752,0.265-1.343,0.707-1.772,1.33s-0.645,1.33-0.645,2.123
			c0,0.869,0.806,3.529,2.417,7.982l13.267,36.348l11.871-32.894c1.253-3.397,2.022-5.718,2.31-6.964
			c0.286-1.245,0.43-2.396,0.43-3.453c0-1.548-0.502-2.765-1.504-3.652c-1.003-0.886-2.919-1.367-5.747-1.443v-2.095H332.309z"/>
		<path fill="#7E141F" d="M368.018,577.153c11.602-0.452,21.028,3.114,28.279,10.701c7.251,7.586,10.877,17.079,10.877,28.478
			c0,9.737-2.704,18.306-8.11,25.703c-7.162,9.813-17.278,14.72-30.348,14.72c-13.105,0-23.239-4.68-30.4-14.04
			c-5.659-7.397-8.487-16.173-8.487-26.326c0-11.398,3.68-20.9,11.038-28.506S357.275,576.701,368.018,577.153z M368.662,580.777
			c-6.66,0-11.728,3.586-15.2,10.757c-2.829,5.888-4.243,14.343-4.243,25.363c0,13.098,2.184,22.779,6.553,29.044
			c3.043,4.379,7.305,6.567,12.783,6.567c3.688,0,6.768-0.943,9.238-2.831c3.15-2.415,5.604-6.274,7.358-11.577
			s2.633-12.22,2.633-20.75c0-10.152-0.896-17.749-2.687-22.788c-1.79-5.038-4.073-8.596-6.848-10.672
			C375.475,581.815,372.278,580.777,368.662,580.777z"/>
		<path fill="#7E141F" d="M436.629,620.012v21.514c0,4.152,0.241,6.766,0.725,7.842c0.483,1.075,1.334,1.935,2.552,2.575
			c1.217,0.643,3.491,0.963,6.821,0.963V655H409.45v-2.095c3.365,0,5.648-0.33,6.849-0.991c1.199-0.659,2.041-1.519,2.524-2.575
			s0.725-3.661,0.725-7.813v-49.821c0-4.151-0.241-6.766-0.725-7.842c-0.483-1.075-1.334-1.934-2.552-2.575
			s-3.491-0.963-6.821-0.963v-2.095h33.839c8.809,0,15.254,0.643,19.336,1.925c4.082,1.283,7.412,3.651,9.99,7.105
			c2.578,3.453,3.867,7.501,3.867,12.144c0,5.662-1.934,10.343-5.801,14.041c-2.471,2.341-5.927,4.096-10.366,5.266l17.51,25.986
			c2.292,3.359,3.922,5.454,4.889,6.284c1.468,1.17,3.169,1.812,5.103,1.925V655h-22.936l-23.473-34.988H436.629z M436.629,582.362
			v33.63h3.062c4.977,0,8.701-0.481,11.172-1.444c2.471-0.962,4.413-2.697,5.828-5.208c1.414-2.51,2.121-5.784,2.121-9.823
			c0-5.85-1.298-10.171-3.895-12.965c-2.596-2.793-6.776-4.189-12.541-4.189H436.629z"/>
		<path fill="#7E141F" d="M558.355,628.051L555.616,655h-64.669v-2.095h2.417c2.112,0,3.813-0.396,5.103-1.189
			c0.931-0.527,1.646-1.434,2.148-2.717c0.394-0.906,0.591-3.284,0.591-7.134v-50.501c0-3.925-0.197-6.378-0.591-7.36
			c-0.395-0.98-1.19-1.84-2.39-2.576c-1.2-0.735-2.82-1.104-4.861-1.104h-2.417v-2.095h38.834v2.095h-3.169
			c-2.113,0-3.813,0.396-5.103,1.188c-0.932,0.529-1.665,1.436-2.202,2.718c-0.395,0.906-0.591,3.284-0.591,7.134v48.916
			c0,3.926,0.215,6.426,0.645,7.501c0.43,1.076,1.271,1.878,2.524,2.406c0.895,0.34,3.062,0.51,6.499,0.51h6.069
			c3.867,0,7.09-0.717,9.668-2.151c2.578-1.434,4.808-3.698,6.688-6.794c1.88-3.095,3.66-7.662,5.344-13.701H558.355z"/>
		<path fill="#7E141F" d="M562.11,655v-2.095h2.417c2.112,0,3.733-0.349,4.861-1.048c1.128-0.697,1.96-1.65,2.497-2.858
			c0.322-0.793,0.483-3.171,0.483-7.134v-50.501c0-3.925-0.197-6.378-0.591-7.36c-0.395-0.98-1.19-1.84-2.39-2.576
			c-1.2-0.735-2.82-1.104-4.861-1.104h-2.417v-2.095h32.604c8.701,0,15.701,1.245,21.001,3.736
			c6.48,3.058,11.396,7.682,14.744,13.871c3.348,6.19,5.022,13.191,5.022,21.004c0,5.398-0.824,10.371-2.472,14.919
			c-1.646,4.548-3.777,8.304-6.392,11.266c-2.614,2.964-5.631,5.342-9.05,7.134c-3.42,1.793-7.601,3.181-12.542,4.161
			c-2.185,0.453-5.622,0.68-10.312,0.68H562.11z M589.88,582.589v59.899c0,3.17,0.143,5.114,0.43,5.831
			c0.286,0.718,0.77,1.265,1.45,1.642c0.967,0.566,2.363,0.85,4.189,0.85c5.979,0,10.545-2.151,13.696-6.454
			c4.297-5.812,6.445-14.833,6.445-27.062c0-9.851-1.469-17.721-4.404-23.608c-2.328-4.604-5.317-7.737-8.97-9.398
			C600.139,583.118,595.859,582.552,589.88,582.589z"/>
	</g>
	<g>
		<path fill="#7E141F" d="M315.01,472.064c-0.432-0.118-0.745-0.446-0.937-0.981c-0.192-0.534-0.097-0.921,0.288-1.159
			c2.017-1.01,3.936-1.752,5.761-2.229c1.823-0.476,3.563-0.772,5.22-0.892s3.228-0.09,4.716,0.089
			c1.487,0.178,2.928,0.416,4.32,0.713c0.815-0.892,1.595-1.753,2.34-2.586c0.743-0.831,1.476-1.634,2.196-2.407
			c0.72-0.714,1.584-1.115,2.592-1.204s1.896,0.061,2.664,0.446c0.767,0.387,1.307,0.937,1.62,1.649
			c0.312,0.713,0.131,1.486-0.54,2.318l-2.952,3.745c1.487,0.298,2.976,0.461,4.464,0.49c1.487,0.031,2.999-0.207,4.536-0.713
			c1.535-0.505,3.107-1.352,4.716-2.541c1.607-1.188,3.323-2.823,5.148-4.905c0.19-0.236,0.396-0.312,0.611-0.223
			s0.384,0.254,0.504,0.49c0.119,0.238,0.168,0.506,0.145,0.803c-0.025,0.298-0.133,0.535-0.324,0.714
			c-1.681,2.26-3.409,4.013-5.184,5.261c-1.776,1.248-3.564,2.14-5.364,2.675s-3.625,0.789-5.472,0.758
			c-1.849-0.029-3.708-0.223-5.58-0.579c-2.257,2.913-4.489,5.945-6.696,9.096c-2.208,3.151-4.345,6.361-6.408,9.63
			c-2.064,3.271-3.996,6.555-5.796,9.854c-1.8,3.3-3.396,6.496-4.788,9.586c-0.912,2.082-1.717,4.133-2.412,6.153
			c-0.696,2.021-1.213,3.923-1.548,5.707c-0.336,1.783-0.421,3.403-0.252,4.859c0.168,1.457,0.659,2.661,1.476,3.611
			c0.479,0.477,1.092,0.699,1.837,0.669c0.743-0.029,1.512-0.179,2.304-0.446s1.559-0.608,2.304-1.025
			c0.744-0.415,1.355-0.742,1.836-0.98c1.68-0.892,3.539-2.096,5.58-3.611c2.04-1.517,4.151-3.21,6.336-5.083
			c2.184-1.873,4.393-3.893,6.624-6.063c2.232-2.17,4.356-4.384,6.372-6.644c0.191-0.178,0.371-0.223,0.54-0.134
			c0.168,0.09,0.299,0.223,0.396,0.401c0.095,0.179,0.154,0.388,0.18,0.624c0.023,0.238-0.036,0.388-0.18,0.446
			c-1.825,2.081-3.996,4.414-6.517,7c-2.52,2.586-5.196,5.113-8.028,7.579c-2.832,2.468-5.7,4.741-8.604,6.822
			c-2.904,2.081-5.628,3.626-8.172,4.637c-0.097,0.06-0.216,0.089-0.36,0.089c-2.016,0.833-4.008,1.353-5.976,1.561
			c-1.969,0.208-3.697-0.192-5.185-1.204c-1.393-1.427-2.207-3.255-2.447-5.483c-0.24-2.229-0.096-4.711,0.432-7.446
			c-2.88,3.271-5.844,6.703-8.892,10.3s-6.216,7.133-9.505,10.611c-3.287,3.478-6.695,6.776-10.224,9.897s-7.175,5.796-10.944,8.025
			c-3.768,2.229-7.655,3.908-11.663,5.038c-4.008,1.129-8.147,1.485-12.421,1.07c-2.159-0.417-4.163-1.427-6.012-3.032
			c-1.847-1.604-3.407-3.521-4.68-5.751c-1.271-2.229-2.196-4.637-2.772-7.223s-0.671-5.099-0.288-7.535
			c0.576-3.687,1.717-6.926,3.42-9.72c1.705-2.794,3.637-4.963,5.797-6.51c2.159-1.545,4.404-2.393,6.731-2.541
			c2.329-0.147,4.404,0.579,6.229,2.185c1.248,1.189,2.124,2.527,2.628,4.013c0.504,1.486,0.708,3.003,0.611,4.548
			c-0.096,1.545-0.432,3.031-1.008,4.458s-1.296,2.66-2.16,3.701c-0.863,1.039-1.836,1.797-2.916,2.273
			c-1.08,0.476-2.147,0.535-3.204,0.179c-0.479,0-0.756-0.223-0.827-0.669c-0.072-0.446,0.084-0.817,0.468-1.114
			c0.816,0.534,1.656,0.638,2.52,0.312c0.864-0.327,1.656-0.951,2.376-1.872c0.721-0.923,1.332-2.022,1.836-3.3
			c0.504-1.279,0.828-2.586,0.973-3.924c0.144-1.337,0.061-2.644-0.252-3.923c-0.312-1.278-0.924-2.333-1.836-3.166
			c-1.872-1.724-3.84-2.437-5.904-2.14c-2.063,0.298-4.008,1.234-5.832,2.809c-1.823,1.576-3.407,3.611-4.752,6.108
			c-1.344,2.497-2.207,5.112-2.592,7.847c-0.288,2.199-0.108,4.398,0.54,6.599c0.647,2.199,1.62,4.176,2.916,5.93
			c1.296,1.753,2.832,3.18,4.607,4.28c1.776,1.1,3.648,1.619,5.616,1.561c6.48-0.178,12.517-1.486,18.108-3.923
			c5.592-2.438,10.907-5.634,15.947-9.586c5.04-3.954,9.864-8.427,14.473-13.421c4.607-4.993,9.144-10.135,13.607-15.426
			c0.576-2.199,1.296-4.414,2.16-6.644s1.823-4.473,2.88-6.732c1.104-2.318,2.508-4.963,4.212-7.937
			c1.703-2.972,3.588-6.033,5.652-9.185c2.063-3.15,4.224-6.315,6.479-9.497c2.256-3.179,4.512-6.137,6.769-8.872
			c-2.833-0.535-5.7-0.758-8.604-0.669C320.709,469.523,317.841,470.4,315.01,472.064z"/>
		<path fill="#7E141F" d="M363.904,520.841c0.72,0.12,1.644,0.104,2.771-0.045c1.127-0.147,2.521-0.668,4.176-1.561
			c1.656-0.892,3.588-2.243,5.796-4.057c2.208-1.812,4.776-4.354,7.704-7.624c0.24-0.357,0.469-0.535,0.685-0.535
			s0.384,0.089,0.504,0.268c0.119,0.178,0.203,0.387,0.252,0.624c0.047,0.238,0,0.446-0.145,0.624
			c-3.265,3.924-6.216,6.955-8.855,9.096c-2.641,2.14-4.957,3.687-6.948,4.637c-1.992,0.952-3.636,1.457-4.932,1.516
			c-1.296,0.061-2.232,0-2.809-0.178c-3.696,5.47-7.212,9.095-10.548,10.879c-3.337,1.783-6.396,2.08-9.18,0.892
			c-1.584-0.714-2.856-1.783-3.816-3.21c-0.959-1.427-1.415-3.255-1.367-5.484s0.696-4.889,1.943-7.98
			c1.248-3.091,3.287-6.599,6.12-10.522c-0.673-4.102-0.468-7.609,0.612-10.522c1.08-2.912,2.615-5.217,4.607-6.91
			c1.991-1.694,4.188-2.778,6.588-3.255c2.4-0.476,4.584-0.297,6.553,0.535c1.872,0.772,3.323,2.244,4.355,4.413
			c1.032,2.171,1.596,4.771,1.692,7.803c0.096,3.032-0.324,6.331-1.26,9.898C367.468,513.707,365.967,517.274,363.904,520.841z
			 M349.647,516.917c-1.104,1.784-1.933,3.464-2.483,5.038c-0.553,1.576-0.877,2.958-0.972,4.146
			c-0.098,1.19,0.035,2.186,0.396,2.987c0.36,0.803,0.9,1.293,1.62,1.472c0.576,0.179,1.163,0.268,1.764,0.268
			c0.6,0,1.296-0.223,2.088-0.669c0.792-0.445,1.716-1.204,2.772-2.273c1.055-1.07,2.352-2.556,3.888-4.459
			c-0.816-0.179-1.691-0.49-2.628-0.937c-0.936-0.445-1.849-0.98-2.736-1.604c-0.889-0.624-1.668-1.293-2.34-2.007
			C350.343,518.166,349.888,517.513,349.647,516.917z M352.24,512.994c0.239,0.892,0.756,1.754,1.548,2.586
			c0.792,0.833,1.667,1.561,2.628,2.185c0.96,0.624,1.896,1.114,2.808,1.471c0.911,0.357,1.584,0.535,2.017,0.535
			c1.919-3.446,3.312-6.672,4.176-9.675c0.864-3.001,1.26-5.662,1.188-7.98c-0.071-2.318-0.564-4.266-1.476-5.841
			c-0.912-1.574-2.16-2.689-3.744-3.344c-1.151-0.415-2.316-0.624-3.492-0.624c-1.177,0-2.304,0.253-3.384,0.758
			c-1.08,0.506-2.064,1.264-2.952,2.273c-0.889,1.012-1.62,2.26-2.195,3.745c1.487-1.128,2.771-1.338,3.852-0.624
			c1.08,0.713,1.8,1.888,2.16,3.522c0.36,1.636,0.312,3.478-0.145,5.528S353.775,511.389,352.24,512.994z"/>
		<path fill="#7E141F" d="M414.231,472.064c-0.432-0.118-0.745-0.446-0.937-0.981c-0.192-0.534-0.097-0.921,0.288-1.159
			c2.017-1.01,3.936-1.752,5.761-2.229c1.823-0.476,3.563-0.772,5.22-0.892s3.228-0.09,4.716,0.089
			c1.487,0.178,2.928,0.416,4.32,0.713c0.815-0.892,1.595-1.753,2.34-2.586c0.743-0.831,1.476-1.634,2.196-2.407
			c0.72-0.714,1.584-1.115,2.592-1.204s1.896,0.061,2.663,0.446c0.768,0.387,1.308,0.937,1.62,1.649
			c0.312,0.713,0.132,1.486-0.54,2.318l-2.951,3.745c1.487,0.298,2.976,0.461,4.464,0.49c1.487,0.031,2.999-0.207,4.536-0.713
			c1.535-0.505,3.106-1.352,4.716-2.541c1.607-1.188,3.323-2.823,5.147-4.905c0.191-0.236,0.396-0.312,0.612-0.223
			s0.384,0.254,0.504,0.49c0.119,0.238,0.168,0.506,0.145,0.803c-0.025,0.298-0.133,0.535-0.324,0.714
			c-1.681,2.26-3.409,4.013-5.185,5.261c-1.776,1.248-3.563,2.14-5.363,2.675c-1.801,0.535-3.625,0.789-5.473,0.758
			c-1.848-0.029-3.708-0.223-5.579-0.579c-2.257,2.913-4.489,5.945-6.696,9.096c-2.208,3.151-4.345,6.361-6.408,9.63
			c-2.064,3.271-3.996,6.555-5.796,9.854c-1.8,3.3-3.396,6.496-4.788,9.586c-0.912,2.082-1.717,4.133-2.412,6.153
			c-0.696,2.021-1.213,3.923-1.548,5.707c-0.336,1.783-0.421,3.403-0.252,4.859c0.168,1.457,0.659,2.661,1.476,3.611
			c0.479,0.477,1.092,0.699,1.837,0.669c0.743-0.029,1.512-0.179,2.304-0.446s1.559-0.608,2.304-1.025
			c0.744-0.415,1.355-0.742,1.836-0.98c1.68-0.892,3.539-2.096,5.58-3.611c2.04-1.517,4.151-3.21,6.336-5.083
			c2.184-1.873,4.393-3.893,6.624-6.063c2.231-2.17,4.355-4.384,6.372-6.644c0.191-0.178,0.371-0.223,0.54-0.134
			c0.167,0.09,0.299,0.223,0.396,0.401c0.096,0.179,0.155,0.388,0.181,0.624c0.023,0.238-0.036,0.388-0.181,0.446
			c-1.824,2.081-3.996,4.414-6.516,7s-5.196,5.113-8.028,7.579c-2.832,2.468-5.7,4.741-8.604,6.822
			c-2.904,2.081-5.628,3.626-8.172,4.637c-0.097,0.06-0.216,0.089-0.36,0.089c-2.016,0.833-4.008,1.353-5.976,1.561
			c-1.969,0.208-3.697-0.192-5.185-1.204c-1.344-1.427-2.147-3.224-2.412-5.395c-0.263-2.169-0.155-4.562,0.324-7.179
			c0.479-2.615,1.248-5.364,2.305-8.248c1.055-2.883,2.231-5.721,3.527-8.516c1.104-2.318,2.508-4.963,4.212-7.937
			c1.703-2.972,3.588-6.033,5.652-9.185c2.063-3.15,4.224-6.315,6.479-9.497c2.256-3.179,4.512-6.137,6.769-8.872
			c-2.833-0.535-5.7-0.758-8.604-0.669C419.931,469.523,417.062,470.4,414.231,472.064z"/>
		<path fill="#7E141F" d="M433.022,532.79c0.961-1.842,2.077-3.982,3.348-6.421c1.272-2.437,2.628-5.007,4.068-7.713
			c1.439-2.704,2.927-5.453,4.464-8.248c1.535-2.794,3.035-5.498,4.5-8.115c1.463-2.615,2.867-5.052,4.211-7.312
			c1.344-2.259,2.545-4.221,3.602-5.886c2.398-3.685,4.955-7.401,7.668-11.146c2.711-3.745,5.508-7.296,8.387-10.655
			c2.881-3.358,5.771-6.421,8.676-9.185c2.904-2.765,5.771-4.963,8.605-6.599c2.83-1.635,5.555-2.615,8.172-2.943
			c2.615-0.325,5.051,0.224,7.307,1.65c1.199,1.427,1.537,3.314,1.01,5.662c-0.529,2.349-1.705,4.904-3.529,7.669
			c-1.824,2.764-4.164,5.604-7.02,8.516c-2.857,2.913-5.965,5.662-9.324,8.248s-6.852,4.86-10.477,6.821
			c-3.625,1.962-7.141,3.359-10.547,4.191c-1.008,1.605-2.16,3.478-3.457,5.618c-1.295,2.14-2.664,4.429-4.104,6.866
			s-2.928,4.979-4.463,7.624c-1.537,2.646-3.049,5.276-4.537,7.892c1.729-2.377,3.611-4.86,5.652-7.446
			c2.039-2.586,4.164-5.111,6.371-7.579c2.207-2.466,4.404-4.771,6.588-6.911c2.184-2.14,4.285-3.952,6.301-5.439
			c2.016-1.485,3.863-2.541,5.545-3.165c1.68-0.624,3.119-0.639,4.318-0.045c0.912,0.477,1.332,1.397,1.26,2.765
			c-0.07,1.368-0.467,3.047-1.188,5.038c-0.719,1.992-1.68,4.177-2.879,6.554c-1.201,2.379-2.496,4.786-3.889,7.223
			c-1.393,2.438-2.771,4.815-4.141,7.134c-1.367,2.318-2.568,4.385-3.6,6.197c-1.033,1.814-1.824,3.286-2.375,4.414
			c-0.553,1.13-0.709,1.755-0.469,1.873c0.336,0.713,1.092,0.922,2.268,0.624c1.176-0.297,2.615-0.966,4.32-2.006
			c1.703-1.04,3.6-2.363,5.688-3.969c2.088-1.604,4.225-3.373,6.408-5.306c2.184-1.931,4.344-3.953,6.48-6.063
			c2.135-2.109,4.115-4.176,5.939-6.197c0.191-0.179,0.371-0.223,0.541-0.134c0.168,0.089,0.299,0.223,0.395,0.401
			c0.096,0.178,0.156,0.387,0.182,0.624c0.023,0.238-0.037,0.388-0.182,0.446c-1.969,2.199-4.057,4.444-6.264,6.732
			c-2.207,2.289-4.512,4.518-6.912,6.688c-2.4,2.171-4.848,4.206-7.344,6.108c-2.496,1.903-4.967,3.537-7.416,4.904
			c-2.592,1.604-4.932,2.72-7.02,3.344s-3.684,0.46-4.787-0.49c-0.961-0.772-1.395-1.991-1.297-3.656
			c0.096-1.664,0.541-3.552,1.332-5.662c0.793-2.109,1.848-4.398,3.168-6.866c1.32-2.467,2.711-4.919,4.176-7.356
			s2.904-4.785,4.32-7.045c1.416-2.259,2.629-4.25,3.637-5.975c1.008-1.724,1.727-3.105,2.16-4.146
			c0.432-1.039,0.383-1.561-0.145-1.561c-0.865-0.059-2.076,0.49-3.637,1.65c-1.561,1.159-3.324,2.734-5.291,4.726
			c-1.969,1.992-4.068,4.28-6.301,6.866s-4.453,5.276-6.66,8.07c-2.209,2.795-4.309,5.573-6.299,8.337
			c-1.994,2.765-3.734,5.337-5.221,7.714l-1.944,3.21c-0.672,1.13-1.439,1.783-2.304,1.962c-0.864,0.178-1.692,0.103-2.484-0.224
			c-0.792-0.325-1.512-0.787-2.159-1.382C433.778,533.712,433.311,533.206,433.022,532.79z M467.727,488.828
			c4.559-1.783,8.748-3.879,12.564-6.286c3.814-2.407,7.211-4.904,10.188-7.49c2.975-2.586,5.531-5.172,7.668-7.758
			c2.135-2.586,3.803-4.949,5.004-7.09c1.199-2.14,1.92-3.952,2.16-5.439c0.238-1.484-0.025-2.437-0.793-2.853
			c-1.057-0.832-2.459-0.893-4.211-0.179c-1.754,0.713-3.697,1.947-5.832,3.7c-2.137,1.755-4.404,3.954-6.805,6.599
			c-2.4,2.646-4.787,5.471-7.164,8.472c-2.375,3.003-4.668,6.094-6.875,9.273C471.422,482.959,469.455,485.975,467.727,488.828z"/>
		<path fill="#7E141F" d="M523.151,491.414c0.575,0.714,0.959,1.694,1.151,2.943c0.191,1.248-0.3,2.809-1.476,4.682
			c-1.177,1.872-3.276,4.013-6.3,6.42c-3.024,2.407-7.465,5.127-13.32,8.159c-2.016,3.745-3.384,7.016-4.104,9.809
			c-0.72,2.795-0.624,4.697,0.288,5.707c0.336,0.356,0.888,0.477,1.656,0.356c0.768-0.118,1.68-0.431,2.736-0.936
			c1.055-0.505,2.22-1.16,3.492-1.962c1.271-0.803,2.603-1.709,3.995-2.72c2.881-2.199,5.893-4.756,9.036-7.669
			c3.144-2.912,6.156-5.975,9.036-9.185c2.256-2.794,4.824-5.841,7.704-9.141c2.88-3.299,5.964-6.554,9.252-9.764
			c3.287-3.21,6.72-6.271,10.296-9.185c3.575-2.912,7.224-5.409,10.944-7.49c3.719-2.08,7.463-3.626,11.231-4.637
			s7.452-1.218,11.053-0.625c2.16,0.477,4.163,1.502,6.012,3.077c1.848,1.575,3.407,3.478,4.68,5.706
			c1.271,2.229,2.196,4.638,2.772,7.224s0.672,5.098,0.288,7.534c-0.576,3.688-1.717,6.927-3.42,9.72
			c-1.705,2.795-3.637,4.98-5.796,6.555c-2.16,1.575-4.404,2.423-6.732,2.541c-2.329,0.12-4.404-0.624-6.228-2.229
			c-1.297-1.128-2.186-2.452-2.664-3.968c-0.48-1.516-0.685-3.046-0.612-4.593c0.072-1.545,0.396-3.031,0.972-4.458
			s1.308-2.66,2.196-3.7c0.888-1.04,1.859-1.798,2.916-2.274c1.056-0.475,2.135-0.535,3.24-0.179c0.479,0,0.756,0.224,0.828,0.669
			c0.071,0.446-0.085,0.818-0.469,1.115c-0.863-0.535-1.717-0.639-2.556-0.312c-0.841,0.327-1.62,0.952-2.34,1.873
			c-0.72,0.922-1.332,2.021-1.836,3.299c-0.504,1.279-0.828,2.586-0.973,3.924c-0.144,1.338-0.061,2.646,0.252,3.924
			s0.924,2.333,1.837,3.165c1.871,1.725,3.839,2.438,5.903,2.141c2.063-0.297,4.008-1.233,5.832-2.81
			c1.824-1.574,3.408-3.611,4.752-6.108c1.344-2.496,2.207-5.111,2.592-7.847c0.288-2.198,0.108-4.398-0.539-6.599
			c-0.648-2.198-1.62-4.176-2.916-5.93c-1.297-1.753-2.833-3.18-4.608-4.28c-1.776-1.1-3.648-1.619-5.616-1.561
			c-5.76,0.12-11.208,1.159-16.344,3.121c-5.137,1.962-10.057,4.592-14.76,7.892c-4.705,3.299-9.217,7.104-13.536,11.414
			c-4.32,4.311-8.496,8.903-12.528,13.776c-1.536,1.784-3.337,3.761-5.399,5.93c-2.064,2.171-4.261,4.355-6.589,6.555
			c-2.328,2.2-4.752,4.295-7.271,6.286c-2.521,1.993-4.957,3.701-7.308,5.128c-3.409,2.2-6.505,3.478-9.288,3.834
			c-2.593,0.297-4.393-0.341-5.4-1.917c-1.008-1.574-1.392-3.745-1.152-6.51c0.241-2.764,0.997-5.885,2.269-9.363
			c1.271-3.478,2.88-6.924,4.824-10.344c1.943-3.417,4.127-6.612,6.552-9.586c2.423-2.972,4.896-5.335,7.416-7.089
			c2.52-1.753,5.004-2.688,7.452-2.809C518.975,487.997,521.183,489.096,523.151,491.414z M520.487,494
			c-1.825,0.535-3.409,1.264-4.752,2.186c-1.345,0.922-2.604,2.065-3.78,3.433c-1.177,1.368-2.316,2.942-3.42,4.727
			c-1.104,1.783-2.329,3.805-3.672,6.063c3.6-2.08,6.527-3.953,8.784-5.618c2.255-1.663,4.02-3.121,5.292-4.369
			c1.271-1.249,2.123-2.304,2.556-3.166c0.432-0.86,0.623-1.545,0.576-2.051c-0.049-0.504-0.252-0.847-0.612-1.025
			S520.775,493.941,520.487,494z"/>
	</g>
</g>
</svg>
