<?xml version="1.0" encoding="utf-8"?>
<!-- Generator: Adobe Illustrator 16.0.0, SVG Export Plug-In . SVG Version: 6.00 Build 0)  -->
<!DOCTYPE svg PUBLIC "-//W3C//DTD SVG 1.1//EN" "http://www.w3.org/Graphics/SVG/1.1/DTD/svg11.dtd">
<svg version="1.1" id="Layer_1" xmlns="http://www.w3.org/2000/svg" xmlns:xlink="http://www.w3.org/1999/xlink" x="0px" y="0px"
	 width="864px" height="864px" viewBox="0 0 864 864" enable-background="new 0 0 864 864" xml:space="preserve">
<path fill-rule="evenodd" clip-rule="evenodd" fill="#D7DF23" d="M421.776,40.835c1.402,3.099,3.173,6.089,4.133,9.32
	c2.233,7.517,4.004,15.169,6.099,22.729c1.739,6.272,4.462,8.293,11.017,8.407c11.227,0.196,22.455,0.343,33.682,0.516
	c1.02,0.016,2.053-0.018,3.057,0.127c2.92,0.423,3.758,2.527,1.768,4.752c-1.065,1.192-2.447,2.157-3.821,3.006
	c-7.636,4.716-15.328,9.34-22.97,14.048c-3.962,2.441-4.039,3.425-0.672,6.587c7.812,7.337,15.682,14.613,23.424,22.022
	c1.894,1.812,3.602,3.907,5.001,6.12c1.276,2.019,0.368,3.482-2.017,3.309c-2.309-0.168-4.655-0.669-6.848-1.423
	c-11.852-4.076-23.676-8.231-35.477-12.451c-6.091-2.178-8.631-1.583-12.768,3.533c-6.929,8.571-13.789,17.198-20.759,25.736
	c-1.563,1.915-3.462,3.556-5.207,5.323c-0.288-0.12-0.576-0.24-0.864-0.36c-0.152-1.014-0.527-2.051-0.422-3.037
	c1.049-9.837,2.348-19.651,3.186-29.505c0.277-3.257-0.113-6.747-1.032-9.885c-1.206-4.118-4.25-6.763-8.594-7.907
	c-7.684-2.023-15.338-4.169-22.953-6.438c-2.204-0.657-5.578-0.85-5.443-3.745c0.051-1.108,3.588-2.541,5.712-2.983
	c9.875-2.059,19.81-3.834,29.728-5.687c8.145-1.522,10.272-3.729,11.486-11.909c1.572-10.589,3.003-21.204,4.873-31.741
	c0.522-2.943,2.375-5.649,3.618-8.465C419.734,40.835,420.755,40.835,421.776,40.835z"/>
<g>
	<path fill-rule="evenodd" clip-rule="evenodd" fill="#2BB673" d="M654.012,450.157c-6.741,24.808-24.228,41.819-42.52,58.12
		c-21.19,18.884-45.413,33.264-70.714,45.789c-53.641,26.555-107.511,52.647-161.132,79.243
		c-26.487,13.138-52.643,26.942-78.907,40.526c-2.885,1.492-5.539,3.451-8.211,5.32c-1.196,0.837-2.174,1.986-3.251,2.993
		c0.048,0.366,0.097,0.733,0.145,1.101c4.062,0.527,8.118,1.435,12.188,1.512c11.704,0.223,23.152-1.954,34.516-4.476
		c38.865-8.626,76.587-21.229,114.533-33.048c35.519-11.062,70.922-22.516,107.126-31.225c15.282-3.677,30.659-6.836,46.361-8.093
		c3.047-0.243,6.121-0.233,9.18-0.183c1.014,0.016,2.02,0.527,3.027,0.812c0.094,0.363,0.186,0.728,0.279,1.091
		c-2.151,1.147-4.209,2.531-6.466,3.406c-23.851,9.253-47.772,18.325-71.6,27.64c-44.263,17.303-89.254,32.513-134.599,46.663
		c-29.47,9.196-59.031,18.155-88.788,26.362c-23.9,6.592-48.31,11.117-73.093,12.971c-6.143,0.459-12.417-0.182-18.578-0.828
		c-5.52-0.581-10.011-3.254-12.522-8.536c0-2.042,0-4.085,0-6.128c7.445-19.027,21.168-32.961,38.438-42.543
		c92.771-51.467,186.976-100.189,282.652-146.058c14.514-6.958,28.701-14.629,42.808-22.392c7.668-4.221,13.745-10.55,19.128-17.434
		c1.432-1.83,2.675-3.885,3.607-6.01c2.424-5.516,0.395-9.871-5.549-10.558c-5.195-0.6-10.643-0.603-15.791,0.253
		c-19.153,3.177-36.655,11.016-53.499,20.324c-45.349,25.063-90.676,50.169-135.897,75.462
		c-38.069,21.292-77.164,40.362-118.177,55.31c-4.485,1.635-9.561,2.432-14.335,2.332c-11.07-0.23-18.715-8.228-19.451-19.332
		c-0.715-10.787,2.854-20.501,7.604-29.869c7.757-15.299,18.425-28.316,31.095-39.838c31.083-28.266,64.169-54.063,97.651-79.363
		c46.837-35.389,94.566-69.518,144.261-100.822c5.609-3.534,11.332-6.89,16.941-10.425c1.344-0.846,2.441-2.081,3.652-3.137
		c-0.17-0.375-0.34-0.75-0.51-1.126c-2.048,0.181-4.148,0.126-6.134,0.579c-21.44,4.889-41.971,12.575-62.356,20.632
		c-49.84,19.697-98.293,42.413-145.753,67.281c-9.04,4.737-18.279,9.082-28.535,10.612c-0.906,0.136-1.827,0.233-2.741,0.238
		c-6.456,0.03-9.584-3.259-7.881-9.489c1.404-5.136,3.643-10.189,6.334-14.799c8.377-14.345,19.269-26.831,30.059-39.373
		c32.551-37.838,70.789-69.059,112.118-96.742c17.128-11.473,34.162-23.116,49.497-37.01c0.65-0.589,1.52-0.937,2.287-1.396
		c-0.24-0.362-0.48-0.724-0.721-1.086c-1.023,0.189-2.059,0.326-3.066,0.574c-17.966,4.425-34.607,12.097-50.789,20.855
		c-25.829,13.98-51.455,28.362-78.357,40.23c-5.836,2.575-11.959,4.718-18.156,6.199c-7.421,1.774-14.065-3.521-15.042-11.119
		c-0.818-6.369,0.885-12.264,4.122-17.552c2.91-4.754,6.175-9.415,9.959-13.489c18.59-20.019,40.333-36.287,62.65-51.827
		c17.337-12.072,34.728-24.066,52.089-36.104c0.824-0.573,1.594-1.227,2.539-1.959c-3.335-3.501-7.543-4.443-11.881-4.996
		c0.566-4.497,4.521-7.739,8.625-7.072c6.271,1.02,11.476,4.057,15.865,8.587c2.083,2.15,1.373,4.195-0.475,5.856
		c-4.625,4.16-9.315,8.256-14.109,12.22c-15.972,13.201-32.252,26.043-47.893,39.624c-6.958,6.042-12.916,13.313-18.861,20.418
		c-4.034,4.821-4.82,8.476-4.28,12.625c6.989-3.275,13.889-6.505,20.784-9.742c25.755-12.091,51.577-24.033,78.734-32.739
		c9.791-3.139,19.502-6.717,29.916-7.333c1.928-0.114,3.882-0.087,5.807,0.078c7.979,0.685,12.416,5.616,13.004,13.555
		c0.414,5.603-1.42,10.055-4.958,14.235c-8.304,9.812-18.004,18.112-28.139,25.865c-22.374,17.117-45.05,33.839-67.427,50.951
		c-18.019,13.779-35.546,28.159-50.524,45.344c-2.08,2.386-3.917,4.982-5.866,7.481c0.281,0.409,0.562,0.817,0.843,1.226
		c2.035-0.597,4.164-0.982,6.091-1.827c10.27-4.505,20.469-9.172,30.731-13.697c32.028-14.121,64.457-27.138,98.558-35.514
		c19.475-4.784,39.215-7.797,59.245-8.751c5.577-0.266,11.016,0.659,15.69,4.102c5.106,3.759,6.639,9.354,3.486,14.831
		c-1.689,2.936-4.068,5.655-6.654,7.867c-32.521,27.819-66.61,53.659-100.715,79.482c-43.375,32.841-86.877,65.52-129.894,98.823
		c-14.25,11.033-27.28,23.666-40.624,35.834c-3.653,3.333-6.594,7.51-9.524,11.545c-1.559,2.147-2.395,4.82-3.558,7.256
		c0.209,0.207,0.418,0.414,0.627,0.621c0.984-0.352,1.986-0.661,2.951-1.061c33.25-13.742,64.78-30.883,96.032-48.578
		c33.018-18.697,65.918-37.606,99.132-55.951c21.619-11.94,43.917-22.633,67.739-29.535c21.133-6.123,42.662-10.23,64.824-9.583
		c4.157,0.121,8.352,0.667,12.43,1.501c9.721,1.989,17.566,6.477,20.539,16.808C654.012,444.438,654.012,447.297,654.012,450.157z"
		/>
	<path fill-rule="evenodd" clip-rule="evenodd" fill="#2BB673" d="M482.439,825.165c-11.727-7.554-15.102-19.489-16.351-32.231
		c-1.1-11.23-0.026-22.442,2.595-33.427c0.816-3.425,2.479-6.644,3.698-9.978c2.438-6.671,5.453-13.209,7.097-20.072
		c1.998-8.345-2.294-13.6-10.882-13.232c-7.78,0.333-15.54,1.85-23.237,3.242c-6.207,1.123-12.306,2.844-18.458,4.277
		c-0.776,0.182-1.583,0.232-2.767-0.271c5.638-4.292,11.014-8.992,16.962-12.799c16.998-10.882,35.693-16.366,55.934-15.858
		c4.213,0.106,8.537,0.997,12.562,2.296c10.657,3.437,15.548,12.16,13.607,23.189c-2.049,11.633-7.814,21.568-14.104,31.27
		c-3.937,6.071-8.3,11.896-11.853,18.181c-6.736,11.917-8.602,25.15-9.32,38.591c-0.235,4.381-0.289,8.773-0.6,13.147
		c-0.088,1.248-0.788,2.452-1.208,3.676C484.891,825.165,483.665,825.165,482.439,825.165z"/>
</g>
</svg>
