<svg version="1.0" xmlns="http://www.w3.org/2000/svg" viewBox="0 0 1280 758">
	<g transform="translate(0,758) scale(0.1,-0.1)">
		<path d="M5665 7571 c-51 -14 -101 -38 -156 -75 -61 -41 -103 -46 -119 -15 -16 29 -70 59 -107 59 -68 0 -103 -36 -103 -104 0 -69 -23 -67 -195 15 -159 75 -261 66 -480 -40 -139 -67 -165 -91 -172 -156 -5 -39 7 -152 24 -222 7 -32 -11 -29 -26 4 -37 80 -118 173 -153 173 -15 0 -38 -33 -38 -54 0 -42 -22 -50 -94 -35 -113 22 -188 -8 -518 -207 -254 -154 -313 -198 -344 -256 -25 -47 -16 -84 45 -202 99 -190 121 -274 79 -300 -28 -17 -65 19 -146 140 -109 163 -185 231 -279 250 -37 7 -73 -22 -73 -60 0 -30 -34 -56 -71 -56 -39 0 -91 -40 -119 -92 -50 -91 -98 -123 -250 -163 -227 -61 -438 -210 -485 -342 -46 -132 -56 -138 -253 -159 -334 -34 -537 -110 -557 -207 -21 -101 -180 -254 -375 -361 -92 -50 -143 -66 -243 -77 -147 -15 -209 -61 -329 -240 -116 -175 -143 -256 -113 -334 37 -99 88 -100 377 -5 314 102 361 109 433 65 67 -41 98 -35 196 42 30 23 65 43 77 43 14 0 39 -22 76 -68 82 -103 94 -108 311 -104 99 1 223 6 275 10 l95 7 5 170 c7 196 18 235 70 235 40 0 89 -45 173 -160 114 -155 174 -210 231 -210 43 0 55 11 92 76 22 39 42 64 53 64 9 0 40 -18 70 -40 29 -22 70 -45 91 -51 104 -31 203 43 252 190 20 59 22 85 20 249 -1 102 3 182 8 182 17 0 71 -76 91 -130 11 -30 24 -89 29 -132 15 -129 63 -194 166 -224 89 -26 234 3 275 54 20 25 21 34 15 142 -22 389 -21 425 10 399 23 -19 56 -90 105 -223 46 -128 68 -168 112 -200 42 -31 140 -25 307 18 232 59 283 58 523 -16 210 -64 234 -63 332 22 29 25 55 40 68 38 11 -2 55 -43 96 -92 82 -95 109 -115 157 -116 73 0 121 115 159 384 8 60 17 111 19 113 5 6 12 -62 25 -247 16 -231 68 -385 163 -482 60 -62 116 -86 220 -98 111 -13 197 -56 308 -155 119 -106 215 -138 305 -101 64 27 71 63 90 456 22 471 48 652 91 636 8 -3 17 -6 19 -6 17 0 28 -138 40 -493 8 -226 19 -430 24 -452 22 -91 123 -125 221 -75 109 56 207 224 265 456 15 60 30 116 33 124 3 8 9 -41 12 -110 9 -173 40 -242 125 -281 95 -44 161 -12 194 95 23 76 28 120 41 364 11 203 28 351 55 470 38 168 43 75 20 -373 -8 -154 -15 -307 -15 -341 l0 -61 148 24 c265 41 345 68 409 135 51 53 80 131 142 380 62 246 84 313 101 303 13 -8 13 -325 -1 -550 -6 -97 -9 -178 -7 -180 6 -7 306 36 383 55 206 50 374 189 375 307 0 16 9 46 19 68 40 89 252 320 259 283 2 -9 -35 -92 -81 -185 -152 -304 -169 -401 -84 -490 80 -85 380 -154 532 -123 74 15 124 39 197 96 31 24 61 44 66 44 12 0 22 -49 22 -111 0 -74 20 -89 118 -89 100 0 188 -20 287 -63 216 -94 318 -67 539 143 171 162 206 185 206 135 0 -16 -18 -45 -49 -79 -49 -54 -70 -107 -57 -141 3 -9 23 -23 43 -33 33 -14 95 -17 438 -23 441 -6 447 -7 518 -69 50 -44 86 -64 146 -80 130 -35 364 -30 446 10 43 21 65 53 65 94 0 44 -33 132 -77 208 -70 117 -150 199 -282 288 -64 43 -170 119 -235 168 -123 94 -213 144 -327 181 -94 31 -137 66 -179 147 -37 73 -84 114 -128 114 -34 0 -86 58 -106 118 -9 27 -28 59 -41 72 -23 22 -29 23 -138 16 -131 -8 -140 -4 -150 77 -8 57 -35 113 -74 149 -35 33 -109 67 -146 68 -47 0 -96 30 -156 93 -75 80 -196 158 -413 268 -224 113 -348 184 -459 264 -107 76 -159 93 -239 77 -107 -23 -130 -12 -130 58 0 84 -66 143 -235 209 -154 61 -245 85 -288 77 -75 -14 -197 -140 -257 -264 -48 -100 -110 -148 -110 -84 0 27 11 49 128 276 71 136 78 174 35 204 -88 62 -282 132 -428 156 -93 15 -131 12 -158 -12 -25 -22 -45 -8 -82 60 -16 31 -39 66 -50 78 -46 50 -110 63 -171 34 -33 -16 -114 -98 -114 -116 0 -20 -71 -155 -95 -180 -31 -33 -39 -34 -66 -7 -29 29 -18 62 37 121 24 26 44 49 44 51 0 2 4 27 10 56 12 66 3 108 -27 128 -23 15 -32 15 -118 0 -121 -22 -203 -53 -238 -90 -32 -34 -70 -38 -202 -23 -64 7 -72 6 -98 -14 -15 -12 -48 -61 -72 -109 -53 -105 -133 -223 -198 -290 -54 -57 -77 -64 -77 -26 0 14 -7 41 -15 61 -15 37 -62 64 -110 64 -57 0 -107 43 -149 127 -46 93 -105 117 -156 63 -29 -31 -34 -48 -46 -148 -4 -35 -11 -59 -15 -55 -5 5 -22 52 -37 104 -55 181 -134 289 -255 349 -50 24 -81 32 -138 35 -41 2 -87 1 -104 -4z m-320 -521 c7 -31 -10 -100 -25 -100 -19 0 -27 89 -9 121 13 25 26 17 34 -21z m-2594 -1601 c47 -33 73 -119 35 -119 -42 0 -135 102 -122 135 7 19 48 11 87 -16z m3225 -374 c11 -63 -3 -182 -20 -164 -5 5 -8 74 -7 147 1 59 17 69 27 17z"/>
		<path d="M361 4088 c-65 -18 -153 -86 -188 -146 -32 -54 -28 -66 62 -161 146 -154 387 -338 570 -434 97 -51 174 -114 238 -195 69 -85 107 -106 182 -97 64 8 70 1 80 -95 13 -125 46 -176 196 -295 133 -106 221 -203 364 -403 184 -259 246 -310 386 -319 124 -9 157 -39 204 -186 34 -107 67 -167 114 -210 80 -72 143 -58 193 43 15 30 28 53 29 50 0 -3 7 -43 14 -89 23 -149 124 -312 241 -390 27 -17 73 -36 107 -42 85 -17 180 -84 349 -246 263 -252 406 -339 606 -367 115 -16 172 -42 279 -127 82 -65 129 -92 212 -120 58 -20 154 -25 195 -9 59 22 82 106 95 345 9 151 20 225 35 225 21 0 30 -65 36 -260 6 -187 10 -222 29 -271 39 -102 127 -178 207 -179 44 0 129 46 162 88 35 44 72 115 122 235 l37 88 8 -146 c8 -176 24 -236 74 -286 44 -44 91 -59 188 -59 122 0 239 36 286 88 29 32 73 151 104 279 l28 117 11 -156 c10 -130 16 -163 34 -196 45 -80 145 -107 373 -99 178 5 226 20 301 88 31 28 61 49 68 47 7 -3 28 -35 48 -73 19 -38 46 -77 60 -87 39 -28 133 -41 254 -35 98 5 116 9 175 39 152 76 196 214 208 648 8 269 14 261 38 -50 24 -313 47 -429 93 -482 59 -65 132 -35 333 139 188 162 208 170 238 86 22 -61 48 -92 86 -99 129 -24 303 175 389 446 42 130 57 170 65 170 5 0 11 -36 15 -81 7 -82 27 -149 45 -149 28 0 310 251 491 436 205 210 218 240 228 518 l7 181 28 -140 c38 -186 73 -295 94 -295 32 0 157 103 418 344 211 195 323 290 455 390 135 102 199 175 236 266 36 92 66 127 117 140 127 32 379 188 509 315 66 65 83 106 97 239 10 86 19 114 28 88 10 -27 54 -70 77 -76 55 -14 175 50 327 172 169 136 329 284 383 355 130 170 130 311 -1 347 -41 12 -58 11 -132 -4 -252 -50 -681 -241 -681 -301 0 -8 -7 -20 -15 -29 -17 -17 -28 -15 -158 39 -170 70 -377 85 -512 35 -128 -46 -133 -47 -173 -23 -90 54 -126 66 -213 71 -106 6 -165 -7 -241 -53 -31 -19 -66 -35 -78 -35 -12 0 -61 16 -109 34 -109 44 -194 60 -279 53 -87 -7 -134 -22 -172 -53 -26 -22 -30 -33 -30 -74 0 -64 -7 -80 -37 -80 -34 0 -58 14 -136 81 -93 81 -140 93 -312 86 -155 -6 -249 -27 -298 -68 -67 -55 -61 -127 23 -306 27 -58 50 -108 50 -111 0 -28 -125 139 -142 190 -17 50 -27 58 -76 58 -54 0 -105 -29 -122 -69 -16 -40 -33 -44 -72 -16 -73 54 -123 85 -136 85 -32 0 -55 -26 -87 -95 -18 -41 -43 -78 -55 -85 -15 -8 -60 -9 -153 -5 -152 8 -173 3 -250 -64 -27 -22 -58 -41 -70 -41 -12 0 -49 20 -81 44 -89 67 -176 86 -294 66 -123 -20 -222 -80 -238 -144 -3 -12 4 -91 15 -176 25 -199 35 -330 23 -310 -5 8 -24 67 -42 130 -63 225 -97 292 -170 331 -27 14 -410 28 -410 14 0 -4 18 -143 39 -309 58 -437 56 -417 36 -461 -10 -20 -28 -40 -39 -45 -50 -19 -76 60 -76 234 0 426 -72 666 -200 666 -21 0 -92 -13 -158 -29 -138 -33 -183 -59 -252 -145 -25 -31 -48 -56 -51 -56 -3 0 -9 41 -11 91 -5 80 -9 94 -30 116 -67 67 -276 55 -398 -22 -104 -66 -168 -154 -241 -335 -57 -140 -94 -200 -124 -200 -26 0 -35 17 -35 69 0 60 25 128 101 276 151 294 155 348 26 408 -80 38 -183 57 -365 68 -209 12 -301 30 -333 66 -37 40 -80 53 -173 53 -147 0 -250 -33 -341 -109 -61 -50 -75 -52 -75 -7 0 96 -39 119 -200 118 -128 0 -271 -25 -389 -66 -89 -31 -161 -72 -161 -91 0 -32 -42 -55 -102 -55 -42 0 -58 4 -58 13 0 8 38 49 85 91 47 43 92 91 101 107 52 101 -89 115 -391 40 -215 -53 -379 -79 -563 -90 -232 -14 -244 -21 -431 -285 -50 -70 -91 -124 -91 -118 0 6 12 84 26 174 29 185 28 247 -6 283 -50 53 -286 155 -359 155 -24 0 -49 -9 -72 -26 -48 -36 -85 -28 -167 39 -88 72 -139 96 -235 113 -43 8 -83 16 -88 20 -5 3 -17 22 -27 42 -13 28 -25 38 -52 45 -94 22 -153 42 -240 81 -110 49 -142 57 -189 44z m7618 -1120 c73 -98 156 -281 186 -411 25 -111 0 -142 -53 -64 -91 132 -216 459 -196 511 10 26 21 19 63 -36z m-3949 -1428 c40 -40 34 -101 -10 -115 -32 -10 -50 12 -50 60 0 76 20 95 60 55z m3025 -402 c42 -104 48 -749 6 -791 -15 -15 -57 82 -72 168 -15 91 -15 416 1 523 18 134 38 164 65 100z"/>
	</g>
</svg>
