<svg width="407" height="364" viewBox="0 0 407 364" version="1.1" xmlns="http://www.w3.org/2000/svg" xmlns:xlink="http://www.w3.org/1999/xlink">
<title>Group</title>
<desc>Created using Figma</desc>
<g id="Canvas" transform="translate(-1170 -736)">
<g id="Group" filter="url(#filter0_d)">
<g id="Group">
<g id="Vector">
<use xlink:href="#path0_fill" transform="translate(1372.79 756)" fill="url(#paint0_linear)" fill-opacity="0.75"/>
</g>
<g id="Vector">
<use xlink:href="#path1_fill" transform="translate(1372.79 756)" fill="url(#paint1_linear)"/>
</g>
</g>
<g id="Group">
<g id="Vector">
<use xlink:href="#path2_fill" transform="translate(1397.97 767.771)" fill="url(#paint2_linear)" fill-opacity="0.75"/>
</g>
<g id="Vector">
<use xlink:href="#path3_fill" transform="translate(1398.01 767.688)" fill="url(#paint3_linear)"/>
</g>
</g>
<g id="Group">
<g id="Vector">
<use xlink:href="#path4_fill" transform="translate(1420.07 784.196)" fill="url(#paint4_linear)" fill-opacity="0.75"/>
</g>
<g id="Vector">
<use xlink:href="#path5_fill" transform="translate(1420.02 784.196)" fill="url(#paint5_linear)"/>
</g>
</g>
<g id="Group">
<g id="Vector">
<use xlink:href="#path6_fill" transform="translate(1435.95 802.691)" fill="url(#paint6_linear)" fill-opacity="0.75"/>
</g>
<g id="Vector">
<use xlink:href="#path7_fill" transform="translate(1435.95 802.604)" fill="url(#paint7_linear)"/>
</g>
</g>
<g id="Group">
<g id="Vector">
<use xlink:href="#path8_fill" transform="translate(1330.09 765.096)" fill="url(#paint8_linear)" fill-opacity="0.75"/>
</g>
<g id="Vector">
<use xlink:href="#path9_fill" transform="translate(1330.09 765.096)" fill="url(#paint9_linear)"/>
</g>
</g>
<g id="Group">
<g id="Vector">
<use xlink:href="#path10_fill" transform="translate(1288.29 777.875)" fill="url(#paint10_linear)" fill-opacity="0.75"/>
</g>
<g id="Vector">
<use xlink:href="#path11_fill" transform="translate(1288.61 777.829)" fill="url(#paint11_linear)"/>
</g>
</g>
<g id="Group">
<g id="Vector">
<use xlink:href="#path12_fill" transform="translate(1229.89 798.204)" fill="url(#paint12_linear)" fill-opacity="0.75"/>
</g>
<g id="Vector">
<use xlink:href="#path13_fill" transform="translate(1229.89 798.067)" fill="url(#paint13_linear)"/>
</g>
</g>
<g id="Group">
<g id="Vector">
<use xlink:href="#path14_fill" transform="translate(1220 849.912)" fill="url(#paint14_linear)" fill-opacity="0.75"/>
</g>
<g id="Vector">
<use xlink:href="#path15_fill" transform="translate(1220 849.912)" fill="url(#paint15_linear)"/>
</g>
</g>
<g id="Group">
<g id="Vector">
<use xlink:href="#path16_fill" transform="translate(1420.29 819.192)" fill="url(#paint16_linear)" fill-opacity="0.75"/>
</g>
<g id="Vector">
<use xlink:href="#path17_fill" transform="translate(1420.29 819.078)" fill="url(#paint17_linear)"/>
</g>
</g>
<g id="Group">
<g id="Vector">
<use xlink:href="#path18_fill" transform="translate(1221.95 899.756)" fill="url(#paint18_linear)" fill-opacity="0.75"/>
</g>
<g id="Vector">
<use xlink:href="#path19_fill" transform="translate(1221.95 899.71)" fill="url(#paint19_linear)"/>
</g>
</g>
</g>
</g>
<defs>
<filter id="filter0_d" filterUnits="userSpaceOnUse" x="1170" y="736" width="407" height="365" color-interpolation-filters="sRGB">
<feFlood flood-opacity="0" result="BackgroundImageFix"/>
<feColorMatrix in="SourceAlpha" type="matrix" values="0 0 0 0 0 0 0 0 0 0 0 0 0 0 0 0 0 0 255 0"/>
<feOffset dx="0" dy="30"/>
<feGaussianBlur stdDeviation="25"/>
<feColorMatrix type="matrix" values="0 0 0 0 0.0588235 0 0 0 0 0.243137 0 0 0 0 0.6 0 0 0 0.15 0"/>
<feBlend mode="normal" in2="BackgroundImageFix" result="effect1_dropShadow"/>
<feBlend mode="normal" in="SourceGraphic" in2="effect1_dropShadow" result="shape"/>
</filter>
<linearGradient id="paint0_linear" x1="0" y1="0" x2="1" y2="0" gradientUnits="userSpaceOnUse" gradientTransform="matrix(37.7407 0 0 127.78 -0.0289317 -27.0614)">
<stop offset="0" stop-color="#BDBDBD"/>
<stop offset="1" stop-color="#E0E0E0"/>
</linearGradient>
<linearGradient id="paint1_linear" x1="0" y1="0" x2="1" y2="0" gradientUnits="userSpaceOnUse" gradientTransform="matrix(37.6953 0 0 56.9508 -0.0288969 -12.0611)">
<stop offset="0" stop-color="#BDBDBD"/>
<stop offset="1" stop-color="#E0E0E0"/>
</linearGradient>
<linearGradient id="paint2_linear" x1="0" y1="0" x2="1" y2="0" gradientUnits="userSpaceOnUse" gradientTransform="matrix(46.4605 0 0 131.59 -0.0356163 -27.8681)">
<stop offset="0" stop-color="#D64DC0"/>
<stop offset="1" stop-color="#FEDEFF"/>
</linearGradient>
<linearGradient id="paint3_linear" x1="0" y1="0" x2="1" y2="0" gradientUnits="userSpaceOnUse" gradientTransform="matrix(46.4151 0 0 60.968 -0.0355815 -12.9119)">
<stop offset="0" stop-color="#D64DC0"/>
<stop offset="1" stop-color="#FEDEFF"/>
</linearGradient>
<linearGradient id="paint4_linear" x1="0" y1="0" x2="1" y2="0" gradientUnits="userSpaceOnUse" gradientTransform="matrix(49.0947 0 0 129.577 -0.0376356 -27.4419)">
<stop offset="0" stop-color="#8CFF9F"/>
<stop offset="1" stop-color="#62EEDD"/>
</linearGradient>
<linearGradient id="paint5_linear" x1="0" y1="0" x2="1" y2="0" gradientUnits="userSpaceOnUse" gradientTransform="matrix(49.0947 0 0 58.6837 -0.0376356 -12.4281)">
<stop offset="0" stop-color="#8CFF9F"/>
<stop offset="1" stop-color="#62EEDD"/>
</linearGradient>
<linearGradient id="paint6_linear" x1="0" y1="0" x2="1" y2="0" gradientUnits="userSpaceOnUse" gradientTransform="matrix(47.4928 0 0 120.932 -0.0364076 -25.6111)">
<stop offset="0" stop-color="#FFDB94"/>
<stop offset="1" stop-color="#FFE500"/>
</linearGradient>
<linearGradient id="paint7_linear" x1="0" y1="0" x2="1" y2="0" gradientUnits="userSpaceOnUse" gradientTransform="matrix(47.4928 0 0 50.6435 -0.0364076 -10.7253)">
<stop offset="0" stop-color="#FFDB94"/>
<stop offset="1" stop-color="#FFE500"/>
</linearGradient>
<linearGradient id="paint8_linear" x1="0" y1="0" x2="1" y2="0" gradientUnits="userSpaceOnUse" gradientTransform="matrix(43.4177 0 0 128.809 -0.0332836 -27.2792)">
<stop offset="0" stop-color="#EB5757"/>
<stop offset="1" stop-color="#C72E2E"/>
</linearGradient>
<linearGradient id="paint9_linear" x1="0" y1="0" x2="1" y2="0" gradientUnits="userSpaceOnUse" gradientTransform="matrix(43.3722 0 0 57.896 -0.0332488 -12.2613)">
<stop offset="0" stop-color="#EB5757"/>
<stop offset="1" stop-color="#C72E2E"/>
</linearGradient>
<linearGradient id="paint10_linear" x1="0" y1="0" x2="1" y2="0" gradientUnits="userSpaceOnUse" gradientTransform="matrix(57.2241 0 0 134.779 -0.0438675 -28.5435)">
<stop offset="0" stop-color="#BB6BD9"/>
<stop offset="1" stop-color="#9B51E0"/>
</linearGradient>
<linearGradient id="paint11_linear" x1="0" y1="0" x2="1" y2="0" gradientUnits="userSpaceOnUse" gradientTransform="matrix(56.997 0 0 64.2764 -0.0436935 -13.6125)">
<stop offset="0" stop-color="#BB6BD9"/>
<stop offset="1" stop-color="#9B51E0"/>
</linearGradient>
<linearGradient id="paint12_linear" x1="0" y1="0" x2="1" y2="0" gradientUnits="userSpaceOnUse" gradientTransform="matrix(88.7882 0 0 163.783 -0.0680643 -34.6861)">
<stop offset="0" stop-color="#6FCF97"/>
<stop offset="1" stop-color="#27AE60"/>
</linearGradient>
<linearGradient id="paint13_linear" x1="0" y1="0" x2="1" y2="0" gradientUnits="userSpaceOnUse" gradientTransform="matrix(88.6974 0 0 93.185 -0.0679947 -19.7348)">
<stop offset="0" stop-color="#6FCF97"/>
<stop offset="1" stop-color="#27AE60"/>
</linearGradient>
<linearGradient id="paint14_linear" x1="0" y1="0" x2="1" y2="0" gradientUnits="userSpaceOnUse" gradientTransform="matrix(60.1762 0 0 149.584 -0.0461306 -31.6791)">
<stop offset="0" stop-color="#F2C94C"/>
<stop offset="1" stop-color="#F2994A"/>
</linearGradient>
<linearGradient id="paint15_linear" x1="0" y1="0" x2="1" y2="0" gradientUnits="userSpaceOnUse" gradientTransform="matrix(60.1782 0 0 78.6913 -0.0461321 -16.6653)">
<stop offset="0" stop-color="#F2C94C"/>
<stop offset="1" stop-color="#F2994A"/>
</linearGradient>
<linearGradient id="paint16_linear" x1="0" y1="0" x2="1" y2="0" gradientUnits="userSpaceOnUse" gradientTransform="matrix(106.78 0 0 314.253 -0.0818564 -66.5527)">
<stop offset="0" stop-color="#211E96"/>
<stop offset="1" stop-color="#3678C7"/>
</linearGradient>
<linearGradient id="paint17_linear" x1="0" y1="0" x2="1" y2="0" gradientUnits="userSpaceOnUse" gradientTransform="matrix(106.798 0 0 243.557 -0.0818701 -51.5807)">
<stop offset="0" stop-color="#211E96"/>
<stop offset="1" stop-color="#3678C7"/>
</linearGradient>
<linearGradient id="paint18_linear" x1="0" y1="0" x2="1" y2="0" gradientUnits="userSpaceOnUse" gradientTransform="matrix(223.583 0 0 208.27 -0.171397 -44.1075)">
<stop offset="0" stop-color="#6681F2"/>
<stop offset="1" stop-color="#62CCEE"/>
</linearGradient>
<linearGradient id="paint19_linear" x1="0" y1="0" x2="1" y2="0" gradientUnits="userSpaceOnUse" gradientTransform="matrix(223.537 0 0 137.553 -0.171362 -29.131)">
<stop offset="0" stop-color="#6681F2"/>
<stop offset="1" stop-color="#62CCEE"/>
</linearGradient>
<path id="path0_fill" d="M 36.3467 2.41033C 31.4914 1.72816 26.5907 1.2279 21.6447 0.818602C 14.6567 0.272867 7.57791 0 0.544518 0C 0.226881 0 5.53915e-06 0.272867 5.53915e-06 0.545735L 5.53915e-06 40.9301L 0.635277 71.5367C 0.635277 71.855 0.907528 72.0824 1.17979 72.0824C 5.58133 72.0824 9.9375 72.2643 14.2937 72.5827C 17.833 72.8556 21.327 73.2649 24.7757 73.7651C 25.0479 73.8106 25.2748 73.6742 25.3656 73.4468L 37.6627 43.6588C 37.708 43.6133 37.708 43.5223 37.708 43.4314L 37.708 3.0925C 37.708 2.81963 37.5265 2.59224 37.2543 2.54676C 36.9366 2.50128 36.619 2.45581 36.3467 2.41033Z"/>
<path id="path1_fill" d="M 14.2937 31.6526C 17.9692 31.9255 21.5993 32.3348 25.1841 32.8805L 37.6627 2.59224C 37.2089 2.54676 36.7551 2.45581 36.3014 2.41033C 31.4461 1.72816 26.5454 1.2279 21.5993 0.818602C 14.4752 0.272867 7.2149 0 5.53915e-06 0L 0.635277 31.1523C 5.21832 31.1523 9.756 31.3343 14.2937 31.6526Z"/>
<path id="path2_fill" d="M 45.0591 6.92135C 34.7586 3.87433 23.9589 1.60044 12.9324 0.00871347C 12.6601 -0.0367644 12.4332 0.0996696 12.3425 0.327059L 0.0453712 30.1151C -5.54118e-06 30.1605 5.53915e-06 30.2515 5.53915e-06 30.3425L 5.53915e-06 70.6813C 5.53915e-06 70.9542 0.181512 71.1816 0.453773 71.2271C 7.75942 72.3185 14.8836 73.9102 21.6901 75.9568C 21.9169 76.0022 22.0984 75.9568 22.28 75.7748L 46.2842 48.4426C 46.375 48.3517 46.4204 48.2153 46.4204 48.0788L 46.4204 7.73995C 46.4204 7.51256 46.2389 7.28517 46.012 7.19422C 45.6943 7.10326 45.3767 7.0123 45.0591 6.92135Z"/>
<path id="path3_fill" d="M 22.0077 35.1999L 46.375 7.41289C 45.9212 7.27646 45.4675 7.14002 45.0137 7.00359C 34.577 3.95657 23.6413 1.59173 12.4786 3.46969e-07L -5.53915e-06 30.2883C 7.5779 31.4252 14.9743 33.0624 22.0077 35.1999Z"/>
<path id="path4_fill" d="M 47.7817 8.73175C 44.5599 7.27646 41.202 5.86664 37.8442 4.59326C 33.4426 2.91058 28.9503 1.40981 24.3673 -3.2314e-15L -2.76957e-06 27.787L -2.76957e-06 68.7171C 2.81335 69.5811 5.58134 70.5362 8.25856 71.5367C 10.8904 72.5372 13.4769 73.6287 15.9726 74.8111L 49.0522 50.253L 49.0522 9.32296C 48.5984 9.09557 48.1901 8.91366 47.7817 8.73175Z"/>
<path id="path5_fill" d="M 8.25856 30.6066C 10.8904 31.6071 13.4769 32.6986 15.9726 33.881L 49.0522 9.32296C 48.6438 9.14105 48.19 8.91366 47.7817 8.73175C 44.5599 7.27646 41.202 5.86664 37.8442 4.59326C 33.4426 2.91058 28.9503 1.40981 24.3673 -3.2314e-15L -5.53915e-06 27.787C 2.81335 28.6511 5.58133 29.6061 8.25856 30.6066Z"/>
<path id="path6_fill" d="M 47.4518 7.24594C 47.4518 7.24594 46.9951 6.97437 46.6297 6.74806C 46.5384 6.7028 46.4014 6.61228 46.31 6.56701C 42.2453 4.21341 37.998 2.04085 33.5679 0.0493429C 33.3852 -0.0411804 33.1569 0.00408124 33.0199 0.0946045L 0.228353 24.219C 0.0913413 24.3096 0 24.4906 0 24.6717L 0 64.7734C 0 64.9998 0.137012 65.1808 0.319694 65.2713C 2.96859 66.4934 5.52615 67.8512 7.99236 69.2543C 8.26639 69.4354 8.58608 69.5712 8.8601 69.7522C 9.04279 69.8428 9.27114 69.8428 9.40815 69.7522L 47.1321 48.1624C 47.3148 48.0719 47.4061 47.8909 47.4061 47.6646L 47.4518 7.24594Z"/>
<path id="path7_fill" d="M 7.99236 28.5601C 8.4034 28.7864 8.76876 29.0127 9.13413 29.239L 47.4518 7.33238C 47.0864 7.10607 46.6754 6.87976 46.31 6.65346C 42.154 4.25459 37.8153 2.03677 33.2939 0L 0 24.4413C 2.78591 25.7539 5.43481 27.1117 7.99236 28.5601Z"/>
<path id="path8_fill" d="M 42.6995 0.545735C 42.6995 0.22739 42.4272 0 42.155 0C 41.9734 0 41.7466 0 41.5651 0C 27.7252 0.0909557 13.8853 1.27338 0.45377 3.54727C 0.18151 3.59275 2.76957e-06 3.82014 2.76957e-06 4.09301L 2.76957e-06 44.4319C 2.76957e-06 44.5228 -1.38614e-06 44.6138 0.0453753 44.7048L 15.2919 74.0835C 15.3827 74.3108 15.655 74.4018 15.8818 74.3563C 24.6849 72.901 33.7603 72.1734 42.8356 72.1279C 43.1532 72.1279 43.3801 71.9005 43.3801 71.5822L 43.3801 31.1523L 42.6995 0.545735Z"/>
<path id="path9_fill" d="M 43.3348 31.1523L 42.6995 0C 42.3365 0 41.9281 0 41.5651 0C 27.5437 0.0909557 13.5223 1.31886 2.76957e-06 3.59275L 15.5188 33.4262C 24.5488 31.9255 33.9418 31.1523 43.3348 31.1523Z"/>
<path id="path10_fill" d="M 41.9281 0.272868C 41.7012 0.181912 41.5651 0.0909551 41.3382 -6.93937e-07C 29.8579 1.95555 18.7406 4.7297 8.16781 8.27697C 5.62671 9.14105 3.13099 10.0506 0.635271 10.9602C 0.408388 11.0511 0.272263 11.233 0.272263 11.4604L 0 51.8448C 0 52.0267 0.0907506 52.1631 0.181504 52.2541L 29.8579 77.6762C 29.994 77.8126 30.2209 77.8581 30.4024 77.7672C 31.9452 77.1759 33.5334 76.6302 35.1216 76.0845C 42.0188 73.7651 49.2791 71.9915 56.7209 70.7181C 56.9931 70.6726 57.1746 70.4452 57.1746 70.1724L 57.1746 29.8335C 57.1746 29.7425 57.1746 29.6516 57.1293 29.5606L 41.9281 0.272868Z"/>
<path id="path11_fill" d="M 34.8947 35.2908C 41.9281 32.926 49.3245 31.1069 56.9478 29.8335L 41.4289 0C 41.202 0.0454779 40.9298 0.0909554 40.7029 0.136433C 29.3587 2.09198 18.3322 4.82066 7.89555 8.36793C 5.21832 9.27749 2.58647 10.187 -1.38479e-06 11.1876L 29.8579 37.1099C 31.4914 36.4278 33.1704 35.8366 34.8947 35.2908Z"/>
<path id="path12_fill" d="M 58.9897 0.0909557C 58.8082 0.0454779 58.6267 0.0454793 58.4452 1.38787e-06C 50.1866 3.18345 42.3818 6.86716 35.1216 11.0966C 19.2397 20.2831 7.53253 31.0159 0.0907534 42.4309C 0.0453767 42.5218 0.0453764 42.6128 -3.46197e-07 42.7492L -3.46197e-07 83.0881C -3.46197e-07 83.3609 0.181506 83.5883 0.453767 83.6338L 49.9598 94.5485C 50.1866 94.594 50.4135 94.503 50.5496 94.3211C 55.405 86.9537 62.9829 79.9956 73.238 74.038C 77.9572 71.3093 82.994 68.9445 88.3484 66.8525C 88.5753 66.7615 88.7115 66.5796 88.7115 66.3522L 88.7115 26.0588C 88.7115 25.8769 88.6207 25.7405 88.53 25.6495L 58.9897 0.0909557Z"/>
<path id="path13_fill" d="M 73.1473 33.2443C 77.9572 30.4702 83.1301 28.0144 88.6207 25.9224L 58.7628 0C 58.6721 0.0454779 58.5813 0.0454765 58.4906 0.0909544C 50.232 3.27441 42.3818 7.00359 35.1216 11.1876C 19.3305 20.3286 7.66866 30.9704 0.226883 42.3399C 0.13613 42.4763 0.0907531 42.5673 -3.46197e-07 42.7037L 50.2774 53.8003C 55.0419 46.342 62.7106 39.2929 73.1473 33.2443Z"/>
<path id="path14_fill" d="M 60.1241 52.0267L 60.1241 11.0966L 9.80137 0C 4.17466 8.6408 0.998287 17.6454 0.181507 26.741L 0 27.2867L 0 31.6526C 0 31.7436 0 31.88 0 31.9709L 0.0453767 70.1269C 0 71.5822 0 72.992 0.0453767 74.4473C 0.181507 78.1765 0.771404 81.9057 1.72431 85.5894C 1.76969 85.8622 1.86045 86.0896 1.9512 86.3625L 55.1781 81.6328L 54.8604 80.4958C 52.4555 70.991 54.2252 61.1677 60.1241 52.0267Z"/>
<path id="path15_fill" d="M 60.1261 11.0966L 9.80338 0C 0.546536 14.28 -2.17607 29.6971 1.72633 44.6593C 1.77171 44.9321 1.86246 45.1595 1.95321 45.4324L 55.1801 40.7027C 52.3214 30.834 54.0003 20.556 60.1261 11.0966Z"/>
<path id="path16_fill" d="M 106.681 102.803L 106.681 62.8277C 107.044 40.1797 92.5231 17.4862 63.1644 0.0682196C 62.9829 -0.0227362 62.756 -0.0227362 62.6199 0.0682196L 25.1387 21.7612C 24.9572 21.8521 24.8664 22.034 24.8664 22.2614L 24.8664 62.5548C 24.8664 62.7367 24.9572 62.9186 25.1387 63.0096C 34.577 68.6943 41.6104 75.2431 46.2389 82.2013C 46.375 82.3832 46.375 82.656 46.2389 82.8379C 41.3835 90.1144 33.8964 96.9816 23.732 102.848C 16.6533 106.941 8.80308 110.261 0.408385 112.899C 0.181501 112.99 -2.76957e-06 113.172 -2.76957e-06 113.445L -2.76957e-06 153.738C -2.76957e-06 153.874 0.0453822 154.011 0.136136 154.102L 24.7757 181.252C 24.9118 181.434 25.1387 181.479 25.3656 181.388C 38.4341 177.341 50.7312 172.156 61.7577 165.79C 91.3887 148.644 106.363 126.269 106.681 103.803L 106.681 103.667C 106.681 103.348 106.681 103.076 106.681 102.803Z"/>
<path id="path17_fill" d="M 62.8921 -1.38787e-06L 24.8211 22.0113C 62.5745 44.5683 62.2115 80.5868 23.6866 102.916C 16.5171 107.055 8.48544 110.466 -2.76957e-06 113.058L 25.0479 140.618C 38.2526 136.57 50.6404 131.34 61.7577 124.882C 121.292 90.4555 121.7 34.7451 62.8921 -1.38787e-06Z"/>
<path id="path18_fill" d="M 198.024 41.5668L 177.65 46.2055L 177.604 46.2055C 144.298 51.39 107.225 46.4329 81.0882 31.3343C 65.9777 22.6025 56.7209 11.7333 53.363 0.409301C 53.2723 0.136434 53.0454 2.77575e-06 52.7731 2.77575e-06L 0.499144 4.59327C 0.226884 4.63875 8.65492e-08 4.86613 8.65492e-08 5.139L 8.65492e-08 45.4779C 8.65492e-08 45.5234 8.65492e-08 45.5688 8.65492e-08 45.6143C 4.94606 63.3962 19.2851 80.4958 43.0171 94.2301C 91.7517 122.426 165.035 127.702 222.981 110.056C 223.117 109.875 223.208 109.738 223.39 109.511L 223.39 69.2173C 223.39 69.0809 223.344 68.9445 223.253 68.8535L 198.568 41.6577C 198.432 41.5668 198.205 41.5213 198.024 41.5668Z"/>
<path id="path19_fill" d="M 81.0882 31.3797C 65.7962 22.5115 56.494 11.5059 53.2269 0L 8.65492e-08 4.68421C 4.94606 22.5115 19.2851 39.6567 43.0171 53.391C 91.7063 81.5873 165.035 86.8627 222.936 69.2628C 223.072 69.2173 223.208 69.1718 223.344 69.1264L 198.296 41.5668C 160.634 53.1181 112.806 49.7528 81.0882 31.3797Z"/>
</defs>
</svg>
