<?xml version="1.0" encoding="utf-8"?>
<!-- Generator: Adobe Illustrator 21.1.0, SVG Export Plug-In . SVG Version: 6.00 Build 0)  -->
<svg version="1.1" id="Warstwa_1" xmlns="http://www.w3.org/2000/svg" xmlns:xlink="http://www.w3.org/1999/xlink" x="0px" y="0px"
	 viewBox="0 0 32.9 33.5" style="enable-background:new 0 0 32.9 33.5;" xml:space="preserve">
<style type="text/css">
	.st0{fill:none;stroke:#3B00F2;stroke-miterlimit:10;}
</style>
<g>
	<path class="st0" d="M24.3,24.3c3.6-2.1,7.4-2.2,7.9-4.4c0.7-3.3-2.9-3.9-5-2.9"/>
	<path class="st0" d="M10.5,9.9C9.3,8.8,9.4,7,10.2,6.1c0.7-1,0.9-2.5-0.2-3.7 M14.9,9.3C13.2,8,13.4,6,14.4,4.8s1.3-3-0.3-4.4
		 M19.5,9.9c-1.2-1.1-1.1-2.9-0.3-3.8c0.7-1,0.9-2.5-0.2-3.7"/>
	<path class="st0" d="M7.3,32.9h14.8c2.6,0,6.5-3.1,6.6-4.2H0.6C0.8,29.8,4.5,32.9,7.3,32.9L7.3,32.9z M9.5,28.6
		C4.7,25.9,1.6,18,2,13.9c4.4,0,17.8,0,25.4,0c0.4,4.5-3.4,12.3-7.5,14.7"/>
</g>
</svg>
