<!-- Generator: Adobe Illustrator 21.0.0, SVG Export Plug-In  -->
<svg version="1.1"
	 xmlns="http://www.w3.org/2000/svg" xmlns:xlink="http://www.w3.org/1999/xlink" xmlns:a="http://ns.adobe.com/AdobeSVGViewerExtensions/3.0/"
	 x="0px" y="0px" width="1001px" height="1160px" viewBox="0 0 1001 1160"
	 style="overflow:scroll;enable-background:new 0 0 1001 1160;" xml:space="preserve">
<style type="text/css">
	.st0{fill:none;stroke:#00A8E1;stroke-width:4;stroke-miterlimit:10;}
	.st1{fill:none;stroke:#0047BA;stroke-width:4;stroke-miterlimit:10;}
	.st2{fill:#0047BA;}
	.st3{fill:none;stroke:#FFFFFF;stroke-width:2;stroke-linecap:round;stroke-linejoin:round;stroke-miterlimit:10;}
	.st4{fill:none;stroke:#7DA4DD;stroke-width:3;stroke-linecap:round;stroke-linejoin:round;stroke-dasharray:0,7.036;}
	.st5{fill:none;stroke:#82C341;stroke-width:4;stroke-miterlimit:10;}
	.st6{fill:#00A8E1;}
	.st7{fill:#82C341;}
	.st8{fill:none;stroke:#CEE39F;stroke-width:3;stroke-linecap:round;stroke-linejoin:round;stroke-dasharray:0,7.036;}
	.st9{fill:none;stroke:#FFFFFF;stroke-width:2;stroke-miterlimit:10;}
	.st10{fill:none;stroke:#7DCEF1;stroke-width:3;stroke-linecap:round;stroke-linejoin:round;stroke-dasharray:0,7.036;}
	.st11{fill:#00A8E1;stroke:#FFFFFF;stroke-width:2;stroke-linecap:round;}
	.st12{fill:#00A8E1;stroke:#FFFFFF;stroke-width:2;stroke-linecap:round;stroke-miterlimit:10;}
	.st13{fill:none;stroke:#FFFFFF;stroke-width:2;stroke-linecap:round;stroke-miterlimit:10;}
	.st14{fill:none;stroke:#FFFFFF;stroke-width:2;stroke-linecap:round;stroke-linejoin:round;}
	.st15{fill:none;stroke:#FFFFFF;stroke-width:2;stroke-linecap:round;}
	.st16{fill:#FFFFFF;}
	.st17{fill:none;stroke:#FFFFFF;stroke-width:2;stroke-linejoin:round;}
	.st18{fill:#82C341;stroke:#FFFFFF;stroke-width:2;stroke-linejoin:round;}
	.st19{fill:none;stroke:#FFFFFF;stroke-width:2;stroke-linecap:square;stroke-miterlimit:10;}
	.st20{fill:#82C341;stroke:#FFFFFF;stroke-width:2;stroke-linecap:round;stroke-linejoin:round;stroke-miterlimit:10;}
	.st21{fill:#0047BA;stroke:#FFFFFF;stroke-width:2;stroke-linecap:round;stroke-linejoin:round;stroke-miterlimit:10;}
	
		.st22{fill-rule:evenodd;clip-rule:evenodd;fill:none;stroke:#FFFFFF;stroke-width:2;stroke-linecap:round;stroke-linejoin:round;stroke-miterlimit:10;}
	.st23{fill:none;stroke:#7DA4DD;stroke-width:2;stroke-linecap:round;stroke-linejoin:round;stroke-dasharray:0,5.8906;}
	.st24{fill:none;stroke:#CEE39F;stroke-width:2;stroke-linecap:round;stroke-linejoin:round;stroke-dasharray:0,5.8906;}
	.st25{fill:#FFFFFF;stroke:#82C341;stroke-width:4;stroke-miterlimit:10;}
	.st26{fill:#FFFFFF;stroke:#00A8E1;stroke-width:4;stroke-miterlimit:10;}
	.st27{fill:#FFFFFF;stroke:#0047BA;stroke-width:4;stroke-miterlimit:10;}
</style>
<defs>
</defs>
<path class="st0" d="M751.2,486.5h-55.4c-9.8,0-19.2,3.9-26.1,10.8L563.3,603.8c-25.3,25.3-39.5,59.6-39.5,95.4v81l-0.3,20.5v258.2
	c0,36.5,29.7,66.3,66.3,66.3H888"/>
<path class="st1" d="M588.5,793l-15.8,15.8c-17.4,17.4-27.1,41-27.1,65.5v184.5c0,24.4,19.8,44.2,44.2,44.2H788"/>
<path class="st0" d="M322.9,302.4l110.5,110.5c29.4,29.4,45.9,69.3,45.9,110.8"/>
<ellipse transform="matrix(0.7071 -0.7071 0.7071 0.7071 -305.7647 236.5897)" class="st2" cx="132.7" cy="487.4" rx="118.1" ry="118.1"/>
<g>
	<path class="st3" d="M191,472.8c-1.4-31-27-55.6-58.3-55.6c-31.3,0-56.9,24.7-58.3,55.6H191z"/>
	<g>
		<path class="st3" d="M176,465.8c-2.6-12.2-9.3-22.9-18.5-30.6"/>
	</g>
	<path class="st3" d="M194,473.2H71.4c-1.4,0-2.5,2.6-2.5,5.9c0,3.2,1.1,5.8,2.5,5.8H194c1.4,0,2.5-2.7,2.5-5.8
		C196.5,475.8,195.4,473.2,194,473.2z"/>
	<path class="st3" d="M101.7,540.5c0,0-7.5-10.3-2.1-23.1c4.1-9.8-0.7-35.9-0.7-30.5c0,0.4,11-4.5,12.5,7.1
		c1.7,13.5,6.3,23.6,17.9,16.9"/>
	<path class="st3" d="M123.6,558.5v-8.8l54.8-61.4c0,0-6.3-5.9-14.6,1.8c-9.2,8.5-23.8,23.4-23.8,23.4"/>
	<path class="st3" d="M95.7,557.9l7-17.6c0,0,3.9-11.6,15.4-19.3c11.6-7.7,15-16.3,16.4-23.6c1.7-8.6,2.9-10.2,11.6-11.2l-8.2,34.8"
		/>
	<line class="st3" x1="132.7" y1="417.2" x2="132.7" y2="409.6"/>
</g>
<g>
	
		<ellipse transform="matrix(0.7071 -0.7071 0.7071 0.7071 -305.7646 236.5899)" class="st4" cx="132.7" cy="487.4" rx="105.3" ry="105.3"/>
</g>
<path class="st1" d="M323,828.9l108.3,108.3c16.6,16.6,25.9,39.1,25.9,62.6"/>
<path class="st5" d="M682.4,307.7L547.3,442.8c-29.4,29.4-45.9,69.3-45.9,110.8"/>
<path class="st5" d="M547.5,442.6l12.5-12.5l18.7-18.7c5.9-5.9,13.8-9.2,22.1-9.2h71.6"/>
<path class="st0" d="M584.9,582.2l8.4-8.4c16.5-16.5,25.8-39,25.8-62.3V467"/>
<path class="st0" d="M523.5,800.5v-6c0-33,13.1-64.6,36.4-87.9l105-105"/>
<path class="st5" d="M555.3,434.9L555.3,434.9c15-15,23.5-35.4,23.5-56.6v-75.3"/>
<path class="st0" d="M433.3,412.9l-5.1-5.1c-11.7-11.7-18.3-27.6-18.3-44.2v-55.8"/>
<circle class="st6" cx="453.9" cy="360.6" r="24.4"/>
<circle class="st7" cx="543.5" cy="384.8" r="24.4"/>
<circle class="st6" cx="619.2" cy="457.7" r="24.4"/>
<circle class="st7" cx="562.4" cy="522" r="24.4"/>
<path class="st5" d="M501.4,445.6c0-13.1,5.2-25.6,14.4-34.9l17.8-17.8"/>
<path class="st0" d="M479.3,597.5c0-18.7-7.4-36.7-20.7-50L328,416.8"/>
<path class="st1" d="M329.8,585.2h78.1c13.6,0,26.6,5.4,36.2,15l5.4,5.4"/>
<path class="st1" d="M393.1,675.3l48.5,48.5c10,10,15.7,23.6,15.7,37.8"/>
<path class="st5" d="M501.4,620.6c0-23.1,9.2-45.3,25.6-61.7l37.8-37.8"/>
<path class="st1" d="M419,924.9l-6.3-6.3c-8.4-8.4-13.1-19.8-13.1-31.7V857"/>
<circle class="st7" cx="501.4" cy="118.1" r="118.1"/>
<g>
	
		<ellipse transform="matrix(0.7071 -0.7071 0.7071 0.7071 63.317 389.1172)" class="st8" cx="501.4" cy="118.1" rx="105.3" ry="105.3"/>
</g>
<g>
	<path class="st9" d="M435.4,149c0,0.9,0.4,1.8,1.1,2.5c0.8,0.7,1.7,1,2.7,1h124.9c1,0,2-0.3,2.7-1c0.8-0.7,1.1-1.6,1.1-2.5v-8.4
		H435.4V149z"/>
	<polygon class="st9" points="516.1,173.4 487.2,173.4 489.9,152.7 513.5,152.7 	"/>
	<path class="st9" d="M523.9,175.6h-44.4v-0.8c0-0.3,0.1-0.7,0.4-0.9c0.3-0.3,0.6-0.4,1-0.4h41.7c0.4,0,0.7,0.1,1,0.4
		c0.3,0.3,0.4,0.6,0.4,0.9V175.6z"/>
	<path class="st9" d="M435.4,140.6H568v-77c0-0.9-0.4-1.8-1.1-2.5c-0.8-0.7-1.7-1-2.7-1H439.3c-1,0-2,0.3-2.7,1
		c-0.8,0.7-1.1,1.6-1.1,2.5V140.6z"/>
	<rect x="441.2" y="65.8" class="st9" width="121" height="70.6"/>
	<g>
		<g>
			<rect x="448" y="107.1" class="st9" width="105.4" height="4.4"/>
			<rect x="481.8" y="120.6" class="st9" width="28.8" height="8"/>
			<g>
				<path class="st9" d="M530,85.9l8.9,8.2c4.6-4.8,4.3-12.4-0.6-16.9c-2.3-2.1-5.1-3.2-8.3-3.2V85.9z"/>
				<path class="st9" d="M530,85.9l-11.7-3.1c-1.7,6.4,2.1,13,8.6,14.7c4.4,1.2,8.9-0.1,12-3.4L530,85.9z"/>
				<path class="st9" d="M530,85.9v-12c-5.6,0-10.3,3.5-11.7,8.9L530,85.9z"/>
			</g>
			<rect x="549.8" y="73.8" class="st9" width="3.6" height="3.5"/>
			<rect x="549.8" y="84.4" class="st9" width="3.6" height="3.5"/>
			<rect x="549.8" y="95" class="st9" width="3.6" height="3.5"/>
			<path class="st9" d="M473.5,129.5c0.1,1,1.1,1.8,2.1,1.6c1-0.1,1.8-1.1,1.6-2.1c-0.1-1-1.1-1.8-2.1-1.6
				C474.1,127.5,473.4,128.5,473.5,129.5z"/>
			<path class="st9" d="M465.4,123.9c0.1,1,1.1,1.8,2.1,1.6c1-0.1,1.8-1.1,1.6-2.1c-0.1-1-1.1-1.8-2.1-1.6
				C466,121.9,465.3,122.9,465.4,123.9z"/>
			<path class="st9" d="M456.4,127.5c0.1,1,1.1,1.8,2.1,1.6c1-0.1,1.8-1.1,1.6-2.1c-0.1-1-1.1-1.8-2.1-1.6
				C457,125.5,456.3,126.5,456.4,127.5z"/>
			<path class="st9" d="M447.3,120.3c0.1,1,1.1,1.8,2.1,1.6c1-0.1,1.8-1.1,1.6-2.1c-0.1-1-1.1-1.8-2.1-1.6
				C447.9,118.4,447.1,119.3,447.3,120.3z"/>
			<g>
				<rect x="473.9" y="76.8" class="st9" width="3.7" height="22.3"/>
				<rect x="465.3" y="85.8" class="st9" width="3.7" height="13.3"/>
				<rect x="456.6" y="87.8" class="st9" width="3.7" height="11.3"/>
				<rect x="448" y="91.9" class="st9" width="3.8" height="7.2"/>
			</g>
			<line class="st9" x1="483.7" y1="78.5" x2="511" y2="78.5"/>
			<line class="st9" x1="483.7" y1="85.8" x2="511" y2="85.8"/>
			<line class="st9" x1="517.8" y1="120.6" x2="554.9" y2="120.6"/>
			<line class="st9" x1="517.8" y1="127.9" x2="554.9" y2="127.9"/>
			<line class="st9" x1="483.7" y1="93.1" x2="511" y2="93.1"/>
			<line class="st9" x1="450.7" y1="121.3" x2="456.8" y2="126"/>
			<line class="st9" x1="460.3" y1="127.3" x2="465.7" y2="125"/>
			<line class="st9" x1="469.1" y1="124.4" x2="474.1" y2="127.7"/>
		</g>
	</g>
</g>
<ellipse transform="matrix(0.7071 -0.7071 0.7071 0.7071 -89.9994 236.59)" class="st6" cx="240.6" cy="226.9" rx="118.1" ry="118.1"/>
<g>
	
		<ellipse transform="matrix(0.7071 -0.7071 0.7071 0.7071 -89.9993 236.5899)" class="st10" cx="240.6" cy="226.9" rx="105.3" ry="105.3"/>
</g>
<g>
	<path class="st3" d="M273,227.9v5.9c0,1.2-1,2.1-2.1,2.1H187c-1.2,0-2.1-1-2.1-2.1v-5.9H273z M273,227.9v-56.1c0-1.2-1-2.1-2.1-2.1
		H187c-1.2,0-2.1,1-2.1,2.1v56.1H273z M268.6,223.5h-79.2v-49.4h79.2V223.5z M268.6,200.1v23.1 M263,256c0-0.2-0.1-0.5-0.2-0.7
		l-6.6-19.4h-54.6l-6.6,19.4c-0.1,0.2-0.1,0.5-0.2,0.7H263z M286.2,282.3c0,1.1-0.9,1.9-1.9,1.9H164.9c-1.1,0-1.9-0.9-1.9-1.9V258
		c0-1.1,0.9-1.9,1.9-1.9h119.4c1.1,0,1.9,0.9,1.9,1.9V282.3z M180.4,228.2c0,0.9-0.9,1.6-1.9,1.6h-11.2c-1,0-2.2-0.7-2.5-1.6
		l-1.9-5.3c-0.4-1.2,0.2-2.2,1.5-2.3l13.7-0.1c1.3,0,2.4,1,2.4,2.3V228.2z M314.9,261.1h1.7c1.1,0,1.9,0.9,1.9,1.9v18.9
		c0,1.1-0.9,1.9-1.9,1.9h-24.7c-1.1,0-1.9-0.9-1.9-1.9V263c0-1.1,0.9-1.9,1.9-1.9h2.2 M228.6,269.4c0-2.2-1.8-4-4-4
		c-2.2,0-4,1.8-4,4c0,1.8,1.2,3.3,2.8,3.8v1.9c0,0.6,0.5,1.2,1.2,1.2c0.6,0,1.2-0.5,1.2-1.2v-1.9
		C227.4,272.7,228.6,271.2,228.6,269.4z M279.6,180.6l-6.8-1.4v43.4l6.8-1.4c1-0.2,1.8-1.1,1.8-2.1v-36.4
		C281.4,181.7,280.6,180.8,279.6,180.6z M292.3,269.7h23.9"/>
	<rect x="294" y="252" class="st3" width="21" height="14.8"/>
	<path class="st3" d="M185.8,256v-4.4c0-1.1-0.9-1.9-1.9-1.9h-13.8c-1.1,0-1.9,0.9-1.9,1.9v4.4H185.8z"/>
	<path class="st3" d="M178.1,229.7v19.9H175c0,0-0.9-17.3-6.5-19.9"/>
	<line class="st3" x1="214.5" y1="174.1" x2="214.5" y2="222.7"/>
	<line class="st3" x1="268.5" y1="200" x2="214.7" y2="200"/>
	<line class="st3" x1="265.7" y1="180.5" x2="218.7" y2="180.5"/>
	<line class="st3" x1="265.7" y1="185.9" x2="218.7" y2="185.9"/>
	<line class="st3" x1="265.7" y1="191.3" x2="218.7" y2="191.3"/>
	<line class="st3" x1="268.5" y1="207.7" x2="214.5" y2="207.7"/>
	<line class="st3" x1="268.5" y1="215.3" x2="241.3" y2="215.3"/>
	<line class="st3" x1="241.3" y1="200.1" x2="241.3" y2="223.1"/>
	<line class="st3" x1="250.4" y1="200.1" x2="250.4" y2="223.1"/>
	<line class="st3" x1="259.5" y1="200.1" x2="259.5" y2="223.3"/>
	<rect x="293.9" y="252" class="st3" width="21" height="14.8"/>
</g>
<ellipse transform="matrix(0.7071 -0.7071 0.7071 0.7071 -305.7647 757.4941)" class="st2" cx="761.5" cy="747.8" rx="118.1" ry="118.1"/>
<g>
	
		<ellipse transform="matrix(0.7071 -0.7071 0.7071 0.7071 -305.7647 757.4935)" class="st4" cx="761.5" cy="747.8" rx="105.3" ry="105.3"/>
</g>
<g>
	<path class="st3" d="M681.8,757.8h2c1.9,0,3.4,1.5,3.4,3.4c0,1.9-1.5,3.4-3.4,3.4h-3.2"/>
	<line class="st3" x1="779.3" y1="763.1" x2="779.3" y2="700.4"/>
	<rect x="790.8" y="781.8" class="st3" width="51.8" height="6.5"/>
	<rect x="790.8" y="781.8" class="st3" width="8" height="6.5"/>
	<rect x="813.4" y="781.8" class="st3" width="8" height="6.5"/>
	<rect x="834.5" y="781.8" class="st3" width="8" height="6.5"/>
	<rect x="793.1" y="761" class="st3" width="21.4" height="20.8"/>
	<rect x="793.1" y="738.7" class="st3" width="21.4" height="22.3"/>
	<rect x="818.3" y="761" class="st3" width="20" height="20.8"/>
	<path class="st3" d="M784.3,749.4v-20.8v-28.5h-8c-1.5,0-2.7,1.2-2.7,2.7v53.4c-1.4-0.2-2.8-0.4-4.2-0.4c-0.8,0-1.5,0-2.2,0.1
		c-1.6-7-6.1-26.1-8-33.2c-4-15.3-12.8-23.8-28.9-23.8h-21.9c-3,0-5.5,2.3-5.8,5.3l-3.7,38.9c-0.3,2.9-2.7,5.1-5.6,5.1h-1.6
		c-3,0-5.8,1.5-7.5,4c-5.9,9.1-5,27.1,2,33.7c-0.1-0.7-0.2-1.5-0.2-2.3c0-9.7,7.9-17.7,17.7-17.7c9.7,0,17.7,7.9,17.7,17.7l0,3.8
		h26.8c0,0,0.7-9,1.7-12.7l0,0c0,0,0,0,0,0c2.6-8.2,10.3-14.3,19.3-14.3c9,0,16.7,5.9,19.3,14.1v-23.5c0-0.9-0.8-1.7-1.7-1.7H784.3z
		"/>
	<path class="st3" d="M745.1,774.5l-13.2,0l-27.6-23.2l4.1-43.5c0.1-1.6,1.5-2.7,3-2.7h18.9c13.5,0,19.7,6.5,23.1,19.2
		c1.8,6.9,6.3,25.9,7.9,33C753.5,760,747.3,766.4,745.1,774.5z"/>
	<path class="st3" d="M750.1,764.8l-9.5,0l0-3.8c0-5.8-4.3-12.7-13.3-12.7h-19.3l25.7,21.7l13.3,0
		C747.7,768,748.8,766.3,750.1,764.8z"/>
	<path class="st3" d="M715.8,745.2c-1.2,0-2.2-0.8-2.4-1.9l-3.7-16.9c-0.3-1.3,0.6-2.7,1.9-3c1.3-0.3,2.7,0.6,2.9,1.9l3.3,15l14.8,0
		h0c1.4,0,2.5,1.1,2.5,2.5c0,1.4-1.1,2.5-2.5,2.5L715.8,745.2L715.8,745.2z"/>
	<path class="st3" d="M742.2,739.5c0.3,0,0.5-0.1,0.7-0.2l9.7-5c0.8-0.4,1.1-1.4,0.7-2.2c-0.4-0.8-1.4-1.1-2.2-0.7l-9.7,5
		c-0.8,0.4-1.1,1.4-0.7,2.2C741,739.2,741.6,739.5,742.2,739.5z"/>
	<path class="st3" d="M784.6,783.7c-0.2,1.3-0.7,2.5-1.2,3.6c-0.1,0.3-0.2,0.7-0.3,1h7.7v-4.6H784.6z"/>
	<path class="st3" d="M769.3,796.4c8.6,0,15.6-7,15.6-15.6c0-8.6-7-15.6-15.6-15.6c-8.6,0-15.6,7-15.6,15.6
		C753.7,789.4,760.7,796.4,769.3,796.4z"/>
	<ellipse class="st3" cx="769.3" cy="780.8" rx="8.6" ry="8.6"/>
	<path class="st3" d="M703.8,796.7c7.2,0,13-5.8,13-13c0-7.2-5.8-13-13-13c-7.2,0-13,5.8-13,13C690.8,790.9,696.6,796.7,703.8,796.7
		z"/>
	<ellipse class="st3" cx="703.8" cy="783.7" rx="6" ry="6"/>
	<path class="st3" d="M759.3,748.2l-2.2,0c-1.9-6.1-4.1-9.7-6.2-12.7l-5.5,2.8c2.6,3.4,4.8,7,6.8,14.8l1.7,8.1"/>
</g>
<circle class="st6" cx="324.1" cy="412.9" r="52.6"/>
<g>
	<g>
		<path class="st11" d="M340.8,395.8l12.8-5.3c1.5-0.6,2.1-2.4,1.4-4.1c-0.7-1.6-2.4-2.5-3.9-1.8l-10.6,4.4"/>
		<path class="st12" d="M339.5,419.8v-2.3h-22.9l-1.8-2l1,18.8h17.6l0.1-2.9C339.4,427.8,339.5,419.8,339.5,419.8z"/>
		<g>
			<g>
				<path class="st13" d="M340.2,420.7c0,2.1-1.8,3.9-3.9,3.9h-19.4c-2.2,0-3.9-1.7-3.9-3.9v-38.5c0-2.1,1.8-3.9,3.9-3.9h19.4
					c2.2,0,3.9,1.7,3.9,3.9V420.7z"/>
				<path class="st13" d="M330.2,421.1c0,0.5-0.4,0.9-0.9,0.9h-4.2c-0.5,0-0.9-0.4-0.9-0.9l0,0c0-0.5,0.4-0.9,0.9-0.9h4.2
					C329.8,420.2,330.2,420.6,330.2,421.1L330.2,421.1z"/>
				<path class="st13" d="M331.2,381.5c0,0.3-0.3,0.6-0.6,0.6h-8c-0.3,0-0.6-0.3-0.6-0.6l0,0c0-0.3,0.3-0.6,0.6-0.6h8
					C330.9,380.9,331.2,381.2,331.2,381.5L331.2,381.5z"/>
				<polygon class="st13" points="316.6,384.6 316.6,395.7 316.6,417.5 336.6,417.5 336.6,409.7 336.6,384.6 				"/>
				<polygon class="st14" points="316.6,384.6 316.6,395.7 316.6,417.5 336.6,417.5 336.6,409.7 336.6,384.6 				"/>
			</g>
			<path class="st15" d="M336.3,378.3h-19.4c-2.2,0-3.9,1.7-3.9,3.9v38.5c0,2.1,1.8,3.9,3.9,3.9h19.4c2.2,0,3.9-1.7,3.9-3.9v-38.5
				C340.2,380.1,338.4,378.3,336.3,378.3z"/>
		</g>
		<path class="st12" d="M316.1,415.4l0.8-4.1c0.6-1.3,1.9-1.5,1.9-1.5c6.9-1,7.3-6.8,7.3-6.9c0-0.1,0-0.2-0.1-0.2
			c-0.1-0.1-0.1-0.1-0.2-0.1h-14.2c-0.1,0-0.2,0.1-0.3,0.2l-3.9,8.6c-0.5,0.7-0.5,3.1-0.5,3.4l1.6,19.6h12.6
			C323.9,424.9,317.1,416.4,316.1,415.4z"/>
		<path class="st11" d="M316.1,415.4l0.8-4.1c0.6-1.3,1.9-1.5,1.9-1.5c6.9-1,7.3-6.8,7.3-6.9c0-0.1,0-0.2-0.1-0.2
			c-0.1-0.1-0.1-0.1-0.2-0.1h-14.2c-0.1,0-0.2,0.1-0.3,0.2l-3.9,8.6c-0.5,0.7-0.5,3.1-0.5,3.4l1.6,19.6h12.6
			C323.9,424.9,317.1,416.4,316.1,415.4z"/>
		<g>
			<path class="st12" d="M342.2,403.9l-5.1,1.7c-1.5,0.5-2.4,2.5-2,4.3c0.5,1.9,2.1,3,3.6,2.4l5.1-1.7c1.5-0.5,2.4-2.5,2-4.3
				C345.4,404.5,343.8,403.4,342.2,403.9z"/>
			<path class="st12" d="M342.1,395.5l-6.4,2.2c-1.5,0.5-2.4,2.5-2,4.3c0.5,1.9,2.1,3,3.6,2.4l6.4-2.2c1.5-0.5,2.4-2.5,2-4.3
				C345.3,396.1,343.7,395,342.1,395.5z"/>
			<path class="st12" d="M341.1,412.9l-4,1.3c-1.5,0.5-2.4,2.5-2,4.3c0.5,1.9,2.1,3,3.6,2.4l4-1.3c1.5-0.5,2.4-2.5,2-4.3
				C344.2,413.5,342.6,412.4,341.1,412.9z"/>
			<path class="st11" d="M342.2,403.9l-5.1,1.7c-1.5,0.5-2.4,2.5-2,4.3c0.5,1.9,2.1,3,3.6,2.4l5.1-1.7c1.5-0.5,2.4-2.5,2-4.3
				C345.4,404.5,343.8,403.4,342.2,403.9z"/>
			<path class="st11" d="M342.1,395.5l-6.4,2.2c-1.5,0.5-2.4,2.5-2,4.3c0.5,1.9,2.1,3,3.6,2.4l6.4-2.2c1.5-0.5,2.4-2.5,2-4.3
				C345.3,396.1,343.7,395,342.1,395.5z"/>
			<path class="st11" d="M341.1,412.9l-4,1.3c-1.5,0.5-2.4,2.5-2,4.3c0.5,1.9,2.1,3,3.6,2.4l4-1.3c1.5-0.5,2.4-2.5,2-4.3
				C344.2,413.5,342.6,412.4,341.1,412.9z"/>
		</g>
	</g>
	<g>
		<rect x="307.4" y="434.4" class="st11" width="28.5" height="5"/>
		<polyline class="st11" points="306,447.5 306,439.6 338.4,439.6 338.4,447.5 		"/>
	</g>
</g>
<circle class="st6" cx="409" cy="282" r="52.6"/>
<g>
	<g>
		<rect x="376.5" y="266.3" class="st3" width="62.9" height="34.5"/>
		<path class="st3" d="M385.1,296.1c-0.3-1.9-1.9-3.4-3.8-3.7v-17.7c1.9-0.3,3.5-1.8,3.8-3.7h45.7c0.4,1.9,1.9,3.4,3.8,3.7v17.7
			c-1.9,0.3-3.5,1.8-3.8,3.7H385.1z"/>
		<g>
			<g>
				<line class="st3" x1="419.2" y1="283.5" x2="430" y2="283.5"/>
				<g>
					<line class="st3" x1="419.2" y1="279.1" x2="427.2" y2="279.1"/>
					<line class="st3" x1="419.2" y1="288" x2="427.2" y2="288"/>
				</g>
			</g>
			<g>
				<line class="st3" x1="396.7" y1="283.5" x2="385.9" y2="283.5"/>
				<g>
					<line class="st3" x1="396.7" y1="288" x2="388.7" y2="288"/>
					<line class="st3" x1="396.7" y1="279.1" x2="388.7" y2="279.1"/>
				</g>
			</g>
		</g>
		<g>
			<path class="st16" d="M408.3,290.7v2.3h-0.9v-2.3c-1.5,0-2.9-0.3-4-0.9v-1.1c1.2,0.7,2.6,1.1,4,1.1v-6.6
				c-1.6-0.8-2.7-1.5-3.2-2.1c-0.5-0.6-0.8-1.3-0.8-2.1c0-1,0.4-1.9,1.1-2.6c0.7-0.7,1.7-1.2,2.9-1.4v-2h0.9v2
				c1.2,0,2.3,0.2,3.2,0.5v1.1c-0.8-0.4-1.9-0.7-3.2-0.7v6.7c1.5,0.7,2.5,1.4,3.1,2c0.6,0.6,0.9,1.3,0.9,2.2c0,1-0.3,1.9-1,2.6
				C410.5,290.1,409.5,290.5,408.3,290.7z M407.3,275.9c-0.9,0.1-1.6,0.4-2.1,1c-0.5,0.5-0.8,1.2-0.8,1.9c0,0.6,0.2,1.2,0.6,1.7
				c0.4,0.5,1.1,1,2.3,1.6V275.9z M408.3,283.7v6c0.9-0.1,1.6-0.5,2.1-1c0.5-0.5,0.7-1.1,0.7-1.8c0-0.7-0.2-1.2-0.6-1.7
				C410.1,284.8,409.4,284.3,408.3,283.7z"/>
		</g>
	</g>
</g>
<circle class="st7" cx="577.6" cy="297.8" r="52.6"/>
<g>
	<path class="st17" d="M552.2,290.6h44.6v24.8h-41.2c-1.9,0-3.5-1.5-3.5-3.5V290.6z"/>
	<line class="st14" x1="559.6" y1="295.5" x2="559.6" y2="310.4"/>
	<line class="st14" x1="567" y1="295.5" x2="567" y2="310.4"/>
	<line class="st14" x1="574.5" y1="295.5" x2="574.5" y2="310.4"/>
	<circle class="st18" cx="594.3" cy="311.7" r="16.1"/>
	<path class="st17" d="M552.2,290.6v21.1c0,2.1,1.7,3.7,3.7,3.7h22.8"/>
	<line class="st17" x1="596.8" y1="295.8" x2="596.8" y2="290.6"/>
	<line class="st14" x1="581.9" y1="295.5" x2="581.9" y2="301.4"/>
	<polyline class="st17" points="573.7,280.7 548.5,280.7 548.5,290.6 600.5,290.6 600.5,280.7 579.4,280.7 	"/>
	<path class="st17" d="M577.2,284.4c-0.7,1.2-2.2,1.6-3.4,0.9c-1.2-0.7-1.6-2.2-0.9-3.4l8.7-14.9c0.7-1.2,2.2-1.6,3.4-0.9
		c1.2,0.7,1.6,2.2,0.9,3.4L577.2,284.4z"/>
	<polyline class="st14" points="601.7,306.7 596.8,311.7 591.8,316.6 586.9,311.7 	"/>
</g>
<circle class="st2" cx="322.3" cy="585.2" r="31.7"/>
<g>
	<path class="st13" d="M335.9,574.2h-30.4c-1.3,0-2.4,1.1-2.4,2.4V596c0,1.3,1.1,2.4,2.4,2.4h30.4c1.3,0,2.4-1.1,2.4-2.4v-19.4
		C338.3,575.3,337.2,574.2,335.9,574.2z"/>
	<path class="st19" d="M338.3,582.9h-35.2 M338.3,578.1h-35.2"/>
	<path class="st13" d="M314.3,590.4h-7.9 M320.1,594h-13.7"/>
</g>
<ellipse transform="matrix(0.7071 -0.7071 0.7071 0.7071 62.5695 604.9238)" class="st7" cx="761.5" cy="226.9" rx="118.1" ry="118.1"/>
<g>
	
		<ellipse transform="matrix(0.7071 -0.7071 0.7071 0.7071 62.5698 604.9244)" class="st8" cx="761.5" cy="226.9" rx="105.3" ry="105.3"/>
</g>
<g>
	<g>
		<g>
			<path class="st3" d="M777.4,280.9H735c-2.3,0-4.1-1.9-4.1-4.1v-90.6h50.7"/>
		</g>
		<polyline class="st3" points="730.9,207.2 746.9,196.3 730.9,186.1 		"/>
		<g>
			<path class="st3" d="M764.3,280.9h42.4c2.3,0,4.1-1.9,4.1-4.1v-90.6h-50.7 M757.4,222.8c0,2.9-2.3,5.2-5.2,5.2
				c-2.9,0-5.2-2.3-5.2-5.2c0-2.9,2.3-5.2,5.2-5.2C755.1,217.6,757.4,219.9,757.4,222.8z M747,196.3v8c0,1.5,1.2,2.8,2.8,2.8h30.3"
				/>
		</g>
		<polyline class="st3" points="810.8,207.2 794.7,196.3 810.8,186.1 		"/>
		<g>
			<path class="st3" d="M784.2,222.8c0,2.9,2.3,5.2,5.2,5.2s5.2-2.3,5.2-5.2s-2.3-5.2-5.2-5.2S784.2,219.9,784.2,222.8z
				 M794.6,196.3v8c0,1.5-1.2,2.8-2.8,2.8h-30.3"/>
			<path class="st3" d="M743.1,154.3c-3.1,3.1-4.6,6.7-4.6,11c0,4.3,1.5,7.9,4.6,10.9c1.5,1.5,9.4,10.2,23.6,26.1
				c0.4,0.4,0.8,0.5,1.3,0.5s1-0.2,1.5-0.5c15.6-16.8,23.4-25.3,23.6-25.6c3.1-3,4.6-6.6,4.6-10.9c0-4.3-1.5-8-4.5-10.9
				c-3.1-3-6.5-4.5-10.4-4.5c-3.3,0-7.2,2.3-11.7,7l-2.9,2.9l-3-2.9c-4.7-4.7-8.7-7-11.9-7C749.1,150.3,745.7,151.6,743.1,154.3z"/>
			<path class="st20" d="M743.1,154.3c-3.1,3.1-4.6,6.7-4.6,11c0,4.3,1.5,7.9,4.6,10.9c1.5,1.5,9.4,10.2,23.6,26.1
				c0.4,0.4,0.8,0.5,1.3,0.5s1-0.2,1.4-0.5c15.5-16.8,23.4-25.3,23.6-25.5c3.1-3,4.6-6.6,4.6-10.9c0-4.3-1.5-7.9-4.5-10.9
				c-3.1-3-6.5-4.5-10.4-4.5c-3.3,0-7.2,2.3-11.7,7l-2.9,2.9l-3-2.9c-4.7-4.7-8.7-7-11.9-7C749.1,150.3,745.7,151.7,743.1,154.3"/>
			<path class="st3" d="M743.1,154.3c-3.1,3.1-4.6,6.7-4.6,11c0,4.3,1.5,7.9,4.6,10.9c1.5,1.5,9.4,10.2,23.6,26.1
				c0.4,0.4,0.8,0.5,1.3,0.5s1-0.2,1.4-0.5c15.5-16.8,23.4-25.3,23.6-25.5c3.1-3,4.6-6.6,4.6-10.9c0-4.3-1.5-7.9-4.5-10.9
				c-3.1-3-6.5-4.5-10.4-4.5c-3.3,0-7.2,2.3-11.7,7l-2.9,2.9l-3-2.9c-4.7-4.7-8.7-7-11.9-7C749.1,150.3,745.7,151.7,743.1,154.3z"/>
			<path class="st3" d="M789.4,222.8v6.8c0,10.3-8.3,18.6-18.6,18.6c-10.3,0-18.6-8.3-18.6-18.6v-6.8"/>
		</g>
	</g>
	<g>
		<path class="st20" d="M738.5,233.5h-44.1c-1.8,0-3.2,1.4-3.2,3.2v25.9c0,1.8,1.4,3.2,3.2,3.2h44.1c1.8,0,3.2-1.4,3.2-3.2v-25.9
			C741.7,235,740.3,233.5,738.5,233.5z"/>
		<path class="st3" d="M741,245.1h-49.8 M741,238.8h-49.8"/>
		<path class="st3" d="M734.7,249.4l-8,12.1 M713.3,271.5h-29.1 M736.9,271.5H724 M683,245.2h-10.6 M705.6,256.1H695 M713.3,260.9
			H695"/>
		<path class="st3" d="M732.5,259.1c0,1.2,1,2.2,2.2,2.2c1.2,0,2.2-1,2.2-2.2c0-1.2-1-2.2-2.2-2.2
			C733.5,256.9,732.5,257.9,732.5,259.1z M724.6,251.9c0,1.2,1,2.2,2.2,2.2c1.2,0,2.2-1,2.2-2.2s-1-2.2-2.2-2.2
			C725.6,249.7,724.6,250.7,724.6,251.9z"/>
	</g>
</g>
<ellipse transform="matrix(0.7071 -0.7071 0.7071 0.7071 -458.3336 389.1583)" class="st2" cx="240.6" cy="747.8" rx="118.1" ry="118.1"/>
<g>
	
		<ellipse transform="matrix(0.7071 -0.7071 0.7071 0.7071 -458.3338 389.159)" class="st4" cx="240.6" cy="747.8" rx="105.3" ry="105.3"/>
</g>
<g>
	<g>
		<path class="st3" d="M267,716.7c0,1.1-0.9,2-2,2H160.7c-1.1,0-2-0.9-2-2v-15.3c0-1.1,0.9-2,2-2H265c1.1,0,2,0.9,2,2V716.7z"/>
		<path class="st3" d="M226.5,713.2c0,0.9-0.7,1.6-1.6,1.6c-0.9,0-1.6-0.7-1.6-1.6c0-0.9,0.7-1.6,1.6-1.6
			C225.8,711.6,226.5,712.4,226.5,713.2"/>
		<path class="st3" d="M232.6,713.2c0,0.9-0.7,1.6-1.6,1.6c-0.9,0-1.6-0.7-1.6-1.6c0-0.9,0.7-1.6,1.6-1.6
			C231.9,711.6,232.6,712.4,232.6,713.2"/>
		<path class="st3" d="M238.8,713.2c0,0.9-0.7,1.6-1.6,1.6c-0.9,0-1.6-0.7-1.6-1.6c0-0.9,0.7-1.6,1.6-1.6
			C238.1,711.6,238.8,712.4,238.8,713.2"/>
		<path class="st3" d="M244.9,713.2c0,0.9-0.7,1.6-1.6,1.6c-0.9,0-1.6-0.7-1.6-1.6c0-0.9,0.7-1.6,1.6-1.6
			C244.2,711.6,244.9,712.4,244.9,713.2"/>
		<path class="st3" d="M251,713.2c0,0.9-0.7,1.6-1.6,1.6c-0.9,0-1.6-0.7-1.6-1.6c0-0.9,0.7-1.6,1.6-1.6
			C250.3,711.6,251,712.4,251,713.2"/>
		<path class="st3" d="M258.5,714.7c-0.5,0-0.9-0.4-0.9-0.9V704c0-0.5,0.4-0.9,0.9-0.9h3.8c0.5,0,0.9,0.4,0.9,0.9v9.9
			c0,0.5-0.4,0.9-0.9,0.9H258.5z M163.4,714.7c-0.5,0-0.9-0.4-0.9-0.9V704c0-0.5,0.4-0.9,0.9-0.9h10.1c0.5,0,0.9,0.4,0.9,0.9v9.9
			c0,0.5-0.4,0.9-0.9,0.9H163.4z"/>
		<path class="st3" d="M217.5,703.1l-5.9,11.6 M210.5,703.1l-5.9,11.6 M203.4,703.1l-5.9,11.6 M196.3,703.1l-5.9,11.6 M189.2,703.1
			l-5.9,11.6"/>
	</g>
	<g>
		<g>
			<path class="st3" d="M267,742.6c0,1.1-0.9,2-2,2H160.7c-1.1,0-2-0.9-2-2v-15.3c0-1.1,0.9-2,2-2H265c1.1,0,2,0.9,2,2V742.6z"/>
			<path class="st3" d="M226.5,739.1c0,0.9-0.7,1.6-1.6,1.6c-0.9,0-1.6-0.7-1.6-1.6c0-0.9,0.7-1.6,1.6-1.6
				C225.8,737.5,226.5,738.2,226.5,739.1"/>
			<path class="st3" d="M232.6,739.1c0,0.9-0.7,1.6-1.6,1.6c-0.9,0-1.6-0.7-1.6-1.6c0-0.9,0.7-1.6,1.6-1.6
				C231.9,737.5,232.6,738.2,232.6,739.1"/>
			<path class="st3" d="M238.8,739.1c0,0.9-0.7,1.6-1.6,1.6c-0.9,0-1.6-0.7-1.6-1.6c0-0.9,0.7-1.6,1.6-1.6
				C238.1,737.5,238.8,738.2,238.8,739.1"/>
			<path class="st3" d="M244.9,739.1c0,0.9-0.7,1.6-1.6,1.6c-0.9,0-1.6-0.7-1.6-1.6c0-0.9,0.7-1.6,1.6-1.6
				C244.2,737.5,244.9,738.2,244.9,739.1"/>
			<path class="st3" d="M251,739.1c0,0.9-0.7,1.6-1.6,1.6c-0.9,0-1.6-0.7-1.6-1.6c0-0.9,0.7-1.6,1.6-1.6
				C250.3,737.5,251,738.2,251,739.1"/>
			<path class="st3" d="M258.5,740.6c-0.5,0-0.9-0.4-0.9-0.9v-9.9c0-0.5,0.4-0.9,0.9-0.9h3.8c0.5,0,0.9,0.4,0.9,0.9v9.9
				c0,0.5-0.4,0.9-0.9,0.9H258.5z M163.4,740.6c-0.5,0-0.9-0.4-0.9-0.9v-9.9c0-0.5,0.4-0.9,0.9-0.9h10.1c0.5,0,0.9,0.4,0.9,0.9v9.9
				c0,0.5-0.4,0.9-0.9,0.9H163.4z"/>
			<path class="st3" d="M217.5,729l-5.9,11.6 M210.5,729l-5.9,11.6 M203.4,729l-5.9,11.6 M196.3,729l-5.9,11.6 M189.2,729l-5.9,11.6
				"/>
		</g>
		<line class="st3" x1="257.6" y1="734.8" x2="263.2" y2="734.8"/>
	</g>
	<g>
		<g>
			<path class="st3" d="M267,768.4c0,1.1-0.9,2-2,2H160.7c-1.1,0-2-0.9-2-2v-15.3c0-1.1,0.9-2,2-2H265c1.1,0,2,0.9,2,2V768.4z"/>
			<path class="st3" d="M226.5,765c0,0.9-0.7,1.6-1.6,1.6c-0.9,0-1.6-0.7-1.6-1.6c0-0.9,0.7-1.6,1.6-1.6
				C225.8,763.4,226.5,764.1,226.5,765"/>
			<path class="st3" d="M232.6,765c0,0.9-0.7,1.6-1.6,1.6c-0.9,0-1.6-0.7-1.6-1.6c0-0.9,0.7-1.6,1.6-1.6
				C231.9,763.4,232.6,764.1,232.6,765"/>
			<path class="st3" d="M238.8,765c0,0.9-0.7,1.6-1.6,1.6c-0.9,0-1.6-0.7-1.6-1.6c0-0.9,0.7-1.6,1.6-1.6
				C238.1,763.4,238.8,764.1,238.8,765"/>
			<path class="st3" d="M163.4,766.5c-0.5,0-0.9-0.4-0.9-0.9v-9.9c0-0.5,0.4-0.9,0.9-0.9h10.1c0.5,0,0.9,0.4,0.9,0.9v9.9
				c0,0.5-0.4,0.9-0.9,0.9H163.4z"/>
			<path class="st3" d="M217.5,754.9l-5.9,11.6 M210.5,754.9l-5.9,11.6 M203.4,754.9l-5.9,11.6 M196.3,754.9l-5.9,11.6 M189.2,754.9
				l-5.9,11.6"/>
		</g>
	</g>
	<g>
		<g>
			<path class="st3" d="M267,794.3c0,1.1-0.9,2-2,2H160.7c-1.1,0-2-0.9-2-2V779c0-1.1,0.9-2,2-2H265c1.1,0,2,0.9,2,2V794.3z"/>
			<path class="st3" d="M226.5,790.9c0,0.9-0.7,1.6-1.6,1.6c-0.9,0-1.6-0.7-1.6-1.6c0-0.9,0.7-1.6,1.6-1.6
				C225.8,789.3,226.5,790,226.5,790.9"/>
			<path class="st3" d="M232.6,790.9c0,0.9-0.7,1.6-1.6,1.6c-0.9,0-1.6-0.7-1.6-1.6c0-0.9,0.7-1.6,1.6-1.6
				C231.9,789.3,232.6,790,232.6,790.9"/>
			<path class="st3" d="M238.8,790.9c0,0.9-0.7,1.6-1.6,1.6c-0.9,0-1.6-0.7-1.6-1.6c0-0.9,0.7-1.6,1.6-1.6
				C238.1,789.3,238.8,790,238.8,790.9"/>
			<path class="st3" d="M244.9,790.9c0,0.9-0.7,1.6-1.6,1.6c-0.9,0-1.6-0.7-1.6-1.6c0-0.9,0.7-1.6,1.6-1.6
				C244.2,789.3,244.9,790,244.9,790.9"/>
			<path class="st3" d="M251,790.9c0,0.9-0.7,1.6-1.6,1.6c-0.9,0-1.6-0.7-1.6-1.6c0-0.9,0.7-1.6,1.6-1.6
				C250.3,789.3,251,790,251,790.9"/>
			<path class="st3" d="M258.5,792.4c-0.5,0-0.9-0.4-0.9-0.9v-9.9c0-0.5,0.4-0.9,0.9-0.9h3.8c0.5,0,0.9,0.4,0.9,0.9v9.9
				c0,0.5-0.4,0.9-0.9,0.9H258.5z M163.4,792.4c-0.5,0-0.9-0.4-0.9-0.9v-9.9c0-0.5,0.4-0.9,0.9-0.9h10.1c0.5,0,0.9,0.4,0.9,0.9v9.9
				c0,0.5-0.4,0.9-0.9,0.9H163.4z"/>
			<path class="st3" d="M217.5,780.8l-5.9,11.6 M210.5,780.8l-5.9,11.6 M203.4,780.8l-5.9,11.6 M196.3,780.8l-5.9,11.6 M189.2,780.8
				l-5.9,11.6"/>
		</g>
		<line class="st3" x1="257.6" y1="786.6" x2="263.2" y2="786.6"/>
	</g>
	<path class="st21" d="M300,751.4C300,751.4,300,751.4,300,751.4c-0.3-12.2-10.2-22-22.5-22c-9.7,0-17.9,6.2-21.1,14.8
		c-2.1-0.9-4.3-1.3-6.7-1.3c-9.5,0-17.2,7.7-17.2,17.2c0,0.6,0.1,1.2,0.2,1.8c-0.3,0-0.6-0.1-0.9-0.1c-9.5,0-17.2,7.7-17.2,17.2
		c0,9.5,7.7,17.2,17.2,17.2H300c12.4,0,22.5-10.1,22.5-22.5C322.5,761.4,312.4,751.4,300,751.4"/>
	<g>
		<path class="st3" d="M300,751.4C300,751.4,300,751.4,300,751.4c-0.3-12.2-10.2-22-22.5-22c-9.7,0-17.9,6.2-21.1,14.8
			c-2.1-0.9-4.3-1.3-6.7-1.3c-9.5,0-17.2,7.7-17.2,17.2c0,0.6,0.1,1.2,0.2,1.8c-0.3,0-0.6-0.1-0.9-0.1c-9.5,0-17.2,7.7-17.2,17.2
			c0,9.5,7.7,17.2,17.2,17.2H300c12.4,0,22.5-10.1,22.5-22.5C322.5,761.4,312.4,751.4,300,751.4"/>
		<path class="st3" d="M275.3,786.5c8.9,0,16.1-7.2,16.1-16.1c0-8.9-7.2-16.1-16.1-16.1c-8.9,0-16.1,7.2-16.1,16.1
			C259.2,779.3,266.4,786.5,275.3,786.5"/>
		<path class="st3" d="M271.3,766.7V763c0-2.2,1.8-4,4-4c2.2,0,4,1.8,4,4v3.7 M282,779h-13.4v-12.2H282V779z"/>
		<path class="st3" d="M276.9,771.5c0,0.9-0.7,1.7-1.6,1.7c-0.9,0-1.6-0.7-1.6-1.7c0-0.9,0.7-1.7,1.6-1.7
			C276.2,769.8,276.9,770.6,276.9,771.5"/>
		<line class="st3" x1="275.3" y1="773.2" x2="275.3" y2="775.7"/>
	</g>
</g>
<circle class="st6" cx="869.4" cy="487.4" r="118.1"/>
<g>
	
		<ellipse transform="matrix(0.7071 -0.7071 0.7071 0.7071 -89.9992 757.4935)" class="st10" cx="869.4" cy="487.4" rx="105.3" ry="105.3"/>
</g>
<g>
	<path class="st3" d="M831.1,549.6V434.7c0-5.3,4.3-9.6,9.6-9.6h52.7c5.3,0,9.6,4.3,9.6,9.6v114.9H831.1z"/>
	<rect x="840.7" y="434.7" class="st3" width="52.7" height="38.3"/>
	<line class="st3" x1="922" y1="461.1" x2="931.6" y2="473"/>
	<path class="st3" d="M931.6,473v40.7c0,4-3.2,7.2-7.2,7.2l0,0c-4,0-7.2-3.2-7.2-7.2v-35.9c0-2.6-2.1-4.8-4.8-4.8h-9.6"/>
	<line class="st3" x1="831.1" y1="540" x2="902.9" y2="540"/>
	<line class="st22" x1="867" y1="473" x2="852.6" y2="449.1"/>
	<path class="st22" d="M867,487.4c-3.6,7-14.4,13.9-14.4,24.4c0,7.7,6.4,13.9,14.4,13.9c7.9,0,14.4-6.2,14.4-13.9
		C881.3,501.3,870.6,494.3,867,487.4L867,487.4z"/>
	<line class="st3" x1="926.8" y1="549.6" x2="807.1" y2="549.6"/>
</g>
<circle class="st6" cx="691" cy="577.8" r="47.5"/>
<g>
	<polyline class="st3" points="695.1,556.7 676.1,556.7 676.1,565.5 676.1,576.1 676.1,598.9 706,598.9 706,576.1 706,567.6 	"/>
	<g>
		<g>
			<polygon class="st16" points="698.2,558.1 698.2,564.7 704.8,564.7 698.2,558.1 			"/>
		</g>
	</g>
	<line class="st3" x1="680.4" y1="566.2" x2="689.7" y2="566.2"/>
	<line class="st3" x1="680.2" y1="571.9" x2="699.9" y2="571.9"/>
	<line class="st3" x1="680.2" y1="576.8" x2="699.9" y2="576.8"/>
	<line class="st3" x1="680.2" y1="581.7" x2="699.9" y2="581.7"/>
	<line class="st3" x1="680.2" y1="586.6" x2="699.8" y2="586.6"/>
	<line class="st3" x1="680.2" y1="591.5" x2="686.6" y2="591.5"/>
</g>
<circle class="st2" cx="400.4" cy="825.7" r="31.7"/>
<g>
	<polyline class="st3" points="403.3,810.7 389.8,810.7 389.8,817 389.8,824.5 389.8,840.6 411,840.6 411,824.5 411,818.4 	"/>
	<g>
		<g>
			<polygon class="st16" points="405.4,811.7 405.4,816.4 410.1,816.4 405.4,811.7 			"/>
		</g>
	</g>
	<line class="st3" x1="394.6" y1="817.5" x2="400.1" y2="817.5"/>
	<line class="st3" x1="394.6" y1="821.9" x2="406.2" y2="821.9"/>
	<line class="st3" x1="394.6" y1="826.4" x2="406.2" y2="826.4"/>
	<line class="st3" x1="394.6" y1="830.9" x2="406.2" y2="830.9"/>
	<line class="st3" x1="394.6" y1="835.4" x2="398.3" y2="835.4"/>
</g>
<circle class="st2" cx="391.7" cy="675.3" r="31.7"/>
<path class="st9" d="M390.3,675.3h4.7c3.4,0,6.1,2.8,6.1,6.1c0,3.4-2.8,6.1-6.1,6.1h-12 M393.2,675.3h-4.7c-3.4,0-6.1-2.8-6.1-6.1
	s2.8-6.1,6.1-6.1h9.9 M391.7,659v32.5"/>
<g>
	<circle class="st23" cx="391.7" cy="675.3" r="25.3"/>
</g>
<circle class="st7" cx="693.3" cy="401.5" r="40.5"/>
<path class="st9" d="M691.9,401.5h4.7c3.4,0,6.1,2.8,6.1,6.1c0,3.4-2.8,6.1-6.1,6.1h-12 M694.8,401.5H690c-3.4,0-6.1-2.8-6.1-6.1
	c0-3.4,2.8-6.1,6.1-6.1h9.9 M693.3,385.2v32.5"/>
<g>
	<circle class="st24" cx="693.3" cy="401.5" r="25.3"/>
</g>
<path class="st1" d="M741.6,1032.6"/>
<path class="st5" d="M501.4,1058.9c0,48.7-39.6,88.4-88.4,88.4H12"/>
<path class="st0" d="M451.6,361.4l17.2,17.2c6.7,6.7,10.5,15.9,10.5,25.4v655c0,36.5-29.7,66.3-66.3,66.3H112"/>
<path class="st1" d="M247.4,483.5h61.4c13,0,25.4,5.1,34.5,14.3l99.6,99.6c9.2,9.2,14.3,21.6,14.3,34.5v426.9
	c0,24.4-19.8,44.2-44.2,44.2H212"/>
<path class="st1" d="M545.6,1002.3c0-24.3,10.3-47.8,27.5-65L679.3,831"/>
<path class="st5" d="M501.4,231.9v827c0,48.7,39.6,88.4,88.4,88.4H988"/>
<circle class="st2" cx="596.9" cy="785.6" r="31.7"/>
<path class="st9" d="M595.4,785.6h4.7c3.4,0,6.1,2.8,6.1,6.1c0,3.4-2.8,6.1-6.1,6.1h-12 M598.3,785.6h-4.7c-3.4,0-6.1-2.8-6.1-6.1
	s2.8-6.1,6.1-6.1h9.9 M596.9,769.4v32.5"/>
<g>
	<circle class="st23" cx="596.9" cy="785.6" r="25.3"/>
</g>
<circle class="st25" cx="988" cy="1147" r="11"/>
<circle class="st26" cx="888" cy="1125" r="11"/>
<circle class="st27" cx="788" cy="1103" r="11"/>
<circle class="st25" cx="13" cy="1147" r="11"/>
<circle class="st26" cx="113" cy="1125" r="11"/>
<circle class="st27" cx="213" cy="1103" r="11"/>
</svg>
