<?xml version="1.0" encoding="utf-8"?>
<!-- Generator: Adobe Illustrator 20.1.0, SVG Export Plug-In . SVG Version: 6.00 Build 0)  -->
<svg version="1.1" id="Camada_1" xmlns="http://www.w3.org/2000/svg" xmlns:xlink="http://www.w3.org/1999/xlink" x="0px" y="0px"
	 viewBox="0 0 133.3 124" style="enable-background:new 0 0 133.3 124;" xml:space="preserve">
<style type="text/css">
	.st0{fill:#3C3C3B;}
	.st1{fill:#7A7A71;}
	.st2{fill:#E84A39;}
	.st3{fill:#F5F4E3;}
</style>
<g>
	<g>
		<path class="st0" d="M121.6,122.2l0.3-0.1c8.2-2.3,13-10.7,11-18.9l-7.4-43.4c-2.5-10.3-13-16.4-23.2-13.5l-4.6,1.3
			c-10.3,2.9-16,13.8-12.5,23.9l17,40.6C105.1,120.1,113.5,124.5,121.6,122.2z"/>
		<path class="st0" d="M11.8,122.2l-0.3-0.1c-8.2-2.3-13-10.7-11-18.9l7.4-43.4c2.5-10.3,13-16.4,23.2-13.5l4.6,1.3
			c10.3,2.9,16,13.8,12.5,23.9l-17,40.6C28.3,120.1,19.9,124.5,11.8,122.2z"/>
		<g>
			<rect x="25.8" y="57.4" class="st0" width="81.8" height="36.7"/>
			<g>
				<path class="st1" d="M61.9,87.7h-7.5c-0.8,0-1.4-0.6-1.4-1.4l0,0c0-0.8,0.6-1.4,1.4-1.4h7.5c0.8,0,1.4,0.6,1.4,1.4l0,0
					C63.3,87,62.7,87.7,61.9,87.7z"/>
				<path class="st1" d="M79,87.7h-7.5c-0.8,0-1.4-0.6-1.4-1.4l0,0c0-0.8,0.6-1.4,1.4-1.4H79c0.8,0,1.4,0.6,1.4,1.4l0,0
					C80.5,87,79.8,87.7,79,87.7z"/>
			</g>
		</g>
		<g>
			<circle class="st2" cx="106.3" cy="59.2" r="3.7"/>
			<circle class="st2" cx="106.3" cy="76" r="3.7"/>
			<circle class="st2" cx="97.9" cy="67.6" r="3.7"/>
			<circle class="st2" cx="114.7" cy="67.6" r="3.7"/>
		</g>
		<g>
			<path class="st3" d="M22,70.6h-6.2c-0.6,0-1-0.5-1-1v-3.8c0-0.6,0.5-1,1-1H22c0.3,0,0.5,0.1,0.7,0.3l2,1.9c0.4,0.4,0.4,1.1,0,1.5
				l-2,1.9C22.5,70.5,22.2,70.6,22,70.6z"/>
			<path class="st3" d="M30.8,64.7H37c0.6,0,1,0.5,1,1v3.8c0,0.6-0.5,1-1,1h-6.2c-0.3,0-0.5-0.1-0.7-0.3l-2-1.9
				c-0.4-0.4-0.4-1.1,0-1.5l2-1.9C30.3,64.8,30.5,64.7,30.8,64.7z"/>
			<path class="st3" d="M29.3,72.1v6.2c0,0.6-0.5,1-1,1h-3.8c-0.6,0-1-0.5-1-1v-6.2c0-0.3,0.1-0.5,0.3-0.7l1.9-2
				c0.4-0.4,1.1-0.4,1.5,0l1.9,2C29.2,71.6,29.3,71.8,29.3,72.1z"/>
			<path class="st3" d="M23.4,63.3v-6.2c0-0.6,0.5-1,1-1h3.8c0.6,0,1,0.5,1,1v6.2c0,0.3-0.1,0.5-0.3,0.7L27,66
				c-0.4,0.4-1.1,0.4-1.5,0l-1.9-2C23.5,63.8,23.4,63.5,23.4,63.3z"/>
		</g>
	</g>
	<path class="st0" d="M100.3,25.1c-3.1-3.2-9.8-3.1-18,0.3c-5.5,2.3-9.7,5.4-12.7,9.3c-0.8-0.6-1.4-1.2-1.6-2.1
		c-0.9-3,2.2-8.2,8.7-14.7c5.2-5.2,10.8-9.3,10.9-9.4c0.7-0.5,0.8-1.4,0.3-2.1c-0.5-0.7-1.4-0.8-2.1-0.3c-0.2,0.2-5.8,4.3-11.2,9.6
		c-3.2,3.2-5.6,6.1-7.3,8.7c-2.2,3.5-3,6.5-2.3,9c0.4,1.5,1.4,2.8,2.9,3.8c-1.7,3-2.8,6.3-3.2,10c-0.5,4.4,0.2,8.3,0.8,10.8h3.1
		c-0.6-2.1-1.4-6.1-0.9-10.5c0.3-3.3,1.3-6.3,2.9-9c1.8,0.6,3.9,1,6.5,1.2c6.2,0.5,11.8-0.1,16.1-1.8c3.8-1.5,6.6-3.7,7.9-6.3
		C102.3,29.2,102,26.8,100.3,25.1z M98.4,30.3c-1.8,3.8-9.1,7.4-21,6.4c-1.6-0.1-3.3-0.4-4.9-0.8c2.6-3.2,6.3-5.8,11-7.7
		c8.2-3.4,13-2.7,14.6-1C99.1,28.2,98.8,29.4,98.4,30.3z"/>
</g>
</svg>
