<?xml version="1.0" encoding="utf-8"?>
<!-- Generator: Adobe Illustrator 20.1.0, SVG Export Plug-In . SVG Version: 6.00 Build 0)  -->
<svg version="1.1" id="Camada_1" xmlns="http://www.w3.org/2000/svg" xmlns:xlink="http://www.w3.org/1999/xlink" x="0px" y="0px"
	 viewBox="0 0 300 300" style="enable-background:new 0 0 300 300;" xml:space="preserve">
<style type="text/css">
	.st0{fill:#3C3C3B;}
	.st1{fill:#6F6F6E;}
	.st2{fill:#E84A39;}
	.st3{fill:#F5F4E3;}
</style>
<g>
	<path class="st0" d="M221.5,142.6H88.8c-4.2,0-8.3,1.4-11.7,4l-60.7,47.2c-4.6,3.6-7.3,9.1-7.3,15v57.1c0,10.5,8.5,19,19,19h246.5
		c10.5,0,19-8.5,19-19v-57.7c0-5.5-2.4-10.7-6.5-14.3L234,147.3C230.5,144.2,226.1,142.6,221.5,142.6z"/>
	<path class="st1" d="M276.6,202.9H26.2c-0.9,0-1.7-0.8-1.7-1.7v0c0-0.9,0.8-1.7,1.7-1.7h250.3c0.9,0,1.7,0.8,1.7,1.7v0
		C278.2,202.1,277.5,202.9,276.6,202.9z"/>
	<g>
		<path class="st1" d="M151.4,184c-15.6,0-30.4-1.5-41.5-4.1C101.8,178,92,174.5,92,169c0-5.5,9.8-9,17.9-10.9
			c11.1-2.6,25.8-4.1,41.5-4.1s30.4,1.5,41.5,4.1c8.2,1.9,17.9,5.4,17.9,10.9c0,5.5-9.8,9-17.9,10.9C181.8,182.5,167,184,151.4,184z
			 M151.4,156.3c-15.5,0-30,1.4-40.9,4c-10.1,2.4-16.2,5.7-16.2,8.7c0,6,23.5,12.7,57.1,12.7c15.5,0,30-1.4,40.9-4
			c10.1-2.4,16.2-5.7,16.2-8.7C208.5,163,185.1,156.3,151.4,156.3z"/>
	</g>
	<g>
		<path class="st1" d="M151.4,176.7c-13.9,0-26.9-1.1-36.8-3.1c-10.6-2.1-16-5-16-8.5c0-3.5,5.4-6.3,16-8.5c9.8-2,22.9-3.1,36.8-3.1
			c13.9,0,26.9,1.1,36.8,3.1c10.6,2.1,16,5,16,8.5c0,3.5-5.4,6.3-16,8.5C178.3,175.6,165.3,176.7,151.4,176.7z M151.4,155.9
			c-31.3,0-50.5,5.4-50.5,9.3c0,3.9,19.2,9.3,50.5,9.3s50.5-5.4,50.5-9.3C201.9,161.3,182.7,155.9,151.4,155.9z"/>
	</g>
	<rect x="141.4" y="63" class="st0" width="20" height="101"/>
	<circle class="st2" cx="151.4" cy="42.4" r="29.9"/>
	<circle class="st3" cx="138.7" cy="29.6" r="6.6"/>
	<path class="st2" d="M76.9,174.6H56.4c-1.7,0-3,1.6-3,3.5v8h26.5v-8C79.9,176.2,78.5,174.6,76.9,174.6z"/>
	<path class="st1" d="M79.9,178.9v2.4c2,0.6,3,1.2,3.1,1.5c-0.3,0.9-5.5,3.1-16.4,3.1c-10.8,0-16.1-2.2-16.4-3
		c0.1-0.4,1.1-1,3.1-1.5v-2.4c-3.1,0.8-5.4,2.1-5.4,3.9c0,4.2,11.7,5.3,18.6,5.3c6.9,0,18.6-1.1,18.6-5.3
		C85.3,181,83,179.7,79.9,178.9z"/>
</g>
</svg>
