<svg xmlns="http://www.w3.org/2000/svg" width="362.757" height="382.198">
	<style>
		.st0{fill:#B98726;} .st1{fill:#F7D5A9;} .st2{fill:#FFFFFF;} .st3{fill:#E6E7E8;} .st4{fill:none;stroke:#D1D2D4;stroke-width:4;stroke-linecap:round;stroke-linejoin:round;stroke-miterlimit:10;} .st5{fill:#D1D2D4;} .st6{fill:#FCE1C5;} .st7{fill:#38A491;} .st8{fill:#25937E;} .st9{fill:#44403E;} .st10{fill:#2D2D2D;} .st11{fill:#D64B2B;} .st12{fill:#E56038;} .st13{fill:#FCEEDD;} .st14{fill:#14718F;} .st15{fill:#0C657A;} .st16{fill:#F6B433;}
	</style>
	<path class="st0" d="M260.168 260.191v5.36H249.68v5.85h-2.676s-5.74-11.271-22.203-11.016c-4.622.072-15.495.092-27.096.088v-18.39H22.926L5 260.009v122.19h192.705v-18.947c11.058-.157 22.661-.616 28.748-1.758 14.432-2.709 22.023-17.685 22.023-17.685l1.203-.045v6.809h10.488V355.934h102.589V260.192H260.168z"/>
	<path class="st1" d="M101.617 268.69c-4.316 0-8.619 4.191-8.619 9.221 0 5.031 3.695 9.026 8.013 9.026 0 0 60.707.026 64.323.026 3.617 0 3.865 4.983.021 4.983-3.843 0-68.984.028-68.984.028-4.316 0-7.815 4.076-7.815 9.108 0 5.031 3.499 9.109 7.815 9.109 0 0 64.969.028 69.06.028 4.093 0 4.105 5.528.021 5.528-4.085 0-63.459.031-63.459.031-4.316 0-7.817 4.076-7.817 9.105s3.501 9.107 7.817 9.107c0 0 59.973.029 63.535.029 3.564 0 4.355 5.87.025 5.87-4.328 0-53.885.028-53.885.028-4.317 0-8.052 4.078-8.052 9.109 0 5.029 3.948 9.105 8.266 9.105l53.746.03s42.044.911 55.823-1.673c14.432-2.709 22.023-17.685 22.023-17.685l9.039-.334V268.69h-10.512l-76.746.002-63.638-.002z"/>
	<path class="st2" d="M0 255.009v122.189h192.705V237.084H17.926v17.925z"/>
	<path class="st3" d="M17.926 255.009v-17.925L0 255.009zM27.458 361.172a2.851 2.851 0 0 0 2.851 2.851h67.584a2.85 2.85 0 0 0 2.85-2.851v-54.031H27.458v54.031z"/>
	<path class="st4" d="M117.798 363.823V313.41M133.613 363.823V313.41M149.43 363.823V313.41M165.246 363.823V313.41M117.798 300.597v-50.138M133.613 300.597v-50.138M149.43 300.597v-50.138M165.246 300.597v-50.138"/>
	<path class="st5" d="M27.458 253.109v54.031h73.284v-54.031a2.85 2.85 0 0 0-2.85-2.851H30.309a2.852 2.852 0 0 0-2.851 2.851z"/>
	<path class="st2" d="M58.326 282.985a1.048 1.048 0 0 0-.715.992v16.754l-15.924 5.42a1.045 1.045 0 0 0 0 1.978l15.924 5.42v16.754a1.046 1.046 0 0 0 1.883.629l10.348-13.771 16.008 5.253a1.046 1.046 0 0 0 1.172-1.607l-9.918-13.667 9.918-13.667a1.046 1.046 0 0 0-1.172-1.607l-16.008 5.253-10.348-13.771a1.049 1.049 0 0 0-1.168-.363z"/>
	<path class="st6" d="M219.801 255.386c-11.957.188-65.752.02-65.752.02s-2.111 16.174 15.709 20.203c5.3-.017 27.748-.039 27.748-.039s9.08 18.52 21.49 23.371c16.67 6.519 33.52 5.545 33.52 5.545v-38.084h-10.512c0-.001-5.74-11.272-22.203-11.016z"/>
	<path class="st2" d="M244.68 260.552h17.175v85.02H244.68z"/>
	<path class="st7" d="M255.168 255.191h107.589v95.74H255.168z"/>
	<path class="st8" d="M255.168 303.062h107.589v47.871H255.168z"/>
	<g>
		<path class="st0" d="M307.746 115.976v17.746c-8.591-2.926-22.596-7.212-32.931-7.981v-56.03c0-5.885-4.769-10.653-10.653-10.653h-2.543v-3.392a2.638 2.638 0 0 0-2.639-2.639h-28.373a2.639 2.639 0 0 0-2.641 2.639v3.392H156.98l17.922-8.797a2.636 2.636 0 0 0 1.468-2.558l24.898-12.221a1.923 1.923 0 0 0 1.072-1.872l2.658-1.304 16.743-8.214 1.1-.54c1.407.677 3.091.745 4.602.003l4.742-2.33a5.272 5.272 0 0 0 2.412-7.062 5.271 5.271 0 0 0-7.057-2.41l-4.745 2.328c-1.514.742-2.491 2.117-2.816 3.647l-1.099.539-16.738 8.217-2.66 1.305a1.918 1.918 0 0 0-2.135-.294l-24.898 12.218a2.637 2.637 0 0 0-2.925-.406l-40.248 19.752h-32.9c-5.888 0-10.655 4.768-10.655 10.653v100.765c0 5.881 4.768 10.652 10.655 10.652h17.535c-1.388 2.271-1.862 3.954-1.862 3.954l14.884.864-.008.004-.081.037c-.364.16-.712.328-1.05.502-.094.048-.187.098-.278.146-.288.156-.567.314-.836.479-.065.039-.132.078-.195.118a15.87 15.87 0 0 0-1.803 1.314l-.165.141c-.242.209-.475.42-.694.635l-.046.041h.002c-4.066 3.992-4.426 8.752-4.426 8.752s57.808 3.043 87.497 6.447c6.315.723 4.942 4.307 12.628 6.51 4.575 1.314 9.905.162 14.458-1.553a.033.033 0 0 1 .013-.004c.013-.006.025-.012.038-.016a47.764 47.764 0 0 0 1.574-.631l.044-.018.008-.004a54.485 54.485 0 0 0 1.689-.748c16.189-2.965 52.248-11.282 69.242-7.932 1.117.221 2.18.426 3.204.621v10.977h55.011v-95.788h-55.013zM69.801 5H11.716A6.715 6.715 0 0 0 5 11.715V52.342a6.716 6.716 0 0 0 6.716 6.716h32.735l19.871 18.214a.676.676 0 0 0 .723.118.669.669 0 0 0 .402-.614V59.058h4.354a6.716 6.716 0 0 0 6.717-6.716V11.715A6.715 6.715 0 0 0 69.801 5z"/>
	</g>
	<g>
		<path class="st9" d="M161.257 37.75a1.926 1.926 0 0 0-.879 2.573l2.227 4.537c.47.95 1.619 1.35 2.575.881l31.087-15.259a1.93 1.93 0 0 0 .886-2.578l-2.229-4.537a1.924 1.924 0 0 0-2.578-.874L161.257 37.75z"/>
		<path class="st9" d="M121.875 55.235a2.644 2.644 0 0 0-1.207 3.534l3.05 6.22a2.642 2.642 0 0 0 3.534 1.207l42.649-20.935a2.634 2.634 0 0 0 1.206-3.531l-3.051-6.217a2.64 2.64 0 0 0-3.534-1.206l-42.647 20.928zM221.682 11l1.62 3.304a1.405 1.405 0 0 1-.638 1.879l-5.924 2.907-16.743 8.214-5.925 2.907a1.397 1.397 0 0 1-1.875-.641l-1.624-3.305a1.402 1.402 0 0 1 .645-1.879l5.923-2.905 16.738-8.217 5.924-2.907a1.405 1.405 0 0 1 1.879.643z"/>
		<path class="st10" d="M217.794 9.081a5.273 5.273 0 0 0-2.412 7.063 5.276 5.276 0 0 0 7.06 2.412l4.742-2.33a5.272 5.272 0 0 0 2.412-7.062 5.271 5.271 0 0 0-7.057-2.41l-4.745 2.327z"/>
		<g>
			<path class="st11" d="M256.619 59.903a2.639 2.639 0 0 1-2.639 2.64h-28.373a2.64 2.64 0 0 1-2.641-2.64v-9.238a2.639 2.639 0 0 1 2.641-2.639h28.373a2.638 2.638 0 0 1 2.639 2.639v9.238z"/>
			<path class="st12" d="M269.815 165.476c0 5.881-4.769 10.652-10.653 10.652H91.376c-5.888 0-10.655-4.771-10.655-10.652V64.711c0-5.885 4.768-10.653 10.655-10.653h167.786c5.885 0 10.653 4.768 10.653 10.653v100.765z"/>
			<path class="st2" d="M173.018 115.093c0 21.873-17.715 39.549-39.553 39.549-21.83 0-39.548-17.676-39.548-39.549 0-21.834 17.718-39.549 39.548-39.549 21.838 0 39.553 17.715 39.553 39.549z"/>
			<path class="st3" d="M101.428 115.098c0 17.715 14.35 32.028 32.037 32.03V83.057c-17.688.003-32.037 14.352-32.037 32.041z"/>
			<path class="st5" d="M165.502 115.098c0-17.689-14.35-32.041-32.037-32.041v64.071c5.457 0 10.59-1.37 15.09-3.773l.599-.344c9.747-5.484 16.348-15.909 16.348-27.913z"/>
			<path class="st9" d="M256.619 119.443a2.639 2.639 0 0 1-2.639 2.64h-63.97a2.64 2.64 0 0 1-2.64-2.64v-2.474a2.64 2.64 0 0 1 2.64-2.64h63.97a2.639 2.639 0 0 1 2.639 2.64v2.474zM256.619 134.372c0 1.46-1.181 2.64-2.639 2.64h-63.97a2.64 2.64 0 0 1-2.64-2.64v-2.474a2.64 2.64 0 0 1 2.64-2.64h63.97a2.639 2.639 0 0 1 2.639 2.64v2.474zM256.619 149.301a2.64 2.64 0 0 1-2.639 2.641h-63.97a2.642 2.642 0 0 1-2.64-2.641v-2.474a2.64 2.64 0 0 1 2.64-2.64h63.97a2.638 2.638 0 0 1 2.639 2.64v2.474z"/>
			<circle class="st11" cx="133.475" cy="115.093" r="6.592"/>
			<path class="st2" d="M253.98 78.248h-63.97a2.64 2.64 0 0 0-2.64 2.639V97.67c0 .959.542 1.763 1.305 2.224l66.639-21.231c-.396-.241-.834-.415-1.334-.415z"/>
			<path class="st12" d="M187.371 100.308h2.64c-.497 0-.938-.175-1.335-.415l-1.305.415zM255.314 78.662c.768.461 1.305 1.266 1.305 2.224v-2.639l-1.305.415zM253.98 100.308h2.639v-2.639a2.637 2.637 0 0 1-2.639 2.639z"/>
			<path class="st3" d="M255.314 78.662l-66.639 21.231c.396.24.838.415 1.335.415h63.97a2.638 2.638 0 0 0 2.639-2.639V80.886c0-.958-.537-1.762-1.305-2.224zM149.153 143.012l-.599.344c.202-.112.398-.231.599-.344z"/>
		</g>
	</g>
	<path class="st6" d="M237.389 199.157s-14.434 9.922-24.912 6.914c-7.686-2.203-6.312-5.787-12.628-6.51-29.689-3.404-87.497-6.447-87.497-6.447s.811-10.863 14-13.528l90.943 17.058 20.094 2.513z"/>
	<path class="st1" d="M116.775 184.362l16.541.623 73.193 14.812s2.969 6.264 13.526 5.812c2.511-.109 5.27-.539 6.911-1.096a52.377 52.377 0 0 0 1.656-.664c2.526-1.172 3.643-2.498 3.643-2.498s-5.061-1.751-12.928-4.458l-2.023-.251-90.943-17.058c-4.456.903-7.499 2.74-9.576 4.778z"/>
	<path class="st6" d="M324.42 199.014s-4.704.129-24.878-3.847c-20.173-3.977-67.214 8.488-75.989 8.922-12.135.602-16.657-5.788-16.657-5.788l-69.788-16.473-30.059-1.746s5.102-18.274 31.46-15.794l48.07 6.722 35.934-12.267s-34.455 5.702-39.29 4.824c-1.028-.207-11.836-2.275-11.836-12.819s15.512-11.627 15.512-11.627l36.104-2.43s28.152-16.072 43.771-16.072c15.617 0 43.722 10.884 43.722 10.884h13.019l.905 67.511z"/>
	<path class="st13" d="M191.121 144.783v14.312s-15.595 4.08-15.595-6.304 15.595-8.008 15.595-8.008z"/>
	<path class="st14" d="M302.746 110.976h60.011v95.787h-60.011z"/>
	<path class="st15" d="M302.746 158.869h60.011v47.896h-60.011z"/>
	<g>
		<path class="st2" d="M64.801 0H6.716A6.715 6.715 0 0 0 0 6.715V47.342a6.716 6.716 0 0 0 6.716 6.716h58.085a6.716 6.716 0 0 0 6.717-6.716V6.715A6.715 6.715 0 0 0 64.801 0z"/>
		<path class="st2" d="M59.776 52.638H39.63a.675.675 0 0 0-.626.428.675.675 0 0 0 .172.739l20.146 18.466a.676.676 0 0 0 .723.118.669.669 0 0 0 .402-.614V53.31a.67.67 0 0 0-.671-.672z"/>
		<path class="st16" d="M8.527 23.471a.528.528 0 0 1 .5-.359h8.431l2.727-8.013a.524.524 0 0 1 .994 0l2.728 8.013h8.431a.525.525 0 0 1 .316.946l-6.929 5.207 2.643 8.055a.527.527 0 0 1-.808.59l-6.878-4.991-6.877 4.991a.53.53 0 0 1-.62-.001.526.526 0 0 1-.189-.589l2.643-8.055-6.929-5.207a.528.528 0 0 1-.183-.587z"/>
		<path class="st4" d="M59.447 25.007H40.422M59.447 36.169H40.422"/>
	</g>
</svg>
