<?xml version="1.0" encoding="utf-8"?>
<!-- Generator: Adobe Illustrator 21.1.0, SVG Export Plug-In . SVG Version: 6.00 Build 0)  -->
<svg version="1.1" id="Layer_1" xmlns="http://www.w3.org/2000/svg" xmlns:xlink="http://www.w3.org/1999/xlink" x="0px" y="0px"
	 viewBox="0 0 100 100" style="enable-background:new 0 0 100 100;" xml:space="preserve">
<style type="text/css">
	.st0{clip-path:url(#XMLID_3_);}
	.st1{fill:#B98609;}
	.st2{fill:#F3CA0C;}
</style>
<g>
	<defs>
		<path id="XMLID_1_" d="M49.7,22.4c-3.6,0-6.1,0.4-7.7,0.9c-1.8,0.5-3.3,1.9-4,3.6l-1.4,3.4L35.9,31h-1.4c-0.9,0-1.8-0.3-2.6-0.8
			c-0.8-0.5-2.3-0.8-4-0.8c-1.7,0-3.2,0.3-4,0.8c-0.8,0.5-1.6,0.8-2.5,0.9c-3.5,0.4-5.9,1.8-7.1,3.7c-1.4,2.2-3.4,9.8-3.4,18.7
			c0,10.7,2.1,19.4,4.7,19.4h9.3c4.4,0,15.6,1.4,13.8-2.6c-1.2-2.6-9.9-11.4-9.9-14.4c0-11.6,9.4-21,21-21s20.9,9.4,20.9,21
			c0,3-7.6,11.8-8.7,14.4c-1.8,4,8.2,2.6,12.7,2.6h7c2.6,0,4.7-8.7,4.7-19.4c0-8.9-2-16.5-3.4-18.7c-1.4-2.2-4.6-3.8-9.2-3.8H63.4
			l-0.6-0.6l-1.4-3.4c-0.7-1.8-2.2-3.1-4-3.6C55.7,22.8,53.2,22.4,49.7,22.4z"/>
	</defs>
	<use xlink:href="#XMLID_1_"  style="overflow:visible;fill:#D39A10;"/>
	<clipPath id="XMLID_3_">
		<use xlink:href="#XMLID_1_"  style="overflow:visible;"/>
	</clipPath>
	<g class="st0">
		<g>
			<path class="st1" d="M74.2,40.5C74.2,40.5,74.2,40.5,74.2,40.5c-0.3-0.3-0.5-0.5-0.7-0.8c-0.3-0.3-0.7-0.6-1-0.9
				c-0.2-0.2-0.4-0.3-0.5-0.5c0,0,0,0,0,0c-0.2-0.2-0.5-0.4-0.7-0.6c0,0-0.1-0.1-0.1-0.1c0,0,0,0,0,0c-0.1-0.1-0.3-0.2-0.4-0.3
				c-0.7-0.5-1.4-1-2.2-1.4c-0.2-0.1-0.3-0.2-0.5-0.3c-3-1.5-6.4-2.4-9.9-2.4c-3.6,0-7,0.9-9.9,2.4c0,0,0,0,0,0
				c-0.2,0.1-0.3,0.2-0.5,0.2c0,0,0,0,0,0c-0.6,0.3-1.2,0.7-1.8,1.1c0,0,0,0,0,0c-0.1,0.1-0.3,0.2-0.4,0.3c0,0,0,0,0,0
				c-0.2,0.2-0.4,0.3-0.7,0.5c-0.1,0-0.1,0.1-0.2,0.1c0,0,0,0,0,0c-0.1,0.1-0.3,0.2-0.4,0.3c-0.1,0.1-0.1,0.1-0.2,0.2
				c-0.1,0.1-0.1,0.1-0.2,0.2c0,0,0,0,0,0c-0.1,0.1-0.3,0.2-0.4,0.3c0,0,0,0,0,0c-0.1,0.1-0.2,0.2-0.4,0.3c0,0,0,0,0,0
				c-0.4,0.4-0.7,0.7-1.1,1.1c0,0,0,0,0,0c-3.5,3.9-5.7,9-5.7,14.6c0,5.5,2,10.4,5.3,14.3c0.1,0.1,0.2,0.3,0.3,0.4
				c0.4,0.5,0.9,0.9,1.4,1.4c0.1,0.1,0.1,0.1,0.2,0.2c0,0,0.1,0.1,0.1,0.1c0.1,0.1,0.2,0.2,0.4,0.3c0,0,0.1,0.1,0.1,0.1
				c0,0,0.1,0,0.1,0.1c0,0,0.1,0.1,0.1,0.1c0.1,0.1,0.2,0.2,0.3,0.3c0.1,0.1,0.2,0.2,0.4,0.3c0,0,0.1,0,0.1,0.1
				c0.1,0.1,0.1,0.1,0.2,0.2c0.2,0.1,0.4,0.3,0.6,0.4c0,0,0,0,0,0c0.2,0.1,0.4,0.3,0.6,0.4c0.2,0.1,0.4,0.3,0.6,0.4
				c0.2,0.1,0.4,0.2,0.6,0.4C50.7,76,54.3,77,58,77c3.7,0,7.3-1,10.4-2.6c0.2-0.1,0.4-0.2,0.6-0.4c0.2-0.1,0.4-0.2,0.6-0.4
				c0.2-0.1,0.4-0.2,0.6-0.4c0,0,0,0,0,0c0.2-0.1,0.4-0.3,0.6-0.4c0.1-0.1,0.1-0.1,0.2-0.2c0,0,0.1,0,0.1-0.1
				c0.1-0.1,0.2-0.2,0.4-0.3c0.1-0.1,0.2-0.2,0.3-0.3c0.1-0.1,0.2-0.2,0.3-0.3c0.1-0.1,0.2-0.2,0.4-0.3c0,0,0.1-0.1,0.1-0.1
				c0.1-0.1,0.1-0.1,0.2-0.2c0.2-0.2,0.4-0.4,0.6-0.6c0.1-0.1,0.2-0.2,0.4-0.4c0.1-0.1,0.2-0.3,0.4-0.4c0.1-0.1,0.2-0.3,0.3-0.4
				c0.2-0.3,0.4-0.5,0.7-0.8c0.2-0.3,0.4-0.6,0.6-0.8c0.8-1.1,1.5-2.4,2.1-3.7c0.1-0.2,0.1-0.3,0.2-0.5c1.1-2.6,1.7-5.5,1.7-8.5
				C79.8,49.5,77.7,44.4,74.2,40.5z M58,69.1c-7.7,0-14-6.2-14-14s6.2-14,14-14c7.7,0,14,6.2,14,14S65.7,69.1,58,69.1z"/>
		</g>
	</g>
</g>
<g>
	<g>
		<path class="st2" d="M67.2,39.6C67.2,39.6,67.2,39.6,67.2,39.6c-0.3-0.3-0.5-0.6-0.8-0.8c-0.3-0.3-0.7-0.7-1.1-1
			c-0.2-0.2-0.4-0.3-0.6-0.5c0,0,0,0,0,0c-0.2-0.2-0.5-0.4-0.7-0.6c0,0-0.1-0.1-0.1-0.1c0,0,0,0,0,0c-0.2-0.1-0.3-0.2-0.5-0.3
			c-0.7-0.5-1.5-1-2.3-1.5c-0.2-0.1-0.3-0.2-0.5-0.3C57.4,32.9,53.8,32,50,32s-7.4,0.9-10.5,2.5c0,0,0,0,0,0
			c-0.2,0.1-0.3,0.2-0.5,0.2c0,0,0,0,0,0c-0.6,0.4-1.3,0.7-1.9,1.1c0,0,0,0,0,0c-0.1,0.1-0.3,0.2-0.4,0.3c0,0,0,0,0,0
			c-0.2,0.2-0.5,0.3-0.7,0.5c-0.1,0-0.1,0.1-0.2,0.1c0,0,0,0,0,0c-0.1,0.1-0.3,0.2-0.4,0.3c-0.1,0.1-0.1,0.1-0.2,0.2
			c-0.1,0.1-0.2,0.1-0.2,0.2c0,0,0,0,0,0c-0.1,0.1-0.3,0.2-0.4,0.4c0,0,0,0,0,0c-0.1,0.1-0.3,0.2-0.4,0.4c0,0,0,0,0,0
			c-0.4,0.4-0.8,0.8-1.1,1.2c0,0,0,0,0,0c-3.7,4.1-6,9.6-6,15.6c0,5.8,2.1,11.1,5.7,15.2c0.1,0.1,0.2,0.3,0.4,0.4
			c0.5,0.5,0.9,1,1.4,1.5c0.1,0.1,0.1,0.1,0.2,0.2c0,0,0.1,0.1,0.1,0.1c0.1,0.1,0.3,0.2,0.4,0.3c0,0,0.1,0.1,0.1,0.1
			c0,0,0.1,0,0.1,0.1c0,0,0.1,0.1,0.1,0.1c0.1,0.1,0.2,0.2,0.4,0.3c0.1,0.1,0.3,0.2,0.4,0.3c0,0,0.1,0,0.1,0.1
			c0.1,0.1,0.1,0.1,0.2,0.2c0.2,0.1,0.4,0.3,0.6,0.4c0,0,0,0,0,0c0.2,0.1,0.4,0.3,0.6,0.4c0.2,0.1,0.4,0.3,0.7,0.4
			c0.2,0.1,0.4,0.3,0.7,0.4c3.3,1.8,7,2.8,11,2.8c4,0,7.7-1,11-2.8c0.2-0.1,0.4-0.2,0.7-0.4c0.2-0.1,0.4-0.3,0.7-0.4
			c0.2-0.1,0.4-0.3,0.6-0.4c0,0,0,0,0,0c0.2-0.1,0.4-0.3,0.6-0.4c0.1-0.1,0.1-0.1,0.2-0.2c0,0,0.1,0,0.1-0.1
			c0.1-0.1,0.3-0.2,0.4-0.3c0.1-0.1,0.2-0.2,0.4-0.3c0.1-0.1,0.2-0.2,0.3-0.3c0.1-0.1,0.3-0.2,0.4-0.3c0,0,0.1-0.1,0.1-0.1
			c0.1-0.1,0.2-0.1,0.2-0.2c0.2-0.2,0.5-0.4,0.7-0.7c0.1-0.1,0.3-0.3,0.4-0.4c0.1-0.1,0.3-0.3,0.4-0.4c0.1-0.1,0.2-0.3,0.4-0.4
			c0.2-0.3,0.5-0.6,0.7-0.9c0.2-0.3,0.5-0.6,0.7-0.9c0.9-1.2,1.6-2.5,2.2-3.9c0.1-0.2,0.2-0.3,0.2-0.5c1.2-2.8,1.8-5.8,1.8-9
			C73.2,49.2,70.9,43.7,67.2,39.6z M50,70c-8.2,0-14.8-6.6-14.8-14.8c0-8.2,6.6-14.8,14.8-14.8c8.2,0,14.8,6.6,14.8,14.8
			C64.8,63.4,58.2,70,50,70z"/>
	</g>
</g>
</svg>
