<?xml version="1.0" standalone="no"?>
<!DOCTYPE svg PUBLIC "-//W3C//DTD SVG 20010904//EN"
 "http://www.w3.org/TR/2001/REC-SVG-20010904/DTD/svg10.dtd">
<svg version="1.0" xmlns="http://www.w3.org/2000/svg"
 width="1077.000000pt" height="1280.000000pt" viewBox="0 0 1077.000000 1280.000000"
 preserveAspectRatio="xMidYMid meet">
<metadata>
Created by potrace 1.15, written by Peter Selinger 2001-2017
</metadata>
<g transform="translate(0.000000,1280.000000) scale(0.100000,-0.100000)"
fill="#000000" stroke="none">
<path d="M5871 12518 c-5 -13 -29 -65 -54 -117 l-46 -94 -18 31 c-21 36 -33
41 -33 12 0 -10 -7 -23 -17 -28 -10 -6 -16 -22 -16 -40 0 -17 -4 -29 -9 -26
-7 5 -12 -31 -9 -66 1 -8 -8 2 -21 23 -23 39 -44 50 -33 18 8 -27 -11 -35 -20
-8 -7 19 -9 17 -12 -15 -4 -39 -16 -49 -27 -23 -3 8 -10 15 -16 15 -6 0 -8 -4
-5 -10 3 -5 2 -10 -3 -10 -5 0 -13 10 -17 23 -7 19 -9 17 -15 -18 -4 -22 -8
-32 -9 -22 0 9 -8 17 -16 17 -8 0 -15 4 -15 10 0 5 -7 7 -15 4 -8 -4 -15 -1
-15 6 0 7 -6 10 -14 7 -7 -3 -18 -1 -23 4 -7 7 -16 1 -26 -15 -11 -16 -13 -27
-7 -31 6 -4 8 -11 5 -16 -11 -16 -23 -10 -29 16 -4 14 -11 23 -16 20 -6 -4 -8
-10 -5 -15 4 -7 -16 -20 -31 -20 -2 0 -11 15 -19 33 l-15 32 6 -54 c4 -38 3
-52 -5 -47 -6 4 -11 15 -11 24 0 9 -5 24 -11 32 -8 11 -9 5 -5 -25 6 -37 5
-39 -9 -21 -8 11 -15 25 -15 32 0 7 -5 16 -11 19 -7 5 -9 -8 -6 -41 4 -45 3
-46 -12 -27 -9 11 -21 29 -28 39 -10 17 -12 14 -13 -21 0 -30 -3 -36 -10 -25
-8 12 -10 12 -10 -5 0 -11 -4 -15 -8 -10 -4 6 -18 19 -31 30 l-24 20 7 -25 c7
-24 6 -24 -18 5 l-26 30 0 -25 -1 -25 -15 28 c-21 39 -27 34 -21 -20 3 -32 2
-42 -5 -30 -12 23 -25 21 -31 -4 -4 -14 -11 -20 -20 -16 -8 3 -19 1 -25 -5 -6
-6 -13 1 -20 21 -13 37 -25 41 -16 6 4 -15 2 -25 -5 -25 -6 0 -11 6 -12 13 0
6 -7 -1 -14 -18 -8 -16 -14 -25 -15 -20 0 6 -4 4 -8 -3 -6 -9 -12 -5 -22 13
-17 32 -29 32 -22 0 5 -29 -12 -33 -28 -7 -8 14 -9 12 -4 -9 8 -35 -11 -45
-31 -17 l-16 23 7 -27 c5 -22 3 -28 -10 -28 -9 0 -16 -6 -16 -12 0 -7 -10 2
-21 20 -12 17 -23 32 -26 32 -5 0 1 -29 13 -67 5 -15 4 -16 -6 -3 -9 12 -11 9
-7 -14 l5 -30 -19 25 c-17 22 -19 23 -19 4 l-1 -20 -15 20 c-16 19 -16 19 -9
-5 l6 -25 -20 25 -21 25 0 -25 c-1 -29 -23 -63 -34 -52 -4 4 -14 -2 -22 -12
-13 -19 -14 -19 -35 0 l-21 19 7 -35 c6 -32 6 -33 -8 -16 -13 18 -15 17 -21
-18 -7 -35 -9 -37 -24 -23 -15 14 -19 13 -40 -3 -13 -11 -30 -16 -37 -13 -17
6 -19 -10 -5 -38 7 -13 7 -19 0 -19 -5 0 -10 5 -10 10 0 6 -4 10 -10 10 -5 0
-7 -7 -4 -15 4 -8 1 -15 -5 -15 -7 0 -14 7 -17 15 -7 17 -25 10 -20 -8 1 -7 1
-9 -1 -4 -7 11 -33 8 -33 -3 0 -6 7 -24 15 -41 16 -30 16 -30 -7 -17 -13 7
-34 22 -47 33 l-25 20 22 -38 c25 -43 27 -51 11 -41 -8 4 -9 -1 -4 -17 6 -19
5 -21 -5 -12 -10 9 -17 7 -33 -7 -17 -16 -18 -22 -7 -35 7 -8 11 -18 8 -21 -3
-2 -13 7 -23 22 -16 24 -19 25 -27 10 -7 -12 -5 -24 6 -42 9 -13 12 -24 7 -24
-5 0 -11 5 -13 12 -3 8 -12 5 -27 -9 -14 -13 -20 -26 -16 -34 5 -6 -6 -4 -23
7 -39 23 -50 13 -27 -23 l19 -28 -40 30 -39 30 33 -42 c35 -45 44 -76 15 -52
-15 13 -16 12 -10 -9 5 -22 4 -22 -11 -9 -25 22 -59 30 -68 16 -4 -7 -3 -9 3
-6 6 4 17 -1 24 -10 10 -12 10 -14 2 -9 -18 10 -16 -4 5 -28 9 -11 -5 -3 -33
19 -31 24 -42 30 -30 14 50 -58 52 -65 18 -41 -18 13 -35 27 -38 32 -4 6 -11
10 -17 10 -6 0 -3 -9 6 -19 14 -16 15 -23 6 -40 -9 -17 -8 -25 5 -37 19 -19
19 -21 -2 -21 -10 0 -34 13 -55 29 -32 25 -36 26 -31 8 3 -11 9 -17 14 -14 5
3 9 -3 9 -12 0 -10 8 -27 18 -38 17 -20 17 -20 -11 -3 -36 23 -53 13 -33 -19
22 -32 20 -37 -11 -30 -25 6 -26 5 -10 -7 29 -24 19 -39 -11 -17 -20 15 -34
19 -50 13 l-23 -9 21 -21 c12 -13 16 -24 10 -28 -6 -4 -8 -11 -5 -16 4 -5 2
-9 -4 -9 -5 0 -13 5 -16 10 -3 6 -12 10 -19 10 -16 0 -14 -33 3 -53 12 -15 0
-33 -13 -20 -3 3 -19 8 -36 10 -24 2 -28 0 -23 -15 3 -9 13 -25 22 -36 15 -18
15 -18 -6 -12 -20 6 -21 4 -18 -26 3 -18 1 -28 -3 -22 -12 18 -36 22 -50 7
-12 -11 -10 -16 10 -33 30 -25 18 -25 -27 0 -19 11 -35 16 -35 11 0 -11 50
-61 61 -61 5 0 9 -5 9 -10 0 -6 -18 -1 -40 10 -36 18 -41 19 -46 5 -4 -9 -13
-14 -20 -11 -8 3 -14 1 -14 -5 0 -6 -6 -7 -12 -3 -7 4 -2 -5 12 -20 20 -22 21
-26 6 -20 -13 5 -17 4 -13 -3 4 -6 4 -13 0 -16 -5 -2 -2 -2 5 -1 6 2 12 -3 12
-11 0 -8 8 -19 18 -24 23 -14 9 -14 -22 0 -14 7 -32 9 -42 5 -16 -6 -16 -8 2
-22 18 -14 18 -15 -3 -9 -27 7 -31 -10 -5 -20 16 -6 16 -7 -1 -17 -18 -9 -18
-11 -1 -29 17 -19 17 -19 -19 -4 -53 22 -65 18 -28 -9 34 -25 28 -42 -12 -31
-18 6 -20 5 -9 -6 16 -17 16 -30 0 -28 -27 3 -37 -2 -43 -21 -3 -11 -15 -20
-26 -20 -12 0 -19 -7 -19 -19 0 -10 -7 -22 -16 -25 -8 -3 -12 -11 -9 -17 4 -6
-2 -13 -14 -16 -11 -3 -18 -9 -15 -14 3 -5 -4 -24 -15 -43 -12 -18 -21 -41
-21 -50 0 -9 -4 -16 -10 -16 -5 0 -7 -7 -4 -15 4 -8 3 -23 -1 -32 -5 -10 -9
-22 -10 -28 -1 -5 -3 -13 -4 -17 -3 -9 -4 -57 -1 -60 1 -2 4 -21 6 -42 1 -22
9 -43 16 -47 14 -9 5 -12 -29 -9 -13 1 -23 -1 -23 -5 0 -3 10 -10 23 -15 18
-8 16 -9 -13 -5 -31 5 -33 4 -17 -8 23 -19 22 -30 -3 -22 -11 3 -20 2 -20 -3
0 -6 11 -13 25 -16 14 -4 23 -11 20 -17 -4 -5 -15 -7 -26 -4 -32 10 -21 -5 11
-17 23 -7 28 -13 20 -23 -5 -6 -8 -14 -6 -16 3 -2 -14 -3 -37 -2 -35 2 -38 1
-17 -6 l25 -9 -28 -1 c-22 -1 -28 -5 -25 -18 2 -10 10 -18 19 -17 8 1 20 -5
28 -13 11 -12 10 -15 -8 -20 -12 -3 -21 -9 -21 -14 0 -5 6 -6 14 -3 8 3 17 1
21 -5 6 -10 -36 -17 -72 -12 -27 4 -11 -16 23 -29 31 -13 33 -15 15 -22 -13
-4 -19 -13 -15 -23 3 -8 1 -15 -5 -15 -20 0 -11 -28 12 -35 19 -6 20 -8 4 -12
-24 -6 -16 -26 14 -34 18 -5 13 -7 -21 -8 -29 -1 -40 -4 -32 -10 17 -10 23
-73 8 -84 -7 -5 -3 -14 12 -26 l22 -19 -30 -7 c-31 -7 -42 -25 -15 -25 23 0
18 -18 -7 -26 l-23 -8 23 -5 c26 -7 30 -26 5 -26 -9 0 -18 -6 -20 -13 -3 -7 1
-10 10 -6 8 3 17 -2 21 -11 3 -9 2 -13 -3 -10 -5 3 -13 0 -17 -6 -4 -8 -9 -7
-16 2 -5 9 -6 4 -2 -13 4 -20 2 -29 -10 -34 -9 -3 -16 -10 -16 -16 0 -5 5 -6
10 -3 5 3 10 1 10 -5 0 -6 19 -20 43 -30 28 -13 35 -20 22 -21 -61 -2 -98 -19
-43 -19 48 0 53 -9 23 -40 -24 -25 -24 -28 -9 -41 14 -12 13 -14 -17 -25 -34
-12 -34 -12 -6 -13 16 -1 26 -5 22 -11 -3 -5 -1 -10 4 -10 6 0 11 -7 11 -15 0
-9 -6 -12 -15 -9 -11 5 -13 2 -9 -10 3 -9 13 -16 21 -16 9 0 13 -6 10 -14 -3
-8 -1 -17 6 -20 7 -2 2 -8 -11 -12 -18 -5 -20 -9 -10 -15 10 -7 10 -9 1 -9 -7
0 -13 -4 -13 -10 0 -5 9 -10 20 -10 18 0 19 -3 9 -21 -9 -17 -13 -19 -20 -8
-4 7 -11 10 -15 6 -4 -3 -1 -13 5 -21 7 -8 9 -21 5 -28 -5 -10 -4 -11 7 0 19
18 24 15 25 -13 2 -20 -4 -27 -30 -34 l-31 -9 28 -1 c24 -1 27 -4 22 -22 -4
-12 -8 -37 -9 -55 -2 -18 -9 -40 -16 -49 -11 -14 -11 -18 -1 -25 11 -6 10 -10
-3 -17 -10 -5 -20 -28 -23 -54 -11 -72 -6 -422 12 -811 6 -120 -3 -151 -47
-174 -36 -19 -36 -40 0 -58 16 -8 54 -42 84 -74 66 -72 68 -79 68 -297 0 -224
-8 -263 -86 -417 -79 -154 -105 -188 -145 -188 -48 0 -70 47 -68 145 2 73 -10
390 -26 723 -7 129 -8 132 -31 138 -34 9 -45 34 -34 75 9 29 5 43 -22 99 -24
48 -33 60 -36 45 -2 -11 -18 -35 -34 -54 -28 -32 -30 -39 -24 -87 6 -53 -3
-75 -36 -86 -15 -5 -17 -224 -5 -648 9 -317 6 -342 -38 -362 -41 -18 -31 -48
32 -93 30 -22 69 -60 86 -84 l30 -44 -6 -126 c-5 -126 -8 -141 -60 -268 -14
-35 -22 -65 -17 -68 4 -3 41 -12 81 -20 96 -20 105 -30 90 -89 -25 -102 -2
-184 69 -235 51 -37 111 -47 171 -30 50 15 80 14 91 -4 4 -6 8 -43 8 -80 l0
-68 29 20 c21 15 37 19 64 14 34 -5 37 -8 43 -49 8 -58 52 -116 106 -143 50
-24 88 -26 153 -9 42 11 47 11 67 -10 20 -20 23 -36 29 -179 4 -87 13 -423 19
-748 7 -324 16 -725 20 -890 8 -328 5 -800 -6 -882 l-7 -52 -76 -5 c-174 -13
-472 -59 -586 -91 -33 -9 -70 -18 -82 -20 -38 -5 -146 -47 -223 -85 -41 -20
-91 -42 -110 -49 -19 -6 -62 -34 -95 -62 -33 -27 -81 -68 -107 -89 -29 -25
-51 -54 -58 -77 -7 -21 -20 -46 -29 -57 -20 -22 -18 -108 4 -192 16 -63 17
-64 101 -148 50 -50 79 -69 160 -104 186 -82 402 -143 574 -162 52 -6 128 -15
168 -20 114 -15 579 -12 769 5 155 14 417 59 505 87 32 9 41 9 55 -4 42 -37
112 -34 160 5 15 13 55 31 88 41 51 16 70 29 129 89 37 39 89 84 114 100 26
16 51 36 57 44 6 8 44 21 84 28 179 35 223 105 188 302 -31 171 -30 239 2 555
17 163 40 344 51 402 20 103 64 253 80 269 13 15 40 -72 40 -129 0 -73 22
-118 79 -160 84 -61 131 -42 191 76 28 55 107 167 133 189 12 9 14 -6 14 -96
0 -63 7 -141 16 -188 23 -109 34 -249 49 -580 17 -405 15 -532 -12 -630 -14
-49 -26 -130 -31 -210 -18 -286 -35 -386 -81 -483 -27 -55 -30 -69 -24 -115 4
-29 11 -83 14 -121 6 -54 12 -72 31 -87 30 -24 82 -24 112 0 23 19 24 19 41
-10 20 -34 47 -37 72 -10 13 14 26 18 50 14 22 -3 36 0 45 11 7 9 24 16 36 16
12 0 28 7 35 15 7 8 23 15 35 15 31 0 44 19 56 82 22 114 22 132 -5 196 -14
34 -26 79 -26 100 0 21 -9 74 -20 117 -25 100 -25 156 1 230 16 46 20 73 15
115 -20 177 -19 188 23 390 81 390 152 720 206 945 30 127 60 273 66 325 15
125 6 299 -26 479 -30 174 -31 224 -5 422 38 288 70 442 131 640 68 222 153
554 199 779 17 85 32 155 33 156 25 12 143 56 175 65 25 7 54 25 68 42 21 25
24 38 24 115 1 48 7 121 15 162 8 41 19 109 25 150 6 41 18 104 25 140 15 70
20 114 31 258 4 51 11 95 17 99 6 3 23 -8 37 -26 22 -25 29 -29 33 -17 4 9 2
16 -3 16 -16 0 -11 27 5 34 8 3 22 3 30 0 19 -8 19 5 0 30 -25 33 -17 41 11
12 19 -19 30 -23 39 -16 13 11 16 8 80 -63 l26 -29 19 24 c11 13 19 26 20 30
0 4 9 16 20 26 19 18 19 19 1 68 -34 89 -34 90 3 50 29 -32 37 -36 42 -22 3 9
10 13 16 10 19 -12 58 6 58 26 0 11 3 20 8 20 4 0 15 17 24 38 14 28 16 46 9
73 -8 36 -8 37 22 35 38 -2 43 -15 27 -71 -10 -37 -10 -47 4 -66 9 -13 16 -29
16 -36 0 -8 12 -31 26 -53 29 -44 42 -42 69 11 35 67 48 223 25 284 -18 46
-21 87 -7 78 6 -4 2 6 -11 22 -12 15 -20 31 -17 34 4 3 9 1 13 -4 4 -6 18 -19
31 -30 22 -18 22 -16 -5 20 l-29 39 40 -29 39 -30 -22 32 c-26 37 -27 44 -7
37 23 -9 18 4 -17 50 -25 32 -27 37 -7 20 44 -38 56 -41 35 -9 -18 27 -16 26
30 -11 27 -21 43 -32 37 -23 -7 9 -10 19 -6 22 3 4 -2 17 -13 28 -19 22 -19
22 3 10 31 -16 34 -14 23 15 -13 33 -13 34 7 27 11 -4 14 -3 9 6 -5 7 10 3 33
-8 51 -27 55 -26 35 4 -12 18 -13 25 -4 25 9 0 9 4 -1 17 -10 12 -4 10 18 -5
41 -29 52 -28 25 1 -23 24 -21 40 4 30 17 -6 18 9 2 26 -7 7 5 2 27 -11 22
-13 46 -28 52 -32 9 -5 11 -2 7 8 -3 9 -12 16 -20 16 -8 0 -14 6 -15 13 0 6
-2 23 -5 36 -4 20 -2 22 11 11 12 -10 15 -10 15 2 0 8 -5 19 -12 26 -8 8 -9
12 -1 12 6 0 14 -6 17 -12 5 -10 7 -10 12 0 3 6 14 12 24 12 28 0 32 15 10 35
-24 21 -26 40 -5 31 18 -6 19 -2 4 25 -10 19 -9 20 11 9 30 -16 46 -8 26 13
-21 21 -10 22 28 2 41 -22 46 -8 9 25 -29 26 -30 28 -9 26 12 -1 27 -5 33 -9
25 -16 21 13 -4 32 l-28 21 30 -12 c17 -6 34 -15 39 -20 20 -16 29 -7 12 11
-13 15 -14 20 -4 24 8 4 7 6 -4 6 -20 1 -24 17 -7 23 9 3 9 10 0 27 -12 22
-12 22 26 16 l38 -6 -40 27 c-56 37 -66 48 -35 39 14 -4 48 -8 77 -9 l52 -2
-32 28 c-18 16 -22 23 -10 16 25 -14 46 -2 23 12 -8 6 -10 10 -5 10 6 0 2 5
-7 11 -26 15 -22 32 5 26 21 -6 21 -6 -3 14 l-25 20 38 -3 c24 -3 37 0 37 8 0
7 -6 14 -12 17 -7 2 -10 7 -6 11 3 4 16 3 27 -4 13 -6 21 -7 21 -1 0 5 -9 13
-20 16 -30 10 -25 28 6 21 17 -5 23 -3 19 4 -3 5 -12 10 -20 10 -8 0 -17 4
-20 10 -4 6 6 7 25 4 29 -6 36 1 31 30 -1 5 4 13 11 18 10 6 7 10 -9 14 -32 9
-28 22 5 17 23 -4 24 -3 10 7 -10 6 -18 19 -18 30 0 12 6 17 18 15 69 -14 86
-15 75 -4 -5 5 -17 12 -24 13 -32 7 -44 18 -45 42 -2 23 1 25 27 19 36 -8 41
18 7 30 -57 20 -61 24 -17 19 32 -4 49 -2 54 7 5 8 4 10 -3 5 -7 -4 -12 -1
-12 8 0 9 7 16 15 16 14 0 19 11 16 36 -1 7 7 15 16 18 16 7 16 9 -6 25 -27
20 -21 41 12 41 20 0 20 0 1 16 -18 15 -18 15 4 9 13 -4 22 -2 22 5 0 6 -4 9
-8 6 -4 -2 -14 0 -22 5 -11 7 -5 9 22 7 47 -3 59 8 19 17 -33 7 -52 25 -27 25
9 0 13 6 10 14 -4 11 0 13 18 9 23 -5 23 -5 3 11 -15 11 -17 18 -8 24 8 5 9
13 3 22 -7 10 -10 11 -10 3 0 -7 -4 -13 -10 -13 -18 0 2 29 23 32 27 4 35 28
8 28 -14 0 -19 5 -15 15 4 8 18 15 33 15 25 1 25 1 -9 20 -29 16 -31 19 -13
20 29 0 41 20 13 20 -16 0 -20 4 -16 16 3 9 6 18 6 20 0 2 10 4 23 5 17 0 15
3 -13 14 l-35 13 33 1 c18 1 31 5 27 10 -3 6 2 14 11 19 13 7 7 11 -26 16 -47
7 -47 20 0 18 17 0 28 4 25 9 -4 5 -13 9 -21 9 -8 0 -14 5 -14 10 0 6 7 10 15
10 8 0 14 6 12 13 -1 6 4 11 11 10 6 -2 12 4 12 12 0 8 -6 15 -12 15 -8 0 -4
8 7 16 13 11 16 18 8 21 -7 2 -9 11 -6 19 3 8 0 14 -6 14 -15 0 -14 27 1 36 6
4 26 7 45 6 20 -1 31 3 28 8 -3 6 -18 10 -33 11 -15 0 -36 4 -47 8 -17 7 -16
9 13 16 34 7 34 7 13 26 -11 10 -25 19 -31 19 -5 0 -10 7 -10 15 0 8 -6 15
-12 15 -8 0 -5 7 6 15 14 11 16 15 5 15 -10 1 -8 5 6 16 16 12 17 16 6 23 -7
5 -10 14 -7 20 4 6 11 9 16 6 4 -3 14 3 21 12 8 9 9 14 3 10 -7 -4 -17 -1 -23
7 -9 11 -8 17 4 29 21 22 19 34 -7 32 -13 -1 -26 0 -30 2 -11 6 24 43 40 43
12 0 12 3 2 15 -7 8 -24 15 -39 15 -43 0 -57 16 -21 23 30 6 31 8 14 24 -16
16 -15 18 5 27 23 10 30 32 8 23 -8 -3 -20 -2 -27 3 -9 6 -5 12 16 23 l29 16
-32 7 c-26 5 -33 12 -33 30 0 13 3 23 8 23 4 -1 16 -1 27 0 17 1 18 3 5 12
-12 8 -9 10 13 6 21 -3 25 -1 17 9 -6 7 -22 11 -35 8 -20 -3 -23 0 -20 21 2
20 -2 25 -19 25 -21 1 -21 1 -2 15 17 13 18 15 3 15 -25 0 -21 25 6 38 l22 11
-22 0 c-13 1 -23 6 -23 11 0 6 -9 10 -20 10 -29 0 -25 18 5 26 14 3 29 14 34
23 7 13 4 16 -16 17 -32 2 -39 10 -23 29 10 12 9 16 -3 21 -14 5 -12 10 8 30
27 27 31 39 15 49 -5 3 -10 14 -10 24 0 10 -7 24 -15 31 -8 7 -17 28 -21 49
-3 20 -8 43 -11 51 -4 8 -7 17 -8 20 -10 28 -21 40 -46 49 -29 10 -40 31 -16
31 8 0 8 3 -2 9 -8 5 -21 6 -30 3 -14 -5 -14 -4 -1 13 14 16 13 17 -8 11 -26
-9 -29 2 -5 19 15 12 14 13 -12 9 -17 -2 -24 -1 -17 2 17 8 15 24 -4 24 -11 0
-14 5 -10 16 5 12 2 15 -10 10 -15 -6 -15 -4 -3 10 12 15 10 16 -21 10 l-35
-8 30 26 30 26 -30 -7 c-26 -5 -28 -4 -17 9 15 19 6 49 -14 41 -29 -11 -13 13
24 34 36 22 36 23 7 17 -16 -4 -37 -12 -45 -18 -13 -10 -13 -9 -1 7 11 14 11
17 0 17 -9 1 -7 6 6 16 19 15 18 16 -15 10 -33 -7 -34 -6 -16 9 22 17 10 20
-28 5 -39 -14 -32 -6 24 30 48 31 64 54 22 31 -29 -16 -37 -14 -21 6 12 15 12
16 -6 9 -11 -5 -35 -10 -53 -11 -33 -3 -33 -3 -16 16 14 15 14 19 3 19 -8 0
-15 9 -16 20 -1 11 2 20 8 20 5 0 9 4 9 10 0 6 -9 6 -26 0 -32 -13 -31 -13
-38 6 -5 14 -4 15 8 5 10 -8 16 -9 21 -1 3 5 1 10 -5 10 -7 0 -10 7 -6 15 3
10 -1 15 -12 15 -15 0 -15 2 -2 10 13 9 13 10 0 10 -11 1 -8 6 9 20 27 23 16
27 -13 5 -27 -20 -36 -19 -36 6 0 16 -5 20 -19 16 -14 -3 -18 -1 -14 9 6 17
-18 19 -35 2 -9 -9 -12 -9 -12 -1 0 7 5 15 11 19 8 4 7 9 -2 14 -9 6 -10 12
-1 22 9 11 5 13 -22 13 -18 -1 -39 -5 -47 -10 -12 -7 -11 -5 1 10 8 11 24 28
35 37 14 12 16 17 6 18 -11 0 -11 3 0 16 8 10 0 8 -24 -6 -42 -25 -46 -20 -16
21 25 35 21 36 -28 7 -34 -20 -36 -20 -23 -3 14 17 13 18 -2 13 -24 -10 -32
21 -11 45 10 11 12 17 6 13 -20 -11 -15 5 9 31 12 13 16 23 10 23 -6 0 -14 -5
-17 -10 -3 -6 -21 -18 -38 -27 -30 -15 -31 -15 -18 0 18 22 3 22 -21 0 -10 -9
-18 -11 -18 -5 0 6 8 17 18 24 18 12 48 58 38 58 -2 0 -11 -6 -18 -12 -30 -29
-88 -68 -88 -61 0 5 5 14 10 19 6 6 19 27 29 47 l19 37 -29 -21 -29 -21 11 26
c16 34 7 42 -25 20 -28 -18 -48 -12 -28 8 17 17 15 21 -13 54 -28 33 -30 44
-12 64 6 7 -13 -6 -43 -31 -30 -24 -50 -37 -44 -29 21 27 56 95 43 83 -22 -22
-33 -14 -13 9 13 16 14 19 2 10 -9 -7 -28 -15 -43 -18 -21 -4 -26 -2 -22 10 4
11 1 13 -11 8 -16 -6 -16 -4 1 21 9 15 13 27 8 27 -5 0 -11 -6 -14 -14 -3 -8
-16 -20 -29 -27 -22 -12 -22 -12 -5 14 24 37 21 41 -13 17 -16 -12 -30 -17
-30 -11 0 5 5 13 10 16 6 4 8 11 4 16 -3 6 2 19 12 30 25 28 9 36 -24 12 -39
-29 -57 -9 -29 32 20 29 19 29 -17 -5 l-37 -35 7 30 c3 17 10 34 15 39 13 15
-16 35 -42 29 -13 -3 -21 -3 -17 2 4 4 0 14 -8 22 -9 9 -12 24 -9 37 5 15 -3
10 -30 -19 -20 -22 -30 -29 -21 -16 17 28 1 57 -21 39 -16 -13 -17 4 -2 19 6
6 9 19 7 29 -2 13 -10 6 -32 -27 -29 -43 -49 -42 -25 2 9 19 9 21 -4 16 -22
-8 -27 1 -16 32 9 24 8 25 -6 7 -8 -11 -15 -23 -15 -27 0 -4 -6 -9 -14 -12
-13 -5 -13 -1 0 31 13 35 13 36 -2 15 -23 -32 -37 -28 -32 8 l5 31 -18 -23
c-10 -13 -19 -27 -19 -31 0 -5 -5 -8 -10 -8 -6 0 -1 18 10 40 22 44 10 54 -21
18 l-18 -23 9 35 10 35 -19 -24 -19 -24 -7 22 c-4 13 -2 28 4 34 6 6 11 16 11
21 0 6 -9 -2 -20 -19 -11 -16 -23 -30 -27 -30 -5 0 -14 -4 -20 -8 -9 -6 -12
-2 -11 10 0 10 0 28 0 41 -2 21 -4 20 -35 -13 l-33 -34 1 54 c1 50 0 53 -15
40 -21 -19 -30 -19 -30 1 0 8 4 13 9 10 5 -4 7 3 4 13 -5 18 -7 18 -29 -7 -18
-20 -26 -24 -32 -14 -6 9 -12 5 -21 -14 -16 -36 -26 -23 -12 17 13 39 6 50
-14 23 -14 -18 -14 -18 -15 6 -1 37 -16 57 -23 31 -8 -34 -25 -24 -29 17 l-4
37 -18 -40 c-16 -34 -19 -37 -28 -21 -5 9 -7 24 -4 32 9 23 -10 16 -23 -8 -11
-23 -12 -23 -7 -1 4 25 -19 40 -28 17 -9 -25 -23 -15 -19 14 l5 27 -17 -30
c-23 -41 -29 -45 -21 -11 6 26 5 28 -8 17 -9 -8 -16 -10 -16 -5 0 4 -7 -1 -15
-12 -14 -18 -15 -17 -9 11 3 17 7 36 10 43 2 7 0 10 -5 7 -5 -3 -15 -21 -21
-41 -17 -49 -23 -36 -10 21 14 62 7 67 -20 13 l-21 -43 5 40 c5 37 4 38 -9 21
-8 -11 -15 -23 -15 -28 0 -4 -4 -8 -10 -8 -5 0 -10 12 -10 26 0 24 -2 25 -17
13 -15 -12 -16 -12 -10 4 3 9 2 17 -3 17 -6 0 -10 -6 -11 -12 0 -7 -4 -4 -9 7
-7 18 -8 18 -15 -7 -4 -16 -11 -26 -15 -23 -5 3 -4 21 1 41 15 51 6 64 -11 15
-8 -26 -18 -40 -26 -37 -7 3 -15 0 -18 -7 -3 -7 -3 7 0 31 5 52 -12 48 -22 -6
l-7 -37 -9 28 c-6 16 -17 27 -28 27 -10 0 -21 8 -23 18 -4 13 -5 11 -6 -5 -1
-22 -21 -34 -21 -12 0 5 -4 8 -9 4 -5 -3 -12 -1 -16 5 -3 5 -1 10 6 10 22 0 0
13 -28 16 -14 2 -30 9 -35 16 -7 10 -11 10 -14 1 -3 -7 -12 -9 -21 -6 -9 4
-14 2 -10 -3 3 -6 1 -16 -4 -24 -8 -13 -10 -13 -18 0 -5 8 -7 18 -5 22 7 12
-10 10 -22 -2 -12 -12 -34 8 -38 32 -1 7 -9 24 -19 38 -9 13 -17 30 -17 38 0
8 -11 2 -27 -13 l-28 -26 -17 21 c-9 11 -24 42 -33 68 -29 82 -49 127 -60 134
-20 15 -46 8 -54 -14z m1620 -801 c-10 -9 -11 -8 -5 6 3 10 9 15 12 12 3 -3 0
-11 -7 -18z m-1046 -68 c11 -17 -1 -21 -15 -4 -8 9 -8 15 -2 15 6 0 14 -5 17
-11z m75 -19 c0 -5 8 -6 19 -3 17 4 39 -13 28 -23 -9 -10 -105 19 -101 31 5
13 54 8 54 -5z m90 -31 c0 -5 11 -4 25 1 14 5 27 6 30 0 12 -19 63 -38 74 -27
8 8 11 8 11 -1 0 -7 11 -12 25 -12 14 0 25 -5 25 -11 0 -5 8 -9 18 -8 9 2 28
-3 42 -11 14 -8 30 -15 35 -16 6 -1 30 -11 55 -22 72 -31 84 -35 98 -33 6 1
12 -5 12 -14 0 -18 12 -19 28 -3 9 9 12 8 12 -5 0 -13 24 -34 50 -43 3 -1 15
-5 27 -9 12 -4 24 -13 27 -21 3 -8 16 -14 28 -14 13 0 29 -9 36 -20 7 -11 17
-20 23 -20 5 0 19 -9 31 -20 12 -11 30 -20 40 -20 10 0 21 -7 25 -16 3 -8 12
-13 19 -10 7 3 16 -4 19 -15 4 -10 10 -17 14 -14 4 2 17 -5 29 -15 12 -11 25
-20 30 -20 5 0 18 -11 30 -25 12 -14 28 -25 36 -25 13 0 30 -34 27 -54 -1 -5
5 -6 14 -3 8 4 15 1 15 -5 0 -6 8 -16 17 -23 15 -11 16 -17 3 -54 -22 -67 -61
-53 -205 74 -136 119 -351 285 -370 285 -4 0 -24 14 -45 30 -21 17 -40 30 -43
30 -3 0 -33 16 -67 35 -34 19 -67 35 -73 35 -6 0 -18 6 -26 14 -17 15 -198 86
-218 86 -7 0 -13 9 -13 20 0 13 5 18 15 14 8 -4 15 -10 15 -15z m-2490 -39 c0
-5 -2 -10 -4 -10 -3 0 -8 5 -11 10 -3 6 -1 10 4 10 6 0 11 -4 11 -10z m2830
-390 c128 -64 209 -114 325 -201 98 -73 158 -130 153 -146 -3 -9 18 -56 109
-251 42 -89 114 -165 200 -210 105 -55 203 -186 203 -270 0 -38 -2 -40 -38
-46 -21 -3 -240 -6 -487 -6 -421 -1 -449 0 -458 17 -5 10 -21 30 -35 45 -23
25 -24 31 -14 55 l12 28 -20 -24 c-20 -23 -21 -23 -34 -6 -12 16 -9 29 22 94
19 42 39 81 43 87 13 16 -8 168 -27 206 -9 18 -40 67 -69 108 -74 107 -75 112
-10 50 55 -51 56 -52 24 -12 -19 23 -44 57 -56 74 -13 17 -23 27 -23 23 0 -4
-7 -2 -16 6 -10 8 -13 21 -9 37 4 15 2 21 -5 17 -6 -4 -10 10 -10 37 0 49 -16
166 -26 194 -7 18 -7 18 13 1 12 -10 29 -33 37 -50 l17 -32 -5 49 c-3 34 -13
60 -36 90 -30 39 -80 137 -80 156 0 12 177 -59 300 -120z m-1696 64 c-9 -21
-24 -50 -34 -64 -9 -14 -23 -43 -29 -65 -7 -22 -26 -72 -42 -112 -30 -73 -36
-130 -19 -163 5 -10 11 -59 12 -109 2 -50 6 -91 9 -91 10 0 19 39 20 85 0 22
4 49 9 60 7 16 9 12 9 -18 1 -21 8 -54 16 -74 15 -35 14 -37 -21 -90 -19 -29
-38 -52 -42 -50 -4 3 -24 -32 -45 -76 -22 -48 -31 -74 -21 -66 9 7 19 20 23
29 12 31 106 179 114 180 12 0 8 -31 -11 -85 -18 -52 -91 -170 -100 -161 -2 3
3 17 12 30 9 14 16 33 15 43 0 14 -2 13 -9 -4 -5 -13 -13 -23 -18 -23 -5 0
-13 -16 -19 -35 -6 -19 -7 -33 -2 -29 15 9 10 -14 -11 -48 -11 -18 -20 -42
-19 -53 0 -13 4 -8 12 14 18 52 37 51 38 -1 1 -23 2 -71 4 -105 l2 -62 -31 60
c-36 70 -54 79 -26 13 17 -40 19 -52 8 -85 l-11 -39 -551 2 -551 3 2 29 c7 96
212 417 383 601 157 168 285 264 544 409 153 85 386 199 393 192 2 -1 -4 -20
-13 -42z m1917 -1 c13 -16 12 -17 -3 -4 -17 13 -22 21 -14 21 2 0 10 -8 17
-17z m79 -48 c7 -8 8 -15 2 -15 -5 0 -15 7 -22 15 -7 8 -8 15 -2 15 5 0 15 -7
22 -15z m-2050 -170 c0 -8 -5 -26 -12 -42 -6 -15 -12 -31 -12 -35 -1 -3 -4
-10 -8 -14 -14 -13 -9 -24 8 -17 12 4 14 0 8 -23 -4 -16 -12 -32 -17 -35 -5
-4 -7 -22 -4 -40 5 -24 4 -29 -3 -18 -17 30 -15 151 4 201 17 44 36 56 36 23z
m-955 -37 c12 -11 -33 -83 -131 -213 -319 -421 -472 -844 -494 -1365 -4 -96
-8 -165 -8 -152 -1 14 -11 26 -26 32 -31 11 -34 23 -28 92 4 51 2 59 -22 83
-14 14 -26 30 -26 35 0 6 -7 10 -15 10 -8 0 -15 -5 -15 -11 0 -5 -5 -7 -10 -4
-8 5 -8 11 -1 19 6 7 12 43 15 82 5 80 23 129 61 164 40 38 111 149 130 205
27 80 29 141 6 224 -15 59 -17 79 -8 95 6 12 11 24 12 28 0 3 3 10 8 14 4 4 7
16 7 26 0 10 5 18 11 18 6 0 9 7 6 15 -4 8 -2 17 4 21 6 3 8 11 6 17 -2 6 9
24 25 40 15 17 28 36 28 43 0 8 5 14 10 14 6 0 10 12 10 26 0 19 4 25 15 20
11 -4 15 2 16 22 1 15 1 30 0 35 0 4 6 7 14 7 9 0 12 6 9 15 -4 8 -1 15 6 15
18 0 40 27 34 43 -3 8 2 17 10 20 9 4 16 13 16 20 0 8 9 24 20 37 11 13 20 29
20 37 0 7 7 13 16 13 8 0 13 4 9 9 -3 5 3 12 12 15 10 3 24 19 31 36 8 17 18
27 23 24 11 -6 49 32 49 49 0 5 7 7 15 4 8 -4 17 -2 21 4 3 6 12 8 20 5 8 -3
14 1 14 8 0 13 63 17 75 4z m970 -138 c-11 -17 -23 -1 -18 21 5 19 7 19 15 5
5 -9 6 -21 3 -26z m15 -100 c0 -27 -4 -50 -8 -50 -4 0 -7 19 -6 43 3 54 3 57
9 57 3 0 5 -22 5 -50z m-80 -400 c-8 -61 -20 -77 -20 -26 0 32 14 76 24 76 1
0 0 -22 -4 -50z m2952 26 c17 -25 34 -49 43 -60 6 -6 12 -18 14 -26 12 -52 23
-80 31 -80 11 0 10 -60 -1 -82 -6 -12 0 -40 20 -90 16 -41 32 -96 36 -123 9
-59 21 -85 39 -85 24 0 48 -81 50 -172 1 -16 4 -28 8 -28 4 0 7 -12 6 -27 0
-16 3 -55 6 -88 9 -76 10 -382 2 -455 -3 -30 -8 -82 -10 -115 -5 -70 -45 -280
-59 -315 -4 -8 -8 -26 -10 -40 -2 -14 -7 -32 -11 -41 -4 -9 -6 -20 -5 -25 1
-5 -2 -20 -8 -34 -20 -45 -26 -65 -29 -89 -2 -13 -8 -28 -15 -31 -6 -4 -8 -13
-5 -19 4 -6 2 -11 -3 -11 -6 0 -11 -7 -11 -16 0 -9 -8 -33 -19 -53 -10 -20
-24 -49 -31 -66 -7 -16 -16 -38 -22 -48 -5 -10 -6 -22 -3 -27 4 -6 1 -10 -5
-10 -6 0 -9 -4 -6 -9 3 -5 -7 -23 -23 -40 -16 -17 -27 -31 -24 -31 3 0 0 -7
-7 -15 -6 -8 -9 -19 -5 -25 3 -5 -1 -10 -10 -10 -9 0 -14 -4 -11 -9 9 -14 -5
-41 -21 -41 -8 0 -11 -4 -8 -10 3 -5 1 -10 -5 -10 -6 0 -9 -4 -5 -10 3 -5 -3
-18 -15 -30 -11 -11 -20 -27 -20 -36 0 -8 -14 -29 -31 -46 -16 -17 -28 -36
-25 -43 3 -8 -5 -16 -19 -19 -16 -4 -26 -16 -30 -36 -4 -16 -10 -30 -15 -30
-4 0 -11 -11 -14 -25 -4 -14 -18 -31 -31 -37 -14 -6 -25 -17 -25 -25 0 -7 -4
-13 -10 -13 -5 0 -6 -8 -3 -17 5 -13 2 -15 -11 -10 -10 4 -24 1 -32 -8 -9 -8
-13 -15 -10 -15 12 0 -42 -48 -74 -66 -19 -10 -38 -23 -42 -29 -13 -18 -29 10
-33 58 -5 45 -3 47 64 119 171 182 289 352 397 573 156 320 234 661 234 1023
0 324 -58 598 -219 1042 -37 103 -39 133 -8 147 25 12 78 5 89 -11z m-1216
-89 c-21 -50 -45 -93 -46 -81 0 15 29 85 42 102 17 21 19 14 4 -21z m-1717
-112 c0 -5 -6 -1 -14 9 -8 11 -15 38 -14 60 l1 41 14 -50 c7 -27 14 -54 13
-60z m1749 -75 c24 -31 28 -50 12 -50 -5 0 -19 18 -30 40 -24 47 -13 53 18 10z
m-29 -30 c11 -24 11 -24 -3 -6 -9 11 -16 24 -16 30 0 12 5 7 19 -24z m-2909
-307 c43 -19 593 -412 693 -495 44 -38 47 -43 47 -88 0 -27 -9 -86 -20 -133
-29 -121 -48 -259 -60 -431 -13 -186 -21 -228 -71 -384 -22 -68 -48 -171 -58
-230 -17 -100 -35 -140 -43 -91 -2 12 -9 24 -16 27 -10 3 -13 -9 -11 -49 3
-44 -2 -62 -24 -96 -15 -24 -27 -47 -27 -53 0 -33 -39 1 -140 120 -112 134
-127 183 -135 455 -8 285 -11 305 -46 319 -32 12 -47 42 -30 59 19 19 12 61
-16 105 -15 23 -30 42 -33 42 -3 -1 -18 -17 -33 -38 -25 -32 -28 -43 -24 -82
9 -78 -36 -110 -83 -60 -64 69 -102 272 -102 545 0 238 39 493 93 614 l21 46
36 -41 c20 -22 57 -50 82 -61z m888 79 c-1 -4 -16 -33 -31 -63 -18 -37 -39
-111 -59 -210 -17 -85 -34 -157 -37 -162 -4 -4 -29 7 -57 24 -73 47 -429 306
-444 324 -11 14 -10 17 8 22 28 7 28 11 -4 35 -20 16 -23 23 -12 29 16 11 641
12 636 1z m2173 -34 c13 -29 18 -34 14 -16 -3 14 -8 33 -11 42 -6 14 21 16
267 16 286 0 322 -5 283 -38 -12 -9 -26 -26 -32 -38 -9 -17 -287 -226 -383
-288 l-27 -17 -17 68 c-20 74 -57 156 -85 188 -9 11 -20 36 -23 55 -3 19 -8
43 -12 53 -15 36 7 15 26 -25z m1009 11 c46 -85 76 -519 51 -726 -64 -512
-296 -978 -674 -1352 l-85 -84 -6 44 c-3 24 -7 78 -10 119 -3 41 -12 113 -21
160 -9 52 -17 179 -21 325 -6 284 -15 370 -55 570 -17 83 -34 193 -38 245 -7
82 -6 96 8 107 85 65 645 470 711 514 47 31 94 66 104 78 23 26 23 26 36 0z
m-4376 -1007 c5 -33 3 -43 -6 -40 -22 8 -37 72 -42 189 l-5 114 23 -110 c12
-60 26 -130 30 -153z m2995 -258 c6 4 11 2 11 -3 0 -6 7 -11 16 -11 19 0 49
-34 69 -78 49 -112 88 -416 68 -539 l-8 -51 -150 109 c-82 61 -157 116 -167
122 -15 11 -15 18 -2 67 39 152 134 406 145 389 4 -7 12 -8 18 -5z m-1585
-220 c12 -166 17 -349 9 -359 -15 -19 -94 -77 -98 -73 -3 2 0 20 5 38 6 19 15
104 20 190 10 146 35 290 50 290 4 0 10 -39 14 -86z m-1879 -214 c-3 -5 -13
-10 -21 -10 -8 0 -12 5 -9 10 3 6 13 10 21 10 8 0 12 -4 9 -10z m-18 -60 c1
-11 -2 -20 -5 -20 -4 0 -8 9 -9 20 -1 11 2 20 5 20 4 0 8 -9 9 -20z m672 -12
c13 -36 -1 -133 -19 -133 -10 0 -15 10 -15 30 0 17 -5 29 -11 28 -14 -2 -8 65
7 83 16 20 28 17 38 -8z m-638 -25 l-24 -16 22 -9 c13 -4 19 -13 15 -19 -4 -8
0 -9 15 -4 23 7 51 -9 51 -29 0 -6 -7 -3 -14 7 -21 27 -25 20 -10 -20 7 -21
18 -37 23 -35 19 4 12 -15 -11 -31 -22 -16 -22 -16 9 -7 18 5 37 11 43 15 5 3
10 2 10 -2 0 -5 -14 -17 -31 -27 -17 -10 -28 -20 -25 -23 3 -3 12 0 20 7 9 6
21 10 28 8 7 -3 -1 -12 -20 -22 -49 -26 -32 -31 20 -6 l43 21 -30 -26 -30 -27
35 7 35 6 -35 -30 c-26 -23 -30 -31 -17 -31 9 0 17 -5 17 -11 0 -6 9 -8 21 -4
18 6 20 5 10 -14 -9 -16 -9 -21 0 -21 8 0 6 -7 -4 -18 -10 -10 -17 -22 -17
-26 0 -5 -7 -24 -16 -44 -9 -21 -24 -55 -33 -76 -9 -22 -45 -98 -81 -170 -55
-112 -70 -134 -100 -149 -35 -17 -35 -17 -42 5 -3 13 -6 62 -7 111 -1 107 16
140 108 207 33 24 61 47 61 51 0 11 -24 27 -53 34 -15 4 -26 12 -25 19 1 6 -3
20 -8 31 -12 22 -13 273 -1 292 4 6 4 18 1 27 -3 9 -1 16 5 16 6 0 11 4 11 10
0 5 -7 6 -17 3 -11 -4 -14 -3 -9 6 9 14 43 29 66 30 9 1 5 -6 -9 -16z m3441
-196 c98 -71 181 -133 184 -139 11 -18 53 -199 60 -258 l6 -58 -40 -21 -41
-21 -3 32 c-2 17 -10 34 -18 38 -46 21 -56 30 -70 58 -19 38 -66 92 -81 92 -6
0 -25 11 -41 25 -32 27 -51 25 -42 -3 3 -9 -18 26 -46 78 -29 52 -59 115 -66
139 -14 45 -19 162 -8 174 9 8 1 14 206 -136z m-2468 -111 c14 -19 26 -39 26
-44 0 -5 16 -33 35 -61 40 -58 43 -66 16 -51 -11 5 -31 10 -45 10 -23 0 -25 2
-14 19 14 23 -3 51 -32 51 -12 0 -24 15 -35 44 -27 72 3 91 49 32z m846 -130
c-15 -48 -27 -73 -35 -70 -6 3 -29 -16 -49 -41 -21 -25 -42 -45 -49 -45 -6 0
-21 -10 -34 -22 -13 -12 -26 -19 -29 -16 -6 7 21 120 34 143 11 20 176 142
180 133 2 -4 -6 -41 -18 -82z m-842 -63 c6 -16 14 -41 18 -56 6 -27 5 -28 -14
-16 -29 18 -45 53 -37 78 9 29 20 26 33 -6z m-657 -40 c6 -6 17 -9 23 -7 6 2
17 -5 23 -16 11 -17 9 -24 -20 -57 l-32 -37 32 22 c38 27 53 28 53 4 0 -33
-32 -49 -107 -55 -54 -4 -73 -3 -76 8 -7 17 2 56 18 75 7 8 20 29 29 47 16 31
36 37 57 16z m64 -245 c20 -2 40 -16 82 -55 13 -13 28 -23 33 -23 6 0 10 -7
10 -15 0 -8 4 -15 9 -15 13 0 50 -94 57 -144 12 -84 -2 -130 -57 -190 -54 -59
-96 -79 -156 -75 -21 1 -61 -1 -89 -5 -59 -9 -92 4 -142 53 -74 74 -94 198
-48 298 25 53 105 143 128 143 7 0 23 8 35 18 21 16 51 18 138 10z m3358 -184
c6 -31 5 -31 -18 -20 -14 6 -27 17 -30 24 -2 7 -1 11 4 8 5 -3 14 1 21 9 15
18 16 18 23 -21z m-2833 -38 c0 -3 -4 -8 -10 -11 -5 -3 -10 -1 -10 4 0 6 5 11
10 11 6 0 10 -2 10 -4z m-176 -167 c15 -12 25 -27 22 -35 -3 -7 -1 -16 4 -19
13 -8 8 -55 -6 -55 -6 0 -32 3 -57 6 -42 6 -46 9 -52 41 -7 41 15 83 44 83 10
0 30 -10 45 -21z m-734 -29 c22 -22 25 -46 11 -83 -8 -21 -19 -26 -62 -32 -60
-8 -72 2 -65 54 10 69 74 103 116 61z m1100 -125 c-7 -9 -15 -13 -18 -10 -3 2
1 11 8 20 7 9 15 13 18 10 3 -2 -1 -11 -8 -20z m-358 -34 c37 -15 94 -74 118
-122 12 -24 28 -51 34 -59 7 -8 18 -35 25 -59 34 -120 -74 -272 -216 -301
-115 -24 -214 20 -265 119 -36 68 -36 121 -3 181 14 25 39 73 56 107 31 65 58
90 131 123 47 22 85 25 120 11z m-680 -50 c56 -24 87 -56 139 -144 75 -125 65
-231 -29 -320 -62 -57 -132 -81 -216 -75 -71 6 -107 22 -155 70 -49 48 -73
109 -73 185 0 84 34 155 110 224 89 82 141 96 224 60z m1105 -126 c6 -14 7
-27 2 -31 -5 -3 -9 -1 -9 5 0 6 -7 8 -15 5 -10 -4 -15 0 -15 13 0 39 20 43 37
8z m-117 -185 c11 -6 33 -30 49 -54 27 -39 30 -49 24 -95 -3 -28 -11 -51 -17
-52 -6 0 -47 -2 -91 -2 -74 -2 -80 0 -91 22 -11 20 -7 31 27 85 21 33 39 66
39 73 0 7 8 17 18 22 21 13 20 13 42 1z m376 -107 c-10 -10 -19 5 -10 18 6 11
8 11 12 0 2 -7 1 -15 -2 -18z m-1756 -5 c52 -62 90 -120 90 -138 0 -24 -44
-54 -66 -46 -9 4 -43 1 -74 -5 -105 -20 -126 20 -70 131 42 82 83 102 120 58z
m729 -34 c11 -10 13 -20 5 -41 -8 -24 -14 -27 -58 -28 -37 0 -51 4 -62 19 -37
53 65 97 115 50z m1101 -141 c0 -10 -7 -58 -15 -106 -36 -223 -42 -573 -15
-872 15 -166 89 -706 101 -745 27 -85 39 -441 20 -595 -24 -192 -9 -376 70
-840 49 -291 79 -524 79 -612 0 -46 -2 -83 -4 -83 -2 0 -28 16 -58 35 -29 20
-84 45 -123 57 -38 12 -89 30 -112 40 -108 48 -407 94 -758 118 -155 10 -158
12 -173 101 -18 114 -21 186 -32 754 -6 292 -17 835 -25 1208 -13 603 -13 682
0 708 18 34 50 44 89 30 90 -35 203 25 236 125 7 20 10 58 8 85 -3 27 -2 46 3
44 4 -3 18 -1 32 4 18 7 32 5 56 -10 53 -32 53 -36 15 131 -3 14 -3 22 1 18 4
-4 18 -3 31 2 16 7 35 4 61 -6 154 -65 306 114 233 275 -11 24 -20 47 -20 53
0 5 20 18 45 29 l45 20 29 -22 c38 -28 64 -21 116 29 44 43 65 51 65 25z
m-690 -101 c23 -19 23 -19 5 -65 -14 -36 -17 -65 -13 -128 4 -68 2 -85 -12
-99 -16 -16 -19 -16 -56 3 -58 30 -139 27 -206 -6 l-53 -27 -22 26 c-21 23
-23 35 -23 129 0 101 1 106 28 136 25 28 37 33 98 39 141 14 230 12 254 -8z
m2955 -2 c3 -5 1 -10 -4 -10 -6 0 -11 5 -11 10 0 6 2 10 4 10 3 0 8 -4 11 -10z
m-3530 -44 c14 -14 26 -41 30 -71 10 -64 1 -185 -15 -211 l-13 -21 -45 19
c-59 26 -143 27 -202 2 -25 -11 -55 -18 -67 -16 -22 3 -23 8 -23 82 0 67 -4
86 -30 134 l-29 56 25 16 c26 18 129 30 262 33 75 1 85 -1 107 -23z m3525 -6
c0 -5 -5 -10 -11 -10 -5 0 -7 5 -4 10 3 6 8 10 11 10 2 0 4 -4 4 -10z m-994
-695 c17 -133 16 -191 -5 -430 -24 -264 -27 -267 -35 -35 -5 137 -4 280 3 393
6 98 11 185 11 194 0 45 11 -6 26 -122z"/>
<path d="M6787 10983 c-19 -94 -20 -96 -8 -89 6 4 11 16 11 26 0 10 5 20 11
22 7 2 8 15 2 38 l-10 35 -6 -32z"/>
<path d="M6786 10865 c-3 -9 -5 -29 -5 -43 1 -20 3 -17 9 13 8 43 7 57 -4 30z"/>
<path d="M6895 10616 c10 -14 19 -26 22 -26 7 0 -17 39 -28 46 -6 3 -3 -5 6
-20z"/>
<path d="M6926 10567 c3 -10 9 -15 12 -12 3 3 0 11 -7 18 -10 9 -11 8 -5 -6z"/>
<path d="M6953 10475 c0 -22 2 -30 4 -17 2 12 2 30 0 40 -3 9 -5 -1 -4 -23z"/>
<path d="M5046 10365 c-9 -26 -7 -32 5 -12 6 10 9 21 6 23 -2 3 -7 -2 -11 -11z"/>
<path d="M5020 10279 c-8 -30 -8 -45 -1 -52 8 -8 11 -3 11 15 0 15 4 38 10 52
6 16 6 26 0 26 -5 0 -14 -19 -20 -41z"/>
<path d="M3495 9520 c-3 -5 -1 -10 4 -10 6 0 11 5 11 10 0 6 -2 10 -4 10 -3 0
-8 -4 -11 -10z"/>
<path d="M7921 11414 c0 -11 3 -14 6 -6 3 7 2 16 -1 19 -3 4 -6 -2 -5 -13z"/>
<path d="M3785 11300 c3 -5 8 -10 11 -10 2 0 4 5 4 10 0 6 -5 10 -11 10 -5 0
-7 -4 -4 -10z"/>
<path d="M3625 11100 c3 -5 8 -10 11 -10 2 0 4 5 4 10 0 6 -5 10 -11 10 -5 0
-7 -4 -4 -10z"/>
<path d="M8875 9600 c3 -5 8 -10 11 -10 2 0 4 5 4 10 0 6 -5 10 -11 10 -5 0
-7 -4 -4 -10z"/>
</g>
</svg>
