<?xml version="1.0" standalone="no"?>
<!DOCTYPE svg PUBLIC "-//W3C//DTD SVG 20010904//EN"
 "http://www.w3.org/TR/2001/REC-SVG-20010904/DTD/svg10.dtd">
<svg version="1.0" xmlns="http://www.w3.org/2000/svg"
 width="778.000000pt" height="1280.000000pt" viewBox="0 0 778.000000 1280.000000"
 preserveAspectRatio="xMidYMid meet">
<metadata>
Created by potrace 1.15, written by Peter Selinger 2001-2017
</metadata>
<g transform="translate(0.000000,1280.000000) scale(0.100000,-0.100000)"
fill="#000000" stroke="none">
<path d="M545 12790 c-8 -13 -1 -46 45 -210 68 -241 84 -335 145 -835 66 -552
82 -814 95 -1540 9 -516 17 -641 50 -790 48 -219 158 -411 344 -604 406 -418
836 -603 1319 -566 l98 7 -6 31 c-4 18 -27 92 -51 166 -87 265 -183 427 -379
646 -145 161 -189 223 -226 323 -9 23 -2 19 43 -25 29 -28 89 -76 133 -105 50
-34 96 -76 124 -112 49 -64 99 -100 165 -118 62 -17 85 -3 124 72 42 82 44
141 6 167 -15 10 -37 28 -50 40 -26 24 -25 32 19 138 14 33 28 85 31 115 11
87 17 111 27 104 14 -9 10 -111 -6 -151 -8 -19 -15 -46 -15 -59 0 -14 -12 -42
-26 -64 -28 -42 -26 -76 4 -67 9 2 24 6 32 8 11 3 16 -12 22 -61 13 -95 4
-162 -29 -219 -27 -50 -27 -51 -8 -65 11 -9 27 -16 37 -16 17 0 65 54 91 105
8 17 32 49 52 73 89 103 149 35 331 -377 116 -261 179 -387 267 -529 40 -64
111 -178 157 -252 199 -322 355 -543 470 -665 36 -38 89 -108 117 -155 84
-139 148 -200 211 -200 37 0 31 28 -21 97 -69 91 -139 232 -145 292 -3 36 8
92 46 232 87 322 103 422 82 525 -16 76 -38 120 -115 224 -161 219 -205 341
-240 675 -28 271 -46 314 -169 411 -138 108 -148 158 -49 264 71 77 193 160
236 160 18 0 78 -7 134 -17 83 -13 117 -14 178 -6 127 18 137 30 220 271 54
156 57 170 52 234 -6 68 -5 70 49 178 48 95 62 115 108 149 74 55 122 115 142
175 25 78 54 103 54 48 0 -51 42 -69 75 -32 39 43 12 248 -54 408 -54 131
-125 220 -198 253 -24 10 -68 37 -99 60 -58 43 -58 43 -39 106 11 36 -21 41
-54 9 -36 -35 -91 -35 -157 0 -115 62 -143 73 -222 84 -54 8 -132 10 -220 6
-76 -3 -149 -6 -165 -6 -41 0 -135 39 -169 69 -26 23 -31 36 -40 111 -11 93
-32 140 -73 158 -57 26 -119 2 -133 -52 -12 -40 -1 -105 22 -140 9 -14 16 -34
16 -44 0 -24 -234 -335 -289 -385 -33 -30 -46 -36 -70 -31 -34 7 -71 -10 -71
-32 0 -17 56 -78 78 -85 10 -3 10 -11 2 -34 -5 -17 -41 -165 -80 -330 -67
-288 -71 -301 -102 -330 -18 -16 -44 -37 -58 -46 -24 -16 -24 -17 -7 -36 24
-27 22 -41 -13 -93 -16 -25 -30 -52 -30 -60 0 -9 -18 -51 -41 -95 -78 -152
-84 -185 -82 -402 1 -128 -2 -193 -9 -193 -6 0 -8 10 -4 24 3 14 2 28 -4 31
-5 3 -10 30 -10 60 0 95 -20 258 -45 361 -57 239 -179 467 -377 703 -105 126
-259 281 -557 559 -292 275 -449 437 -582 603 -151 191 -271 393 -344 579 -20
52 -46 103 -57 113 -22 19 -53 22 -63 7z m420 -850 c36 -73 85 -203 85 -228 0
-33 -71 53 -111 134 -31 61 -42 96 -45 145 l-5 64 21 -25 c12 -14 37 -54 55
-90z m50 -345 c14 -28 37 -93 50 -144 14 -51 39 -125 55 -165 l30 -71 -39 40
c-86 86 -154 243 -167 382 l-6 68 26 -30 c14 -16 37 -53 51 -80z m262 -7 c32
-33 93 -142 93 -165 0 -50 -89 42 -163 166 -67 113 -69 123 -11 74 27 -22 63
-56 81 -75z m-51 -151 c100 -141 174 -287 174 -342 0 -28 -16 -16 -92 70 -71
80 -78 93 -107 183 -37 115 -47 162 -35 162 5 0 32 -33 60 -73z m269 -49 c82
-95 101 -172 82 -323 l-12 -99 -24 24 c-57 60 -111 233 -111 358 0 98 10 104
65 40z m-545 -8 c12 -23 56 -82 98 -133 148 -177 157 -195 67 -133 -65 44
-149 125 -168 162 -12 25 -30 144 -21 144 2 0 13 -18 24 -40z m833 -230 c111
-97 139 -138 131 -195 -9 -74 -27 -160 -34 -168 -8 -10 -46 39 -88 113 -76
134 -138 330 -105 330 2 0 45 -36 96 -80z m-644 -110 c103 -52 204 -263 226
-472 8 -71 -2 -89 -23 -43 -6 14 -30 88 -52 165 -47 166 -63 200 -133 283 -81
96 -83 100 -18 67z m-18 -77 c68 -72 118 -184 134 -301 l7 -52 -69 31 c-83 37
-101 52 -125 107 -16 35 -46 221 -48 290 0 15 58 -28 101 -75z m285 -48 c18
-33 45 -97 60 -144 14 -48 35 -103 45 -123 10 -21 19 -42 19 -49 0 -61 -188
285 -216 396 l-7 30 33 -26 c19 -14 49 -52 66 -84z m202 -121 c28 -55 82 -212
96 -279 6 -27 -2 -22 -67 46 -40 42 -88 105 -107 140 -29 56 -35 75 -38 152
l-4 88 45 -45 c25 -24 59 -70 75 -102z m132 106 c29 -40 99 -191 106 -229 4
-18 0 -46 -10 -71 -9 -22 -16 -53 -16 -68 0 -15 -5 -34 -10 -42 -7 -11 -15 -2
-35 41 -37 82 -65 202 -72 307 -6 101 1 113 37 62z m250 -59 c0 -26 -9 -95
-21 -151 -15 -73 -20 -126 -17 -184 3 -45 1 -122 -4 -171 -9 -86 2 -184 27
-247 4 -11 3 -18 -4 -18 -14 0 -65 102 -86 174 -29 98 -23 169 34 411 28 122
51 224 51 228 0 4 5 7 10 7 6 0 10 -22 10 -49z m160 -67 c53 -58 150 -231 150
-267 0 -17 -47 -77 -60 -77 -9 0 -132 273 -161 359 -11 30 -19 64 -18 75 0 20
1 20 17 -4 9 -13 42 -52 72 -86z m-47 -195 c58 -144 60 -163 48 -457 -6 -145
-14 -268 -17 -274 -9 -14 -53 86 -74 167 -40 157 -44 226 -26 440 16 181 22
223 31 213 2 -2 19 -42 38 -89z m-1020 35 c121 -31 160 -61 276 -212 19 -24
31 -45 28 -48 -11 -11 -135 40 -201 83 -78 50 -196 159 -196 180 0 17 19 16
93 -3z m464 -154 c13 -18 53 -132 53 -152 0 -6 -13 1 -30 17 -29 28 -120 191
-120 215 0 12 75 -50 97 -80z m-470 -6 c98 -71 151 -97 266 -135 51 -17 111
-41 133 -54 70 -41 172 -165 137 -165 -30 0 -199 35 -270 56 -177 51 -258 112
-317 238 -24 51 -42 116 -32 116 2 0 40 -25 83 -56z m648 -116 c44 -52 77
-114 99 -187 17 -59 22 -161 7 -161 -33 0 -120 148 -144 246 -25 102 -29 144
-13 144 8 0 31 -19 51 -42z m625 -65 c18 -80 16 -309 -3 -399 -9 -39 -26 -97
-38 -130 -22 -58 -78 -154 -90 -154 -10 0 -18 77 -13 133 2 29 11 138 20 242
16 188 17 191 55 262 22 40 39 79 39 88 0 36 18 11 30 -42z m-1137 -144 c52
-27 147 -102 207 -164 l45 -46 -68 25 c-78 29 -113 52 -175 110 -46 44 -80 96
-62 96 6 0 30 -10 53 -21z m356 -66 c25 -8 64 -28 86 -43 52 -36 121 -108 112
-116 -13 -13 -118 18 -197 57 -80 40 -150 96 -150 119 0 16 80 7 149 -17z
m418 -165 c52 -80 129 -235 121 -244 -13 -12 -77 37 -107 82 -16 25 -37 67
-45 93 -17 54 -27 131 -17 131 4 0 25 -28 48 -62z m-621 -47 c42 -19 82 -64
129 -145 l28 -48 -24 7 c-77 23 -116 61 -193 193 -10 17 12 15 60 -7z m217
-131 c52 -48 77 -86 91 -140 5 -19 -8 -9 -56 41 -63 66 -118 149 -99 149 5 0
34 -22 64 -50z m218 -76 c30 -9 59 -21 65 -27 11 -12 47 -178 40 -184 -8 -8
-122 105 -148 146 -27 44 -36 81 -20 81 5 0 33 -7 63 -16z m-382 -29 c63 -16
144 -55 184 -87 l28 -23 -103 5 c-113 6 -135 14 -173 64 -45 59 -32 67 64 41z
m896 -10 c3 -14 7 -36 10 -50 7 -30 -4 -117 -16 -136 -7 -12 -11 -11 -25 2
-25 25 -31 137 -10 177 20 38 34 41 41 7z m-1050 -194 c16 -40 46 -92 68 -117
35 -39 36 -44 17 -44 -33 0 -94 35 -128 75 -63 71 -109 190 -97 252 l6 33 52
-63 c31 -37 65 -95 82 -136z m809 131 c59 -32 110 -90 130 -148 l15 -44 -75
51 c-79 55 -123 99 -150 150 -15 30 -15 31 8 24 13 -4 45 -19 72 -33z m-343
-116 c74 -26 174 -88 190 -118 6 -11 9 -21 7 -23 -7 -7 -223 34 -288 54 -75
23 -190 94 -190 116 0 16 214 -6 281 -29z m-182 -172 c58 -38 31 -45 -43 -11
-57 26 -100 73 -112 122 -7 29 -4 27 52 -26 32 -30 79 -69 103 -85z m196 16
c98 -19 207 -51 256 -76 49 -25 95 -73 231 -243 87 -109 138 -180 138 -193 0
-4 -35 29 -77 74 -118 124 -236 207 -528 376 -83 48 -132 86 -100 78 11 -2 47
-10 80 -16z m-437 -69 c71 -27 72 -28 42 -35 -56 -11 -80 -7 -105 19 -24 24
-33 45 -17 45 4 0 40 -13 80 -29z m308 -88 c97 -32 187 -107 265 -220 16 -23
29 -44 29 -48 0 -16 -66 36 -109 85 -60 69 -138 108 -298 153 -89 24 -110 33
-92 38 46 13 155 9 205 -8z m364 -121 c110 -71 219 -162 305 -255 66 -70 74
-82 56 -85 -12 -2 -67 16 -123 40 -82 35 -108 51 -140 88 -49 58 -189 260
-180 260 4 0 41 -22 82 -48z m-577 -31 c30 -27 151 -191 145 -196 -10 -9 -94
43 -122 77 -28 32 -87 130 -105 173 -6 13 48 -22 82 -54z m272 -105 c39 -27
94 -62 122 -77 45 -24 50 -29 32 -34 -32 -10 -108 4 -160 31 -51 25 -100 77
-138 145 l-25 43 50 -29 c27 -16 81 -51 119 -79z m54 -224 c53 -26 82 -54 69
-67 -10 -10 -168 77 -168 92 0 18 25 12 99 -25z m321 -24 c39 -17 69 -41 100
-79 24 -30 59 -71 79 -91 35 -38 35 -38 10 -38 -39 0 -129 29 -179 57 -40 23
-133 95 -209 161 l-26 24 85 -4 c64 -3 99 -11 140 -30z m233 -34 c40 -20 93
-52 119 -71 46 -33 118 -109 118 -124 0 -15 -96 13 -161 47 -71 37 -161 123
-172 163 -8 30 13 27 96 -15z"/>
<path d="M2674 8568 c-13 -21 -4 -329 12 -398 43 -187 162 -515 269 -740 391
-818 415 -1262 107 -1970 -143 -330 -333 -655 -765 -1315 -271 -413 -363 -562
-476 -769 -149 -274 -247 -407 -471 -641 -267 -277 -310 -327 -382 -437 -87
-131 -173 -217 -285 -283 -42 -24 -82 -47 -88 -49 -6 -3 -4 -9 5 -16 19 -14
108 -5 157 15 20 9 74 43 121 76 171 122 237 144 497 164 224 17 282 27 389
66 91 33 139 62 208 127 27 25 50 43 51 41 2 -2 11 -42 21 -89 27 -128 131
-481 267 -905 153 -476 165 -516 189 -636 22 -109 27 -277 9 -361 -29 -136
-146 -311 -259 -386 -34 -23 -69 -42 -76 -42 -8 0 -14 -4 -14 -10 0 -21 74 -9
132 20 91 47 206 127 275 193 79 76 134 161 170 262 l28 80 -4 220 c-10 472
-7 624 13 710 56 240 131 383 372 706 203 272 279 402 339 582 42 128 59 220
85 469 45 432 75 525 211 640 30 25 106 83 169 128 63 45 156 124 205 174 61
61 124 112 193 156 257 162 434 285 521 360 122 105 159 130 285 191 68 33
107 58 111 70 4 11 1 42 -5 69 -22 92 25 210 152 382 72 97 96 126 373 443
239 273 256 294 389 465 53 68 113 135 132 149 l35 25 43 -43 c57 -56 110
-148 143 -246 25 -75 27 -92 27 -260 0 -213 -4 -242 -114 -730 -129 -572 -154
-741 -153 -1055 0 -226 11 -322 58 -531 46 -203 69 -403 84 -733 9 -179 12
-200 30 -220 12 -12 21 -25 21 -29 0 -4 -31 -4 -70 -1 -81 8 -80 10 -50 -83
27 -87 33 -171 22 -285 -14 -129 -12 -135 51 -143 70 -9 141 -42 209 -98 80
-65 90 -63 66 16 -7 23 -31 60 -56 86 -78 80 -82 93 -97 281 -9 105 9 69 24
-50 19 -146 27 -167 78 -214 25 -22 53 -57 62 -76 37 -78 146 -254 186 -298
82 -91 218 -139 368 -129 148 9 258 69 359 194 32 39 69 75 81 79 30 9 67 44
67 64 0 56 -64 69 -113 23 -51 -49 -159 -72 -185 -40 -19 23 24 125 74 177 24
25 44 53 44 61 0 23 -21 39 -50 39 -36 0 -59 -19 -84 -70 -19 -40 -28 -47 -95
-73 l-74 -30 -41 22 c-37 19 -95 63 -184 138 -42 36 -59 88 -68 204 -4 52 -11
100 -17 106 -5 7 -21 13 -36 13 -14 0 -31 4 -37 8 -40 27 -34 812 12 1397 41
531 83 833 194 1380 34 165 68 347 75 405 28 207 16 405 -40 640 -51 211 -80
288 -171 445 -47 83 -104 186 -125 230 -42 86 -46 89 -101 99 -49 9 -49 27 0
19 20 -3 39 -7 41 -9 2 -2 12 1 22 7 46 24 5 125 -81 200 -32 28 -61 61 -64
75 -4 13 -18 31 -31 40 -37 24 -391 15 -565 -15 -396 -68 -885 -228 -1286
-421 -151 -73 -304 -161 -304 -176 0 -4 18 -22 39 -41 77 -66 106 -179 57
-228 -32 -32 -114 -55 -222 -62 -76 -5 -103 -2 -161 15 -159 49 -318 204 -508
497 -43 66 -101 147 -130 180 -29 33 -71 90 -94 128 -87 143 -715 1134 -738
1165 -25 33 -46 41 -59 20z m3486 -1377 c20 -6 7 -13 -80 -46 -148 -55 -258
-106 -328 -154 -33 -22 -136 -114 -229 -204 -173 -167 -284 -268 -387 -351
-70 -56 -81 -56 -191 -1 -73 36 -221 141 -229 163 -10 24 5 39 67 68 34 16
152 80 262 142 327 185 586 305 745 347 151 40 303 55 370 36z m308 -626 c50
-42 139 -166 176 -245 62 -132 71 -181 71 -400 -1 -218 -5 -249 -101 -704
-115 -552 -147 -808 -148 -1200 -1 -191 -4 -255 -10 -220 -5 27 -9 195 -10
374 -1 424 14 532 150 1092 98 407 108 495 79 743 -18 148 -39 242 -68 300
-32 65 -115 182 -163 232 -24 26 -44 48 -44 50 0 12 44 -2 68 -22z m79 -4027
c-3 -8 -6 -5 -6 6 -1 11 2 17 5 13 3 -3 4 -12 1 -19z"/>
<path d="M2306 8124 c-231 -50 -465 -190 -738 -441 -188 -172 -295 -314 -406
-538 -80 -159 -120 -263 -242 -620 -122 -356 -163 -464 -236 -608 -74 -149
-144 -248 -238 -343 -94 -93 -167 -143 -323 -220 -62 -31 -115 -60 -119 -65
-12 -20 272 -4 481 26 55 8 154 28 220 44 66 16 182 39 258 51 77 11 169 32
205 46 37 15 96 32 131 40 146 33 624 357 832 564 101 100 108 111 168 235
190 391 325 766 346 960 4 33 18 121 32 195 29 159 32 295 9 447 -9 57 -16
118 -16 137 0 47 -17 81 -47 95 -34 16 -235 12 -317 -5z m-236 -199 c-28 -29
-290 -218 -296 -213 -8 8 55 84 103 123 50 42 178 114 202 115 10 0 7 -8 -9
-25z m489 -23 c5 -10 13 -80 16 -157 8 -144 -1 -208 -38 -296 l-15 -34 -17 39
c-39 91 -59 313 -35 395 18 63 68 93 89 53z m-343 -159 c-7 -54 -36 -108 -57
-108 -30 0 -1 135 33 148 27 11 31 6 24 -40z m154 -66 c18 -97 -17 -232 -74
-286 l-24 -23 -8 47 c-13 92 0 180 41 261 22 45 41 72 46 67 5 -5 14 -35 19
-66z m-419 -62 c-19 -39 -51 -81 -80 -107 -45 -41 -227 -145 -237 -136 -10 11
78 128 137 183 71 66 202 151 208 134 2 -6 -11 -39 -28 -74z m114 -94 c-14
-98 -34 -193 -45 -217 -21 -50 -68 -114 -82 -114 -5 0 -7 4 -4 9 3 5 10 42 16
82 6 40 19 102 30 136 11 35 25 94 31 131 6 37 16 76 21 87 12 23 50 66 54 62
2 -2 -8 -81 -21 -176z m140 -157 c9 -63 -21 -140 -72 -184 -45 -40 -57 -31
-48 39 13 115 50 232 89 280 11 15 12 11 31 -135z m-706 39 c-23 -83 -126
-214 -199 -253 -20 -11 -21 -10 -15 12 13 43 59 118 140 226 69 93 80 105 83
83 2 -13 -2 -44 -9 -68z m971 -51 c16 -79 8 -209 -16 -282 -32 -92 -45 -71
-63 102 -12 112 -3 206 26 261 l15 31 13 -25 c7 -13 19 -52 25 -87z m-620
-167 c-13 -74 -53 -193 -88 -260 -20 -39 -20 -39 -27 -15 -8 35 19 210 46 290
11 35 33 87 47 115 l27 50 3 -55 c2 -30 -2 -86 -8 -125z m-153 108 c-49 -50
-71 -53 -41 -7 19 28 74 67 83 58 3 -2 -16 -26 -42 -51z m623 -107 c0 -48 -8
-100 -25 -156 -14 -46 -25 -104 -25 -129 0 -25 -4 -53 -10 -61 -11 -18 -26 16
-47 115 -18 85 -12 157 17 216 26 51 69 101 82 93 4 -3 8 -38 8 -78z m-630
-40 c-9 -50 -21 -81 -42 -107 -16 -19 -53 -83 -82 -142 -30 -58 -56 -103 -60
-100 -12 12 -6 82 13 143 20 63 172 306 180 287 2 -6 -2 -42 -9 -81z m345 54
c4 -6 1 -34 -6 -63 -10 -44 -23 -63 -84 -123 -73 -73 -122 -111 -130 -102 -18
18 78 170 164 261 37 39 46 43 56 27z m-555 -85 c0 -2 -13 -25 -30 -51 -16
-26 -32 -66 -36 -90 -7 -52 -51 -116 -97 -144 -40 -25 -47 -25 -47 -2 0 24 75
178 107 220 31 41 103 88 103 67z m-130 -13 c0 -29 -193 -263 -206 -250 -12
13 39 138 73 177 42 49 133 99 133 73z m818 -88 c2 -39 14 -100 28 -141 23
-66 24 -75 10 -101 -47 -91 -95 -54 -117 90 -14 86 1 178 33 210 31 31 42 17
46 -58z m199 -224 c-8 -202 -48 -242 -55 -55 -4 105 10 221 31 259 10 19 12
15 20 -34 5 -30 6 -107 4 -170z m-679 78 c-2 -63 -10 -97 -29 -139 -29 -62
-160 -271 -167 -265 -8 9 21 165 44 236 36 106 119 250 146 250 6 0 9 -33 6
-82z m286 -66 c-25 -39 -155 -190 -202 -235 -45 -44 -57 -38 -47 24 8 47 79
135 191 238 l69 63 3 -32 c2 -18 -4 -43 -14 -58z m-524 19 c0 -5 -21 -40 -46
-78 -64 -93 -104 -181 -104 -225 0 -20 -4 -40 -10 -43 -13 -8 -13 76 0 133 16
69 51 134 97 180 41 40 63 52 63 33z m-311 -83 c-62 -158 -74 -187 -96 -230
-13 -27 -25 -48 -27 -48 -9 0 44 182 65 223 21 42 66 107 74 107 3 0 -5 -24
-16 -52z m932 10 c41 -80 41 -92 12 -260 -15 -87 -31 -158 -35 -158 -5 0 -8 7
-8 15 0 8 -18 57 -40 109 -22 51 -40 108 -40 126 0 26 75 210 86 210 2 0 13
-19 25 -42z m185 -84 c15 -79 -34 -319 -65 -319 -12 0 -14 23 -12 130 2 113 5
137 26 183 27 59 41 60 51 6z m-808 -61 c-3 -79 -11 -120 -41 -208 -20 -60
-39 -122 -41 -136 -3 -15 -15 -37 -26 -50 l-19 -24 -1 57 c0 90 29 326 46 366
16 38 61 92 77 92 5 0 8 -41 5 -97z m505 -141 c38 -70 72 -205 71 -287 0 -75
-29 -149 -74 -190 l-21 -19 6 60 c6 51 3 74 -23 155 -44 137 -45 151 -32 260
12 94 13 99 30 84 9 -8 29 -37 43 -63z m-301 -74 c3 -30 20 -86 38 -128 31
-70 34 -84 38 -202 5 -141 -1 -154 -43 -89 -72 115 -107 352 -64 444 18 40 26
33 31 -25z m-435 -96 c4 -34 1 -58 -11 -79 -16 -31 -64 -73 -85 -73 -12 0 3
53 45 160 31 79 41 77 51 -8z m49 -169 c-19 -57 -74 -138 -130 -193 l-46 -44
0 37 c0 50 20 87 92 171 33 38 65 80 71 94 l11 24 8 -23 c6 -14 3 -38 -6 -66z
m208 -86 c-9 -29 -28 -74 -42 -102 -35 -71 -122 -205 -133 -205 -40 0 66 263
153 380 l33 45 3 -33 c2 -18 -4 -56 -14 -85z m136 -2 c35 -88 36 -138 3 -198
l-18 -32 -3 40 c-1 22 -9 86 -17 143 -8 56 -15 117 -14 135 0 37 0 38 49 -88z
m-71 -83 c20 -98 9 -161 -40 -217 -28 -32 -121 -84 -178 -101 -24 -6 -23 -4
11 43 49 68 119 195 154 275 15 37 31 64 35 60 4 -4 12 -31 18 -60z m-499 -46
c0 -43 -27 -101 -69 -148 -39 -44 -141 -128 -155 -128 -3 0 19 34 49 76 30 41
78 114 106 161 37 61 54 81 60 72 5 -8 9 -22 9 -33z m-290 -103 c-51 -123
-111 -224 -168 -286 -44 -46 -109 -94 -117 -85 -3 2 35 54 83 114 103 129 169
226 208 306 43 89 40 61 -6 -49z m384 -25 c-12 -40 -75 -127 -136 -189 -57
-58 -176 -144 -186 -134 -17 16 289 345 321 345 5 0 5 -10 1 -22z m2 -172
c-13 -84 -69 -136 -147 -136 l-32 0 54 58 c30 31 70 79 89 106 38 53 47 46 36
-28z m-350 -115 c-8 -12 -128 -81 -142 -81 -5 0 25 22 66 50 70 46 90 55 76
31z"/>
</g>
</svg>
