<?xml version="1.0" standalone="no"?>
<!DOCTYPE svg PUBLIC "-//W3C//DTD SVG 20010904//EN" "http://www.w3.org/TR/2001/REC-SVG-20010904/DTD/svg10.dtd">
<svg xmlns="http://www.w3.org/2000/svg" xmlns:xlink="http://www.w3.org/1999/xlink" width="434" height="462" viewBox="0 0 434 462">
<title>BDSM collar surrounding Mars sign - symbol for male submissive.</title>
<defs>
<path id="Collar" transform="scale(0.2,0.2)" d="M1976,1296
c0,290,-427,510,-909,510
c-483,0,-909,-220,-909,-510
c0,-290,406,-525,909,-525
c502,0,909,235,909,525Z
M1976,1034
v142
c-95,-243,-464,-427,-909,-427
c-446,0,-815,184,-909,427
v-142
c0,-89,36,-174,104,-246
l161,91
v-12
l-199,-114
c-30,-17,-66,-69,-66,-115
c0,-34,18,-57,45,-57
c11,0,22,3,33,10
l56,33
c-7,4,-16,9,-24,12
l-44,-26
c-7,-4,-14,-6,-19,-6
c-11,0,-27,7,-27,32
c0,38,30,79,58,98
l187,106
v-12
l-127,-74
c19,-18,42,-34,64,-52
l63,36
v-12
l-69,-40
c6,-5,16,-11,22,-16
l47,29
v-12
l-21,-13
c166,-102,404,-168,665,-168
c502,0,909,238,909,528Z
M606,213
c0,224,-190,479,-375,504
c-14,-14,-32,-41,-37,-55
c5,0,10,1,16,1
c86,0,192,-86,267,-215
c48,-82,73,-169,73,-240
c0,-81,-35,-153,-117,-153
c-145,0,-342,249,-342,456
c0,59,18,107,56,133
c0,39,25,72,25,73
c-92,-17,-136,-108,-136,-211
c0,-242,214,-506,404,-506
c133,0,166,125,166,213Z
M1862,1296
c0,-254,-356,-456,-795,-456
c-440,0,-795,202,-795,456
c0,255,372,450,795,450
c423,0,795,-195,795,-450Z
M1840,1296
c0,246,-364,428,-773,428
c-409,0,-773,-182,-773,-428
c0,-36,9,-74,24,-108
c113,182,425,318,749,318
c324,0,637,-136,749,-318
c15,34,24,72,24,108Z"/>
<path id="Mars" d="M893,807
v-168h90v323h-323v-90h170
l-305,-305
c-54,41,-120,63,-187,63
c-174,0,-315,-141,-315,-315
c0,-174,141,-315,315,-315
c174,0,315,141,315,315
c0,68,-23,134,-63,189Z
M563,315
c0,-124,-101,-225,-225,-225
c-124,0,-225,101,-225,225
c0,124,101,225,225,225
c124,0,225,-101,225,-225Z"/>
<path id="Mars2" d="M893,807
v-168h90v323h-323v-90h170
l-305,-305
l65,-63Z"/>
</defs>
<g transform="translate(7,427) scale(1,-1)">
<g transform="translate(75,-12) scale(0.38,0.38) translate(338,315) rotate(15) translate(-338,-315)">
<use xlink:href="#Mars" stroke="#ffffff" stroke-width="11.105" fill="none"/>
<use xlink:href="#Mars" fill="#f00000"/>
</g>
<use xlink:href="#Collar" stroke="#ffffff" stroke-width="23" stroke-miterlimit="10" fill="none"/>
<use xlink:href="#Collar"/>
<g transform="translate(75,-12) scale(0.38,0.38) translate(338,315) rotate(15) translate(-338,-315)">
<use xlink:href="#Mars2" stroke="#ffffff" stroke-width="12.105" fill="none"/>
<use xlink:href="#Mars2" fill="#f00000"/>
<path fill="#f00000" d="M545,587l-40,-40l65,-63l40,40Z
M596.033,495.677
C574.957,525.776,548.776,551.957,518.677,573.033
L510.073,560.746
C538.739,540.673,563.673,515.739,583.746,487.073Z"/>
</g>
</g></svg>
