<svg version="1.1" xmlns="http://www.w3.org/2000/svg" xmlns:xlink="http://www.w3.org/1999/xlink" viewBox="0 0 64 32">
	<title>mastercard</title>
	<path d="M42.667-0c-4.099 0-7.836 1.543-10.667 4.077-2.831-2.534-6.568-4.077-10.667-4.077-8.836 0-16 7.163-16 16s7.164 16 16 16c4.099 0 7.835-1.543 10.667-4.077 2.831 2.534 6.568 4.077 10.667 4.077 8.837 0 16-7.163 16-16s-7.163-16-16-16zM11.934 19.828l0.924-5.809-2.112 5.809h-1.188v-5.809l-1.056 5.809h-1.584l1.32-7.657h2.376v4.753l1.716-4.753h2.508l-1.32 7.657h-1.585zM19.327 18.244c-0.088 0.528-0.178 0.924-0.264 1.188v0.396h-1.32v-0.66c-0.353 0.528-0.924 0.792-1.716 0.792-0.442 0-0.792-0.132-1.056-0.396-0.264-0.351-0.396-0.792-0.396-1.32 0-0.792 0.218-1.364 0.66-1.716 0.614-0.44 1.364-0.66 2.244-0.66h0.66v-0.396c0-0.351-0.353-0.528-1.056-0.528-0.442 0-1.012 0.088-1.716 0.264 0.086-0.351 0.175-0.792 0.264-1.32 0.703-0.264 1.32-0.396 1.848-0.396 1.496 0 2.244 0.616 2.244 1.848 0 0.353-0.046 0.749-0.132 1.188-0.089 0.616-0.179 1.188-0.264 1.716zM24.079 15.076c-0.264-0.086-0.66-0.132-1.188-0.132s-0.792 0.177-0.792 0.528c0 0.177 0.044 0.31 0.132 0.396l0.528 0.264c0.792 0.442 1.188 1.012 1.188 1.716 0 1.409-0.838 2.112-2.508 2.112-0.792 0-1.366-0.044-1.716-0.132 0.086-0.351 0.175-0.836 0.264-1.452 0.703 0.177 1.188 0.264 1.452 0.264 0.614 0 0.924-0.175 0.924-0.528 0-0.175-0.046-0.308-0.132-0.396-0.178-0.175-0.396-0.308-0.66-0.396-0.792-0.351-1.188-0.924-1.188-1.716 0-1.407 0.792-2.112 2.376-2.112 0.792 0 1.32 0.045 1.584 0.132l-0.265 1.451zM27.512 15.208h-0.924c0 0.442-0.046 0.838-0.132 1.188 0 0.088-0.022 0.264-0.066 0.528-0.046 0.264-0.112 0.442-0.198 0.528v0.528c0 0.353 0.175 0.528 0.528 0.528 0.175 0 0.35-0.044 0.528-0.132l-0.264 1.452c-0.264 0.088-0.66 0.132-1.188 0.132-0.881 0-1.32-0.44-1.32-1.32 0-0.528 0.086-1.099 0.264-1.716l0.66-4.225h1.584l-0.132 0.924h0.792l-0.132 1.585zM32.66 17.32h-3.3c0 0.442 0.086 0.749 0.264 0.924 0.264 0.264 0.66 0.396 1.188 0.396s1.1-0.175 1.716-0.528l-0.264 1.584c-0.442 0.177-1.012 0.264-1.716 0.264-1.848 0-2.772-0.924-2.772-2.773 0-1.142 0.264-2.024 0.792-2.64 0.528-0.703 1.188-1.056 1.98-1.056 0.703 0 1.274 0.22 1.716 0.66 0.35 0.353 0.528 0.881 0.528 1.584 0.001 0.617-0.046 1.145-0.132 1.585zM35.3 16.132c-0.264 0.97-0.484 2.201-0.66 3.697h-1.716l0.132-0.396c0.35-2.463 0.614-4.4 0.792-5.809h1.584l-0.132 0.924c0.264-0.44 0.528-0.703 0.792-0.792 0.264-0.264 0.528-0.308 0.792-0.132-0.088 0.088-0.31 0.706-0.66 1.848-0.353-0.086-0.661 0.132-0.925 0.66zM41.241 19.697c-0.353 0.177-0.838 0.264-1.452 0.264-0.881 0-1.584-0.308-2.112-0.924-0.528-0.528-0.792-1.32-0.792-2.376 0-1.32 0.35-2.42 1.056-3.3 0.614-0.879 1.496-1.32 2.64-1.32 0.44 0 1.056 0.132 1.848 0.396l-0.264 1.584c-0.528-0.264-1.012-0.396-1.452-0.396-0.707 0-1.235 0.264-1.584 0.792-0.353 0.442-0.528 1.144-0.528 2.112 0 0.616 0.132 1.056 0.396 1.32 0.264 0.353 0.614 0.528 1.056 0.528 0.44 0 0.924-0.132 1.452-0.396l-0.264 1.717zM47.115 15.868c-0.046 0.264-0.066 0.484-0.066 0.66-0.088 0.442-0.178 1.035-0.264 1.782-0.088 0.749-0.178 1.254-0.264 1.518h-1.32v-0.66c-0.353 0.528-0.924 0.792-1.716 0.792-0.442 0-0.792-0.132-1.056-0.396-0.264-0.351-0.396-0.792-0.396-1.32 0-0.792 0.218-1.364 0.66-1.716 0.614-0.44 1.32-0.66 2.112-0.66h0.66c0.086-0.086 0.132-0.218 0.132-0.396 0-0.351-0.353-0.528-1.056-0.528-0.442 0-1.012 0.088-1.716 0.264 0-0.351 0.086-0.792 0.264-1.32 0.703-0.264 1.32-0.396 1.848-0.396 1.496 0 2.245 0.616 2.245 1.848 0.001 0.089-0.021 0.264-0.065 0.529zM49.69 16.132c-0.178 0.528-0.396 1.762-0.66 3.697h-1.716l0.132-0.396c0.35-1.935 0.614-3.872 0.792-5.809h1.584c0 0.353-0.046 0.66-0.132 0.924 0.264-0.44 0.528-0.703 0.792-0.792 0.35-0.175 0.614-0.218 0.792-0.132-0.353 0.442-0.574 1.056-0.66 1.848-0.353-0.086-0.66 0.132-0.925 0.66zM54.178 19.828l0.132-0.528c-0.353 0.442-0.838 0.66-1.452 0.66-0.707 0-1.188-0.218-1.452-0.66-0.442-0.614-0.66-1.232-0.66-1.848 0-1.142 0.308-2.067 0.924-2.773 0.44-0.703 1.056-1.056 1.848-1.056 0.528 0 1.056 0.264 1.584 0.792l0.264-2.244h1.716l-1.32 7.657h-1.585zM16.159 17.98c0 0.442 0.175 0.66 0.528 0.66 0.35 0 0.614-0.132 0.792-0.396 0.264-0.264 0.396-0.66 0.396-1.188h-0.397c-0.881 0-1.32 0.31-1.32 0.924zM31.076 15.076c-0.088 0-0.178-0.043-0.264-0.132h-0.264c-0.528 0-0.881 0.353-1.056 1.056h1.848v-0.396l-0.132-0.264c-0.001-0.086-0.047-0.175-0.133-0.264zM43.617 17.98c0 0.442 0.175 0.66 0.528 0.66 0.35 0 0.614-0.132 0.792-0.396 0.264-0.264 0.396-0.66 0.396-1.188h-0.396c-0.881 0-1.32 0.31-1.32 0.924zM53.782 15.076c-0.353 0-0.66 0.22-0.924 0.66-0.178 0.264-0.264 0.749-0.264 1.452 0 0.792 0.264 1.188 0.792 1.188 0.35 0 0.66-0.175 0.924-0.528 0.264-0.351 0.396-0.879 0.396-1.584-0.001-0.792-0.311-1.188-0.925-1.188z"/>
</svg>
