<?xml version="1.0" encoding="UTF-8" standalone="no"?>
<!DOCTYPE svg PUBLIC "-//W3C//DTD SVG 1.1//EN" "http://www.w3.org/Graphics/SVG/1.1/DTD/svg11.dtd">
<svg xmlns="http://www.w3.org/2000/svg" version="1.1" xmlns:xlink="http://www.w3.org/1999/xlink" width="800" height="1193" viewBox="0 0 173 258">
<!-- https://pixabay.com/en/woman-pinup-vintage-people-sexy-146077/ -->
<defs>
<g id="woman">
<path d="m79.03125,22.53125c-5.94064.04912-23.3452,7.35401-24.84375,10.6875-.1773.3944-1.4148,2.31372-2.75,4.28125-2.77626,4.09105-3.10402,5.29805-.9375,3.5 .94589-.78502 1.5-.85809 1.5-.1875 0,.58489-.45,1.34758-1,1.6875-1.68071,1.03873-1.10197,6.82614 1,10 3.77498,5.70003 1.58705,14.01614-2.5,9.5-4.07267-4.50025-8.84027-.34152-6.34375,5.53125l1.25,2.96875 .375-3.25c.41393-3.74076 1.23157-4.0817 3-1.25 1.88077,3.0116 6.79555,2.69055 8.5-.5625 1.21259-2.31432 1.48725-2.41496 2.6875-.96875 1.51478,1.8252 1.62683,7.31067.1875,8.75-.6075.6075-1.71679.54942-3.09375-.1875-2.49393-1.33471-7.36683-.52709-10.9375,1.8125-6.19428,4.05865-6.89757,15.80271-1.6875,28.15625 1.89169,4.48537 3.198,8.77096 2.90625,9.53125-.29872.77845 2.7409,5.4551 6.9375,10.6875 4.09874,5.11039 8.21165,10.78115 9.15625,12.625 2.44803,4.77859 4.50704,12.10293 3.875,13.75-.29609.77159.01917,1.40625.6875,1.40625s-1.13227,2.10917-4,4.6875c-6.98981,6.28444-14.71673,17.48453-16.65625,24.15625-1.65959,5.70878-1.21726,14.39162.84375,16.875 .83389,1.00478-.00969,1.28125-4,1.28125-5.12817,0-7.58256,1.49756-5.0625,3.09375 .75796.48009 2.6125.89782 4.125.90625 2.89896.01614 3.2918.61931 1.84375,2.90625-.66529,1.05072-1.85444,1.17477-4.75.5625-9.01514-1.90627-14.76457-.5317-20.65625,4.9375-3.53064,3.27746-3.12636,4.65604 1.875,6.15625 2.16562.6496 6.6375,1.9673 9.9375,2.9375s11.4,2.33494 18,3.03125 14.7,2.17413 18,3.28125c35.84056,12.02421 45.82716,14.58089 62.5,16.09375 15.24555,1.38336 18.74414.4404 21.65625-5.875 1.01094-2.19239 2.32664-3.98581 2.90625-4s2.52361-1.55959 4.34375-3.4375c4.7434-4.89394 5.36836-11.14343 1.65625-16.5-6.45121-9.3091-22.05828-20.23396-38.6875-27.09375l-9.34375-3.84375-1.34375-5.28125c-.7331-2.89359-2.18244-6.4695-3.25-7.96875-1.8326-2.57364-1.89004-3.44253-.8125-15.5625 .98322-11.05908 1.53201-13.56037 4-17.9375 2.37116-4.20538 2.875-6.23631 2.875-11.84375 0-5.76749.37171-7.22067 2.5-9.75 3.06229-3.63932 3.34622-9.90323.65625-14.3125-1.41622-2.32139-6.5768-6.59543-10.96875-9.09375-.16562-.09421 3.12757-6.8552 7.3125-15.03125 8.58893-16.78009 11.37405-26.46886 9.53125-33.3125-.96762-3.59344-1.5514-4.03606-9.28125-7.3125-7.65008-3.24263-27.05485-9.8566-32.6875-11.125-.286-.0644-.63521-.09702-1.03125-.09375zm20.75,22.40625c.39135-.03948 1.28526.36016 2.6875,1.1875l3.375,1.96875-1.4375,4.21875c-.79699,2.30867-2.73783,6.63046-4.28125,9.625-3.03853,5.89533-4.03996,6.74129-5.90625,4.875-2.32338-2.32338-.74048-13.8125 1.90625-13.8125 1.27099,0 4.07495-6.03297 3.5-7.53125-.12881-.33568-.07856-.50756.15625-.53125z"/>
<path d="m145.90881,239.54716c3.29527-1.70406 5.41151-6.21245 5.47447-11.66276 .05438-4.70658 1.36623-5.16807 1.80336-.6344l.31336,3.25 2.66773-2.62227c1.46725-1.44226 3.13443-4.31252 3.70484-6.37837 1.82944-6.6257-2.7895-12.58231-18.37257-23.69335-5.35828-3.82055-19.44168-11.19766-20.10699-10.53235-.22112.22111.10203,1.84797.7181,3.61523s.9152,3.41813.66473,3.6686-.97957-1.29411-1.62022-3.43242-1.84717-4.45411-2.68114-5.14625c-1.77919-1.4766-6.47448-2.17896-6.47448-.9685 0,1.35558 6.51671,9.49494 7.55088,9.43102 .52201-.03226 2.07412,1.01701 3.44912,2.33171s5.65,4.54663 9.5,7.18207c7.35626,5.03558 18.5,15.18469 18.5,16.84878 0,.53717-2.70537-1.62976-6.01193-4.8154-6.57165-6.3313-18.03541-14.42259-21.98807-15.51951-2.04308-.56698-2.27154-.45392-1.25.61862 4.16714,4.37515-1.80822,3.05728-6.56504-1.44792l-3.31503-3.13969 1.06503,2.8151c1.33071,3.51733 1.37302,6.6849.0893,6.6849-.53666,0-2.765-2.8125-4.95187-6.25l-3.97612-6.25 .59177,5.75c.49823,4.84115.33999,5.75-1.00113,5.75-1.44062,0-3.66519-5.24993-3.68133-8.68785-.00307-.65332-.8744-1.12241-1.9363-1.04242s-1.71819.48932-1.45844.90961c.69272,1.12084-2.67587,5.8985-3.70877,5.26014-.48354-.29885-.58284.22884-.22068,1.17263 .3913,1.0197.25719,1.46797-.33051,1.10475-.60039-.37106-.83579.64504-.59908,2.58595 .22415,1.838.04095,2.70639-.43094,2.04268-.47943-.6743-.82085.63779-.82085,3.15451 0,2.36996.3375,4.10043.75,3.84549s.75.23803.75,1.09549 .41744,1.55902.92764,1.55902c3.67123,0 17.73493,2.46308 23.16997,4.05793 6.91907,2.03032 12.92821,5.4691 13.70979,7.84554 .2718.82644-.92994.37659-2.92291-1.09414-5.17444-3.81852-13.49655-6.64168-22.88449-7.76323-4.675-.55851-9.625-.98125-11-.93943-2.30655.07017-25.9206-5.89486-30.5-7.70444-1.1-.43468-2.64398-1.42734-3.43107-2.20592-1.03885-1.02761-2.68331-1.23445-6-.75465-2.51291.36351-7.94393.99066-12.06893,1.39366-7.5119.7339-10.64249,1.82405-12.83925,4.47099-1.75721,2.11731 7.09924,4.57534 20.41734,5.66665 11.26433.92302 27.19535,5.09041 41.92191,10.96633 9.59491,3.82838 19.80558,6.09888 34,7.56043 16.52518,1.70153 18.20295,1.70525 21.40881.04744z" fill="#c8b7b7"/>
<path d="m116.57143,189.92857c-1.49669-2.26165-2.52839-4.30494-2.29268-4.54065s1.65313,1.42186 3.14982,3.68351 2.52839,4.30494 2.29268,4.54065-1.65313-1.42186-3.14982-3.68351z"/>
<path d="m78.15625,24c-3.18658.00061-13.04731,3.61715-15.25,5.59375-.86963.78037-1.9502,1.06995-2.40625.65625s-.50579-.19473-.125.46875 1.46136.91646 2.40625.5625c1.50991-.56561 1.53635-.44163.3125,1.0625-.76587.94127-1.15387,1.93988-.875,2.21875s1.27286-.68139 2.21875-2.125 3.77014-3.54547 6.28125-4.65625c8.93568-3.95268 18.36591-.3151 25.09375,9.6875 4.97391,7.39495 9.15871,9.86688 15.84375,9.3125 5.8433-.48457 5.26073.71865-.84375,1.75-3.19453.53972-3.8684,1.15942-4.875,4.3125-.64453,2.01893-2.52393,6.23776-4.1875,9.40625-2.90636,5.53555-2.97617,5.84588-1.28125,7.71875 2.61249,2.88676 1.2367,8.63106-3.03125,12.65625-2.44427,2.30524-3.0033,3.33375-2,3.71875 .76416.29324 2.0412-.43211 2.8125-1.59375l1.40625-2.09375 1.90625,2.625c1.06053,1.45363 2.02401,2.67022 2.125,2.6875s3.2988-5.93125 7.125-13.21875c3.86695-7.36511 7.66777-16.16391 8.5625-19.8125 1.70174-6.9394 2.09901-13.7022.875-15.5625-1.77686-2.70054-36.48393-15.37607-42.09375-15.375zm-18.375,9c-.5447,0-.70884.72377-.375,1.59375s.59375,2.02502.59375,2.5625 .40788.71426.90625.40625 .66251-1.46305.375-2.5625-.9553-2-1.5-2zm-4.375,1c-.34363.05268-.88857.70535-1.625,2-1.75496,3.08522-.95099,4.13922 1.1875,1.5625 .66276-.79858 1.05792-2.15147.875-3-.08627-.40017-.23132-.59411-.4375-.5625zm1.78125.21875c-.11971.04357-.1875.17127-.1875.40625 0,.56834.28958,1.35208.65625,1.71875s.90333.40917 1.1875.125-.00542-1.03667-.65625-1.6875c-.44848-.44848-.80048-.63511-1-.5625zm13.5,10.4375c-.5923.10319-1.18747.66848-2.21875,1.78125-1.2077,1.30313-3.22222,4.48751-4.46875,7.0625-2.04511,4.22464-2.15447,5.08829-1.03125,8.84375 1.78157,5.95662 4.73502,9.61439 9.4375,11.75 6.17983,2.80654 7.83305,2.41934 12.84375-2.9375 3.81719-4.08089 6.85169-10.39831 5.59375-11.65625-.19394-.19394-1.69785-.50827-3.34375-.6875-2.5441-.27704-3.05922.06213-3.34375,2.1875-.18407,1.375-.7785,2.95-1.34375,3.5-.69789.67906-.85236.35813-.46875-1 .3107-1.1.86207-3.22244 1.21875-4.71875 .59005-2.47535.98369-2.68545 4.53125-2.34375 4.39729.42355 5.40624-1.07493 1.15625-1.71875-2.11196-.31994-1.85169-.44743 1.15625-.5625 2.15417-.08241 3.60885-.4849 3.21875-.875s-2.43054-.58918-4.53125-.4375c-2.45493.17725-4.39043-.26543-5.40625-1.28125-1.4406-1.4406-1.65896-1.44035-2.5.0625-.83318,1.4888-1.13479,1.42771-3.0625-.5-1.17414-1.17415-2.9125-2.11658-3.875-2.125-1.35836-.01189-1.45556-.21007-.40625-.875 1.06168-.67277.87768-1.21923-.90625-2.46875-1.06682-.74723-1.6577-1.10319-2.25-1zm-8.15625,20.40625-1.15625,5.71875c-1.6412,7.97725-.47007,9.67221 6.875,9.875l5.5.15625-1.03125-2.71875c-.56345-1.49275-2.46837-3.67586-4.25-4.84375s-3.8565-3.4907-4.59375-5.15625l-1.34375-3.03125zm-9.59375,8.9375c-4.21491,0-8.82426,2.61475-9.96875,5.625-2.04145,5.36942-1.1277,15.1116 2.15625,23 3.03413,7.28829 3.16697,7.44289 5.25,5.9375 4.36004-3.15097 9.61811-5.5625 12.1875-5.5625 2.14341,0 2.52119-.33285 1.90625-1.75-.41765-.9625-.91342-3.325-1.09375-5.25l-.34375-3.5 1.09375,3.5c.97062,3.08598 1.22408,3.26342 1.9375,1.5 .70026-1.73091.81417-1.62932.875.8125 .06631,2.66215.16746,2.73878 1.78125,1.125 2.31346-2.31347 7.60654-4.43304 11-4.40625 5.05456.0399 14.80611,5.60424 11.71875,6.6875s-3.80571,2.14547-2.5,3.71875c.99942,1.20423 1.00179,1.5625.0625,1.5625-.68199,0-.9443.66793-.625,1.5 .31658.825.11459,1.5-.4375,1.5-.66158,0-.64971.66512.03125,1.9375 .7799,1.45727.65343,2.31532-.53125,3.5-1.24764,1.24764-1.28799,1.5625-.1875,1.5625 .76139,0 2.6418-1.32414 4.1875-2.9375 2.35938-2.46266 2.69557-3.46561 2.125-6.25-.37379-1.82414-.69121-4.33059-.71875-5.5625-.02881-1.28893-1.5908-3.58547-3.6875-5.40625-4.12247-3.57996-7.01881-7.50219-3.59375-4.875 4.74854,3.64236 8.53633,8.21289 9.09375,11 .3333,1.6665.83401,3.03125 1.125,3.03125s2.04805-1.76662 3.90625-3.9375 4.93669-4.52915 6.84375-5.21875c3.20207-1.15789 4.7027-2.84375 2.53125-2.84375-.51084,0-2.4961-1.51278-4.4375-3.34375-2.48186-2.34069-3.70391-2.93447-4.0625-2-.72137,1.87985-8.05554,1.72571-10-.21875-1.86504-1.86505-2.05775-5.56725-.375-7.25 .84895-.84894.89216-1.1875.09375-1.1875-.62072,0-1.81499.68999-2.65625,1.53125-2.05719,2.05719-6.46577.89325-7.8125-2.0625-.63498-1.39363-2.17128-2.42827-3.9375-2.6875-3.57034-.52401-3.57708-.12618-.125,3.53125l2.75,2.90625-4.5-.65625c-2.475-.36431-5.82954-.93291-7.46875-1.25-2.68473-.51933-2.86169-.39637-1.625,1.09375 .75509.90982 1.1434,1.88785.84375,2.1875s-1.84003-1.116-3.40625-3.15625c-4.86073-6.33186-6.25685-7.4375-9.40625-7.4375zm32.53125,124c-.2308.03841-.55347.12382-.96875.25-5.60393,1.70272-9.97441,3.64198-10.28125,4.5625-.49294,1.4788 3.13071,8.20985 6.1875,11.5 2.4306,2.61616 4.59375,2.87437 4.59375.5625 0-.55-.39196-.73603-.875-.4375-2.62268,1.62091-1.5699-11.94463 1.1875-15.3125 .74604-.9112.84865-1.24023.15625-1.125z" fill="#e3dbdb"/>
<path d="m90.12829,100.58717c-1.53462.09054-2.59423,1.75281-1.37171,5.21217 .99942,1.20423 1.18271,1.20066.24342,1.20066-.68199,0-.9443.66793-.625,1.5 .31658.825.11459,1.5-.4375,1.5-.66158,0-.64971.66512.03125,1.9375 .7799,1.45727.65343,2.31532-.53125,3.5-1.24764,1.24764-1.28799,1.5625-.1875,1.5625 .76139,0 2.6418-1.32414 4.1875-2.9375 8.29204-7.2887 2.06696-13.67451-1.30921-13.47533zm-26.31579,3.41283c-1.97777,0-2.02232.12708-.46875,1.84375 .91024,1.00581 1.65625,2.40899 1.65625,3.125s1.59946,3.51759 3.5625,6.25 3.32703,5.60422 3.03125,6.375c-.58541,1.52554.95393,1.971 1.84375.53125 .30116-.4873-1.27984-4.7623-3.5-9.5-3.19395-6.81572-4.45796-8.625-6.125-8.625zm35.9375,1.3125c-.27399.01052-1.09163.62555-2.15625,1.625-2.41981,2.27169-2.4878,2.53694-.9375,4.25 1.95132,2.15618 3.02313,2.25812 4.75.53125 1.3459-1.3459.77837-4.4535-.90625-4.9375-.55-.15801-.83906-.73125-.65625-1.28125 .0457-.1375-.00242-.19101-.09375-.1875zm-14.75.8125c-.45313,0-.90625.08004-1.25.21875-.6875.27741-.125.5 1.25.5s1.9375-.22259 1.25-.5c-.34375-.13871-.79688-.21875-1.25-.21875zm-37.3125,6.90625c-.93887-.04958.59956,2.23971 4.8125,7.15625 4.42845,5.16803 4.344,3.69987-.125-2.09375-2.12539-2.75535-4.24381-5.03908-4.6875-5.0625zm29.03125,15.1875c-.17488.00319-.30383.05383-.40625.15625-.40967.40965-.09032,1.14458.71875,1.65625 2.43457,1.53967 3.52613,1.08864 1.71875-.71875-.69732-.69732-1.50662-1.10332-2.03125-1.09375zm3.625,5.34375c-.39608-.02966-.83337.0436-1.34375.15625-3.68961.81437-4.85916,2.28125-1.8125,2.28125 1.42407,0 3.63907.88705 4.9375,1.96875 3.50729,2.92185 4.06665,2.4341 1.59375-1.40625-1.34982-2.09625-2.18674-2.91101-3.375-3zm-14.8125,4.125c-.0337.09566.37589.82541 1.15625,2.125 1.09455,1.82284 3.75682,5.42746 5.90625,8s3.77613,5.04199 3.625,5.5 .08305.62075.53125.34375 5.07832,3.49033 10.28125,8.375 9.8643,8.8798 10.34375,8.90625-2.4043-2.975-6.40625-6.6875-8.11-7.34382-9.125-8.0625c-1.015-.71869-1.84375-1.78508-1.84375-2.375s-1.94176-2.92111-4.3125-5.1875-5.82051-5.925-7.65625-8.125c-1.68273-2.01663-2.45668-2.9355-2.5-2.8125zm20.8125,3.71875c-.05629.00023-.0889.0264-.125.0625-.48092.48093 2.6196,4.53125 3.46875,4.53125 .20244,0-.40032-1.13908-1.3125-2.53125-.79816-1.21815-1.63723-2.06414-2.03125-2.0625zm8.84375,12.625c-.10036.09071.15242.73539.8125,1.96875 .81095,1.51528.75496,2.01447-.21875,2.0625-.70685.03486-.15625.54712 1.21875,1.125 1.50636.63308 1.9817,1.21399 1.21875,1.5-.78683.29496-.02962,1.36735 2,2.8125 1.79642,1.27909 3.42112,2.35915 3.59375,2.40625s-1.59143-2.60625-3.90625-5.90625c-2.63256-3.75297-4.2737-5.84478-4.65625-5.96875-.02869-.0093-.04816-.01296-.0625,0zm-20.09375,1.09375c-.11992.06352.15901.46445.78125,1.21875 1.27783,1.54903 3.125,2.24669 3.125,1.1875 0-.25566-1.0125-.99685-2.25-1.65625-1.02011-.54356-1.53633-.81352-1.65625-.75zm8.75,12.375 3.09375,5.84375c1.69036,3.21835 3.0625,6.93085 3.0625,8.25 0,4.23744 3.50586,3.01926 5.375-1.875 2.22351-5.82217 2.10751-6.33931-1.625-7.8125-1.7875-.70552-3.7-1.48727-4.25-1.75s-.37985.27306.375,1.1875c2.20932,2.67642-.01893,1.90394-3.15625-1.09375l-2.875-2.75zm22.03125,2.5c-1.0332,0-1.18889,2.37362-.21875,3.34375 1.311,1.31101 2.13904.62195 1.625-1.34375-.28766-1.1-.9204-2-1.40625-2zm-33.34375,1.25c-.08667.01377-.14444.01943-.1875.0625-.27428.27428 1.65605,1.6521 4.3125,3.03125 5.80927,3.01601 5.8826,3.0289 4.40625,1.25-1.34086-1.61565-7.23115-4.55033-8.53125-4.34375zm35.84375,4.125c-.12148-.00409-.26651.03863-.40625.125-.55897.34545-.75394,1.0505-.4375,1.5625 .85723,1.38703 1.46875,1.13153 1.46875-.625 0-.64309-.26056-1.05023-.625-1.0625zm-46.28125,5.75c-.3474.01431-.64635.1151-.8125.28125-.33229.3323.25833.54342 1.3125.5 1.16494-.04798 1.39148-.27453.59375-.59375-.36094-.14444-.74635-.20181-1.09375-.1875zm13.78125,0c-.725-.00366-1.50304.03665-2.125.15625-1.24391.23919-.45.45765 1.75.46875s3.20609-.18721 2.25-.4375c-.47804-.12515-1.15-.18384-1.875-.1875zm-18.75,1.71875c-.0674-.0076-.16747.00939-.28125.03125-.75854.14571-2.41063.88984-3.40625,1.6875-1.83031,1.46636-1.79477,1.4664.5625.34375 1.375-.65484 2.67708-1.33075 2.90625-1.53125 .38597-.33769.42095-.50845.21875-.53125zm24,6.28125c-.54375.00672-1.06773.08179-1.40625.21875-.67703.27393.13125.48913 1.78125.46875s2.19172-.24646 1.21875-.5c-.48648-.12677-1.05-.19422-1.59375-.1875z" fill="#4d4d4d"/>
<path d="m64,30.05902c0-.58246.45-1.05902 1-1.05902s1,.19844 1,.44098-.45.7191-1,1.05902-1,.14148-1-.44098z" fill="#e6e6e6"/>
<path d="m92,76c.72571-1.35599.73703-2 .03518-2-.56935,0-1.93518.9-3.03518,2-1.97612,1.97612-1.97654,2-.03518,2 1.08065,0 2.44648-.9 3.03518-2z" fill="#e6e6e6"/>
<path d="m75.86078,70.02031c-2.01479-1.68954-2.14094-2.12698-.86078-2.98469 3.60537-2.4156 8.6094-.53102 7.53963,2.83953-.84519,2.66294-3.60485,2.72292-6.67884.14516z" fill="#800000"/>
<path d="m71.78125,50.65625c-.08524.0142-.14675.02175-.1875.0625-.33224.33224.1117,1.39672.96875,2.34375 1.41031,1.55837 6.43579,2.24155 6.4375.875 .00109-.87521-5.94011-3.49424-7.21875-3.28125zm9.21875,4.34375c-.55,0-1,.48004-1,1.0625s.45.77742 1,.4375 1-.81996 1-1.0625-.45-.4375-1-.4375zm-1.5625,7c-.85746,0-1.27742.45-.9375,1s1.04496,1 1.5625,1 .9375-.45.9375-1-.70504-1-1.5625-1z"/>
<path d="m78.75,68c-1.81944.01238-1.96296.21613-.75,1 1.93876,1.25292 3,1.25292 3,0 0-.55-1.0125-1.00842-2.25-1z" fill="#fff"/>
<path d="m98,69.88197c0-.55-.45-.72189-1-.38197s-1,1.06803-1,1.61803 .45.72189 1,.38197 1-1.06803 1-1.61803z" fill="#e6e6e6"/>
<path d="m75.875,33c-.56196,0-.41429.66284.3125,1.46875s1.86498,2.1081 2.53125,2.90625c.74036.8869 2.08581,1.23665 3.46875.875 2.15018-.56228 2.10741-.63948-.71875-1.5625-1.63582-.53425-3.34142-1.5994-3.78125-2.34375s-1.25054-1.34375-1.8125-1.34375zm9.5625,2.5c-.07801.01371-.12853.10484-.1875.28125-.42535,1.2725.33957,4.21875 1.09375,4.21875 .21599,0 .13349-1.2375-.15625-2.75-.21731-1.13437-.51596-1.79113-.75-1.75zm4.78125,1.71875c-1.77557.05049-3.21875.24778-3.21875.4375 0,.39189 6.10463,3.12542 7.25,3.25 .4125.04487.75842-.24375.75-.65625-.04046-1.98186-1.84883-3.11463-4.78125-3.03125zm-17.5625,3.375c-.00795.08839.53514.65224 1.5625,1.65625 1.54767,1.5125 3.12368,2.75 3.5,2.75s.24125-.32926-.28125-.75c-3.25335-2.61974-4.768-3.80357-4.78125-3.65625zm-9.65625,1.40625c-.55,0-1,.45-1,1s.45,1 1,1 1-.45 1-1-.45-1-1-1zm-9.875,2.125c-.54375.00672-1.06773.08179-1.40625.21875-.67703.27392.13125.48913 1.78125.46875s2.19172-.24646 1.21875-.5c-.48648-.12677-1.05-.19422-1.59375-.1875zm9.25,1.1875c-.03887.01031-.06098.02973-.09375.0625-.26213.26213-.17503.97591.1875,1.5625 .98605,1.59546 1.55118,1.29336.875-.46875-.28498-.74263-.69664-1.22839-.96875-1.15625zm-1.9375,1.6875c-.24254,0-.4375.45-.4375,1s.48004,1 1.0625,1 .77742-.45.4375-1-.81996-1-1.0625-1zm20.65625.125c-.3474.01431-.64635.1151-.8125.28125-.33229.33229.25833.54342 1.3125.5 1.16494-.04799 1.39148-.27452.59375-.59375-.36094-.14444-.74635-.20181-1.09375-.1875zm-21.65625,2.875c-.24254,0-.4375.45-.4375,1s.48004,1 1.0625,1 .77742-.45.4375-1-.81996-1-1.0625-1zm-6.03125,14.0625c-.25717.11084-.40625.62174-.40625,1.5 0,.85746.47228,1.28296 1.03125.9375s.75393-1.0505.4375-1.5625c-.42862-.69352-.80533-.98584-1.0625-.875z" fill="#00f"/>
</g></defs>
<use x="-4" y="-7" xlink:href="#woman" />
</svg>
