<?xml version="1.0" encoding="utf-8"?>
<!-- Generator: Adobe Illustrator 18.0.0, SVG Export Plug-In . SVG Version: 6.00 Build 0)  -->
<!DOCTYPE svg PUBLIC "-//W3C//DTD SVG 1.1//EN" "http://www.w3.org/Graphics/SVG/1.1/DTD/svg11.dtd">
<svg version="1.1" id="Слой_2" xmlns="http://www.w3.org/2000/svg" xmlns:xlink="http://www.w3.org/1999/xlink" x="0px" y="0px"
	 viewBox="627 0 347 1200" enable-background="new 627 0 347 1200" xml:space="preserve">
<path fill="#000000"    d="M963.3,322.6c-5.4-7.8-53.4-42.6-75.1-54
	c-21.6-11.4-32.4-22.2-55.2-38.4c-22.8-16.2-42-20.4-40.8-22.2s12-15,16.8-25.8s-4.2-19.8-4.2-27.6s8.4-18,5.4-30.6
	c-0.4-1.8-0.6-4-0.5-6.5c0.8-0.4,1.6-0.8,2.2-1.4c3.1-3,3-8.3,5.1-11.8c2.6,2.2,4.1,6,8.3,5.4c3.1-0.4,5.7-3.2,7.5-5.9
	c-1.6,1.4-4.8,1.2-6.8,1c0.1-2.6,5.8-6.4,7.9-8.7c3.1-3.4,7-4.8,7,1.5c-0.6-5.4,6.6-8.4,4.7-13.6c-1.4-3.9-2.6-1.7,0-4.9
	c1.9-2.4,1.8-3.1,2-6.2c-0.3,0.1-0.7,0.3-1,0.4c4.8-3.8,5.7-11.5,1.1-15.8c-2.5-2.3-5.3-2.1-8-3.5c-2.5-1.3-3.5-3.3-6.6-3.7
	c1.6-1.1,7.4-3.9,5.2-6.3c-1.9-2-2.3,0.6-4,0.9c-1.7,0.4-3.2-0.1-4.7-0.6c-0.1-2.8,5.7-1.7,4.6-6.4c-0.9,1-1.9,1.4-2.8,0.7
	c3.2-1,3-4.8,4.1-6.7c-3,4.3-11.3,2.2-13.7-2c-3.8-6.5,6.2-5,9.6-1.9c-3.6-4.4-10.4-4.5-15.8-4.6c0.1,0.5,0.2,1.1,0.1,1.7
	c0-0.4-0.1-1-0.2-1.7c-0.5,0-1,0-1.5-0.1c-0.5-2.3-2.6-4.6-4.2-6.3c2.4,1.2,4.7,3,5.6,5.5c-1.1-4.8-4.4-12.9-8.5-8.3
	c-1.2-3.2-5.3-6.7-8.5-6.4c-2.6,0.2-9.3,3.7-9,6.9c-0.7-3.9-10.9-11.8-13.1-6.5c-0.6-1.7-3.7-3.3-5.4-2.8c-3.7,1-1.9,3.6-1.9,6.3
	c-0.2-1.9-3.5-5.7-5.4-6.6c-2.5-1.1-7.9,0.7-7.2,4.2c-1.3-2.4-3.3-6.2-6.4-6.4c3.2,2.2,2.7,5.4,2.8,8.9c-1.8-4.1-4.9-4.6-8.3-2.1
	c-4.3,3.3-0.2,4.9-1.5,9.4c-2.9-1.4-14.1-5.4-13.2,1.8c-3.4-0.3,0.1-6.9,2.1-8.2c3.6-2.3,5.6,1.5,7.1,4.4c0.8-5.1-4.9-9-9.5-6.9
	c-4.2,1.9-5.9,7.6-4.3,11.1c-1.9-3.4-8.3-3.7-11.4-2.1c1.6,2.1,3.8,4.5,2.8,7.6c-2.8-1.4-5.4-1.6-8.7-1.8c0.7,1.1,1.5,2.3,2,3.6
	h-2.4c-1.9-1.6-4.1-2.8-6.3-2.3c0.4,0.8,0.7,1.5,1,2.3h-2.3c0,0-1.6,7.9-3.6,15.4c-2,0.4-4.2,0.5-5.9,0.4c1.2,1.5,3.2,2.2,4.9,3.3
	c-1.2,4-2.4,7.5-3.4,9c-4-4.4-10.1-6.3-15.4-2.8c-3.9,2.5-4.6,9.2-2.2,13.4c-2.4,1.9-4.4,3.7-5.6,5.2c-4.2,5.4-13.2,37.8-7.8,68.5
	c5.4,30.6,26.4,46.2,26.4,46.2s-6,32.4-7.2,37.8s-9,7.2-15,10.8s-12.6,8.4-19.2,23.4c-6.6,15-3,32.4-3,39.6s-1.8,34.2,0,68.5
	c1.8,34.2,6.6,30.6,15.6,48s67.9,69.1,67.9,69.1s-17.4,44.4-22.2,87.1c-4.8,42.6,12.6,58.9,12.6,58.9s-3.6-2.4,0,23.4
	c3.6,25.8,21.6,80.5,27,104.5c5.4,24,9.6,71.5,8.4,79.9s-14.3,43.3-16.8,64.9c-0.8,7.3-1.8,10.2-0.6,29.4c1.2,19.2,4.2,60,7.8,93.1
	c3.6,33-4.2,58.8-4.2,58.8s-9.6,11.4-13.8,21c-4.2,9.6-3.6,19.8-1.2,36.6c2.4,16.8-4.8,36-4.8,36l9,4.8c0,0,1.8,5.4,12,7.2
	c10.2,1.8,29.4,1.2,33.6-1.2c4.2-2.4,4.2-9,3.6-11.4c-0.6-2.4-3-9.6-4.8-20.4c-1.8-10.8,7.8-31.2,8.4-42s4.8-25.8,2.4-36
	c-2.4-10.2-1.2-55.8,1.2-70.3c2.4-14.4,12-44.4,12-44.4s0,0,1.2,4.8c1.2,4.8,4.8,18.6,4.8,40.2s-4.8,84.7-4.8,84.7s0,0-9.4,16.2
	s-3.2,28.2-3.2,28.2s7.2,14.4,11.4,24.6c4.2,10.2,6,34.8,6,34.8h15l2.4-9.6c0,0,2.4,0,18.6,0c16.2,0,19.8-5.4,22.8-15.6
	s-2.4-7.8-6.6-11.4s-10.2-25.8-16.2-51.6c-6-25.8,8.4-55.2,12.6-88.3c4.2-33.1,24-106.9,22.8-136.9c-1.2-30,2.4-37.8,4.8-48.6
	c2.4-10.8-0.6-18.6,13.2-58.8s25.2-87.1,31.8-120.7c6.6-33.6,10.8-68.5,5.4-87.1c-5.4-18.6-9.6-37.2-16.2-58.2
	c-3.7-11.7-10.7-23-17.6-33.7c3.1,0.5,6.8,0.9,11,1.3c27,2.4,33.6-9.6,39-19.2s13.8-37.8,18.6-66.7
	C968.1,363.4,968.7,330.4,963.3,322.6z M679.3,55.9c3.1-1.4,7.1-0.4,10.5,1.4c-2.3,0.7-7.1,3.4-11.6,6.6
	C675.6,61.3,674.8,57.9,679.3,55.9z M913.4,434.8c-2.4,4.8-0.6,13.2-6.6,11.4c-4.5-1.3-22.6-4-31.6-5.3
	c-7.1-20.3-14.1-50.9-14.1-58.4c0-9,4.2-31.2,3.6-45c-0.6-13.8-12.6-24.6-12.6-24.6s12.6,5.4,20.4,9c7.8,3.6,40.8,24,45,31.8
	C921.8,361.6,915.8,430,913.4,434.8z"/>
</svg>
