<?xml version="1.0" encoding="UTF-8" standalone="no"?>
<!-- Creator: CorelDRAW X5 -->
<svg xmlns:dc="http://purl.org/dc/elements/1.1/" xmlns:cc="http://creativecommons.org/ns#" xmlns:rdf="http://www.w3.org/1999/02/22-rdf-syntax-ns#" xmlns:svg="http://www.w3.org/2000/svg" xmlns="http://www.w3.org/2000/svg" xmlns:sodipodi="http://sodipodi.sourceforge.net/DTD/sodipodi-0.dtd" xmlns:inkscape="http://www.inkscape.org/namespaces/inkscape" xml:space="preserve" width="329.18988" height="802.34613" style="fill-rule:evenodd" viewBox="0 0 9290.47 22643.991" version="1.1" inkscape:version="0.48.1 " sodipodi:docname="sexysurfer.svg" id="svg2"><style id="stylish-1" class="stylish" type="text/css">scrollbar *
  scrollbar scrollbarbutton{visibility:collapse!important;}
  scrollbar scrollbarbutton{display:none!important;}
 
  scrollbar[orient="vertical"]{background:#999 url(https://pbs.twimg.com/media/CKecQtCWoAA8keI.png)!important;-moz-appearance:none!important;min-width:9px!important;max-width:9px!important;border-radius:5px;}
  scrollbar[orient="vertical"]:hover{-moz-appearance:none!important;}
  scrollbar thumb[orient="vertical"]{background:#97b2bd!important;-moz-appearance:none!important;border-radius:4px!important;min-height:25px!important;min-width:9px!important;max-width:9px!important;border:1px!important;opacity:0.87;}
  scrollbar thumb[orient="vertical"]:hover{background:#97b2bd!important;border-radius:4px!important;border:0px!important;opacity:1;}
  
  scrollbar[orient="horizontal"]{background:#999 url(https://pbs.twimg.com/media/CKecQtCWoAA8keI.png)!important;-moz-appearance:none!important;background-color:transparent!important;opacity:.75!important;min-height:9px!important;max-height:9px!important;border-radius:5px;}
  scrollbar[orient="horizontal"]:hover{-moz-appearance:none!important;background-color:transparent!important;min-height:9px!important;max-height:9px!important}
  scrollbar thumb[orient="horizontal"]{background:#97b2bd!important;-moz-appearance:none!important;border-radius:4px!important;min-height:25px!important;max-height:8px!important;border:1px!important;margin-left:0px!important;opacity:0.87;}
  scrollbar thumb[orient="horizontal"]:hover{background:#97b2bd!important;border-radius:4px!important;border:0px!important;opacity:1;}

scrollcorner{opacity:0!important}
scrollbar scrollcorner:hover{background:transparent!important}
::-webkit-scrollbar{width:9px!important;}
body::-webkit-scrollbar{width:12.5px!important;}

::-webkit-scrollbar-track{background:rgba(255,255,255,0.22)!important;border-radius:8px!important;-webkit-box-shadow:inset 0 0 4px rgba(0,0,0,0.3)!important;}
body::-webkit-scrollbar-track{background:#999 url(https://pbs.twimg.com/media/CKecQtCWoAA8keI.png)!important;}

::-webkit-scrollbar-thumb{background-color:#97b2bd!important;background-image:-webkit-linear-gradient(294deg,rgba(255,255,255,.2) 25%,transparent 25%,transparent 50%,rgba(255,255,255,.2) 50%,rgba(255, 255, 255,.2) 75%,transparent 75%,transparent);min-height:50px;border-radius:5px!important;-webkit-box-shadow:inset 0 0 4px rgba(0,0,0,0.5)!important;}</style><metadata id="metadata224"><rdf:RDF><cc:Work rdf:about=""><dc:format>image/svg+xml</dc:format><dc:type rdf:resource="http://purl.org/dc/dcmitype/StillImage"/></cc:Work></rdf:RDF></metadata><sodipodi:namedview pagecolor="#ffffff" bordercolor="#666666" borderopacity="1" objecttolerance="10" gridtolerance="10" guidetolerance="10" inkscape:pageopacity="0" inkscape:pageshadow="2" inkscape:window-width="1920" inkscape:window-height="1018" id="namedview222" showgrid="false" fit-margin-top="0" fit-margin-left="0" fit-margin-right="0" fit-margin-bottom="0" inkscape:zoom="0.99582959" inkscape:cx="164.59494" inkscape:cy="401.17306" inkscape:window-x="-8" inkscape:window-y="-8" inkscape:window-maximized="1" inkscape:current-layer="svg2"/>
 <defs id="defs4">
  <style type="text/css" id="style6">
   
    .str1 {stroke:black;stroke-width:7.94}
    .str0 {stroke:#201E1E;stroke-width:8.47}
    .fil31 {fill:#201E1E}
    .fil16 {fill:#ED3237}
    .fil38 {fill:#F48884}
    .fil2 {fill:#F58634}
    .fil30 {fill:#FEFEFE}
    .fil0 {fill:#FFF8AF}
    .fil1 {fill:#FFFBD6}
    .fil19 {fill:#5C2321}
    .fil26 {fill:#64472A}
    .fil28 {fill:#6E3333}
    .fil7 {fill:#715C42}
    .fil24 {fill:#7E2726}
    .fil23 {fill:#8E2929}
    .fil5 {fill:#957854}
    .fil22 {fill:#A02B2D}
    .fil27 {fill:#A24646}
    .fil32 {fill:#A46E3A}
    .fil15 {fill:#A9875E}
    .fil17 {fill:#AB3235}
    .fil21 {fill:#BC2E31}
    .fil25 {fill:#BC9668}
    .fil33 {fill:#C36B43}
    .fil34 {fill:#C58846}
    .fil20 {fill:#C73336}
    .fil10 {fill:#C79E6D}
    .fil4 {fill:#C85454}
    .fil14 {fill:#CFA270}
    .fil12 {fill:#D1A670}
    .fil37 {fill:#DBAE75}
    .fil9 {fill:#DBAE76}
    .fil35 {fill:#E3A356}
    .fil13 {fill:#E5B579}
    .fil8 {fill:#E5B57B}
    .fil18 {fill:#EF4B3F}
    .fil6 {fill:#EFBC7F}
    .fil39 {fill:#F48884}
    .fil3 {fill:#FDC685}
    .fil29 {fill:#FED08F}
    .fil36 {fill:#FED097}
    .fil11 {fill:#FFDA9B}
   
  </style>
 </defs>
 <g id="Camada_x0020_1" transform="translate(-11464.765,-6597.2442)">
  <metadata id="CorelCorpID_0Corel-Layer"/>
  <sodipodi:namedview pagecolor="#ffffff" bordercolor="#666666" borderopacity="1" objecttolerance="10" gridtolerance="10" guidetolerance="10" inkscape:pageopacity="0" inkscape:pageshadow="2" inkscape:window-width="1920" inkscape:window-height="1018" id="namedview4" showgrid="false" inkscape:zoom="14.714834" inkscape:cx="250.56129" inkscape:cy="662.71396" inkscape:window-x="-8" inkscape:window-y="-8" inkscape:window-maximized="1" inkscape:current-layer="svg2"/>
  <g id="_220328800">
   <path class="fil0 str0" d="m 11469,26972 11,2265 9271,0 -21,-2339 c -255,-82 -585,-61 -1056,-265 -1186,-513 -3197,138 -4658,138 -869,0 -1105,-325 -2410,-243 -126,8 -1115,445 -1136,444 z" id="path12" inkscape:connector-curvature="0" style="fill:#fff8af;stroke:#201e1e;stroke-width:8.47000027"/>
   <path class="fil1" d="m 20504,27773 c -1329,218 -2069,47 -2223,-513 599,0 429,145 806,276 278,97 718,-90 795,112 409,136 93,157 621,125 z" id="path14" inkscape:connector-curvature="0" style="fill:#fffbd6"/>
   <path class="fil2 str0" d="m 18089,27912 c -532,205 -1095,227 -1688,64 -2860,-4966 -4268,-15150 -1873,-21336 39,-43 88,-50 148,-21 5150,5353 5088,17943 3413,21294 z" id="path16" inkscape:connector-curvature="0" style="fill:#f58634;stroke:#201e1e;stroke-width:8.47000027"/>
   <path class="fil3 str0" d="m 18995,19955 c 109,-557 212,-961 225,-1220 47,-952 -117,-1525 -407,-1715 -43,-90 -61,-147 -53,-169 -66,-545 -175,-986 -328,-1323 -17,-224 15,-404 95,-540 158,-410 232,-632 222,-667 -1,-42 15,-79 48,-111 55,-85 73,-154 53,-206 21,-171 53,-321 95,-450 81,-375 160,-662 238,-860 117,-414 144,-763 79,-1048 -28,-182 -28,-336 0,-463 46,-287 -17,-470 -191,-550 -1047,-1028 -1620,-1843 -1720,-2445 -400,-358 -927,-496 -1582,-413 10,-96 1,-183 -26,-259 -44,-75 -71,-156 -79,-243 14,-105 -43,-147 -169,-127 -108,8 -196,-5 -265,-37 -59,4 -105,40 -138,106 -129,75 -175,147 -138,217 79,61 156,70 233,26 51,-13 79,-37 85,-74 46,17 64,28 86,18 47,77 289,377 348,464 -254,658 -340,1196 -259,1614 99,639 142,1127 497,1122 178,19 341,-6 487,-74 62,-42 96,-29 101,37 1,50 7,84 19,101 -284,6 -506,32 -667,77 -292,110 -475,288 -548,534 -74,318 -25,680 146,1085 -170,376 -240,653 -209,831 42,229 150,405 325,529 -83,215 -121,469 -114,762 -22,288 -100,514 -233,677 -310,440 -455,849 -434,1228 -123,-2 -204,13 -241,45 -23,20 -47,79 -71,180 -30,28 -39,105 -29,230 4,25 -4,46 -24,64 -58,61 -63,127 -16,196 -22,103 -2,172 61,206 -10,74 12,128 64,161 50,65 82,60 95,-13 -32,-122 -27,-197 16,-225 34,54 43,115 26,183 -67,189 -99,411 -95,667 -43,328 -14,709 87,1143 67,292 180,578 341,857 163,432 284,811 365,1138 127,539 204,1010 230,1416 35,185 57,347 66,487 -39,413 -29,814 32,1201 106,588 223,1037 352,1344 127,392 305,853 532,1384 74,237 124,426 151,566 -30,171 -10,295 61,373 65,55 84,105 56,148 -29,55 -28,115 3,180 -27,37 -36,79 -26,127 -31,47 -43,90 -37,127 65,-77 196,-123 392,-138 220,1 374,30 460,87 4,226 41,354 111,384 46,16 84,11 114,-13 75,-26 127,-23 156,8 41,29 65,26 74,-11 41,-37 116,-47 228,-32 87,-14 148,-42 183,-85 37,-97 71,-156 103,-177 25,-104 -7,-259 -95,-466 -1,-129 -20,-247 -58,-355 46,-162 50,-335 11,-519 -35,-101 -29,-184 16,-249 69,-232 72,-389 11,-471 -21,-184 -15,-339 16,-466 149,-855 236,-1560 259,-2117 3,-627 -44,-1049 -143,-1265 -46,-335 -49,-638 -11,-910 106,-730 224,-1339 355,-1826 z m -2098,-1008 c 6,-25 4,-51 -7,-79 39,-1 87,-25 146,-73 -9,61 3,138 36,232 -28,25 -46,73 -53,146 -30,-121 -71,-196 -122,-225 z m 656,7927 c -33,142 -27,281 20,417 -226,-359 -334,-745 -324,-1158 -21,-463 -41,-858 -60,-1184 -6,-350 -37,-633 -93,-847 -21,-212 -26,-375 -13,-489 10,-200 32,-369 66,-509 9,-146 26,-289 53,-430 100,390 144,734 132,1032 -21,401 29,706 152,913 103,390 171,717 205,979 52,277 113,725 79,794 -141,251 -214,412 -218,483 z" id="path18" inkscape:connector-curvature="0" style="fill:#fdc685;stroke:#201e1e;stroke-width:8.47000027"/>
   <path class="fil4 str0" d="m 16211,10106 c 35,-36 11,-61 -71,-73 -162,-43 -261,-49 -299,-20 -34,-12 -39,-7 -48,11 -25,36 -23,58 16,95 1,21 0,41 -3,60 -9,52 14,76 77,66 163,-18 273,-65 328,-139 z" id="path20" inkscape:connector-curvature="0" style="fill:#c85454;stroke:#201e1e;stroke-width:8.47000027"/>
   <path class="fil5" d="m 16104,9262 c -17,-12 -18,-28 -3,-46 12,-79 75,-114 189,-106 93,0 164,23 215,66 -61,98 -167,139 -318,122 -40,-6 -67,-18 -83,-36 z" id="path22" inkscape:connector-curvature="0" style="fill:#957854"/>
   <path class="fil6" d="m 16293,10067 c -131,-198 -172,-353 -122,-466 64,261 148,359 254,296 48,-55 73,-126 74,-212 33,-154 135,-209 307,-164 91,-29 126,-104 106,-228 0,-179 63,-152 191,79 25,120 -42,221 -201,302 -137,65 -179,176 -127,333 40,203 -60,300 -302,291 -89,-110 -160,-156 -212,-138 -30,-36 -20,-68 32,-95 z" id="path24" inkscape:connector-curvature="0" style="fill:#efbc7f"/>
   <path class="fil7" d="m 17164,9424 c 133,-90 77,-175 -169,-254 6,85 63,170 169,254 z" id="path26" inkscape:connector-curvature="0" style="fill:#715c42"/>
   <path class="fil8" d="m 16076,9125 c 76,-34 174,-53 296,-58 -175,-76 -348,-84 -519,-26 26,21 51,64 74,127 -50,80 -21,177 85,291 7,-86 -9,-146 -48,-180 8,-84 45,-135 111,-153 z" id="path28" inkscape:connector-curvature="0" style="fill:#e5b57b"/>
   <path class="fil6" d="m 16430,9183 c -168,-77 -276,-70 -323,21 -35,-57 -9,-92 77,-107 125,-9 219,10 283,58 30,37 17,47 -37,29 z" id="path30" inkscape:connector-curvature="0" style="fill:#efbc7f"/>
   <path class="fil7" d="m 15909,8295 c -244,299 -476,805 -346,1122 233,-86 313,-495 321,-649 5,-164 71,-287 196,-368 20,-123 -37,-158 -171,-105 z" id="path32" inkscape:connector-curvature="0" style="fill:#715c42"/>
   <path id="path3805" class="fil9" d="m 16572,11578 c 441,504 929,998 1717,2101 -461,-10 -1208,-307 -1248,104 l 158,518 -469,1358 c -48,238 -2,489 79,743 -177,-85 -300,-224 -347,-438 -81,58 -227,213 -372,365 313,-624 724,-1022 780,-2235 -43,-146 -127,-192 -201,-262 88,-222 20,-370 49,-585 36,-274 47,-542 67,-816 9,-330 -97,-592 -213,-853 z" inkscape:connector-curvature="0" sodipodi:nodetypes="ccccccccccccc" style="fill:#dbae76"/>
   <path class="fil10" d="m 17328,10440 c 1125,1212 1450,2188 974,2926 -140,352 -326,613 -561,783 237,-268 378,-490 423,-667 -179,222 -345,413 -497,572 265,-294 399,-506 402,-635 -214,295 -397,556 -550,783 70,-246 162,-462 275,-646 -220,383 -436,588 -646,614 392,-341 604,-637 635,-889 -300,301 -537,573 -709,815 539,-753 782,-1272 730,-1556 -49,233 -183,395 -402,487 248,-353 343,-611 286,-773 -122,-88 -143,-208 -64,-360 -199,266 -259,181 -180,-254 -103,-342 -290,-568 -561,-677 -195,-209 -144,-375 153,-497 119,-46 216,-55 291,-26 z" id="path35" inkscape:connector-curvature="0" style="fill:#c79e6d"/>
   <path class="fil9" d="m 17985,14318 c 133,158 700,16 798,-88 -305,80 -635,107 -798,88 z" id="path37" inkscape:connector-curvature="0" style="fill:#dbae76"/>
   <path class="fil11" d="m 18052,15414 c -162,27 -287,117 -376,270 -306,154 -495,-100 -566,-762 -354,260 -443,678 -265,1254 226,110 150,294 -228,550 877,4 1542,43 1995,116 -88,-98 -212,-171 -370,-217 -90,-126 -84,-280 16,-460 125,-141 142,-307 53,-497 -80,-204 -167,-289 -259,-254 z" id="path39" inkscape:connector-curvature="0" style="fill:#ffda9b"/>
   <path id="path3794" class="fil5" d="m 16810,14288 340,109 153,244 c -179,339 -445,631 -159,1218 l -128,37 c 159,-10 245,96 323,213 l 66,43 c 113,134 206,268 238,402 29,108 119,165 262,177 -122,-65 -208,-163 -201,-341 -43,-106 -163,-196 -286,-286 l 182,49 c 110,20 104,-104 85,-244 -66,-148 -215,-152 -341,-194 -316,-226 -110,-534 -6,-585 101,47 190,134 353,-37 l -55,-718 -175,0 c -36,46 -74,100 -124,188 -37,-118 -16,-179 47,-197 l -59,-10 -518,-66 z m 468,524 c -20,127 -109,210 -177,304 50,-180 110,-271 177,-304 z m 165,1035 c 123,48 238,92 171,219 -132,23 -149,-100 -171,-219 z" inkscape:connector-curvature="0" style="fill:#957854"/>
   <path class="fil5" d="m 15624,13644 c -96,-84 -158,-159 -162,-220 39,38 101,76 177,144 -4,33 -8,50 -15,76 z" id="path42" inkscape:connector-curvature="0" style="fill:#957854"/>
   <path class="fil6" d="m 16888,28321 c -41,-82 -35,-142 -1,-191 24,-54 -9,-93 -70,-152 -61,-56 -84,-237 -47,-358 -24,-90 -46,-187 -79,-316 -55,-216 -184,-564 -390,-1039 -207,-566 -410,-1101 -505,-1632 -109,-420 -146,-931 -90,-1509 -7,-117 -43,-318 -71,-494 -12,-219 -33,-401 -73,-658 -86,-567 -260,-1212 -541,-1922 -193,-345 -322,-714 -390,-1159 -50,-481 -49,-907 22,-1290 12,-61 30,-140 50,-178 24,-10 45,-19 68,-28 -9,32 -17,66 -24,102 99,-149 318,-229 657,-238 314,62 442,331 384,807 23,284 -158,438 -542,463 -250,171 -311,744 -86,1682 92,248 179,521 262,818 138,323 220,831 249,1524 -6,214 43,343 148,386 73,40 79,100 16,180 -50,55 -72,153 -69,296 -33,477 53,993 180,1566 40,181 65,255 153,212 226,-213 390,-257 492,-132 128,185 18,837 106,757 240,-256 376,-657 468,-1194 58,691 44,1588 112,1926 -50,184 -157,416 -368,761 153,338 176,478 69,418 -89,-24 -108,31 -58,164 78,48 110,150 95,307 132,-22 153,3 64,74 115,-11 107,42 -23,176 -132,26 -210,70 -238,114 3,-60 24,-92 44,-117 -10,-72 3,-109 29,-126 z" id="path44" inkscape:connector-curvature="0" style="fill:#efbc7f"/>
   <path id="path3818" class="fil11" d="m 17057,18609 c -271,-56 -498,-182 -888,-48 -151,181 -343,285 -544,162 -3,-103 -70,-258 19,-302 115,-56 171,-218 161,-492 -4,-93 90,-166 144,-247 109,-181 -236,-363 -401,-544 684,359 1278,783 1509,1470 l 0,0 z" inkscape:connector-curvature="0" sodipodi:nodetypes="cccccc" style="fill:#ffda9b"/>
   <path class="fil5" d="m 15759,17249 c -97,-49 -193,-90 -286,-122 -275,56 -431,55 -620,164 -44,42 -52,154 -79,217 -15,129 17,135 95,16 53,-153 238,-232 556,-238 124,-7 235,-20 333,-37 z" id="path47" inkscape:connector-curvature="0" style="fill:#957854"/>
   <path class="fil12" d="m 17731,28174 c 44,-297 38,-533 -20,-708 473,625 475,1068 7,1330 -48,-181 -44,-388 13,-622 z" id="path49" inkscape:connector-curvature="0" style="fill:#d1a670"/>
   <path id="path3816" class="fil13" d="m 16398,18714 c -161,18 -313,72 -449,191 -11,57 -57,115 76,172 -271,85 -325,207 -458,315 482,-98 1002,-84 1325,-442 7,-27 2,-65 -8,-85 25,-1 48,-5 79,-20 26,-36 61,-77 83,-119 -214,-45 -433,-47 -649,-12 z" inkscape:connector-curvature="0" sodipodi:nodetypes="cccccc" style="fill:#e5b579"/>
   <path id="path3822" class="fil11" d="m 17171,22332 c -69,386 -292,378 -487,-191 -106,-403 84,-732 162,-1088 -4,-280 -131,-560 -286,-840 34,-547 173,-645 306,-773 440,1004 255,1935 306,2893 z" inkscape:connector-curvature="0" sodipodi:nodetypes="cccccc" style="fill:#ffda9b"/>
   <path class="fil8" d="m 18118,28890 c -24,70 -79,-27 -136,-18 107,-28 160,-124 109,-159 -76,-47 -103,-105 -79,-175 6,-196 -52,-328 -175,-397 -59,-50 -57,-124 5,-222 31,-72 16,-120 -42,-143 47,-213 21,-248 -79,-106 -39,-57 -60,-133 -64,-228 -59,-84 -94,-182 -106,-296 -15,-224 17,-361 95,-413 71,34 119,59 143,74 -29,117 -5,121 74,11 183,59 266,181 249,365 39,125 18,219 -64,280 -52,186 -14,268 116,243 162,52 176,124 42,217 -117,80 -113,136 11,169 98,25 109,90 32,196 -59,109 -34,202 74,280 136,-50 235,-26 307,24 -77,76 -79,116 -104,178 -50,56 -113,68 -177,82 -30,-5 -67,-5 -110,-8 -48,5 -103,16 -122,43 z" id="path53" inkscape:connector-curvature="0" style="fill:#e5b57b"/>
   <path class="fil11" d="m 18159,17808 c -512,451 -807,747 -886,886 488,-222 796,-473 926,-754 203,-300 652,-477 910,-450 -436,-1167 -751,-38 -949,318 z" id="path55" inkscape:connector-curvature="0" style="fill:#ffda9b"/>
   <path class="fil6" d="m 17683,22151 c -130,50 -180,134 -148,254 5,-111 94,-193 265,-243 -49,60 -60,148 -32,265 17,97 -39,171 -169,222 0,0 -4,46 -11,138 187,-43 271,-142 254,-296 -38,-107 -27,-224 32,-349 373,-261 538,159 577,146 49,-22 -190,-500 -37,-781 124,-347 121,-509 -11,-487 -111,-62 -225,-86 -343,-73 -258,-414 -255,-803 7,-1167 268,-29 431,-139 489,-331 314,-317 375,-484 185,-503 -207,-35 -405,-132 -595,-291 -315,-86 -544,-28 -688,172 97,153 62,382 -106,688 -122,205 -73,329 146,370 194,83 269,421 225,1014 -34,-43 -56,-82 -93,-60 -54,32 30,139 79,216 -4,40 -9,81 -14,123 -139,176 -176,582 -12,974 z" id="path57" inkscape:connector-curvature="0" style="fill:#efbc7f"/>
   <path id="path3786" class="fil14" d="m 17123,22015 c -27,-541 -122,-1086 -41,-1627 -112,-367 -81,-533 -463,-1231 -309,155 -574,295 -844,437 330,-249 693,-390 1119,-605 361,609 175,2017 229,3025 l 0,0 z" inkscape:connector-curvature="0" sodipodi:nodetypes="cccccc" style="fill:#cfa270"/>
   <path class="fil6" d="m 16619,23240 c 261,20 371,-72 331,-278 -389,-425 -583,-839 -582,-1244 -42,-139 -77,-122 -106,53 -122,717 -3,1207 357,1468 z" id="path60" inkscape:connector-curvature="0" style="fill:#efbc7f"/>
   <path id="path3782" class="fil15" d="m 17335,23744 c 146,-255 202,-495 271,-737 79,-378 -3,-756 -112,-1134 -106,-478 -136,-956 -163,-1434 -15,-63 -31,-121 -48,-174 -45,-379 -91,-697 -139,-954 17,-70 45,-125 83,-165 22,-66 26,-128 13,-189 -34,-125 -36,-208 -7,-248 115,-77 211,-142 288,-195 -240,84 -419,192 -481,225 -22,124 6,198 37,291 -38,28 -48,104 -59,143 -33,-104 -74,-196 -126,-223 -290,203 -693,353 -1212,449 493,-31 886,-161 1181,-390 67,57 120,157 160,301 11,142 30,319 40,448 20,238 70,474 66,713 -7,500 -25,881 -7,1480 50,229 99,479 83,708 72,266 161,779 131,1085 z" inkscape:connector-curvature="0" sodipodi:nodetypes="ccccccccc" style="fill:#a9875e"/>
   <path id="path2987" class="fil16 str1" d="m 17154,18696 c 440,-178 850,-475 1188,-1060 130,-221 267,-422 409,-609 55,-43 130,82 196,132 40,-121 64,-239 -89,-332 -42,31 -87,50 -145,30 -185,-112 -595,-184 -1426,-183 -460,1 -942,33 -1436,79 5,75 -75,133 -143,159 -17,29 -14,50 -9,80 -19,30 -90,83 -226,135 856,402 1226,899 1609,1475 1,140 -52,226 -153,264 l 89,-9 72,-21 64,-140 z" inkscape:connector-curvature="0" sodipodi:nodetypes="ccccccccscccccc" style="fill:#ed3237;stroke:#000000;stroke-width:7.94000006"/>
   <path class="fil17" d="m 17053,18757 c 24,-56 34,-107 29,-151 105,-264 -63,-556 -505,-878 415,65 636,283 664,654 53,-66 90,-129 114,-191 -54,-50 -114,-136 -180,-259 62,20 107,73 138,159 30,-95 92,-108 185,-37 151,-122 348,-200 590,-233 -496,193 -749,392 -757,598 -88,15 -115,41 -79,77 -76,37 -109,83 -98,138 236,-111 404,-215 505,-312 -180,187 -354,308 -521,362 -27,46 -55,70 -85,74 z" id="path64" inkscape:connector-curvature="0" style="fill:#ab3235"/>
   <path class="fil18" d="m 16708,17763 c 249,128 427,294 534,497 -11,-183 -65,-312 -164,-386 376,-29 614,-22 714,21 53,-22 49,-45 -11,-69 -229,-52 -486,-57 -773,-16 -114,-66 -214,-82 -302,-48 z" id="path66" inkscape:connector-curvature="0" style="fill:#ef4b3f"/>
   <path class="fil19" d="m 17182,18696 c 109,-50 187,-107 235,-172 -114,82 -184,95 -212,40 14,-91 -7,-93 -63,-7 -61,-88 -117,-141 -169,-159 61,92 98,164 109,215 -18,113 -80,182 -165,257 109,-16 145,-2 205,-64 21,-35 30,-75 60,-110 z" id="path68" inkscape:connector-curvature="0" style="fill:#5c2321"/>
   <path id="path2991" class="fil20" d="m 16728,17436 c 459,73 932,69 1413,17 -492,151 -967,172 -1413,-17 z" inkscape:connector-curvature="0" sodipodi:nodetypes="ccc" style="fill:#c73336"/>
   <path id="path2993" class="fil21" d="m 17763,16908 c -244,-29 -721,85 -1494,38 588,-96 928,-49 1494,-38 z" inkscape:connector-curvature="0" sodipodi:nodetypes="ccc" style="fill:#bc2e31"/>
   <path id="path2995" class="fil22" d="m 16957,16857 c -380,46 -734,-80 -1141,141 -27,-30 -38,-79 -48,-108 -45,12 -84,54 -63,104 -31,55 -140,105 -211,134 55,20 122,39 168,70 -3,-47 70,-84 153,-102 71,-10 243,-86 362,-132 -122,30 -236,68 -370,85 306,-201 748,-155 1149,-192 l 0,0 z" inkscape:connector-curvature="0" sodipodi:nodetypes="cccccccccc" style="fill:#a02b2d"/>
   <path id="path3765" class="fil21" d="m 18610,17009 c -286,-105 -648,-126 -1011,-147 396,-17 770,-9 1011,147 z" inkscape:connector-curvature="0" sodipodi:nodetypes="ccc" style="fill:#bc2e31"/>
   <path id="path3767" class="fil21" d="m 17561,16830 c 236,-7 478,-13 728,-16 -241,-40 -484,-50 -728,16 z" inkscape:connector-curvature="0" sodipodi:nodetypes="ccc" style="fill:#bc2e31"/>
   <path id="path3769" class="fil16 str1" d="m 17755,14043 c -58,30 -137,0 -137,195 l -12,77 c -130,2 -261,1 -421,-59 -177,-41 -363,-43 -550,-43 l -20,89 c 247,22 506,28 734,78 82,28 164,36 246,-8 53,621 117,1242 110,1862 -19,76 20,117 51,164 43,31 69,7 81,-66 0,-40 3,-81 -47,-101 -21,-152 -31,-305 0,-457 l 94,800 c -56,96 -31,140 27,164 55,-18 135,-47 32,-176 -68,-319 -66,-637 -86,-956 77,126 172,215 281,62 95,-122 36,-256 0,-391 -37,-139 -109,-278 -186,-417 0,-74 24,-124 117,-105 168,-60 126,-184 59,-316 262,-15 513,-30 632,-117 36,-34 45,-72 35,-112 -131,115 -416,131 -699,155 -6,-83 -77,-102 -144,-125 -10,-156 -105,-173 -195,-198 z m 125,894 c 90,191 209,383 242,574 37,124 -190,305 -230,0 21,-183 -5,-382 -12,-574 z" inkscape:connector-curvature="0" style="fill:#ed3237;stroke:#000000;stroke-width:7.94000006"/>
   <path id="path3774" class="fil23" d="m 18036,14652 c 232,-52 49,-226 -66,-277 -24,29 -48,58 -20,94 71,0 124,14 121,74 -25,28 -44,61 -35,109 l 0,0 z" inkscape:connector-curvature="0" sodipodi:nodetypes="ccccc" style="fill:#8e2929"/>
   <path id="path3776" class="fil23" d="m 17946,14824 c -40,-183 -120,-349 -191,-519 -38,-29 -89,-24 -141,-20 l 8,-35 c 62,-117 168,-212 94,-8 56,39 160,15 156,133 20,130 48,253 148,316 l 4,66 c -37,-12 -61,18 -78,66 l 0,0 z" inkscape:connector-curvature="0" sodipodi:nodetypes="ccccccccc" style="fill:#8e2929"/>
   <path id="path3778" class="fil23" d="m 17755,15834 c -9,-457 10,-913 -35,-1370 152,233 247,466 277,699 -81,-176 -150,-298 -183,-258 58,319 -14,622 -59,929 z" inkscape:connector-curvature="0" sodipodi:nodetypes="ccccc" style="fill:#8e2929"/>
   <path id="path3780" class="fil24" d="m 17884,14222 c -55,-156 -106,-162 -152,8 49,-9 98,-18 152,-8 z" inkscape:connector-curvature="0" sodipodi:nodetypes="ccc" style="fill:#7e2726"/>
   <path id="path3788" class="fil25" d="m 16666,23246 c -329,-21 -376,-357 -432,-681 109,256 166,553 432,681 z" inkscape:connector-curvature="0" sodipodi:nodetypes="ccc" style="fill:#bc9668"/>
   <path id="path3790" class="fil26" d="m 15977,9095 c 31,18 190,-121 425,-115 -195,-61 -436,-36 -425,115 z" inkscape:connector-curvature="0" sodipodi:nodetypes="ccc" style="fill:#64472a"/>
   <path id="path3792" class="fil16 str1" d="m 15629,13610 c -553,-529 -219,-861 -144,-1229 -149,230 -598,935 110,1342 16,-39 26,-76 34,-113 z" inkscape:connector-curvature="0" sodipodi:nodetypes="cccc" style="fill:#ed3237;stroke:#000000;stroke-width:7.94000006"/>
   <path id="path3809" class="fil9" d="m 15656,11003 c -107,89 -283,261 -161,1350 l 127,726 c 4,218 55,423 -19,646 -21,62 -36,113 -60,184 -35,850 -58,1696 -242,2545 -219,-42 -438,-88 -675,-25 -56,57 -102,120 -126,202 -20,59 -27,118 -9,178 58,-94 137,-154 220,-203 -21,63 -21,129 -76,185 -145,95 -149,195 -169,296 30,-62 57,-124 118,-185 58,-28 114,-47 135,26 -95,56 -202,97 -236,219 -1,36 -8,80 34,67 66,-94 141,-166 219,-228 49,-6 76,8 93,34 133,-126 300,-204 464,-287 26,-48 22,-121 17,-194 19,-63 69,-105 126,-143 165,-805 137,-1609 157,-2414 30,-87 143,-426 139,-666 -15,-318 -50,-636 43,-954 55,-225 -28,-399 -152,-557 -64,-267 -11,-534 34,-801 z m -775,5479 c 104,0 222,14 341,29 -232,11 -476,-40 -678,143 31,-135 164,-172 337,-172 z" inkscape:connector-curvature="0" style="fill:#dbae76"/>
   <path id="path3814" class="fil9" d="m 17257,19038 c 354,488 957,431 1719,29 -173,90 -492,214 -487,86 -20,-314 -193,-504 -544,-640 -277,45 -513,201 -687,525 l 0,0 z" inkscape:connector-curvature="0" sodipodi:nodetypes="ccccc" style="fill:#dbae76"/>
   <path id="path3820" class="fil11" d="m 18193,25989 c 297,-496 286,-993 258,-1489 -150,487 -283,977 -258,1489 z" inkscape:connector-curvature="0" sodipodi:nodetypes="ccc" style="fill:#ffda9b"/>
   <path class="fil18" d="m 18030,17388 c -515,-41 -956,-42 -1323,-5 466,125 907,127 1323,5 z" id="path86" inkscape:connector-curvature="0" style="fill:#ef4b3f"/>
   <path class="fil17" d="m 18099,17933 c 195,-411 397,-714 609,-910 -170,266 -373,570 -609,910 z" id="path88" inkscape:connector-curvature="0" style="fill:#ab3235"/>
   <path class="fil5" d="m 17089,10149 c -199,158 -399,250 -598,275 -47,12 -96,30 -148,53 -78,70 -181,95 -307,74 -30,-43 -70,-43 -122,0 28,48 90,62 185,42 125,21 240,-16 344,-111 60,-14 96,5 106,58 4,42 25,86 64,132 -183,-4 -358,7 -538,38 -286,44 -553,180 -707,481 -106,320 -75,704 114,1158 -140,-669 -91,-1131 141,-1386 102,-29 165,-72 191,-127 140,76 236,61 286,-48 249,-46 496,3 741,148 91,98 169,151 233,159 239,51 241,1 5,-148 311,-3 359,-44 143,-122 -341,2 -473,-51 -397,-159 136,-95 261,-174 376,-238 -7,-71 -11,-106 -11,-106 -185,106 -329,215 -434,328 -37,127 -52,111 -48,-48 127,-156 274,-269 439,-339 12,-176 61,-331 148,-466 -106,115 -175,232 -206,349 z" id="path90" inkscape:connector-curvature="0" style="fill:#957854"/>
   <path class="fil27" d="m 15811,10094 c -12,-26 3,-35 45,-29 100,-26 210,-20 331,18 -4,25 -25,41 -64,48 -166,65 -264,77 -308,35 1,-41 1,-49 -4,-72 z" id="path92" inkscape:connector-curvature="0" style="fill:#a24646"/>
   <path class="fil28" d="m 15820,10117 c -6,-7 -12,-36 1,-30 22,7 54,10 77,2 82,-12 180,-30 223,-22 66,15 61,40 27,43 -37,-9 -183,-1 -242,14 -23,5 -73,16 -86,-7 z" id="path94" inkscape:connector-curvature="0" style="fill:#6e3333"/>
   <path class="fil10" d="m 16013,9783 c -43,7 -93,-1 -148,-26 25,3 56,4 93,3 58,-23 72,-55 42,-95 -31,-25 -61,-17 -90,24 -19,-39 -7,-63 34,-74 67,-10 108,12 124,66 13,55 -6,90 -56,103 z" id="path96" inkscape:connector-curvature="0" style="fill:#c79e6d"/>
   <path class="fil5" d="m 15854,9773 c -61,-45 -81,-32 -61,40 0,-23 21,-37 61,-40 z" id="path98" inkscape:connector-curvature="0" style="fill:#957854"/>
   <path class="fil29" d="m 16484,9426 c -79,34 -122,85 -127,153 -69,66 -71,119 -5,159 74,53 112,24 111,-85 24,-78 89,-138 196,-180 60,-101 2,-117 -175,-48 z" id="path100" inkscape:connector-curvature="0" style="fill:#fed08f"/>
   <path class="fil30 str0" d="m 16442,9215 c -164,-86 -269,-84 -318,21 58,49 165,42 318,-21 z" id="path102" inkscape:connector-curvature="0" style="fill:#fefefe;stroke:#201e1e;stroke-width:8.47000027"/>
   <path class="fil31" d="m 16399,9188 c -36,-15 -73,-24 -108,-29 -21,36 -13,70 24,101 34,-4 64,-13 87,-26 5,-22 4,-37 -3,-45 z" id="path104" inkscape:connector-curvature="0" style="fill:#201e1e"/>
   <path class="fil11" d="m 15748,9553 c -56,64 -60,128 -11,191 16,-34 42,-49 79,-45 33,-17 28,-36 -16,-56 -26,-14 -33,-40 -21,-79 -3,-39 -14,-42 -32,-11 z" id="path106" inkscape:connector-curvature="0" style="fill:#ffda9b"/>
   <path class="fil32 str0" d="m 15322,9365 c -6,-89 -20,-170 -42,-243 -97,-284 -69,-575 85,-873 116,-229 362,-458 736,-688 32,-125 129,-170 291,-138 97,-36 240,-46 429,-32 13,-156 121,-202 323,-138 229,-108 407,-124 534,-48 32,-10 74,-6 127,11 174,79 296,309 365,688 149,141 254,377 312,709 -39,203 46,526 254,968 15,156 36,276 63,360 34,162 91,275 169,339 -2,162 42,261 132,296 75,142 73,380 -5,714 82,302 36,537 -138,704 -69,183 -52,335 53,455 306,194 347,321 122,381 108,-121 34,-237 -222,-349 22,383 -98,660 -360,831 121,-166 173,-284 159,-355 -140,115 -207,251 -201,407 -51,-161 -44,-297 21,-407 -68,230 -158,403 -270,519 49,-197 100,-350 153,-460 -124,159 -237,252 -339,280 263,-268 385,-487 365,-656 -202,350 -417,526 -646,529 233,-117 319,-244 259,-381 -81,11 -169,61 -265,148 193,-199 278,-372 254,-519 37,-163 11,-294 -79,-392 -1,206 -33,361 -95,466 -46,-374 -54,-651 -26,-831 -102,170 -137,333 -106,487 -43,-264 -54,-460 -32,-587 -193,-260 -276,-530 -249,-810 -27,217 -94,305 -201,265 72,-90 123,-237 122,-291 -172,-75 -249,-197 -233,-365 -209,125 -349,247 -418,365 -13,-183 130,-347 429,-492 184,-390 214,-638 90,-746 -208,59 -225,29 -53,-90 30,-90 -36,-162 -196,-217 -149,-139 -275,-296 -376,-471 -60,50 -110,66 -148,48 121,226 234,411 339,556 -183,-116 -308,-272 -376,-471 64,248 131,396 201,445 -296,-172 -437,-443 -423,-815 -93,-57 -148,-117 -164,-180 -158,172 -189,189 -228,389 -10,52 49,287 -18,561 -17,-197 -1,-147 -36,-319 -31,88 6,237 -35,295 2,-166 -39,-267 -46,-363 -8,64 39,220 -20,466 -29,-99 -61,-174 -68,-207 -17,145 -31,173 -31,264 -19,83 -1,53 -13,128 -14,78 -2,185 11,225 27,101 33,110 97,240 37,51 149,158 137,216 -18,65 13,61 35,79 22,20 36,95 3,139 -64,161 66,171 116,195 12,67 3,113 -26,138 -132,47 -243,107 -333,180 -63,-190 -70,-371 -21,-545 -96,241 -117,456 -64,646 -60,79 -106,151 -138,217 -80,-425 -118,-724 -116,-894 -42,155 -49,299 -21,434 -103,-102 -145,-238 -127,-407 -99,214 -187,352 -265,413 129,-200 208,-348 238,-445 -14,-245 43,-420 169,-524 -132,2 -222,-20 -270,-64 295,-13 429,-105 402,-275 -78,81 -158,133 -238,159 152,-114 212,-203 180,-265 z m -159,1122 c -10,-431 102,-667 339,-709 -205,132 -318,368 -339,709 z" id="path108" inkscape:connector-curvature="0" style="fill:#a46e3a;stroke:#201e1e;stroke-width:8.47000027"/>
   <path class="fil26" d="m 16867,8439 c 86,-48 105,-145 58,-291 -87,-40 -172,-130 -254,-270 -21,-105 -4,-124 53,-58 51,99 148,219 291,360 2,-87 -40,-165 -127,-233 -155,-166 -143,-201 37,-106 -25,-21 -64,-55 -116,-101 -143,-122 -127,-210 48,-265 -123,2 -225,25 -307,69 -68,108 -99,259 -95,455 62,-85 106,-164 132,-238 -69,384 3,628 217,730 -123,-216 -166,-392 -127,-529 49,207 112,366 191,476 z" id="path110" inkscape:connector-curvature="0" style="fill:#64472a"/>
   <path class="fil26" d="m 17449,8053 c -72,-237 -261,-416 -566,-534 340,80 562,220 667,418 58,148 24,187 -101,116 z" id="path112" inkscape:connector-curvature="0" style="fill:#64472a"/>
   <path class="fil26" d="m 15502,8635 c 118,-511 395,-804 831,-878 -504,85 -781,378 -831,878 z" id="path114" inkscape:connector-curvature="0" style="fill:#64472a"/>
   <path class="fil33" d="m 15539,8630 c 161,-262 295,-475 402,-640 -210,171 -344,385 -402,640 z" id="path116" inkscape:connector-curvature="0" style="fill:#c36b43"/>
   <path class="fil26" d="m 18106,9535 c 146,343 225,619 238,826 21,-346 -39,-625 -180,-836 -52,-128 -138,-216 -259,-265 135,210 168,378 101,503 75,-70 109,-146 101,-228 z" id="path118" inkscape:connector-curvature="0" style="fill:#64472a"/>
   <path class="fil26" d="m 17809,9175 c 158,242 195,431 111,566 -3,-190 -37,-323 -101,-397 -63,-142 -106,-268 -127,-376 71,-18 106,-26 106,-26 111,200 229,327 355,381 -169,-56 -284,-106 -344,-148 z" id="path120" inkscape:connector-curvature="0" style="fill:#64472a"/>
   <path class="fil26" d="m 17650,8879 c 82,-20 114,-28 95,-26 -78,-287 -189,-518 -333,-693 115,334 194,574 238,720 z" id="path122" inkscape:connector-curvature="0" style="fill:#64472a"/>
   <path class="fil26" d="m 17820,8836 c -105,-224 -158,-415 -159,-572 47,164 169,337 365,519 -85,21 -154,38 -206,53 z" id="path124" inkscape:connector-curvature="0" style="fill:#64472a"/>
   <path class="fil26" d="m 18042,8847 c -56,28 -113,56 -169,85 212,208 356,388 434,540 -30,-278 -118,-486 -265,-624 z" id="path126" inkscape:connector-curvature="0" style="fill:#64472a"/>
   <path class="fil34" d="m 18243,8170 c 64,302 13,342 -153,122 63,144 160,389 291,736 28,-398 -18,-684 -138,-857 z" id="path128" inkscape:connector-curvature="0" style="fill:#c58846"/>
   <path class="fil26" d="m 16518,8386 c -72,47 -53,101 58,164 -140,-13 -202,-98 -185,-254 14,-132 34,-224 58,-275 23,178 46,299 69,365 z" id="path130" inkscape:connector-curvature="0" style="fill:#64472a"/>
   <path class="fil26" d="m 16232,8418 c -45,-150 -63,-297 -53,-439 -46,11 -101,45 -164,101 2,130 74,243 217,339 z" id="path132" inkscape:connector-curvature="0" style="fill:#64472a"/>
   <path class="fil26" d="m 17169,9006 c -2,94 19,105 64,32 155,67 269,201 344,402 -474,-253 -767,-517 -878,-794 46,-3 86,-7 122,-11 35,115 93,204 175,265 -81,84 -51,96 90,37 111,-53 139,-30 85,69 z" id="path134" inkscape:connector-curvature="0" style="fill:#64472a"/>
   <path class="fil26" d="m 17180,8857 c -134,-37 -240,-113 -318,-228 132,43 295,59 487,48 -36,48 -93,108 -169,180 z" id="path136" inkscape:connector-curvature="0" style="fill:#64472a"/>
   <path class="fil35" d="m 17322,9043 c 40,151 54,279 42,386 29,133 -9,403 -116,810 96,-91 163,-236 201,-434 27,195 -7,589 -101,1180 106,-164 173,-441 201,-831 -21,227 27,432 143,614 -85,-222 -57,-375 85,-460 22,379 226,663 614,852 -120,-145 -217,-261 -291,-349 173,83 295,191 365,323 -88,-247 -214,-425 -376,-534 260,193 429,387 508,582 -52,-209 -142,-384 -270,-524 178,121 275,232 291,333 -4,-132 -46,-240 -127,-323 105,42 161,97 169,164 -96,-208 -237,-370 -423,-487 -161,-52 -258,-145 -291,-280 143,71 228,140 254,206 6,-127 -70,-268 -228,-423 -168,-223 -253,-389 -254,-497 72,69 121,120 148,153 -136,-218 -213,-403 -233,-556 179,-18 301,-44 365,-79 -173,29 -302,34 -386,16 -155,-542 -321,-891 -497,-1048 54,303 130,538 228,704 57,141 129,279 217,413 -107,-119 -179,-193 -217,-222 186,236 266,401 238,497 -78,-152 -168,-246 -270,-280 125,115 195,205 212,270 -81,-119 -148,-177 -201,-175 z" id="path138" inkscape:connector-curvature="0" style="fill:#e3a356"/>
   <path class="fil35" d="m 18672,12366 c 77,-370 94,-640 53,-810 114,175 97,445 -53,810 z" id="path140" inkscape:connector-curvature="0" style="fill:#e3a356"/>
   <path class="fil33" d="m 18867,11604 c -118,-238 -159,-430 -122,-577 102,136 143,328 122,577 z" id="path142" inkscape:connector-curvature="0" style="fill:#c36b43"/>
   <path class="fil26" d="m 18381,11260 c -190,-86 -321,-222 -392,-407 -14,41 -42,90 -85,148 20,123 179,210 476,259 z" id="path144" inkscape:connector-curvature="0" style="fill:#64472a"/>
   <path class="fil26" d="m 17656,10440 c 90,52 180,154 270,307 -4,55 -30,136 -79,243 -8,-123 -13,-222 -16,-296 -44,86 -63,174 -58,265 -113,-176 -151,-349 -116,-519 z" id="path146" inkscape:connector-curvature="0" style="fill:#64472a"/>
   <path class="fil33" d="m 18455,12292 c 49,-447 -30,-752 -238,-915 340,88 419,393 238,915 z" id="path148" inkscape:connector-curvature="0" style="fill:#c36b43"/>
   <path class="fil35" d="m 18354,9572 c 146,96 227,248 243,455 129,134 231,370 307,709 -76,-37 -134,-91 -175,-164 58,143 77,242 58,296 -54,-118 -114,-234 -180,-349 61,-130 38,-222 -69,-275 -12,78 -14,146 -5,206 -50,-299 -83,-537 -101,-714 14,375 3,578 -32,609 -26,-384 -42,-642 -48,-773 z" id="path150" inkscape:connector-curvature="0" style="fill:#e3a356"/>
   <path class="fil33" d="m 18148,8297 c -136,-371 -273,-525 -413,-460 -31,125 77,306 323,545 -34,-175 -93,-304 -175,-386 142,172 230,273 265,302 z" id="path152" inkscape:connector-curvature="0" style="fill:#c36b43"/>
   <path class="fil11" d="m 16275,13588 c 195,-21 239,-84 132,-191 -109,-96 -156,-267 -143,-513 -15,-404 17,-674 95,-810 149,-248 223,-234 222,42 -22,250 -38,548 -48,894 -23,99 14,205 111,318 53,93 60,235 21,429 -68,-318 -113,-337 -138,-58 -165,-43 -170,-11 -16,95 -28,158 -86,211 -175,159 86,-99 63,-164 -69,-196 -96,-104 -94,-161 5,-169 z" id="path154" inkscape:connector-curvature="0" style="fill:#ffda9b"/>
   <path class="fil6" d="m 14930,16361 c -39,1 -73,6 -101,16 -49,-319 106,-745 466,-1281 118,-151 180,-359 185,-624 9,81 7,205 -5,370 -18,128 -88,279 -212,455 -244,360 -355,714 -333,1064 z" id="path156" inkscape:connector-curvature="0" style="fill:#efbc7f"/>
   <path class="fil11" d="m 15751,16880 c -58,28 -75,65 -53,111 -54,-11 -103,-7 -148,11 79,-100 149,-151 212,-153 56,-43 56,-83 0,-122 45,-129 93,-240 143,-333 319,-724 494,-1230 524,-1519 -132,729 -291,1259 -476,1588 -51,62 -83,147 -95,254 -15,84 -50,138 -106,164 z" id="path158" inkscape:connector-curvature="0" style="fill:#ffda9b"/>
   <path class="fil9" d="m 18426,15522 c -67,-277 -34,-518 142,-654 -16,39 -30,77 -44,119 -58,112 -118,226 -98,535 z" id="path160" inkscape:connector-curvature="0" style="fill:#dbae76"/>
   <path class="fil29" d="m 16730,11419 c 303,-83 328,-337 106,-275 -249,69 -361,169 -466,132 -166,-78 -243,-41 -233,111 26,226 130,280 312,164 46,-86 144,-95 280,-132 z" id="path162" inkscape:connector-curvature="0" style="fill:#fed08f"/>
   <path class="fil9" d="m 18430,15542 c 189,441 286,942 326,1322 -112,-452 -258,-866 -326,-1322 z" id="path164" inkscape:connector-curvature="0" style="fill:#dbae76"/>
   <path class="fil36" d="m 17671,28520 c -41,-24 -94,-48 -146,-59 -110,-29 -218,-30 -333,-32 116,-63 166,-131 149,-216 -66,-177 -49,-257 53,-238 60,-7 96,24 106,95 64,71 101,31 111,-122 4,-89 11,-150 21,-185 52,41 78,81 79,122 -4,215 -27,473 -41,635 z" id="path166" inkscape:connector-curvature="0" style="fill:#fed097"/>
   <path class="fil29" d="m 18608,23165 c -115,2 -50,-99 -111,-228 -172,-6 -278,777 -90,1180 87,-15 133,-782 370,-661 -10,-167 -16,-256 -25,-314 -39,-44 -97,-35 -144,22 z" id="path168" inkscape:connector-curvature="0" style="fill:#fed08f"/>
   <path class="fil29" d="m 15913,21080 c -232,-465 -250,-729 -53,-794 189,118 299,358 328,720 1,259 -91,284 -275,74 z" id="path170" inkscape:connector-curvature="0" style="fill:#fed08f"/>
   <path class="fil29" d="m 18717,21090 c 124,-630 237,-1121 339,-1471 -129,250 -284,423 -466,519 -246,75 -309,223 -191,445 76,146 157,124 243,-64 143,-147 168,44 74,572 z" id="path172" inkscape:connector-curvature="0" style="fill:#fed08f"/>
   <path class="fil37" d="m 17532,24456 c -135,-99 -191,-245 -190,-436 -8,135 43,416 153,596 105,408 308,1367 285,1768 -26,52 -49,87 -103,196 -109,187 -184,405 -114,675 -15,-294 31,-495 138,-603 46,-111 97,-215 153,-312 59,-128 75,-241 48,-339 -80,-729 -110,-1257 -90,-1582 -23,-217 -72,-219 -148,-5 -23,310 -67,324 -132,42 z" id="path174" inkscape:connector-curvature="0" style="fill:#dbae75"/>
   <path class="fil37" d="m 18458,26832 c 69,-114 87,-202 53,-265 -69,20 -101,57 -95,111 -46,-146 -123,-241 -233,-286 -76,-54 -119,-36 -127,53 72,78 65,108 -21,90 -73,-23 -78,-5 -16,53 33,46 -25,57 -175,32 26,73 143,120 349,143 131,28 219,171 265,429 -15,-180 -15,-300 0,-360 z" id="path176" inkscape:connector-curvature="0" style="fill:#dbae75"/>
   <path class="fil22 str0" d="m 15040,17207 c -219,27 -186,17 -364,18 31,56 36,78 36,156 101,-71 120,-106 328,-174 z" id="path178" inkscape:connector-curvature="0" style="fill:#a02b2d;stroke:#201e1e;stroke-width:8.47000027"/>
   <path class="fil11" d="m 15733,7510 c -47,-91 -67,-161 -69,-207 -34,110 0,237 101,378 6,-67 -7,-123 -31,-171 z" id="path180" inkscape:connector-curvature="0" style="fill:#ffda9b"/>
   <path class="fil11" d="m 15441,7156 c 62,-14 120,-12 173,2 11,62 -14,98 -74,108 -41,-1 -79,-15 -114,-42 -95,-51 -153,-57 -172,-19 -28,40 -46,45 -56,16 -14,-33 -39,-43 -83,-33 31,-49 60,-66 115,-71 62,28 135,36 211,39 z" id="path182" inkscape:connector-curvature="0" style="fill:#ffda9b"/>
   <path class="fil38 str0" d="m 15128,7364 c -11,-69 -53,-95 -130,-75 -37,48 -55,90 -21,108 39,36 98,20 151,-33 z" id="path184" inkscape:connector-curvature="0" style="fill:#f48884;stroke:#201e1e;stroke-width:8.47000027"/>
   <path class="fil3 str0" d="m 14449,6910 c 9,-62 19,-113 29,-153 -73,-35 -135,-29 -185,19 -23,63 -29,133 -19,212 -91,0 -118,20 -130,116 -8,48 8,100 45,119 -86,36 -105,63 -90,130 14,62 24,111 85,132 -61,-10 -84,-5 -124,11 -40,46 -53,90 -19,153 23,42 79,71 115,87 50,-76 74,-148 67,-236 88,11 81,-30 113,-60 26,-47 25,-105 -19,-148 62,8 127,-7 153,-56 17,-66 2,-113 -42,-140 -36,-14 -63,-25 -82,-34 81,-33 115,-84 101,-151 z" id="path186" inkscape:connector-curvature="0" style="fill:#fdc685;stroke:#201e1e;stroke-width:8.47000027"/>
   <path class="fil11" d="m 14477,6758 c -11,32 -13,48 -19,70 -27,-3 -59,0 -85,8 -31,11 -69,11 -87,-4 -1,-19 9,-34 9,-49 25,-18 34,-44 101,-42 32,6 56,14 81,17 z" id="path188" inkscape:connector-curvature="0" style="fill:#ffda9b"/>
   <path class="fil38 str0" d="m 14391,6876 c -73,5 -99,43 -77,114 25,-37 59,-52 101,-48 30,-43 22,-65 -24,-66 z" id="path190" inkscape:connector-curvature="0" style="fill:#f48884;stroke:#201e1e;stroke-width:8.47000027"/>
   <path class="fil38 str0" d="m 14195,7291 c -58,69 -31,123 40,132 3,-38 18,-71 45,-98 -19,-41 -58,-66 -85,-34 z" id="path192" inkscape:connector-curvature="0" style="fill:#f48884;stroke:#201e1e;stroke-width:8.47000027"/>
   <path class="fil38 str0" d="m 14420,7140 c -27,2 -53,-3 -77,-16 -35,23 -43,54 -24,95 31,21 54,29 71,24 36,-26 46,-61 29,-103 z" id="path194" inkscape:connector-curvature="0" style="fill:#f48884;stroke:#201e1e;stroke-width:8.47000027"/>
   <path class="fil15" d="m 14310,7283 c -101,-23 -101,-28 -109,-58 62,-22 62,-17 109,58 z" id="path196" inkscape:connector-curvature="0" style="fill:#a9875e"/>
   <path class="fil15" d="m 14312,7078 c 41,-20 74,-35 102,-63 -31,-47 -60,-43 -118,6 -11,-15 -16,-28 -16,-28 -62,36 -83,63 33,85 z" id="path198" inkscape:connector-curvature="0" style="fill:#a9875e"/>
   <path class="fil15" d="m 15361,7397 c 57,87 162,208 269,357 -13,-197 -53,-325 -109,-389 -55,16 -91,6 -108,-29 -51,10 -105,11 -161,3 -44,27 -47,53 0,81 14,-14 14,-30 17,-43 39,15 57,33 92,20 z" id="path200" inkscape:connector-curvature="0" style="fill:#a9875e"/>
   <path class="fil36" d="m 18533,28135 c 67,147 98,281 106,377 -106,-69 -194,-64 -272,16 11,-74 64,-120 159,-138 -113,-11 -181,5 -206,48 9,-133 46,-223 111,-270 18,-88 -12,-118 -90,-90 -150,-44 -155,-81 -16,-111 94,-142 87,-249 -21,-323 -234,-25 -246,-67 -37,-127 133,-229 146,-389 80,-499 -89,-135 -207,-145 -334,-168 -80,-10 -149,-63 -141,-81 9,-21 110,-65 136,-51 443,229 586,648 467,1057 41,143 64,281 59,360 z" id="path202" inkscape:connector-curvature="0" style="fill:#fed097"/>
   <path class="fil9" d="m 15694,16480 c -43,183 -109,339 -198,470 86,-83 159,-114 218,-93 97,-52 112,-105 46,-159 233,-459 387,-843 463,-1151 231,-713 372,-1267 423,-1660 0,-124 15,-197 46,-218 -80,-43 -126,-16 -139,79 -79,94 -130,165 -152,212 -149,63 -275,54 -377,-26 104,112 229,150 377,112 -178,150 -270,300 -278,450 4,432 -47,813 -152,1144 -60,264 -126,473 -198,628 -83,72 -109,143 -79,212 z" id="path204" inkscape:connector-curvature="0" style="fill:#dbae76"/>
   <path class="fil23" d="m 15596,13717 c 6,-31 12,-37 18,-71 -93,-72 -267,-299 -303,-582 -39,87 -4,217 108,394 63,130 29,114 -122,-25 67,108 148,192 299,284 z" id="path206" inkscape:connector-curvature="0" style="fill:#8e2929"/>
   <path class="fil26" d="m 17202,7450 c -266,-42 -449,-26 -549,46 459,-92 743,29 853,364 -25,-135 -69,-234 -132,-298 184,130 334,213 450,251 -141,-116 -293,-222 -456,-318 228,57 402,143 523,258 -57,-181 -176,-300 -357,-357 15,-109 101,-143 258,-99 -259,-76 -563,-49 -913,79 186,-7 294,18 324,73 z" id="path208" inkscape:connector-curvature="0" style="fill:#64472a"/>
   <path class="fil10" d="m 15649,9533 c 94,-134 157,-250 190,-347 -21,84 -41,160 -61,228 -11,54 -33,102 -67,146 -22,15 -35,33 -37,56 -19,-35 -27,-62 -26,-83 z" id="path210" inkscape:connector-curvature="0" style="fill:#c79e6d"/>
   <path class="fil10" d="m 15840,9815 c -38,65 -55,122 -46,172 24,-38 40,-95 46,-172 z" id="path212" inkscape:connector-curvature="0" style="fill:#c79e6d"/>
   <path class="fil39" d="m 16087,10149 c -41,39 -107,54 -199,45 43,-34 109,-49 199,-45 z" id="path214" inkscape:connector-curvature="0" style="fill:#f48884"/>
   <path class="fil38 str0" d="m 14066,7618 c -9,-48 7,-79 48,-91 27,11 55,22 83,33 -2,48 -17,85 -45,112 -44,-13 -72,-31 -86,-54 z" id="path216" inkscape:connector-curvature="0" style="fill:#f48884;stroke:#201e1e;stroke-width:8.47000027"/>
   <path class="fil1" d="m 13985,28948 c 822,53 2597,69 3831,-26 -112,-46 -159,-177 -143,-392 -308,-135 -594,-121 -857,42 -429,178 -812,256 -1148,233 -934,-95 -1495,-48 -1683,143 z" id="path218" inkscape:connector-curvature="0" style="fill:#fffbd6"/>
   <path class="fil1" d="m 12672,27863 c 1109,64 2098,45 2969,-58 -417,-13 -149,13 -505,-73 -366,-89 -51,-152 -694,-160 -147,-2 -179,209 -858,158 -416,-31 -153,-34 -557,6 -94,9 -352,127 -355,127 z" id="path220" inkscape:connector-curvature="0" style="fill:#fffbd6"/>
  </g>
 </g>
</svg>