<?xml version="1.0" encoding="utf-8"?>
<!-- Generator: Adobe Illustrator 15.0.2, SVG Export Plug-In . SVG Version: 6.00 Build 0)  -->
<!DOCTYPE svg PUBLIC "-//W3C//DTD SVG 1.1//EN" "http://www.w3.org/Graphics/SVG/1.1/DTD/svg11.dtd">
<svg version="1.1" id="Layer_1" xmlns="http://www.w3.org/2000/svg" xmlns:xlink="http://www.w3.org/1999/xlink" x="0px" y="0px"
	 width="231.958px" height="493.95px" viewBox="0 0 231.958 493.95" enable-background="new 0 0 231.958 493.95"
	 xml:space="preserve">
<path d="M86.509,207.626c0,0-19.379,2.472-28.444,14.834s-2.89,121.972-4.742,133.51s-4.324,77.47-8.445,91.479
	c-4.12,14.011-74.419,15.906-30.493,37.087c43.926,21.18,217.572,0,217.572,0s-54.34-13.596-69.218-59.339
	c-24.693-75.923-16.406-200.687-27.207-206.858c-17.307-9.89-25.548-10.714-25.548-10.714H86.509z"/>
<path fill="#E2D2C7" stroke="#000000" stroke-miterlimit="10" d="M41.582,253.778c0,0-11.49,23.918,0,34.614
	s11.49,10.695,11.49,10.695l0.047-34.869L41.582,253.778z"/>
<path d="M48.175,124.39c-3.029,2.122,0,87.357,0,87.357l-14.01,42.031l18.955,22.654l8.242-68.805l4.727-48.623
	C66.088,159.003,51.204,122.268,48.175,124.39z"/>
<path fill="#E2D2C7" stroke="#000000" stroke-miterlimit="10" d="M152.384,251.316c0,0,11.491,23.918,0,34.614
	c-11.489,10.695-11.489,10.695-11.489,10.695l-0.048-34.87L152.384,251.316z"/>
<path d="M140.552,123.958c3.799-3.195,7.343,82.854,7.343,82.854l14.845,50.902l-22.188,19.149l-4.194-68.65l-8.242-54.393
	C128.116,153.82,136.753,127.153,140.552,123.958z"/>
<linearGradient id="SVGID_1_" gradientUnits="userSpaceOnUse" x1="93.9043" y1="131.8232" x2="93.9043" y2="48.4556">
	<stop  offset="0" style="stop-color:#610233"/>
	<stop  offset="0.2151" style="stop-color:#5D0231"/>
	<stop  offset="0.4075" style="stop-color:#53022B"/>
	<stop  offset="0.5912" style="stop-color:#400122"/>
	<stop  offset="0.7696" style="stop-color:#270114"/>
	<stop  offset="0.9425" style="stop-color:#060003"/>
	<stop  offset="0.9697" style="stop-color:#000000"/>
</linearGradient>
<path fill="url(#SVGID_1_)" d="M57.252,127.999L19.789,79.803c0,0,7.187-14.704,18.864-8.416
	c0.18-14.496,26.056-16.617,24.017-1.564c-1.029,7.597,5.627-32.984,17.306-6.278c11.678,26.707,12.795-44.672,30.202,0
	c15.61-29.887,21.979-1.141,21.04,4.249c7.148-9.881,24.215-12.576,20.622,12.009c9.881-10.124,21.559-7.517,13.474,5.432
	c-13.54,21.686-37.198,46.588-37.198,46.588L57.252,127.999z"/>
<path d="M53.373,129.57L26.747,87.607c0,0,6.593-13.49,17.307-7.721c0.165-13.3,23.905-15.245,22.034-1.435
	c-0.944,6.97,5.163-30.261,15.877-5.759c10.713,24.501,11.739-40.984,27.708,0c14.322-27.419,20.164-1.047,19.303,3.898
	c6.557-9.065,22.216-11.538,18.918,11.017c9.065-9.288,19.779-6.896,12.362,4.984c-12.421,19.895-25.342,39.232-25.342,39.232
	L53.373,129.57z"/>
<linearGradient id="SVGID_2_" gradientUnits="userSpaceOnUse" x1="50.0303" y1="187.8477" x2="140.5522" y2="187.8477">
	<stop  offset="0.0303" style="stop-color:#000000"/>
	<stop  offset="0.5152" style="stop-color:#610233"/>
	<stop  offset="1" style="stop-color:#000000"/>
</linearGradient>
<path fill="url(#SVGID_2_)" stroke="#000000" stroke-miterlimit="10" d="M86.509,116.148L50.03,130.924l3.292,11.596
	c0,0,26.993,50.271,20.167,68.736c7.65,0.49,24.042,12.029,23.309,48.291c6.593-32.965,12.827-45.259,22.896-49.002
	c2.652-29.292,20.857-76.058,20.857-76.058l-38.809-18.339H86.509z"/>
<path fill="#E2D2C7" stroke="#000000" stroke-miterlimit="10" d="M73.61,82.135c0,0,15.36,25.525,7.821,36.052
	c-11.704,10.882-15.053,20.621-15.053,20.621s23.456-9.862,30.029,17.932c7.837-31.318,32.86-19.578,32.86-19.578
	s-12.436-11.95-21.464-19.873c-10.068-0.896-1.648-30.175,1.188-35.198C111.827,77.07,73.61,82.135,73.61,82.135z"/>
<path fill="#E2D2C7" stroke="#000000" stroke-miterlimit="10" d="M93.249,107.021c-4.244,0-19.93-24.106-19.93-24.106l-7.231-46.544
	h48.595l-3.609,41.633C111.074,78.004,98.35,107.021,93.249,107.021z"/>
<path d="M66.088,58.847c-7.199-6.158-9.671-31.706-4.727-34.178c4.944-2.473,9.89,3.297,20.604-4.945
	c10.713-8.242,1.245-17.702,8.42-18.955c24.297-4.245,16.056,10.219,32.786,15.658c7.72,2.509-4.121,21.427-4.121,21.427
	s3.819,0,4.382,7.418c0.563,7.417-9.151,24.104-11.812,27.907c-2.66,3.804-0.811-30.38-5.756-26.259
	c-4.945,4.121-15.479,7.417-15.479,7.417s-8.612,3.686-9.245-7.417c-0.469-8.228-2.472-10.714-2.472-10.714
	s-2.92,24.435-5.283,28.923c-2.362,4.488-1.011,13.189-1.011,13.189L66.088,58.847z"/>
<g>
	
		<radialGradient id="SVGID_3_" cx="105.1992" cy="50.1226" r="4.7485" gradientTransform="matrix(0.9173 0 0 0.4772 5.4683 47.9617)" gradientUnits="userSpaceOnUse">
		<stop  offset="0" style="stop-color:#FFDBED"/>
		<stop  offset="0.3625" style="stop-color:#FCDAEB"/>
		<stop  offset="0.5972" style="stop-color:#F4D8E6"/>
		<stop  offset="0.7957" style="stop-color:#E5D3DC"/>
		<stop  offset="0.973" style="stop-color:#D0CDCF"/>
		<stop  offset="1" style="stop-color:#CCCCCC"/>
	</radialGradient>
	<path fill="url(#SVGID_3_)" d="M107.141,70.994c0,0-2.107,3.06-4.707,3.06c-2.598,0-5.639-1.604-5.639-1.604
		s3.041-2.746,5.639-2.746C105.034,69.704,107.141,70.994,107.141,70.994z"/>
	<g>
		<ellipse cx="101.968" cy="71.878" rx="2.197" ry="1.481"/>
		
			<radialGradient id="SVGID_4_" cx="105.1992" cy="50.1221" r="1.29" gradientTransform="matrix(0.9173 0 0 0.5964 5.4683 41.9826)" gradientUnits="userSpaceOnUse">
			<stop  offset="0" style="stop-color:#F0047F"/>
			<stop  offset="1" style="stop-color:#000000"/>
		</radialGradient>
		<ellipse fill="url(#SVGID_4_)" cx="101.969" cy="71.878" rx="1.162" ry="0.783"/>
	</g>
	<path fill="#4D4D4D" d="M107.765,71.123c0,0-3.014,0-5.613,0c-2.599,0-4.706,0.756-4.706,0.756s2.158-1.841,4.706-2.175
		C106.441,69.141,107.765,71.123,107.765,71.123z"/>
	<path d="M93.904,70.7c0.515-3.281,15.558-4.727,11.99-3.872c-3.459,0.83-10.13,2.378-9.572,3.963L93.904,70.7z"/>
</g>
<g>
	
		<radialGradient id="SVGID_5_" cx="143.4487" cy="45.3477" r="4.7482" gradientTransform="matrix(-0.8181 0.0278 0.0325 0.4485 197.7968 47.6245)" gradientUnits="userSpaceOnUse">
		<stop  offset="0" style="stop-color:#FFDBED"/>
		<stop  offset="0.3625" style="stop-color:#FCDAEB"/>
		<stop  offset="0.5972" style="stop-color:#F4D8E6"/>
		<stop  offset="0.7957" style="stop-color:#E5D3DC"/>
		<stop  offset="0.973" style="stop-color:#D0CDCF"/>
		<stop  offset="1" style="stop-color:#CCCCCC"/>
	</radialGradient>
	<path fill="url(#SVGID_5_)" d="M77.238,71.281c0,0,2.087,2.813,4.405,2.734c2.318-0.079,4.92-1.679,4.92-1.679
		s-2.899-2.49-5.216-2.411C79.029,70.004,77.238,71.281,77.238,71.281z"/>
	<g>
		<path d="M83.871,71.889c0.056,0.769-0.777,1.421-1.859,1.458s-2.004-0.557-2.06-1.325s0.776-1.421,1.859-1.458
			C82.893,70.527,83.815,71.12,83.871,71.889z"/>
		
			<radialGradient id="SVGID_6_" cx="143.4487" cy="45.3477" r="1.2898" gradientTransform="matrix(-0.8181 0.0278 0.0406 0.5607 197.4286 42.5394)" gradientUnits="userSpaceOnUse">
			<stop  offset="0" style="stop-color:#F0047F"/>
			<stop  offset="1" style="stop-color:#000000"/>
		</radialGradient>
		<path fill="url(#SVGID_6_)" d="M82.947,71.92c0.03,0.407-0.411,0.752-0.982,0.771c-0.572,0.02-1.061-0.294-1.09-0.701
			s0.411-0.752,0.983-0.771C82.43,71.2,82.918,71.514,82.947,71.92z"/>
	</g>
	<path fill="#4D4D4D" d="M76.69,71.421c0,0,2.688-0.091,5.006-0.17c2.318-0.079,4.248,0.568,4.248,0.568s-2.05-1.665-4.345-1.902
		C77.736,69.517,76.69,71.421,76.69,71.421z"/>
	<path d="M89.023,70.603c-0.683-3.068-14.198-3.971-10.957-3.275c3.141,0.675,9.197,1.928,8.806,3.435L89.023,70.603z"/>
</g>
<g>
	<path fill="#4F0128" d="M98.241,91.293c-0.305,1.442-3.218,2.954-5.752,2.954c-2.535,0-5.636-1.481-5.713-2.954
		c-0.209-3.95,3.148-2.954,5.683-2.954S99.068,87.386,98.241,91.293z"/>
	<path fill="#FFFFFF" d="M97.16,88.332c0,0,1.117-0.117,0.373,1.52c-0.744,1.636-0.836,2.727-0.836,2.727s-0.371-3.344-1.02-3.99
		c-0.649-0.646-0.649-0.646-0.649-0.646L97.16,88.332z"/>
	<path fill="#FFFFFF" d="M87.395,88.332c0,0-1.117-0.117-0.373,1.52c0.744,1.636,0.837,2.727,0.837,2.727s0.371-3.344,1.02-3.99
		s0.649-0.646,0.649-0.646L87.395,88.332z"/>
	<path fill="#FFFFFF" d="M89.633,86.991c0,0-1.117-0.117-0.373,1.52c0.744,1.636,0.836,2.727,0.836,2.727s0.371-3.344,1.02-3.99
		c0.649-0.646,0.649-0.646,0.649-0.646L89.633,86.991z"/>
	<path fill="#FFFFFF" d="M91.23,87.44c0,0-1.117-0.085-0.373,1.111c0.744,1.196,0.836,1.994,0.836,1.994s0.371-2.445,1.02-2.917
		c0.649-0.472,0.649-0.472,0.649-0.472L91.23,87.44z"/>
	<path fill="#FFFFFF" d="M95.495,87.644c0,0,1.117-0.089,0.373,1.166c-0.744,1.255-0.836,2.092-0.836,2.092s-0.371-2.565-1.02-3.061
		s-0.649-0.496-0.649-0.496L95.495,87.644z"/>
	<path fill="#FFFFFF" d="M94.115,87.681c0,0,1.117-0.089,0.373,1.152c-0.744,1.241-0.837,2.068-0.837,2.068s-0.371-2.536-1.02-3.026
		s-0.649-0.49-0.649-0.49L94.115,87.681z"/>
</g>
<path fill="#93014A" d="M92.45,86.896c-0.943-0.606-4.987-0.805-6.583,1.046c-0.6,0.696,0,2.087,0,3.265
	c0,5.172,12.417,5.821,13.166,0c0.153-1.19,0.653-3.131,0.035-3.821C97.467,85.595,93.253,86.36,92.45,86.896z M98.241,91.293
	c-0.305,1.442-3.218,2.954-5.752,2.954c-2.535,0-5.519-1.492-5.713-2.954c-0.499-3.736,3.148-2.954,5.683-2.954
	S99.068,87.386,98.241,91.293z"/>
<path d="M93.363,81.267c0,0,3.721-3.06,4.083-2.04c0.363,1.02,0,1.298,0,1.298L93.363,81.267z"/>
<path d="M86.313,80.525l4.083,0.742c0,0-3.721-3.06-4.083-2.04"/>
</svg>
