<svg xmlns="http://www.w3.org/2000/svg" viewBox="0 0 139.08 156.21"><style id="stylish-1" class="stylish" type="text/css">scrollbar *
  scrollbar scrollbarbutton{visibility:collapse!important;}
  scrollbar scrollbarbutton{display:none!important;}
 
  scrollbar[orient="vertical"]{background:#999 url(https://pbs.twimg.com/media/CKecQtCWoAA8keI.png)!important;-moz-appearance:none!important;min-width:9px!important;max-width:9px!important;border-radius:5px;}
  scrollbar[orient="vertical"]:hover{-moz-appearance:none!important;}
  scrollbar thumb[orient="vertical"]{background:#97b2bd!important;-moz-appearance:none!important;border-radius:4px!important;min-height:25px!important;min-width:9px!important;max-width:9px!important;border:1px!important;opacity:0.87;}
  scrollbar thumb[orient="vertical"]:hover{background:#97b2bd!important;border-radius:4px!important;border:0px!important;opacity:1;}
  
  scrollbar[orient="horizontal"]{background:#999 url(https://pbs.twimg.com/media/CKecQtCWoAA8keI.png)!important;-moz-appearance:none!important;background-color:transparent!important;opacity:.75!important;min-height:9px!important;max-height:9px!important;border-radius:5px;}
  scrollbar[orient="horizontal"]:hover{-moz-appearance:none!important;background-color:transparent!important;min-height:9px!important;max-height:9px!important}
  scrollbar thumb[orient="horizontal"]{background:#97b2bd!important;-moz-appearance:none!important;border-radius:4px!important;min-height:25px!important;max-height:8px!important;border:1px!important;margin-left:0px!important;opacity:0.87;}
  scrollbar thumb[orient="horizontal"]:hover{background:#97b2bd!important;border-radius:4px!important;border:0px!important;opacity:1;}

scrollcorner{opacity:0!important}
scrollbar scrollcorner:hover{background:transparent!important}
::-webkit-scrollbar{width:9px!important;}
body::-webkit-scrollbar{width:12.5px!important;}

::-webkit-scrollbar-track{background:rgba(255,255,255,0.22)!important;border-radius:8px!important;-webkit-box-shadow:inset 0 0 4px rgba(0,0,0,0.3)!important;}
body::-webkit-scrollbar-track{background:#999 url(https://pbs.twimg.com/media/CKecQtCWoAA8keI.png)!important;}

::-webkit-scrollbar-thumb{background-color:#97b2bd!important;background-image:-webkit-linear-gradient(294deg,rgba(255,255,255,.2) 25%,transparent 25%,transparent 50%,rgba(255,255,255,.2) 50%,rgba(255, 255, 255,.2) 75%,transparent 75%,transparent);min-height:50px;border-radius:5px!important;-webkit-box-shadow:inset 0 0 4px rgba(0,0,0,0.5)!important;}</style><title>Asset 1</title><g id="Layer_2" data-name="Layer 2"><g id="Layer_1-2" data-name="Layer 1"><path d="M132,33.87,76.62,1.9a14.17,14.17,0,0,0-14.17,0l-55.37,32A14.17,14.17,0,0,0,0,46.14v63.94a14.17,14.17,0,0,0,7.08,12.27l55.37,32a14.17,14.17,0,0,0,14.17,0l55.37-32a14.17,14.17,0,0,0,7.08-12.27V46.14A14.17,14.17,0,0,0,132,33.87ZM4.32,49.55A15.81,15.81,0,0,1,12.21,35.9L61.66,7.35a15.76,15.76,0,0,1,15.76,0L126.88,35.9a15.81,15.81,0,0,1,7.88,13.65V96.82h-4c0-.26.06-.42.06-.42a6.45,6.45,0,0,0-2.55.42H120a6.67,6.67,0,0,0-3.67-2.19,8.77,8.77,0,0,0,0,2.19H22.69a8.77,8.77,0,0,0,0-2.19A6.67,6.67,0,0,0,19,96.82h-8.2a6.45,6.45,0,0,0-2.55-.42s0,.15.06.42h-4ZM61,113.32c0-1.34,1.09-1.56,2.46-1.83l.18-.8a2.7,2.7,0,0,1-1.69.62,1.62,1.62,0,0,1-1.67-1,2.71,2.71,0,0,1-1.7.94c-1.15,0-1.83-.5-1.83-1.6a3.56,3.56,0,0,1,.09-.75l.56-2.65a1.81,1.81,0,0,0,0-.38c0-.53-.28-.87-.68-.87a1.56,1.56,0,0,0-.93.31l-1.25,5.95H52.47l.22-1a3.44,3.44,0,0,1-1.9,1c-.93,0-1.57-.35-1.77-1.08a4.75,4.75,0,0,1-1.83.84l-.29,1.41a3.85,3.85,0,0,1-.64,1.53,2.38,2.38,0,0,1-2,1,1.74,1.74,0,0,1-1.61-1,1.5,1.5,0,0,1-.13-.62c0-1.35,1.13-1.8,2.53-2.21l.21-1a3.55,3.55,0,0,1-2,1.12c-1.13,0-1.84-.5-1.84-1.6a3.68,3.68,0,0,1,.09-.75l.51-2.42a4.49,4.49,0,0,1-1,.44c-.28,3-1.88,4.42-3.36,4.42-1.19,0-1.86-.38-2.12-1.31a3.8,3.8,0,0,1-2.09,1.22h-.24a1.54,1.54,0,0,1-1.45-.86,1.87,1.87,0,0,1-.13-.73,3.68,3.68,0,0,1,.09-.75l1.63-7.66,2.18-.29-1.69,8a2.67,2.67,0,0,0-.07.47c0,.32.16.54.74.54a1.75,1.75,0,0,0,.94-.45,5.29,5.29,0,0,1,0-.54c0-3.62,1.84-5.18,3.87-5.18,1.4,0,1.75,1.09,1.78,2.16a.57.57,0,0,0,.43.13,1.34,1.34,0,0,0,.71-.22l.41-1.93h2.12l-1.06,5a2.78,2.78,0,0,0-.06.46c0,.32.15.56.74.56a2,2,0,0,0,1.1-.57l1.16-5.45h2.12l-1.37,6.45A4.9,4.9,0,0,0,49,109c0-.06,0-.1,0-.16l1.06-5h2.12l-1.06,5a2.78,2.78,0,0,0-.06.46c0,.32.15.56.74.56a1.9,1.9,0,0,0,1-.52L54,103.86h2.12l-.18.79a3.49,3.49,0,0,1,1.93-.79,1.89,1.89,0,0,1,1.69,1.84,1.44,1.44,0,0,1,0,.35l-.6,2.81a1.85,1.85,0,0,0-.07.47c0,.32.16.54.74.54a.92.92,0,0,0,.52-.17,2.67,2.67,0,0,1,0-.27c0-2,.78-5.57,3.64-5.57a1.37,1.37,0,0,1,1.18.69l.15-.71h2.13l-1.8,8.54a3.78,3.78,0,0,1-.65,1.53,2.43,2.43,0,0,1-2,1,1.74,1.74,0,0,1-1.61-1A1.5,1.5,0,0,1,61,113.32ZM25.88,114l-.08.4-2.22.53.21-1,.87-4.1a4.15,4.15,0,0,1-3,1.39,2.41,2.41,0,0,1-.58-.07h0a2.19,2.19,0,0,1-1.6-2.27,7.65,7.65,0,0,1,.75-3.31A3,3,0,0,1,23,103.73a2.22,2.22,0,0,1,1.39.38,1.38,1.38,0,0,1,.49,1.15,2.53,2.53,0,0,1-.87,1.87,4.6,4.6,0,0,1-2.45,1.14,5.22,5.22,0,0,0,0,.63,1.12,1.12,0,0,0,.72,1.18,1.44,1.44,0,0,0,.49.09,3.34,3.34,0,0,0,2.21-1.49l1-4.81H28l-.06.28a2.23,2.23,0,0,1,1-.27c1.53,0,2.25.54,2.25,2.06a6.84,6.84,0,0,1-.09,1c-.33,2.26-1.07,3.44-2,3.94a2.48,2.48,0,0,1-2.6-.14l-.67,3.16Zm97.64-3.75a2.91,2.91,0,0,1-1.73,1,1.73,1.73,0,0,1-1.64-.76,1.66,1.66,0,0,1-.2-.82,3.07,3.07,0,0,1,.1-.78l.16-.68a1.81,1.81,0,0,0,0-.38c0-.53-.28-.87-.68-.87a1.42,1.42,0,0,0-.66.17,2.39,2.39,0,0,0-.29.15l-.8,3.77,0,.19h-2.12l.45-2.1.57-2.68a4.49,4.49,0,0,1-1.07.46,8,8,0,0,1-.18,1.09,4.84,4.84,0,0,1-1.51,2.68,2.63,2.63,0,0,1-1.67.65c-1.23,0-1.91-.42-2.15-1.43a4.27,4.27,0,0,1-.1-1,7.82,7.82,0,0,1,.33-2.36,4.48,4.48,0,0,1-.87.36,5.15,5.15,0,0,1-1.94,3.94,2.56,2.56,0,0,1-1.42.48l-.32,0c-1.34-.09-1.94-.77-1.94-2.4,0-3.62,1.84-5.18,3.87-5.18,1.4,0,1.75,1.09,1.78,2.16a.57.57,0,0,0,.43.13,1.34,1.34,0,0,0,.71-.22,3.52,3.52,0,0,1,3.24-2.08,1.87,1.87,0,0,1,.83.18,2.11,2.11,0,0,1,1,2,.57.57,0,0,0,.43.13,1.35,1.35,0,0,0,.73-.23l.69-3.24.28-1.33.29,0,1.89-.26-.37,1.71L118.9,106v0h0c1.1-.88,2.83-2.22,2.83-2.2h1.59l-3,2a1.71,1.71,0,0,1,.38,0,1.9,1.9,0,0,1,1.71,1.83s0,.06,0,.1a1.53,1.53,0,0,1,0,.27l-.21.84a1.85,1.85,0,0,0-.07.47c0,.32.16.54.74.54a1,1,0,0,0,.55-.22,3,3,0,0,1,0-.37,2.08,2.08,0,0,1,.63-1.68.91.91,0,0,1,.49-.21,7.2,7.2,0,0,0,.39-.94,21.8,21.8,0,0,0,.65-2.44l2.13-.44v.21a6.73,6.73,0,0,0,.5,2.59c.11.28.21.55.31.83a4.22,4.22,0,0,1,.27,1.45,2.39,2.39,0,0,1-1.17,2.15,3.3,3.3,0,0,1-1.69.41,4.63,4.63,0,0,1-1.31-.16A1.51,1.51,0,0,1,123.52,110.22Zm-30-3.28a1.59,1.59,0,0,0-.94.32l-.84,4H89.66l1-4.79a4.49,4.49,0,0,1-1.07.46c-.28,3-1.88,4.42-3.36,4.42S84,110.65,84,108.9a7.82,7.82,0,0,1,.33-2.36,4.48,4.48,0,0,1-.87.36c-.28,3-1.88,4.42-3.36,4.42s-2-.49-2.21-1.74a4.26,4.26,0,0,1-3.68,1.74c-1.5,0-3.22-.74-3.22-3.75,0-3.21,1-7.38,5-7.38,1.37,0,2.56.54,2.56,2,0,.78-.28,1.35-1,1.35a1.06,1.06,0,0,1-.84-.38c.37-.1.65-.84.65-1.21a1,1,0,0,0-1-1c-1.81,0-3,3.74-3,6.36,0,1.93.35,2.75,1.94,2.75a3.13,3.13,0,0,0,2.62-1.25c.06-3.5,1.86-5,3.86-5,1.4,0,1.75,1.09,1.78,2.16a.57.57,0,0,0,.43.13,1.34,1.34,0,0,0,.71-.22,3.52,3.52,0,0,1,3.24-2.08c1.4,0,1.75,1.09,1.78,2.16a.57.57,0,0,0,.43.13,1.35,1.35,0,0,0,.73-.23l1-4.57,2.18-.29-1.1,5.15c1.1-.88,2.84-2.22,2.84-2.21H97.3l-3,2a1.71,1.71,0,0,1,.38,0,1.9,1.9,0,0,1,1.71,1.83,1.58,1.58,0,0,1,0,.37l-.21.84a1.85,1.85,0,0,0-.07.47c0,.32.16.54.74.54a.82.82,0,0,0,.4-.12c0-.06,0-.11,0-.17a3.41,3.41,0,0,1,.09-.72l1.63-7.66,2.18-.29-.71,3.34a2.14,2.14,0,0,1,1.27-.43,1.74,1.74,0,0,1,1.87,1.87c0,2.31-1.27,5.57-3.9,5.57-1.11,0-1.94-.24-2.27-.92a2.69,2.69,0,0,1-1.59.88c-1.13,0-1.84-.5-1.84-1.58a3.07,3.07,0,0,1,.1-.78l.16-.68a1.81,1.81,0,0,0,0-.38C94.24,107.28,94,106.94,93.56,106.94Zm-40.84-5a1.17,1.17,0,0,1-1.18,1.16,1.16,1.16,0,0,1-1.16-1.16,1.17,1.17,0,0,1,1.16-1.18A1.18,1.18,0,0,1,52.72,101.92Zm-33.23,2.24a10.52,10.52,0,0,1-1.31,5.19,3.53,3.53,0,0,1-2.77,2.07h-.07a2.81,2.81,0,0,1-1.73-.77l-.12.59H11.38l0-.19.44-2.06.59-2.75.64-3,.3-1.38.36,0,1.41-.19.4-.05-.17.81-.15.68-.19.87-.56,2.64L14,108.9l-.2.93a1.39,1.39,0,0,0,.84.29c.91,0,1.64-1,2.13-2.29a12.35,12.35,0,0,0,.7-4s0,0,0-.06a5.79,5.79,0,0,0-.19-1.7,1.66,1.66,0,0,0-1.84-1.19c-.19,0-.37,0-.55,0a4.46,4.46,0,0,0-1.67.47,3.16,3.16,0,0,0-1.28,1.23,3.63,3.63,0,0,0-.47,1.84,2,2,0,0,0,.21,1c-1,0-1.58-.37-1.58-1.43a3,3,0,0,1,1-2.07,5.83,5.83,0,0,1,1.52-1.08,6.26,6.26,0,0,1,2-.62,5.2,5.2,0,0,1,.67,0,5.82,5.82,0,0,1,2.16.36,3.06,3.06,0,0,1,1.91,2.18A5.64,5.64,0,0,1,19.49,104.16Zm107.38,16.15L77.42,148.86a15.76,15.76,0,0,1-15.76,0L12.21,120.31a15.7,15.7,0,0,1-4.35-3.73H17a9.73,9.73,0,0,0,3.63,2,9.23,9.23,0,0,0,5.9-.68,14.17,14.17,0,0,0-1.31-1.28h2.35l.17.22.14-.22h4.28a10.76,10.76,0,0,0,3.65,3.53,10.23,10.23,0,0,0,.29-3.53h2.59c-.3,2,.11,5.21,4.55,8a9.23,9.23,0,0,0-.35-5.93,9.4,9.4,0,0,0-1.38-2.07H97.61a9.4,9.4,0,0,0-1.38,2.07,9.23,9.23,0,0,0-.35,5.93c4.44-2.8,4.85-6,4.55-8H103a10.23,10.23,0,0,0,.29,3.53,10.76,10.76,0,0,0,3.65-3.53h4.28l.14.22.17-.22h2.35a14.17,14.17,0,0,0-1.31,1.28,9.23,9.23,0,0,0,5.9.68,9.73,9.73,0,0,0,3.63-2h9.11A15.7,15.7,0,0,1,126.88,120.31Z" style="fill:#90278e"/><path d="M62.41,147.56a14.26,14.26,0,0,0,14.26,0L126.13,119a14.24,14.24,0,0,0,3.11-2.43h-7.12a9.73,9.73,0,0,1-3.63,2,9.23,9.23,0,0,1-5.9-.68,14.17,14.17,0,0,1,1.31-1.28h-2.35l-.17.22-.14-.22H107a10.76,10.76,0,0,1-3.65,3.53,10.23,10.23,0,0,1-.29-3.53h-2.59c.3,2-.11,5.21-4.55,8a9.23,9.23,0,0,1,.35-5.93,9.4,9.4,0,0,1,1.38-2.07H41.47a9.4,9.4,0,0,1,1.38,2.07,9.23,9.23,0,0,1,.35,5.93c-4.44-2.8-4.85-6-4.55-8H36.06a10.23,10.23,0,0,1-.29,3.53,10.76,10.76,0,0,1-3.65-3.53H27.84l-.14.22-.17-.22H25.18a14.17,14.17,0,0,1,1.31,1.28,9.23,9.23,0,0,1-5.9.68,9.73,9.73,0,0,1-3.63-2H9.84A14.24,14.24,0,0,0,13,119Zm52.35-24.94a9.68,9.68,0,0,1-5.21,1.32,9.23,9.23,0,0,1-5.41-2.46C111.35,117.32,114.76,122.62,114.76,122.62Zm-7.43,4.48a9.68,9.68,0,0,1-5.21,1.32A9.23,9.23,0,0,1,96.71,126C103.92,121.8,107.33,127.1,107.33,127.1Zm-7.43,4.48a9.68,9.68,0,0,1-5.21,1.32,9.23,9.23,0,0,1-5.41-2.46C96.49,126.28,99.89,131.58,99.89,131.58Zm-11.1-8.45a9.68,9.68,0,0,1,3.6-4s3.09,5.49-4,9.92A9.23,9.23,0,0,1,88.8,123.13Zm3.66,12.93a9.68,9.68,0,0,1-5.21,1.32,9.23,9.23,0,0,1-5.41-2.46C89.05,130.76,92.46,136.06,92.46,136.06Zm-11.1-8.45a9.68,9.68,0,0,1,3.6-4s3.09,5.49-4,9.92A9.23,9.23,0,0,1,81.37,127.61ZM85,140.54a9.68,9.68,0,0,1-5.21,1.32,9.23,9.23,0,0,1-5.41-2.46C81.62,135.24,85,140.54,85,140.54Zm-11.1-8.45a9.68,9.68,0,0,1,3.6-4s3.09,5.49-4,9.92A9.23,9.23,0,0,1,73.93,132.09Zm-4.39,5.7a1.42,1.42,0,1,1-1.42,1.42A1.42,1.42,0,0,1,69.54,137.79Zm-8-9.69a9.68,9.68,0,0,1,3.6,4A9.23,9.23,0,0,1,65.5,138C58.46,133.58,61.55,128.09,61.55,128.09Zm3.12,11.3a9.23,9.23,0,0,1-5.41,2.46,9.68,9.68,0,0,1-5.21-1.32S57.46,135.24,64.67,139.4ZM54.12,123.62a9.68,9.68,0,0,1,3.6,4,9.23,9.23,0,0,1,.35,5.93C51,129.11,54.12,123.62,54.12,123.62Zm3.12,11.3a9.23,9.23,0,0,1-5.41,2.46,9.68,9.68,0,0,1-5.21-1.32S50,130.76,57.24,134.92ZM46.68,119.14a9.68,9.68,0,0,1,3.6,4,9.23,9.23,0,0,1,.35,5.93C43.59,124.63,46.68,119.14,46.68,119.14Zm3.12,11.3a9.23,9.23,0,0,1-5.41,2.46,9.68,9.68,0,0,1-5.21-1.32S42.6,126.28,49.81,130.44ZM42.37,126A9.23,9.23,0,0,1,37,128.42a9.68,9.68,0,0,1-5.21-1.32S35.16,121.8,42.37,126Zm-7.43-4.48a9.23,9.23,0,0,1-5.41,2.46,9.68,9.68,0,0,1-5.21-1.32S27.73,117.32,34.94,121.48Z" style="fill:#bb64a7"/><path d="M126.13,37.2,76.67,8.65a14.26,14.26,0,0,0-14.26,0L13,37.2A14.26,14.26,0,0,0,5.82,49.55V96.82H8.35c0-.26-.06-.42-.06-.42a6.45,6.45,0,0,1,2.55.42H19a6.67,6.67,0,0,1,3.67-2.19,8.77,8.77,0,0,1,0,2.19h93.71a8.77,8.77,0,0,1,0-2.19A6.67,6.67,0,0,1,120,96.82h8.2a6.45,6.45,0,0,1,2.55-.42s0,.15-.06.42h2.52V49.55A14.26,14.26,0,0,0,126.13,37.2Zm-28,36.4L70.82,88.69a2.18,2.18,0,0,1-1.82.13L40.88,78.21l-.16-.38A16,16,0,0,1,40.7,67a.89.89,0,0,1,.07-.11.64.64,0,0,1,.12-.18l.06-.06s.07-.1.13-.13l12.16-6.65,4.43-2.42,10.1-5.52a3.29,3.29,0,0,1,2.68-.21L83.76,56.5l3.69,1.32,10.66,3.82a.75.75,0,0,1,.1,1.39L71,76.95a4.94,4.94,0,0,1-3.92.24l-24.63-9a14.49,14.49,0,0,0-.29,7.3,2.31,2.31,0,0,0,1.46,1.66l25.15,9.48a2.47,2.47,0,0,0,2.06-.15l25.36-14a2.26,2.26,0,0,0,1.19-2V66.67a1,1,0,0,1,2,0v5A2.26,2.26,0,0,1,98.13,73.6ZM51.52,58c2.39-3.62,8.3-13.45,9.21-18.64H54.49a1.21,1.21,0,0,1-.76-2.15L68.78,25.1a1.21,1.21,0,0,1,1.52,0L85.35,37.2a1.21,1.21,0,0,1-.76,2.15H78.36c.71,4.06,4.47,10.94,7.23,15.49L82,53.56c-2.79-4.84-6.2-11.56-6.2-15.42A1.21,1.21,0,0,1,77,36.93h4.12L69.54,27.6,57.93,36.93h4.12a1.21,1.21,0,0,1,1.21,1.21c0,4.6-4.86,13.29-7.72,18l-4.19,2.29A1.2,1.2,0,0,1,51.52,58ZM10,92.17A9.68,9.68,0,0,1,8.42,87s6.3.21,6.42,8.54A9.23,9.23,0,0,1,10,92.17Zm0-8.68a9.68,9.68,0,0,1-1.54-5.15s6.3.21,6.42,8.54A9.23,9.23,0,0,1,10,83.49Zm0-8.68a9.68,9.68,0,0,1-1.54-5.15s6.3.21,6.42,8.54A9.23,9.23,0,0,1,10,74.81Zm0-8.68A9.68,9.68,0,0,1,8.53,61s6.3.21,6.42,8.54A9.23,9.23,0,0,1,10.07,66.14Zm0-8.68a9.68,9.68,0,0,1-1.54-5.15s6.3.21,6.42,8.54A9.23,9.23,0,0,1,10.11,57.46Zm4.38-8.85a9.68,9.68,0,0,1,2.22-4.89s4.61,4.3-.77,10.65A9.23,9.23,0,0,1,14.49,48.61Zm6.87,43.61a9.23,9.23,0,0,1-4.91,3.34c.2-8.32,6.49-8.48,6.49-8.48A9.68,9.68,0,0,1,21.36,92.22Zm0-8.68a9.23,9.23,0,0,1-4.91,3.34C16.68,78.56,23,78.4,23,78.4A9.68,9.68,0,0,1,21.4,83.54Zm0-8.68a9.23,9.23,0,0,1-4.91,3.34c.2-8.32,6.49-8.48,6.49-8.48A9.68,9.68,0,0,1,21.43,74.86Zm0-8.68a9.23,9.23,0,0,1-4.91,3.34c.2-8.32,6.49-8.48,6.49-8.48A9.68,9.68,0,0,1,21.47,66.18Zm0-8.68a9.23,9.23,0,0,1-4.91,3.34c.2-8.32,6.49-8.48,6.49-8.48A9.68,9.68,0,0,1,21.51,57.51ZM116,52.37s6.3.16,6.49,8.48a9.23,9.23,0,0,1-4.91-3.34A9.68,9.68,0,0,1,116,52.37ZM116,61s6.3.16,6.49,8.48a9.23,9.23,0,0,1-4.91-3.34A9.68,9.68,0,0,1,116,61Zm0,8.68s6.3.16,6.49,8.48a9.23,9.23,0,0,1-4.91-3.34A9.68,9.68,0,0,1,116.06,69.73Zm0,8.68s6.3.16,6.49,8.48a9.23,9.23,0,0,1-4.91-3.34A9.68,9.68,0,0,1,116.1,78.4Zm1.62,13.81a9.68,9.68,0,0,1-1.58-5.14s6.3.16,6.49,8.48A9.23,9.23,0,0,1,117.72,92.22Zm5.07-48.51a9.68,9.68,0,0,1,2,5,9.23,9.23,0,0,1-1.71,5.69C118,47.79,122.79,43.7,122.79,43.7Zm7.72,8.6A9.68,9.68,0,0,1,129,57.46a9.23,9.23,0,0,1-4.88,3.39C124.22,52.52,130.51,52.31,130.51,52.31Zm0,8.68A9.68,9.68,0,0,1,129,66.14a9.23,9.23,0,0,1-4.88,3.39C124.25,61.2,130.55,61,130.55,61Zm0,8.68A9.68,9.68,0,0,1,129,74.81a9.23,9.23,0,0,1-4.88,3.39C124.29,69.88,130.59,69.66,130.59,69.66Zm0,8.68a9.68,9.68,0,0,1-1.54,5.15,9.23,9.23,0,0,1-4.88,3.39C124.33,78.55,130.63,78.34,130.63,78.34Zm-1.5,13.83a9.23,9.23,0,0,1-4.88,3.39c.12-8.32,6.42-8.54,6.42-8.54A9.68,9.68,0,0,1,129.12,92.17Z" style="fill:#bb64a7"/><path d="M129.24,116.57a14.24,14.24,0,0,1-3.11,2.43L76.67,147.56a14.26,14.26,0,0,1-14.26,0L13,119a14.24,14.24,0,0,1-3.11-2.43h-2a15.7,15.7,0,0,0,4.35,3.73l49.45,28.55a15.76,15.76,0,0,0,15.76,0l49.45-28.55a15.7,15.7,0,0,0,4.35-3.73h-2Z" style="fill:#fff"/><path d="M5.82,96.82V49.55A14.26,14.26,0,0,1,13,37.2L62.41,8.65a14.26,14.26,0,0,1,14.26,0L126.13,37.2a14.26,14.26,0,0,1,7.13,12.35V96.82h1.5V49.55a15.81,15.81,0,0,0-7.88-13.65L77.42,7.35a15.76,15.76,0,0,0-15.76,0L12.21,35.9A15.81,15.81,0,0,0,4.32,49.55V96.82h1.5Z" style="fill:#fff"/><path d="M77.53,128.09a9.68,9.68,0,0,0-3.6,4,9.23,9.23,0,0,0-.35,5.93C80.62,133.58,77.53,128.09,77.53,128.09Z" style="fill:#90278e"/><path d="M79.82,141.85A9.68,9.68,0,0,0,85,140.54s-3.41-5.3-10.62-1.14A9.23,9.23,0,0,0,79.82,141.85Z" style="fill:#90278e"/><path d="M85,123.62a9.68,9.68,0,0,0-3.6,4,9.23,9.23,0,0,0-.35,5.93C88.06,129.11,85,123.62,85,123.62Z" style="fill:#90278e"/><path d="M87.25,137.37a9.68,9.68,0,0,0,5.21-1.32s-3.41-5.3-10.62-1.14A9.23,9.23,0,0,0,87.25,137.37Z" style="fill:#90278e"/><path d="M92.4,119.14a9.68,9.68,0,0,0-3.6,4,9.23,9.23,0,0,0-.35,5.93C95.49,124.63,92.4,119.14,92.4,119.14Z" style="fill:#90278e"/><path d="M94.68,132.9a9.68,9.68,0,0,0,5.21-1.32s-3.41-5.3-10.62-1.14A9.23,9.23,0,0,0,94.68,132.9Z" style="fill:#90278e"/><path d="M107.33,127.1s-3.41-5.3-10.62-1.14a9.23,9.23,0,0,0,5.41,2.46A9.68,9.68,0,0,0,107.33,127.1Z" style="fill:#90278e"/><path d="M114.76,122.62s-3.41-5.3-10.62-1.14a9.23,9.23,0,0,0,5.41,2.46A9.68,9.68,0,0,0,114.76,122.62Z" style="fill:#90278e"/><path d="M116.14,87.08a9.68,9.68,0,0,0,1.58,5.14,9.23,9.23,0,0,0,4.91,3.34C122.44,87.24,116.14,87.08,116.14,87.08Z" style="fill:#90278e"/><path d="M124.24,95.56a9.23,9.23,0,0,0,4.88-3.39A9.68,9.68,0,0,0,130.66,87S124.37,87.23,124.24,95.56Z" style="fill:#90278e"/><path d="M122.6,86.88c-.2-8.32-6.49-8.48-6.49-8.48a9.68,9.68,0,0,0,1.58,5.14A9.23,9.23,0,0,0,122.6,86.88Z" style="fill:#90278e"/><path d="M129.09,83.49a9.68,9.68,0,0,0,1.54-5.15s-6.3.21-6.42,8.54A9.23,9.23,0,0,0,129.09,83.49Z" style="fill:#90278e"/><path d="M122.56,78.21c-.2-8.32-6.49-8.48-6.49-8.48a9.68,9.68,0,0,0,1.58,5.14A9.23,9.23,0,0,0,122.56,78.21Z" style="fill:#90278e"/><path d="M129,74.81a9.68,9.68,0,0,0,1.54-5.15s-6.3.21-6.42,8.54A9.23,9.23,0,0,0,129,74.81Z" style="fill:#90278e"/><path d="M122.52,69.53C122.32,61.21,116,61,116,61a9.68,9.68,0,0,0,1.58,5.14A9.23,9.23,0,0,0,122.52,69.53Z" style="fill:#90278e"/><path d="M129,66.14A9.68,9.68,0,0,0,130.55,61s-6.3.21-6.42,8.54A9.23,9.23,0,0,0,129,66.14Z" style="fill:#90278e"/><path d="M122.48,60.85c-.2-8.32-6.49-8.48-6.49-8.48a9.68,9.68,0,0,0,1.58,5.14A9.23,9.23,0,0,0,122.48,60.85Z" style="fill:#90278e"/><path d="M129,57.46a9.68,9.68,0,0,0,1.54-5.15s-6.3.21-6.42,8.54A9.23,9.23,0,0,0,129,57.46Z" style="fill:#90278e"/><path d="M124.79,48.69a9.68,9.68,0,0,0-2-5s-4.8,4.09.29,10.68A9.23,9.23,0,0,0,124.79,48.69Z" style="fill:#90278e"/><path d="M65.5,138a9.23,9.23,0,0,0-.35-5.93,9.68,9.68,0,0,0-3.6-4S58.46,133.58,65.5,138Z" style="fill:#90278e"/><path d="M54.05,140.54a9.68,9.68,0,0,0,5.21,1.32,9.23,9.23,0,0,0,5.41-2.46C57.46,135.24,54.05,140.54,54.05,140.54Z" style="fill:#90278e"/><path d="M58.07,133.54a9.23,9.23,0,0,0-.35-5.93,9.68,9.68,0,0,0-3.6-4S51,129.11,58.07,133.54Z" style="fill:#90278e"/><path d="M46.62,136.06a9.68,9.68,0,0,0,5.21,1.32,9.23,9.23,0,0,0,5.41-2.46C50,130.76,46.62,136.06,46.62,136.06Z" style="fill:#90278e"/><path d="M50.64,129.06a9.23,9.23,0,0,0-.35-5.93,9.68,9.68,0,0,0-3.6-4S43.59,124.63,50.64,129.06Z" style="fill:#90278e"/><path d="M39.19,131.58a9.68,9.68,0,0,0,5.21,1.32,9.23,9.23,0,0,0,5.41-2.46C42.6,126.28,39.19,131.58,39.19,131.58Z" style="fill:#90278e"/><path d="M31.75,127.1A9.68,9.68,0,0,0,37,128.42,9.23,9.23,0,0,0,42.37,126C35.16,121.8,31.75,127.1,31.75,127.1Z" style="fill:#90278e"/><path d="M34.94,121.48c-7.21-4.16-10.62,1.14-10.62,1.14a9.68,9.68,0,0,0,5.21,1.32A9.23,9.23,0,0,0,34.94,121.48Z" style="fill:#90278e"/><path d="M16.45,95.56a9.23,9.23,0,0,0,4.91-3.34,9.68,9.68,0,0,0,1.58-5.14S16.64,87.24,16.45,95.56Z" style="fill:#90278e"/><path d="M8.42,87A9.68,9.68,0,0,0,10,92.17a9.23,9.23,0,0,0,4.88,3.39C14.71,87.23,8.42,87,8.42,87Z" style="fill:#90278e"/><path d="M16.49,86.88a9.23,9.23,0,0,0,4.91-3.34A9.68,9.68,0,0,0,23,78.4S16.68,78.56,16.49,86.88Z" style="fill:#90278e"/><path d="M8.45,78.34A9.68,9.68,0,0,0,10,83.49a9.23,9.23,0,0,0,4.88,3.39C14.75,78.55,8.45,78.34,8.45,78.34Z" style="fill:#90278e"/><path d="M16.52,78.21a9.23,9.23,0,0,0,4.91-3.34A9.68,9.68,0,0,0,23,69.73S16.72,69.88,16.52,78.21Z" style="fill:#90278e"/><path d="M8.49,69.66A9.68,9.68,0,0,0,10,74.81a9.23,9.23,0,0,0,4.88,3.39C14.79,69.88,8.49,69.66,8.49,69.66Z" style="fill:#90278e"/><path d="M16.56,69.53a9.23,9.23,0,0,0,4.91-3.34A9.68,9.68,0,0,0,23.06,61S16.76,61.21,16.56,69.53Z" style="fill:#90278e"/><path d="M8.53,61a9.68,9.68,0,0,0,1.54,5.15A9.23,9.23,0,0,0,15,69.52C14.83,61.2,8.53,61,8.53,61Z" style="fill:#90278e"/><path d="M16.6,60.85a9.23,9.23,0,0,0,4.91-3.34,9.68,9.68,0,0,0,1.58-5.14S16.79,52.53,16.6,60.85Z" style="fill:#90278e"/><path d="M8.57,52.31a9.68,9.68,0,0,0,1.54,5.15A9.23,9.23,0,0,0,15,60.84C14.86,52.52,8.57,52.31,8.57,52.31Z" style="fill:#90278e"/><path d="M16.71,43.72a9.68,9.68,0,0,0-2.22,4.89,9.23,9.23,0,0,0,1.46,5.76C21.32,48,16.71,43.72,16.71,43.72Z" style="fill:#90278e"/><circle cx="69.54" cy="139.21" r="1.42" style="fill:#90278e"/><path d="M43.91,113.6c.29,0,.68-.28.85-1.15l.18-.85c-.93.31-1.62.72-1.62,1.52A.6.6,0,0,0,43.91,113.6Z" style="fill:#90278e"/><path d="M82.4,105.35c0-.49-.21-.77-.62-.77-1.38,0-2,3-2,4.18,0,.88.41,1.12,1,1.12.9,0,1.4-1.41,1.58-2.84a.6.6,0,0,1-.62-.66A1.11,1.11,0,0,1,82.4,105.35Z" style="fill:#90278e"/><path d="M39.93,105.35c0-.49-.21-.77-.62-.77-1.38,0-2,3-2,4.18,0,.88.41,1.12,1,1.12.9,0,1.4-1.41,1.58-2.84a.6.6,0,0,1-.62-.66A1.11,1.11,0,0,1,39.93,105.35Z" style="fill:#90278e"/><path d="M88.55,105.35c0-.49-.21-.77-.62-.77-1.38,0-2,3-2,4.18,0,.88.41,1.12,1,1.12.9,0,1.4-1.41,1.58-2.84a.6.6,0,0,1-.62-.66A1.11,1.11,0,0,1,88.55,105.35Z" style="fill:#90278e"/><path d="M108.42,105.35c0-.49-.21-.77-.62-.77-1.38,0-2,3-2,4.18,0,.88.41,1.12,1,1.12.9,0,1.4-1.41,1.58-2.84a.6.6,0,0,1-.62-.66A1.11,1.11,0,0,1,108.42,105.35Z" style="fill:#90278e"/><path d="M99.94,110.22c1.21,0,1.94-3.36,1.94-4.42,0-.88-.47-1.09-.84-1.09a2.19,2.19,0,0,0-.79.21l-.84,3.95a4.41,4.41,0,0,0-.12.81C99.29,110.12,99.5,110.22,99.94,110.22Z" style="fill:#90278e"/><path d="M64.78,105.33a1.08,1.08,0,0,0-.85-.63c-1.43,0-2,3.2-2,4.46,0,.71.43.93,1.08.93a1.36,1.36,0,0,0,.85-.49Z" style="fill:#90278e"/><path d="M62.41,113.6c.31,0,.68-.28.87-1.15l.1-.49c-.93.16-1.56.35-1.56,1.15A.6.6,0,0,0,62.41,113.6Z" style="fill:#90278e"/><path d="M114.58,105.35c0-.49-.21-.77-.62-.77-.75,0-1.26.88-1.58,1.87a8.5,8.5,0,0,0-.4,2.31c0,.88.41,1.12,1,1.12a1,1,0,0,0,.83-.51,5.38,5.38,0,0,0,.74-2.33.6.6,0,0,1-.62-.66A1.11,1.11,0,0,1,114.58,105.35Z" style="fill:#90278e"/><path d="M125.36,110.36a1.22,1.22,0,0,0,.95-.67,2.12,2.12,0,0,0,.28-1.09,17.75,17.75,0,0,0-.57-2.34,6.91,6.91,0,0,1-.12-1.19c-.12.38-.24.82-.37,1.26a9.59,9.59,0,0,1-.4,1.14c.35.12.49.38.49.82a.94.94,0,0,1-.22.57,1,1,0,0,1-.75.37l-.17,0-.29.33A1.08,1.08,0,0,0,125.36,110.36Z" style="fill:#90278e"/><path d="M27.71,110.12c.44,0,.74-.24,1-.92a12.64,12.64,0,0,0,.56-2.05,7.83,7.83,0,0,0,.19-1.49c0-.88-.35-1.06-.82-1.06a1.51,1.51,0,0,0-.84.31l-.38,1.79-.68,3.16A1.48,1.48,0,0,0,27.71,110.12Z" style="fill:#90278e"/><path d="M24,105.33c0-.31-.07-.82-.52-.82-.82,0-1.5,1.66-1.81,3A2.37,2.37,0,0,0,24,105.33Z" style="fill:#90278e"/><path d="M17.41,100.54a5.82,5.82,0,0,0-2.16-.36,5.2,5.2,0,0,0-.67,0,6.26,6.26,0,0,0-2,.62,5.83,5.83,0,0,0-1.52,1.08,3,3,0,0,0-1,2.07c0,1.06.56,1.43,1.58,1.43a2,2,0,0,1-.21-1,3.63,3.63,0,0,1,.47-1.84,3.16,3.16,0,0,1,1.28-1.23,4.46,4.46,0,0,1,1.67-.47c.18,0,.36,0,.55,0A1.66,1.66,0,0,1,17.27,102a5.79,5.79,0,0,1,.19,1.7s0,0,0,.06a12.35,12.35,0,0,1-.7,4c-.49,1.32-1.22,2.29-2.13,2.29a1.39,1.39,0,0,1-.84-.29l.2-.93.5-2.34.56-2.64.19-.87.15-.68.17-.81-.4.05-1.41.19-.36,0-.3,1.38-.64,3L11.86,109,11.42,111l0,.19H13.5l.12-.59a2.81,2.81,0,0,0,1.73.77h.07a3.53,3.53,0,0,0,2.77-2.07,10.52,10.52,0,0,0,1.31-5.19,5.64,5.64,0,0,0-.17-1.44A3.06,3.06,0,0,0,17.41,100.54Z" style="fill:#fff"/><path d="M27.95,111.21a2.56,2.56,0,0,0,1.22-.3c.94-.5,1.68-1.68,2-3.94a6.84,6.84,0,0,0,.09-1c0-1.52-.72-2.06-2.25-2.06a2.23,2.23,0,0,0-1,.27l.06-.28H25.91l-1,4.81a3.34,3.34,0,0,1-2.21,1.49,1.44,1.44,0,0,1-.49-.09,1.12,1.12,0,0,1-.72-1.18,5.22,5.22,0,0,1,0-.63A4.6,4.6,0,0,0,24,107.13a2.53,2.53,0,0,0,.87-1.87,1.38,1.38,0,0,0-.49-1.15,2.22,2.22,0,0,0-1.39-.38,3,3,0,0,0-2.72,1.84,7.65,7.65,0,0,0-.75,3.31,2.19,2.19,0,0,0,1.6,2.27h0a2.41,2.41,0,0,0,.58.07,4.15,4.15,0,0,0,3-1.39l-.87,4.1-.21,1,2.22-.53.08-.4v0l.67-3.16A2.56,2.56,0,0,0,27.95,111.21Zm-4.49-6.7c.44,0,.52.52.52.82a2.37,2.37,0,0,1-2.33,2.22C22,106.17,22.63,104.51,23.45,104.51Zm4.36.4a1.51,1.51,0,0,1,.84-.31c.47,0,.82.18.82,1.06a7.83,7.83,0,0,1-.19,1.49,12.64,12.64,0,0,1-.56,2.05c-.28.68-.58.92-1,.92a1.48,1.48,0,0,1-1-.27l.68-3.16Z" style="fill:#fff"/><path d="M50.38,101.92a1.16,1.16,0,0,0,1.16,1.16,1.17,1.17,0,0,0,1.18-1.16,1.18,1.18,0,0,0-1.18-1.18A1.17,1.17,0,0,0,50.38,101.92Z" style="fill:#fff"/><path d="M62.75,114.91a2.43,2.43,0,0,0,2-1,3.78,3.78,0,0,0,.65-1.53l1.8-8.54H65.09l-.15.71a1.37,1.37,0,0,0-1.18-.69c-2.86,0-3.64,3.53-3.64,5.57a2.67,2.67,0,0,0,0,.27.92.92,0,0,1-.52.17c-.57,0-.74-.22-.74-.54a1.85,1.85,0,0,1,.07-.47l.6-2.81a1.44,1.44,0,0,0,0-.35,1.89,1.89,0,0,0-1.69-1.84,3.49,3.49,0,0,0-1.93.79l.18-.79H54l-1.17,5.51a1.9,1.9,0,0,1-1,.52c-.59,0-.74-.24-.74-.56a2.78,2.78,0,0,1,.06-.46l1.06-5H50.1l-1.06,5c0,.06,0,.1,0,.16a4.9,4.9,0,0,1-1.68,1.28l1.37-6.45H46.59l-1.16,5.45a2,2,0,0,1-1.1.57c-.59,0-.74-.24-.74-.56a2.78,2.78,0,0,1,.06-.46l1.06-5H42.59l-.41,1.93a1.34,1.34,0,0,1-.71.22.57.57,0,0,1-.43-.13c0-1.07-.38-2.16-1.78-2.16-2,0-3.87,1.56-3.87,5.18a5.29,5.29,0,0,0,0,.54,1.75,1.75,0,0,1-.94.45c-.57,0-.74-.22-.74-.54a2.67,2.67,0,0,1,.07-.47l1.69-8-2.18.29-1.63,7.66a3.68,3.68,0,0,0-.09.75,1.87,1.87,0,0,0,.13.73,1.54,1.54,0,0,0,1.45.86h.24A3.8,3.8,0,0,0,35.51,110c.26.93.94,1.31,2.12,1.31,1.47,0,3.08-1.46,3.36-4.42a4.49,4.49,0,0,0,1-.44l-.51,2.42a3.68,3.68,0,0,0-.09.75c0,1.1.71,1.6,1.84,1.6a3.55,3.55,0,0,0,2-1.12l-.21,1c-1.4.41-2.53.85-2.53,2.21a1.5,1.5,0,0,0,.13.62,1.74,1.74,0,0,0,1.61,1,2.38,2.38,0,0,0,2-1,3.85,3.85,0,0,0,.64-1.53L47.2,111a4.75,4.75,0,0,0,1.83-.84c.2.73.84,1.08,1.77,1.08a3.44,3.44,0,0,0,1.9-1l-.22,1h2.12l1.25-5.95a1.56,1.56,0,0,1,.93-.31c.4,0,.68.34.68.87a1.81,1.81,0,0,1,0,.38l-.56,2.65a3.56,3.56,0,0,0-.09.75c0,1.1.68,1.6,1.83,1.6a2.71,2.71,0,0,0,1.7-.94,1.62,1.62,0,0,0,1.67,1,2.7,2.7,0,0,0,1.69-.62l-.18.8c-1.37.27-2.46.49-2.46,1.83a1.5,1.5,0,0,0,.13.62A1.74,1.74,0,0,0,62.75,114.91ZM39.91,107c-.18,1.43-.68,2.84-1.58,2.84-.57,0-1-.24-1-1.12,0-1.18.59-4.18,2-4.18.41,0,.57.28.62.77a1.11,1.11,0,0,0-.65,1A.6.6,0,0,0,39.91,107Zm5,4.55-.18.85c-.18.87-.56,1.15-.85,1.15a.6.6,0,0,1-.59-.49C43.32,112.31,44,111.9,44.94,111.59ZM63,110.09c-.65,0-1.08-.22-1.08-.93,0-1.27.56-4.46,2-4.46a1.08,1.08,0,0,1,.85.63l-.91,4.27A1.36,1.36,0,0,1,63,110.09Zm.37,1.87-.1.49c-.19.87-.56,1.15-.87,1.15a.6.6,0,0,1-.59-.49C61.82,112.31,62.46,112.12,63.38,112Z" style="fill:#fff"/><path d="M94,108.87a3.07,3.07,0,0,0-.1.78c0,1.08.71,1.58,1.84,1.58a2.69,2.69,0,0,0,1.59-.88c.33.68,1.16.92,2.27.92,2.64,0,3.9-3.25,3.9-5.57a1.74,1.74,0,0,0-1.87-1.87,2.14,2.14,0,0,0-1.27.43l.71-3.34-2.18.29-1.63,7.66a3.41,3.41,0,0,0-.09.72c0,.06,0,.11,0,.17a.82.82,0,0,1-.4.12c-.57,0-.74-.22-.74-.54a1.85,1.85,0,0,1,.07-.47l.21-.84a1.58,1.58,0,0,0,0-.37,1.9,1.9,0,0,0-1.71-1.83,1.71,1.71,0,0,0-.38,0l3-2H95.71s-1.74,1.33-2.84,2.21l1.1-5.15-2.18.29-1,4.57a1.35,1.35,0,0,1-.73.23.57.57,0,0,1-.43-.13c0-1.07-.38-2.16-1.78-2.16a3.52,3.52,0,0,0-3.24,2.08,1.34,1.34,0,0,1-.71.22.57.57,0,0,1-.43-.13c0-1.07-.38-2.16-1.78-2.16-2,0-3.81,1.52-3.86,5A3.13,3.13,0,0,1,75.24,110c-1.59,0-1.94-.82-1.94-2.75,0-2.62,1.16-6.36,3-6.36a1,1,0,0,1,1,1c0,.37-.28,1.1-.65,1.21a1.06,1.06,0,0,0,.84.38c.75,0,1-.57,1-1.35,0-1.43-1.19-2-2.56-2-3.92,0-5,4.17-5,7.38,0,3,1.72,3.75,3.22,3.75a4.26,4.26,0,0,0,3.68-1.74c.17,1.24.86,1.74,2.21,1.74s3.08-1.46,3.36-4.42a4.48,4.48,0,0,0,.87-.36A7.82,7.82,0,0,0,84,108.9c0,1.75.68,2.42,2.25,2.42s3.08-1.46,3.36-4.42a4.49,4.49,0,0,0,1.07-.46l-1,4.79h2.12l.84-4a1.59,1.59,0,0,1,.94-.32c.4,0,.68.34.68.87a1.81,1.81,0,0,1,0,.38Zm5.38,0,.84-3.95a2.19,2.19,0,0,1,.79-.21c.37,0,.84.21.84,1.09,0,1.06-.74,4.42-1.94,4.42-.44,0-.65-.1-.65-.54A4.41,4.41,0,0,1,99.41,108.87Zm-17-1.83c-.18,1.43-.68,2.84-1.58,2.84-.57,0-1-.24-1-1.12,0-1.18.59-4.18,2-4.18.41,0,.57.28.62.77a1.11,1.11,0,0,0-.65,1A.6.6,0,0,0,82.37,107Zm6.16,0c-.18,1.43-.68,2.84-1.58,2.84-.57,0-1-.24-1-1.12,0-1.18.59-4.18,2-4.18.41,0,.57.28.62.77a1.11,1.11,0,0,0-.65,1A.6.6,0,0,0,88.52,107Z" style="fill:#fff"/><path d="M127.57,110.82a2.39,2.39,0,0,0,1.17-2.15,4.22,4.22,0,0,0-.27-1.45c-.09-.27-.2-.54-.31-.83a6.73,6.73,0,0,1-.5-2.59v-.21l-2.13.44a21.8,21.8,0,0,1-.65,2.44,7.2,7.2,0,0,1-.39.94.91.91,0,0,0-.49.21,2.08,2.08,0,0,0-.63,1.68,3,3,0,0,0,0,.37,1,1,0,0,1-.55.22c-.57,0-.74-.22-.74-.54a1.85,1.85,0,0,1,.07-.47l.21-.84a1.53,1.53,0,0,0,0-.27s0-.06,0-.1a1.9,1.9,0,0,0-1.71-1.83,1.71,1.71,0,0,0-.38,0l3-2h-1.59s-1.73,1.32-2.83,2.2h0v0l.73-3.42.37-1.71-1.89.26-.29,0-.28,1.33-.69,3.24a1.35,1.35,0,0,1-.73.23.57.57,0,0,1-.43-.13,2.11,2.11,0,0,0-1-2,1.87,1.87,0,0,0-.83-.18,3.52,3.52,0,0,0-3.24,2.08,1.34,1.34,0,0,1-.71.22.57.57,0,0,1-.43-.13c0-1.07-.38-2.16-1.78-2.16-2,0-3.87,1.56-3.87,5.18,0,1.63.59,2.31,1.94,2.4l.32,0a2.56,2.56,0,0,0,1.42-.48,5.15,5.15,0,0,0,1.94-3.94,4.48,4.48,0,0,0,.87-.36,7.82,7.82,0,0,0-.33,2.36,4.27,4.27,0,0,0,.1,1c.24,1,.91,1.43,2.15,1.43a2.63,2.63,0,0,0,1.67-.65,4.84,4.84,0,0,0,1.51-2.68,8,8,0,0,0,.18-1.09,4.49,4.49,0,0,0,1.07-.46l-.57,2.68-.45,2.1h2.12l0-.19.8-3.77a2.39,2.39,0,0,1,.29-.15,1.42,1.42,0,0,1,.66-.17c.4,0,.68.34.68.87a1.81,1.81,0,0,1,0,.38l-.16.68a3.07,3.07,0,0,0-.1.78,1.66,1.66,0,0,0,.2.82,1.73,1.73,0,0,0,1.64.76,2.91,2.91,0,0,0,1.73-1,1.51,1.51,0,0,0,1,.84,4.63,4.63,0,0,0,1.31.16A3.3,3.3,0,0,0,127.57,110.82ZM108.39,107c-.18,1.43-.68,2.84-1.58,2.84-.57,0-1-.24-1-1.12,0-1.18.59-4.18,2-4.18.41,0,.57.28.62.77a1.11,1.11,0,0,0-.65,1A.6.6,0,0,0,108.39,107Zm6.16,0a5.38,5.38,0,0,1-.74,2.33,1,1,0,0,1-.83.51c-.57,0-1-.24-1-1.12a8.5,8.5,0,0,1,.4-2.31c.32-1,.83-1.87,1.58-1.87.41,0,.57.28.62.77a1.11,1.11,0,0,0-.65,1A.6.6,0,0,0,114.55,107Zm9.63,2.5.29-.33.17,0a1,1,0,0,0,.75-.37.94.94,0,0,0,.22-.57c0-.44-.13-.71-.49-.82a9.59,9.59,0,0,0,.4-1.14c.13-.44.25-.88.37-1.26a6.91,6.91,0,0,0,.12,1.19,17.75,17.75,0,0,1,.57,2.34,2.12,2.12,0,0,1-.28,1.09,1.22,1.22,0,0,1-.95.67A1.08,1.08,0,0,1,124.18,109.54Z" style="fill:#fff"/><path d="M63.26,38.14a1.21,1.21,0,0,0-1.21-1.21H57.93L69.54,27.6l11.62,9.33H77a1.21,1.21,0,0,0-1.21,1.21c0,3.85,3.41,10.57,6.2,15.42l3.56,1.28c-2.75-4.55-6.52-11.43-7.23-15.49h6.23a1.21,1.21,0,0,0,.76-2.15L70.3,25.1a1.21,1.21,0,0,0-1.52,0L53.73,37.2a1.21,1.21,0,0,0,.76,2.15h6.23c-.91,5.18-6.82,15-9.21,18.64a1.2,1.2,0,0,0-.17.43l4.19-2.29C58.4,51.43,63.26,42.74,63.26,38.14Z" style="fill:#fff"/><path d="M81.65,64.43l3.49-2.06a.39.39,0,0,0,0-.72L80,59.87l-6.86-2.42L69.61,56.2a1.87,1.87,0,0,0-1.47.1l-2.27,1.16-1.18.6a.39.39,0,0,0,.06.72l2.9,1.1,12.43,4.7A1.82,1.82,0,0,0,81.65,64.43Z" style="fill:#bb64a7"/><path d="M99.32,66.67a1,1,0,0,0-2,0v3.86a2.26,2.26,0,0,1-1.19,2l-25.36,14a2.47,2.47,0,0,1-2.06.15L43.57,77.18a2.31,2.31,0,0,1-1.46-1.66,14.49,14.49,0,0,1,.29-7.3l24.63,9A4.94,4.94,0,0,0,71,76.95L98.21,63a.75.75,0,0,0-.1-1.39L87.46,57.82,83.76,56.5,70.45,51.72a3.29,3.29,0,0,0-2.68.21l-10.1,5.52-4.43,2.42L41.08,66.51c-.06,0-.08.09-.13.13l-.06.06a.64.64,0,0,0-.12.18.89.89,0,0,0-.07.11,16,16,0,0,0,0,10.83l.16.38L69,88.82a2.18,2.18,0,0,0,1.82-.13L98.13,73.6a2.26,2.26,0,0,0,1.19-2Zm-34.56-7.9a.39.39,0,0,1-.06-.72l1.18-.6,2.27-1.16a1.87,1.87,0,0,1,1.47-.1l3.55,1.25L80,59.87l5.07,1.79a.39.39,0,0,1,0,.72l-3.49,2.06a1.82,1.82,0,0,1-1.56.13l-12.43-4.7Z" style="fill:#fff"/></g></g></svg>