<?xml version="1.0" encoding="utf-8"?>
<!-- Generator: Adobe Illustrator 22.0.1, SVG Export Plug-In . SVG Version: 6.00 Build 0)  -->
<svg version="1.1" id="Layer_1" xmlns="http://www.w3.org/2000/svg" xmlns:xlink="http://www.w3.org/1999/xlink" x="0px" y="0px"
	 viewBox="0 0 682.4 603.7" style="enable-background:new 0 0 682.4 603.7;" xml:space="preserve">
<style type="text/css">
	.st0{fill:url(#SVGID_1_);}
	.st1{fill:url(#SVGID_2_);}
	.st2{fill:url(#SVGID_3_);}
</style>
<g>
	<linearGradient id="SVGID_1_" gradientUnits="userSpaceOnUse" x1="105.0026" y1="302.8005" x2="573.3882" y2="302.8005">
		<stop  offset="1.702724e-02" style="stop-color:#D8A872"/>
		<stop  offset="0.633" style="stop-color:#63B5AF"/>
		<stop  offset="1" style="stop-color:#21BCD1"/>
	</linearGradient>
	<path class="st0" d="M572.7,522.9L498,342.6c-1.9-4.6-7.2-6.8-11.8-4.9c-4.6,1.9-6.8,7.2-4.9,11.8l67.5,163l-61.6-17.8
		c-4-1.2-8.4,0.6-10.4,4.3L446,555.1l-72.4-174.9c83.6-16.1,146.9-89.8,146.9-178.1c0-100-81.4-181.3-181.3-181.3
		s-181.3,81.4-181.3,181.3c0,40.5,13.3,77.9,35.9,108.2l-88,212.6c-1.3,3.2-0.7,6.9,1.6,9.4c2.3,2.6,5.9,3.6,9.2,2.6l72.6-21
		l36.5,66.2c1.6,2.9,4.6,4.7,7.9,4.7c0.2,0,0.3,0,0.5,0c3.5-0.2,6.5-2.3,7.8-5.5l69.8-168.4c1.9-4.6-0.3-9.9-4.9-11.8
		c-4.6-1.9-9.9,0.3-11.8,4.9l-62.6,151.1l-30.9-56.2c-2-3.7-6.4-5.5-10.4-4.3l-61.6,17.8l77.3-186.6c33.1,35.4,80.2,57.6,132.4,57.6
		c5.4,0,10.7-0.3,16-0.7l81.4,196.5c1.3,3.2,4.4,5.3,7.8,5.5c0.2,0,0.3,0,0.5,0c3.3,0,6.3-1.8,7.9-4.7l36.5-66.2l72.6,21
		c3.3,1,6.9-0.1,9.2-2.6C573.4,529.7,574,526,572.7,522.9L572.7,522.9z M175.9,202.1c0-90.1,73.3-163.3,163.3-163.3
		s163.3,73.3,163.3,163.3c0,90.1-73.3,163.3-163.3,163.3S175.9,292.2,175.9,202.1L175.9,202.1z M175.9,202.1"/>
	<linearGradient id="SVGID_2_" gradientUnits="userSpaceOnUse" x1="234.7622" y1="192.5631" x2="443.6271" y2="192.5631">
		<stop  offset="1.702724e-02" style="stop-color:#D8A872"/>
		<stop  offset="0.633" style="stop-color:#63B5AF"/>
		<stop  offset="1" style="stop-color:#21BCD1"/>
	</linearGradient>
	<path class="st1" d="M443.2,168.4c-1-3.2-3.8-5.5-7.1-6.1l-60.6-10.2l-28.4-54.5c-1.5-3-4.6-4.8-8-4.8c-3.4,0-6.4,1.9-8,4.8
		l-28.4,54.5l-60.6,10.2c-3.3,0.6-6,2.9-7.1,6.1c-1,3.2-0.2,6.7,2.1,9.1l43,43.8l-9,60.7c-0.5,3.3,0.9,6.6,3.6,8.6
		c2.7,2,6.3,2.3,9.3,0.8l55-27.4l55,27.4c1.3,0.6,2.6,0.9,4,0.9c1.9,0,3.7-0.6,5.3-1.7c2.7-2,4.1-5.3,3.6-8.6l-9-60.7l43-43.8
		C443.4,175,444.2,171.5,443.2,168.4L443.2,168.4z M382,211.8c-2,2-2.9,4.8-2.5,7.6l7.2,48.1l-43.5-21.7c-1.3-0.6-2.6-0.9-4-0.9
		c-1.4,0-2.7,0.3-4,0.9l-43.5,21.7l7.2-48.1c0.4-2.8-0.5-5.6-2.5-7.6l-34.1-34.7l47.9-8c2.8-0.5,5.2-2.2,6.5-4.7l22.5-43.1
		l22.5,43.1c1.3,2.5,3.7,4.2,6.5,4.7l47.9,8L382,211.8z M382,211.8"/>
	<linearGradient id="SVGID_3_" gradientUnits="userSpaceOnUse" x1="193.853" y1="202.1428" x2="483.3487" y2="202.1428">
		<stop  offset="1.702724e-02" style="stop-color:#D8A872"/>
		<stop  offset="0.633" style="stop-color:#63B5AF"/>
		<stop  offset="1" style="stop-color:#21BCD1"/>
	</linearGradient>
	<path class="st2" d="M475.5,211.2c-4.9-0.7-9.5,2.8-10.1,7.7c-8.3,63-62.6,110.5-126.2,110.5c-70.2,0-127.3-57.1-127.3-127.3
		c0-70.2,57.1-127.3,127.3-127.3c63.6,0,117.9,47.5,126.2,110.5c0.7,4.9,5.2,8.4,10.1,7.7c4.9-0.7,8.4-5.2,7.7-10.1
		C473.7,111,411.8,56.8,339.2,56.8c-80.1,0-145.3,65.2-145.3,145.3c0,80.1,65.2,145.3,145.3,145.3c72.6,0,134.5-54.2,144.1-126.2
		C483.9,216.4,480.5,211.9,475.5,211.2L475.5,211.2z M475.5,211.2"/>
</g>
</svg>
