<?xml version="1.0"?><svg width="744.09448" height="1052.3622" xmlns="http://www.w3.org/2000/svg" xmlns:xlink="http://www.w3.org/1999/xlink">
 <g>
  <title>Layer 1</title>
  <g id="layer1">
   <path fill="#000000" stroke-width="5" stroke-linecap="round" stroke-miterlimit="4" id="path5065" d="m344.112976,313.147186c-26.959656,103.389465 -57.383606,229.719757 -84.344269,333.108368c-100.424301,-61.338379 -170.465851,-11.483093 -160.340515,58.720825c6.497856,45.050293 96.075134,93.284485 181.549927,19.736816c15.888092,-68.550781 44.497375,-181.565247 66.162598,-270.254791l158.335754,99.11026c-16.158661,64.249512 -32.036194,128.079163 -49.432861,194.794678c-100.424316,-61.339294 -170.534943,-11.496704 -160.409607,58.706421c6.496857,45.051208 96.089508,93.223511 181.56427,19.675842l97.010773,-370.860809c-0.644897,-0.144775 -1.289795,-0.285278 -1.934631,-0.430023l0.199585,-0.219269c-13.89679,-9.66394 -214.519836,-138.975647 -228.361023,-142.088318l0,0zm18.907196,76.544464l158.459564,100.997192c-2.409668,9.420959 -4.745483,18.743744 -7.110962,28.075806l-158.549896,-99.729919c2.046967,-8.562592 5.476776,-21.900452 7.201294,-29.343079z"/>
  </g>
  <g transform="rotate(-25.7792, 244.208, 304.871)" id="svg_1">
   <path id="svg_2" fill="#007f00" stroke-width="5" stroke-linecap="round" stroke-miterlimit="4" d="m246.312546,233.389252c-7.29631,26.797943 -15.529877,59.542175 -22.826187,86.340118c-27.178055,-15.898743 -46.133408,-2.976379 -43.393219,15.220093c1.758469,11.67688 26.000839,24.178894 49.133163,5.115631c4.299744,-17.767975 12.042206,-47.060699 17.90567,-70.048767l42.850571,25.689056c-4.373077,16.653137 -8.669922,33.19754 -13.378113,50.489685c-27.178024,-15.898773 -46.152206,-2.979767 -43.411987,15.216644c1.758408,11.67688 26.004822,24.163025 49.137146,5.099731l26.25415,-96.125336c-0.1745,-0.037567 -0.34903,-0.073853 -0.523529,-0.11145l0.053864,-0.056824c-3.760956,-2.504791 -58.055801,-36.021851 -61.801529,-36.828583zm5.116821,19.840027l42.884262,26.177948c-0.652161,2.441772 -1.284515,4.858185 -1.924652,7.276978l-42.908417,-25.849365c0.553757,-2.21936 1.48204,-5.676636 1.948807,-7.60556z"/>
  </g>
  <g id="svg_5">
   <path id="svg_6" fill="#ff0000" stroke-width="5" stroke-linecap="round" stroke-miterlimit="4" d="m546.760498,786.18335c-7.296265,28.22406 -15.529846,62.710815 -22.826172,90.934814c-27.17804,-16.744812 -46.133453,-3.134766 -43.393188,16.030029c1.758423,12.298279 26.000854,25.465637 49.133179,5.387878c4.299683,-18.713501 12.042175,-49.565063 17.90564,-73.776489l42.850586,27.056152c-4.373108,17.539368 -8.669922,34.964172 -13.378113,53.176514c-27.17804,-16.744812 -46.152222,-3.138367 -43.411987,16.026428c1.758362,12.298279 26.004822,25.448853 49.137146,5.371155l26.25415,-101.240784c-0.1745,-0.039551 -0.348999,-0.077759 -0.52356,-0.117371l0.053894,-0.059875c-3.760925,-2.638062 -58.055847,-37.938721 -61.801575,-38.788452zm5.116882,20.895874l42.884216,27.571045c-0.652161,2.571716 -1.284546,5.116699 -1.924622,7.664185l-42.908447,-27.224915c0.553772,-2.337463 1.482056,-5.97876 1.948853,-8.010315z" transform="rotate(22.2931, 544.656, 861.471)"/>
  </g>
  <g transform="rotate(28.0086, 430.4, 244.867)" id="svg_7">
   <path id="svg_8" fill="#7f00ff" stroke-width="5" stroke-linecap="round" stroke-miterlimit="4" d="m432.302094,182.382355c-6.589539,23.424927 -14.025604,52.047714 -20.615173,75.472656c-24.545471,-13.897614 -41.664734,-2.601776 -39.189972,13.304352c1.588135,10.207123 23.4823,21.135529 44.373932,4.47171c3.88324,-15.531525 10.875763,-41.137222 16.171265,-61.231842l38.69989,22.455643c-3.949493,14.557053 -7.830109,29.019028 -12.082245,44.134628c-24.545441,-13.897614 -41.681732,-2.604736 -39.20694,13.301361c1.588074,10.207123 23.485901,21.121674 44.377563,4.457855l23.71106,-84.026245c-0.157593,-0.032837 -0.315216,-0.06456 -0.472809,-0.097412l0.048645,-0.049698c-3.396667,-2.189499 -52.432312,-31.487823 -55.815216,-32.193008zm4.621216,17.342773l38.730286,22.882996c-0.588989,2.134445 -1.160095,4.246674 -1.73819,6.361023l-38.752167,-22.595734c0.500122,-1.940002 1.33847,-4.962143 1.760071,-6.648285z"/>
  </g>
  <use x="2361" y="-126" transform="matrix(0.333333, 0, 0, 0.333333, 0, 0)" xlink:href="#svg_15" id="svg_16"/>
 </g>
 <defs>
  <symbol id="svg_15" height="1052.3622" width="744.09448">
   <g>
    <title>Layer 1</title>
    <g id="svg_13">
     <path fill="#000000" stroke-width="5" stroke-linecap="round" stroke-miterlimit="4" id="svg_14" d="m376.440002,234.147003c-28.093018,122.134003 -59.79599,271.368011 -87.890015,393.501007c-104.645981,-72.458984 -177.631989,-13.565002 -167.080986,69.367004c6.771004,53.217957 100.113991,110.19696 189.181999,23.315002c16.556,-80.979004 46.368011,-214.483032 68.944,-319.252014l164.991974,117.078979c-16.837952,75.89801 -33.382965,151.299988 -51.510986,230.111023c-104.645996,-72.460022 -177.703979,-13.580994 -167.152985,69.349976c6.769989,53.218994 100.128998,110.125 189.196991,23.243042l101.088989,-438.098022c-0.671997,-0.17099 -1.343994,-0.337006 -2.015991,-0.507996l0.208008,-0.259003c-14.481018,-11.416016 -223.537994,-164.171997 -237.960999,-167.848999l0,0zm19.701996,90.421997l165.121002,119.308014c-2.510986,11.128998 -4.945007,22.141998 -7.409973,33.165985l-165.215027,-117.811005c2.132996,-10.11499 5.707001,-25.871002 7.503998,-34.662994z"/>
    </g>
    <g transform="rotate(-25.779199600219727 120.16572570800801,200.9935760498047) " id="svg_11">
     <path id="svg_12" fill="#000000" stroke-width="5" stroke-linecap="round" stroke-miterlimit="4" d="m123.509918,120.851501c-7.29631,28.223999 -15.529877,62.710754 -22.826187,90.934784c-27.178055,-16.744812 -46.133411,-3.134766 -43.393223,16.030029c1.758472,12.298279 26.000843,25.465607 49.133175,5.387878c4.299736,-18.713531 12.042198,-49.565063 17.90567,-73.776489l42.850548,27.056122c-4.373062,17.539368 -8.669907,34.964172 -13.378098,53.176544c-27.178017,-16.744843 -46.152206,-3.138367 -43.411987,16.026398c1.7584,12.298309 26.004837,25.448883 49.137161,5.371155l26.25415,-101.240753c-0.1745,-0.039581 -0.34903,-0.077789 -0.523529,-0.117371l0.053864,-0.059875c-3.760956,-2.638062 -58.055809,-37.938766 -61.801544,-38.788422zm5.116821,20.895813l42.884262,27.571045c-0.652161,2.571716 -1.284531,5.116699 -1.924652,7.664215l-42.908417,-27.224945c0.553757,-2.337463 1.48204,-5.978729 1.948807,-8.010315z"/>
    </g>
    <g id="svg_9">
     <path id="svg_10" fill="#000000" stroke-width="5" stroke-linecap="round" stroke-miterlimit="4" d="m580.760498,851.18335c-7.296265,28.22406 -15.529846,62.710815 -22.826172,90.934814c-27.17804,-16.744812 -46.133453,-3.134766 -43.393188,16.030029c1.758423,12.298279 26.000854,25.465637 49.133179,5.387878c4.299683,-18.713501 12.042175,-49.565063 17.90564,-73.776489l42.850586,27.056152c-4.373108,17.539368 -8.669922,34.964172 -13.378113,53.176514c-27.17804,-16.744812 -46.152222,-3.138367 -43.411987,16.026428c1.758362,12.298279 26.004822,25.448853 49.137146,5.371155l26.25415,-101.240784c-0.1745,-0.039551 -0.348999,-0.077759 -0.52356,-0.117371l0.053894,-0.059875c-3.760925,-2.638062 -58.055847,-37.938721 -61.801575,-38.788452zm5.116882,20.895874l42.884216,27.571045c-0.652161,2.571716 -1.284546,5.116699 -1.924622,7.664185l-42.908447,-27.224915c0.553772,-2.337463 1.482056,-5.97876 1.948853,-8.010315z" transform="rotate(22.293100357055664 578.6549072265634,926.4698486328123) "/>
    </g>
    <g transform="rotate(28.00860023498535 433.66693115234375,94.49270629882815) " id="svg_3">
     <path id="svg_4" fill="#3f007f" stroke-width="5" stroke-linecap="round" stroke-miterlimit="4" d="m437.011139,14.35063c-7.296295,28.224001 -15.529877,62.710772 -22.826202,90.934793c-27.17804,-16.74482 -46.133392,-3.134773 -43.393188,16.030014c1.758453,12.298286 26.000824,25.465614 49.133148,5.387886c4.299744,-18.713531 12.042206,-49.565063 17.90567,-73.776493l42.850555,27.056141c-4.373077,17.53936 -8.669891,34.964157 -13.378082,53.176529c-27.17804,-16.744843 -46.152222,-3.138367 -43.411987,16.026398c1.758392,12.298309 26.004822,25.448883 49.137146,5.371155l26.25415,-101.240753c-0.1745,-0.039581 -0.34903,-0.077789 -0.523529,-0.117371l0.053864,-0.059879c-3.760956,-2.638058 -58.055817,-37.93876 -61.801544,-38.78842zm5.116852,20.895811l42.884216,27.571049c-0.652161,2.571724 -1.284515,5.116699 -1.924622,7.664207l-42.908447,-27.224937c0.553772,-2.33746 1.482056,-5.978729 1.948853,-8.010319z"/>
    </g>
   </g>
  </symbol>
 </defs>
</svg>