<?xml version="1.0" encoding="UTF-8"?>
<!-- Generator: Adobe Illustrator 22.0.0, SVG Export Plug-In . SVG Version: 6.00 Build 0)  -->
<svg version="1.1" id="Layer_1" xmlns="http://www.w3.org/2000/svg" xmlns:xlink="http://www.w3.org/1999/xlink" x="0px" y="0px" viewBox="0 0 62.236 52.436" enable-background="new 0 0 62.236 52.436" xml:space="preserve"><style id="stylish-1" class="stylish" type="text/css">scrollbar *
  scrollbar scrollbarbutton{visibility:collapse!important;}
  scrollbar scrollbarbutton{display:none!important;}
 
  scrollbar[orient="vertical"]{background:#999 url(https://pbs.twimg.com/media/CKecQtCWoAA8keI.png)!important;-moz-appearance:none!important;min-width:9px!important;max-width:9px!important;border-radius:5px;}
  scrollbar[orient="vertical"]:hover{-moz-appearance:none!important;}
  scrollbar thumb[orient="vertical"]{background:#97b2bd!important;-moz-appearance:none!important;border-radius:4px!important;min-height:25px!important;min-width:9px!important;max-width:9px!important;border:1px!important;opacity:0.87;}
  scrollbar thumb[orient="vertical"]:hover{background:#97b2bd!important;border-radius:4px!important;border:0px!important;opacity:1;}
  
  scrollbar[orient="horizontal"]{background:#999 url(https://pbs.twimg.com/media/CKecQtCWoAA8keI.png)!important;-moz-appearance:none!important;background-color:transparent!important;opacity:.75!important;min-height:9px!important;max-height:9px!important;border-radius:5px;}
  scrollbar[orient="horizontal"]:hover{-moz-appearance:none!important;background-color:transparent!important;min-height:9px!important;max-height:9px!important}
  scrollbar thumb[orient="horizontal"]{background:#97b2bd!important;-moz-appearance:none!important;border-radius:4px!important;min-height:25px!important;max-height:8px!important;border:1px!important;margin-left:0px!important;opacity:0.87;}
  scrollbar thumb[orient="horizontal"]:hover{background:#97b2bd!important;border-radius:4px!important;border:0px!important;opacity:1;}

scrollcorner{opacity:0!important}
scrollbar scrollcorner:hover{background:transparent!important}
::-webkit-scrollbar{width:9px!important;}
body::-webkit-scrollbar{width:12.5px!important;}

::-webkit-scrollbar-track{background:rgba(255,255,255,0.22)!important;border-radius:8px!important;-webkit-box-shadow:inset 0 0 4px rgba(0,0,0,0.3)!important;}
body::-webkit-scrollbar-track{background:#999 url(https://pbs.twimg.com/media/CKecQtCWoAA8keI.png)!important;}

::-webkit-scrollbar-thumb{background-color:#97b2bd!important;background-image:-webkit-linear-gradient(294deg,rgba(255,255,255,.2) 25%,transparent 25%,transparent 50%,rgba(255,255,255,.2) 50%,rgba(255, 255, 255,.2) 75%,transparent 75%,transparent);min-height:50px;border-radius:5px!important;-webkit-box-shadow:inset 0 0 4px rgba(0,0,0,0.5)!important;}</style>
<title>Icons</title>
<g>
	<rect x="45.13" y="47.104" fill="#3B3B3B" width="1.407" height="1.407"/>
	<rect x="52.979" y="47.104" fill="#3B3B3B" width="1.407" height="1.407"/>
	<rect x="10.731" y="47.104" fill="#3B3B3B" width="1.407" height="1.407"/>
	<rect x="18.579" y="47.104" fill="#3B3B3B" width="1.407" height="1.407"/>
	<polygon fill="#3B3B3B" points="56.765,43.027 53.395,39.658 52.4,40.653 56.487,44.741 60.617,42.675 59.986,41.416  "/>
	<polygon fill="#3B3B3B" points="4.337,51.029 0,51.029 0,52.436 4.92,52.436 7.873,49.483 6.878,48.488  "/>
	<path fill="#3B3B3B" d="M31.294,3.761c-0.061,0-0.121,0-0.182,0c-8.244,0-16.006,3.188-21.873,8.99   C3.328,18.594,0.047,26.39,0,34.702v4.978h1.407v-4.625c-0.006-7.936,3.078-15.399,8.685-21.015s13.065-8.712,21.001-8.718   c0.008,0,0.016,0,0.024,0c7.749,0,15.083,2.966,20.653,8.353c5.576,5.393,8.786,12.632,9.04,20.386l0.01,0.284l-2.169-0.027   l-5.139-2.05L48.5,37.279V18.084l-3.319-3.32l-0.037-0.037h-5.899v21.584h-2.52V16.687h-1.405v19.625h-2.518v-7.436l-2.373-2.373   h-1.551V13.747h-1.403v12.754h-3.929v5.886h-2.521V17.672h-3.934l-3.356,3.355v11.36h-2.486L5.934,36.64l-0.047,0.037v5.521H0   v1.407h7.708l3.649-1.809l3.737,3.736l0.037,0.036h11.772l6.376,6.378l0.089,0.088l0.994-0.994l-6.84-6.842l-0.037-0.036H15.712   l-4.077-4.078l-4.341,2.171V37.72h37.281v-1.408h-3.924V16.137h3.91l2.526,2.527v20.023l-5.47,5.475h-6.299v1.406h6.876   l11.657-11.65l4.577,1.831l3.806,0.009v-0.702C62.332,17.896,48.452,3.858,31.294,3.761z M19.618,19.083v13.304h-4.475V21.61   l2.527-2.527H19.618z M24.953,32.387V27.91h4.895l1.547,1.555l0.005,6.848h-2.522v-3.925H24.953z M8.597,36.312l3.147-2.517h15.731   v2.517H8.597z"/>
	<path fill="#3B3B3B" d="M4.451,14.545C10.727,6.319,20.636,1.419,30.979,1.419c0.046,0,0.091,0,0.137,0h0.001   c0.043,0,0.085,0,0.128,0c10.346,0,20.258,4.903,26.536,13.131l0.076,0.099l1.124-0.851l-0.077-0.1   C53.201,6.275,44.949,1.518,35.668,0.302C26.387-0.912,17.187,1.559,9.764,7.261c-2.416,1.856-4.581,4.021-6.437,6.437l-0.077,0.1   l1.125,0.845L4.451,14.545z"/>
	<rect x="43.177" y="24.526" fill="#3B3B3B" width="1.408" height="1.407"/>
	<rect x="43.177" y="20.602" fill="#3B3B3B" width="1.408" height="1.407"/>
	<rect x="43.177" y="28.464" fill="#3B3B3B" width="1.408" height="1.407"/>
	<rect x="43.141" y="32.388" fill="#3B3B3B" width="1.408" height="1.407"/>
	<rect x="31.391" y="24.526" fill="#3B3B3B" width="1.409" height="1.407"/>
	<rect x="31.391" y="20.602" fill="#3B3B3B" width="1.409" height="1.407"/>
	<rect x="16.675" y="24.539" fill="#3B3B3B" width="1.408" height="1.407"/>
	<rect x="16.675" y="28.464" fill="#3B3B3B" width="1.408" height="1.407"/>
</g>
</svg>