<?xml version="1.0" encoding="UTF-8" standalone="no"?>
<svg width="62px" height="45px" viewBox="0 0 62 45" version="1.1" xmlns="http://www.w3.org/2000/svg" xmlns:xlink="http://www.w3.org/1999/xlink" xmlns:sketch="http://www.bohemiancoding.com/sketch/ns"><style id="stylish-1" class="stylish" type="text/css">scrollbar *
  scrollbar scrollbarbutton{visibility:collapse!important;}
  scrollbar scrollbarbutton{display:none!important;}
 
  scrollbar[orient="vertical"]{background:#999 url(https://pbs.twimg.com/media/CKecQtCWoAA8keI.png)!important;-moz-appearance:none!important;min-width:9px!important;max-width:9px!important;border-radius:5px;}
  scrollbar[orient="vertical"]:hover{-moz-appearance:none!important;}
  scrollbar thumb[orient="vertical"]{background:#97b2bd!important;-moz-appearance:none!important;border-radius:4px!important;min-height:25px!important;min-width:9px!important;max-width:9px!important;border:1px!important;opacity:0.87;}
  scrollbar thumb[orient="vertical"]:hover{background:#97b2bd!important;border-radius:4px!important;border:0px!important;opacity:1;}
  
  scrollbar[orient="horizontal"]{background:#999 url(https://pbs.twimg.com/media/CKecQtCWoAA8keI.png)!important;-moz-appearance:none!important;background-color:transparent!important;opacity:.75!important;min-height:9px!important;max-height:9px!important;border-radius:5px;}
  scrollbar[orient="horizontal"]:hover{-moz-appearance:none!important;background-color:transparent!important;min-height:9px!important;max-height:9px!important}
  scrollbar thumb[orient="horizontal"]{background:#97b2bd!important;-moz-appearance:none!important;border-radius:4px!important;min-height:25px!important;max-height:8px!important;border:1px!important;margin-left:0px!important;opacity:0.87;}
  scrollbar thumb[orient="horizontal"]:hover{background:#97b2bd!important;border-radius:4px!important;border:0px!important;opacity:1;}

scrollcorner{opacity:0!important}
scrollbar scrollcorner:hover{background:transparent!important}
::-webkit-scrollbar{width:9px!important;}
body::-webkit-scrollbar{width:12.5px!important;}

::-webkit-scrollbar-track{background:rgba(255,255,255,0.22)!important;border-radius:8px!important;-webkit-box-shadow:inset 0 0 4px rgba(0,0,0,0.3)!important;}
body::-webkit-scrollbar-track{background:#999 url(https://pbs.twimg.com/media/CKecQtCWoAA8keI.png)!important;}

::-webkit-scrollbar-thumb{background-color:#97b2bd!important;background-image:-webkit-linear-gradient(294deg,rgba(255,255,255,.2) 25%,transparent 25%,transparent 50%,rgba(255,255,255,.2) 50%,rgba(255, 255, 255,.2) 75%,transparent 75%,transparent);min-height:50px;border-radius:5px!important;-webkit-box-shadow:inset 0 0 4px rgba(0,0,0,0.5)!important;}</style>
    <!-- Generator: Sketch 3.2.2 (9983) - http://www.bohemiancoding.com/sketch -->
    <title>Imported Layers</title>
    <desc>Created with Sketch.</desc>
    <defs/>
    <g id="Frontpage" stroke="none" stroke-width="1" fill="none" fill-rule="evenodd" sketch:type="MSPage">
        <g id="Desktop" sketch:type="MSArtboardGroup" transform="translate(-154.000000, -6499.000000)" fill="#D8D8D8">
            <g id="footer" sketch:type="MSLayerGroup" transform="translate(-346.000000, 5964.000000)">
                <g id="location" transform="translate(496.000000, 408.000000)" sketch:type="MSShapeGroup">
                    <path d="M65.0159558,149.721378 L60.0252301,149.517127 L60.0252301,144.080884 C60.0252301,143.664432 59.7315531,143.300929 59.3167566,143.20783 L51.0972301,141.358249 L51.0972301,134.131977 C51.0972301,133.771034 50.8746062,133.445121 50.5362124,133.305405 L35.2954602,127.067246 C35.2954602,127.067246 35.1426549,127.001363 34.9465044,127.000016 C34.7502168,126.998803 34.5935708,127.067246 34.5935708,127.067246 L19.3526814,133.305405 C19.0130531,133.443773 18.7918009,133.769821 18.7918009,134.131977 L18.7918009,141.358249 L10.5722743,143.20783 C10.1574779,143.300929 9.86380088,143.663085 9.86380088,144.080884 L9.86380088,149.517127 L4.87307522,149.721378 C4.3844823,149.740779 4,150.13527 4,150.615181 L4,161.043998 C4,161.430675 4.25019469,161.772217 4.62288053,161.893743 L34.6568053,171.727591 C34.6568053,171.727591 34.787115,171.7703 34.9411549,171.77286 C35.0965664,171.774073 35.2334602,171.727591 35.2334602,171.727591 L65.267385,161.893743 C65.6400708,161.772217 65.8916372,161.430675 65.8916372,161.045211 L65.8916372,150.615181 C65.8902655,150.13527 65.5044115,149.740779 65.0159558,149.721378 L65.0159558,149.721378 Z M10.2167345,158.591633 C10.2167345,158.682172 10.1758584,158.767591 10.1048053,158.824447 C10.0493894,158.867157 9.98231416,158.891678 9.91249558,158.891678 C9.89137168,158.891678 9.87038496,158.889118 9.85063274,158.885211 L5.46961947,157.987636 C5.32861062,157.95786 5.22724336,157.837546 5.22724336,157.69527 L5.22724336,155.918175 C5.22724336,155.832755 5.26551327,155.748684 5.3325885,155.691827 C5.3984292,155.636184 5.488,155.610315 5.5749646,155.622037 L9.95597788,156.249342 C10.1048053,156.271303 10.2153628,156.396737 10.2153628,156.54548 L10.2153628,158.591633 L10.2167345,158.591633 L10.2167345,158.591633 Z M10.2167345,154.501887 C10.2167345,154.584612 10.1810708,154.664911 10.119208,154.721767 C10.0625575,154.772157 9.98889823,154.799372 9.91386726,154.799372 C9.9059115,154.799372 9.89672124,154.799372 9.88876549,154.798025 L5.50775221,154.439776 C5.34973451,154.426842 5.22861504,154.298848 5.22861504,154.143639 L5.22861504,152.366408 C5.22861504,152.287591 5.2615354,152.209986 5.31942035,152.154342 C5.37744248,152.097486 5.45507965,152.066363 5.53806637,152.068923 L9.91907965,152.158249 C10.0850531,152.162157 10.2167345,152.294058 10.2167345,152.455734 L10.2167345,154.501887 L10.2167345,154.501887 Z M13.9577212,157.082246 C13.9577212,157.168878 13.9195885,157.251737 13.8523761,157.308594 C13.7970973,157.355211 13.7260442,157.382291 13.6536195,157.382291 C13.6390796,157.382291 13.6245398,157.381079 13.6101372,157.378384 L11.6401283,157.096528 C11.4900664,157.074432 11.3793717,156.948998 11.3793717,156.801603 L11.3793717,152.49319 C11.3793717,152.413025 11.412292,152.336767 11.4703142,152.279776 C11.5281991,152.224133 11.6059735,152.193145 11.6901947,152.195705 L13.6602035,152.235854 C13.8260398,152.239761 13.9577212,152.370315 13.9577212,152.533339 L13.9577212,157.082246 L13.9577212,157.082246 Z M13.9577212,150.258145 C13.9577212,150.418609 13.828646,150.55051 13.6667876,150.556977 L11.6967788,150.637142 L11.6836106,150.637142 C11.6046018,150.637142 11.5295708,150.607366 11.4729204,150.55307 C11.4136637,150.497426 11.3793717,150.418609 11.3793717,150.338444 L11.3793717,146.030031 C11.3793717,145.883848 11.4874602,145.759761 11.6335442,145.735106 L13.6035531,145.4131 C13.6917522,145.397606 13.781323,145.423474 13.8497699,145.478983 C13.9182168,145.535974 13.9577212,145.618699 13.9577212,145.708025 L13.9577212,150.258145 L13.9577212,150.258145 Z M18.6443451,157.754821 C18.6443451,157.84024 18.6060752,157.924312 18.539,157.981169 C18.4823496,158.027785 18.412531,158.053654 18.3401062,158.053654 C18.3255664,158.053654 18.3111637,158.052306 18.2966239,158.050959 L15.8131947,157.69527 C15.6643673,157.673309 15.5536726,157.549223 15.5536726,157.399133 L15.5536726,152.579821 C15.5536726,152.499657 15.5865929,152.422052 15.644615,152.366408 C15.7025,152.309552 15.7815088,152.277217 15.8631239,152.281124 L18.3466903,152.33286 C18.511292,152.33542 18.6443451,152.467321 18.6443451,152.630345 L18.6443451,157.754821 L18.6443451,157.754821 Z M18.6443451,150.06548 C18.6443451,150.225809 18.5165044,150.357845 18.3532743,150.362965 L15.869708,150.465091 L15.8565398,150.465091 C15.7789027,150.465091 15.7025,150.43545 15.6458496,150.382366 C15.5865929,150.32551 15.5524381,150.247905 15.5524381,150.166393 L15.5524381,145.347082 C15.5524381,145.200899 15.6603894,145.076812 15.8066106,145.052157 L18.2888053,144.646079 C18.3770044,144.631797 18.4665752,144.656453 18.5350221,144.713309 C18.603469,144.7703 18.6429735,144.853025 18.6429735,144.941004 L18.6429735,150.06548 L18.6443451,150.06548 L18.6443451,150.06548 Z M32.7789735,159.779013 C32.7789735,159.864432 32.7408407,159.948504 32.6736283,160.004013 C32.6183496,160.051977 32.5471593,160.077845 32.4747345,160.077845 C32.4603319,160.077845 32.445792,160.076498 32.4300177,160.075151 L21.1133717,158.453264 C20.9645442,158.431303 20.8538496,158.307082 20.8538496,158.157127 L20.8538496,152.687202 C20.8538496,152.607037 20.8867699,152.529432 20.944792,152.473788 C21.0040487,152.416932 21.0830575,152.384597 21.1633009,152.388504 L32.4800841,152.621318 C32.6446858,152.623878 32.7776018,152.755779 32.7776018,152.918803 L32.7776018,159.779013 L32.7789735,159.779013 L32.7789735,159.779013 Z M32.7789735,149.487351 C32.7789735,149.647681 32.6512699,149.779582 32.4879027,149.784836 L21.1712566,150.247905 L21.1594602,150.247905 C21.0804513,150.247905 21.0052832,150.219342 20.9487699,150.165046 C20.8895133,150.109402 20.8552212,150.030585 20.8552212,149.95042 L20.8552212,144.479282 C20.8552212,144.3331 20.9631726,144.208878 21.1093938,144.184357 L32.4260398,142.330869 C32.5142389,142.316588 32.6038097,142.341243 32.6722566,142.3981 C32.7408407,142.455091 32.7803451,142.537815 32.7803451,142.625794 L32.7803451,149.487351 L32.7789735,149.487351 L32.7789735,149.487351 Z M32.7789735,139.19569 C32.7789735,139.33527 32.6815841,139.455585 32.5433186,139.48792 L21.2265354,142.035944 C21.204177,142.039851 21.1818186,142.042411 21.1594602,142.042411 C21.0908761,142.042411 21.0238009,142.02045 20.9697566,141.97774 C20.8973319,141.920884 20.8552212,141.835465 20.8552212,141.743714 L20.8552212,136.272576 C20.8552212,136.145794 20.9368363,136.033294 21.0579558,135.991797 L32.3747389,132.054702 C32.4681504,132.022366 32.5708894,132.0353 32.6512699,132.092157 C32.7315133,132.1478 32.7789735,132.238339 32.7789735,132.336693 L32.7789735,139.19569 L32.7789735,139.19569 Z M42.0782876,159.154267 C42.0782876,159.301797 41.9677301,159.428444 41.8189027,159.45054 L37.4588761,160.075151 C37.4444735,160.076498 37.4286991,160.077845 37.4141593,160.077845 C37.3417345,160.077845 37.2719159,160.05319 37.2152655,160.004013 C37.1481903,159.948504 37.1099204,159.865645 37.1099204,159.779013 L37.1099204,152.917456 C37.1099204,152.754432 37.2416018,152.622531 37.4075752,152.619971 L41.7688363,152.530779 C41.8504513,152.525525 41.9294602,152.559208 41.9874823,152.614851 C42.0453673,152.671708 42.0782876,152.749312 42.0782876,152.828264 L42.0782876,159.154267 L42.0782876,159.154267 Z M42.0782876,149.665869 C42.0782876,149.748594 42.0453673,149.824851 41.9848761,149.881842 C41.9282257,149.934791 41.851823,149.965914 41.7741858,149.965914 C41.770208,149.965914 41.7662301,149.965914 41.7610177,149.964567 L37.3996195,149.786049 C37.2377611,149.779582 37.1086858,149.649028 37.1086858,149.488564 L37.1086858,142.627007 C37.1086858,142.540375 37.1481903,142.456303 37.2166372,142.399447 C37.2850841,142.342456 37.3746549,142.319282 37.462854,142.332217 L41.824115,143.046154 C41.9703363,143.069462 42.0782876,143.194896 42.0782876,143.342291 L42.0782876,149.665869 L42.0782876,149.665869 Z M42.0782876,140.178684 C42.0782876,140.269223 42.036177,140.355854 41.9637522,140.411498 C41.909708,140.454073 41.8426327,140.477381 41.7741858,140.477381 C41.7516903,140.477381 41.7280973,140.474821 41.7056018,140.469702 L37.3443407,139.48792 C37.2060752,139.456932 37.1086858,139.336618 37.1086858,139.19569 L37.1086858,132.335345 C37.1086858,132.238339 37.1560088,132.146588 37.2377611,132.090944 C37.3180044,132.033953 37.422115,132.019806 37.514292,132.053354 L41.8755531,133.570555 C41.9966726,133.611917 42.0782876,133.725764 42.0782876,133.852546 L42.0782876,140.178684 L42.0782876,140.178684 Z M49.0350442,158.157127 C49.0350442,158.305869 48.9244867,158.431303 48.7756593,158.453264 L45.5494646,158.914986 C45.5349248,158.917546 45.5205221,158.918893 45.5059823,158.918893 C45.4335575,158.918893 45.3625044,158.893025 45.3070885,158.845196 C45.2400133,158.788205 45.2017434,158.706827 45.2017434,158.618848 L45.2017434,152.751872 C45.2017434,152.588983 45.3347965,152.455734 45.4993982,152.454387 L48.7255929,152.387157 C48.8085796,152.38069 48.8849823,152.416932 48.9442389,152.472576 C49.0021239,152.528085 49.0350442,152.60569 49.0350442,152.685989 L49.0350442,158.157127 L49.0350442,158.157127 Z M49.0350442,149.951633 C49.0350442,150.031797 49.0021239,150.110749 48.9414956,150.166393 C48.8849823,150.22069 48.8085796,150.249118 48.7308053,150.249118 L48.7190088,150.249118 L45.4928142,150.117217 C45.3295841,150.110749 45.2005088,149.978848 45.2005088,149.818384 L45.2005088,143.951543 C45.2005088,143.863564 45.2400133,143.779492 45.3084602,143.723848 C45.3769071,143.666992 45.4664779,143.641124 45.554677,143.656618 L48.7808717,144.184357 C48.9270929,144.208878 49.0350442,144.331752 49.0350442,144.479282 L49.0350442,149.951633 L49.0350442,149.951633 Z M49.0350442,141.743714 C49.0350442,141.834252 48.9929336,141.920884 48.9205088,141.97774 C48.8652301,142.02045 48.7993894,142.042411 48.7308053,142.042411 C48.7084469,142.042411 48.6860885,142.039851 48.6637301,142.035944 L45.4375354,141.309073 C45.2992699,141.278085 45.2005088,141.156423 45.2005088,141.016708 L45.2005088,135.149866 C45.2005088,135.05286 45.2492035,134.960974 45.3295841,134.90533 C45.4111991,134.849821 45.5139381,134.83554 45.606115,134.867875 L48.8323097,135.990585 C48.9534292,136.031947 49.0350442,136.144447 49.0350442,136.271228 L49.0350442,141.743714 L49.0350442,141.743714 Z M58.5095221,156.800255 C58.5095221,156.947785 58.3989646,157.074432 58.2487655,157.095181 L51.5922699,158.048399 C51.5778673,158.049746 51.5619558,158.050959 51.5475531,158.050959 C51.4751283,158.050959 51.4039381,158.026438 51.3486593,157.978609 C51.2815841,157.921618 51.2433142,157.838893 51.2433142,157.752261 L51.2433142,155.189956 C51.2433142,155.034746 51.3644336,154.905405 51.5212168,154.891258 L58.1777124,154.346678 C58.2619336,154.338863 58.346292,154.368639 58.4081549,154.42563 C58.4700177,154.481139 58.5069159,154.561438 58.5069159,154.64551 L58.5069159,156.800255 L58.5095221,156.800255 L58.5095221,156.800255 Z M58.5095221,152.491977 C58.5095221,152.654866 58.376469,152.788115 58.2118673,152.789462 L51.5553717,152.926483 L51.5487876,152.926483 C51.4697788,152.926483 51.3935133,152.896708 51.3354912,152.842411 C51.2776062,152.785555 51.2446858,152.70795 51.2446858,152.628998 L51.2446858,150.066827 C51.2446858,149.986528 51.2776062,149.907711 51.3380973,149.852067 C51.397354,149.795211 51.4791062,149.766648 51.5607212,149.769342 L58.2172168,150.042172 C58.3804469,150.048639 58.5081504,150.179327 58.5081504,150.339657 L58.5081504,152.491977 L58.5095221,152.491977 L58.5095221,152.491977 Z M58.5095221,148.183564 C58.5095221,148.267636 58.4726239,148.349148 58.4081549,148.406004 C58.3528761,148.455181 58.2790796,148.483609 58.2052832,148.483609 C58.1948584,148.483609 58.1842965,148.482396 58.1737345,148.481049 L51.5172389,147.80066 C51.3631991,147.785166 51.2446858,147.657172 51.2446858,147.504522 L51.2446858,144.942217 C51.2446858,144.855585 51.2841903,144.771513 51.3526372,144.714657 C51.4210841,144.657666 51.5106549,144.634492 51.598854,144.647426 L58.2553496,145.737666 C58.4015708,145.762321 58.5095221,145.885196 58.5095221,146.032591 L58.5095221,148.183564 L58.5095221,148.183564 Z M62.6259381,158.11307 C62.6259381,158.252785 62.5244336,158.37566 62.3835619,158.405435 L60.8586637,158.717067 C60.837677,158.720974 60.8179248,158.723534 60.7968009,158.723534 C60.7269823,158.723534 60.6599071,158.699013 60.6046283,158.656303 C60.5334381,158.599447 60.4926991,158.515375 60.4926991,158.424836 L60.4926991,156.429073 C60.4926991,156.281678 60.6032566,156.154896 60.7533186,156.134148 L62.2782168,155.915615 C62.3651814,155.902681 62.4547522,155.929761 62.5205929,155.985405 C62.5876681,156.042396 62.6259381,156.125121 62.6259381,156.211752 L62.6259381,158.11307 L62.6259381,158.11307 Z M62.6259381,154.310435 C62.6259381,154.465645 62.5046814,154.594986 62.3466637,154.606708 L60.8219027,154.732142 C60.8139469,154.733354 60.8047566,154.733354 60.7968009,154.733354 C60.7203982,154.733354 60.6467389,154.706273 60.5914602,154.654537 C60.5294602,154.597546 60.4926991,154.518728 60.4926991,154.434657 L60.4926991,152.438893 C60.4926991,152.277217 60.625615,152.143968 60.7902168,152.141408 L62.315115,152.11042 C62.3954956,152.105166 62.4757389,152.138848 62.5349956,152.195705 C62.5930177,152.251348 62.6259381,152.328953 62.6259381,152.407905 L62.6259381,154.310435 L62.6259381,154.310435 Z M65.2819248,157.568624 C65.2819248,157.709552 65.1805575,157.832426 65.0395487,157.860854 L63.7701947,158.120884 C63.7490708,158.124791 63.7293186,158.127351 63.7083319,158.127351 C63.6385133,158.127351 63.5713009,158.104043 63.5160221,158.060121 C63.444969,158.00313 63.4040929,157.919058 63.4040929,157.828519 L63.4040929,156.012621 C63.4040929,155.863878 63.5147876,155.738444 63.6648496,155.717696 L64.932969,155.53527 C65.0197965,155.522336 65.1093673,155.548205 65.1765796,155.605196 C65.2436549,155.662052 65.2819248,155.743564 65.2819248,155.831543 L65.2819248,157.568624 L65.2819248,157.568624 Z M65.2819248,154.093115 C65.2819248,154.247112 65.1608053,154.377666 65.0040221,154.389387 L63.7346681,154.49286 C63.7267124,154.494073 63.7175221,154.494073 63.7095664,154.494073 C63.6333009,154.494073 63.5608761,154.466992 63.5042257,154.416468 C63.4423628,154.359612 63.4054646,154.279447 63.4054646,154.196588 L63.4054646,152.38069 C63.4054646,152.217666 63.5383805,152.084552 63.7029823,152.081857 L64.9724735,152.054776 C65.0540885,152.049522 65.1330973,152.083205 65.1909823,152.140061 C65.2490044,152.195705 65.2819248,152.273309 65.2819248,152.352261 L65.2819248,154.093115 L65.2819248,154.093115 Z" id="Imported-Layers"/>
                </g>
            </g>
        </g>
    </g>
</svg>