<?xml version="1.0" standalone="no"?>
<!DOCTYPE svg PUBLIC "-//W3C//DTD SVG 20010904//EN"
 "http://www.w3.org/TR/2001/REC-SVG-20010904/DTD/svg10.dtd">
<svg version="1.0" xmlns="http://www.w3.org/2000/svg"
 width="200.000000pt" height="200.000000pt" viewBox="0 0 200.000000 200.000000"
 preserveAspectRatio="xMidYMid meet">
<metadata>
Created by potrace 1.13, written by Peter Selinger 2001-2015
</metadata>
<g transform="translate(0.000000,200.000000) scale(0.100000,-0.100000)"
fill="#000000" stroke="none">
<path d="M936 1852 c-15 -18 -14 -30 14 -193 16 -96 30 -186 30 -201 0 -59
-31 -25 -129 140 -54 92 -108 178 -119 192 -20 24 -22 24 -49 10 -15 -9 -29
-25 -31 -37 -2 -12 40 -100 103 -213 66 -118 103 -196 97 -202 -5 -5 -39 27
-88 84 -122 144 -175 198 -195 198 -23 0 -49 -26 -49 -50 0 -10 46 -73 103
-141 133 -161 149 -185 145 -212 -3 -19 -8 -22 -42 -20 -21 2 -75 19 -120 39
-134 59 -135 60 -153 48 -9 -6 -19 -16 -21 -23 -8 -24 75 -87 184 -140 99 -48
116 -61 194 -143 49 -53 121 -115 170 -148 86 -58 118 -95 106 -125 -3 -9 1
-30 10 -46 14 -29 14 -33 -16 -91 -20 -41 -27 -64 -19 -68 6 -4 -3 -13 -21
-20 -17 -7 -50 -35 -74 -61 -25 -27 -46 -44 -48 -37 -6 16 -90 -6 -146 -38
-76 -45 -100 -109 -63 -170 37 -60 116 -67 212 -19 67 34 99 76 99 130 0 42
-19 72 -35 57 -4 -4 2 8 15 26 22 30 81 78 65 52 -13 -21 5 -59 35 -75 83 -43
166 15 199 140 10 36 17 43 83 77 87 45 168 112 168 139 0 11 -20 60 -45 109
-38 76 -48 89 -72 92 -24 2 -29 8 -31 36 -2 18 4 64 12 101 9 38 20 112 26
165 14 122 29 164 88 250 l47 68 -24 19 c-63 51 -151 -14 -201 -149 -34 -91
-60 -108 -118 -78 -45 24 -89 78 -105 131 -9 28 -35 120 -58 205 -23 85 -46
164 -52 175 -20 39 -54 46 -81 17z m565 -1070 c39 -72 38 -77 -37 -135 -73
-56 -187 -110 -236 -111 -40 -1 -41 0 -74 59 -19 33 -34 63 -34 66 0 4 24 14
53 24 79 26 184 84 235 131 26 23 50 39 53 36 3 -4 21 -35 40 -70z m-596 -481
c0 -49 9 -59 38 -43 13 8 10 2 -8 -13 -39 -34 -127 -60 -153 -46 -60 32 -14
101 88 132 14 4 27 8 30 8 3 1 5 -17 5 -38z"/>
</g>
</svg>
