<?xml version="1.0" encoding="iso-8859-1"?>
<svg xmlns="http://www.w3.org/2000/svg" viewBox="0 0 426.885 426.885" width="512" height="512">
	<g fill="#353636">
		<path d="M109.534 95.943h208a7.5 7.5 0 0 0 0-15h-208a7.5 7.5 0 0 0 0 15zM109.534 142.734h208a7.5 7.5 0 0 0 0-15h-208a7.5 7.5 0 0 0 0 15z"/>
		<path d="M371.034 262.217V64.443s-.763-3.869-2.197-5.303l-48-48a7.48 7.48 0 0 0-5.303-2.179l-252-.018a7.5 7.5 0 0 0-7.5 7.5v211.993C22.882 244.686 0 278.781 0 318.123c0 55.041 44.779 99.819 99.819 99.819h247.382c43.938 0 79.684-35.746 79.684-79.684 0-35.638-23.52-65.885-55.851-76.041zm-48-227.668l22.394 22.394h-22.394V34.549zm-252-10.606h237v40.5a7.5 7.5 0 0 0 7.5 7.5h40.5v187.132a80.329 80.329 0 0 0-8.739-.5c.005-.422.008-.842.008-1.26 0-26.352-9.967-50.417-26.325-68.634a7.493 7.493 0 0 0 4.056-6.658 7.5 7.5 0 0 0-7.5-7.5h-12.141c-17.065-12.592-38.14-20.046-60.927-20.046-22.752 0-43.936 7.385-61.103 20.046h-73.829a7.5 7.5 0 0 0 0 15h57.5a102.309 102.309 0 0 0-21.542 39.841c-14.073-7.262-29.67-11.06-45.673-11.06a99.517 99.517 0 0 0-28.786 4.237V23.943zm276.168 379H99.82c-46.77 0-84.819-38.05-84.819-84.819s38.05-84.819 84.819-84.819c16.631 0 32.745 4.827 46.6 13.959a7.502 7.502 0 0 0 11.518-4.987c7.277-42.183 43.668-72.799 86.528-72.799 48.434 0 87.837 39.404 87.837 87.837 0 2.745-.14 5.597-.416 8.477a7.499 7.499 0 0 0 8.272 8.172 65.795 65.795 0 0 1 7.042-.389c35.667 0 64.684 29.017 64.684 64.684s-29.016 64.684-64.683 64.684z"/>
	</g>
</svg>
