<?xml version="1.0" encoding="UTF-8" standalone="no"?>
<svg width="145px" height="30px" viewBox="0 0 145 30" version="1.1" xmlns="http://www.w3.org/2000/svg" xmlns:xlink="http://www.w3.org/1999/xlink">
    <!-- Generator: Sketch 42 (36781) - http://www.bohemiancoding.com/sketch -->
    <title>Evernote-logo</title>
    <desc>Created with Sketch.</desc>
    <defs></defs>
    <g id="HelloFax-Benefits" stroke="none" stroke-width="1" fill="none" fill-rule="evenodd">
        <g transform="translate(-452.000000, -1906.000000)" id="Group-6" fill-rule="nonzero" fill="#A0A0A0">
            <g transform="translate(253.000000, 1576.000000)">
                <g id="Evernote-logo" transform="translate(199.000000, 330.000000)">
                    <g id="Layer_1">
                        <path d="M2.40557561,5.9272811 L5.21875793,5.9272811 C5.37761438,5.91648275 5.50408166,5.7900139 5.51487805,5.63115732 L5.51487805,2.59588171 C5.52663603,2.1128421 5.62700894,1.63606937 5.81100183,1.18928963 L5.88503232,0.967196341 L0.406735976,6.37146768 L0.702859756,6.22340488 C1.14704634,6.00131341 1.73929573,5.92728293 2.40557561,5.9272811 Z M24.0226646,5.40906402 C23.8005713,4.22456707 23.1342915,3.70634817 22.4680116,3.48425488 C21.4677089,3.10485103 20.4226542,2.85603069 19.3587037,2.74395 C17.9521134,2.5958872 16.4714909,2.52185671 15.4350549,2.52185671 C15.1389311,1.70751402 14.69475,0.819140854 12.9920287,0.374954268 C11.8075299,0.0788304878 9.66062744,0.152860976 8.99434573,0.226891463 C8.33290175,0.290519186 7.72220719,0.60914232 7.29162988,1.11526463 C6.99550976,1.41138293 6.77341463,2.22572561 6.77341463,2.74394268 L6.77341463,5.63115732 C6.77341463,6.51953049 6.18116524,7.18581037 5.14472927,7.18581037 L2.62767256,7.18581037 C2.14889883,7.16886125 1.67134041,7.24426514 1.22108049,7.40790366 C0.938492773,7.61604512 0.688917067,7.86562082 0.48077561,8.14820854 C0.110615854,8.66643293 0.0365853659,9.25868232 0.0365853659,9.9249622 C0.0521269066,10.4213014 0.101596607,10.9159966 0.184648171,11.4055848 C0.258678659,12.1458896 1.07302134,17.0319494 1.81333354,18.6606348 C2.10945732,19.3269146 2.33155061,19.5490079 2.9238,19.8451335 C4.25635976,20.4373811 7.2916372,21.0296323 8.77225976,21.2517238 C10.17885,21.3997866 11.1412555,21.8439713 11.6594726,20.7335049 C11.7198848,20.5071016 11.7940536,20.2845949 11.8815659,20.067225 C12.2363848,18.9165074 12.4111885,17.7178557 12.3997848,16.5137305 C12.3997848,16.4396982 12.5478476,16.4396982 12.5478476,16.5137305 C12.5478476,17.1800104 12.3997848,19.4009433 14.1025006,19.9931945 C14.7687805,20.2152878 16.1753707,20.4373811 17.5819628,20.5854421 C18.8404994,20.7335049 19.8028957,21.251722 19.8028957,24.5090909 C19.8028957,26.5079323 19.3587091,26.8040543 17.2118067,26.8040543 C15.4350604,26.8040543 14.7687805,26.8780848 14.7687805,25.3974622 C14.7687805,24.2869957 15.879247,24.3610262 16.767622,24.3610262 C17.137778,24.3610262 16.8416524,24.0649006 16.8416524,23.3986226 C16.8416524,22.6583177 17.285839,22.2881561 16.8416524,22.2881561 C13.9544396,22.2141238 12.2517238,22.2881561 12.2517238,25.9156829 C12.2517238,29.2470841 13.5102604,29.8393317 17.6559951,29.8393317 C20.9133732,29.8393317 22.0238305,29.7653012 23.3563921,25.6195573 C23.6525177,24.8052165 24.2447652,22.2881561 24.6149287,18.142414 C24.9110451,15.4032604 24.3928262,7.4079 24.0226646,5.40906402 Z M18.3963,14.2187671 C18.0737233,14.2065646 17.7508116,14.2314044 17.4338963,14.2927994 L17.2858335,14.2927994 C17.2660732,14.2932198 17.2469978,14.2855549 17.2330222,14.271579 C17.2190465,14.257603 17.2113822,14.2385274 17.211803,14.2187671 L17.211803,14.1447366 C17.3598659,13.4044317 17.730022,12.5160512 18.8404884,12.5160512 C20.0249872,12.5900835 20.321111,13.6265177 20.321111,14.4408604 L20.321111,14.5148909 C20.3215318,14.5346511 20.3138675,14.5537268 20.2998919,14.5677028 C20.2859162,14.5816787 20.2668408,14.5893435 20.2470805,14.5889232 C20.1730482,14.5889232 20.1730482,14.5889232 20.1730482,14.5148909 C19.5898065,14.3681765 18.9955982,14.269142 18.3963,14.2187671 L18.3963,14.2187671 Z" id="Shape"></path>
                        <path d="M31.4257738,19.5490079 L33.0544591,19.5490079 L33.1284896,9.3327128 L31.4257738,9.3327128 L31.4257738,7.40790366 L42.0122232,7.40790366 L42.160286,11.4055866 L40.0874159,11.4055866 L39.8653226,9.33271463 L35.8676396,9.33271463 L35.8676396,13.3303976 L39.8653226,13.3303976 L39.8653226,15.255203 L35.793611,15.255203 L35.793611,19.4749756 L39.7912939,19.4749756 L40.0133872,17.1800104 L42.3083506,17.1800104 L42.0862573,21.4738171 L31.4257756,21.4738171 L31.4257756,19.5490079 L31.4257738,19.5490079 Z M58.965353,9.3327128 L57.6327915,9.3327128 L52.5986726,21.4738171 L49.7114634,21.4738171 L44.6773427,9.33271463 L43.2707506,9.33271463 L43.2707506,7.40790366 L49.267275,7.40790366 L49.267275,9.33271463 L47.8606829,9.33271463 L51.3401433,18.882728 L51.4141738,18.882728 L54.8936341,9.33271463 L53.1909146,9.33271463 L53.1909146,7.40790366 L59.0393744,7.40790366 L59.0393744,9.33271463 L58.9653549,9.33271463 L58.965353,9.3327128 Z M60.2979146,19.5490079 L61.9265963,19.5490079 L62.0006268,9.3327128 L60.2979091,9.3327128 L60.2979091,7.40790366 L70.8843622,7.40790366 L71.0324213,11.4055866 L68.9595494,11.4055866 L68.7374543,9.33271463 L64.7397713,9.33271463 L64.7397713,13.3303976 L68.8114829,13.3303976 L68.8114829,15.255203 L64.7397732,15.255203 L64.7397732,19.4749756 L68.7374561,19.4749756 L68.9595512,17.1800104 L71.2545146,17.1800104 L70.958389,21.4738171 L60.2979073,21.4738171 L60.2979073,19.5490079 L60.2979183,19.5490079 L60.2979146,19.5490079 Z M73.9196415,19.5490079 L75.5483232,19.5490079 L75.6223537,9.3327128 L73.9196341,9.3327128 L73.9196341,7.40790366 L80.4343756,7.40790366 C83.6917537,7.40790366 84.7281823,9.25868232 84.7281823,11.1094591 C84.7281823,12.7381445 83.9138415,14.2187671 81.3967811,14.8110146 L81.3967811,14.885047 C82.7293427,15.255203 83.0254628,15.5513268 84.3580262,17.8462921 C85.2463976,19.3269146 85.5425232,19.5490079 86.0607439,19.5490079 C86.282839,19.5490079 86.5049287,19.4749774 86.6529951,19.4749774 L86.6529951,21.4738189 L85.246403,21.4738189 C83.3215957,21.4738189 83.0994988,21.2517256 81.6188762,18.2904805 C80.2863146,15.6993915 79.9901945,15.4772982 78.9537567,15.4772982 L78.3615055,15.4772982 L78.3615055,19.5490098 L80.0642232,19.5490098 L80.0642232,21.4738189 L73.9196378,21.4738189 L73.9196378,19.5490079 L73.9196415,19.5490079 Z M78.3615091,13.5524835 L79.4719756,13.5524835 C80.9525982,13.5524835 81.9890341,12.7381409 81.9890341,11.4055811 C81.9890341,10.1470445 81.3227524,9.33270915 80.0642268,9.33270915 L78.3615091,9.33270915 L78.3615091,13.5524835 Z M99.5344079,9.33270915 L97.8316902,9.33270915 L97.8316902,7.40790366 L103.384024,7.40790366 L103.384024,9.33271463 L101.755343,9.33271463 L101.681307,21.4738189 L99.6084348,21.4738189 L92.0572628,11.4796116 L91.9832323,11.4796116 L91.9092018,19.5490043 L93.6119195,19.5490043 L93.6119195,21.4738171 L88.0595872,21.4738171 L88.0595872,19.5490079 L89.6882689,19.5490079 L89.7622994,9.3327128 L88.0595817,9.3327128 L88.0595817,7.40790366 L92.2053238,7.40790366 L99.3863415,16.9579189 L99.4603774,16.9579189 L99.5344079,9.33270915 Z M111.37939,7.11177988 C116.265448,7.11177988 118.412347,10.2951183 118.412347,14.2187689 C118.412347,18.6606366 115.747222,21.7699445 111.37939,21.7699445 C106.493332,21.7699445 104.42047,18.5866061 104.42047,14.588925 C104.42047,10.2210878 107.085593,7.11177988 111.37939,7.11177988 Z M111.37939,19.4749774 C113.970479,19.4749774 115.525138,17.2540445 115.525138,14.3668299 C115.525138,11.1834915 113.748395,9.3327128 111.37939,9.3327128 C108.788301,9.3327128 107.233643,11.5536457 107.233643,14.4408604 C107.307679,17.6982293 109.08442,19.4749756 111.37939,19.4749756 L111.37939,19.4749774 Z M122.854207,19.5490079 L124.482889,19.5490079 L124.556925,9.3327128 L121.743746,9.3327128 L121.66971,11.3315543 L119.522813,11.3315543 L119.670873,7.33387134 L132.330199,7.33387134 L132.404235,11.3315543 L130.257337,11.3315543 L130.183301,9.3327128 L127.370122,9.3327128 L127.222063,19.5490079 L128.92478,19.5490079 L128.92478,21.4738171 L122.854224,21.4738171 L122.854224,19.5490079 L122.854207,19.5490079 L122.854207,19.5490079 Z M133.958876,19.5490079 L135.587561,19.5490079 L135.661597,9.3327128 L133.958879,9.3327128 L133.958879,7.40790366 L144.545332,7.40790366 L144.693391,11.4055866 L142.62052,11.4055866 L142.47246,9.40674512 L138.474777,9.40674512 L138.474777,13.404428 L142.546489,13.404428 L142.546489,15.3292354 L138.326724,15.3292354 L138.326724,19.5490098 L142.324407,19.5490098 L142.546502,17.2540445 L144.841463,17.2540445 L144.619368,21.4738171 L133.958892,21.4738171 L133.958892,19.5490079 L133.958881,19.5490079 L133.958876,19.5490079 Z" id="Shape"></path>
                    </g>
                </g>
            </g>
        </g>
    </g>
</svg>