<svg xmlns="http://www.w3.org/2000/svg" xmlns:xlink="http://www.w3.org/1999/xlink" viewBox="0 0 246.209 132.902">
    <defs>
        <path id="a" d="M0 0h246.21v132.902H0z" />
    </defs>
    <clipPath id="b">
        <use xlink:href="#a" overflow="visible" />
    </clipPath>
    <path fill="#1D1D1B" d="M239.818 62.256c-.227-.313-.538-.452-.85-.47-5.184-10.73-16.567-19.333-25.946-24.812-7.8-4.557-16.022-8.588-24.34-12.102-7.895-3.335-16.29-6.315-24.936-6.463 1.088-3.07-.43-6.53-3.31-7.91 1.023-.72 1.805-1.84 2.126-3.07.742-2.84-1.163-5.41-3.633-6.61-4.8-2.35-12.64.44-11.58 6.69.03.18.12.3.24.39-1.57 1.04-3.13 2.11-4.69 3.17-.06-.04-.11-.08-.18-.11-19.22-7.01-40.43-9.1-60.77-7.79C62.6 4.44 41.97 8.54 24.67 17.66c-1.146-.72-2.29-1.424-3.456-2.09 2.02-4.03 3.48-10.17-2.352-11.47-5.217-1.165-7.938 3.596-7.623 8.02-4.7-1.357-11.75-.98-11.21 5.494.21 2.592 2.36 4.58 4.78 5.246 3.16.87 6.1-.5 8.74-2.16 1.59 1.854 4.01 3.2 6.17 4.5-5.41 5.057-7.93 11.327-8.38 17.9-6.2 17.31 3.99 35.8 17.56 46.89 8.27 6.763 17.83 11.7 27.47 16.188 1.22.567 2.44 1.126 3.67 1.68.01.147.02.293.02.44.02.346.56.35.55 0v-.183c1.2.543 2.4 1.077 3.61 1.605.06.053.13.085.2.085 3.69 1.61 7.41 3.147 11.15 4.62.05.047.1.07.17.07 4.71 1.856 9.47 3.606 14.27 5.21 22.77 7.605 46.64 12.377 70.67 13.09 22.21.66 46.99-1.164 65.63-14.557 17.3-12.43 27.09-37.205 13.5-55.973m-76.57-42.78c16.31 3.482 31.22 9.49 45.87 17.57 7.03 3.88 13.84 8.344 19.42 14.173.05.053.09.107.14.16-1.32-.076-2.66-.067-3.94-.112-.39-.01-.38.567 0 .598 1.54.12 3.14.34 4.71.372.67.752 1.31 1.51 1.9 2.273-2.09-.1-4.28.12-6.32.15-.37.01-.37.56 0 .57 2.24.03 4.68.31 6.95.12.77 1.06 1.49 2.14 2.15 3.24-3.3-.45-6.79-.38-10.05-.28-.31.01-.31.47 0 .48 3.5.07 7.01.47 10.51.59.5.89.98 1.79 1.42 2.71-5.53-.25-11.1-.22-16.64-.46-.22-.01-.22.33 0 .35 5.61.5 11.36.99 17.01.86.27.57.52 1.14.77 1.72-.35-.42-.71-.83-1.09-1.23.39.67.64 1.45.69 2.27v.08l.05.21c.07.29.13.6.19.9-7-.61-14.06-.81-21.06-1.27-.19-.02-.18.27 0 .29 7.03.72 14.16 1.56 21.25 1.81.19.81.4 1.61.65 2.41.02.06.02.12.04.18.09.19.16.39.25.59-6.63-.65-13.38-.61-20.03-.85-.13-.01-.2.08-.21.18-2.74-2.64-6.16-4.78-9.7-6.21 4.71-.9 9.2-2.6 12.88-5.31.15.11.33.2.57.2h.09c.31-.7.76-1.33 1.31-1.86h-.01c2.22-2.39.6-5.66-.87-8.39-1.76-3.3-4.64-5.61-8.28-5.22-.09-.06-.18-.12-.27-.17-1.99-1.04-4.67.23-6.73 1.2-.02-3.3-1.11-6.55-3.44-9.01-.3-.31-.76-.16-.96.13-.41-.68-.97-1.22-1.76-1.5-2.6-.93-6.23-.86-8.94-1.04-4.1-.26-8.19-.17-12.28.21-.62-1.05-1.08-2.19-1.88-3.41-.54-.83-1.02-1.35-1.97-1.78-1.04-.46-6.39-.36-8.33-.34l.01-.01c.08-.18.05-.38-.13-.5l-.28-.17c-.2-.12-.43-.03-.55.15-.23.31-.28.59-.21.83-.1.08-.19.17-.25.26-.21.31-.41.62-.62.94-.07-.04-.14-.06-.23-.06-8.13.4-15.8 3.17-22.74 7.33-.05.02-.08.06-.11.09-2.88.17-5.68.96-8.14 2.5 1.38-4.11 1.47-8.49.2-12.63.06-.01.13-.03.2-.07l1.8-1.01c.04-.01.07-.02.1-.05 4.82-2.69 9.69-5.42 14.31-8.44v.13c0 .19.16.26.3.24.1 2.1 2.12 4.16 3.86 4.98 2.54 1.21 5.41.54 7.35-1.44.4-.41.73-.85.99-1.3M206.12 94c.034.116.064.213.092.3-.29 1.393-.58 2.785-.866 4.178-.136.662-.192 2.593-.633 3.075-1.016 1.11-3.593.41-4.748.113-4.058-1.042-7.93-2.518-11.76-4.177-.364-.91-1.07-1.36-1.846-1.24-.01-.68-.18-1.3-.62-1.83-1.15-1.4-4.03-2.25-5.59-3.05-.84-.43-1.69-.86-2.53-1.29 4.6 1.56 9.37 2.59 13.94 2.54.33-.01.53-.23.6-.49.4 0 .81-.27.81-.74-.01-.91.19-2.1.44-3.43.77.38 1.58.69 2.42.96-.16.17-.19.48-.03.68 2.44 2.96 6.71 3.81 10.47 3.81-.16.13-.25.33-.19.56m.79 4.91l.71-3.18c1.87 2.05 1.13.95.77 2.95-.17.94-1.17 3.72-1.72 4.51-1.98 2.8-3.72 2.95-6.85 2.34-1.27-.24-2.52-.54-3.76-.91-2.91-.85-5.64-2.06-8.35-3.37.4-1.02.68-2.03.67-2.85 2.02 1.13 4.11 2.13 6.27 2.97 2.42.94 6.66 3.05 9.31 2.67 1.07-.15 1.31-.28 1.97-1.19.68-.94.73-2.88.98-3.97m-21.28 2.2c-.46 1.6-1.1 3.23-1.42 3.51-2.29 1.91-5.06.97-7.41.11-2.43-.89-4.87-1.72-7.32-2.53.03-.17.01-.35-.1-.5-.76-1.07-1.47-2.16-2.17-3.26.54.27 1.12.51 1.71.75 4.61 1.86 9.51 2.97 14.41 3.66.44.06.8-.11.96-.55.42-1.21 1.31-2.82 1.76-4.36.15.43-.02 1.48-.31 2.63-.16.11-.23.33-.14.53M151.84 100c2.6 2.38 1.45 6.367-1.13 7.314.49-2.037.788-4.166.58-6.254-.034-.364-.554-.376-.573 0-.11 2.15-.166 4.264-.49 6.397-.378.078-.778.1-1.2.038-.034-2.054.11-4.08.337-6.124.032-.29-.466-.36-.52-.07-.386 2.02-.44 4.05-.26 6.09-.382-.1-.774-.24-1.18-.47l-.045-.03c.25-1.92.28-3.89.08-5.81-.03-.29-.48-.31-.47 0 .04 1.84 0 3.67-.07 5.5-.64-.48-1.05-1.06-1.31-1.7.18-1.81.21-3.62-.04-5.43-.04-.26-.45-.19-.46.06l-.03 2.98c-.1-.97-.16-1.97-.41-2.9.05.18.32.19.36 0 .11-.44 0-.7-.29-.94 0-.2-.06-.41-.23-.59-.14-.14-.3-.26-.45-.39-.02-.84 0-1.69.03-2.54.01-.3-.5-.39-.55-.07-.1.7-.12 1.39-.1 2.08-.39-.29-.81-.56-1.24-.82.03-1.02.05-2.05-.01-3.07-.03-.38-.56-.38-.59 0-.06.9-.05 1.81-.02 2.71-.64-.36-1.29-.7-1.94-1.04.06-1.18.14-2.39.02-3.55-.04-.36-.52-.36-.56 0-.11 1.07-.05 2.18.01 3.27-.44-.23-.87-.46-1.27-.7-.14-.07-.26-.16-.39-.24.04-1.09.07-2.17.02-3.26-.02-.36-.55-.36-.57 0-.05.98-.03 1.95.01 2.93-.56-.35-1.11-.69-1.66-1.04-.07-1.16-.06-2.31-.15-3.47-.02-.24-.42-.34-.46-.06-.18 1.03-.14 2.09 0 3.15-.92-.59-1.83-1.19-2.75-1.77 1.46-1.29 2.73-2.75 3.8-4.34 2 1.55 4.15 2.9 6.28 4.28 2.2 1.43 4.4 3.13 6.8 4.25.08.13.16.27.24.41.28.44.76.37 1 .07.77.08 1.31-1.04.7-1.6-.48-.44-1-.84-1.54-1.22-2.58-5.86-5.36-11.59-7.53-17.65 1.52.27 3.05.36 4.57.24.88 6.11 2.94 11.82 6.25 17.11-.68.86-1.23 1.84-1.69 2.82-.59 1.26 1.29 2.36 1.87 1.1.67-1.47 3.02-5.81 5.42-4.31 1.33.83 1.93 3.11 1.42 4.53-.57 1.57-1.89 2.67-3.38 2.95-.25-.11-.53-.07-.77.07-.71.01-1.44-.18-2.13-.59-1.09-.66-2.34.9-1.38 1.79m-66.75-26.7c3.6-2.39 6.6-5.78 8.59-10.25.76-1.71 1.29-3.45 1.63-5.2.19.19.45.31.8.32 9.24.06 19.23-1.07 27.12-5.95 6.5 3.77 11.76 9.28 13.33 16.9 1.85 8.96-2.11 17.63-10.19 21.93-6.75 3.59-14.58 3.65-21.69 1.12-6.22-2.21-21-10.12-19.46-18.34.04-.22-.02-.4-.13-.52m96.74-37.6c-.71-.51-1.22-1.06-1.64-1.63 5.04.05 10.06.26 15.07.88 1.04.13 3.24.1 4.23.62 1.35.72 1.56 1.66 1.82 3.31.3 1.87.27 3.87.32 5.8-3.24-.72-6.48-1-9.78-.72-.2-.44-.46-.86-.79-1.25-2.25-2.62-5.75-2.17-8.62-.97-1.07.45-3.41 1.7-3.35 3.09-.26.41-.47.85-.63 1.32-1.43.16-2.84.59-4.24 1.04 2.08-3.75 4.63-7.06 7.84-9.98.49-.44.27-1.15-.2-1.49m21.37 1.43c.85 1.38 1.57 2.82 1.94 4.42.38 1.65.98 5.13-.63 6-.65.35-2.71-.1-3.41-.11-1.14-.02-2.27-.04-3.41-.04-1.83 0-3.66 0-5.49.02.1-.54.14-1.09.09-1.64 3.38-.14 6.61.09 10.01.94.54.14 1.18-.26 1.14-.87-.12-2.13.42-5.93-.26-8.69m-12.5 37.35v-.1c.75-.41 1.49-.87 2.21-1.35 4.77 2.24 9.18 5.05 13.2 8.53.35.31.7.63 1.04.94-4.31 1.33-8.48 1.78-12.83.77.53-3.93.29-7.77-3.63-8.77m1.35 9.07c.09.04.19.07.29.11-.38 2.62-1.1 5.37-.83 7.53-7.12-1.82-14-2.88-20.82-5.93-3.03-1.36-5.98-2.93-8.82-4.67-1.11-.67-2.94-1.68-4.74-2.86-.29-.75-.58-1.51-.86-2.27-.21-.56-1.07-.34-.91.25.09.34.19.66.29.99-1.5-1.1-2.83-2.31-3.5-3.54 1.13-.44 2.22-.98 3.26-1.6 0 .01 0 .01.01.01 7.26 6.65 16.06 11.4 25.63 13.77 1.87.46 6.48 2.32 8.3.7.8-.7.69-1.92.8-2.85.24-2.21.34-4.44.45-6.67 1.93 1.41 2.13 3.72 1.86 6.23l-.17-.05c-.56-.19-.78.67-.24.87m-26.9 17.67l1.39.63c-1.43.65-5.9 2.32-7.94 3.13-.57-1.42-1.05-2.84-1.5-4.29 3.47-.99 6.1-4.74 4.71-8.73-.06-.18-.15-.35-.23-.52.45.86.91 1.71 1.39 2.56.91 1.61 4.23 5.53 4.1 7.29-.57-.18-1.13-.37-1.7-.55-.28-.09-.48.36-.21.49m-8.34-12.23c-1.21.14-2.21.648-3.07 1.357-2.91-5.03-5.07-10.36-6.42-15.98 1.35-.177 2.68-.48 3.97-.926.63 1.76 2.48 3.03 4.05 4.33.27.226.556.43.83.65 1.38 4.41 3.12 8.61 5.245 12.72-.93-1.58-2.73-2.36-4.61-2.15m8.66 5.89c-.03-.21-.23-.27-.404-.22-2.73-4.76-5.056-9.736-7.1-14.85 2.66 1.965 5.47 3.72 8.4 5.25 1.58.82 3.243 1.63 4.96 2.4-.31.33-.37.88.15 1.16 2.844 1.55 5.733 3.014 8.62 4.474 1.25.63 2.96 1.1 3.78 2.29 1.083.5 1.22 1.24.42 2.22l-.707 2.09c-2.1 2.88-17.62-1.12-18.11-4.82m15.62-50.21c-.02-.05-.06-.1-.09-.14.78-.56 3.82-1.55 4.19-1.61 1.71-.3 3.43.08 4.395 1.5-.33.49-.07 1.38.61 1.41.64 2.76-2.33 4.17-4.85 3.94-.99-.09-1.19.95-.77 1.61h-.01c-.72.26-.43 1.31.32 1.15 4.79-.96 7.34 4.87 4.03 7.97.09-1.66.37-3.27.63-4.93.06-.39-.48-.56-.6-.17-.54 1.73-.59 3.64-.46 5.46-.04.03-.06.06-.1.09-.26.18-.52.33-.77.46.02-1.99.25-3.94.31-5.92.01-.25-.38-.3-.44-.06-.49 1.93-.4 4.12-.14 6.1-.62.27-1.24.41-1.84.43-.33-1.73-.24-3.38.07-5.11.07-.38-.46-.53-.58-.16-.55 1.71-.5 3.51-.06 5.24-.09-.01-.18-.01-.27 0-.58-.08-1.14-.28-1.67-.56.16-1.63.33-3.27.34-4.92 0-.34-.48-.32-.52 0-.2 1.53-.26 3.08-.32 4.63-.65-.412-1.24-.95-1.76-1.57.21-1.45.28-2.92.05-4.372-.05-.29-.49-.21-.5.06-.01 1.21-.02 2.41-.1 3.6-.48-.7-.89-1.46-1.16-2.25-.12-.34-.44-.52-.76-.55.64-.25 1.26-.52 1.85-.82.92-.46.25-1.75-.66-1.57-.463.09-.92.2-1.38.297.13-1.027.26-2.06.31-3.087.02-.39-.55-.37-.6 0-.12 1.06-.17 2.13-.21 3.2-.39.09-.79.16-1.18.25.05-.94.1-1.88.033-2.82-.02-.31-.47-.31-.49 0-.07.97-.015 1.94.04 2.92l-2.22.51c.18-1.25.35-2.49.44-3.75.02-.28-.45-.35-.5-.07-.2 1.31-.32 2.61-.43 3.93l-2.24.51c.358-1.32.568-2.69.438-4.05-.03-.36-.52-.36-.55 0-.12 1.42-.24 2.8-.55 4.18-.79.16-1.57.33-2.36.47.3-1.34.42-2.66.31-4.04-.03-.35-.56-.36-.56 0 .01 1.34-.07 2.69-.31 4-.01.05-.01.09 0 .13-.46.08-.93.16-1.39.23.12-1.247.21-2.49.22-3.74 0-.28-.4-.27-.43 0-.15 1.26-.21 2.53-.24 3.8l-.45.06c.07-1.15.02-2.32-.16-3.51-.15-.93-.38-1.83-.67-2.7 4.62-.016 10.94-.42 14.74-2.82.21.088.47.08.68-.093.7-.6 1.59-1.74 1.35-2.73m-16.17 13.5c4.13-.05 8.66-.534 12.62-1.95-.11.13-.17.3-.15.52.205 2.12 1.19 3.905 2.59 5.196-5.45.01-10.95.36-16.38.55.62-1.36 1.077-2.8 1.32-4.3m17.82 5.49c.016 0 .03-.01.04-.01.58.21 1.18.34 1.79.41.66 1.57 1.48 3.1 2.26 4.61-3.27.99-6.57 1.87-9.83 2.86-.35.11-.41.6-.19.81-5.63-.77-11.12-2.49-16.37-4.98 1.06-1.19 1.96-2.49 2.69-3.89 6.43.55 13.22.91 19.62.21m5.81 10.99c-.02 3.39.26 9.08-3.23 9.38-2.78.23-6.94-1.57-9.58-2.48-7.05-2.43-13.48-6.12-19.36-10.65 1.1-.74 2.13-1.58 3.07-2.51 8.7 5.47 18.86 7.38 29.11 6.27m4.73-4.24c-.5.357-1.02.69-1.53 1.03-.22-.09-.44-.18-.67-.26-.49-.18-.85.65-.36.86l.09.04c-.22.14-.43.296-.65.436-.15-.09-.32-.14-.5-.12-4.16.55-8.27.52-12.31.01 3.69-.49 7.36-1.4 10.94-2.39.558-.16.74-.76.5-1.24-.75-1.55-1.44-3.19-2.26-4.73 1.12-.17 2.22-.595 3.22-1.33 1.49 2.35 3.01 4.68 4.47 7.05-.1.07-.21.14-.31.21l-.48-.09c-.333-.05-.49.43-.14.53m-2.34-7.56c-.17-.23-.342-.46-.52-.69.17-.15.33-.32.49-.49.78-.85 1.26-1.81 1.49-2.79.05.09.12.162.23.21 9.38 3.822 18.708-1.3 26.29-6.66.39-.27.62-.81.33-1.25-.99-1.548-2.12-4.207-3.52-6.11 4.71 1.12 8.5 8 4.67 11.67-2.16 2.064-6.26 3.37-8.95 4.283-2.18.75-4.41 1.29-6.66 1.68-.14-.035-.28-.08-.42-.11-.41-.104-.71.06-.87.32-4.14.58-8.36.56-12.55-.046M216 49.55c1.56 3.034-1.3 3.73-3.85 5.23-6.01 3.526-12.38 5.515-19.29 3.67-.15-.04-.268-.004-.35.064.4-2.683-.96-5.46-3.257-6.69 1.254-.68 2.217-1.906 2.71-3.313 4.555.41 9.125.68 13.694.79.342.01.67-.25.76-.58.21-.76.35-1.53.444-2.31.05-.01.1-.01.15-.03 1.45-1.14 3.03-1.5 4.72-1.06.34-.09.65-.12.93-.1.07.02.14.03.22.04.73.13 1.21.66 1.43 1.59.64.72 1.25 1.86 1.69 2.71m-44.11-1.9c-.06.13-.09.25-.1.37l-.21.06c-.89.23-1.78.41-2.67.59 2.81-4.92 4.69-9.51 8.84-13.67.13-.12.2-.26.24-.41.57.78 1.18 1.47 1.93 2.12-3.31 3.18-6.03 6.8-8.04 10.96m3.48-12.95c-3.58 3.77-7.21 8.7-7.93 13.8-.02.16.01.3.07.43-1.18.21-2.37.39-3.57.58-.89-2.19-2.25-4.16-3.92-5.88 1.88-4.75 4.19-9.23 7.05-13.46 2.59 1.88 5.34 3.37 8.3 4.53m-6.01-5.26l.17.02c3.9.27 4.93-.55 7.42 3.52l.22.34c-2.8-.99-5.36-2.27-7.79-3.88m-10.4 13.14c-.89-.81-1.86-1.53-2.88-2.19.46-.11.91-.22 1.37-.31.85-.17 1.71-.29 2.56-.46-.38.98-.73 1.96-1.04 2.97m1.61-4.36c-1.91.11-3.98.71-5.84 1.39-3.26-1.82-6.95-2.91-10.6-3.03 6.52-3.33 13.29-5.17 20.53-6.27-1.59 2.54-2.95 5.17-4.09 7.91m1.68 14.32c1.19 5.03-.71 10.34-4.27 13.95-.13.05-.24.16-.3.3-.49.47-1.01.92-1.56 1.32-3.1 2.3-6.3 3.13-9.67 3.45-.11-.03-.23-.02-.33.03-2.16.18-4.39.16-6.72.19-.01 0-.02 0-.03.01-.69-8.96-6.6-16.57-14.36-20.69 1.8-1.31 3.47-2.83 4.97-4.61 1.74-2.07 3.04-4.33 3.92-6.68 10.19-4.13 25.61 1.05 28.37 12.71m-21.6 21.59c1.55 5.44 3.41 11.09 5.98 16.26-1.04-.59-2.09-1.15-3.1-1.74-2.34-1.36-4.67-2.78-7.12-3.94 1.9-3.24 2.97-6.97 3.01-10.93.41.13.82.23 1.23.33m-14.96-27c-8.07 7.25-19.2 8.42-29.59 8.72-.19 0-.36.04-.51.11 1.05-9.52-3.74-18.91-11.82-24.58-2.06-1.45-4.26-2.71-6.55-3.84 3.03-9.09 16.21-13.96 24.73-15.58 10.35-1.96 21.56.91 27.73 9.95 5.74 8.41 3.35 18.63-3.98 25.21M81.33 32.67c13.995 8.91 16.79 29.26 2.06 39.14-12.63 8.47-31.674 1.98-42.09-7.41-10.413-9.38-15.5-27.12-5.993-38.69.065-.01.128-.01.19-.03 15.03-3.59 32.65-1.4 45.828 6.993m74.467 70.396c.4 1.26.88 2.5 1.416 3.73.203.47.902.58 1.303.34 2.97-1.77 6.05-3.08 9.34-4.03-.01.14-.03.29-.07.5-.38 1.92-.88 2.71-2.67 3.62-2.73 1.38-8.72 2.93-10.17-.43.64-1.11.95-2.41.86-3.72m37.81-15.87c.18-.92.37-1.88.53-2.86 4.63 1.3 9.62 1.23 14.05-.77.65.63 1.29 1.28 1.91 1.94-5.47 2.72-10.55 3.98-16.48 1.67m15.24-5.09c-4.38-4.15-9.47-7.35-14.98-9.71.52-.39 1.04-.79 1.53-1.22 7.39 2.46 13.42 6.46 18.53 12.61.3.36.99.35 1.3 0 1.51-1.71 3.78-3.47 5.1-5.38l.12.15c.24 2.36-.45 4.27-2.09 5.72l-2.43 2.85c-1.6.65-2.73.27-3.39-1.14-1.34-1-2.45-2.7-3.69-3.87m8.36-3.39c-1.7 2.53-2.31 3.13-4.46 1-4.51-4.46-10.45-7.69-16.66-9.2.21-.33.13-.74-.11-1.04-1.41-1.77-2.78-3.58-4.15-5.38 3.97.66 8.36.84 12.71.4 4.43 1.68 8.44 3.73 11.96 7.01 2.45 2.29 2.63 4.37.73 7.2M149.4 9.05c.647-.504.195-1.433-.457-1.645 0-.036.012-.066.01-.105-.36-3.582 3.635-5.604 6.77-5.215 1.75.218 3.56.98 4.384 2.63 1.13 2.26-.417 4.65-2.99 4.37-.972-.11-1.196 1.04-.7 1.656.066.23.25.42.578.41.08 0 .155.02.23.02.285.07.564.1.84.1 3.15.64 5.067 4.03 3.64 6.75.04-.97.054-1.95-.03-2.9-.035-.38-.56-.38-.596 0-.11 1.24-.06 2.54 0 3.81-.2.23-.41.44-.67.65-.09.08-.19.14-.28.2.05-1.34.08-2.69-.03-4.02-.03-.4-.59-.4-.62 0-.12 1.46-.07 2.94-.01 4.41-.34.16-.69.28-1.05.34-.09-1.41-.24-2.83-.59-4.19-.08-.29-.58-.24-.55.08.14 1.4.35 2.79.51 4.18-.48.02-.96-.04-1.43-.2-.06-1.25-.16-2.51-.34-3.75-.05-.32-.59-.24-.58.08.04 1.15.16 2.3.32 3.44-.22-.11-.44-.24-.65-.39-.16-.11-.3-.23-.43-.36-.16-1.13-.34-2.27-.59-3.39-.06-.28-.54-.22-.51.07.07.78.18 1.56.3 2.33-.5-.83-.76-1.77-1.27-2.7-.01-.01-.02-.02-.03-.04.97-.84-.04-2.54-1.26-1.84-.01.01-.02.01-.03.01 0-.61-.01-1.22-.06-1.83-.03-.34-.51-.34-.54 0-.06.74-.07 1.48-.06 2.23-.51.3-1.01.59-1.51.9.15-1.35.29-2.71.28-4.06 0-.29-.48-.38-.53-.07-.23 1.49-.28 3-.33 4.5-.7.44-1.4.87-2.1 1.32.17-1.17.23-2.36.08-3.55-.04-.35-.57-.38-.57 0 .01 1.33 0 2.64-.14 3.95-.68.45-1.37.88-2.05 1.33.13-1.34.23-2.68.25-4.02 0-.3-.43-.28-.47 0-.18 1.45-.26 2.91-.3 4.37-.57.39-1.14.77-1.71 1.16.09-1.03.09-2.05-.09-3.09-.05-.31-.55-.23-.54.08.01 1.17.02 2.33-.06 3.48-.83.57-1.66 1.14-2.49 1.72.25-1.1.47-2.2.6-3.32.04-.32-.48-.38-.56-.08-.32 1.26-.52 2.56-.69 3.85-.41.29-.81.57-1.22.85.04-1.12.05-2.25-.01-3.37-.02-.38-.58-.39-.6 0-.07 1.27-.05 2.53.01 3.79l-1.9 1.34c.02-1.2.13-2.4.26-3.61.03-.34-.52-.41-.6-.08-.17.77-.25 1.55-.28 2.33-.53-1.18-1.17-2.33-1.93-3.43.05-.01.09-.02.14-.04 6.17-3.3 12.25-7.09 17.77-11.39M19.51 22.23c.095-1.41.187-2.88.042-4.28-.04-.39-.562-.39-.602 0-.13 1.263-.067 2.592.017 3.88-1.206-.87-2.454-1.68-3.753-2.23l.073-.05c.673-.46.09-1.49-.643-1.1l-.152.08c.172-1.37.203-2.74 0-4.12-.048-.34-.59-.25-.584.08.032 1.47.032 2.93-.118 4.4-.56.28-1.165.59-1.802.88.412-1.42.674-2.85.69-4.34.003-.42-.586-.4-.63 0-.172 1.56-.394 3.12-.756 4.65-.466.19-.94.37-1.418.52.207-1.62.393-3.24.46-4.87.013-.32-.508-.4-.558-.08-.27 1.7-.41 3.4-.533 5.12-.504.13-1.008.22-1.502.26.23-1.55.43-3.11.53-4.67.02-.34-.55-.43-.6-.08-.26 1.57-.43 3.17-.56 4.76-.37-.02-.74-.06-1.09-.15.04-1.31.07-2.61.07-3.91 0-.4-.62-.4-.62 0 0 1.25.03 2.5.07 3.75-.42-.17-.82-.4-1.19-.73h-.02c-.13-1.107-.16-2.215-.09-3.33.02-.346-.56-.43-.61-.08-.15 1.023-.16 2.04-.04 3.05-.74-.54-.79-1.42-.15-2.66-.51-2.055.31-3.23 2.45-3.535 2.02-.51 4.44.374 6.21 1.195.8.37 1.85-.25 1.57-1.2-.35-1.16-.72-2.78-.26-3.97.67-.96 1.34-1.91 2.01-2.87 1.81-1.19 3.16-.78 4.04 1.21 1.9 2.033 1.86 2.33.97 4.726-.27.715-.61 1.37-.96 2.02-.95-.505-2.1.797-1.21 1.56.22.184.45.36.67.54.12.16.28.29.46.37 3.85 3.004 8.46 5.43 12.77 7.6 1.11.56 2.06-1.03.98-1.673-2.34-1.392-4.65-2.91-6.98-4.394C44.71 11.87 62.89 6.46 82.8 5.34c19.92-1.12 39.3 1.77 58.51 6.82-3.46 2.35-6.92 4.71-10.41 7.02-.09.06-.16.13-.21.21-.07-.09-.12-.18-.19-.27-7.047-8.78-18.405-11.38-29.13-9.31-9.093 1.75-22.93 7.01-24.647 17.46-12.79-6.11-28.45-7.25-41.85-3.95-.753.19-.974.855-.82 1.436-1.677 1.186-2.915 2.78-3.83 4.613.16-1.41.327-2.83.3-4.24-.006-.37-.626-.49-.69-.09-.234 1.51-.254 3.07-.29 4.62-.51-.4-1.02-.81-1.535-1.21-.05-1.62-.16-3.25-.36-4.86-.04-.33-.53-.35-.53 0 .02 1.47.13 2.93.28 4.39-.71-.54-1.43-1.07-2.15-1.59.08-1.39.03-2.78-.32-4.14-.11-.41-.67-.23-.62.17.16 1.17.3 2.33.3 3.5-.69-.5-1.39-1-2.09-1.49l-.09-.06c.02-.04.03-.09.04-.15.02-1.15.04-2.3-.03-3.45-.024-.41-.61-.41-.64 0-.07 1.04-.05 2.07-.04 3.11-.72-.53-1.452-1.09-2.21-1.65m-6.56 42.35c-1.82-5.36-2.5-11.06-1.6-16.97.23 3.33.94 6.68 2.02 9.95-.413 2.27-.52 4.67-.42 7.03m.67 1.83c.028-2.52.138-5.02.21-7.54.52 1.42 1.1 2.83 1.748 4.2-.32 2.61-.213 5.3.15 7.93-.79-1.49-1.493-3.02-2.106-4.58m2.84 5.91c-.31-2.76-.37-5.47-.4-8.25.82 1.63 1.72 3.22 2.696 4.75-.06 2.53.06 5.1.33 7.63-.95-1.34-1.82-2.73-2.63-4.14m3.23 4.98c-.08-2.5-.154-5-.28-7.5.75 1.11 1.527 2.18 2.34 3.21.11 2.56.34 5.13.63 7.69-.94-1.11-1.835-2.24-2.69-3.4m3.24 4.02c-.13-2.55-.324-5.1-.625-7.63.69.84 1.4 1.66 2.13 2.44.33.35.67.69 1 1.03.11 1.86.29 3.73.45 5.59.05.5.02 1.15.06 1.79-1.04-1.05-2.04-2.13-3.01-3.23m7.24 7.12c-.45-2.46-.78-4.93-.97-7.44-.02-.25-.4-.26-.4 0 .01 2.33.26 4.64.74 6.9-.94-.82-1.87-1.67-2.77-2.54-.25-1.57-.5-4.97-.52-5.22-.06-.78-.12-1.56-.19-2.34 2.15 2.16 4.41 4.21 6.78 6.17.13 2.41.41 4.82.73 7.21-1.15-.87-2.28-1.78-3.39-2.72m3.89 3.1c-.17-2.38-.36-4.77-.7-7.13 1.11.91 2.24 1.79 3.39 2.66.28 2.28.55 4.55.68 6.85-1.14-.76-2.26-1.55-3.37-2.38m3.84 2.68c0-2.19-.09-4.41-.39-6.59.55.4 1.09.81 1.64 1.2-.2 2.23.26 4.64 1 6.82-.75-.46-1.5-.94-2.24-1.42M41 96.21c-.6-2.29-.86-4.53-1.177-6.866.81.57 1.63 1.13 2.46 1.68.3 2.184.66 4.36 1.04 6.53-.78-.445-1.56-.89-2.33-1.346m2.77 1.605c-.29-2.143-.583-4.29-.936-6.43.945.63 1.9 1.24 2.866 1.84-.06 1.986.134 4 .515 5.95-.82-.45-1.634-.9-2.44-1.36m2.92 1.63c-.28-1.97-.41-3.92-.46-5.9.93.57 1.88 1.11 2.825 1.66.17 1.937.37 3.874.58 5.805-.99-.52-1.97-1.04-2.94-1.57m3.42 1.82c-.04-1.886-.16-3.79-.4-5.67.89.518 1.804 1.008 2.71 1.506.29 1.83.433 3.66.39 5.518-.9-.454-1.81-.89-2.704-1.354m3.12 1.566c.19-1.8.13-3.61-.22-5.39 1.11.61 2.24 1.19 3.37 1.77.2 1.76.34 3.51.3 5.28-1.16-.55-2.32-1.09-3.46-1.66m3.9 1.88c.02-.03.05-.06.05-.106.08-1.71.03-3.4-.22-5.085.94.48 1.89.94 2.84 1.404-.02 1.69.06 3.39.16 5.08-.95-.43-1.9-.857-2.84-1.3m3.47 1.59c-.04-1.707-.1-3.414-.25-5.11 1.06.514 2.13 1.016 3.21 1.51 0 .006-.01.01-.01.016.07 1.69.24 3.38.42 5.07-1.13-.49-2.26-.98-3.38-1.483m3.96 1.74c-.13-1.71-.26-3.42-.49-5.11 1.12.51 2.25.98 3.38 1.47.2 1.72.45 3.43.7 5.14-1.2-.492-2.39-.99-3.58-1.504m6.73 2.786c-.89-.35-1.77-.704-2.65-1.065-.19-1.692-.36-3.392-.59-5.083 1.11.47 2.21.92 3.32 1.38.03 1.59.02 3.175-.09 4.77m4.4 1.684c-1.31-.5-2.62-.98-3.92-1.5.2-1.57.28-3.15.19-4.727 1.28.52 2.56 1.03 3.84 1.52.04 1.57.02 3.14-.12 4.7m.52.2c.17-1.56.22-3.12.13-4.69 1.09.42 2.18.81 3.27 1.21.12 1.61.24 3.22.27 4.83-1.23-.45-2.46-.89-3.68-1.35m4.22 1.55c.04-1.61-.01-3.21-.21-4.8 1.35.49 2.69.97 4.03 1.43.08 1.59.13 3.17.11 4.76-1.31-.45-2.62-.91-3.93-1.38m4.5 1.59c.09-1.58.09-3.16-.04-4.75.81.28 1.62.56 2.43.83.33.11.66.21.99.31-.13 1.6-.06 3.19.14 4.79-1.17-.39-2.35-.77-3.52-1.17m4.12 1.37c-.14-1.6-.17-3.19-.15-4.8 1.31.42 2.62.82 3.93 1.21.08 1.63.2 3.25.23 4.89-1.33-.43-2.67-.86-4-1.3m4.55 1.47c.09-1.6.11-3.25-.08-4.85 1.14.34 2.29.66 3.44.99.26 1.7.52 3.41.72 5.12-1.35-.41-2.71-.82-4.07-1.25m5.2 1.6l-.51-.15c-.07-1.7-.23-3.41-.54-5.09 1.07.3 2.15.58 3.22.86.29 1.76.61 3.51.87 5.27l-3.04-.87m3.64 1.05c-.16-1.74-.35-3.5-.68-5.22 1.72.44 3.44.85 5.16 1.26-.16 1.7-.2 3.47 0 5.18-1.5-.39-3-.8-4.49-1.22m4.99 1.35c0-1.73-.08-3.48-.1-5.21.81.19 1.62.35 2.43.53.1 1.81.29 3.61.52 5.41-.95-.24-1.91-.47-2.86-.72m7.28 1.76c.02-1.7 0-3.41-.18-5.09-.03-.3-.47-.31-.48 0-.087 1.64-.01 3.31.094 4.96-1.14-.26-2.28-.51-3.42-.79-.12-1.82-.3-3.63-.55-5.43 2.34.52 4.68.99 7.04 1.45.11 1.86.3 3.71.51 5.56-1.01-.22-2.02-.43-3.02-.66m7.21-3.83c-.14 1.76-.21 3.53-.35 5.29-1.09-.22-2.18-.43-3.27-.67-.12-1.87-.27-3.73-.49-5.59 1.4.27 2.81.52 4.23.77-.07.04-.12.11-.12.2m.14 5.39c.26-1.78.43-3.59.38-5.39 0-.07-.03-.1-.06-.14 1.21.21 2.41.4 3.62.6-.11 1.91.064 3.84.35 5.73-1.43-.26-2.86-.52-4.29-.81m8.97 1.62c-1.42-.23-2.83-.47-4.24-.72-.16-1.91-.157-3.8-.15-5.71 1.48.24 2.97.46 4.45.67.22 1.973.24 3.813-.06 5.76m5.17.78c-1.54-.217-3.076-.44-4.61-.687.45-1.87.55-3.87.184-5.75 1.52.21 3.05.4 4.58.59-.02 1.96.01 3.9-.15 5.85m4.59.59c-1.39-.16-2.78-.34-4.17-.53.277-1.93.43-3.894.226-5.834 1.4.17 2.81.33 4.21.49-.01 1.96-.07 3.92-.27 5.88m4.71.5c-1.42-.14-2.84-.28-4.25-.45.29-1.95.44-3.91.36-5.87 1.36.15 2.72.29 4.09.42-.04 1.97-.07 3.93-.18 5.89m4.22.38c-1.21-.1-2.43-.2-3.64-.32.187-1.95.31-3.92.28-5.88 1.25.12 2.5.22 3.75.33.02 1.97-.09 3.91-.38 5.87m5 .34c-1.49-.08-2.97-.18-4.46-.29.38-1.94.56-3.9.48-5.86 1.38.12 2.75.23 4.12.33.03 1.95 0 3.89-.15 5.83m.43.02c.2-1.93.31-3.87.27-5.81 1.05.08 2.11.14 3.16.21.07 1.804.21 3.61.36 5.41.03.35.56.36.56 0-.03-1.787-.07-3.58-.18-5.36.43.023.86.06 1.28.08l2.77.15c-.25 1.854-.43 3.73-.57 5.594-2.56-.04-5.11-.13-7.66-.27m8.12.288h-.02c.28-1.85.52-3.71.69-5.58 1.05.05 2.11.1 3.16.13-.04 1.82.15 3.67.3 5.48-1.38.01-2.76 0-4.13-.02m4.59.02c-.03-1.81-.03-3.66-.25-5.46 1.45.05 2.9.09 4.35.11-.28 1.76-.54 3.54-.69 5.31-1.14.02-2.28.04-3.41.04m3.93-.04c.31-1.75.52-3.52.705-5.29.99.02 1.98.02 2.97.02-.03 1.72.07 3.45.11 5.16-1.26.05-2.526.09-3.78.12m7.89-.33c-1.21.07-2.42.14-3.63.19.04-1.71.14-3.43.11-5.146 1.26-.006 2.52-.03 3.78-.066-.18 1.66-.19 3.36-.26 5.015m5.164-.42c-1.55.15-3.1.28-4.65.39.16-1.65.37-3.34.41-5.01 1.52-.05 3.04-.13 4.55-.23-.15 1.61-.24 3.23-.31 4.85m5.4-.65c-1.62.23-3.25.43-4.88.6.17-1.61.32-3.23.4-4.85 1.53-.11 3.05-.27 4.57-.44-.07 1.56-.08 3.13-.08 4.69m3.77-.6c-1.09.19-2.18.37-3.28.53.09-1.56.17-3.14.18-4.7 1.19-.15 2.36-.32 3.53-.51-.2 1.55-.31 3.12-.44 4.67m5.23-1.07c-1.51.35-3.02.67-4.54.95.17-1.55.37-3.11.48-4.67 1.48-.25 2.96-.55 4.42-.88-.13 1.53-.22 3.07-.36 4.6m-5.36-5.79c-20.77-.62-41.11-1.84-61.7-5.26-.16-.03-.23.21-.06.24 18.11 3.63 37.12 5.95 55.75 5.77-9.51.87-19.3.46-28.89-.11-42.44-2.53-87-12.23-121.76-38.01-9.47-7.02-18.56-16.06-22.05-27.63C12 46.26 13.67 34.35 21.1 26.2c2.72 1.74 5.47 3.48 8.33 4.99-2.8 7.68-.65 18.61 2.33 24.57 5.87 11.73 18.24 19 30.79 21.48 7.48 1.483 15.17.57 21.31-3.026-2.64 8.21 10.5 16.09 16.48 18.94 8.21 3.91 17.68 4.67 26.03.75 1.68-.79 3.22-1.76 4.61-2.86 1.74 1.56 3.68 2.97 5.55 4.33 1.95 1.42 4.23 3.315 6.6 4.04-.93 1.56-.56 4.01-.06 5.59.85 2.67 2.94 4.75 5.81 4.98 2.35.19 4.2-.73 5.397-2.16 1.09 1.97 3.77 3.04 6.13 2.725 2.37-.32 5.33-1.42 7.21-2.94.36-.29 3.22-4.02 1.29-4.11.147.01.26-.05.36-.13 3.406 1.55 6.87 3.08 10.39 4.16 2.45.76 4.31.9 5.697-1.49.433-.75 1.25-2.14 1.92-3.63 3.274 2.02 6.885 3.47 10.616 4.4 2.2.55 6.57 2.03 8.614.35.78-.64 1.06-1.76 1.41-2.66.813-2.06 2.27-4.57 2.56-6.77.34-2.7-.95-2.34-2.52-3.4.1-.47.21-.94.31-1.41.11-.52-.25-1.1-.83-1.08-3.54.12-6.257-1.05-9.29-2.188 4.472.83 9.31.03 12.72-3.09.19.21.38.41.57.62.752.86 1.64 2.37 2.953 2.52 2.78.32 6.32-5.42 7.553-7.24 1.84-2.69.08-3.34-.94-5.22.53-1.3.48-2.68-.64-4.18-.64-.86-1.38-1.68-2.16-2.46 6.71.41 13.51 1.11 20.25 1.08.58 1.51 1.01 3.08 1.265 4.68-5.08-.375-10.22-.31-15.3-.47-.28-.01-.28.43 0 .44 5.115.24 10.27.72 15.4.74.12.92.19 1.85.2 2.78-4.74-.5-9.59-.5-14.34-.72-.33-.02-.33.49 0 .51 4.75.32 9.56.88 14.33.91-.01.32-.015.64-.037.96-.05.642-.124 1.29-.215 1.92-4.66-.42-9.45-.447-14.073-.23-.28.01-.28.42 0 .43 4.64.21 9.3.46 13.95.6-.2 1.13-.45 2.244-.78 3.34-5.2-.534-10.48-.94-15.69-1.054-.12 0-.15.19-.03.21 5.11.74 10.34 1.2 15.51 1.52-.32.984-.68 1.954-1.083 2.906-5.28-.63-10.64-.83-15.94-1.16-.18-.01-.17.26 0 .27 5.22.51 10.48 1.15 15.73 1.38-.4.89-.838 1.78-1.31 2.64-7.77-1.18-15.72-1.507-23.55-2.177-.24-.02-.24.36 0 .38 7.74.79 15.53 1.94 23.31 2.24-.53.94-1.09 1.87-1.69 2.77-6.89-.49-13.78-.89-20.66-1.46-.19-.01-.184.27 0 .29 6.73.79 13.5 1.45 20.27 1.72-.59.85-1.21 1.69-1.86 2.51-3.52-.12-7.05-.07-10.574-.2-3.73-.13-7.58-.68-11.28-.36-.15.01-.19.22-.04.26 6.54 1.65 14.56 1.43 21.39.93-1.047 1.27-2.15 2.5-3.307 3.66-5.11-.81-10.41-1.043-15.55-.97-.2 0-.198.295 0 .3 5.03.24 9.982.75 14.972 1.26-.92.905-1.863 1.774-2.82 2.6-5.545-1.05-11.263-1.55-16.87-1.835-.17-.01-.164.25 0 .266 5.41.58 10.77 1.41 16.156 2.164-.31.26-.625.53-.94.78-.375.3-.75.59-1.13.88-11.22-1.49-22.53-2.1-33.84-2.14-.22 0-.22.34 0 .34 11.02.29 21.964 1.22 32.91 2.49-1.39 1.01-2.8 1.95-4.24 2.8-12.656-.85-25.16-1.32-37.745-3.19-.19-.03-.27.26-.08.29 12.06 2.08 24.63 3.78 36.91 3.42-1.61.914-3.24 1.74-4.9 2.48-17.34-.27-34.47-1.22-51.69-3.375-.23-.03-.29.37-.06.4 16.24 2.47 32.87 3.83 49.33 3.64v.33c-1.97.78-3.98 1.45-6.02 2.03-16.68-.27-33.32-1.22-49.89-3.21-.13-.02-.16.21-.03.22 15.63 2.285 31.38 3.6 47.17 3.69-1.93.46-3.88.83-5.84 1.14m10.08 4.55c-1.28.37-2.57.72-3.87 1.04.21-1.53.38-3.08.41-4.62 1.41-.34 2.81-.72 4.19-1.14-.19 1.59-.4 3.16-.74 4.72m4.23-1.38c-1.14.4-2.29.79-3.45 1.14.37-1.55.63-3.13.67-4.71 1.05-.33 2.08-.68 3.11-1.07 0 1.48-.06 2.95-.34 4.46-.01.06-.01.12 0 .18m.85-.31c.28-1.53.46-3.12.43-4.69 1.3-.51 2.57-1.07 3.84-1.66-.01 1.48.16 2.97.46 4.41-1.55.7-3.12 1.34-4.72 1.93m8.64-3.88c-1.15.61-2.31 1.2-3.49 1.75-.18-1.52-.26-3-.27-4.51 1.32-.65 2.63-1.34 3.92-2.09-.1 1.61-.13 3.23-.16 4.85m.45-.25c.15-1.66.28-3.32.33-4.98 1.28-.76 2.54-1.59 3.78-2.47-.02 1.65.02 3.31.05 4.963-1.36.89-2.74 1.72-4.15 2.49m7.03-4.51c-.26.2-.52.4-.78.59-.52.38-1.05.74-1.58 1.1.03-1.68.06-3.37.02-5.06.82-.6 1.63-1.24 2.43-1.9-.09 1.66-.22 3.31-.44 4.96-.03.22.18.35.342.31m4.23-3.6c-1.31 1.25-2.69 2.43-4.13 3.52.02-.03.05-.04.06-.09.33-1.88.55-3.76.62-5.66 1.09-.92 2.17-1.9 3.22-2.94.105-.1.21-.22.32-.32.004 1.84.03 3.66-.09 5.5m3.83-4.06c-1.06 1.26-2.19 2.48-3.38 3.63.2-1.87.334-3.78.213-5.655 1.077-1.12 2.12-2.3 3.12-3.54.13 1.89.22 3.7.04 5.55m4.33-11.2c-.52 2.03-.66 4.2-.68 6.334-.86 1.334-1.795 2.63-2.8 3.88.17-1.73.11-3.487-.35-5.15 0-.01-.01-.01-.02-.024 1.43-1.8 2.75-3.72 3.91-5.72.01.19.02.38.036.57-.03.04-.07.07-.09.13m.1 5.08c.1-1.02.21-2.04.3-3.066.13.58.28 1.16.46 1.73-.25.45-.49.89-.76 1.33m.93-1.61c-.31-1.74-.404-3.444-.38-5.19.76-1.39 1.44-2.82 2.02-4.28.24 1.4.53 2.79.84 4.18-.7 1.81-1.53 3.58-2.48 5.3m3.81-15.45c.296.7.567 1.407.82 2.12-.35 2.26-.91 4.496-1.67 6.68-.235-1.393-.505-2.78-.82-4.15.63-1.766 1.105-3.574 1.41-5.41l.24.01c.396.006.37-.557 0-.6l-.15-.02c.39-2.704.41-5.464-.07-8.24-.13-.745-.31-1.48-.513-2.206.12-.12.19-.29.18-.52-.02-.69-.09-1.37-.17-2.05 1.87 5.08 2.35 10.3 1.72 15.41-.17-.41-.36-.83-.58-1.23-.14-.26-.5-.03-.39.23" clip-path="url(#b)" />
    <path fill="#1D1D1B" d="M74.542 71.77c-.854 1.35-2.915 1.416-3.865.142-.137-.183-.427-.028-.314.184.91 1.715 3.726 1.627 4.556-.106.12-.252-.23-.46-.38-.22m.25-2.517c-.78-.187-1.53.305-1.79 1.025-.1.28.33.39.44.12.19-.502.78-.823 1.3-.628.48.18.7.69.68 1.178-.02.248.38.303.43.06.17-.76-.3-1.568-1.07-1.755m1.42-3.31c-.1.744-.85 1.49-1.64 1.34-.77-.145-1.2-.935-1.11-1.666.05-.35-.55-.432-.62-.084-.21 1.144.54 2.376 1.75 2.508 1.22.14 2.28-.88 2.22-2.09-.02-.41-.58-.38-.63 0m4.34 1.31c-.83-.39-2.06-.62-2.72.2-.43.55-.48 1.43.19 1.8.26.14.45-.22.22-.38-.43-.31-.12-.99.25-1.21.56-.32 1.34-.08 1.94-.02.2.02.28-.29.1-.37m2.21 1.53c-.04-.37-.58-.38-.59 0-.02 1.41-1.71 2.5-2.97 1.78-.28-.16-.52.26-.25.44 1.57 1.05 4.03-.28 3.82-2.21m-2.4-3.59c-.26.19-.02.64.26.45.79-.54 1.72-.66 2.63-.38.97.3 1.46.95 2.01 1.75.18.26.56.1.5-.21-.43-2.29-3.78-2.78-5.4-1.6" clip-path="url(#b)" />
    <path fill="#1D1D1B" d="M86.587 65.833c-.468 1.524-2.115 2.462-3.63 1.828-.283-.11-.484.36-.21.5 1.74.87 4.205-.12 4.51-2.14.065-.43-.535-.62-.67-.18m-5.924-3.61c-1.488-1.19-3.743.44-3.488 2.2.033.23.43.18.403-.05-.162-1.48 1.57-2.42 2.824-1.8.204.1.463-.17.26-.33m-9.728 8.29c-.874-1.81-3.916-1.04-4.484.61-.093.27.318.44.453.19.383-.68 1.042-1.1 1.83-1.15.76-.04 1.257.3 1.83.74.237.18.475-.15.37-.37M67.15 73.3c-1.487.777-2.824.307-4.04-.69-.238-.196-.606.045-.442.34.89 1.602 3.35 1.793 4.746.8.27-.19.04-.608-.264-.45m-3.46-1.52c-1.02-1.35-3.24-1.01-4.045.398-.077.134.12.246.206.12.82-1.215 2.49-1.186 3.52-.268.16.145.47-.053.32-.25m3.52-4.386c-.47.35-.93.678-1.49.89-.24.094-.51.197-.77.19-.22-.005-.95-.47-.4-.654.31-.104.19-.56-.13-.49-.84.18-.73 1.348-.07 1.683 1.05.527 2.56-.372 3.26-1.12.24-.25-.08-.723-.38-.5m1.75-2.334c-.99-.1-1.92.54-2.04 1.53-.03.27.44.33.48.06.16-.93 1.26-1.25 2.02-.82.68.37 1.03 1.16 1.33 1.84.13.28.53.07.48-.2-.21-1.12-1.04-2.3-2.26-2.42m49.79 24.97c-.87.21-1.74.56-2.66.45-.98-.12-1.95-.92-1.66-1.99.08-.32-.39-.45-.49-.14-.3 1.01.28 1.98 1.19 2.45 1.2.62 2.67.15 3.79-.39.23-.11.07-.46-.16-.4" clip-path="url(#b)" />
    <path fill="#1D1D1B" d="M119.558 88.197c-1.056-.782-2.434-.255-3.48.264-.284.15-.034.55.25.43.786-.35 1.886-.8 2.71-.3.602.37.79 1.07.53 1.7-.097.24.245.39.405.24.72-.68.287-1.79-.415-2.31m4.657-.36c-.13-.36-.643-.3-.67.09-.055.82-.903 1.87-1.797 1.33-.663-.4-.764-1.45-.24-1.99.287-.3-.15-.73-.455-.45-.972.88-.735 2.64.444 3.23 1.32.66 3.25-.71 2.718-2.2m-9.07 4.88c-1.06-1.34-3.343-2.11-4.792-.93-.223.19.024.49.257.45 1.56-.31 2.97-.4 4.176.84.234.24.56-.11.36-.36m-4.14-3.18c-1.018-.53-2.42-.85-3.394-.04-.708.6-.972 1.61-.365 2.35.14.18.42-.05.307-.23-.426-.7.078-1.58.794-1.83.782-.27 1.686.03 2.454.24.283.08.476-.34.204-.48m17.138-3.98c-.326.62-.805 1.14-1.52 1.27-.31.05-.723.07-1.003-.11-.22-.14-.15-.09-.21-.31-.07-.25-.08-.53-.12-.79-.06-.37-.64-.27-.64.09 0 .65-.16 1.32.46 1.7.46.29 1.03.37 1.56.3 1.03-.13 2.09-.88 2.07-2 0-.3-.44-.45-.59-.16m-4.36-2.66c-1.02.13-1.81.87-2.12 1.83-.09.28.33.37.43.12.32-.75 1.02-1.32 1.86-1.33.89-.01 1.3.57 1.9 1.08.21.18.52.01.45-.26-.23-1.03-1.55-1.55-2.51-1.43m7.4-.42c-.16.71-.82 1.38-1.6 1.27-.77-.12-1.27-.96-1.14-1.7.07-.38-.47-.54-.58-.16-.33 1.14.35 2.43 1.54 2.71 1.29.31 2.53-.74 2.57-2.01.02-.45-.68-.55-.78-.11m-12.65 1.36c-1.4-.7-2.85.24-3.93 1.08-.31.24-.03.76.32.54.78-.48 1.73-1.11 2.67-1.05.99.07 1.46.86 1.36 1.77-.03.26.37.42.53.22.75-.91-.01-2.11-.93-2.56" clip-path="url(#b)" />
    <path fill="#1D1D1B" d="M115.288 85.748c-1.173 1.192-2.948 1.027-4.164.004-.3-.253-.85.08-.588.453 1.218 1.742 3.957 1.63 5.27.062.3-.356-.18-.86-.518-.52m-2.325-36.457c-.938 1.143-2.828.368-2.44-1.15.1-.385-.468-.537-.592-.162-.31.94.09 2.056 1.01 2.488.93.437 1.98.046 2.52-.795.19-.29-.26-.66-.49-.38m3.18-2.42c-.85-1.02-2.49-.86-3.27.15-.2.27.26.63.47.37.55-.68 1.75-.81 2.31-.05.56.77.06 1.66-.53 2.21-.2.19.01.52.27.45 1.28-.34 1.54-2.2.77-3.12m4.24-.47c-.17-.25-.62-.18-.61.17.02.75.01 1.36-.5 1.97-.46.57-1.15.89-1.89.83-.29-.02-.31.4-.06.48.96.34 1.94-.05 2.6-.78.61-.67 1.04-1.85.47-2.66m-.46-3.16c-1.37.1-2.37 1.31-2.45 2.64-.02.31.43.3.47 0 .13-1.07 1.06-2 2.18-1.93 1.03.06 1.61.85 1.95 1.73.13.35.72.34.69-.09-.09-1.38-1.49-2.43-2.84-2.33m6.23-.82c-.02-.38-.54-.46-.66-.09-.21.64-.31 1.53-.83 2-.37.34-1.33.33-1.34-.33-.01-.36-.59-.47-.65-.09-.16 1.05.93 1.67 1.87 1.47 1.29-.28 1.68-1.82 1.61-2.96m-1.76-4.16c-1.25.55-1.63 2.23-.81 3.28.21.26.56-.07.43-.33-.39-.79-.14-1.97.78-2.26.92-.29 1.59.42 1.94 1.16.15.32.68.16.66-.18-.08-1.37-1.81-2.21-3.01-1.67m5.53-2.66c-.34.64-.67 1.5-1.34 1.85-.64.33-1.85-.29-1.31-1.06.2-.28-.24-.61-.47-.36-.84.91.09 2.2 1.12 2.4 1.43.27 2.45-1.33 2.69-2.52.08-.4-.48-.69-.69-.29m-7.7 3.9c-.18-.94-1.38-1.42-2.2-.94-.78.46-.94 1.59-.33 2.25.23.24.59-.07.45-.35-.2-.39-.13-1 .3-1.22.47-.24.95.11 1.16.53.18.37.7.1.63-.27m-1.44 2.48c-.8-1.55-3.11-1.49-4.05-.13-.17.25.22.55.43.33.86-.94 2.34-.74 3.11.2.25.3.68-.08.52-.39m4.69-8.89c-1.3.06-2.25 1.17-2.36 2.41-.04.46.7.55.79.11.17-.8.81-1.52 1.68-1.53.91-.01 1.3.7 1.78 1.34.21.28.62.19.65-.17.11-1.27-1.4-2.18-2.53-2.13m29.42 34.2c-1.26 1.18-3.21.32-3.21-1.39 0-.25-.41-.32-.44-.06-.34 2.29 2.51 3.66 3.99 1.78.19-.23-.1-.54-.33-.33m1.18-3.3c-1.01-.15-1.95.58-2.15 1.56-.06.33.42.47.51.14.18-.67.84-1.21 1.55-1.04.63.15.95.77 1.1 1.35.06.25.47.27.52 0 .18-.96-.56-1.86-1.52-2.01m3.72-4.22c-.41.78-.93 1.71-1.79 2.06-.82.33-2.24-.43-1.72-1.45.21-.4-.36-.73-.6-.35-.74 1.17.32 2.58 1.56 2.78 1.65.27 2.85-1.36 3.22-2.75.11-.39-.46-.65-.66-.28m-2.89-3.48c-1.01-.38-2.15.1-2.66 1.03-.15.27.24.49.41.24.45-.64 1.34-.99 2.07-.6.64.33.86 1.07.89 1.75.02.34.48.4.59.08.35-1.02-.32-2.13-1.3-2.5m4.7-.82c-.23.62-1.06 1.03-1.65.67-.65-.4-.58-1.45.01-1.88.29-.21.04-.68-.29-.49-1.05.61-1.21 2.28-.23 3.04 1.01.78 2.74.16 2.93-1.12.07-.5-.58-.69-.76-.21m-12.3 12.63c-.44-.71-1.53-1.02-2.14-.36-.15.16.08.38.24.24.53-.45 1.35 0 1.49.61.16.77-.44 1.34-.9 1.85-.15.16-.01.49.22.4.98-.4 1.71-1.74 1.1-2.73m1.74-5.67c-1.2-.24-2.25.65-3.07 1.4-.19.18.07.54.29.37.56-.43 1.17-.93 1.86-1.1.85-.21 1.87.29 1.77 1.277-.03.35.52.41.61.08.27-1-.5-1.834-1.46-2.03m3.44-1.32c-.6.28-1.19.6-1.85.22-.59-.344-.85-1.044-.72-1.7.07-.32-.38-.45-.48-.134-.29.894.02 1.955.83 2.476.8.51 2.15.48 2.71-.38.21-.32-.19-.62-.49-.48M17.06 15.44c-.036-.412-.605-.413-.64 0-.12 1.354-.13 2.72-.035 4.078.032.46.676.46.708 0 .096-1.35.087-2.72-.033-4.072" clip-path="url(#b)" />
</svg>
