<?xml version="1.0" encoding="utf-8"?>
<!-- Generator: Adobe Illustrator 16.0.0, SVG Export Plug-In . SVG Version: 6.00 Build 0)  -->
<!DOCTYPE svg PUBLIC "-//W3C//DTD SVG 1.1//EN" "http://www.w3.org/Graphics/SVG/1.1/DTD/svg11.dtd">
<svg version="1.1" id="Ebene_1" xmlns="http://www.w3.org/2000/svg" xmlns:xlink="http://www.w3.org/1999/xlink" x="0px" y="0px"
	 width="100px" height="43px" viewBox="0 0 100 43" enable-background="new 0 0 100 43" xml:space="preserve">
<g>
	<g id="XMLID_1_">
		<g>
			<path fill="#002E15" d="M89.045,17.69c2.314,0.58,4.054,1.738,3.357,4.285c-0.348,1.158-2.2,1.854-4.4,2.434
				c1.506,1.504,1.854,3.705-1.158,4.748c-2.199,0.811-4.748,1.157-7.297,0.811c-1.853-0.348-3.705,0-5.56,0
				c-4.283,0-8.917,0.58-13.317,0.695c-5.097,0.114-9.998,0.367-14.746,0.367v-0.822c0.116,0,0.616-0.24,0.964-0.24
				c0.464,0,0.811,0.115,0.811-0.348c0.116-4.633,0.465-9.381,1.158-14.246c0-0.694,0-1.39,0-2.315c0,0,0.116-0.463,0-0.58v-0.926
				c0.927,0,1.854,0,2.548,0c3.359,0,6.023,0.114,9.267,0.114c4.979,0,9.611,0.117,14.709,0.695c1.042,0,2.084-0.348,3.356-0.348
				c2.086-0.348,4.402-0.579,6.371,0.58c2.085,1.158,1.969,2.779,1.042,4.169c-0.464,0.463-0.464,0.463-0.464,0.463
				C86.844,17.228,87.887,17.344,89.045,17.69z M90.55,22.439c1.506-0.694,1.353-2.016,0.31-2.825
				c-1.157-0.812-2.046-1.229-3.204-1.229c-1.39,0-4.054,0-5.56,0.463c-0.115,0.232-0.115,0.463,0.115,0.695
				c0.928-0.115,2.086-0.232,2.086,0.348c0.114,0.463-0.229,0.602-1.039,0.717c-0.349,0-0.817,0.114-1.048,0.114l0.002,0.442
				c0,0.463,0,0.463,0.347,0.463c0.464,0,0.695,0,1.159,0c0.347,0,0.693,0,0.693,0.347c0,0.464-0.466,0.616-0.696,0.616
				c-0.464,0-1.168-0.012-1.399-0.012c0,0.348-0.06,0.637,0.403,0.869C85.034,24.491,88.002,23.599,90.55,22.439z M87.539,27.767
				c0.811-0.463,0.671-1.1,0.322-1.794c-0.577-1.158-1.159-0.562-1.854-0.562c-1.506,0-2.521-1.002-3.912-1.351
				c-0.812,0-1.243-0.053-2.401,0.295c-0.463,0.115-0.609,0.168-0.609,0.631c0,0.349,0,0.349,0.463,0.349
				c1.506-0.116,1.852-0.088,1.852,0.607c-0.463,0.348-1.413,0.402-1.878,0.402c-0.348,0-0.437-0.2-0.437,0.38
				c0,0.349,0.231,0.349,0.695,0.349c0.463-0.117,0.811,0,1.157,0c0.463,0,0.443,0.477,0.443,0.824
				c-0.115,0.348-1.552,0.116-2.132,0.116c0,0-0.396,1.608,0.646,1.608c0.58,0,0.812,0,1.158,0
				C83.486,29.157,85.686,28.809,87.539,27.767z M85.454,16.185c0.578-0.926,0.348-2.201-0.811-2.664
				c-2.549-1.158-5.213-0.693-8.224,0c0,0-0.349,0-0.349,0.464c0.349,0.349,0.349,0.349,0.694,0.349
				c0.695-0.232,1.158-0.232,1.506-0.232c0.116,0.343,0.349,0.695-1.506,0.926c-0.463,0.117-0.694,0-0.694,0.465
				c0,0.811,0.349,0.578,0.694,0.578c0.348,0,1.506-0.23,1.506,0.232c0,0.695-0.578,0.695-1.506,0.695
				c-0.694,0-0.694,0.348-0.694,0.694c0,0.464,0.349,0.464,0.694,0.464c2.086,0,3.475-0.117,5.676-0.349
				C83.602,17.69,84.76,17.575,85.454,16.185z M51.057,26.263c0.463,0,0.812-0.812,0.58-1.158c0,0,0.088-0.455-0.838-0.339
				c-0.579,0.116-1.132-0.008-1.826-0.008c-0.464,0-0.348,0.811-0.348,0.811c0,0.349-0.116,0.695,0.348,0.695
				c0.348,0,1.042-0.117,1.042-0.117C50.362,26.263,50.709,26.263,51.057,26.263z M49.784,29.62c0-1.043,0.578-1.621,1.041-2.664
				c-1.854,0-2.315-0.463-2.315,1.504c0,0.465,0,0.465,0,1.158c-0.115,0.349,0.348,0.349,0.348,0.349
				C49.319,29.968,49.784,30.083,49.784,29.62z"/>
			<path fill="#FFF7B2" d="M91.125,19.659c1.157,0.811,1.176,2.321-0.446,3.018c-2.547,1.158-6.073,1.791-8.105,0.811
				c-0.349-0.231-0.349-0.58-0.349-0.927c0.349,0,1.042,0,1.39,0c0.349,0,0.695-0.231,0.695-0.579c0-0.347-0.464-0.347-0.695-0.347
				c-0.463,0-0.693,0-1.157,0c-0.348,0-0.348,0-0.348-0.464v-0.463c0.348,0,0.812-0.116,1.042-0.116
				c0.926-0.115,1.158-0.231,1.042-0.695c-0.116-0.463-1.157-0.347-2.084-0.347c-0.413-0.318-0.116-0.58-0.116-0.695
				c1.391-0.464,4.054-0.464,5.56-0.464C89.618,18.46,90.082,18.848,91.125,19.659z"/>
			<path fill="#FFF7B2" d="M88.024,26.058c0.463,0.811,0.389,1.874-0.422,2.221c-1.854,1.158-4.053,1.389-6.602,1.389
				c-0.349,0-0.579,0-1.158,0c-0.927,0-0.579-1.736-0.579-1.736c0.579,0,1.969,0.23,2.085-0.115c0.115-0.348,0-0.695-0.464-0.695
				c-0.349,0-0.694-0.117-1.157,0c-0.579,0.117-0.695,0-0.695-0.348c0-0.58,0.134-0.507,0.466-0.495
				c0.463,0.017,1.332-0.005,1.852-0.315c-0.018-0.707-0.348-0.579-1.854-0.579c-0.464,0-0.464,0-0.464-0.349
				c0-0.463,0.13-0.615,0.593-0.73c1.272-0.348,1.775-0.243,2.472-0.243c1.73,0.256,2.099,1.231,3.775,1.358
				C86.667,25.31,87.446,24.899,88.024,26.058z"/>
			<path fill="#FFF7B2" d="M84.435,13.409c1.485,0.467,1.592,2.047,0.975,2.936c-0.693,1.273-1.857,1.352-3.017,1.467
				c-2.084,0.232-3.475,0.348-5.675,0.348c-0.463,0-0.694,0-0.694-0.463s0-0.695,0.694-0.695c0.927,0,1.506,0,1.506-0.694
				c0-0.463-1.158-0.231-1.506-0.231c-0.463,0-0.694,0.231-0.694-0.58c0-0.463,0.349-0.347,0.694-0.463
				c1.737-0.231,1.506-0.348,1.506-0.927c-0.348,0-0.811,0-1.506,0.231c-0.295,0.039-0.468-0.006-0.694-0.348
				c-0.146-0.451,0.343-0.492,0.343-0.492C79.378,12.917,81.282,12.198,84.435,13.409z"/>
			<path fill="#FFF7B2" d="M51.68,25.005c0.21,0.578-0.114,1.287-0.577,1.287c-0.348,0-0.8,0-1.146,0c0,0-0.856,0-1.087,0
				c-0.464,0-0.308-0.476-0.308-0.707c0,0-0.099-0.846,0.396-0.85c0.712-0.007,1.156,0.114,1.765,0.043
				C51.534,24.546,51.68,25.005,51.68,25.005z"/>
			<path fill="#FFF7B2" d="M50.825,26.956c-0.463,1.041-1.031,1.65-1.031,2.693c0,0.463-0.55,0.335-1.014,0.335
				c0,0-0.463,0-0.463-0.348c0-0.695,0-0.695,0-1.158C48.433,26.511,48.973,26.956,50.825,26.956z"/>
			<path fill="#13A538" d="M48.896,12.395c0.116,0.115,0,0.695,0,0.695c0,0.926,0,1.622,0,2.315
				c-0.693,4.865-1.042,9.613-1.158,14.245c0,0.464-0.348,0.349-0.811,0.349c-0.348,0-0.823,0.203-0.938,0.203
				c-0.231,0-0.206-0.211-0.206-0.675c0.349-2.2,0.341-4.401,0.341-6.718s0.638-4.391,0.698-6.59
				c0.032-1.135,0.077-2.616,0.193-3.426C47.709,12.444,48.085,12.51,48.896,12.395z"/>
			<path fill="#002E15" d="M48.882,11.554l0.167,1.124c-0.812,0.114-1.298-0.181-1.993,0.167c-0.115,0.926-0.23,2.316-0.23,3.475
				c0,2.201-0.694,4.285-0.694,6.602c0,2.201,0,4.517-0.349,6.718c0,0.463,0.115,0.58,0.349,0.58v0.812
				c-0.695,0-1.506,0.115-2.201,0.115c-5.906,0-9.845,0.348-17.024,0.348c-1.39,0-3.357,0-4.749,0c-2.084,0-4.284,0-6.602,0
				c-3.59,0-5.906-3.475-4.054-6.602c-3.476,0-4.054-1.854-4.054-3.707c0-0.811-0.114-1.621,0.812-2.548
				c0.926-1.042,1.506-0.927,2.779-1.272c-0.695-1.158-0.578-1.97-0.349-3.012c0.232-1.506,2.085-2.779,3.938-2.779
				c9.96-0.115,18.762,0,29.186,0C45.087,11.571,47.145,11.438,48.882,11.554z M19.608,23.962c1.504-0.694,1.853-2.432,1.158-3.704
				c-1.158-1.738-2.664-2.433-4.402-1.39c-1.157,0.694-1.39,1.504-1.272,3.474C15.322,24.079,18.218,24.772,19.608,23.962z
				 M17.87,28.827c0.348-1.853-0.349-4.168-3.358-4.054c-1.969,0.117-2.896,0.812-2.664,2.664c0.232,1.274,0.348,1.97,1.854,2.548
				c0.811,0.348,1.39,0.463,2.085,0.463C17.175,30.333,17.87,29.985,17.87,28.827z M14.164,18.057c2.199,0,3.357-1.158,3.357-2.201
				c0-1.737-1.506-3.358-2.663-3.358c-2.201,0-3.358,1.158-3.358,3.358C11.5,17.247,12.659,18.057,14.164,18.057z M11.5,23.962
				c2.2,0,2.26-1.807,2.26-3.312c0-0.812-0.754-1.782-1.796-2.247c-0.694-0.347-2.525,0.106-3.011,0.695
				c-0.695,1.158-0.695,2.316-0.349,3.357c0.846,1.064,1.395,1.139,2.668,1.485C11.273,23.595,11.27,23.962,11.5,23.962z"/>
			<path fill="#FFF7B2" d="M20.767,20.258c0.693,1.157,0.463,3.01-1.158,3.704c-1.506,0.812-4.401,0.232-4.518-1.62
				c-0.231-1.97,0.115-2.896,1.272-3.474C18.103,17.825,19.608,18.52,20.767,20.258z"/>
			<path fill="#FFF7B2" d="M14.512,24.772c3.011-0.115,3.788,2.135,3.44,4.096c-0.252,1.158-0.334,1.117-1.434,1.48
				c-0.592,0.195-2.008,0.031-2.703-0.316c-1.506-0.578-1.865-1.438-1.979-2.712C11.488,25.583,12.659,24.89,14.512,24.772z"/>
			<path fill="#FFF7B2" d="M17.522,15.855c0,1.158-1.158,2.201-3.357,2.201c-1.505,0-2.664-0.812-2.664-2.201
				c0-2.2,1.159-3.358,3.358-3.358C16.017,12.497,17.522,14.003,17.522,15.855z"/>
			<path fill="#FFF7B2" d="M13.816,20.604c0,1.506-0.114,3.358-2.315,3.358c-0.348,0-2.201-0.346-3.013-1.504
				c-0.229-1.043-0.229-2.2,0.466-3.358c0.463-0.694,2.315-1.042,3.011-0.694C13.006,18.868,13.816,19.909,13.816,20.604z"/>
		</g>
	</g>
	<g>
		<path fill="#13A538" d="M52.151,29.638c0.232-0.58,0.349-0.811,0.695-1.621c2.2-4.749,4.749-9.266,6.833-14.13
			c0.232-0.463,0.58-0.695,0.232-1.042c-0.464,0-1.044-0.348-1.507,0c0,0-0.348,0.695-0.58,1.158
			c-1.62,3.244-2.895,6.486-4.632,9.959c-0.694,1.623-1.506,3.359-2.548,5.213c-0.464,0.811,0,0.811,0.695,0.811
			C51.688,29.985,52.036,29.985,52.151,29.638z"/>
	</g>
	<g>
		<path fill="#13A538" d="M45.435,15.044c-0.811-0.811-1.158-1.041-1.854-1.853c-0.349-0.348-0.694-0.348-1.042-0.348
			c-0.464,0-0.464-0.115-1.158,0c-0.347,0,0.464,0.694,0.694,1.157c1.157,1.043,2.663,2.433,3.706,4.055
			C46.245,17.014,46.245,15.855,45.435,15.044z"/>
	</g>
	<g>
		<path fill="#13A538" d="M49.952,22.226c0.463,0.463,0.926,1.042,1.272,1.505c0.579,0.812,0.695,1.042,1.042,0.579
			c0.464-0.579,0.927-1.273,0.348-1.738c-1.39-1.041-2.199-2.199-3.357-3.356C48.794,20.604,48.677,21.067,49.952,22.226z"/>
	</g>
	<g>
		<path fill="#13A538" d="M55.279,25.236c0,0-0.694,0.927-0.927,1.738l1.042,1.042c1.158,1.158,1.854,2.316,3.59,1.506
			C58.059,28.017,56.205,25.932,55.279,25.236z"/>
	</g>
	<g>
		<path fill="#FFF7B2" d="M30.031,19.909c4.748-0.117,5.56-0.694,5.56,0.463c0,0.117-5.096,0.231-5.56,0.349
			c-0.464,0-0.464,0-0.464,0.463c0,1.158,0.116,1.854-0.579,3.013c0,0-0.463,0.346-0.463,0.811
			c4.98-0.116,11.118-0.811,16.214-0.811c0.464,0,0.695,0,0.695-0.349c0-0.812,0.115-1.39,0.232-2.664
			c0-0.463,0.229-0.463-0.58-0.463c-1.621,0-4.169-0.117-5.675-0.117c-0.695,0-0.579-0.463-0.579-0.694c0.115,0,1.853,0,2.664,0
			c1.157,0,2.432-0.117,3.705-0.117c0,0,0.116,0,0.58,0c0.114,0-0.232-0.926-0.232-0.926c-0.348-0.463-0.811-0.463-0.811-0.463
			c-1.854,0-3.358,0-4.748,0c-3.706,0-7.297,0-11.467,0C28.873,19.215,29.336,19.909,30.031,19.909z"/>
	</g>
	<g>
		<path fill="#002E15" d="M41.497,21.762c-2.896,0-5.444,0.348-8.108,0.348l-0.463,0.117c-0.348,0-0.348,0.694-0.115,0.694
			c0.349,0,0.463,0,0.812,0c2.664,0,5.676-0.463,8.569-0.463c0.464,0,0.695,0,1.159-0.349
			C42.539,21.762,41.845,21.762,41.497,21.762z"/>
	</g>
	<g>
		<path fill="#FFF7B2" d="M22.618,30.333c1.506,0,2.433-1.273,2.433-2.779s-2.085-3.244-3.126-3.244
			c-1.391,0-2.664,1.158-2.664,2.664C19.261,29.985,20.534,30.333,22.618,30.333z"/>
	</g>
	<g>
		<path fill="#FFF7B2" d="M23.661,23.616c1.157,1.157,2.664,1.62,4.169,0.346c2.085-1.735,0.579-6.021-2.663-5.094
			c-1.273,0.348-2.201,1.39-2.201,2.2C22.966,22.226,23.43,23.268,23.661,23.616z"/>
	</g>
	<g>
		<path fill="#FFF7B2" d="M17.87,13.54c0-0.463,0.694-0.695,0.694-1.158c-0.694,0-1.158,0-1.391,0
			C17.407,12.845,17.407,13.191,17.87,13.54z"/>
	</g>
	<g>
		<path fill="#FFF7B2" d="M19.261,30.333c-0.465-0.463-0.465-0.812-0.695-1.158c-0.463,0.811-0.694,1.158-0.694,1.506
			C18.218,30.333,18.913,30.681,19.261,30.333z"/>
	</g>
	<g>
		<path fill="#FFF7B2" d="M20.649,18.288c4.401,0.463,4.401-4.285,1.738-5.674c-0.695-0.349-1.043-0.232-2.086,0
			c-1.158,0.23-2.084,1.389-2.084,2.778C18.218,17.014,19.376,18.171,20.649,18.288z"/>
	</g>
	<g>
		<path fill="#FFF7B2" d="M40.339,14.466c-2.664,0-4.055,0.232-7.296,0.232c-0.349,0-0.812,0.115-0.812-0.348
			c0-0.348,0.463-0.348,0.693-0.348c2.201,0,3.823-0.231,6.371-0.231c0,0,0.927,0,1.621-0.116c-0.695-0.695-1.391-1.273-2.316-1.273
			c-1.158,0-2.664,0-3.822,0c-3.358,0-6.602,0-9.96,0c-1.272,0,0.349,0.811,0.463,3.011l0.116,0.116
			c3.127-0.116,6.486-0.231,9.613-0.231c0.348,0,1.272,0.115,1.969,0.464c-0.348,0.463-1.043,0.348-1.738,0.348
			c-3.241,0.115-5.905,0.115-9.147,0.115c-0.464,0-0.349,0-0.695,0c-0.23,0.463-0.464,0.811-0.464,1.157
			c0,0.812,0.348,0.464,0.695,0.349c0.927-0.232,1.854-0.463,3.011-0.463c3.707,0,7.646,0,11.467,0c1.505,0,2.663,0,4.054,0
			c-0.694-0.928-0.694-1.043-1.854-1.043c-0.463,0-0.579,0-1.158,0c-0.811,0-0.695-0.695-0.115-0.58
			c0.694-0.115,0.812-0.115,1.506-0.115C41.729,14.234,41.034,14.466,40.339,14.466z"/>
	</g>
	<g>
		<path fill="#FFF7B2" d="M35.938,26.511c3.013-0.116,5.675-0.348,8.454-0.348c0.465,0,0.58,0,0.928,0
			c0.349,0,0.23-0.694,0.23-1.158c0-0.348-0.23-0.348-0.23-0.348c-6.485,0.232-12.394,0.812-18.994,0.812
			c-0.694,0-0.811,0-0.694,0.348c0.23,0.464,0.463,0.464,0.694,0.464c0.464,0,1.158,0,1.506,0s0.348,0,0.348,0.348
			c0,0.463-0.348,0.463-0.348,0.463c-0.694,0-1.042,0-1.737,0c-0.347,0-0.115-0.115-0.115,0.811c0,0.58-0.23,0.695,0.115,0.695
			c0.695,0,1.737-0.116,2.433-0.116c3.707,0,5.676,0,9.267-0.114c1.506-0.117,2.432,0.114,2.432,0.23
			c0,0.464-0.348,0.464-0.348,0.464c-4.863,0.115-8.224,0.115-14.36,0.347c-0.232,0.694-0.58,0.812-0.811,1.158
			c0.811,0,1.853,0,2.662,0c1.854,0,3.707,0,5.906,0c0.928,0,11.813,0.23,11.813-0.464c0-0.812,0.114-1.853,0.114-2.201
			c0-0.463,0.232-0.463-0.229-0.463c-1.506,0-3.591,0-5.56,0c-1.391,0-3.476,0-4.4-0.231C35.59,26.741,35.59,26.511,35.938,26.511z"
			/>
	</g>
	<g>
		<path fill="#FFF7B2" d="M61.881,29.638c3.475-0.115,6.833-0.463,10.075-0.463c1.854,0,3.358-0.232,5.56-0.348
			c0.812-0.117,0.812,0,0.812-0.812c0-0.349-0.116-0.812,0-1.506c0-0.695-0.348-0.695-0.812-0.695
			c-2.78,0.231-5.675,0.463-8.455,0.463c0,0-0.347,0-0.347-0.463c0-0.348,0-0.348,0.347-0.348c2.548,0,5.561-0.464,8.455-0.464
			c0.464,0,0.812,0,0.812-0.811c0-0.464-0.812-0.464-0.812-0.464c-3.358,0-6.255,0.464-9.266,0.464c-2.896,0-5.443,0.23-8.338,0.23
			c-1.158,0-2.78,0-3.938,0.232c0.811,0.812,1.622,1.506,2.085,2.201c0.349,0.348,0.349,0.463,0.695,0.348
			c3.706-0.348,8.223-0.348,11.812-0.348c0.694,0,1.391,0,2.2,0c0,0,0.349,0,0.349,0.348c0,0.463-0.349,0.463-0.349,0.463
			c-1.506,0-2.663,0-3.705,0c-3.358,0-6.603,0-9.961,0.349C59.912,29.175,59.68,29.753,61.881,29.638z"/>
	</g>
	<g>
		<path fill="#FFF7B2" d="M62.022,21.646c0.812,0,1.273-0.116,1.969-0.116c0,0,0.694-0.115,0.694,0.232
			c0,0.463-0.463,0.463-0.463,0.463c-2.664,0.348-4.748,0-6.949,0.348c-0.811,0-1.158,0.463-1.158,1.158c0.464,0,0.812,0,0.812,0
			c3.359,0,6.37,0,9.612,0c4.633,0,9.382-0.811,14.015-0.811c0.348,0,0.348-0.465,0.348-0.695c0-0.463,0.463-0.695-0.348-0.695
			c-1.506,0-3.012,0-4.401,0c-0.694,0-1.506,0-2.432-0.231c0,0-0.232-0.579,0.231-0.579c2.199,0,3.821,0,6.254,0
			c0.694,0,1.158-0.348,1.158-1.042c0-0.695-0.464-0.695-1.158-0.695c-1.392,0-2.896,0-4.4,0c-5.097,0-9.96,0-15.057,0
			c-0.812,0-1.158,0-1.854,0c-0.464,0-0.23-0.114-0.579,0.231c-0.463,0.695-0.927,1.621-1.273,2.779
			C58.779,21.762,60.284,21.646,62.022,21.646z"/>
	</g>
	<g>
		<path fill="#002E15" d="M69.409,20.604c0.811,0.117,0.811-0.346,0.811-0.812c0,0,0,0-0.463,0c-1.737,0-3.822-0.23-6.023,0.117
			c-0.463,0.116-0.578-0.117-0.578,0.349c0.349,0.348,0.349,0.348,0.695,0.348s1.042,0,1.736,0
			C66.86,20.604,68.135,20.604,69.409,20.604z"/>
	</g>
	<g>
		<path fill="#FFF7B2" d="M62.459,17.708c1.97,0.115,1.97,0.231,3.128,0.231c1.853,0,3.127,0.231,5.096,0.231
			c1.043,0,1.736,0,2.896,0c2.2,0,1.854,0,1.854-1.853c0-0.463,0-0.811,0-0.811c0-0.464,0.232-0.349-0.463-0.464
			c-0.695,0-1.506-0.114-2.316-0.114c-1.506,0-2.896-0.117-4.284-0.117c-0.464,0-0.695-0.116-0.695-0.463
			c0.231-0.231,0.695-0.116,0.695-0.116c1.854,0,4.053-0.232,5.905,0.116c0.463,0,0.463,0,0.695,0h0.463
			c0-0.463,0.116-1.158-0.463-1.158c-1.969,0-2.896-0.231-5.212-0.348c-2.432-0.231-5.328,0-8.223,0c-0.349,0-0.695-0.115-0.695,0
			c-0.348,1.042-0.578,2.085-0.926,2.896c1.735,0,3.241,0.115,4.633,0.115c1.505,0,2.895,0,4.053,0c0.348,0,0.811,0,0.811,0.463
			c0,0.348-0.463,0.348-0.463,0.348c-0.811,0-0.927,0-1.506,0c-2.201,0.117-2.664,0-3.59,0c-1.158,0-2.664,0-3.707,0
			c-0.811,0-0.926,0.463-1.158,1.158C60.26,17.708,61.418,17.594,62.459,17.708z"/>
	</g>
	<g>
		<path fill="#FFF7B2" d="M55.395,14.812c-1.506,0.117-2.085,0-3.357,0c-0.464,0-0.464-0.463-0.464-0.463c0-0.349,0-0.349,0-0.349
			c0.464,0,0.812,0,1.158,0c1.157,0,2.2,0,3.358,0c0.811,0,1.158-0.463,1.158-1.157c-2.664,0-5.212,0-7.876,0
			c0,0.694,0.114,1.621,0,3.011c1.157,0,1.737-0.232,3.475-0.115c0,0,0.579-0.117,0.579,0.115c0.116,0.463,0.23,0.463-0.694,0.58
			c-0.694,0.115-1.621,0.115-2.315,0.115c-1.158,0-1.043-0.232-1.043,1.273c1.854,0,3.358,0,5.212,0
			c0.348,0,0.579,0.115,0.694-0.464c0.464-1.042,0.695-1.737,1.158-2.432C56.205,14.812,55.857,14.812,55.395,14.812z"/>
	</g>
	<g>
		<path fill="#FFF7B2" d="M50.646,18.403c0,0-0.464,0-0.464,0.463c0,0.695,0.348,0.695,1.391,0.695c0,0,0.464,0,0.812,0
			s0.694,0,1.505,0c0.695,0,0.695-0.463,0.695-0.695c0-0.463-0.464-0.463-0.695-0.463c-0.464,0-1.157,0-1.505,0
			C51.688,18.403,51.457,18.403,50.646,18.403z"/>
	</g>
	<g>
		<path fill="#FFF7B2" d="M53.194,21.762c0-0.349,0.349-0.694,0.349-1.158c-0.349,0-1.042,0-1.506,0
			C52.151,21.067,52.847,21.413,53.194,21.762z"/>
	</g>
	<g>
		<path fill="#FFF7B2" d="M45.202,13.54c0.348,0.463,0.928,1.272,1.043,0.811c0.114-0.58,0-0.811,0-1.158
			c0-0.347,0-0.348-0.349-0.348c-0.463,0-0.694,0-1.506,0C44.739,13.191,45.202,13.54,45.202,13.54z"/>
	</g>
	<g>
		<path fill="#FFF7B2" d="M48.909,24.194c0.695-0.115,1.158-0.115,1.507-0.115c-0.349-0.349-1.043-1.391-1.273-1.738
			C48.909,22.805,48.794,23.499,48.909,24.194z"/>
	</g>
	<g>
		<path fill="#FFF7B2" d="M53.194,29.985c1.042,0,1.737,0,2.896,0c-0.695-0.811-1.391-1.506-2.085-2.201
			C53.657,28.364,53.194,29.175,53.194,29.985z"/>
	</g>
</g>
</svg>
