<!DOCTYPE svg PUBLIC "-//W3C//DTD SVG 20010904//EN" "http://www.w3.org/TR/2001/REC-SVG-20010904/DTD/svg10.dtd">
<svg version="1.0" xmlns="http://www.w3.org/2000/svg" width="600px" height="697px" viewBox="0 0 6000 6970" preserveAspectRatio="xMidYMid meet">
<g id="layer101">
 <path d="M2200 6871 c0 -6 5 -13 10 -16 19 -12 42 -79 67 -195 20 -91 26 -155 30 -307 8 -269 -14 -387 -116 -631 -66 -157 -60 -389 11 -488 42 -59 64 -59 52 -1 -5 23 -9 78 -9 122 1 70 4 85 28 122 47 73 141 103 220 69 46 -19 130 -117 177 -208 43 -82 59 -149 100 -428 57 -390 53 -608 -16 -846 -30 -103 -53 -151 -111 -227 -25 -32 -42 -61 -38 -65 9 -9 129 119 167 178 25 39 84 211 131 380 46 163 73 433 63 630 -7 150 -37 427 -61 565 -32 181 -127 515 -157 553 -23 27 -38 13 -38 -35 0 -63 -31 -109 -80 -117 -29 -5 -39 -2 -56 18 -24 27 -57 146 -48 171 11 28 47 13 71 -30 33 -59 48 -52 46 19 -6 162 -85 318 -331 649 -88 117 -112 143 -112 118z"/>
 <path d="M2530 6711 c0 -6 5 -13 10 -16 16 -10 55 -74 99 -163 64 -128 80 -168 137 -337 30 -90 74 -214 98 -277 104 -270 154 -505 177 -837 18 -251 0 -625 -37 -796 -35 -159 -123 -369 -185 -440 -17 -20 -29 -39 -25 -43 16 -15 186 220 245 337 36 70 133 395 168 561 24 110 27 148 27 320 1 245 -9 352 -32 348 -12 -2 -19 -17 -23 -46 -7 -57 -22 -71 -49 -47 -15 13 -20 31 -20 65 0 66 16 84 69 77 80 -10 181 -113 266 -271 85 -158 120 -387 79 -523 -3 -13 -2 -23 3 -23 14 0 43 156 43 227 0 109 -20 244 -46 321 -30 87 -63 146 -178 315 -45 65 -87 129 -93 141 -7 13 -47 61 -88 107 -125 139 -193 234 -211 296 -17 60 -14 76 22 99 34 23 64 -2 99 -84 40 -91 61 -115 50 -57 -43 246 -82 311 -301 500 -70 61 -110 97 -219 199 -56 53 -85 68 -85 47z"/>
 <path d="M2104 6448 c3 -135 -9 -242 -38 -327 -12 -37 -68 -144 -124 -238 -56 -94 -102 -176 -102 -182 0 -6 -4 -11 -9 -11 -17 0 -62 -121 -73 -200 -8 -61 -8 -110 0 -198 16 -161 98 -601 116 -619 14 -15 26 23 26 87 1 95 13 138 90 305 83 182 104 250 98 319 -5 55 -36 130 -53 127 -5 -1 -8 -21 -7 -46 4 -52 -4 -85 -22 -85 -16 0 -55 87 -55 121 2 73 24 209 39 239 22 43 55 74 69 65 17 -10 13 -80 -9 -137 -21 -54 -16 -77 12 -56 28 21 95 207 113 312 13 72 16 123 11 192 -8 120 -50 359 -70 404 -15 34 -15 32 -12 -72z"/>
 <path d="M3170 6361 c0 -6 5 -13 10 -16 27 -16 179 -367 201 -462 17 -74 27 -222 18 -262 -6 -29 -4 -40 12 -57 10 -11 19 -27 19 -35 0 -8 14 -41 32 -74 17 -33 37 -78 43 -100 15 -49 45 -61 45 -18 -1 168 -50 428 -106 571 -31 76 -156 322 -193 377 -48 73 -81 103 -81 76z"/>
 <path d="M1863 6053 c-59 -67 -160 -200 -197 -258 -28 -45 -131 -315 -120 -315 2 0 -2 -12 -10 -27 -20 -40 -46 -272 -46 -417 0 -265 65 -522 159 -633 30 -36 41 -28 42 30 1 69 10 97 36 114 21 14 25 12 68 -29 40 -38 47 -51 60 -113 8 -38 15 -83 15 -100 -1 -26 -29 -120 -54 -177 -5 -11 -4 -18 2 -18 20 0 55 72 78 163 21 80 23 99 13 150 -13 73 -49 175 -101 287 -59 125 -104 256 -134 383 -23 98 -27 135 -28 287 0 135 4 191 17 243 37 149 116 297 225 421 29 33 52 63 52 68 0 20 -21 4 -77 -59z"/>
 <path d="M3564 5905 c21 -105 39 -313 40 -450 1 -147 -1 -164 -21 -206 -13 -25 -23 -52 -23 -61 0 -18 28 -75 41 -83 5 -4 7 -10 4 -15 -8 -12 16 -140 26 -140 9 0 12 12 31 95 9 41 12 126 11 266 -1 173 -6 230 -28 355 -24 136 -54 234 -78 259 -6 6 -7 -1 -3 -20z"/>
 <path d="M4092 5786 c-107 -89 -216 -208 -260 -284 -18 -31 -44 -95 -58 -142 -14 -47 -30 -96 -35 -108 -15 -38 -32 -218 -30 -327 1 -89 16 -205 26 -205 3 0 20 7 39 16 l34 17 -2 64 c-5 113 34 233 96 290 13 13 39 23 62 25 36 3 41 0 59 -31 15 -24 22 -60 26 -125 5 -74 8 -87 17 -71 17 29 34 174 34 282 0 91 -23 227 -40 238 -5 3 -14 -12 -21 -32 -37 -117 -109 -125 -109 -13 0 127 61 251 187 379 51 52 93 96 93 98 0 17 -44 -10 -118 -71z"/>
 <path d="M1550 5742 c0 -5 -15 -29 -34 -53 -55 -71 -143 -249 -171 -345 -44 -152 -58 -263 -51 -414 10 -224 58 -442 132 -600 56 -119 145 -270 159 -270 8 0 30 54 52 131 2 8 -12 35 -33 60 -120 143 -199 355 -235 634 -23 180 4 443 59 582 27 65 94 198 121 238 23 33 26 45 11 45 -5 0 -10 -4 -10 -8z"/>
 <path d="M2339 5468 c-14 -6 -32 -20 -39 -32 -27 -43 -3 -216 42 -296 17 -30 42 -75 56 -100 14 -25 36 -62 49 -83 13 -21 33 -54 44 -73 33 -58 55 -98 77 -134 34 -57 93 -219 108 -298 21 -111 18 -175 -11 -233 -13 -27 -21 -49 -16 -49 17 0 89 177 100 244 12 78 -1 294 -24 406 -12 61 -95 264 -116 285 -6 6 -8 -14 -7 -54 5 -107 -31 -89 -102 53 -49 98 -61 167 -35 196 20 22 46 25 75 10 23 -12 76 -99 88 -141 10 -39 32 -51 32 -17 0 46 -54 187 -89 234 -54 70 -81 87 -148 90 -32 2 -70 -2 -84 -8z"/>
 <path d="M4130 5361 c0 -10 7 -38 15 -61 8 -24 20 -84 26 -134 10 -88 9 -109 -18 -278 -4 -29 -2 -38 15 -47 16 -8 25 -7 43 8 21 17 24 29 27 118 3 79 0 118 -18 189 -37 148 -90 269 -90 205z"/>
 <path d="M4274 5314 c20 -154 27 -258 22 -327 -11 -133 -77 -261 -159 -307 -44 -25 -56 -20 -37 15 26 48 -16 46 -90 -4 -143 -96 -221 -213 -276 -416 -34 -125 -38 -270 -10 -385 20 -80 102 -253 117 -245 4 3 4 17 -1 31 -6 14 -20 78 -31 142 -17 92 -20 146 -17 253 3 136 4 137 42 213 64 126 165 200 206 151 10 -11 11 -39 7 -103 -8 -108 -25 -166 -67 -226 -50 -73 -25 -68 47 9 121 130 142 171 265 508 31 87 58 288 58 430 -1 138 -34 280 -71 303 -9 5 -10 -6 -5 -42z"/>
 <path d="M1248 5237 c-51 -104 -71 -230 -71 -442 0 -166 3 -207 26 -319 15 -71 49 -196 78 -279 51 -149 193 -452 208 -443 4 3 13 38 21 78 7 40 23 102 35 136 l23 64 -35 39 c-19 21 -43 41 -53 44 -49 16 -206 396 -241 585 -19 103 -16 320 5 420 10 47 21 97 23 113 3 15 9 30 14 33 11 7 12 24 1 24 -4 0 -20 -24 -34 -53z"/>
 <path d="M3336 5188 c-3 -24 -8 -97 -11 -163 -4 -66 -13 -162 -21 -213 -12 -82 -72 -339 -89 -383 -4 -10 -2 -20 4 -24 6 -3 16 6 22 22 7 15 32 71 56 123 58 122 99 242 118 346 14 74 14 89 0 151 -19 83 -55 183 -66 183 -4 0 -10 -19 -13 -42z"/>
 <path d="M2092 5130 c-43 -36 -94 -186 -127 -379 -21 -122 -21 -444 0 -563 24 -136 75 -276 122 -332 31 -37 73 -67 85 -60 5 3 -14 48 -41 100 -77 147 -96 211 -95 329 1 159 28 245 75 245 28 0 50 -43 56 -110 3 -33 9 -60 14 -60 15 0 30 39 40 103 12 74 -5 166 -56 297 -42 106 -53 223 -34 340 11 69 11 83 -2 95 -12 12 -17 11 -37 -5z"/>
 <path d="M2300 5121 c0 -25 -26 -28 -51 -5 -22 20 -39 11 -39 -21 0 -43 129 -275 217 -391 92 -121 163 -277 163 -359 0 -19 4 -35 8 -35 13 0 2 211 -14 269 -18 62 -96 222 -174 356 -29 50 -61 115 -70 145 -18 55 -40 78 -40 41z"/>
 <path d="M4567 5106 c-3 -7 -4 -27 -2 -42 33 -276 28 -450 -20 -650 -54 -225 -100 -316 -223 -442 -103 -105 -143 -127 -229 -127 -82 0 -106 19 -163 128 -25 48 -51 87 -57 87 -36 0 17 -434 57 -474 6 -6 10 -28 10 -51 0 -44 22 -85 46 -85 32 0 72 31 144 112 105 118 120 137 120 147 0 5 6 11 13 14 14 5 189 246 229 317 15 25 36 75 48 113 19 57 25 67 45 67 19 0 24 -7 30 -39 3 -21 3 -55 0 -75 -6 -28 -4 -36 8 -36 26 0 36 25 54 136 36 224 15 482 -63 802 -27 108 -36 127 -47 98z"/>
 <path d="M3923 5057 c-27 -29 -63 -97 -63 -119 0 -10 -5 -38 -12 -63 -13 -48 -11 -54 20 -60 31 -6 39 13 41 93 0 50 7 88 21 119 24 54 22 62 -7 30z"/>
 <path d="M3964 5005 c-19 -40 -24 -67 -22 -106 3 -60 22 -75 40 -32 10 25 20 193 10 193 -2 0 -14 -25 -28 -55z"/>
 <path d="M4401 4857 c-1 -152 -12 -259 -37 -345 -27 -96 -148 -322 -212 -397 -71 -85 -82 -104 -82 -148 0 -41 24 -66 71 -73 32 -5 39 -1 103 65 39 38 83 90 99 113 36 52 102 190 123 255 34 105 21 372 -26 554 -11 43 -20 88 -20 99 0 11 -4 20 -10 20 -5 0 -9 -58 -9 -143z"/>
 <path d="M2185 4943 c3 -27 14 -77 25 -113 40 -140 52 -301 40 -521 -4 -77 18 -128 63 -143 22 -8 31 -6 51 13 34 32 66 131 72 226 l5 80 -23 -26 c-50 -54 -82 -40 -75 33 3 36 5 39 12 20 13 -37 30 -19 33 36 4 66 -35 183 -92 277 -86 142 -101 164 -109 165 -5 0 -6 -21 -2 -47z"/>
 <path d="M3452 4883 c-41 -188 -46 -204 -102 -304 -32 -57 -55 -108 -53 -113 3 -4 38 25 79 65 72 72 132 165 136 210 3 50 -15 144 -32 166 l-18 23 -10 -47z"/>
 <path d="M4070 4801 c-8 -5 -58 -23 -110 -40 -52 -18 -131 -53 -175 -80 -44 -27 -105 -61 -135 -77 -63 -32 -210 -131 -256 -171 -110 -99 -139 -123 -146 -123 -4 0 -8 -4 -8 -10 0 -5 -23 -31 -51 -57 -59 -56 -135 -154 -157 -203 -8 -19 -21 -48 -28 -65 -15 -34 -58 -176 -85 -280 -20 -76 -25 -235 -10 -295 5 -19 12 -47 15 -62 14 -64 23 -19 22 120 0 168 22 271 73 346 63 91 85 85 82 -24 -2 -78 -16 -120 -39 -120 -15 0 -15 0 5 87 4 15 0 25 -11 29 -25 9 -46 -15 -46 -52 0 -18 -4 -44 -10 -59 -16 -41 -31 -155 -31 -222 1 -124 42 -291 94 -380 34 -59 12 -57 -38 3 -28 32 -55 64 -61 71 -6 6 -34 58 -62 115 -101 208 -219 259 -402 175 -92 -42 -138 -57 -173 -57 -17 0 -70 22 -122 50 -51 28 -101 50 -111 50 -26 0 -80 -35 -94 -60 -32 -60 -57 -239 -34 -247 7 -2 13 16 17 46 7 62 37 121 78 155 43 37 60 20 26 -26 -33 -44 -64 -132 -68 -193 -4 -52 14 -77 19 -28 8 75 33 132 77 177 42 42 75 59 75 38 0 -4 -18 -26 -40 -47 -24 -23 -40 -48 -40 -62 0 -33 15 -28 41 13 24 39 79 69 109 59 11 -3 29 -18 40 -33 15 -19 25 -23 34 -17 65 48 66 48 105 37 74 -23 120 -67 197 -191 2 -1 8 0 14 4 8 5 7 12 -3 23 -7 10 -30 46 -50 82 -19 36 -45 74 -56 84 -23 21 -28 56 -8 56 23 0 126 -119 158 -181 16 -32 34 -59 39 -59 12 0 13 17 1 24 -18 12 -101 210 -101 244 0 23 28 12 59 -23 38 -44 60 -84 81 -155 23 -71 42 -79 33 -13 -3 26 -14 76 -23 111 -10 34 -14 62 -10 62 7 0 82 -149 94 -187 4 -12 -2 -47 -15 -85 -23 -69 -26 -136 -8 -180 17 -41 39 -36 39 10 0 56 24 85 66 80 19 -2 33 -2 31 1 -21 39 -29 62 -24 67 12 13 27 -9 43 -63 18 -61 59 -112 76 -95 6 6 4 20 -7 42 -9 17 -14 34 -11 37 16 16 36 -16 78 -123 54 -136 118 -259 163 -312 41 -47 51 -29 15 25 -16 23 -33 67 -39 99 -15 77 -63 217 -99 284 -44 83 -66 224 -58 369 11 197 23 260 81 441 18 58 45 144 59 193 19 61 42 110 80 165 97 143 224 298 304 373 88 81 333 240 420 273 29 10 51 24 49 29 -5 15 -19 18 -37 8z"/>
 <path d="M4723 4683 c3 -21 11 -107 18 -191 13 -146 7 -243 -17 -305 -11 -29 15 -19 58 22 41 37 42 42 46 108 6 97 -10 181 -54 301 -39 104 -61 132 -51 65z"/>
 <path d="M1095 4528 c3 -109 9 -154 34 -251 17 -65 42 -146 55 -180 13 -34 36 -98 49 -142 27 -84 86 -231 143 -353 19 -40 34 -75 34 -77 0 -3 29 -65 64 -138 117 -242 132 -439 40 -504 -94 -66 -155 -16 -158 129 -1 31 4 62 10 68 20 20 52 -6 60 -46 12 -66 29 -32 28 57 -2 133 -56 297 -147 451 -47 78 -112 156 -122 146 -4 -4 7 -37 24 -74 34 -72 39 -119 17 -149 -14 -19 -15 -19 -34 -2 -11 10 -35 50 -53 90 l-34 72 -3 194 c-3 168 -1 200 14 233 29 64 7 54 -26 -13 -84 -165 -125 -434 -91 -587 6 -26 12 -60 15 -77 5 -34 45 -172 74 -256 25 -70 61 -146 122 -257 63 -115 105 -236 101 -297 -3 -59 -91 -50 -135 13 -36 52 -35 95 4 124 17 12 30 27 30 33 0 7 -27 35 -60 64 -78 68 -139 155 -201 287 -79 167 -109 273 -124 434 -7 76 15 219 40 257 19 28 12 44 -9 22 -21 -21 -82 -138 -95 -184 -7 -22 -15 -47 -18 -55 -3 -8 -7 -31 -9 -50 -2 -19 -6 -51 -9 -70 -13 -89 -5 -281 15 -375 5 -22 21 -74 35 -115 15 -41 29 -84 33 -95 5 -19 30 -61 172 -295 87 -143 133 -200 290 -359 71 -71 120 -146 120 -184 0 -21 -50 -47 -91 -47 -65 0 -192 89 -199 140 -6 42 18 70 60 70 61 0 46 22 -55 83 -78 46 -137 105 -195 194 -66 101 -89 151 -103 229 -8 39 -19 70 -27 72 -11 4 -12 -13 -7 -89 7 -121 44 -267 107 -427 27 -71 50 -133 50 -139 0 -6 7 -13 15 -17 8 -3 15 -10 15 -16 0 -19 83 -121 148 -183 34 -32 63 -65 64 -74 2 -11 -14 -25 -47 -42 -40 -21 -51 -32 -56 -59 -9 -43 6 -50 39 -19 42 39 68 43 96 12 39 -42 39 -141 -1 -133 -12 2 -20 18 -26 46 -19 98 -48 9 -41 -128 4 -78 31 -218 46 -235 4 -5 8 -17 8 -27 0 -23 89 -236 102 -244 19 -12 18 6 -8 92 -33 112 -38 251 -10 302 24 45 52 72 76 72 32 0 35 -27 6 -61 -21 -25 -26 -41 -26 -85 0 -85 41 -260 81 -347 16 -35 30 -35 24 1 -36 202 -39 248 -25 317 15 74 52 115 104 115 44 0 66 -29 66 -85 0 -56 -17 -71 -47 -43 -13 12 -23 27 -23 34 0 20 -19 27 -35 14 -57 -48 42 -272 174 -395 31 -29 76 -71 101 -94 25 -23 55 -44 68 -47 12 -4 22 -9 22 -13 0 -13 326 -219 425 -268 22 -11 54 -23 70 -27 17 -4 38 -9 48 -12 46 -14 2 22 -150 124 -193 128 -262 187 -370 317 -135 160 -215 342 -217 490 -1 107 7 142 54 214 31 48 51 67 85 82 l45 20 -98 97 c-102 101 -147 164 -155 219 -7 44 18 157 43 200 23 40 25 71 6 134 -15 48 -13 66 20 198 18 73 18 74 -3 135 -32 90 -35 119 -24 181 8 42 20 67 46 96 34 38 34 40 29 106 -12 141 -46 230 -175 458 -141 248 -287 568 -334 729 -24 84 -60 267 -72 364 -11 87 -21 37 -18 -90z"/>
 <path d="M2480 4418 c-2 -83 -14 -148 -41 -207 -17 -38 -26 -68 -20 -74 5 -5 26 -11 48 -14 l40 -5 8 53 c10 65 8 121 -7 212 -12 70 -28 90 -28 35z"/>
 <path d="M4865 4378 c3 -29 8 -63 11 -75 2 -13 0 -23 -6 -23 -13 0 -13 -47 0 -55 16 -10 49 14 56 39 7 28 -36 158 -54 164 -10 3 -12 -8 -7 -50z"/>
 <path d="M1755 4334 c-71 -101 -102 -171 -130 -286 -37 -158 -40 -184 -38 -318 2 -149 28 -252 97 -395 41 -84 119 -181 136 -170 4 2 29 57 55 121 l48 116 -36 32 c-51 44 -76 103 -90 209 l-13 92 -19 -45 c-11 -27 -20 -74 -21 -120 -2 -41 -3 -78 -3 -82 -2 -18 -22 -6 -33 20 -21 53 -57 248 -57 312 -1 176 56 393 137 523 42 69 17 62 -33 -9z"/>
 <path d="M2089 4363 c-13 -34 -13 -136 0 -180 5 -18 21 -47 35 -66 32 -42 35 -62 6 -47 -30 16 -35 -9 -16 -68 35 -104 125 -185 221 -197 42 -6 54 -4 75 14 21 17 23 22 10 31 -8 5 -25 10 -37 10 -28 0 -73 58 -73 93 0 53 81 76 121 35 12 -13 46 -58 76 -101 30 -42 58 -75 62 -72 14 8 -8 126 -29 155 -37 52 -92 91 -208 148 -107 53 -118 61 -150 111 -19 29 -37 72 -39 95 -9 68 -36 87 -54 39z"/>
 <path d="M5100 4278 c-75 -25 -355 -165 -410 -206 -46 -34 -262 -225 -308 -272 -35 -36 -292 -371 -327 -425 -65 -102 -174 -334 -218 -466 -50 -148 -89 -499 -55 -499 10 0 13 10 10 38 -5 52 32 107 73 107 28 0 30 -3 37 -45 15 -104 -1 -252 -37 -342 -9 -22 3 -40 19 -31 20 12 124 146 200 257 149 218 221 425 231 668 4 86 -8 126 -21 71 -35 -157 -76 -290 -106 -344 -23 -42 -64 -69 -105 -69 -48 0 -51 11 -46 144 6 153 34 246 144 475 91 188 136 253 324 461 233 257 339 330 644 444 46 17 86 37 89 44 6 19 -64 14 -138 -10z"/>
 <path d="M2556 4258 c-3 -13 -10 -49 -16 -82 -5 -33 -17 -64 -26 -71 -11 -7 -14 -19 -10 -32 8 -25 55 -40 67 -21 12 18 11 216 -1 223 -5 3 -12 -4 -14 -17z"/>
 <path d="M5246 4215 c-117 -45 -291 -134 -386 -198 -185 -124 -277 -209 -372 -342 -47 -66 -173 -303 -180 -338 -8 -42 11 -60 54 -52 48 9 70 35 108 124 68 160 204 346 372 511 123 121 266 210 417 260 73 25 107 41 109 53 5 25 -20 21 -122 -18z"/>
 <path d="M5505 4153 c-139 -53 -277 -133 -471 -270 -150 -107 -202 -158 -375 -374 -254 -318 -270 -347 -268 -497 1 -112 -9 -157 -80 -335 -75 -187 -154 -323 -270 -459 -117 -139 -332 -298 -489 -364 -200 -84 -260 -102 -407 -120 -140 -16 -168 -25 -149 -44 18 -18 166 -24 240 -10 192 35 309 72 424 133 210 112 291 174 500 380 179 177 207 215 320 439 35 68 74 143 87 168 30 57 98 227 107 272 14 60 45 151 45 131 1 -12 5 -24 11 -28 5 -3 7 -12 4 -20 -22 -57 76 -2 130 73 19 25 48 81 66 126 40 100 82 172 176 302 74 102 117 147 173 180 17 10 31 24 31 31 0 17 -9 16 -45 -7 -68 -44 -65 -43 -65 -16 0 20 21 43 92 102 51 41 129 103 175 136 46 33 83 67 83 74 0 8 -1 14 -2 13 -2 0 -21 -7 -43 -16z"/>
 <path d="M3487 4054 c-132 -144 -202 -268 -267 -479 -32 -104 -42 -396 -19 -561 21 -157 90 -325 178 -434 25 -32 39 -18 22 23 -41 101 -90 262 -101 327 -7 41 -14 83 -16 93 -1 9 -4 72 -4 140 -2 134 12 219 41 248 21 21 49 16 50 -10 3 -52 -4 -120 -16 -147 -17 -41 -2 -69 21 -39 29 36 83 156 95 211 14 63 2 205 -18 212 -9 2 -13 -9 -13 -37 0 -28 -5 -44 -15 -48 -22 -8 -26 -1 -30 49 -6 72 14 157 68 288 49 121 72 164 119 223 14 17 18 31 12 37 -6 6 -44 -29 -107 -96z"/>
 <path d="M3612 4068 c-48 -81 -96 -188 -109 -243 -24 -100 -25 -112 -15 -119 6 -3 13 8 17 26 9 44 45 105 99 168 45 52 45 52 43 126 -1 41 -4 74 -8 74 -4 0 -16 -15 -27 -32z"/>
 <path d="M5095 4068 c-16 -13 -59 -43 -96 -68 -96 -64 -204 -164 -255 -236 -24 -34 -44 -65 -44 -68 0 -4 -11 -19 -25 -34 -27 -29 -28 -40 -1 -56 15 -9 26 -2 69 49 144 166 257 282 333 341 47 37 83 71 81 78 -7 20 -33 17 -62 -6z"/>
 <path d="M1735 4015 l-7 -65 54 -59 c67 -72 118 -171 88 -171 -5 0 -10 7 -10 16 0 8 -4 13 -9 10 -5 -3 -7 -29 -5 -58 9 -118 49 -228 82 -228 30 0 72 53 80 101 10 58 -4 172 -27 225 -46 104 -192 294 -226 294 -9 0 -16 -20 -20 -65z"/>
 <path d="M3602 3828 c-34 -39 -62 -78 -62 -85 0 -19 28 -16 39 5 5 9 33 26 61 36 l52 19 -7 36 c-12 66 -18 66 -83 -11z"/>
 <path d="M2275 3790 c-3 -5 -3 -26 1 -45 5 -27 2 -41 -11 -55 -31 -35 -48 -26 -40 21 6 36 5 40 -11 37 -24 -4 -85 -127 -91 -182 -6 -48 3 -57 110 -125 59 -38 73 -43 110 -39 55 6 202 75 250 117 32 28 37 39 37 76 0 27 -8 54 -22 75 -31 46 -50 51 -42 11 9 -44 -12 -40 -33 7 -23 50 -52 82 -76 82 -17 0 -19 -5 -13 -39 8 -51 -10 -64 -36 -28 -26 36 -36 34 -44 -8 -9 -51 -24 -43 -24 13 0 27 -6 55 -12 64 -17 20 -46 30 -53 18z"/>
 <path d="M5228 3676 c-64 -56 -86 -85 -164 -218 -50 -84 -113 -193 -140 -242 -50 -90 -65 -106 -177 -189 l-65 -48 -37 -107 c-56 -161 -176 -387 -230 -432 -16 -13 -21 -40 -7 -40 11 0 53 29 91 64 46 43 100 124 156 235 52 105 113 193 150 217 47 30 52 2 19 -93 -11 -30 -37 -62 -84 -106 -46 -41 -66 -67 -61 -75 6 -9 25 -3 75 25 104 58 195 172 236 295 12 35 32 86 45 113 53 116 68 153 95 234 59 179 132 351 150 351 11 0 50 62 44 72 -10 15 -24 7 -96 -56z"/>
 <path d="M3632 3633 c-42 -41 -52 -56 -61 -103 -27 -141 -21 -339 13 -474 15 -58 42 -79 33 -25 -23 126 -30 262 -19 344 12 95 34 142 74 164 24 14 27 13 57 -18 30 -30 31 -36 25 -79 -9 -62 -21 -92 -46 -119 -19 -21 -20 -23 -4 -29 44 -17 126 136 126 234 0 85 -51 152 -115 152 -25 0 -44 -11 -83 -47z"/>
 <path d="M3849 3493 c-1 -30 -8 -63 -30 -134 -21 -69 -58 -114 -144 -176 -41 -30 -24 -47 34 -34 57 12 115 53 147 101 23 34 27 51 26 110 0 83 -10 150 -23 150 -5 0 -9 -8 -10 -17z"/>
 <path d="M1923 3323 c-33 -63 -36 -129 -13 -265 12 -68 25 -127 30 -132 5 -4 16 6 25 24 13 25 14 38 6 59 -17 43 -41 160 -41 200 0 21 7 60 15 87 17 58 18 64 6 64 -5 0 -18 -17 -28 -37z"/>
 <path d="M3492 3348 c-31 -39 -91 -190 -92 -230 0 -18 28 -6 33 13 4 13 12 19 23 17 23 -4 35 -56 29 -122 -9 -99 -55 -96 -55 4 0 75 -21 87 -50 30 -11 -21 -24 -41 -30 -45 -15 -9 -12 -145 5 -203 17 -57 54 -107 85 -115 28 -7 70 30 102 90 22 41 26 59 24 123 -1 41 -12 134 -24 205 -12 72 -22 156 -22 188 0 56 -8 69 -28 45z"/>
 <path d="M5169 3244 c-26 -13 -69 -107 -69 -148 0 -10 -5 -26 -11 -38 -6 -11 -9 -22 -6 -24 2 -2 35 13 73 35 38 21 89 49 114 63 30 16 45 30 45 43 0 17 -6 20 -45 19 -25 -1 -53 -5 -64 -9 -33 -14 -13 19 22 35 17 8 32 21 32 28 0 16 -57 14 -91 -4z"/>
 <path d="M3846 3188 c-34 -54 -87 -89 -143 -96 -24 -2 -43 -8 -43 -11 0 -4 27 -13 60 -20 71 -16 106 -6 145 41 19 23 25 41 25 79 0 27 -4 49 -9 49 -4 0 -20 -19 -35 -42z"/>
 <path d="M2246 3196 c-22 -17 -27 -27 -21 -45 4 -13 2 -28 -5 -36 -18 -21 -33 -18 -27 5 8 33 -11 33 -43 1 -34 -34 -37 -51 -13 -92 19 -32 25 -32 109 7 65 30 73 30 139 -5 65 -35 90 -31 110 16 18 42 12 57 -32 84 l-36 22 -18 -24 c-22 -29 -34 -19 -31 24 4 44 -27 74 -56 56 -15 -10 -24 -10 -34 -1 -11 8 -20 6 -42 -12z"/>
 <path d="M1821 3083 c-17 -36 -49 -85 -71 -109 -78 -85 -94 -144 -64 -244 16 -55 15 -80 -8 -192 -21 -99 -22 -191 -2 -253 15 -51 15 -57 0 -89 -27 -58 -23 -168 10 -253 37 -96 79 -151 159 -209 126 -92 124 -88 66 -97 -40 -7 -76 -38 -102 -89 -27 -52 -25 -70 6 -62 33 8 34 -14 2 -44 -43 -41 -50 -33 -47 52 1 33 -2 46 -9 41 -6 -3 -9 -10 -6 -15 3 -5 -6 -31 -20 -57 -17 -33 -25 -63 -25 -98 0 -92 54 -246 109 -315 18 -22 110 -139 117 -149 2 -1 7 0 12 3 6 4 6 19 0 43 -42 165 -47 247 -19 369 24 109 90 200 191 265 21 14 23 19 12 32 -7 8 -27 18 -45 21 -18 3 -43 8 -57 11 -14 2 -32 14 -40 27 -8 12 -33 38 -54 57 -72 66 -78 73 -104 129 -31 69 -41 184 -22 273 l13 60 -33 28 -33 27 -4 130 -5 129 32 38 c35 41 50 42 42 2 -3 -19 0 -25 12 -25 27 0 59 83 51 133 -10 66 -26 110 -47 134 -31 33 -50 19 -47 -36 3 -37 0 -47 -14 -49 -14 -3 -17 5 -17 45 1 76 16 123 51 160 27 27 39 32 61 28 l28 -7 0 59 c0 62 -24 163 -39 163 -5 0 -23 -30 -40 -67z"/>
 <path d="M5330 3128 c-165 -96 -278 -205 -350 -337 -25 -45 -67 -119 -94 -164 -27 -45 -67 -116 -90 -157 -61 -111 -181 -223 -324 -304 -73 -41 -143 -64 -220 -71 -52 -5 -56 -7 -145 -98 -107 -109 -193 -168 -283 -193 -39 -11 -64 -24 -64 -32 0 -10 6 -12 18 -7 17 7 89 21 247 45 141 21 221 56 374 161 189 130 201 135 225 97 14 -23 -28 -67 -94 -98 -28 -13 -50 -28 -50 -33 0 -18 85 0 155 33 110 53 198 126 287 238 16 19 88 191 88 208 0 4 11 32 25 63 13 31 56 137 95 236 81 206 132 298 207 372 29 29 53 55 53 58 0 10 -25 3 -60 -17z"/>
 <path d="M2540 3031 c-14 -27 -15 -24 35 -78 47 -49 63 -83 49 -104 -5 -9 -10 -5 -16 10 -7 19 -11 21 -23 11 -11 -9 -14 -26 -11 -59 7 -70 24 -173 30 -178 14 -15 26 15 26 66 0 37 7 75 20 102 11 24 20 56 20 71 0 26 -94 178 -111 178 -5 0 -13 -9 -19 -19z"/>
 <path d="M2090 2973 c-16 -60 -14 -89 11 -131 10 -18 19 -48 19 -67 0 -74 24 -88 35 -20 4 32 1 61 -11 97 -11 33 -14 65 -10 94 11 83 -24 104 -44 27z"/>
 <path d="M3707 2894 c-37 -118 -67 -165 -187 -285 -105 -106 -120 -126 -167 -222 -54 -110 -87 -213 -100 -319 -10 -86 -8 -112 7 -103 19 12 10 -32 -11 -51 -37 -33 -89 -111 -89 -133 0 -25 7 -25 111 -7 108 20 135 36 164 102 35 79 66 104 129 104 42 0 54 -15 32 -39 -22 -24 -21 -44 2 -32 9 5 42 21 74 35 76 36 105 77 146 211 67 215 82 295 59 295 -8 0 -20 -14 -28 -31 -18 -45 -92 -143 -163 -218 -71 -73 -161 -130 -266 -167 -41 -14 -81 -31 -88 -36 -18 -16 -28 0 -14 22 7 11 12 51 12 88 0 79 25 130 73 146 59 21 77 -64 21 -100 -24 -16 -32 -34 -16 -34 15 0 91 82 123 132 31 47 60 171 44 186 -4 4 -10 1 -12 -6 -3 -7 -16 -25 -28 -40 l-24 -27 -20 20 -21 20 41 48 c42 49 67 58 89 32 20 -24 8 -160 -20 -218 -22 -47 -22 -66 1 -52 21 14 118 228 135 300 12 50 17 123 18 253 1 100 -1 182 -4 182 -3 0 -14 -25 -23 -56z"/>
 <path d="M2926 2873 c-13 -13 -5 -90 13 -128 28 -61 120 -143 170 -151 51 -8 73 -33 102 -121 21 -65 23 -146 3 -210 -3 -13 -2 -23 4 -23 5 0 20 28 33 63 48 125 25 236 -68 332 -22 22 -47 52 -56 68 -25 39 -38 34 -31 -13 6 -36 4 -40 -14 -40 -38 0 -106 102 -118 178 -6 38 -24 59 -38 45z"/>
 <path d="M2746 2862 c-3 -6 -2 -22 4 -37 5 -14 10 -41 10 -58 0 -36 -39 -126 -74 -172 -41 -53 -57 -94 -63 -160 -7 -76 9 -106 52 -97 17 3 36 -6 67 -31 24 -19 69 -42 103 -52 119 -35 147 -49 188 -92 23 -24 45 -50 50 -58 8 -15 37 -21 37 -7 0 7 -51 87 -70 109 -5 7 -10 15 -10 18 0 21 -75 157 -91 165 -11 6 -53 20 -95 30 -84 22 -134 52 -134 81 0 11 18 54 40 95 22 42 40 69 40 60 0 -8 5 -18 11 -22 9 -5 11 17 7 86 -5 86 -8 94 -36 122 -17 18 -32 26 -36 20z"/>
 <path d="M2036 2710 c-44 -91 -43 -224 1 -164 14 19 14 19 29 0 8 -11 14 -36 14 -57 0 -41 -13 -49 -82 -49 -33 0 -42 -6 -67 -40 -16 -22 -34 -63 -41 -90 -7 -28 -16 -53 -21 -56 -5 -3 -9 -10 -9 -16 0 -15 209 -1 236 17 14 9 24 32 32 78 20 105 15 160 -19 245 -23 60 -30 89 -27 130 4 68 -14 69 -46 2z"/>
 <path d="M4637 2529 c-78 -105 -135 -156 -218 -198 -42 -20 -78 -46 -85 -59 -6 -12 -21 -34 -34 -47 -12 -13 -20 -31 -17 -39 5 -13 14 -12 66 5 63 22 173 107 244 189 49 58 118 192 107 209 -6 10 -23 -7 -63 -60z"/>
 <path d="M2205 2388 c-35 -112 -41 -174 -22 -221 17 -39 36 -49 38 -19 9 138 29 145 69 22 18 -57 23 -95 24 -208 0 -75 5 -140 10 -144 6 -4 19 -2 29 4 11 5 35 7 54 3 31 -6 35 -4 29 11 -11 29 -28 233 -23 283 4 41 20 75 70 146 14 19 15 18 31 -14 10 -18 18 -46 18 -62 1 -16 6 -29 12 -29 7 0 12 30 14 80 2 63 -2 91 -19 132 -11 29 -25 63 -30 76 -13 33 -37 27 -48 -14 -12 -43 -67 -131 -90 -143 -9 -5 -22 -6 -29 -4 -11 4 -67 113 -85 166 -12 34 -27 16 -52 -65z"/>
 <path d="M2740 2243 c0 -5 11 -39 24 -76 18 -52 23 -84 20 -130 -3 -45 -1 -57 6 -45 18 30 30 119 24 175 -6 46 -11 56 -35 68 -32 17 -39 18 -39 8z"/>
 <path d="M1928 2195 c-2 -3 1 -43 8 -90 11 -79 40 -153 57 -148 4 2 9 49 11 105 2 57 7 111 11 121 6 15 1 17 -37 17 -25 0 -47 -2 -50 -5z"/>
 <path d="M5050 1946 c-188 -182 -298 -254 -377 -244 l-28 3 37 37 c21 20 51 42 68 49 49 22 39 41 -17 34 -69 -10 -138 -46 -223 -118 -70 -59 -169 -181 -157 -194 4 -3 25 11 48 31 42 35 91 48 104 26 10 -15 -24 -57 -59 -74 -29 -13 -46 -33 -46 -52 0 -2 16 -4 35 -4 42 0 264 103 310 144 17 14 38 29 48 32 9 3 17 9 17 14 0 5 13 16 30 25 16 8 55 42 87 76 32 33 88 92 124 130 97 100 146 178 121 192 -4 3 -59 -45 -122 -107z"/>
 <path d="M4615 1886 c-66 -24 -105 -49 -270 -172 -119 -89 -201 -167 -191 -182 6 -10 125 -36 133 -28 3 2 19 27 37 54 17 27 45 65 62 84 41 46 206 183 266 220 26 16 46 34 42 39 -7 11 -7 11 -79 -15z"/>
 <path d="M4398 1846 c-91 -32 -204 -94 -296 -163 -73 -55 -171 -149 -172 -165 0 -5 15 -8 33 -9 17 0 46 -2 64 -3 28 -3 38 3 83 55 87 99 141 147 250 221 124 84 114 77 109 82 -3 3 -35 -6 -71 -18z"/>
 <path d="M2317 1739 c-45 -52 -99 -165 -123 -254 -28 -106 -26 -296 4 -395 42 -135 76 -220 89 -220 17 0 16 8 -3 61 -22 64 -46 265 -39 322 4 28 17 59 30 74 l22 27 17 -27 c14 -20 17 -40 13 -89 -3 -35 -8 -76 -12 -91 -7 -26 -6 -28 16 -25 21 3 27 14 47 93 28 114 40 241 29 330 -11 84 -21 99 -37 51 -6 -20 -18 -36 -26 -36 -20 0 -18 56 6 132 32 102 24 114 -33 47z"/>
 <path d="M2638 1763 c-38 -6 -64 -43 -94 -137 -37 -113 -37 -272 -1 -396 27 -88 103 -234 118 -224 13 8 11 34 -12 131 -35 147 -14 280 41 266 13 -4 17 -9 11 -17 -31 -39 -15 -245 25 -313 33 -57 47 -63 29 -12 -18 49 -19 143 -4 205 12 45 0 99 -25 116 -7 5 -4 8 6 8 41 0 160 -116 201 -195 13 -27 74 -178 91 -228 7 -21 33 -17 27 4 -1 8 -11 52 -21 99 -29 141 -99 331 -152 412 -36 57 -49 61 -41 13 6 -38 -3 -43 -39 -24 -22 12 -57 82 -58 115 0 19 4 20 43 14 23 -3 56 -14 73 -23 46 -24 122 -113 135 -158 7 -21 16 -39 20 -39 33 0 12 80 -38 144 -27 35 -33 50 -25 58 9 9 21 1 50 -30 38 -41 72 -55 72 -29 0 35 -107 150 -169 181 -48 25 -181 66 -210 65 -14 -1 -38 -4 -53 -6z"/>
 <path d="M3948 1685 c-83 -63 -206 -190 -195 -201 3 -3 30 0 61 7 53 11 56 14 81 66 15 30 54 80 91 115 60 59 74 78 57 78 -5 0 -47 -30 -95 -65z"/>
 <path d="M3573 1700 c-39 -21 -73 -36 -76 -34 -2 2 -29 -7 -59 -20 -70 -31 -202 -50 -290 -41 -68 6 -90 -3 -69 -29 13 -16 129 -36 203 -36 123 1 374 58 502 114 17 8 39 16 49 20 9 3 17 10 17 15 0 5 -21 3 -47 -5 -32 -10 -67 -12 -108 -8 -75 8 -80 11 -59 35 29 33 11 29 -63 -11z"/>
 <path d="M3440 1516 c-39 -18 -66 -21 -200 -22 -85 -1 -161 -3 -168 -3 -21 -2 -10 -42 18 -63 19 -13 51 -20 122 -25 95 -6 99 -5 160 26 75 37 136 87 123 100 -6 5 -29 0 -55 -13z"/>
 <path d="M2079 1507 c-69 -59 -110 -161 -116 -293 -9 -179 26 -274 183 -494 34 -48 85 -95 165 -155 151 -112 279 -173 279 -132 0 6 -30 28 -67 47 -62 32 -213 143 -213 156 0 3 35 -13 78 -37 232 -128 258 -139 390 -151 94 -9 125 -9 134 0 19 19 0 29 -112 57 -89 22 -149 47 -291 120 -10 5 -19 15 -19 22 0 7 -5 24 -12 38 -13 28 -52 35 -62 10 -9 -25 -21 -17 -35 21 -7 20 -44 68 -81 108 -112 118 -182 282 -202 472 -11 112 -8 149 17 217 10 23 -5 21 -36 -6z"/>
 <path d="M3608 1496 c-57 -15 -160 -83 -245 -160 -33 -31 -66 -56 -73 -56 -6 0 -42 -31 -79 -69 -140 -142 -142 -237 -2 -113 76 68 145 113 181 120 69 12 369 21 413 12 56 -12 118 -41 170 -82 37 -30 40 -30 115 -23 102 9 226 51 368 125 155 81 351 240 295 240 -4 0 -29 -16 -54 -35 -25 -19 -49 -35 -53 -35 -4 0 -41 -20 -83 -44 -147 -85 -376 -138 -376 -86 0 20 97 77 146 85 24 4 39 12 39 21 0 17 -97 20 -150 3 -19 -5 -60 -17 -90 -25 -81 -21 -140 -44 -140 -55 0 -6 6 -9 14 -7 24 5 20 -16 -5 -30 -34 -17 -109 -11 -123 11 -26 41 37 79 169 103 50 9 96 18 103 20 27 8 0 23 -68 38 -78 18 -162 20 -223 6 -184 -41 -234 -57 -264 -81 -23 -20 -4 -28 28 -12 34 17 127 19 143 3 29 -29 -86 -71 -193 -71 -70 0 -97 15 -85 45 10 26 161 136 196 143 16 3 31 10 34 14 8 13 -53 10 -108 -5z"/>
 <path d="M3076 1358 c-22 -71 -15 -83 54 -90 71 -8 200 51 200 90 0 11 -3 12 -14 3 -17 -14 -191 -13 -219 1 -12 6 -19 5 -21 -4z"/>
 <path d="M2424 1285 c-10 -73 -9 -78 19 -133 30 -60 102 -142 124 -142 15 0 17 32 3 46 -18 18 -92 209 -99 254 -4 29 -11 46 -22 48 -12 2 -18 -12 -25 -73z"/>
 <path d="M2781 1262 c-7 -16 -10 -40 -7 -54 2 -14 8 -52 11 -84 9 -69 20 -94 41 -94 12 0 14 12 11 70 -3 39 -1 86 3 106 6 27 5 43 -7 60 -20 32 -38 30 -52 -4z"/>
 <path d="M2869 1198 c-2 -8 -9 -48 -14 -85 -9 -69 18 -67 49 5 18 41 18 43 1 62 -16 17 -33 26 -36 18z"/>
 <path d="M3520 1179 c-110 -13 -206 -47 -283 -102 -35 -24 -89 -96 -81 -108 8 -14 17 -11 64 23 52 39 77 44 102 22 41 -38 3 -95 -94 -140 -54 -25 -76 -29 -161 -31 -54 -1 -101 -3 -103 -6 -2 -2 13 -16 34 -30 31 -22 56 -29 141 -37 149 -16 332 -7 412 20 93 31 179 71 179 83 0 7 -4 7 -12 -1 -15 -15 -53 -16 -79 -2 -15 8 -17 15 -10 29 8 15 20 17 68 14 81 -6 269 -51 323 -78 65 -33 140 -104 195 -184 40 -59 51 -69 66 -61 17 9 16 15 -12 91 -36 100 -52 130 -99 194 -158 214 -412 333 -650 304z"/>
 <path d="M2385 1140 c-4 -6 -4 -28 0 -48 13 -70 201 -271 330 -353 191 -122 320 -145 682 -125 172 10 270 -1 367 -40 61 -25 85 -21 73 10 -4 9 -17 21 -29 26 -13 6 -30 14 -38 20 -37 25 -130 59 -185 69 -33 5 -150 12 -260 15 -220 6 -310 22 -397 71 -51 29 -113 88 -113 108 0 22 85 21 116 -2 30 -23 49 -27 49 -11 0 12 -62 51 -116 73 -76 29 -251 31 -261 2 -1 -6 17 -18 42 -28 43 -18 57 -39 35 -52 -19 -12 -101 35 -153 87 -29 29 -66 79 -81 110 -31 64 -50 85 -61 68z"/>
 <path d="M2320 1061 c0 -41 102 -248 146 -296 20 -22 40 -47 45 -56 10 -20 151 -115 224 -152 65 -33 170 -51 253 -44 74 5 192 36 192 49 0 5 -10 6 -22 3 -13 -3 -73 -1 -133 4 -129 11 -234 43 -320 95 -33 21 -69 42 -80 49 -59 35 -210 216 -251 300 -16 31 -34 57 -41 57 -7 0 -13 -4 -13 -9z"/>
 <path d="M5734 30 c-3 -2 -348 -5 -767 -6 -1031 -2 -2400 -13 -2406 -19 -2 -3 770 -5 1717 -5 1633 0 1722 1 1722 18 0 15 -13 17 -131 17 -72 0 -133 -2 -135 -5z"/>
 </g>

</svg>
