<?xml version="1.0" encoding="utf-8"?>
<!-- Generator: Adobe Illustrator 21.0.2, SVG Export Plug-In . SVG Version: 6.00 Build 0)  -->
<svg version="1.1" id="Layer_1" xmlns="http://www.w3.org/2000/svg" xmlns:xlink="http://www.w3.org/1999/xlink" x="0px" y="0px"
	 viewBox="0 0 113.726 113.726" style="enable-background:new 0 0 113.726 113.726;" xml:space="preserve">
<style type="text/css">
	.st0{fill:#FFFFFF;}
	.st1{clip-path:url(#SVGID_2_);fill:#A64A45;}
	.st2{fill:#E39473;}
	.st3{clip-path:url(#SVGID_4_);fill:#C79936;}
</style>
<!-- <rect x="0" class="st0" width="113.726" height="113.726"/> -->
<g>
	<g>
		<g>
			<defs>
				<rect id="SVGID_1_" x="0" y="13.385" width="113.726" height="86.957"/>
			</defs>
			<clipPath id="SVGID_2_">
				<use xlink:href="#SVGID_1_"  style="overflow:visible;"/>
			</clipPath>
			<path class="st1" d="M22.519,95.556c0,0.157-0.116,0.23-0.258,0.165L0.258,82.863C0.116,82.797,0,82.614,0,82.457V13.979
				c0-0.157,0.116-0.23,0.258-0.165l22.003,12.858c0.142,0.066,0.258,0.248,0.258,0.405V95.556z"/>
		</g>
	</g>
	<path class="st2" d="M28.232,96.111V26.4h10.784h2.864h11.405h45.398v71.077H53.285h-22.16h-2.894V96.111z M102.174,25.174
		l8.688-7.521v70.033l-8.688,7.521V25.174z M40.749,16.25h67.356l-8.414,7.285H41.881v-0.014h-2.864v0.014h-9.453L40.749,16.25z
		 M113.726,13.385l-73.277,0.002L25.369,23.535v0.873v75.934h73.314h1.937l1.554-1.346l11.552-10.001V13.385z"/>
	<g>
		<g>
			<defs>
				<rect id="SVGID_3_" x="0" y="13.385" width="113.726" height="86.957"/>
			</defs>
			<clipPath id="SVGID_4_">
				<use xlink:href="#SVGID_3_"  style="overflow:visible;"/>
			</clipPath>
			<path class="st3" d="M63.458,63.18c-10.39,0-15.835-3.44-15.835-4.629v-1.538c4.139,2.055,10.005,3.11,15.835,3.11
				s11.695-1.055,15.834-3.11v1.538C79.292,59.74,73.848,63.18,63.458,63.18 M63.458,71.965c-10.39,0-15.835-3.44-15.835-4.629
				v-1.539c4.139,2.055,10.005,3.111,15.835,3.111s11.695-1.056,15.834-3.111v1.539C79.292,68.525,73.848,71.965,63.458,71.965
				 M63.458,80.749c-10.39,0-15.835-3.44-15.835-4.629v-1.539c4.139,2.055,10.005,3.111,15.835,3.111s11.695-1.056,15.834-3.111
				v1.539C79.292,77.31,73.848,80.749,63.458,80.749 M63.458,45.138c10.39,0,15.834,3.44,15.834,4.63s-5.444,4.628-15.834,4.628
				s-15.835-3.439-15.835-4.628S53.068,45.138,63.458,45.138 M63.458,39.41c-10.716,0-21.563,3.558-21.563,10.357V76.12
				c0,6.8,10.847,10.357,21.563,10.357c10.715,0,21.562-3.557,21.562-10.357V49.767C85.02,42.968,74.173,39.41,63.458,39.41"/>
		</g>
	</g>
</g>
</svg>
