<?xml version="1.0" encoding="utf-8"?>
<!-- Generator: Adobe Illustrator 16.0.0, SVG Export Plug-In . SVG Version: 6.00 Build 0)  -->
<!DOCTYPE svg PUBLIC "-//W3C//DTD SVG 1.1//EN" "http://www.w3.org/Graphics/SVG/1.1/DTD/svg11.dtd">
<svg version="1.1" id="Layer_1" xmlns="http://www.w3.org/2000/svg" xmlns:xlink="http://www.w3.org/1999/xlink" x="0px" y="0px"
	 width="244.667px" height="158.67px" viewBox="0 0 244.667 158.67" enable-background="new 0 0 244.667 158.67"
	 xml:space="preserve">
<g>
	<path fill="#D1D1D0" d="M240.832,0H3.835C1.721,0,0,1.721,0,3.834v151c0,2.115,1.721,3.836,3.835,3.836h236.997
		c2.115,0,3.836-1.721,3.836-3.836v-151C244.667,1.721,242.947,0,240.832,0z"/>
	<g>
		<path fill="#FFFFFF" d="M3.835,2C2.823,2,2,2.822,2,3.834v151c0,1.013,0.823,1.836,1.835,1.836h236.997
			c1.013,0,1.836-0.823,1.836-1.836v-151c0-1.012-0.823-1.834-1.836-1.834H3.835z"/>
	</g>
</g>
<rect x="27.743" y="65.409" fill="#F8E5DB" stroke="#DFB5A2" stroke-width="2" stroke-miterlimit="10" width="75.729" height="92.391"/>
<rect x="28.696" y="150.053" fill="#E1BFAF" width="73.822" height="6.808"/>
<g>
	<rect x="59.073" y="113.644" fill="#E9BFAD" width="13.648" height="13.14"/>
	<rect x="76.903" y="113.644" fill="#E9BFAD" width="13.648" height="13.14"/>
	<rect x="76.903" y="131.882" fill="#E9BFAD" width="13.648" height="13.139"/>
	<rect x="41.241" y="113.644" fill="#E9BFAD" width="13.648" height="13.14"/>
	<rect x="58.782" y="94.415" fill="#E9BFAD" width="13.648" height="13.143"/>
	<rect x="76.614" y="94.415" fill="#E9BFAD" width="13.648" height="13.143"/>
	<rect x="40.952" y="94.415" fill="#E9BFAD" width="13.648" height="13.143"/>
	<rect x="58.929" y="75.352" fill="#E9BFAD" width="13.648" height="13.141"/>
	<rect x="76.759" y="75.352" fill="#E9BFAD" width="13.648" height="13.141"/>
	<rect x="41.097" y="75.352" fill="#E9BFAD" width="13.648" height="13.141"/>
	<rect x="41.241" y="131.882" fill="#E9BFAD" width="13.648" height="13.139"/>
	<rect x="59.073" y="131.705" fill="#E9BFAD" width="13.648" height="13.315"/>
</g>
<g>
	
		<rect x="159.568" y="80.244" fill="#E0EBF3" stroke="#A9B5BF" stroke-width="2" stroke-miterlimit="10" width="57.355" height="77.43"/>
	<rect x="160.521" y="149.927" fill="#B2C0CE" width="55.523" height="6.809"/>
	<g>
		<rect x="190.482" y="109.685" fill="#8A9EB1" width="13.648" height="13.139"/>
		<rect x="172.65" y="109.685" fill="#8A9EB1" width="13.648" height="13.139"/>
		<rect x="190.191" y="90.455" fill="#8A9EB1" width="13.648" height="13.142"/>
		<rect x="172.361" y="90.455" fill="#8A9EB1" width="13.648" height="13.142"/>
		<rect x="172.65" y="127.922" fill="#8A9EB1" width="13.648" height="13.14"/>
		<rect x="190.482" y="127.745" fill="#8A9EB1" width="13.648" height="13.314"/>
	</g>
</g>
<rect x="83.634" y="41.723" fill="#F1F2F5" stroke="#D1D1D0" stroke-width="2" stroke-miterlimit="10" width="95.105" height="116.035"/>
<rect x="122.981" y="111.804" fill="#D1D1D0" width="17.142" height="12.523"/>
<rect x="145.375" y="111.804" fill="#D1D1D0" width="17.143" height="12.523"/>
<rect x="145.375" y="129.187" fill="#D1D1D0" width="17.143" height="12.521"/>
<rect x="100.587" y="111.804" fill="#D1D1D0" width="17.141" height="12.523"/>
<rect x="122.616" y="93.479" fill="#D1D1D0" width="17.141" height="12.522"/>
<rect x="145.011" y="93.479" fill="#D1D1D0" width="17.141" height="12.522"/>
<rect x="100.222" y="93.479" fill="#D1D1D0" width="17.143" height="12.522"/>
<rect x="122.798" y="75.31" fill="#D1D1D0" width="17.143" height="12.523"/>
<rect x="145.192" y="75.31" fill="#D1D1D0" width="17.142" height="12.523"/>
<rect x="100.403" y="75.31" fill="#D1D1D0" width="17.143" height="12.523"/>
<rect x="122.435" y="56.984" fill="#D1D1D0" width="17.141" height="12.523"/>
<rect x="144.828" y="56.984" fill="#D1D1D0" width="17.143" height="12.523"/>
<rect x="100.04" y="56.984" fill="#D1D1D0" width="17.141" height="12.523"/>
<rect x="100.587" y="129.187" fill="#D1D1D0" width="17.141" height="12.521"/>
<rect x="84.478" y="148.269" fill="#E8E8E8" width="93.586" height="8.551"/>
<rect x="122.981" y="129.019" fill="#D1D1D0" width="17.142" height="28.739"/>
</svg>
