<?xml version="1.0" encoding="utf-8"?>
<!-- Generator: Adobe Illustrator 16.0.0, SVG Export Plug-In . SVG Version: 6.00 Build 0)  -->
<!DOCTYPE svg PUBLIC "-//W3C//DTD SVG 1.1//EN" "http://www.w3.org/Graphics/SVG/1.1/DTD/svg11.dtd">
<svg version="1.1" id="Layer_1" xmlns="http://www.w3.org/2000/svg" xmlns:xlink="http://www.w3.org/1999/xlink" x="0px" y="0px"
	 width="244.667px" height="158.67px" viewBox="0 0 244.667 158.67" enable-background="new 0 0 244.667 158.67"
	 xml:space="preserve">
<g>
	<path fill="#D1D1D0" d="M240.832,0H3.835C1.721,0,0,1.721,0,3.834v151c0,2.115,1.721,3.836,3.835,3.836h236.997
		c2.115,0,3.836-1.721,3.836-3.836v-151C244.667,1.721,242.947,0,240.832,0z"/>
	<g>
		<path fill="#FFFFFF" d="M3.835,1.999C2.823,1.999,2,2.821,2,3.833v151c0,1.012,0.823,1.836,1.835,1.836h236.997
			c1.013,0,1.836-0.824,1.836-1.836v-151c0-1.012-0.823-1.834-1.836-1.834H3.835z"/>
	</g>
	<g>
		<g>
			<path fill="#C4E9FB" stroke="#4CB3E5" stroke-width="2" stroke-miterlimit="10" d="M174.951,129.418
				c0,3.131-2.537,5.669-5.669,5.669H73.31c-3.131,0-5.669-2.538-5.669-5.669V88.131c0-3.131,2.538-5.669,5.669-5.669h95.973
				c3.131,0,5.67,2.538,5.67,5.669v41.287H174.951z"/>
			<g>
				<path fill="#FFFFFF" d="M167.296,129.317V45.29l-19.635-19.708h-67.7c-3.162,0-5.725,2.562-5.725,5.725v98.012h93.06V129.317z"
					/>
				<path fill="#D1D1D0" d="M169.296,45.29H151.96c-2.574,0-4.668-2.095-4.668-4.669V23.582h-2v17.039
					c0,3.678,2.99,6.669,6.668,6.669h17.336V45.29z"/>
				<polygon fill="#D1D1D0" points="168.981,48.096 145.882,24.996 147.296,23.582 169.296,45.29 				"/>
				<rect x="85.021" y="51.354" fill="#D1D1D0" width="40" height="3.212"/>
				<rect x="85.021" y="58.236" fill="#D1D1D0" width="40" height="3.212"/>
				<rect x="85.021" y="65.156" fill="#D1D1D0" width="28.457" height="3.213"/>
				<rect x="85.021" y="87.59" fill="#D1D1D0" width="70.791" height="3.212"/>
				<rect x="85.021" y="96.078" fill="#D1D1D0" width="70.791" height="3.211"/>
				<rect x="85.021" y="104.604" fill="#D1D1D0" width="70.791" height="3.213"/>
				<g>
					<rect x="167.296" y="45.29" fill="#D1D1D0" width="2" height="84.027"/>
					<path fill="#D1D1D0" d="M75.296,129.317V30.252c0-2.574,2.096-4.67,4.67-4.67h67.327v-2H79.966c-3.678,0-6.67,2.992-6.67,6.67
						v99.065H75.296z"/>
				</g>
			</g>
			<g>
				<path fill="#C4E9FB" d="M173.025,131.938l-47.127-24.73c-3.309-1.52-5.184-1.422-8.017,0l-47.126,24.73H173.025z"/>
				<path fill="#4CB3E5" d="M174.087,133.699l-104.064-0.271l-1.196-1.605l48.591-25.5c1.705-0.855,3.004-1.219,4.356-1.219
					c1.343,0,2.743,0.369,4.542,1.194l48.637,25.521L174.087,133.699z M171.281,133.699c0.969,0.003,1.454-0.796,1.454-0.796
					l-47.302-24.811c-1.477-0.677-2.62-0.988-3.66-0.988c-1.021,0-2.051,0.299-3.443,0.996l-48.308,25.326"/>
			</g>
			<polygon fill="#4CB3E5" points="175.275,85.263 132.306,111.774 131.287,110.133 173.326,84.146 			"/>
			<polygon fill="#4CB3E5" points="68.228,85.263 111.197,111.774 112.217,110.133 70.177,84.146 			"/>
			<polygon fill="#C4E9FB" points="71.548,87.312 109.281,110.592 71.548,130.394 			"/>
			<polygon fill="#C4E9FB" points="172.146,87.312 134.414,110.592 172.146,130.394 			"/>
			<rect x="71.847" y="133.11" fill="#C4E9FB" width="98.801" height="0.617"/>
		</g>
		<circle fill="#FFFFFF" stroke="#A39DCC" stroke-width="2" stroke-miterlimit="10" cx="167.296" cy="76.45" r="22.924"/>
		<g>
			<path fill="#A59DCD" d="M167.294,70.064c-3.526,0-6.387,2.859-6.387,6.387s2.859,6.387,6.387,6.387
				c3.529,0,6.39-2.858,6.39-6.387S170.824,70.064,167.294,70.064z M169.51,76.578c-1.527,0-2.769-1.238-2.769-2.768
				c0-1.527,1.24-2.768,2.769-2.768s2.768,1.24,2.768,2.768C172.277,75.34,171.039,76.578,169.51,76.578z"/>
			<path fill="#A59DCD" d="M182.824,75.688c-0.059-0.102-1.453-2.525-3.953-4.963c-3.391-3.303-7.217-5.051-11.063-5.051
				c-9.14,0-15.647,9.52-15.92,9.926l-0.56,0.852l0.56,0.852c0.271,0.404,6.78,9.923,15.92,9.923c3.848,0,7.674-1.746,11.063-5.051
				c2.5-2.436,3.896-4.861,3.953-4.963l0.439-0.762L182.824,75.688z M167.807,84.416c-6.318,0-11.443-5.887-13.058-7.965
				c1.613-2.078,6.738-7.967,13.058-7.967c6.342,0,10.856,5.986,12.178,7.967C178.664,78.43,174.148,84.416,167.807,84.416z"/>
		</g>
	</g>
</g>
</svg>
