<?xml version="1.0" encoding="utf-8"?>
<!-- Generator: Adobe Illustrator 16.0.0, SVG Export Plug-In . SVG Version: 6.00 Build 0)  -->
<!DOCTYPE svg PUBLIC "-//W3C//DTD SVG 1.1//EN" "http://www.w3.org/Graphics/SVG/1.1/DTD/svg11.dtd">
<svg version="1.1" id="Layer_1" xmlns="http://www.w3.org/2000/svg" xmlns:xlink="http://www.w3.org/1999/xlink" x="0px" y="0px"
	 width="244.667px" height="158.67px" viewBox="0 0 244.667 158.67" enable-background="new 0 0 244.667 158.67"
	 xml:space="preserve">
<g>
	<path fill="#D1D1D0" d="M240.832,0H3.835C1.721,0,0,1.721,0,3.834v151c0,2.115,1.721,3.836,3.835,3.836h236.997
		c2.115,0,3.836-1.721,3.836-3.836v-151C244.667,1.721,242.947,0,240.832,0z"/>
	<g>
		<path fill="#FFFFFF" d="M3.835,1.999C2.823,1.999,2,2.821,2,3.833v151c0,1.012,0.823,1.836,1.835,1.836h236.997
			c1.013,0,1.836-0.824,1.836-1.836v-151c0-1.012-0.823-1.834-1.836-1.834H3.835z"/>
	</g>
	<path fill="#F1F2F5" d="M242.667,36.827V3.835c0-1.012-0.823-1.835-1.836-1.835H3.835C2.823,2,2,2.823,2,3.835v32.992H242.667z"/>
	<g>
		<path fill="#575C61" d="M96.456,20.177h-2.974v1.918h3.322v1.5h-5.157v-8.084h4.989v1.499h-3.154v1.679h2.974V20.177z"/>
		<path fill="#575C61" d="M102.312,23.595l-0.731-1.464c-0.3-0.563-0.491-0.983-0.72-1.451h-0.023
			c-0.168,0.468-0.372,0.888-0.624,1.451l-0.672,1.464h-2.087l2.339-4.09l-2.255-3.994h2.1l0.707,1.475
			c0.24,0.492,0.42,0.889,0.612,1.344h0.023c0.192-0.516,0.348-0.875,0.552-1.344l0.684-1.475h2.087l-2.278,3.945l2.398,4.139
			H102.312z"/>
		<path fill="#575C61" d="M105.411,15.618c0.563-0.096,1.354-0.168,2.47-0.168c1.128,0,1.932,0.217,2.471,0.648
			c0.517,0.408,0.864,1.079,0.864,1.871c0,0.791-0.265,1.463-0.744,1.918c-0.623,0.588-1.547,0.852-2.626,0.852
			c-0.24,0-0.456-0.012-0.624-0.035v2.891h-1.811V15.618z M107.222,19.288c0.156,0.037,0.348,0.049,0.611,0.049
			c0.972,0,1.571-0.492,1.571-1.32c0-0.742-0.516-1.187-1.427-1.187c-0.372,0-0.624,0.036-0.756,0.071L107.222,19.288
			L107.222,19.288z"/>
		<path fill="#575C61" d="M119.782,19.468c0,2.651-1.607,4.258-3.97,4.258c-2.398,0-3.802-1.811-3.802-4.113
			c0-2.422,1.547-4.233,3.934-4.233C118.427,15.379,119.782,17.237,119.782,19.468z M113.941,19.577
			c0,1.582,0.744,2.697,1.967,2.697c1.235,0,1.943-1.175,1.943-2.746c0-1.451-0.695-2.698-1.955-2.698
			C114.661,16.83,113.941,18.005,113.941,19.577z"/>
		<path fill="#575C61" d="M120.987,15.618c0.587-0.096,1.463-0.168,2.435-0.168c1.199,0,2.039,0.18,2.615,0.637
			c0.479,0.383,0.742,0.947,0.742,1.69c0,1.032-0.73,1.739-1.427,1.991v0.035c0.563,0.229,0.875,0.768,1.079,1.512
			c0.252,0.912,0.504,1.967,0.66,2.279h-1.871c-0.133-0.229-0.324-0.889-0.563-1.883c-0.216-1.008-0.563-1.283-1.308-1.296h-0.552
			v3.179h-1.811L120.987,15.618L120.987,15.618z M122.798,19.097h0.72c0.911,0,1.451-0.455,1.451-1.164
			c0-0.742-0.505-1.115-1.345-1.127c-0.442,0-0.694,0.036-0.827,0.061V19.097L122.798,19.097z"/>
		<path fill="#575C61" d="M129.662,17.046h-2.172v-1.535h6.213v1.535h-2.207v6.549h-1.834V17.046z"/>
		<path fill="#575C61" d="M134.63,21.712c0.492,0.252,1.248,0.503,2.027,0.503c0.84,0,1.283-0.348,1.283-0.876
			c0-0.503-0.384-0.791-1.355-1.139c-1.344-0.468-2.219-1.211-2.219-2.387c0-1.379,1.151-2.435,3.06-2.435
			c0.911,0,1.583,0.192,2.062,0.407l-0.408,1.476c-0.322-0.155-0.898-0.384-1.689-0.384c-0.792,0-1.176,0.359-1.176,0.779
			c0,0.516,0.455,0.744,1.498,1.14c1.429,0.528,2.1,1.271,2.1,2.411c0,1.355-1.043,2.506-3.262,2.506
			c-0.924,0-1.836-0.24-2.291-0.491L134.63,21.712z"/>
	</g>
	<path fill="#ABACAC" d="M64.108,65.844l-0.016,0.015v-0.015h-1.96H36.757h-1.961v1.959v6.741v1.152v1.959v2.126v42.709v1.959h1.961
		h31.038h2.11h1.958h1.43h4.436h1.961v-1.959V83.978v-0.561v-1.96v-0.034L64.108,65.844z M64.093,68.599L76.95,81.457H64.093V68.599
		z M77.729,122.49H36.757V67.803h25.376v15.614h0.001h1.959h13.636V122.49z"/>
	<g>
		<path fill="#ED1C24" d="M50.163,93.538c0.553,0,1.022,0.08,1.411,0.24c0.388,0.16,0.703,0.373,0.946,0.638
			s0.421,0.565,0.532,0.903c0.111,0.339,0.167,0.688,0.167,1.053c0,0.354-0.056,0.703-0.167,1.046
			c-0.111,0.343-0.289,0.646-0.532,0.909c-0.243,0.265-0.559,0.477-0.946,0.638c-0.389,0.161-0.858,0.241-1.411,0.241H48.12v3.169
			h-1.942v-8.837H50.163z M49.631,97.696c0.223,0,0.437-0.018,0.644-0.051c0.206-0.031,0.388-0.097,0.544-0.19
			c0.157-0.095,0.283-0.229,0.378-0.402c0.095-0.173,0.143-0.399,0.143-0.681s-0.048-0.508-0.143-0.682
			c-0.095-0.174-0.221-0.308-0.378-0.401c-0.156-0.095-0.338-0.159-0.544-0.192c-0.207-0.031-0.421-0.049-0.644-0.049H48.12v2.648
			H49.631z"/>
		<path fill="#ED1C24" d="M58.245,93.538c0.569,0,1.1,0.091,1.591,0.271c0.49,0.182,0.916,0.453,1.274,0.816
			c0.359,0.363,0.64,0.816,0.842,1.361c0.202,0.545,0.304,1.185,0.304,1.919c0,0.644-0.083,1.237-0.248,1.782
			c-0.165,0.543-0.414,1.015-0.749,1.41c-0.334,0.396-0.751,0.707-1.25,0.935s-1.087,0.341-1.764,0.341h-3.812v-8.837L58.245,93.538
			L58.245,93.538z M58.109,100.741c0.28,0,0.553-0.045,0.816-0.137c0.265-0.09,0.499-0.242,0.706-0.451
			c0.206-0.211,0.371-0.484,0.495-0.823c0.123-0.338,0.186-0.751,0.186-1.237c0-0.445-0.044-0.849-0.13-1.207
			c-0.087-0.359-0.229-0.666-0.428-0.922c-0.197-0.256-0.46-0.451-0.785-0.588c-0.326-0.137-0.729-0.204-1.207-0.204h-1.387v5.569
			H58.109z"/>
		<path fill="#ED1C24" d="M69.817,93.538v1.634h-4.271v2.042h3.701v1.51h-3.701v3.651h-1.942v-8.837H69.817L69.817,93.538z"/>
	</g>
	<path fill="#ABACAC" d="M122.933,65.844l-0.016,0.015v-0.015h-1.96H95.581H93.62v1.959v6.741v1.152v1.959v2.126v42.709v1.959h1.961
		h31.038h2.11h1.958h1.43h4.437h1.961v-1.959V83.978v-0.561v-1.96v-0.034L122.933,65.844z M122.917,68.599l12.856,12.858h-12.856
		V68.599z M136.553,122.49H95.581V67.803h25.376v15.614h0.001h1.959h13.636V122.49z"/>
	<g>
		<path fill="#6CC06B" d="M104.32,93.538h2.253l1.733,2.82l1.794-2.82h2.129l-2.834,4.22l3.082,4.617h-2.314l-1.931-3.058
			l-1.969,3.058h-2.178l3.082-4.629L104.32,93.538z"/>
		<path fill="#6CC06B" d="M115.2,93.538v7.203h4.308v1.634h-6.25v-8.837H115.2L115.2,93.538z"/>
		<path fill="#6CC06B" d="M122.082,100.196c0.107,0.207,0.25,0.373,0.428,0.502c0.177,0.128,0.386,0.223,0.625,0.283
			c0.239,0.062,0.485,0.094,0.741,0.094c0.174,0,0.359-0.014,0.559-0.043c0.197-0.029,0.383-0.086,0.557-0.167
			c0.174-0.083,0.317-0.196,0.434-0.341c0.115-0.146,0.174-0.328,0.174-0.551c0-0.24-0.076-0.434-0.229-0.582
			s-0.354-0.271-0.601-0.371c-0.248-0.1-0.528-0.187-0.842-0.261c-0.314-0.073-0.632-0.155-0.953-0.247
			c-0.33-0.082-0.652-0.184-0.966-0.304c-0.313-0.119-0.594-0.274-0.841-0.464c-0.248-0.189-0.448-0.428-0.601-0.712
			c-0.153-0.284-0.229-0.63-0.229-1.033c0-0.454,0.098-0.849,0.291-1.183c0.194-0.334,0.447-0.612,0.762-0.836
			c0.313-0.223,0.668-0.388,1.064-0.494c0.396-0.107,0.792-0.161,1.188-0.161c0.463,0,0.905,0.052,1.331,0.153
			c0.425,0.104,0.803,0.271,1.133,0.502c0.329,0.23,0.592,0.525,0.785,0.886c0.193,0.358,0.291,0.794,0.291,1.306h-1.881
			c-0.018-0.264-0.072-0.482-0.167-0.656c-0.097-0.173-0.222-0.309-0.378-0.408c-0.156-0.099-0.336-0.168-0.538-0.209
			s-0.423-0.062-0.662-0.062c-0.157,0-0.313,0.018-0.472,0.051c-0.156,0.032-0.298,0.09-0.426,0.172
			c-0.128,0.084-0.233,0.188-0.315,0.311c-0.083,0.124-0.124,0.281-0.124,0.471c0,0.174,0.033,0.312,0.099,0.422
			c0.066,0.106,0.196,0.205,0.391,0.297c0.193,0.09,0.461,0.182,0.804,0.271c0.343,0.091,0.79,0.206,1.344,0.347
			c0.164,0.033,0.394,0.093,0.687,0.181c0.293,0.086,0.584,0.225,0.873,0.414s0.539,0.442,0.748,0.762
			c0.211,0.316,0.315,0.724,0.315,1.219c0,0.404-0.078,0.78-0.233,1.126c-0.158,0.347-0.392,0.646-0.699,0.897
			c-0.311,0.252-0.693,0.447-1.151,0.588s-0.987,0.211-1.591,0.211c-0.486,0-0.959-0.061-1.417-0.18s-0.862-0.309-1.213-0.563
			c-0.351-0.255-0.63-0.581-0.836-0.978c-0.206-0.397-0.305-0.867-0.297-1.412h1.882C121.922,99.737,121.976,99.99,122.082,100.196z
			"/>
	</g>
	<path fill="#ABACAC" d="M185.234,65.844l-0.016,0.015v-0.015h-1.961h-25.375h-1.961v1.959v6.741v1.152v1.959v2.126v42.709v1.959
		h1.961h31.037h2.11h1.958h1.43h4.437h1.961v-1.959V83.978v-0.561v-1.96v-0.034L185.234,65.844z M185.219,68.599l12.856,12.858
		h-12.856V68.599z M198.854,122.49h-40.972V67.803h25.375v15.614h0.002h1.959h13.636V122.49z"/>
	<g>
		<path fill="#4FB5E7" d="M170.972,95.896c-0.115-0.186-0.26-0.349-0.434-0.488c-0.174-0.141-0.369-0.249-0.588-0.328
			c-0.219-0.078-0.447-0.117-0.688-0.117c-0.438,0-0.809,0.085-1.113,0.254c-0.306,0.169-0.554,0.396-0.743,0.682
			c-0.188,0.283-0.327,0.607-0.413,0.972c-0.088,0.362-0.132,0.737-0.132,1.126c0,0.372,0.044,0.732,0.132,1.083
			c0.086,0.353,0.225,0.667,0.413,0.946c0.189,0.281,0.438,0.507,0.743,0.676s0.676,0.253,1.113,0.253
			c0.595,0,1.059-0.181,1.393-0.544s0.539-0.842,0.613-1.436h1.881c-0.05,0.553-0.178,1.051-0.384,1.496s-0.479,0.825-0.815,1.139
			c-0.34,0.313-0.734,0.554-1.188,0.719s-0.953,0.248-1.498,0.248c-0.677,0-1.285-0.118-1.825-0.354
			c-0.541-0.234-0.996-0.56-1.368-0.972c-0.37-0.413-0.655-0.897-0.854-1.455c-0.197-0.558-0.297-1.157-0.297-1.801
			c0-0.66,0.1-1.272,0.297-1.838c0.199-0.566,0.482-1.06,0.854-1.479c0.372-0.421,0.827-0.751,1.368-0.99
			c0.54-0.238,1.148-0.358,1.825-0.358c0.487,0,0.946,0.069,1.381,0.211c0.433,0.14,0.819,0.344,1.163,0.612
			c0.342,0.269,0.625,0.601,0.848,0.996s0.363,0.851,0.422,1.36h-1.882C171.162,96.285,171.087,96.081,170.972,95.896z"/>
		<path fill="#4FB5E7" d="M175.96,100.196c0.106,0.207,0.25,0.373,0.428,0.502c0.177,0.128,0.386,0.223,0.625,0.283
			c0.238,0.062,0.486,0.094,0.742,0.094c0.174,0,0.358-0.014,0.558-0.043c0.197-0.029,0.383-0.086,0.558-0.167
			c0.172-0.083,0.316-0.196,0.434-0.341c0.115-0.146,0.173-0.328,0.173-0.551c0-0.24-0.076-0.434-0.229-0.582
			c-0.151-0.148-0.353-0.271-0.6-0.371c-0.248-0.1-0.527-0.187-0.842-0.261c-0.314-0.073-0.631-0.155-0.953-0.247
			c-0.33-0.082-0.652-0.184-0.966-0.304c-0.313-0.119-0.595-0.274-0.841-0.464c-0.248-0.189-0.448-0.428-0.602-0.712
			c-0.152-0.284-0.229-0.63-0.229-1.033c0-0.454,0.098-0.849,0.291-1.183s0.447-0.612,0.762-0.836
			c0.312-0.223,0.668-0.388,1.064-0.494c0.396-0.107,0.791-0.161,1.188-0.161c0.463,0,0.906,0.052,1.331,0.153
			c0.425,0.104,0.803,0.271,1.133,0.502c0.329,0.23,0.593,0.525,0.785,0.886c0.194,0.358,0.291,0.794,0.291,1.306h-1.881
			c-0.017-0.264-0.072-0.482-0.167-0.656c-0.096-0.173-0.221-0.309-0.379-0.408c-0.155-0.099-0.336-0.168-0.537-0.209
			c-0.202-0.041-0.424-0.062-0.662-0.062c-0.157,0-0.314,0.018-0.471,0.051c-0.157,0.032-0.299,0.09-0.428,0.172
			c-0.127,0.084-0.232,0.188-0.314,0.311c-0.083,0.124-0.124,0.281-0.124,0.471c0,0.174,0.032,0.312,0.099,0.422
			c0.066,0.106,0.196,0.205,0.391,0.297c0.193,0.09,0.463,0.182,0.805,0.271c0.343,0.091,0.79,0.206,1.344,0.347
			c0.164,0.033,0.395,0.093,0.688,0.181c0.293,0.086,0.584,0.225,0.871,0.414c0.289,0.189,0.539,0.442,0.75,0.762
			c0.211,0.316,0.314,0.724,0.314,1.219c0,0.404-0.078,0.78-0.234,1.126c-0.156,0.347-0.391,0.646-0.699,0.897
			c-0.31,0.252-0.692,0.447-1.15,0.588s-0.988,0.211-1.591,0.211c-0.486,0-0.959-0.061-1.417-0.18s-0.862-0.309-1.213-0.563
			c-0.352-0.255-0.631-0.581-0.836-0.978c-0.206-0.397-0.305-0.867-0.297-1.412h1.882C175.8,99.737,175.854,99.99,175.96,100.196z"
			/>
		<path fill="#4FB5E7" d="M184.425,102.375l-2.858-8.837h1.993l1.968,6.213h0.024l1.992-6.213h2.006l-2.934,8.837H184.425z"/>
	</g>
	<polygon fill="#575C61" points="61.059,114.897 60.439,114.278 57.684,117.035 57.684,108.625 56.809,108.625 56.809,117.041 
		54.045,114.278 53.428,114.897 57.242,118.714 57.861,118.095 57.861,118.095 	"/>
	<polygon fill="#575C61" points="119.883,114.897 119.264,114.278 116.508,117.035 116.508,108.625 115.633,108.625 
		115.633,117.041 112.869,114.278 112.252,114.897 116.066,118.714 116.686,118.095 116.686,118.095 	"/>
	<polygon fill="#575C61" points="182.184,114.897 181.564,114.278 178.809,117.035 178.809,108.625 177.934,108.625 
		177.934,117.041 175.169,114.278 174.553,114.897 178.367,118.714 178.986,118.095 178.986,118.095 	"/>
</g>
</svg>
