<?xml version="1.0" encoding="UTF-8"?>
<!-- Generator: Adobe Illustrator 16.0.0, SVG Export Plug-In . SVG Version: 6.00 Build 0)  -->
<!DOCTYPE svg PUBLIC "-//W3C//DTD SVG 1.1//EN" "http://www.w3.org/Graphics/SVG/1.1/DTD/svg11.dtd">
<svg version="1.1" id="Layer_1" xmlns="http://www.w3.org/2000/svg" xmlns:xlink="http://www.w3.org/1999/xlink" x="0px" y="0px" width="278.5px" height="159.167px" viewBox="0 0 278.5 159.167" enable-background="new 0 0 278.5 159.167" xml:space="preserve">
<g>
	<path fill="#D1D1D0" d="M261.583,157.167V3.834c0-2.114-1.72-3.834-3.835-3.834H20.751c-2.114,0-3.835,1.72-3.835,3.834v153.332H0   v2h16.916h244.667H278.5v-2h-16.917V157.167z"/>
	<g>
		<g>
			<path fill="#FFFFFF" d="M18.916,157.167h240.667V3.834c0-1.012-0.823-1.834-1.835-1.834H20.751c-1.012,0-1.835,0.823-1.835,1.834     V157.167z"/>
		</g>
	</g>
</g>
<path fill="#F1F2F5" d="M259.583,56.5V3.834c0-1.012-0.823-1.834-1.835-1.834H20.751c-1.012,0-1.835,0.823-1.835,1.834V56.5H259.583  z"/>
<g>
	<path fill="#ABABAB" d="M161.134,22.31v16.753h-2.161V22.31H161.134z"/>
	<path fill="#ABABAB" d="M164.913,39.063V22.31h2.36l5.369,8.476c1.242,1.964,2.213,3.729,3.008,5.444l0.05-0.025   c-0.198-2.237-0.248-4.275-0.248-6.885v-7.01h2.038v16.753h-2.188l-5.32-8.501c-1.168-1.864-2.287-3.778-3.131-5.593l-0.074,0.025   c0.123,2.113,0.174,4.126,0.174,6.91v7.159H164.913z"/>
	<path fill="#ABABAB" d="M184.947,39.063L179.48,22.31h2.336l2.609,8.252c0.721,2.262,1.342,4.3,1.789,6.264h0.051   c0.473-1.938,1.168-4.051,1.914-6.239l2.834-8.277h2.312l-5.99,16.753H184.947z"/>
	<path fill="#ABABAB" d="M209.459,30.512c0,5.767-3.505,8.824-7.779,8.824c-4.425,0-7.531-3.43-7.531-8.501   c0-5.319,3.306-8.799,7.779-8.799C206.501,22.036,209.459,25.541,209.459,30.512z M196.459,30.786c0,3.58,1.938,6.786,5.346,6.786   c3.43,0,5.368-3.157,5.368-6.96c0-3.331-1.739-6.811-5.345-6.811C198.249,23.801,196.459,27.107,196.459,30.786z"/>
	<path fill="#ABABAB" d="M214.434,22.31v16.753h-2.164V22.31H214.434z"/>
	<path fill="#ABABAB" d="M229.919,38.516c-0.796,0.398-2.387,0.795-4.426,0.795c-4.724,0-8.276-2.983-8.276-8.476   c0-5.245,3.555-8.799,8.749-8.799c2.089,0,3.406,0.448,3.978,0.746l-0.521,1.765c-0.82-0.398-1.988-0.696-3.381-0.696   c-3.928,0-6.537,2.511-6.537,6.91c0,4.102,2.361,6.736,6.438,6.736c1.317,0,2.66-0.273,3.529-0.696L229.919,38.516z"/>
	<path fill="#ABABAB" d="M241.305,31.208h-6.513v6.04h7.258v1.814h-9.421V22.31h9.049v1.814h-6.886v5.294h6.513V31.208z"/>
</g>
<g>
	<path fill="#76B343" d="M49.171,28.108c0.771-0.353,1.797-0.754,3.143-1.119c1.652-0.447,2.969-0.39,3.924,0.095   c0.877,0.422,1.555,1.249,1.867,2.403c0.318,1.173,0.221,2.188-0.25,3.038c-0.63,1.181-1.941,2.052-3.574,2.494   c-0.5,0.135-0.967,0.24-1.377,0.249l1.403,5.189l-1.673,0.453L49.171,28.108z M52.534,33.902c0.391-0.002,0.862-0.089,1.42-0.239   c2.018-0.546,2.983-1.859,2.5-3.647c-0.463-1.71-1.898-2.209-3.744-1.71c-0.73,0.198-1.271,0.406-1.539,0.561L52.534,33.902z"/>
	<path fill="#76B343" d="M62.238,33.938l-0.243,4.439l-1.729,0.468l0.896-14.146l2.019-0.546l7.926,11.759l-1.787,0.484   l-2.487-3.701L62.238,33.938z M66.133,31.482l-2.277-3.386c-0.517-0.768-0.917-1.484-1.312-2.182l-0.038,0.01   c0.016,0.821,0.017,1.666-0.02,2.521l-0.254,4.092L66.133,31.482z"/>
	<path fill="#76B343" d="M71.177,21.99l3.506,12.955l-1.673,0.453l-3.505-12.955L71.177,21.99z"/>
	<path fill="#76B343" d="M74.146,21.372c0.977-0.429,2.156-0.872,3.482-1.231c2.404-0.65,4.266-0.555,5.686,0.196   c1.438,0.745,2.518,2.062,3.084,4.157c0.572,2.114,0.387,4.021-0.502,5.54c-0.885,1.54-2.707,2.734-5.225,3.415   c-1.191,0.322-2.207,0.535-3.078,0.667L74.146,21.372z M78.917,32.376c0.443-0.037,1.064-0.185,1.717-0.362   c3.576-0.967,4.977-3.492,4.029-6.99c-0.807-3.062-3.062-4.535-6.6-3.578c-0.863,0.234-1.497,0.488-1.914,0.703L78.917,32.376z"/>
</g>
<path fill="none" stroke="#76B343" stroke-width="3" stroke-miterlimit="10" d="M97.033,26.845c0.982,3.631-1.164,7.371-4.795,8.353  L49.725,46.699c-3.632,0.982-7.371-1.165-8.354-4.795L38.654,31.86c-0.982-3.631,1.164-7.371,4.796-8.353l42.514-11.501  c3.631-0.982,7.37,1.165,8.353,4.795L97.033,26.845z"/>
<g>
	<path fill="#575C61" d="M41.017,81.744h-2.496v-1.34h6.617v1.34h-2.522v7.422h-1.599V81.744z"/>
	<path fill="#575C61" d="M51.118,85.942c0,2.327-1.639,3.367-3.251,3.367c-1.794,0-3.172-1.235-3.172-3.263   c0-2.08,1.365-3.354,3.276-3.354C49.856,82.692,51.118,84.018,51.118,85.942z M46.347,86.007c0,1.222,0.598,2.145,1.572,2.145   c0.91,0,1.547-0.896,1.547-2.171c0-0.987-0.441-2.119-1.533-2.119C46.802,83.862,46.347,84.955,46.347,86.007z"/>
	<path fill="#575C61" d="M56.928,80.404h1.599v5.682c0,2.418-1.17,3.224-2.912,3.224c-0.441,0-1-0.078-1.338-0.208l0.194-1.287   c0.26,0.078,0.61,0.156,0.988,0.156c0.909,0,1.469-0.416,1.469-1.938V80.404z"/>
	<path fill="#575C61" d="M66.236,85.942c0,2.327-1.638,3.367-3.251,3.367c-1.793,0-3.172-1.235-3.172-3.263   c0-2.08,1.365-3.354,3.276-3.354C64.976,82.692,66.236,84.018,66.236,85.942z M61.465,86.007c0,1.222,0.599,2.145,1.573,2.145   c0.91,0,1.547-0.896,1.547-2.171c0-0.987-0.441-2.119-1.534-2.119C61.92,83.862,61.465,84.955,61.465,86.007z"/>
	<path fill="#575C61" d="M67.548,79.936h1.613v3.771h0.025c0.195-0.299,0.455-0.545,0.793-0.729   c0.312-0.182,0.689-0.286,1.092-0.286c1.079,0,2.211,0.716,2.211,2.743v3.73h-1.6v-3.549c0-0.923-0.338-1.611-1.223-1.611   c-0.623,0-1.065,0.416-1.234,0.896c-0.053,0.131-0.064,0.299-0.064,0.48v3.783h-1.613V79.936z"/>
	<path fill="#575C61" d="M74.984,84.72c0-0.729-0.013-1.34-0.052-1.885h1.404l0.078,0.949h0.039   c0.272-0.494,0.961-1.093,2.015-1.093c1.104,0,2.249,0.716,2.249,2.718v3.756h-1.6v-3.574c0-0.91-0.338-1.6-1.209-1.6   c-0.637,0-1.078,0.455-1.248,0.937c-0.052,0.143-0.064,0.338-0.064,0.521v3.717h-1.612V84.72z"/>
	<path fill="#575C61" d="M92.196,88.764c-0.559,0.208-1.65,0.493-2.82,0.493c-1.482,0-2.601-0.377-3.433-1.17   c-0.78-0.74-1.235-1.897-1.222-3.223c0-2.77,1.976-4.551,4.875-4.551c1.079,0,1.924,0.221,2.327,0.416l-0.351,1.287   c-0.481-0.208-1.066-0.377-1.99-0.377c-1.871,0-3.185,1.105-3.185,3.146c0,1.988,1.222,3.172,3.042,3.172   c0.572,0,1.001-0.078,1.209-0.183v-2.185h-1.547v-1.26h3.094L92.196,88.764L92.196,88.764z"/>
	<path fill="#575C61" d="M93.808,84.876c0-0.858-0.013-1.469-0.052-2.041h1.392l0.051,1.209h0.053   c0.312-0.897,1.053-1.353,1.729-1.353c0.156,0,0.248,0.013,0.377,0.039v1.509c-0.129-0.027-0.272-0.053-0.468-0.053   c-0.767,0-1.287,0.494-1.43,1.209c-0.026,0.143-0.052,0.312-0.052,0.494v3.275h-1.6V84.876z"/>
	<path fill="#575C61" d="M99.45,86.449c0.039,1.145,0.936,1.639,1.949,1.639c0.742,0,1.275-0.104,1.756-0.287l0.234,1.105   c-0.547,0.221-1.301,0.391-2.211,0.391c-2.054,0-3.263-1.262-3.263-3.198c0-1.755,1.065-3.406,3.095-3.406   c2.053,0,2.729,1.69,2.729,3.081c0,0.299-0.026,0.533-0.052,0.676H99.45z M102.231,85.332c0.014-0.584-0.246-1.547-1.312-1.547   c-0.988,0-1.404,0.897-1.469,1.547H102.231z"/>
	<path fill="#575C61" d="M106.158,86.449c0.039,1.145,0.937,1.639,1.95,1.639c0.74,0,1.273-0.104,1.755-0.287l0.233,1.105   c-0.545,0.221-1.3,0.391-2.209,0.391c-2.055,0-3.264-1.262-3.264-3.198c0-1.755,1.066-3.406,3.094-3.406   c2.055,0,2.73,1.69,2.73,3.081c0,0.299-0.025,0.533-0.053,0.676H106.158z M108.94,85.332c0.013-0.584-0.247-1.547-1.313-1.547   c-0.987,0-1.403,0.897-1.469,1.547H108.94z"/>
	<path fill="#575C61" d="M111.734,84.72c0-0.729-0.013-1.34-0.052-1.885h1.404l0.078,0.949h0.039   c0.272-0.494,0.961-1.093,2.015-1.093c1.104,0,2.249,0.716,2.249,2.718v3.756h-1.6v-3.574c0-0.91-0.338-1.6-1.209-1.6   c-0.637,0-1.078,0.455-1.248,0.937c-0.052,0.143-0.064,0.338-0.064,0.521v3.717h-1.612V84.72z"/>
</g>
<g>
	<path fill="#575C61" d="M37.846,133.021c0.702-0.117,1.599-0.182,2.548-0.182c1.639,0,2.77,0.338,3.576,1.014   c0.844,0.689,1.364,1.729,1.364,3.225c0,1.56-0.532,2.729-1.364,3.483c-0.871,0.793-2.263,1.196-3.966,1.196   c-0.937,0-1.638-0.053-2.158-0.117V133.021z M39.444,140.444c0.222,0.039,0.56,0.039,0.885,0.039   c2.08,0.013,3.314-1.131,3.314-3.354c0.014-1.937-1.104-3.041-3.106-3.041c-0.507,0-0.871,0.039-1.093,0.09V140.444z"/>
	<path fill="#575C61" d="M47.791,138.949c0.039,1.145,0.937,1.639,1.95,1.639c0.74,0,1.273-0.104,1.755-0.287l0.233,1.105   c-0.545,0.221-1.3,0.391-2.209,0.391c-2.055,0-3.264-1.262-3.264-3.198c0-1.755,1.066-3.406,3.094-3.406   c2.055,0,2.73,1.69,2.73,3.081c0,0.299-0.025,0.533-0.053,0.676H47.791L47.791,138.949z M50.573,137.832   c0.013-0.584-0.247-1.547-1.312-1.547c-0.987,0-1.403,0.897-1.469,1.547H50.573z"/>
	<path fill="#575C61" d="M53.29,140.197c0.363,0.221,1.053,0.455,1.625,0.455c0.701,0,1.014-0.285,1.014-0.701   c0-0.43-0.26-0.65-1.04-0.924c-1.235-0.429-1.755-1.105-1.741-1.846c0-1.118,0.922-1.989,2.392-1.989   c0.702,0,1.313,0.183,1.677,0.377l-0.312,1.132c-0.272-0.156-0.779-0.365-1.338-0.365c-0.572,0-0.885,0.273-0.885,0.664   c0,0.402,0.299,0.598,1.105,0.883c1.144,0.416,1.677,1.002,1.689,1.938c0,1.145-0.896,1.977-2.574,1.977   c-0.767,0-1.455-0.182-1.924-0.442L53.29,140.197z"/>
	<path fill="#575C61" d="M63.442,141.472c-0.338,0.156-1,0.324-1.793,0.324c-1.977,0-3.264-1.26-3.264-3.223   c0-1.898,1.3-3.381,3.523-3.381c0.584,0,1.183,0.131,1.547,0.299l-0.286,1.196c-0.261-0.117-0.638-0.247-1.209-0.247   c-1.222,0-1.95,0.896-1.937,2.055c0,1.299,0.844,2.041,1.937,2.041c0.56,0,0.948-0.117,1.261-0.248L63.442,141.472z"/>
	<path fill="#575C61" d="M64.626,137.376c0-0.858-0.014-1.469-0.053-2.041h1.392l0.052,1.209h0.053   c0.312-0.897,1.053-1.353,1.729-1.353c0.156,0,0.247,0.013,0.377,0.039v1.509c-0.13-0.027-0.273-0.053-0.469-0.053   c-0.767,0-1.286,0.494-1.43,1.209c-0.025,0.143-0.052,0.312-0.052,0.494v3.275h-1.599V137.376L64.626,137.376z"/>
	<path fill="#575C61" d="M70.956,133.567c0,0.481-0.351,0.858-0.91,0.858c-0.532,0-0.883-0.377-0.883-0.858   c0-0.493,0.363-0.871,0.896-0.871C70.605,132.696,70.943,133.074,70.956,133.567z M69.253,141.667v-6.332h1.613v6.332H69.253z"/>
	<path fill="#575C61" d="M72.581,137.441c0-0.832-0.025-1.508-0.051-2.105h1.403l0.078,0.975h0.026   c0.468-0.715,1.209-1.118,2.171-1.118c1.456,0,2.665,1.248,2.665,3.224c0,2.289-1.443,3.394-2.887,3.394   c-0.793,0-1.455-0.338-1.781-0.845H74.18v3.275h-1.6L72.581,137.441L72.581,137.441z M74.181,139.014   c0,0.155,0.014,0.299,0.053,0.442c0.155,0.649,0.728,1.117,1.403,1.117c1.015,0,1.612-0.845,1.612-2.093   c0-1.118-0.547-2.028-1.573-2.028c-0.663,0-1.274,0.481-1.431,1.184c-0.039,0.13-0.064,0.273-0.064,0.402V139.014z"/>
	<path fill="#575C61" d="M82.02,133.528v1.808h1.521v1.195H82.02v2.795c0,0.768,0.208,1.17,0.819,1.17   c0.273,0,0.48-0.039,0.624-0.078l0.026,1.223c-0.234,0.091-0.65,0.156-1.158,0.156c-0.584,0-1.078-0.195-1.377-0.521   c-0.338-0.364-0.494-0.937-0.494-1.769v-2.977h-0.91v-1.195h0.91v-1.431L82.02,133.528z"/>
	<path fill="#575C61" d="M86.452,133.567c0,0.481-0.351,0.858-0.91,0.858c-0.532,0-0.883-0.377-0.883-0.858   c0-0.493,0.363-0.871,0.896-0.871C86.102,132.696,86.439,133.074,86.452,133.567z M84.749,141.667v-6.332h1.613v6.332H84.749z"/>
	<path fill="#575C61" d="M94.097,138.442c0,2.327-1.638,3.367-3.25,3.367c-1.794,0-3.172-1.235-3.172-3.263   c0-2.08,1.365-3.354,3.275-3.354C92.836,135.192,94.097,136.518,94.097,138.442z M89.325,138.507c0,1.222,0.599,2.145,1.574,2.145   c0.91,0,1.547-0.896,1.547-2.171c0-0.987-0.442-2.119-1.534-2.119C89.78,136.362,89.325,137.455,89.325,138.507z"/>
	<path fill="#575C61" d="M95.409,137.22c0-0.729-0.012-1.34-0.051-1.885h1.403l0.078,0.949h0.039   c0.272-0.494,0.962-1.093,2.015-1.093c1.105,0,2.25,0.716,2.25,2.718v3.756h-1.6v-3.574c0-0.91-0.338-1.6-1.209-1.6   c-0.637,0-1.079,0.455-1.248,0.937c-0.053,0.144-0.064,0.338-0.064,0.521v3.717h-1.613V137.22z"/>
	<path fill="#575C61" d="M191.675,139.184l-0.754,2.483h-1.651l2.809-8.762h2.041l2.848,8.762h-1.716l-0.793-2.483H191.675z    M194.184,137.974l-0.688-2.158c-0.17-0.533-0.312-1.131-0.441-1.639h-0.027c-0.129,0.508-0.26,1.119-0.416,1.639l-0.676,2.158   H194.184z"/>
	<path fill="#575C61" d="M198.059,137.22c0-0.729-0.014-1.34-0.053-1.885h1.378l0.063,0.936h0.039   c0.312-0.494,0.886-1.079,1.951-1.079c0.832,0,1.481,0.468,1.754,1.17h0.027c0.221-0.351,0.48-0.61,0.779-0.793   c0.352-0.247,0.754-0.377,1.273-0.377c1.054,0,2.119,0.716,2.119,2.743v3.73h-1.561v-3.496c0-1.053-0.364-1.678-1.131-1.678   c-0.547,0-0.949,0.391-1.118,0.846c-0.039,0.156-0.078,0.351-0.078,0.533v3.795h-1.562V138c0-0.883-0.351-1.508-1.092-1.508   c-0.598,0-1,0.469-1.144,0.91c-0.065,0.156-0.091,0.338-0.091,0.52v3.744h-1.561v-4.445H198.059z"/>
	<path fill="#575C61" d="M215.102,138.442c0,2.327-1.639,3.367-3.25,3.367c-1.795,0-3.172-1.235-3.172-3.263   c0-2.08,1.364-3.354,3.274-3.354C213.84,135.192,215.102,136.518,215.102,138.442z M210.329,138.507   c0,1.222,0.599,2.145,1.573,2.145c0.91,0,1.548-0.896,1.548-2.171c0-0.987-0.442-2.119-1.534-2.119   C210.784,136.362,210.329,137.455,210.329,138.507z"/>
	<path fill="#575C61" d="M222.082,139.769c0,0.754,0.025,1.378,0.052,1.898h-1.403l-0.078-0.963h-0.025   c-0.273,0.455-0.896,1.105-2.027,1.105c-1.158,0-2.211-0.689-2.211-2.756v-3.719h1.6v3.445c0,1.053,0.339,1.729,1.184,1.729   c0.637,0,1.053-0.454,1.223-0.857c0.053-0.143,0.092-0.312,0.092-0.494v-3.822h1.599v4.434H222.082z"/>
	<path fill="#575C61" d="M223.811,137.22c0-0.729-0.013-1.34-0.052-1.885h1.404l0.078,0.949h0.038   c0.273-0.494,0.962-1.093,2.016-1.093c1.104,0,2.249,0.716,2.249,2.718v3.756h-1.601v-3.574c0-0.91-0.338-1.6-1.209-1.6   c-0.637,0-1.078,0.455-1.248,0.937c-0.051,0.144-0.063,0.338-0.063,0.521v3.717h-1.612V137.22z"/>
	<path fill="#575C61" d="M233.016,133.528v1.808h1.521v1.195h-1.521v2.795c0,0.768,0.207,1.17,0.818,1.17   c0.271,0,0.48-0.039,0.624-0.078l0.024,1.223c-0.232,0.091-0.648,0.156-1.155,0.156c-0.587,0-1.079-0.195-1.38-0.521   c-0.338-0.364-0.493-0.937-0.493-1.769v-2.977h-0.909v-1.195h0.909v-1.431L233.016,133.528z"/>
</g>
<rect x="16.916" y="116.167" fill="#D1D1D0" width="242.667" height="2"/>
<path fill="#D16628" stroke="#80441D" stroke-width="2" stroke-miterlimit="10" d="M238.051,79.954  c0.752-1.326,0.316-3.057-1.01-3.808c-1.355-0.779-3.059-0.316-3.811,1.01c-0.691,1.182-0.402,2.714,0.606,3.55  c-2.31,1.961-9.379,7.965-9.437,7.965l-4.186-11.747c1.473-0.087,2.6-1.298,2.6-2.77c0-1.53-1.242-2.801-2.83-2.801h-0.145  c-1.557,0-2.826,1.271-2.826,2.8c0,1.472,1.125,2.684,2.596,2.77l-4.184,11.746c-0.029,0-7.1-6.002-9.465-7.965  c1.066-0.836,1.357-2.368,0.662-3.551c-0.779-1.326-2.48-1.788-3.838-1.009c-1.299,0.75-1.789,2.482-1.01,3.808  c0.75,1.27,2.338,1.761,3.692,1.097l2.599,14.977h23.721l2.598-14.977C235.715,81.714,237.301,81.223,238.051,79.954z"/>
</svg>