<?xml version="1.0" encoding="utf-8"?>
<!-- Generator: Adobe Illustrator 21.0.2, SVG Export Plug-In . SVG Version: 6.00 Build 0)  -->
<svg version="1.1" id="Layer_1" xmlns="http://www.w3.org/2000/svg" xmlns:xlink="http://www.w3.org/1999/xlink" x="0px" y="0px"
	 viewBox="0 0 861 902.8" style="enable-background:new 0 0 861 902.8;" xml:space="preserve">
<style type="text/css">
	.st0{fill:#FFFFFF;}
	.st1{fill:#BDBDBE;}
	.st2{fill:#DEDEDF;}
	.st3{fill:#FCFCFD;}
	.st4{fill:#FFE760;}
	.st5{fill:#FFCC27;}
	.st6{fill:#1B384C;}
	.st7{fill:#152B38;}
	.st8{fill:#EDA677;}
	.st9{fill-rule:evenodd;clip-rule:evenodd;fill:#1B384C;}
	.st10{fill-rule:evenodd;clip-rule:evenodd;fill:#FFFFFF;}
	.st11{fill-rule:evenodd;clip-rule:evenodd;fill:#E9E9F0;}
	.st12{fill:#0E2A30;}
	.st13{opacity:0.2;fill-rule:evenodd;clip-rule:evenodd;fill:#FFFFFF;}
	.st14{fill:#F76031;}
	.st15{fill:#FFFFFF;stroke:#DEDEDF;stroke-miterlimit:10;}
	.st16{fill:#FFD11D;}
	.st17{fill:#2FAA95;}
	.st18{fill:#2FA9BC;}
	.st19{fill:#161D21;}
</style>
<circle class="st0" cx="414.6" cy="309" r="309"/>
<g>
	<g>
		<path class="st1" d="M333.2,358.7"/>
		<rect x="268.1" y="169.4" class="st2" width="51.6" height="165.6"/>
		<path class="st1" d="M454.6,358.7"/>
		<rect x="389.2" y="169.4" class="st2" width="51.6" height="165.6"/>
		<path class="st1" d="M575.7,358.7"/>
		<rect x="510.6" y="169.4" class="st2" width="51.6" height="165.6"/>
		<path class="st1" d="M254.3,162.5v11.8c0,8,6.5,14.4,14.4,14.4h50.1c8,0,14.4-6.5,14.4-14.4v-11.8H254.3z M254.3,162.5"/>
		<path class="st1" d="M375.7,162.5v11.8c0,8,6.5,14.4,14.4,14.4h50.4c8,0,14.4-6.5,14.4-14.4v-11.8H375.7z M375.7,162.5"/>
		<path class="st1" d="M496.7,162.5v11.8c0,8,6.5,14.4,14.4,14.4h50.4c7.9,0,14.4-6.5,14.4-14.4v-11.8H496.7z M496.7,162.5"/>
		<polygon class="st2" points="631,143 414.5,31.7 198.1,143 197.5,143 197.5,143.3 197.5,143.4 197.5,143.4 197.5,165.1 
			631.7,165.1 631.7,143 		"/>
		<path class="st3" d="M277.2,136.9l137.3-70.5l137.3,70.5H277.2z M277.2,136.9"/>
		<rect x="225.7" y="345" class="st2" width="377.7" height="22"/>
		<rect x="206.3" y="366" class="st1" width="416.5" height="22"/>
		<rect x="254.3" y="333.9" class="st1" width="79" height="11.4"/>
		<rect x="375.4" y="333.9" class="st1" width="79.3" height="11.4"/>
		<rect x="496.7" y="333.9" class="st1" width="79" height="11.4"/>
	</g>
	<circle class="st2" cx="414.6" cy="105.6" r="20.3"/>
</g>
<g>
	<g>
		<g>
			<g>
				<g>
					<g>
						<path class="st0" d="M40.5,216.2c0,13,10.6,23.5,23.5,23.5c13,0,23.5-10.6,23.5-23.5c0-13-10.6-23.5-23.5-23.5
							C51,192.7,40.5,203.3,40.5,216.2z"/>
						<path class="st4" d="M64,242c-14.2,0-25.7-11.5-25.7-25.7c0-14.2,11.5-25.7,25.7-25.7c14.2,0,25.7,11.5,25.7,25.7
							C89.7,230.4,78.2,242,64,242z M64,193.3c-12.6,0-22.9,10.3-22.9,22.9c0,12.6,10.3,22.9,22.9,22.9c12.6,0,22.9-10.3,22.9-22.9
							C86.9,203.6,76.6,193.3,64,193.3z"/>
					</g>
					<circle class="st5" cx="64.2" cy="216" r="17"/>
				</g>
			</g>
		</g>
		<path class="st0" d="M71.4,210.9v-0.7c0-0.8-0.2-1.5-0.7-2.1c-0.5-0.6-1.1-0.9-1.8-0.9h-4v-2.8h-1.7v2.8h-4
			c-0.7,0-1.3,0.3-1.8,0.9c-0.5,0.6-0.7,1.3-0.7,2.1v4c0,0.8,0.2,1.5,0.7,2.1c0.5,0.6,1.1,0.9,1.8,0.9h9.7c0.4,0,0.7,0.4,0.7,1v4.1
			c0,0.6-0.3,1-0.7,1h-9.7c-0.4,0-0.8-0.4-0.8-1v-0.7h-1.7v0.7c0,0.8,0.2,1.5,0.7,2.1c0.5,0.6,1.1,0.9,1.8,0.9h4v2.8h1.7v-2.8h4
			c0.7,0,1.3-0.3,1.8-0.9c0.5-0.6,0.7-1.3,0.7-2.1v-4.1c0-0.8-0.2-1.5-0.7-2.1c-0.5-0.6-1.1-0.9-1.8-0.9h-9.7c-0.4,0-0.8-0.4-0.8-1
			v-4c0-0.5,0.3-1,0.8-1h9.7c0.4,0,0.7,0.4,0.7,1v0.7H71.4z"/>
	</g>
	<g>
		<g>
			<g>
				<g>
					<g>
						<path class="st0" d="M91,186.3c0,13,10.6,23.5,23.5,23.5c13,0,23.5-10.6,23.5-23.5c0-13-10.6-23.5-23.5-23.5
							C101.6,162.8,91,173.3,91,186.3z"/>
						<path class="st4" d="M114.5,212c-14.2,0-25.7-11.5-25.7-25.7c0-14.2,11.5-25.7,25.7-25.7c14.2,0,25.7,11.5,25.7,25.7
							C140.3,200.5,128.7,212,114.5,212z M114.5,163.4c-12.6,0-22.9,10.3-22.9,22.9c0,12.6,10.3,22.9,22.9,22.9
							c12.6,0,22.9-10.3,22.9-22.9C137.4,173.7,127.2,163.4,114.5,163.4z"/>
					</g>
					<circle class="st5" cx="114.7" cy="186.1" r="17"/>
				</g>
			</g>
		</g>
		<path class="st0" d="M121.9,181v-0.7c0-0.8-0.2-1.5-0.7-2.1c-0.5-0.6-1.1-0.9-1.8-0.9h-4v-2.8h-1.7v2.8h-4c-0.7,0-1.3,0.3-1.8,0.9
			c-0.5,0.6-0.7,1.3-0.7,2.1v4c0,0.8,0.2,1.5,0.7,2.1c0.5,0.6,1.1,0.9,1.8,0.9h9.7c0.4,0,0.7,0.4,0.7,1v4.1c0,0.5-0.3,1-0.7,1h-9.7
			c-0.4,0-0.8-0.4-0.8-1v-0.7h-1.7v0.7c0,0.8,0.2,1.5,0.7,2.1c0.5,0.6,1.1,0.9,1.8,0.9h4v2.8h1.7v-2.8h4c0.7,0,1.3-0.3,1.8-0.9
			c0.5-0.6,0.7-1.3,0.7-2.1v-4.1c0-0.8-0.2-1.5-0.7-2.1c-0.5-0.6-1.1-0.9-1.8-0.9h-9.7c-0.4,0-0.8-0.4-0.8-1v-4c0-0.5,0.3-1,0.8-1
			h9.7c0.4,0,0.7,0.4,0.7,1v0.7H121.9z"/>
	</g>
	<g>
		<g>
			<g>
				<g>
					<g>
						<path class="st0" d="M163,207.3c0,13,10.6,23.5,23.5,23.5s23.5-10.6,23.5-23.5c0-13-10.6-23.5-23.5-23.5S163,194.4,163,207.3z
							"/>
						<path class="st4" d="M186.6,233.1c-14.2,0-25.7-11.5-25.7-25.7c0-14.2,11.5-25.7,25.7-25.7c14.2,0,25.7,11.5,25.7,25.7
							C212.3,221.5,200.8,233.1,186.6,233.1z M186.6,184.4c-12.6,0-22.9,10.3-22.9,22.9c0,12.6,10.3,22.9,22.9,22.9
							c12.6,0,22.9-10.3,22.9-22.9C209.5,194.7,199.2,184.4,186.6,184.4z"/>
					</g>
					<circle class="st5" cx="186.7" cy="207.1" r="17"/>
				</g>
			</g>
		</g>
		<path class="st0" d="M193.9,202v-0.7c0-0.8-0.2-1.5-0.7-2.1c-0.5-0.6-1.1-0.9-1.8-0.9h-4v-2.8h-1.7v2.8h-4c-0.7,0-1.3,0.3-1.8,0.9
			c-0.5,0.6-0.7,1.3-0.7,2.1v4c0,0.8,0.2,1.5,0.7,2.1c0.5,0.6,1.1,0.9,1.8,0.9h9.7c0.4,0,0.7,0.4,0.7,1v4.1c0,0.6-0.3,1-0.7,1h-9.7
			c-0.4,0-0.7-0.4-0.7-1v-0.7h-1.7v0.7c0,0.8,0.2,1.5,0.7,2.1c0.5,0.6,1.1,0.9,1.8,0.9h4v2.8h1.7v-2.8h4c0.7,0,1.3-0.3,1.8-0.9
			c0.5-0.6,0.7-1.3,0.7-2.1v-4.1c0-0.8-0.2-1.5-0.7-2.1c-0.5-0.6-1.1-0.9-1.8-0.9h-9.7c-0.4,0-0.7-0.4-0.7-1v-4c0-0.5,0.3-1,0.7-1
			h9.7c0.4,0,0.7,0.4,0.7,1v0.7H193.9z"/>
	</g>
</g>
<g>
	<rect x="87.7" y="263" class="st0" width="5.7" height="15.4"/>
	<rect x="157.6" y="263" class="st0" width="5.7" height="15.4"/>
	<path class="st6" d="M249.6,449.4c0,6.9-5.6,12.4-12.4,12.4h-224c-6.9,0-12.4-5.6-12.4-12.4V286.1c0-6.9,5.6-12.4,12.4-12.4h224
		c6.9,0,12.4,5.6,12.4,12.4V449.4z"/>
	<path class="st7" d="M237.5,442.2c0,6-5,10.9-11.2,10.9H24.1c-6.2,0-11.2-4.9-11.2-10.9V299.5c0-6,5-10.9,11.2-10.9h202.2
		c6.2,0,11.2,4.9,11.2,10.9V442.2z"/>
	<g>
		<path class="st7" d="M249.6,366.1c0,3.6-5.6,6.6-12.4,6.6h-224c-6.9,0-12.4-2.9-12.4-6.6v-85.9c0-3.6,5.6-6.5,12.4-6.5h224
			c6.9,0,12.4,2.9,12.4,6.5V366.1z"/>
		<path class="st6" d="M237.2,373.4h-224c-7.4,0-13.2-3.2-13.2-7.3v-85.9c0-4.1,5.8-7.3,13.2-7.3h224c7.4,0,13.2,3.2,13.2,7.3v85.9
			C250.4,370.2,244.6,373.4,237.2,373.4z M13.2,274.4c-6.3,0-11.7,2.7-11.7,5.8v85.9c0,3.1,5.4,5.8,11.7,5.8h224
			c6.3,0,11.7-2.7,11.7-5.8v-85.9c0-3.1-5.4-5.8-11.7-5.8H13.2z"/>
	</g>
	<g>
		<path class="st6" d="M10.7,273.3c-0.5,0.7-0.8,1.4-0.8,2.2v81.4c0,3.4,5.2,6.2,11.5,6.2h207.5c6.4,0,11.5-2.8,11.5-6.2v-81.4
			c0-0.8-0.3-1.5-0.8-2.2H10.7z"/>
	</g>
	<g>
		<rect x="112.2" y="357.9" class="st0" width="25.9" height="25.9"/>
		<rect x="112.2" y="370.1" class="st7" width="25.9" height="1.6"/>
		<rect x="122.1" y="368.4" class="st7" width="6.2" height="5.9"/>
	</g>
	<g>
		<path class="st6" d="M94.2,266.3v-13.4c0-3.2,2.6-5.7,5.7-5.7h50.6c3.2,0,5.7,2.6,5.7,5.7v13.4h7.5v-13.4
			c0-7.3-5.9-13.2-13.2-13.2H99.9c-7.3,0-13.2,5.9-13.2,13.2v13.4H94.2z"/>
	</g>
	<rect x="53.4" y="271.8" class="st6" width="50" height="5.1"/>
	<rect x="147.2" y="271.8" class="st6" width="50" height="5.1"/>
</g>
<g>
	<path class="st8" d="M456.7,586.5c-8.3-14.2-31.5-17.2-19.3-26.2c-0.3,0.2,4.7-4.2,5.9-5.6c0.5-0.6,0.9-1,1.2-1.3
		c0.2-0.3,0.4-0.7,0.7-1.3c0.5-0.9,2.5-5.9,1.9-3.8c0.5-1.6,1-3.3,1.3-5c0.1-0.9,0.3-1.5,0.3-1.8c0.1-1,0.2-1.9,0.3-2.9
		c0.1-2.6,0.3-5.3,0.3-7.9c0.1-5.8,0-11.6,0-17.4c0-7.7,2.5-13.7,6.5-18.1c-7.2-4.6-14.9-5.2-17.7-1.3l-1,1.4l-4.4,6.2l-0.3,0.4
		l-3.3-2.3l4.3-6.1l4.4-6.2l3.5-5c2.9-4.2-0.7-11.8-8.1-17c-7.4-5.2-15.8-6.1-18.8-1.9l-3.5,5l-4.4,6.2l-4.3,6.1l-3.3-2.3l19.8-28
		l0,0c0.2-0.2,0.3-0.4,0.5-0.6l26-36.9c4.8-6.7,2.6-16.5-4.8-21.7c-7.4-5.2-17.3-4-22,2.7l-26,36.9c-0.2,0.2-0.3,0.5-0.4,0.7l0,0
		l-57.2,81.1l-15.1,29.6l-4.2-81.9c2.3-9.7,3.7-19-4.3-24.7c-8-5.6-19-3.7-24.6,4.3l-4.7,68.6c0,0-7.9,18.7-2.4,48l12.9,25.9
		c-63,130.2-41.8,97.4-50.4,109.4l119.6,34.7c3.1-12.4,41.2-94.3,41.2-94.3c4.4-1.4,16.8-5.2,23.1-8.5c3-1.6,7.9-4.7,13.9-12.1
		C450.5,596.9,459.4,591.1,456.7,586.5z"/>
	<path class="st8" d="M494.1,367.4c-7.4-5.2-17.3-4-22,2.7l-26,36.9c-0.2,0.2-0.3,0.5-0.4,0.7l0,0l-57.2,81.1l-0.2-0.2
		c0.1,0.3,0.1,0.6,0.2,1c1.9,12,2.8,25.9,7,37.5c0,0,0,0,0,0c0.1,0,0.1,0,0.2,0.1c0.1-0.5,0.8,0.1,1.1,0.6c0.1,0,0.2,0.1,0.2,0.1
		c0.2,0.1,0.4,0.1,0.7,0.2c1.6,0.5,3.2,1,4.8,1.4c0.1,0,0.2,0.1,0.3,0.1c0,0,0,0,0,0c1.8-2.4,3.5-4.8,5.2-7.3
		c10.7-15.2,20.5-30.9,29.8-46.9c4.6-7.9,11.7-12.1,19.1-13.2c-0.2-2.1-0.3-4.3,0-6.5L456,457l-3.3-2.3l8.1-11.5
		c0.8-1.4,1.8-2.8,2.8-4l8.8-12.5l0,0c0.2-0.2,0.3-0.4,0.5-0.6l26-36.9C503.7,382.4,501.5,372.7,494.1,367.4z"/>
	<path class="st9" d="M472.1,588c0,4.8-4,8.7-8.8,8.7H325.9c-4.9,0-8.8-3.9-8.8-8.7V312.2c0-4.8,4-8.7,8.8-8.7h137.4
		c4.9,0,8.8,3.9,8.8,8.7V588z"/>
	<polygon class="st10" points="457.9,335.9 454.2,335.9 447.1,335.9 439,335.9 432.3,335.9 431.8,335.9 422.8,335.9 400.1,335.9 
		392.2,335.9 384.2,335.9 376.6,335.9 365.3,335.9 358.2,335.9 336.1,335.9 335.2,335.9 328.2,335.9 324.2,335.9 324.2,367.2 
		324.1,367.2 324.1,375.6 324.2,375.6 324.2,398.8 324.2,398.8 324.1,427 324.1,427 324.1,433.9 324.1,433.9 324.1,503.7 
		324.1,503.7 324.1,510.1 324.1,510.1 324.1,542.3 324.1,542.3 324.1,550.8 324.1,550.8 324.1,571.8 324.6,571.8 331.9,571.8 
		348,571.8 357.2,571.8 357.2,571.8 358.2,571.8 364.2,571.8 365.3,571.8 372.3,571.8 373.3,571.8 379.4,571.8 400.9,571.8 
		401.2,571.8 408.9,571.8 427.9,571.8 435.8,571.8 437.5,571.8 446.8,571.8 465,571.8 465,552.5 465,539.6 465,536.5 465,532.6 
		465,525.1 465,521.8 465,513.2 465,433.9 465,427 465,408.6 465,398.8 465,357.2 465,349.5 465,335.9 	"/>
	<polygon class="st11" points="324.1,332.4 324.1,332.6 324.2,332.6 324.2,334 324.1,335.8 324.1,335.8 324.1,336.2 324.1,336.2 
		324.1,340.6 324.1,340.6 324.1,341 324.1,341 324.1,343 324.1,343 324.1,343.5 324.1,343.5 324.1,345 324.1,345.2 465,345.2 
		465,332.4 	"/>
	<g>
		<polygon class="st0" points="339,828.7 411.6,675.6 252.9,600.3 144.6,828.7 		"/>
		<path class="st12" d="M368.9,687.2c3.9,2.1,8.8,0.7,10.9-3.2c2.1-3.9,0.7-8.7-3.2-10.9c-3.9-2.1-8.8-0.7-10.9,3.2
			C363.6,680.3,365,685.1,368.9,687.2z"/>
		<polygon class="st6" points="311.1,902.8 401.3,714.8 226.1,631.7 95.8,902.8 		"/>
	</g>
	<circle class="st13" cx="394.5" cy="584.7" r="7.8"/>
	<rect x="329.4" y="336" class="st9" width="39.6" height="4.3"/>
	<rect x="380.5" y="336" class="st9" width="18.6" height="4.3"/>
	<path class="st8" d="M368.5,601.3c0.5-2.2,1-4.4,1.4-6.6c-0.4-1.2,0.8-24.6-26.5-43.7c-12.6-8.9-27.5-6.9-34.4-6.2v56.5H368.5z"/>
	<rect x="331" y="360.4" class="st2" width="58" height="11.4"/>
	<rect x="331" y="382.5" class="st2" width="127.1" height="11.4"/>
	<rect x="331" y="471.9" class="st2" width="127.1" height="11.4"/>
	<rect x="331" y="450.8" class="st2" width="127.1" height="11.4"/>
	<g>
		<g>
			<rect x="331" y="402.5" class="st2" width="61" height="38.8"/>
		</g>
		<g>
			<rect x="396.7" y="402.5" class="st2" width="61" height="38.8"/>
		</g>
	</g>
	<path class="st8" d="M485.8,453.4c3.5,7.5,1,16.2-5.7,19.3l-30.8,14.5c-6.7,3.2-15-0.4-18.5-7.9l0,0c-3.5-7.5-1-16.2,5.7-19.3
		l30.8-14.5C473.9,442.3,482.2,445.9,485.8,453.4L485.8,453.4z"/>
	<g>
		<path class="st14" d="M447.4,513.7c0,11.9-9.7,21.6-21.6,21.6h-62.3c-11.9,0-21.6-9.7-21.6-21.6l0,0c0-11.9,9.7-21.6,21.6-21.6
			h62.3C437.8,492.2,447.4,501.8,447.4,513.7L447.4,513.7z"/>
		<g>
			<path class="st0" d="M371.2,516.6v9h-5.8v-24.3h9.6c2.1,0,3.8,0.2,4.9,0.7c1.1,0.5,2.1,1.3,3,2.5c0.9,1.2,1.3,2.6,1.3,4.3
				c0,1.2-0.2,2.4-0.7,3.5c-0.5,1.1-1.1,2-2,2.7c-0.9,0.7-1.7,1.1-2.5,1.3c-0.8,0.2-2.1,0.3-3.8,0.3H371.2z M371,512.1h3.7
				c1.4,0,2.4-0.3,3-1c0.6-0.7,0.9-1.4,0.9-2.2c0-1-0.3-1.8-1-2.4c-0.6-0.6-1.6-0.9-2.9-0.9H371V512.1z"/>
			<path class="st0" d="M397.9,501.3l7.6,24.3h-6.1l-1.5-5h-7.9l-1.5,5h-5l7.8-24.3H397.9z M391.4,516.1h5.2l-2.6-8.5L391.4,516.1z"
				/>
			<path class="st0" d="M424,501.3l-7.6,14.1v10.2h-5.7v-10.2l-7.6-14.1h6.6l4.6,9.2l4.6-9.2H424z"/>
		</g>
	</g>
	<path class="st8" d="M489,521.3c1.8,6.6-2,13.4-8.4,15.1l-29.4,7.8c-6.4,1.7-13-2.3-14.8-8.9l0,0c-1.8-6.6,2-13.4,8.4-15.1
		l29.4-7.8C480.6,510.6,487.2,514.6,489,521.3L489,521.3z"/>
	<path class="st8" d="M488.3,492.2c1.7,6.9-2.1,13.8-8.6,15.4l-29.5,7.3c-6.4,1.6-13-2.7-14.7-9.6l0,0c-1.7-6.9,2.1-13.8,8.6-15.4
		l29.5-7.3C480,481,486.6,485.3,488.3,492.2L488.3,492.2z"/>
	<g>
		<g>
			<g>
				<path class="st8" d="M540.2,534.9c-7.7,4.8-11.8,12.1-9.2,16.4l1.4,2.2l-3.4,2.1l-0.2-0.4l-4-6.5l-0.9-1.5
					c-2.7-4.3-11.1-4-18.8,0.7c-7.7,4.8-11.8,12.1-9.2,16.5l0.9,1.5l4,6.5l0.2,0.4l-3.4,2.1l-3.9-6.4l-4-6.5l-3.2-5.2
					c-2.7-4.3-11.1-4-18.8,0.7c-7.7,4.7-11.8,12.1-9.2,16.5l3.2,5.2l4,6.5l3.9,6.4l-3.4,2.1L448.3,565l0,0c-0.1-0.2-0.2-0.5-0.4-0.7
					L426.6,530c-4.3-7-14.1-8.9-21.8-4.1c-7.7,4.8-10.5,14.3-6.2,21.3l21.2,34.4c0.1,0.2,0.3,0.4,0.5,0.7l0,0l52,84.5l-4.5,2.8
					l-13.7-22.2c-5.1-8.3-16-10.9-24.3-5.8c-8.3,5.1-10.9,16-5.8,24.3l31.5,44.5c0,0,9.1,9.1,15.5,9.3l48.6,13.7
					c5.5,9.1,12.7,21,20.3,33.7l97.6-53.6c-17.3-28.2-32.5-53.1-32.5-53.1c0.4-4.6,1.9-26.2,1.3-33.3c-0.7-8.7-15.4-39.3-31.5-66.1
					l-4.4-8.1l-4.5-7.3l-1.3-2.1l-3.1-5.1l-2.5-4.1C556.4,529.8,547.9,530.2,540.2,534.9z"/>
				<g>
					<polygon class="st0" points="744.3,828.7 648.3,672.5 498.8,764.4 538.4,828.7 					"/>
					<path class="st12" d="M634.8,714.6c3.9-2.1,5.4-7,3.2-10.8c-2.1-3.9-7-5.3-10.8-3.2c-3.9,2.1-5.4,6.9-3.3,10.8
						C626,715.3,630.9,716.7,634.8,714.6z"/>
					<polygon class="st6" points="801.6,902.8 675.5,702.5 510.5,803.9 573.6,902.8 					"/>
				</g>
			</g>
		</g>
	</g>
</g>
<g>
	<g>
		<path class="st2" d="M859.6,234.1c1.8-8.5,2.2-17.4-0.7-25.7c-3.3-9.6-13.7-9.8-13.7-9.8H700.8v35.5H859.6z"/>
		<path class="st15" d="M834.5,427.9c0,20.5-9.3,33.9-28.1,33.9c-47.4,0-134.8,0-134.8,0s0-180.1,0-242.4c0-13,4.5-20.9,18.3-20.9
			c30.1,0,125.7,0,156.1,0c-13,2.2-11.5,23-11.5,23S834.5,361.7,834.5,427.9z"/>
	</g>
	<g>
		<g>
			<g>
				<polygon class="st14" points="696.3,305.3 694.8,305.3 688.2,305.3 688.2,322.7 694.8,322.7 696.3,322.7 700.2,322.7 
					700.2,305.3 				"/>
				<polygon class="st14" points="709.3,271.6 707.8,271.6 703.9,271.6 703.9,333.7 707.8,333.7 709.3,333.7 715.9,333.7 
					715.9,271.6 				"/>
				<polygon class="st14" points="724.6,320.4 723.1,320.4 719.2,320.4 719.2,337 723.1,337 724.6,337 731.2,337 731.2,320.4 				
					"/>
				<polygon class="st14" points="740.4,291.2 738.8,291.2 735,291.2 735,325.1 738.8,325.1 740.4,325.1 747,325.1 747,291.2 				
					"/>
				<polygon class="st16" points="755.2,302.6 753.7,302.6 749.9,302.6 749.9,333.7 753.7,333.7 755.2,333.7 761.8,333.7 
					761.8,302.6 				"/>
				<polygon class="st16" points="770.6,283.9 769,283.9 765.2,283.9 765.2,324.8 769,324.8 770.6,324.8 777.2,324.8 777.2,283.9 
									"/>
				<polygon class="st16" points="786.4,271.6 784.9,271.6 781,271.6 781,320.7 784.9,320.7 786.4,320.7 793,320.7 793,271.6 				
					"/>
				<polygon class="st16" points="801.9,277.6 800.4,277.6 796.5,277.6 796.5,333.7 800.4,333.7 801.9,333.7 808.5,333.7 
					808.5,277.6 				"/>
			</g>
		</g>
		<g>
			<g>
				<rect x="796.5" y="337.6" class="st14" width="12" height="12.4"/>
				<rect x="780.8" y="324.5" class="st14" width="12" height="25.4"/>
				<rect x="765.5" y="328.7" class="st14" width="12" height="21.3"/>
				<rect x="749.7" y="337.6" class="st14" width="12" height="12.4"/>
				<rect x="734.9" y="329" class="st16" width="12" height="21"/>
				<rect x="719.5" y="340.8" class="st16" width="12" height="9.1"/>
				<rect x="703.7" y="337.6" class="st16" width="12" height="12.4"/>
				<rect x="688.2" y="326.6" class="st16" width="12" height="23.4"/>
			</g>
		</g>
	</g>
	<g>
		<path class="st2" d="M797.2,452c-2.8-8.4-2.4-17.2-0.6-25.7H652.1c-1.8,8.5-2.2,17.4,0.6,25.7c3.2,9.6,13.7,9.8,13.7,9.8h144.4v0
			C810.3,461.8,800.4,461.4,797.2,452z"/>
	</g>
</g>
<g>
	<g>
		<g>
			<rect x="552.2" y="318.9" class="st17" width="106.4" height="57.6"/>
			<g>
				<path class="st0" d="M555.3,321.7h100.1v51.9H555.3V321.7z"/>
			</g>
			<g>
				<path class="st17" d="M558.1,357.5c7.6,0,13.9,6.3,13.9,13.9h67.2c0.2-7.3,6.2-13.4,13.5-13.6v-19.8
					c-7.5-0.1-13.8-6.4-13.8-13.9c0,0,0-0.1,0-0.1H572c0,0.1,0,0.2,0,0.3c0,7.6-6.3,13.9-13.9,13.9c0,0-0.1,0-0.1,0v19.3
					C558,357.5,558.1,357.5,558.1,357.5z"/>
			</g>
			<g>
				<g>
					<path class="st0" d="M622.3,347.7c0-9.3-7.6-16.9-16.9-16.9c-9.3,0-16.9,7.6-16.9,16.9c0,9.3,7.6,16.9,16.9,16.9
						C614.7,364.6,622.3,357,622.3,347.7z"/>
					<circle class="st18" cx="605.3" cy="347.8" r="15.3"/>
				</g>
			</g>
		</g>
		<rect x="627" y="346.6" class="st0" width="7.8" height="2.2"/>
		<rect x="637.6" y="346.6" class="st0" width="7.8" height="2.2"/>
		<rect x="566.5" y="346.6" class="st0" width="7.8" height="2.2"/>
		<rect x="577" y="346.6" class="st0" width="7.8" height="2.2"/>
	</g>
	<g>
		<g>
			<rect x="544.9" y="310.3" class="st17" width="106.4" height="57.6"/>
			<g>
				<path class="st0" d="M548,313.1h100.1v51.9H548V313.1z"/>
			</g>
			<g>
				<path class="st17" d="M550.8,348.9c7.6,0,13.9,6.3,13.9,13.9h67.2c0.2-7.3,6.2-13.4,13.5-13.6v-19.8
					c-7.5-0.1-13.8-6.4-13.8-13.9c0,0,0-0.1,0-0.1h-66.9c0,0.1,0,0.2,0,0.3c0,7.6-6.3,13.9-13.9,13.9c0,0-0.1,0-0.1,0v19.3
					C550.8,348.9,550.8,348.9,550.8,348.9z"/>
			</g>
			<g>
				<g>
					<path class="st0" d="M615,339.1c0-9.3-7.6-16.9-16.9-16.9c-9.3,0-16.9,7.6-16.9,16.9c0,9.3,7.6,16.9,16.9,16.9
						C607.4,356,615,348.4,615,339.1z"/>
					<path class="st0" d="M582.7,339.2c0-8.4,6.9-15.3,15.3-15.3c8.5,0,15.3,6.9,15.3,15.3c0,8.5-6.9,15.3-15.3,15.3
						C589.5,354.5,582.7,347.7,582.7,339.2z"/>
				</g>
			</g>
		</g>
		<rect x="619.8" y="338" class="st0" width="7.8" height="2.2"/>
		<rect x="630.3" y="338" class="st0" width="7.8" height="2.2"/>
		<rect x="559.2" y="338" class="st0" width="7.8" height="2.2"/>
		<rect x="569.8" y="338" class="st0" width="7.8" height="2.2"/>
	</g>
</g>
<g>
	<path class="st14" d="M554.5,415.6c0,0.3-0.2,0.6-0.5,0.6h-8.5c-0.3,0-0.5-0.3-0.5-0.6v-16.7c0-0.3,0.2-0.6,0.5-0.6h8.5
		c0.3,0,0.5,0.3,0.5,0.6V415.6z"/>
	<path class="st0" d="M557,398.3h-3.1v17.9h3.1c0.3,0,0.5-0.3,0.5-0.6v-16.7C557.6,398.6,557.3,398.3,557,398.3z"/>
	<polygon class="st16" points="691.3,398.3 684.5,398.3 595.3,398.3 580.6,398.3 557.3,398.3 557.3,416.2 580.6,416.2 595.3,416.2 
		684.5,416.2 691.3,416.2 720.9,416.2 720.9,398.3 	"/>
	<polygon class="st6" points="691.3,404.8 684.5,404.8 595.3,404.8 580.6,404.8 557.3,404.8 557.3,409.7 580.6,409.7 595.3,409.7 
		684.5,409.7 691.3,409.7 720.9,409.7 720.9,404.8 	"/>
	<polygon class="st0" points="720.8,416.2 716.2,407.3 720.8,398.2 741.7,407.3 	"/>
	<polygon class="st19" points="733,403.5 733,411 741.7,407.3 	"/>
</g>
</svg>
