<?xml version="1.0" encoding="utf-8"?>
<!-- Generator: Adobe Illustrator 21.1.0, SVG Export Plug-In . SVG Version: 6.00 Build 0)  -->
<svg version="1.1" id="Layer_1" xmlns="http://www.w3.org/2000/svg" xmlns:xlink="http://www.w3.org/1999/xlink" x="0px" y="0px"
	 viewBox="0 0 72.3 72.3" style="enable-background:new 0 0 72.3 72.3;" xml:space="preserve">
<style type="text/css">
	.st0{fill:url(#SVGID_1_);}
</style>
<linearGradient id="SVGID_1_" gradientUnits="userSpaceOnUse" x1="2" y1="36.4998" x2="71" y2="36.4998">
	<stop  offset="0" style="stop-color:#E5282C"/>
	<stop  offset="1" style="stop-color:#822062"/>
</linearGradient>
<path class="st0" d="M58.7,26.9H14.2V10c0-3.5,2.8-6.3,6.3-6.3h31.8c3.5,0,6.3,2.8,6.3,6.3V26.9z M16.2,24.9h40.5V10
	c0-2.4-1.9-4.3-4.3-4.3H20.5c-2.4,0-4.3,1.9-4.3,4.3V24.9z M52.4,69.3H20.5c-3.5,0-6.3-2.8-6.3-6.3V38.2h44.5V63
	C58.7,66.5,55.8,69.3,52.4,69.3z M16.2,40.2V63c0,2.4,1.9,4.3,4.3,4.3h31.8c2.4,0,4.3-1.9,4.3-4.3V40.2H16.2z M49.8,48.8H23.2v2
	h26.5V48.8z M41.8,56.7H23.2v2h18.6V56.7z M63,23.2H10c-4.4,0-8,3.6-8,8v15.9c0,4.4,3.6,8,8,8h2.6V41.8h47.8v13.3H63
	c4.4,0,8-3.6,8-8V31.2C71,26.8,67.4,23.2,63,23.2z M59.1,36.5c-2.2,0-4-1.8-4-4s1.8-4,4-4c2.2,0,4,1.8,4,4S61.3,36.5,59.1,36.5z"/>
</svg>
