<!-- Generated by IcoMoon.io -->
<svg version="1.1" xmlns="http://www.w3.org/2000/svg" width="32" height="32" viewBox="0 0 32 32">
<title>untitled339</title>
<path d="M32 14.286v3.429q0 0.25-0.161 0.411t-0.411 0.161h-22.286v4q0 0.375-0.339 0.518t-0.625-0.089l-6.857-6.25q-0.179-0.179-0.179-0.411 0-0.25 0.179-0.429l6.857-6.321q0.286-0.25 0.625-0.107 0.339 0.161 0.339 0.518v4h22.286q0.25 0 0.411 0.161t0.161 0.411z"></path>
</svg>
