<!-- Generated by IcoMoon.io -->
<svg version="1.1" xmlns="http://www.w3.org/2000/svg" width="23" height="32" viewBox="0 0 23 32">
<title>untitled509</title>
<path d="M18.286 17.143q0-3.304-2.348-5.652t-5.652-2.348-5.652 2.348-2.348 5.652 2.348 5.652 5.652 2.348 5.652-2.348 2.348-5.652zM20.571 17.143q0 2.089-0.813 3.991t-2.196 3.286-3.286 2.196-3.991 0.813-3.991-0.813-3.286-2.196-2.196-3.286-0.813-3.991 0.813-3.991 2.196-3.286 3.286-2.196 3.991-0.813 3.991 0.813 3.286 2.196 2.196 3.286 0.813 3.991z"></path>
</svg>
