<?xml version="1.0" encoding="utf-8"?>
<!-- Generator: Adobe Illustrator 19.0.0, SVG Export Plug-In . SVG Version: 6.00 Build 0)  -->
<svg version="1.1" id="Capa_1" xmlns="http://www.w3.org/2000/svg" xmlns:xlink="http://www.w3.org/1999/xlink" x="0px" y="0px"
	 viewBox="0 0 137.9 141" style="enable-background:new 0 0 137.9 141;" xml:space="preserve">
<style type="text/css">
	.st0{fill:none;stroke:#2B3746;stroke-width:5;stroke-miterlimit:10;}
	.st1{fill:#2B3746;}
	.st2{clip-path:url(#SVGID_2_);}
	.st3{fill:#ECC510;}
	.st4{fill:#E5BC12;}
	.st5{fill:#E9C00E;}
</style>
<path class="st0" d="M94.7,123.7l-67.9,11.6c-4.2,0.7-8.3-2.2-9-6.4L8.5,74.8c-0.7-4.2,2.2-8.3,6.4-9l67.9-11.6
	c4.2-0.7,8.3,2.2,9,6.4l9.2,54.1C101.8,118.9,98.9,123,94.7,123.7z"/>
<rect x="11.1" y="72.8" transform="matrix(0.9874 -0.158 0.158 0.9874 -11.2894 9.2987)" class="st1" width="83.5" height="5.7"/>
<path class="st1" d="M86.8,65C88.2,49.6,76.3,36.2,60.7,36C47.5,35.8,35.9,45.6,34,58.7c-0.7,4.8-0.1,9.4,1.5,13.5L86.8,65z"/>
<path class="st1" d="M92.1,64.1c-2.8,0.8-68.7,11-74.3,11.9c-3.4,0.6-5.4-0.3-5.6-1.6c-0.2-1.3,0.1-3,3-4.4
	c4.1-1.9,9.5-3.8,16.4-6.9c5.5-2.5,57.5-6.1,57.5-6.1L92.1,64.1z"/>
<g>
	<defs>
		
			<rect id="SVGID_1_" x="37.1" y="43.7" transform="matrix(0.9872 -0.1596 0.1596 0.9872 -8.1958 10.5651)" width="49.1" height="25.2"/>
	</defs>
	<clipPath id="SVGID_2_">
		<use xlink:href="#SVGID_1_"  style="overflow:visible;"/>
	</clipPath>
	<g class="st2">
		<path class="st3" d="M68.6,58.4c0.5,0,1,0,1.4,0c1.7,0.3,3,1.1,3.9,2.5c1.3,1.8,1.7,3.8,1.2,5.9c-0.5,1.9-1.6,3.3-3.3,4.3
			c-1,0.6-2,1-3.1,1.4c-0.2,0.1-0.3,0.2-0.2,0.4c0.2,0.5,0.4,1,0.6,1.5c0.2,0.5,0,0.9-0.4,1.1c-0.6,0.2-1.2,0.5-1.8,0.7
			c-0.5,0.2-0.9,0-1.1-0.5c-0.2-0.5-0.4-1-0.6-1.6c-0.1-0.2-0.1-0.2-0.3-0.1c-0.6,0.2-1.1,0.5-1.7,0.7C63,74.9,63,75,63,75.2
			c0.2,0.5,0.4,1,0.6,1.5c0.2,0.5,0,0.9-0.4,1.1c-0.6,0.2-1.2,0.5-1.8,0.7c-0.5,0.2-0.9,0-1.1-0.5c-0.2-0.5-0.4-1-0.6-1.5
			c-0.1-0.2-0.2-0.2-0.4-0.2c-0.5,0.2-1,0.4-1.5,0.6c-0.4,0.2-0.7,0-0.9-0.3c-0.2-0.5-0.4-1-0.6-1.5c-0.2-0.4,0-0.7,0.4-0.8
			c0.5-0.2,1-0.4,1.5-0.6c0.3-0.1,0.3-0.2,0.2-0.5c-0.9-2.2-1.8-4.4-2.7-6.6c-1.4-3.5-2.9-7-4.3-10.5c-0.1-0.3-0.2-0.3-0.5-0.2
			c-0.5,0.2-1,0.4-1.5,0.6c-0.4,0.1-0.6,0.1-0.7-0.3c-0.2-0.5-0.4-1.1-0.7-1.6c-0.2-0.4-0.1-0.6,0.3-0.8c0.5-0.2,1.1-0.5,1.6-0.7
			c0.2-0.1,0.2-0.2,0.1-0.3c-0.2-0.5-0.4-1-0.6-1.6c-0.2-0.5,0-0.9,0.5-1.1c0.6-0.2,1.2-0.5,1.8-0.7c0.5-0.2,0.9,0,1.1,0.4
			c0.2,0.5,0.4,1,0.6,1.6c0.1,0.2,0.1,0.2,0.3,0.2c0.6-0.2,1.2-0.5,1.7-0.7c0.2-0.1,0.2-0.1,0.1-0.3c-0.2-0.5-0.4-1.1-0.7-1.6
			c-0.2-0.5,0-0.9,0.5-1.1c0.6-0.2,1.2-0.5,1.8-0.7c0.5-0.2,0.9,0,1.1,0.4c0.2,0.5,0.4,1,0.6,1.6c0.1,0.2,0.2,0.2,0.4,0.1
			c0.9-0.4,1.8-0.7,2.7-1c2.9-0.8,5.5,0.1,7,2.6c1.3,2.1,1.5,4.4,0.1,6.6C68.9,57.9,68.8,58.2,68.6,58.4z M60.2,68.3
			c0.5,1.2,1,2.5,1.5,3.7c0.1,0.2,0.2,0.3,0.4,0.2c1.8-0.8,3.6-1.5,5.4-2.2c0.7-0.3,1.4-0.6,2.1-0.9c1.2-0.7,1.9-1.6,2-3
			c0.1-1.3-0.2-2.4-0.9-3.4c-0.7-1-1.6-1.6-2.8-1.7c-0.8-0.1-1.5,0.1-2.2,0.4c-2.3,0.9-4.6,1.9-6.9,2.8c-0.2,0.1-0.2,0.2-0.2,0.4
			C59.2,65.8,59.7,67,60.2,68.3z M61.1,60.1C61.1,60.1,61.1,60.1,61.1,60.1c1.1-0.5,2.2-0.9,3.3-1.4c1.5-0.6,2.3-2,2.1-3.6
			c-0.1-1-0.5-1.9-1.2-2.6c-0.7-0.8-1.5-1.1-2.6-1c-0.5,0.1-1,0.2-1.5,0.4c-2.1,0.9-4.3,1.7-6.4,2.6c-0.2,0.1-0.2,0.2-0.1,0.3
			c0.9,2.2,1.8,4.4,2.7,6.6c0.1,0.2,0.1,0.2,0.3,0.2C58.8,61,60,60.5,61.1,60.1z"/>
	</g>
</g>
<circle class="st1" cx="89.5" cy="20.4" r="14.7"/>
<g>
	<path class="st4" d="M93.3,18.1c0.3,0,0.5,0,0.8,0c0.9,0.2,1.6,0.7,2,1.4c0.6,1,0.8,2.1,0.5,3.2c-0.3,1-0.9,1.8-1.9,2.2
		c-0.5,0.3-1.1,0.5-1.7,0.7c-0.1,0-0.2,0.1-0.1,0.2c0.1,0.3,0.2,0.5,0.3,0.8c0.1,0.3,0,0.5-0.3,0.6c-0.3,0.1-0.6,0.2-1,0.4
		c-0.3,0.1-0.5,0-0.6-0.3c-0.1-0.3-0.2-0.6-0.3-0.9c0-0.1-0.1-0.1-0.2-0.1c-0.3,0.1-0.6,0.2-0.9,0.3c-0.1,0-0.1,0.1-0.1,0.2
		c0.1,0.3,0.2,0.6,0.3,0.8c0.1,0.3,0,0.5-0.3,0.6c-0.3,0.1-0.6,0.2-1,0.3c-0.3,0.1-0.5,0-0.6-0.3c-0.1-0.3-0.2-0.5-0.3-0.8
		c0-0.1-0.1-0.1-0.2-0.1c-0.3,0.1-0.6,0.2-0.8,0.3c-0.2,0.1-0.4,0-0.4-0.2c-0.1-0.3-0.2-0.5-0.3-0.8c-0.1-0.2,0-0.4,0.2-0.4
		c0.3-0.1,0.5-0.2,0.8-0.3c0.1,0,0.2-0.1,0.1-0.2c-0.4-1.2-0.9-2.4-1.3-3.6c-0.7-1.9-1.4-3.8-2.1-5.7c-0.1-0.2-0.1-0.2-0.2-0.1
		c-0.3,0.1-0.6,0.2-0.8,0.3c-0.2,0.1-0.3,0-0.4-0.2c-0.1-0.3-0.2-0.6-0.3-0.9c-0.1-0.2,0-0.3,0.2-0.4c0.3-0.1,0.6-0.2,0.9-0.3
		c0.1,0,0.1-0.1,0.1-0.2c-0.1-0.3-0.2-0.6-0.3-0.9c-0.1-0.3,0-0.5,0.3-0.6c0.3-0.1,0.6-0.2,1-0.4c0.3-0.1,0.5,0,0.6,0.3
		c0.1,0.3,0.2,0.6,0.3,0.9c0,0.1,0.1,0.1,0.2,0.1c0.3-0.1,0.6-0.2,0.9-0.3c0.1,0,0.1-0.1,0.1-0.2c-0.1-0.3-0.2-0.6-0.3-0.9
		c-0.1-0.3,0-0.5,0.3-0.6c0.3-0.1,0.6-0.2,1-0.4c0.3-0.1,0.5,0,0.6,0.3c0.1,0.3,0.2,0.6,0.3,0.9c0,0.1,0.1,0.1,0.2,0.1
		c0.5-0.2,1-0.4,1.5-0.5c1.6-0.3,2.9,0.2,3.7,1.6c0.6,1.2,0.7,2.4-0.1,3.5C93.5,17.9,93.4,18,93.3,18.1z M88.6,23.2
		c0.2,0.7,0.5,1.3,0.7,2c0,0.1,0.1,0.2,0.2,0.1c1-0.4,2-0.7,3-1.1c0.4-0.1,0.8-0.3,1.2-0.4c0.6-0.3,1-0.8,1.1-1.5
		c0.1-0.7-0.1-1.3-0.4-1.8c-0.3-0.5-0.8-0.9-1.5-1c-0.4-0.1-0.8,0-1.2,0.1c-1.3,0.4-2.5,0.9-3.8,1.4c-0.1,0-0.1,0.1-0.1,0.2
		C88.1,21.9,88.3,22.5,88.6,23.2z M89.3,18.9C89.3,18.9,89.3,18.9,89.3,18.9c0.6-0.2,1.2-0.4,1.8-0.7c0.8-0.3,1.3-1,1.2-1.9
		c0-0.5-0.2-1-0.6-1.4c-0.4-0.4-0.8-0.6-1.4-0.6c-0.3,0-0.6,0.1-0.8,0.2c-1.2,0.4-2.3,0.8-3.5,1.3c-0.1,0-0.1,0.1-0.1,0.2
		c0.4,1.2,0.9,2.4,1.3,3.6c0,0.1,0.1,0.1,0.2,0.1C88,19.3,88.6,19.1,89.3,18.9z"/>
</g>
<circle class="st1" cx="119.8" cy="25.4" r="9.2"/>
<g>
	<path class="st5" d="M122.5,25.1c0.2,0.1,0.3,0.1,0.4,0.2c0.5,0.3,0.7,0.8,0.8,1.3c0.1,0.7-0.1,1.4-0.6,1.9c-0.4,0.5-1,0.7-1.7,0.8
		c-0.4,0-0.8,0-1.1-0.1c-0.1,0-0.1,0-0.1,0.1c0,0.2,0,0.4,0,0.5c0,0.2-0.1,0.3-0.3,0.3c-0.2,0-0.4,0-0.6-0.1c-0.2,0-0.3-0.1-0.2-0.3
		c0-0.2,0-0.4,0.1-0.6c0-0.1,0-0.1-0.1-0.1c-0.2,0-0.4,0-0.6-0.1c-0.1,0-0.1,0-0.1,0.1c0,0.2,0,0.4-0.1,0.6c0,0.2-0.1,0.3-0.3,0.3
		c-0.2,0-0.4,0-0.6-0.1c-0.2,0-0.3-0.1-0.2-0.3c0-0.2,0-0.4,0.1-0.5c0-0.1,0-0.1-0.1-0.1c-0.2,0-0.4,0-0.5,0c-0.1,0-0.2-0.1-0.2-0.2
		c0-0.2,0-0.4,0-0.5c0-0.1,0.1-0.2,0.2-0.2c0.2,0,0.4,0,0.5,0.1c0.1,0,0.1,0,0.1-0.1c0.1-0.8,0.1-1.6,0.2-2.4
		c0.1-1.3,0.2-2.5,0.4-3.8c0-0.1,0-0.1-0.1-0.1c-0.2,0-0.4,0-0.6,0c-0.1,0-0.2-0.1-0.2-0.2c0-0.2,0-0.4,0.1-0.6
		c0-0.1,0.1-0.2,0.2-0.2c0.2,0,0.4,0,0.6,0.1c0.1,0,0.1,0,0.1-0.1c0-0.2,0-0.4,0.1-0.6c0-0.2,0.1-0.3,0.3-0.2c0.2,0,0.4,0,0.6,0.1
		c0.2,0,0.3,0.1,0.2,0.3c0,0.2,0,0.4-0.1,0.6c0,0.1,0,0.1,0.1,0.1c0.2,0,0.4,0,0.6,0.1c0.1,0,0.1,0,0.1-0.1c0-0.2,0-0.4,0.1-0.6
		c0-0.2,0.1-0.3,0.3-0.2c0.2,0,0.4,0,0.6,0.1c0.2,0,0.3,0.1,0.2,0.3c0,0.2,0,0.4-0.1,0.6c0,0.1,0,0.1,0.1,0.1c0.3,0,0.6,0.1,1,0.1
		c1,0.2,1.6,0.9,1.7,1.9c0.1,0.8-0.2,1.5-1,2C122.7,25,122.6,25.1,122.5,25.1z M118.5,26.7c0,0.4-0.1,0.9-0.1,1.3
		c0,0.1,0,0.1,0.1,0.1c0.7,0.1,1.3,0.1,2,0.2c0.3,0,0.5,0.1,0.8,0.1c0.4,0,0.8-0.2,1.1-0.6c0.2-0.4,0.3-0.7,0.2-1.2
		c-0.1-0.4-0.2-0.7-0.6-0.9c-0.2-0.1-0.5-0.2-0.7-0.2c-0.8-0.1-1.7-0.2-2.5-0.2c-0.1,0-0.1,0-0.1,0.1
		C118.6,25.8,118.6,26.3,118.5,26.7z M120.1,24.5C120.1,24.5,120.1,24.5,120.1,24.5c0.4,0,0.8,0.1,1.2,0.1c0.5,0,1-0.2,1.2-0.8
		c0.1-0.3,0.1-0.6,0-1c-0.1-0.3-0.3-0.6-0.6-0.7c-0.2-0.1-0.3-0.1-0.5-0.1c-0.8-0.1-1.5-0.1-2.3-0.2c-0.1,0-0.1,0-0.1,0.1
		c-0.1,0.8-0.1,1.6-0.2,2.4c0,0.1,0,0.1,0.1,0.1C119.2,24.4,119.7,24.4,120.1,24.5z"/>
</g>
</svg>
