<?xml version="1.0" encoding="UTF-8"?>
<!-- Generator: Adobe Illustrator 21.1.0, SVG Export Plug-In . SVG Version: 6.00 Build 0)  -->
<svg version="1.1" id="Ebene_1" xmlns="http://www.w3.org/2000/svg" xmlns:xlink="http://www.w3.org/1999/xlink" x="0px" y="0px" viewBox="0 0 100 100" style="enable-background:new 0 0 100 100;" xml:space="preserve">
<style type="text/css">
	.st0{fill:none;stroke:#DBDBDB;stroke-width:2;stroke-linecap:round;stroke-miterlimit:10;}
	.st1{fill:#BDBCBD;}
</style>
<g id="Ebene_2">
</g>
<g id="Ebene_1_1_">
	<g>
		<path class="st0" d="M46.5,60.8c1.3,2.9,1.5,8.4,1.5,14.9c0,6.2-1.7,13.6-1.7,13.6"/>
		<path class="st0" d="M53.6,60c-1.3,2.9-1.7,9.2-1.6,15.7c0.1,6.2,1.7,13.6,1.7,13.6"/>
		<path class="st0" d="M78,10.6c0,10.1,6.9,15.2,10.8,29C93,54.3,85.1,84.9,83,89.4"/>
		<path class="st0" d="M22,10.6c0,10.1-6.9,15.2-10.8,29C7,54.3,14.9,84.9,17,89.4"/>
		<g>
			<path class="st0" d="M50,41.3c0,9.1,1.1,17.4-7,20.9C34.3,66,27.2,64,27.2,64"/>
			<path class="st0" d="M50,41.3c0,9.1-1.1,17.4,7,20.9C65.7,66,72.8,64,72.8,64"/>
		</g>
	</g>
	<g id="Layout">
	</g>
	<path class="st1" d="M16.1,25.4l67.8-0.1c0,0,2.2,4,5.2,11.8C72,33.5,51.7,59.4,51.7,59.4s-2.4-3.4-2.1-7c1.7,3.6-1.5,7.1-1.5,7.1   S31.7,34.6,11,37.2C14.3,27.6,16.1,25.4,16.1,25.4z"/>
	<path class="st1" d="M48.1,59.5c0,0,2.5,0.4,3.6-0.1c0.4-0.2-1.8-3.8-1.8-3.8L48.1,59.5z"/>
</g>
</svg>