<?xml version="1.0" encoding="UTF-8"?>
<!-- Generator: Adobe Illustrator 21.1.0, SVG Export Plug-In . SVG Version: 6.00 Build 0)  -->
<svg version="1.1" id="Ebene_1" xmlns="http://www.w3.org/2000/svg" xmlns:xlink="http://www.w3.org/1999/xlink" x="0px" y="0px" viewBox="0 0 100 100" style="enable-background:new 0 0 100 100;" xml:space="preserve">
<style type="text/css">
	.st0{display:none;}
	.st1{display:inline;fill:#191919;stroke:#000000;stroke-miterlimit:10;}
	.st2{fill:#BDBCBD;}
	.st3{fill:#DBDBDB;}
</style>
<g class="st0">
	<rect x="-1709" y="-1067" class="st1" width="2344" height="1926"/>
</g>
<g>
	<path class="st2" d="M63.4,7.4l-5.7,12c0,0-1.2,1.8-0.2,3.3s1,2.1,1,2.1s0.2,0.4-0.7,2.4c-0.9,2.1-2.3,5.2-2.3,5.2   s-0.4,0.7,0.2,0.9c0,0.1-5.5,11.7-5.5,11.7L40.1,65.7c0,0,0.5,0.5,1.2,0.6c0.3,0,0.3,0,0.3,0l15.7-32.5c0,0,0.6,0.3,1-0.3   c0.4-0.7,3.2-6.6,3.2-6.6s0.4-0.8,1.9-1c1.5-0.1,2.3-0.4,2.8-1.4s6.2-12.9,6.2-12.9L63.4,7.4z"/>
	<path class="st3" d="M40.2,65.6c0,0-0.5-0.3-0.8,0.4c-0.3,0.7-4.4,9-4.4,9l-4.3,8.7L29,87c0,0-0.4,0.7-0.1,0.9   c0.4,0.3,0.7,0.7,1.7,0.6c0.1,0,0.4,0,0.7-0.5c0.3-0.5,6.6-13.5,6.6-13.5l3.7-7.6c0,0,0.4-0.5,0.1-0.8   C41.6,66.3,40.9,66.2,40.2,65.6z"/>
</g>
</svg>