<?xml version="1.0" encoding="UTF-8"?>
<!-- Generator: Adobe Illustrator 21.1.0, SVG Export Plug-In . SVG Version: 6.00 Build 0)  -->
<svg version="1.1" id="Ebene_1" xmlns="http://www.w3.org/2000/svg" xmlns:xlink="http://www.w3.org/1999/xlink" x="0px" y="0px" viewBox="0 0 100 100" style="enable-background:new 0 0 100 100;" xml:space="preserve">
<style type="text/css">
	.st0{display:none;}
	.st1{display:inline;fill:#191919;stroke:#000000;stroke-miterlimit:10;}
	.st2{display:inline;fill:none;stroke:#DBDBDB;stroke-width:0.5;stroke-linecap:round;stroke-miterlimit:10;}
	.st3{display:none;fill:#69C4AF;}
	.st4{display:inline;fill:none;stroke:#79CDBD;stroke-linecap:round;stroke-miterlimit:10;}
	.st5{display:inline;fill:none;}
	.st6{display:inline;fill:none;stroke:#DBDBDB;stroke-width:2;stroke-linecap:round;stroke-miterlimit:10;}
	.st7{display:inline;}
	.st8{fill:#EDEDED;}
	.st9{fill:#DBDBDB;}
	.st10{display:inline;fill:#69C4AF;}
	.st11{fill:none;stroke:#DBDBDB;stroke-width:0.5;stroke-linecap:round;stroke-miterlimit:10;}
	.st12{fill:none;stroke:#79CDBD;stroke-linecap:round;stroke-miterlimit:10;}
	.st13{fill:none;}
	.st14{fill:none;stroke:#DBDBDB;stroke-width:2;stroke-linecap:round;stroke-miterlimit:10;}
	.st15{fill:#BDBCBD;}
</style>
<g class="st0">
	<rect x="-1709" y="-1067" class="st1" width="2344" height="1926"/>
</g>
<g class="st0">
	<path class="st2" d="M49.7,33.4l0.1-2.8c0,0,0.3-1-1.5-1.8c-0.8-0.3-1-0.4-1-0.4"/>
	<path class="st2" d="M49.8,32.9v-2.4c0,0-0.3-0.8,1.4-1.6c0.7-0.3,1-0.3,1-0.3"/>
</g>
<path class="st3" d="M51.5,87.1c0,0,3.5,1.3,5.9,0.3c3.6-1.4,3.6-1.1,7.4-0.3c2.6,0.5,7-1.3,7-1.3s0.3-4.8-0.7-9.5  c-1.9-9.2-4.9-14.1-6.9-21.4c-1-3.7-0.6-16.4-0.6-16.4c5-5.8,3.7-9.5,2.2-15.9c-1.6-6.4-0.4-10.7-0.4-10.7L63,11.6  c0.6,0.8,0.4,7.6,0.4,7.6c-1,1.9-2.7,2.6-8.1,8.2c-3.9,4-5.8,7.7-5.8,7.7c-2.3-5.1-3-6-7.9-11c-1.4-1.6-4.1-4-5.1-4.8  c-0.7-0.6-1-7.8-1-7.8c-1,0.2-1.7,0.2-1.7,0.2s1.9,4.5,0.4,10.9c-1.6,6.4-4,11.4,2.2,15.7c0,0-0.7,8.6-0.8,11.3  c-0.4,11.4-4,14-6.7,26.6c-1.5,7-0.7,9.5-0.7,9.5s4.4,1.7,6.4,1.1c4.1-1.2,5.5-0.6,8,0.5c2.6,1.1,7.7-0.4,7.7-0.4  S50.9,86.9,51.5,87.1z"/>
<path class="st3" d="M33.9,11.8c0,0,0.2,12.1-0.5,14.5s-1.7,9.4,2.6,11.5c0.3,0.7,0.5,1.1,0.5,1.1s1.1-0.1,2.3-0.1  c1.7-0.1,4.5,0.3,7.2-2.9c2.1-1.9,2.2-2,3.3-2c1,0,2.2-0.2,3.5,1.2s4.7,4.1,8.3,3.9c2.4,0.1,2.6-0.1,2.6-0.1l0.6-1.2  c0,0,4.4-4,2.5-10.8c-0.6-2.5-0.7-2.3-0.8-5.9c0.1-4.8,0-9.2,0-9.2l-1.4-0.2l0.1,10.1c0,0,0.3,2-1,2.3c-1.3,0.3-9.9,3-12.6,7.8  c-0.3,0.5-0.8,1-0.8,1s-0.6,0.6-1.2-0.5c-0.6-1.1-7.6-8.4-13.3-8.2c0,0-1.1,0.4-1-1.5S35,11.7,35,11.7L33.9,11.8z"/>
<path class="st3" d="M44.8,60h12.5l-4.9-5.9h-3.6C48.8,54.1,43.8,58.8,44.8,60z"/>
<path class="st3" d="M29.2,27.1v14.1c0,0-0.4,3.1-0.9,5.8S26.1,57.9,32,61.7l1.3,0.6c0,0,2.4,0.6,3.5,0.7c1.3,0.1,6.1-0.6,9-4.2  c0,0,2.3-2.4,3.4-2.5s3.1-0.6,5.1,1.2s6.7,5.9,10.4,5.7C68,63,68,62.9,68,62.9l2.2-1.4c0,0,4.7-3.9,3.9-12.2c0,0-1.3-5-1.5-6.9  c0.1-1.8,0.1-15.4,0.1-15.4l-1.9-0.2L71,41.5c0,0,0.6,5.3,1.3,7.4c2.8,8.8-8.8,20.8-19.7,2c0,0-1.6-0.2-2.9,0  c-0.4,0.1-0.6,0-0.9,0.9c-3.4,8.9-20.3,16-18.8-2.8c0,0-0.4-1.4,0.5-7.7c0.1-6.4,0.3-14.4,0.3-14.4L29.2,27.1z"/>
<g class="st0">
	<path class="st2" d="M53.8,61"/>
	<path class="st2" d="M24.8,22.9c0,0,9.3,2.9,16.3,1.7"/>
	<path class="st2" d="M55.3,24.4c0,0,7.2,0.6,14.5-2"/>
	<path class="st4" d="M16.4,21.4"/>
	<path class="st5" d="M59.5,66.3"/>
	<path class="st6" d="M80.5,88.1c-1.9-4.8-3.9-10.2-5.7-15c-2.3,4.6-2.5,10.1-1.4,15"/>
	<path class="st6" d="M60.5,11.7c4.2,12.1,21.3,6.4,28.8,12.1c1.9,1.9,3.8,5.7,3.8,9.5C95,52.2,91.6,72,96.6,88.1"/>
	<path class="st6" d="M19.2,88.1c1.7-4.7,3.9-11.4,5.3-16.1c2.3,4.5,2.3,11.3,1.6,16.1"/>
	<path class="st6" d="M39.5,11.7C39,24,12.6,15.8,8.4,28.7c-4.9,15,0,32.3-2.5,47.8c-0.6,3.8-1.4,7.9-2.3,11.6"/>
	<path class="st2" d="M48.5,51.1c0,0,0.5,3.6-5.8,11.1"/>
	<path class="st2" d="M50,51.1c0,0-0.3,3.6,6.2,10.9"/>
	<g class="st7">
		<circle class="st8" cx="30.6" cy="57.5" r="3.6"/>
		<ellipse transform="matrix(0.7071 -0.7071 0.7071 0.7071 -31.7788 38.5219)" class="st9" cx="30.6" cy="57.6" rx="0.8" ry="0.8"/>
	</g>
	<g class="st7">
		<circle class="st8" cx="69.8" cy="57.7" r="3.6"/>
		<ellipse transform="matrix(0.7071 -0.7071 0.7071 0.7071 -20.3691 66.3503)" class="st9" cx="69.9" cy="57.8" rx="0.8" ry="0.8"/>
	</g>
	<path class="st10" d="M19.1,20.1l0.1,19.3c0,0,0,0.7-0.3,3.1c-0.4,2.3-4.2,16.4,0.8,23s13.6,4.8,16.6,3.8c1-0.3,3.4-1.7,4.6-2.9   h17.4c0,0,8.5,7.8,18.3,2.2c7.8-6.9,5.2-18.3,5.2-18.3l-1.4-6.4c0,0-0.6-1.7-0.6-5.9s-0.3-18.2-0.3-18.2l-1.9-0.2L77.7,38   c0,0,0,3.7,0.5,6.5s3.9,13.1-0.8,17.8c-3.2,5.7-19.2,0.4-19.2,0.4c-4-3.8-5.8-6.1-5.8-6.1h-6.2c0,0-3.5,5.2-5.6,6.3   c-1.1,0.6-6.5,2.8-11.5,3.1c-4.5,0.3-8.6-0.9-9-6c0-0.4-0.1-0.8-0.1-1.2c-0.6-10.1,0.5-16.8,0.4-15.9c0,0,0.4-0.7,0.5-11.9   c0.2-11.2,0.2-11.4,0.2-11.4L19.1,20.1z"/>
	<path class="st10" d="M20,56.3c0,0,0.2,6.2,7.8,8.4c2.8,0.8,7.6,0.6,15.5-3.7c10.4-5.7-6.1,6.1-6.1,6.1   C38.5,68.2,18.3,74.2,20,56.3z"/>
	<path class="st10" d="M80,55.3c0,0-0.2,6.2-7.8,8.4c-2.8,0.8-5.4,2.3-15.6-2.8c-10.7-5.2,6.3,5.1,6.3,5.1   C61.4,67.3,81.6,73.3,80,55.3z"/>
	<path class="st10" d="M55.1,59.5c0,0,1.8,1.7,3.9,2.5s0.9,3.6,0.9,3.6S52.5,60.8,55.1,59.5z"/>
	<path class="st10" d="M41.5,61.9c0,0,1.1-0.3,2.3-1.9s1.6,2.4,1.6,2.4L41.5,61.9L41.5,61.9z"/>
</g>
<g>
	<path class="st11" d="M53.7,60.7"/>
	<path class="st11" d="M24.9,22.8c0,0,9.3,2.9,16.2,1.7"/>
	<path class="st11" d="M55.3,24.4c0,0,7.2,0.6,14.5-2"/>
	<path class="st12" d="M16.5,21.4"/>
	<path class="st13" d="M59.4,66.1"/>
	<path class="st14" d="M80.3,87.8c-1.9-5.5-4.1-12.6-5.8-18.2c-2.3,5.3-2.9,11.9-1.8,17.5"/>
	<path class="st14" d="M60.4,11.7c4.2,12,21.2,6.4,28.7,12c1.9,1.9,3.8,5.6,3.8,9.4c1.9,18.8-1.6,38.6,3.5,54.6"/>
	<path class="st14" d="M19.3,87.8c1.7-5.4,4.1-13.2,5.5-18.7c2.3,5.3,3.2,12,2.6,17.7"/>
	<path class="st14" d="M39.5,11.7C39,24,12.7,15.8,8.6,28.6c-4.9,15-0.1,32.2-2.5,47.6C5.5,80,4.7,84,3.7,87.8"/>
	<path class="st11" d="M48.4,50.9c0,0,0.5,3.6-5.7,11.1"/>
	<path class="st11" d="M49.9,50.9c0,0-0.3,3.6,6.2,10.8"/>
	<g>
		<circle class="st8" cx="30.6" cy="57.3" r="3.6"/>
		<ellipse transform="matrix(0.7071 -0.7071 0.7071 0.7071 -31.5746 38.5124)" class="st9" cx="30.7" cy="57.4" rx="0.8" ry="0.8"/>
	</g>
	<g>
		<circle class="st8" cx="69.7" cy="57.5" r="3.6"/>
		<ellipse transform="matrix(0.7071 -0.7071 0.7071 0.7071 -20.2967 66.1732)" class="st9" cx="69.7" cy="57.6" rx="0.8" ry="0.8"/>
	</g>
	<path class="st15" d="M20,56.1c0,0,0.2,6.2,7.7,8.3c2.8,0.8,7.5,0.6,15.4-3.7c10.4-5.7-6.1,6-6.1,6C38.5,67.9,18.4,73.9,20,56.1z"/>
	<path class="st15" d="M79.8,55.1c0,0-0.2,6.2-7.7,8.3c-2.8,0.8-5.4,2.3-15.6-2.7c-10.6-5.2,6.2,5.1,6.2,5.1   C61.3,67,81.4,73,79.8,55.1z"/>
	<path class="st15" d="M55,59.3c0,0,1.8,1.6,3.9,2.5s0.9,3.6,0.9,3.6S52.4,60.6,55,59.3z"/>
	<path class="st15" d="M41.4,61.6c0,0,1.1-0.3,2.3-1.9c1.3-1.6,1.6,2.4,1.6,2.4L41.4,61.6L41.4,61.6z"/>
	<path class="st15" d="M18.9,20.1c0,0,0.4,23-1,27.5c-1.3,4.5-3.2,17.8,4.9,21.8c0.6,1.3,0.9,2.1,0.9,2.1s2.1-0.1,4.3-0.3   c3.1-0.2,8.5,0.6,13.7-5.6c3.9-3.6,4.2-3.9,6.2-3.9s4.2-0.4,6.7,2.3s9,7.7,15.7,7.4c4.6,0.2,4.9-0.2,4.9-0.2l1-2.2   c0,0,8.4-7.5,4.8-20.4c-1.2-4.7-1.4-4.3-1.6-11.2c0.3-9,0-17.7,0-17.7l-2.7-0.3L77,38.8c0,0,0.7,3.7-1.8,4.3   c-2.5,0.5-18.8,5.7-23.9,14.8c-0.7,1-1.4,2-1.4,2s-1,1.2-2.2-1s-14.3-16-25.2-15.5c0,0-2.1,0.8-1.9-2.8c0.1-3.6,0.4-21,0.4-21   L18.9,20.1z"/>
	<path class="st15" d="M23.7,71.5c0,0,0,0.1,0.1,0.2c0.3,0.7,1.8,3.8,2,6.1c0.3,2.6-0.2,10.7-0.2,10.7l48.3-0.2c0,0-1.7-11.7,1.3-17   c2.9-5.3-14.8-8.8-14.8-8.8L47.6,61l-15.8,0.8L23.7,71.5z"/>
	<path class="st15" d="M34.1,47.5c0,0,14.9,5.6,30.5,0c11.3-4-10.8,19.4-10.8,19.4S28.8,55,33.9,47.3"/>
	<path class="st15" d="M32.9,46.6c0,0,2.4,1.7,5.2,2.1c2.8,0.4-0.3,4.2-0.3,4.2S32.1,48.2,32.9,46.6z"/>
	<path class="st15" d="M61.4,48.6c0,0,2.7-1,5.4-2.4s1,3.7,1,3.7S60.7,50.1,61.4,48.6z"/>
	<path class="st15" d="M33.8,47.1c0,0,2.5,1.2,3.6,1.4s2.9,2.4,2.9,2.4l-3.7,2.7C36.6,53.6,32.1,48.3,33.8,47.1z"/>
</g>
</svg>