<?xml version="1.0" encoding="utf-8"?>
<!-- Generator: Adobe Illustrator 21.1.0, SVG Export Plug-In . SVG Version: 6.00 Build 0)  -->
<svg version="1.1" id="Ebene_1" xmlns="http://www.w3.org/2000/svg" xmlns:xlink="http://www.w3.org/1999/xlink" x="0px" y="0px"
	 viewBox="0 0 100 100" style="enable-background:new 0 0 100 100;" xml:space="preserve">
<style type="text/css">
	.st0{display:none;}
	.st1{display:inline;fill:#191919;stroke:#000000;stroke-miterlimit:10;}
	.st2{fill:#DBDBDB;}
	.st3{fill:#BDBCBD;}
</style>
<g class="st0">
	<rect x="-1109" y="-667" class="st1" width="2344" height="1926"/>
</g>
<g id="Icons">
	<g>
		<path class="st2" d="M17,40c0,0.3-0.2,0.5-0.5,0.5h-4c-0.3,0-0.5-0.2-0.5-0.5s0.2-0.5,0.5-0.5h4C16.8,39.5,17,39.7,17,40z
			 M31.4,19.5h-7.4c-0.3,0-0.5,0.2-0.5,0.5s0.2,0.5,0.5,0.5h7.4c0.3,0,0.5-0.2,0.5-0.5S31.7,19.5,31.4,19.5z M31.4,39.5h-7.4
			c-0.3,0-0.5,0.2-0.5,0.5s0.2,0.5,0.5,0.5h7.4c0.3,0,0.5-0.2,0.5-0.5S31.7,39.5,31.4,39.5z M31.4,79.5h-7.4c-0.3,0-0.5,0.2-0.5,0.5
			s0.2,0.5,0.5,0.5h7.4c0.3,0,0.5-0.2,0.5-0.5S31.7,79.5,31.4,79.5z M31.4,59.5h-7.4c-0.3,0-0.5,0.2-0.5,0.5s0.2,0.5,0.5,0.5h7.4
			c0.3,0,0.5-0.2,0.5-0.5S31.7,59.5,31.4,59.5z M16.5,19.5h-4c-0.3,0-0.5,0.2-0.5,0.5s0.2,0.5,0.5,0.5h4c0.3,0,0.5-0.2,0.5-0.5
			S16.8,19.5,16.5,19.5z M16.5,59.5h-4c-0.3,0-0.5,0.2-0.5,0.5s0.2,0.5,0.5,0.5h4c0.3,0,0.5-0.2,0.5-0.5S16.8,59.5,16.5,59.5z
			 M38.8,40.5h7.4c0.3,0,0.5-0.2,0.5-0.5s-0.2-0.5-0.5-0.5h-7.4c-0.3,0-0.5,0.2-0.5,0.5S38.6,40.5,38.8,40.5z M83.5,20.5h4
			c0.3,0,0.5-0.2,0.5-0.5s-0.2-0.5-0.5-0.5h-4c-0.3,0-0.5,0.2-0.5,0.5S83.2,20.5,83.5,20.5z M38.8,20.5h7.4c0.3,0,0.5-0.2,0.5-0.5
			s-0.2-0.5-0.5-0.5h-7.4c-0.3,0-0.5,0.2-0.5,0.5S38.6,20.5,38.8,20.5z M38.8,60.5h4.5v-1h-4.5c-0.3,0-0.5,0.2-0.5,0.5
			S38.6,60.5,38.8,60.5z M16.5,79.5h-4c-0.3,0-0.5,0.2-0.5,0.5s0.2,0.5,0.5,0.5h4c0.3,0,0.5-0.2,0.5-0.5S16.8,79.5,16.5,79.5z
			 M76.1,79.5h-7.4c-0.3,0-0.5,0.2-0.5,0.5s0.2,0.5,0.5,0.5h7.4c0.3,0,0.5-0.2,0.5-0.5S76.3,79.5,76.1,79.5z M87.5,79.5h-4
			c-0.3,0-0.5,0.2-0.5,0.5s0.2,0.5,0.5,0.5h4c0.3,0,0.5-0.2,0.5-0.5S87.8,79.5,87.5,79.5z M76.1,19.5h-7.4c-0.3,0-0.5,0.2-0.5,0.5
			s0.2,0.5,0.5,0.5h7.4c0.3,0,0.5-0.2,0.5-0.5S76.3,19.5,76.1,19.5z M76.1,39.5h-7.4c-0.3,0-0.5,0.2-0.5,0.5s0.2,0.5,0.5,0.5h7.4
			c0.3,0,0.5-0.2,0.5-0.5S76.3,39.5,76.1,39.5z M87.5,59.5h-4c-0.3,0-0.5,0.2-0.5,0.5s0.2,0.5,0.5,0.5h4c0.3,0,0.5-0.2,0.5-0.5
			S87.8,59.5,87.5,59.5z M87.5,39.5h-4c-0.3,0-0.5,0.2-0.5,0.5s0.2,0.5,0.5,0.5h4c0.3,0,0.5-0.2,0.5-0.5S87.8,39.5,87.5,39.5z
			 M76.1,59.5h-7.4c-0.3,0-0.5,0.2-0.5,0.5s0.2,0.5,0.5,0.5h7.4c0.3,0,0.5-0.2,0.5-0.5S76.3,59.5,76.1,59.5z M43.3,79.5h-4.5
			c-0.3,0-0.5,0.2-0.5,0.5s0.2,0.5,0.5,0.5h4.5L43.3,79.5L43.3,79.5z M61.2,59.5h-4.5v1h4.5c0.3,0,0.5-0.2,0.5-0.5
			S61.4,59.5,61.2,59.5z M61.2,79.5h-4.5v1h4.5c0.3,0,0.5-0.2,0.5-0.5S61.4,79.5,61.2,79.5z M61.2,39.5h-7.4c-0.3,0-0.5,0.2-0.5,0.5
			s0.2,0.5,0.5,0.5h7.4c0.3,0,0.5-0.2,0.5-0.5S61.4,39.5,61.2,39.5z M61.2,19.5h-7.4c-0.3,0-0.5,0.2-0.5,0.5s0.2,0.5,0.5,0.5h7.4
			c0.3,0,0.5-0.2,0.5-0.5S61.4,19.5,61.2,19.5z"/>
		<path class="st3" d="M57.7,100H42.3v-7.7h15.4L57.7,100L57.7,100z M57.7,57.5c0,3.7,0,20.2,0,20.2v13.1H50h-7.7V77.7
			c0,0,0-16.4,0-20.2c0-3.7,2.1-11.2,7.7-11.2C55.6,46.4,57.7,53.8,57.7,57.5z M55.7,83.4v-5.7V57.5c0-1.6-0.5-4-1.5-6
			c-1.1-2.1-2.5-3.1-4.2-3.1c-1.7,0-3.1,1-4.2,3.1c-1.1,2-1.5,4.5-1.5,6v20.2v5.7c1.2-2.1,3.1-3.8,5.7-3.8S54.5,81.2,55.7,83.4z"/>
	</g>
</g>
</svg>
