<?xml version="1.0" encoding="utf-8"?>
<!-- Generator: Adobe Illustrator 21.1.0, SVG Export Plug-In . SVG Version: 6.00 Build 0)  -->
<svg version="1.1" id="Ebene_1" xmlns="http://www.w3.org/2000/svg" xmlns:xlink="http://www.w3.org/1999/xlink" x="0px" y="0px"
	 viewBox="0 0 100 100" style="enable-background:new 0 0 100 100;" xml:space="preserve">
<style type="text/css">
	.st0{display:none;}
	.st1{display:inline;fill:#191919;stroke:#000000;stroke-miterlimit:10;}
	.st2{fill:#BDBCBD;}
</style>
<g class="st0">
	<rect x="-1909" y="-1267" class="st1" width="2344" height="1926"/>
</g>
<g id="Icons">
	<path class="st2" d="M50,19c-17.1,0-31,13.9-31,31s13.9,31,31,31s31-13.9,31-31S67.1,19,50,19z M50,21c7.6,0,14.6,3,19.8,7.8
		l-41,41C24,64.6,21,57.6,21,50C21,34,34,21,50,21z M50,79c-7.6,0-14.6-3-19.8-7.8l41-41C76,35.4,79,42.4,79,50C79,66,66,79,50,79z"
		/>
</g>
</svg>
