<?xml version="1.0" encoding="utf-8"?>
<!-- Generator: Adobe Illustrator 21.1.0, SVG Export Plug-In . SVG Version: 6.00 Build 0)  -->
<svg version="1.1" id="Ebene_1" xmlns="http://www.w3.org/2000/svg" xmlns:xlink="http://www.w3.org/1999/xlink" x="0px" y="0px"
	 viewBox="0 0 100 100" style="enable-background:new 0 0 100 100;" xml:space="preserve">
<style type="text/css">
	.st0{display:none;}
	.st1{display:inline;fill:#191919;stroke:#000000;stroke-miterlimit:10;}
	.st2{fill:#BDBCBD;}
</style>
<g class="st0">
	<rect x="-1709" y="-1267" class="st1" width="2344" height="1926"/>
</g>
<g id="Icons">
	<g>
		<path class="st2" d="M44.7,47.6c0-0.4-0.3-3.5,2.2-6c2.5-2.5,5.1-3.8,7.7-3.8c3.1,0,5.2,1.9,6,2.6c0.1,0.1,0.2,0.2,0.3,0.2
			c0.1,0,0.1,0.1,0.1,0.2c0,0.1-0.1,0.2-0.1,0.2c0,0,0,0-0.1,0c-0.7,0.2-1.6,0.5-1.8,0.7c0,3.7-11.6,5.8-14,6.2c0,0,0,0,0,0
			c0,0,0,0-0.1,0c0,0-0.1,0-0.1,0C44.7,47.8,44.7,47.7,44.7,47.6z M59.4,74.9c-0.7-4.1-0.4-7.9,0.8-10.1c0.8-1.5,1.9-2.5,3.3-2.9
			c0-1.9-0.2-3.8-0.7-5.4c-1.5-5.2-5.5-8.1-10.3-8.1c-3.3,0-4.7,0.5-7.5,1.6c-0.7-1.5-2.1-5-3.2-6.3c0-0.1-0.3-0.4-0.6-0.4
			c-0.1,0-0.2,0-0.3,0c-0.6,0-1.2,0.5-1.5,0.8c-0.1,0.1-0.2,0.3-0.2,0.5c0,0.2,0.1,0.4,0.3,0.5l1,0.6c0.1,0.1,1.9,2.8,2.7,4.1
			c-2-0.6-3.1-1.4-6.2-1.4c-5.3,0-8.9,2.9-10.4,8.2c-2.2,7.9,1,20.4,8.7,25.1c0.9,0.5,1.7,0.7,2.5,0.7c0.9,0,1.6-0.3,2.4-0.6
			c1-0.4,2.3-0.9,4.3-1.1c2,0.2,3.3,0.7,4.3,1.1c0.8,0.3,1.6,0.6,2.4,0.6c0.8,0,1.5-0.2,2.5-0.7c2.3-1.4,4.1-3.4,5.6-5.8
			C59.5,75.5,59.5,75.2,59.4,74.9z"/>
		<path class="st2" d="M72.6,65.7c-2.9-1.6-5.5-2.9-7.6-2.9c-1.5,0-2.8,0.7-3.8,2.6c-2.4,4.5-0.4,15.2,2.6,16.8
			c0.4,0.2,1,0.3,1.7,0.3c4,0,11.7-3.6,13.7-7.5C81.6,70.5,77.5,68.3,72.6,65.7z M64.3,65.8c0.1-0.8,0.8-1.2,1.4-0.9
			c0.5,0.3,0.6,1.2,0,1.7c-0.1,0.1-0.3,0.2-0.4,0.3c-0.4,0.3-1,0-0.9-0.5C64.2,66.1,64.3,65.9,64.3,65.8z M62.4,71.8
			c0-0.1,0-0.3,0-0.5c0.1-0.8,0.8-1.2,1.4-0.9c0.5,0.2,0.5,1.1-0.1,1.6c-0.1,0.1-0.3,0.2-0.4,0.3C63,72.6,62.4,72.2,62.4,71.8z
			 M64.1,76c-0.4,0.3-1,0-0.9-0.5c0-0.1,0-0.3,0-0.5c0.1-0.8,0.8-1.2,1.4-0.9c0.5,0.3,0.5,1.1-0.1,1.6C64.3,75.8,64.2,75.9,64.1,76z
			 M65.9,79.7c-0.1,0.1-0.3,0.2-0.4,0.3c-0.4,0.3-1,0-0.9-0.5c0-0.1,0-0.3,0-0.5c0.1-0.8,0.8-1.2,1.4-0.9
			C66.5,78.3,66.5,79.2,65.9,79.7z M66.1,70.5c0-0.1,0-0.3,0-0.5c0.1-0.8,0.8-1.2,1.4-0.9c0.6,0.3,0.5,1.1-0.1,1.6
			c-0.1,0.1-0.3,0.2-0.4,0.3C66.6,71.3,66,70.9,66.1,70.5z M68.2,74.9c-0.4,0.3-1,0-0.9-0.5c0-0.1,0-0.3,0-0.5c0-0.8,0.8-1.3,1.3-1
			s0.6,1.2,0,1.7C68.5,74.7,68.3,74.8,68.2,74.9z M70,78.7c-0.1,0.1-0.3,0.2-0.4,0.3c-0.4,0.3-1,0-0.9-0.5c0-0.1,0-0.3,0-0.5
			c0.1-0.8,0.8-1.2,1.4-0.9C70.6,77.2,70.6,78.1,70,78.7z M70.9,69.7c-0.4,0.3-1,0-0.9-0.5c0-0.1,0-0.3,0-0.5c0-0.8,0.8-1.3,1.3-1
			c0.5,0.3,0.6,1.2,0,1.7C71.1,69.5,71,69.7,70.9,69.7z M71.2,73.3c0-0.1,0-0.3,0-0.5c0-0.8,0.8-1.3,1.3-1c0.5,0.3,0.6,1.2,0,1.7
			c-0.1,0.1-0.3,0.2-0.4,0.3C71.8,74.1,71.2,73.7,71.2,73.3z M73.5,77.2c-0.1,0.1-0.3,0.2-0.4,0.3c-0.4,0.3-1,0-0.9-0.5
			c0-0.1,0-0.3,0-0.5c0.1-0.8,0.8-1.2,1.4-0.9C74,75.8,74.1,76.7,73.5,77.2z M77.1,72.6c-0.1,0.1-0.3,0.2-0.4,0.3
			c-0.4,0.3-1,0-0.9-0.5c0-0.1,0-0.3,0-0.5c0.1-0.8,0.8-1.2,1.4-0.9C77.7,71.2,77.7,72.1,77.1,72.6z M82.2,67.8
			C82.2,67.8,82.2,67.8,82.2,67.8l-2.5-0.3c-0.9-0.1-1.8-0.4-2.6-0.8l-0.1,0l-7.5-4.1c-0.8-0.4-1.5-1-2.1-1.7l-1.6-2
			c-0.2-0.2,0-0.5,0.2-0.5c0,0,0.1,0,0.1,0l3.2,1.7c0,0,0.1,0,0.2,0c0.2,0,0.3-0.1,0.3-0.3l0.1-2.1c0-0.2,0.1-0.3,0.3-0.3
			c0.1,0,0.2,0,0.3,0.2l2.2,4.1c0.1,0.1,0.2,0.1,0.3,0.1c0.1,0,0.1,0,0.2,0l2.3-1.7c0,0,0.1,0,0.1,0c0.2,0,0.3,0.1,0.3,0.3l-0.1,2.9
			c-0.1,0.2,0.1,0.3,0.3,0.3c0,0,0,0,0,0l4.6-0.4c0.3,0,0.4,0.4,0.2,0.6L79.2,65c-0.2,0.1-0.1,0.4,0.1,0.5l3.1,1.7
			C82.6,67.3,82.5,67.8,82.2,67.8z"/>
		<path class="st2" d="M66.3,61.9c0.1-0.1,0.3-0.3,0.4-0.4l0,0c0.2,0.2,0.4,0.4,0.6,0.6C67,62,66.6,61.9,66.3,61.9z M57.8,48.6
			c0.7,0.4,1.4,0.8,2.1,1.4c4.5-5.8,7.9-13.3,10.2-22.4c2.9,13.2-2.7,22.1-6.9,26.7c0.2,0.5,0.4,1.1,0.6,1.7
			c4.6-4.7,11.2-14.4,7.8-29.1c2.3,2,4.7,6.1,4.3,14.6c-0.3,5-2.2,10.3-5.3,15c0.3,0.1,0.6,0.3,0.8,0.6l0,0l0,0l0.8,1.4
			c3.6-5.3,5.9-11.3,6.2-17c0.4-6.9-1-12.1-4.1-15.5l-0.3-0.4l0,0l-0.2-0.2c-1.7-2-6.4-7.4-8.5-7.8c-0.4-0.1-0.8,0.2-0.9,0.5
			c-0.6,2.7-0.3,3-0.3,3c3.9,1.5,3.9,3.6,3.8,4.2C65.7,35.7,62,43.2,57.8,48.6z"/>
	</g>
</g>
</svg>
