<?xml version="1.0" encoding="UTF-8"?>
<!-- Generator: Adobe Illustrator 21.1.0, SVG Export Plug-In . SVG Version: 6.00 Build 0)  -->
<svg version="1.1" id="Ebene_1" xmlns="http://www.w3.org/2000/svg" xmlns:xlink="http://www.w3.org/1999/xlink" x="0px" y="0px" viewBox="0 0 100 100" style="enable-background:new 0 0 100 100;" xml:space="preserve">
<style type="text/css">
	.st0{fill:none;stroke:#DBDBDB;stroke-width:0.5;stroke-linecap:round;stroke-miterlimit:10;}
	.st1{display:none;}
	.st2{display:inline;fill:#191919;stroke:#000000;stroke-miterlimit:10;}
	.st3{fill:none;stroke:#79CDBD;stroke-linecap:round;stroke-miterlimit:10;}
	.st4{fill:none;}
	.st5{display:none;fill:#69C4AF;}
	.st6{fill:none;stroke:#DBDBDB;stroke-width:1.4;stroke-linecap:round;stroke-miterlimit:10;}
	.st7{fill:#BDBCBD;}
	.st8{fill:#DBDBDB;}
	.st9{fill:#69C4AF;}
</style>
<path class="st0" d="M52.2,33.6"/>
<g class="st1">
	<rect x="-1709" y="-1067" class="st2" width="2344" height="1926"/>
</g>
<path class="st0" d="M37.9,13.5c0,0,4.9,1.5,8.6,0.9"/>
<path class="st0" d="M53,14.3c0,0,3.8,0.3,7.7-1.1"/>
<path class="st3" d="M32.4,12.8"/>
<path class="st4" d="M55.2,36.5"/>
<g>
	<path class="st0" d="M49.7,33.4l0.1-2.8c0,0,0.3-1-1.5-1.8c-0.8-0.3-1-0.4-1-0.4"/>
	<path class="st0" d="M49.8,32.9v-2.4c0,0-0.3-0.8,1.4-1.6c0.7-0.3,1-0.3,1-0.3"/>
</g>
<path class="st5" d="M51.5,87.1c0,0,3.5,1.3,5.9,0.3c3.6-1.4,3.6-1.1,7.4-0.3c2.6,0.5,7-1.3,7-1.3s0.3-4.8-0.7-9.5  c-1.9-9.2-4.9-14.1-6.9-21.4c-1-3.7-0.6-16.4-0.6-16.4c5-5.8,3.7-9.5,2.2-15.9c-1.6-6.4-0.4-10.7-0.4-10.7L63,11.6  c0.6,0.8,0.4,7.6,0.4,7.6c-1,1.9-2.7,2.6-8.1,8.2c-3.9,4-5.8,7.7-5.8,7.7c-2.3-5.1-3-6-7.9-11c-1.4-1.6-4.1-4-5.1-4.8  c-0.7-0.6-1-7.8-1-7.8c-1,0.2-1.7,0.2-1.7,0.2s1.9,4.5,0.4,10.9c-1.6,6.4-4,11.4,2.2,15.7c0,0-0.7,8.6-0.8,11.3  c-0.4,11.4-4,14-6.7,26.6c-1.5,7-0.7,9.5-0.7,9.5s4.4,1.7,6.4,1.1c4.1-1.2,5.5-0.6,8,0.5c2.6,1.1,7.7-0.4,7.7-0.4  S50.9,86.9,51.5,87.1z"/>
<path class="st6" d="M55.8,7.6c0,0,0,2.4,2.3,3s6.4,1.6,8,1.6c1.6,0.1,5.4,0.8,6.2,4.8s1.1,13.5,0.7,18s1.6,12.2,1.6,12.2  s1.5,5.2,3.1,20.5c0,0,0.9,4.8,1,7.4c0.5,2.2,1.1,5.9,1.1,5.9s0.5,2-0.8,3.6s-2.2,1.7-2.2,1.7l-4,1.1c0,0-1.6-0.1,0-1.1  s2.1-0.5,2.5-1.3s0.8-3.3,0.3-4.1s-1.4-0.8-1.4,0s0.1,3.9-0.3,4.1c-0.3,0.6-1.5,1.2-1.5-0.6c-0.3-1.7,0.5-9.4,0.5-9.4  c1-1.9,1.3-2.8,1.3-2.8s0.2-2.8-0.8-4.8s-3.3-8.9-3.7-10.1c-4-10.8-6.6-19-6.6-19c-3.7,8.4,3.1,18.1,4.2,23.8  c0.8,4,1.8,17.5-0.2,23.9c-1.3,4.3-1.5,4.8-1.5,4.8H51.4"/>
<path class="st6" d="M44.7,7.6c0,0,0,2.4-2.3,3s-6.4,1.6-8,1.6C32.8,12.3,29,13,28.2,17c-0.8,4-1.1,13.5-0.7,17.9  s-1.6,12.2-1.6,12.2s-1.5,5.2-3.1,20.5c0,0-0.9,4.8-1,7.4c-0.5,2.2-1.1,5.9-1.1,5.9s-0.5,2,0.8,3.6s2.2,1.7,2.2,1.7l4,1.1  c0,0,1.6-0.1,0-1.1c-1.6-0.9-2.1-0.5-2.5-1.3s-0.8-3.3-0.3-4.1s1.4-0.8,1.4,0s-0.1,3.9,0.3,4.1c0.3,0.6,1.5,1.2,1.5-0.6  c0.3-1.7-0.5-9.4-0.5-9.4c-1-1.9-1.3-2.8-1.3-2.8S26,69.5,27,67.6c1-2,3.3-8.9,3.7-10.1c4-10.8,5.9-18.5,5.9-18.5  c3,6.8-0.2,15.1-2.4,23.1c-1.1,4-3.1,16.8-1.4,23.3c0.7,2.7,1.2,5.1,1.2,5.6h14"/>
<path class="st7" d="M33.9,11.6c0,0,0.2,12.3-0.5,14.6s-1.7,9.4,2.6,11.5c0.3,0.7,0.5,1.2,0.5,1.2s1.1-0.2,2.3-0.3  c1.7-0.1,4.5,0.3,7.2-2.9c2.1-1.9,2.2-2,3.3-2c1,0,2.2-0.2,3.5,1.2s4.7,4.1,8.3,3.9c2.4,0.1,2.6-0.1,2.6-0.1l0.6-1.2  c0,0,4.4-4,2.5-10.8c-0.6-2.5-0.7-2.3-0.8-5.9c0.1-4.8,0-9.3,0-9.3l-1.4-0.2l0.1,10.3c0,0,0.3,2-1,2.3c-1.3,0.3-9.9,3-12.6,7.8  c-0.3,0.5-0.8,1-0.8,1s-0.6,0.6-1.2-0.5c-0.6-1.1-7.6-8.4-13.3-8.2c0,0-1.1,0.4-1-1.5S35,11.4,35,11.4L33.9,11.6z"/>
<path class="st5" d="M34.1,60.7c0.2,0.3,10.4,4.4,16.7,4.1s16.9-3.2,16.9-3.2s1,5.3,1,9.8c0,0.8-3.9,3.1-4.7,6.5  c-1,4.5-1.1,10.4-1.1,10.4L62,88.2l1.2-10.8c0,0-8.5-8.2-11.1-12.1h-3.9c0,0-6,7.5-11.9,11.4c0,2.7,0.9,9.1,0.6,10.5  S36,87.6,36,87.6s-0.7-10.4-0.8-12.3c-0.1-2-2.5-4.6-2.9-4.9S33.9,60.4,34.1,60.7z"/>
<path class="st8" d="M51.6,56.7c0,0-1.9,0.9-1.6,1.6s1.6,0.3,1.6,0.3S52.6,56,51.6,56.7z"/>
<path class="st7" d="M36.4,38.9c0,0,0.8,3.8,0.7,7.9s-3.3,13.9-3.3,13.9L33.5,62c0,0,2.5,0.9,2.3,3.6c-0.1,1.3,0.7,0.7,0.8,1.2  c0,0,1.3-1.8,3-1.8s9.2,2.1,20.3,0.6l1.6-0.2c0,0,1.9-0.3,2.7,1.7c0,0-0.4-4.7,3.7-4.9c0,0-0.2-2.1-2.3-6.6c0,0-2.7-7.2-2.7-9.2  s-0.2-5.1,0.7-7.4c1-2.3-12.1-5.5-12.1-5.5L46,33.6L36.4,38.9z"/>
<path class="st7" d="M40.1,69.6c0,0,0.5,0.2,0.8,0.6c0.4,0.4,0.5-0.4,0.5-0.4L40.1,69.6z"/>
<path class="st7" d="M60.3,70.8c0,0,0.5-0.4,0.9-0.6s-0.1-0.4-0.1-0.4L60.3,70.8z"/>
<path class="st9" d="M59.5,70.8"/>
<path class="st7" d="M64.7,65.5c0,0-0.1-1.8,0.8-2.7c0.9-0.8-2.3-0.7-2.3-0.7L64.7,65.5"/>
<path class="st7" d="M37.6,65.7c0,0-0.5,0.4-0.6,0.7c0,0.3-0.3,0.2-0.3,0.2S36.8,65.7,37.6,65.7z"/>
<path class="st9" d="M27.3,57.8"/>
<path class="st7" d="M62.9,65.5c0,0,0.4,0,0.5,0.6s0.5-0.3,0.5-0.3S63.2,65,62.9,65.5z"/>
<polygon class="st7" points="32.9,64.5 33.5,61.7 63.8,61 68,61.9 68.5,65.2 65.1,67.7 34.5,68.6 "/>
<polygon class="st7" points="35,11.5 36.6,11.3 36.8,24.5 34.4,25.2 "/>
<polygon class="st7" points="64.5,11.4 62.9,11.1 62.8,24.4 65.2,25.1 "/>
<path class="st7" d="M43.7,72.1c0,0,3.7-0.5,6.1-0.4s2.6-0.4,2.6-0.4S46,66.5,43.7,72.1z"/>
<path class="st8" d="M49.9,81.1L49.9,81.1c0-0.2,0-0.4,0-0.6h-0.1h-0.1l0,0c0,0-0.1,0-0.1-0.1c-0.1-0.1-0.5-0.5-0.8-0.9  c0,0,0,0,0-0.1l0,0c-0.6-0.7-1-1.2-1.3-1.4c-0.1-0.1-0.3,0-0.4,0.1c-0.1,0.1,0,0.3,0.1,0.4c0.2,0.1,0.8,0.7,1.2,1.2  c0.3,0.9,0.6,4.6,0.6,6.7c0,1.9-1.8,3.5-1.8,3.5c0,0.2,1,0.8,1.2,0.9l-0.6-0.3c0.1,0,0.6-0.1,0.6-0.3c0,0,1.1-3.8,1.1-5.7  c0-1.5-0.1-2.3-0.3-3.9c0.1,0.1,0.1,0.1,0.2,0.2C49.5,81,49.7,81.1,49.9,81.1z"/>
<path class="st8" d="M49.9,81.1L49.9,81.1c0-0.2,0-0.4,0-0.6H50h0.1l0,0c0,0,0.1,0,0.1-0.1c0.1-0.1,0.5-0.5,0.8-0.9c0,0,0,0,0-0.1  l0,0c0.6-0.7,1-1.2,1.3-1.4c0.1-0.1,0.3,0,0.4,0.1c0.1,0.1,0,0.3-0.1,0.4c-0.2,0.1-0.8,0.7-1.2,1.2c-0.3,0.9-0.6,4.6-0.6,6.7  c0,1.9,0.3,4.1,0.3,4.2c0,0.2-0.1,0.3-0.3,0.3h0.3c-0.1,0-0.3-0.2-0.3-0.4c0,0-0.6-4-0.6-5.9c0-1.5,0.1-2.3,0.4-3.9  c-0.1,0.1-0.1,0.1-0.2,0.2C50.3,81,50.1,81.1,49.9,81.1z"/>
<path class="st7" d="M66.2,91.6c0,0-5.9,0.1-10.4,0c-2.2,0-3.5,0-4.2,0.1c-0.3,0-0.7,0.1-0.8-0.1c-0.6-4.3-0.3-7-0.4-7.1  c7.5,0.1,10.2-1.9,10.2-7.8s-12.7-5.1-12.7-5.1l2.4-5.6c0,0,3.4-0.1,18.2-0.9c0.5,4.1,0.5,7.3,0.5,7.3s-2.8-0.2-4.6,0.6  c-1.6,0.7-1.5,2-1.5,2s-0.6,4.3-0.2,7.3s5.4,3.1,5.4,3.1S67.6,87.5,66.2,91.6z"/>
<path class="st7" d="M32,85c0,0,5.4-0.2,5.8-3.1s-0.2-7.3-0.2-7.3s0.2-1.3-1.5-2c-1.8-0.7-4.4-0.6-4.4-0.6s0.4-3.3,1.1-7.5  c14.8,0.9,17.4,1.2,17.4,1.2l0.1,6c0,0-4.7-0.5-7.7,0.9c-1.5,0.7-2.6,1.9-2.6,3.8c0,5.9,1.8,8.3,9.3,8.2c0,0.2-0.1,5-0.6,7.2  c-3.3,0.1-15.4-0.1-15.4-0.1"/>
</svg>