<?xml version="1.0" encoding="utf-8"?>
<!-- Generator: Adobe Illustrator 21.1.0, SVG Export Plug-In . SVG Version: 6.00 Build 0)  -->
<svg version="1.1" id="Ebene_1" xmlns="http://www.w3.org/2000/svg" xmlns:xlink="http://www.w3.org/1999/xlink" x="0px" y="0px"
	 viewBox="0 0 100 100" style="enable-background:new 0 0 100 100;" xml:space="preserve">
<style type="text/css">
	.st0{display:none;}
	.st1{display:inline;fill:#191919;stroke:#000000;stroke-miterlimit:10;}
	.st2{fill:#BDBCBD;}
</style>
<g class="st0">
	<rect x="-1109" y="-1067" class="st1" width="2344" height="1926"/>
</g>
<g id="Icons">
	<path class="st2" d="M51.6,36.1c3.9,10.4,6.9,14.2,11.9,24.4c4.9,9.9-2.3,19.8-11.9,19.8c-9.5,0-16.7-9.9-11.9-19.8
		C44.7,50.4,47.4,46.6,51.6,36.1z M27.2,35.8c-3.1,6.2,1.5,12.5,7.5,12.5c6,0,10.6-6.3,7.5-12.5c-3.2-6.4-5-8.9-7.5-15.4
		C32.1,27,30.4,29.4,27.2,35.8z M61.1,43.2c-1.9,3.8,0.9,7.7,4.6,7.7c3.7,0,6.5-3.9,4.6-7.7c-1.9-4-3.1-5.4-4.6-9.5
		C64.2,37.8,63.1,39.3,61.1,43.2z"/>
</g>
</svg>
