<?xml version="1.0" encoding="UTF-8"?>
<!-- Generator: Adobe Illustrator 21.1.0, SVG Export Plug-In . SVG Version: 6.00 Build 0)  -->
<svg version="1.1" id="Ebene_2" xmlns="http://www.w3.org/2000/svg" xmlns:xlink="http://www.w3.org/1999/xlink" x="0px" y="0px" viewBox="0 0 100 100" style="enable-background:new 0 0 100 100;" xml:space="preserve">
<style type="text/css">
	.st0{fill:#DBDBDB;}
	.st1{fill:#BDBCBD;}
	.st2{fill:none;stroke:#DBDBDB;stroke-linecap:round;stroke-miterlimit:10;}
</style>
<path class="st0" d="M24.1,91.4h50.3c0,0,3.4-22.9,4-41.1c0.2-5.9-58.1,0.6-58.1,0.6S21.8,82.1,24.1,91.4z"/>
<path class="st1" d="M20.5,35.6v-4.1c0,0,2.9-3.5,8-0.6c5.2-3.5,10.8,0,10.8,0s4.6-3.4,10.2,0c5-3.5,11.7-0.2,11.7-0.2  s5-2.8,9.4,0.5c5.3-2.8,7.4,1.2,7.4,1.2V53c0,0-2.5,4-7.8,0.3c-5,3.3-9.5,0.5-9.5,0.5s-6.5,3.1-11.7-0.1c-6.5,3.2-10.2-0.1-10.2-0.1  s-5.6,3.4-10.8,0c-5.2,2.9-7.4-0.6-7.4-0.6L20.5,35.6z"/>
<path class="st2" d="M23.8,8.9c0,0-8.5,27.3,0.3,82.1"/>
<path class="st2" d="M74.7,9.2c0,0,8.5,27.3-0.3,82.1"/>
</svg>