<?xml version="1.0" encoding="utf-8"?>
<!-- Generator: Adobe Illustrator 16.0.0, SVG Export Plug-In . SVG Version: 6.00 Build 0)  -->
<!DOCTYPE svg PUBLIC "-//W3C//DTD SVG 1.1//EN" "http://www.w3.org/Graphics/SVG/1.1/DTD/svg11.dtd">
<svg version="1.1" id="Layer_1" xmlns="http://www.w3.org/2000/svg" xmlns:xlink="http://www.w3.org/1999/xlink" x="0px" y="0px"
	 width="645px" height="539px" viewBox="0 0 645 539" enable-background="new 0 0 645 539" xml:space="preserve">
<g>
	<defs>
		<rect id="SVGID_1_" width="645" height="539"/>
	</defs>
	<clipPath id="SVGID_2_">
		<use xlink:href="#SVGID_1_"  overflow="visible"/>
	</clipPath>
	<g clip-path="url(#SVGID_2_)">
		<defs>
			<rect id="SVGID_3_" width="645" height="539"/>
		</defs>
		<clipPath id="SVGID_4_">
			<use xlink:href="#SVGID_3_"  overflow="visible"/>
		</clipPath>
		<path clip-path="url(#SVGID_4_)" fill="#757DA0" d="M425.5,352.51L431,348c0,0,14-11,18-12h7c0,0,8-8,10-6l2,2l17,12h13
			c0,0,6,8,11,9s28,4,28,4s13,3,13,7l2,4c0,0,2,4-8,6s-29,26-30,28s-44,9-44.5,9S150,394,150,394l13-32c0,0,3-23,13-18c0,0,7-9,12-7
			c0,0,6-5,10,1"/>
		<g opacity="0.5" clip-path="url(#SVGID_4_)">
			<g>
				<defs>
					<rect id="SVGID_5_" x="27.57" y="-10" width="659.93" height="226.88"/>
				</defs>
				<clipPath id="SVGID_6_">
					<use xlink:href="#SVGID_5_"  overflow="visible"/>
				</clipPath>
				<path clip-path="url(#SVGID_6_)" fill="#ACB5AF" d="M468.44,216.88c0,0-30.44-13.88,30.56-16.88c49.19-2.42,132,15,134-43
					c0,0-6-36,12-36c0,0,46-16,40-70c0,0,16-56-33-61H319L30-4c0,0-27,81,99,100c0,0,70-3,66,16c0,0-30,41,106,51c0,0,152-10,152,29
					C453,192,447.89,202.75,468.44,216.88"/>
			</g>
		</g>
		<path clip-path="url(#SVGID_4_)" fill="#C49483" d="M510,270l-7,6c0,0-13-2-16,2c0,0-22,5-25,18c0,0-14,10-13,27l-2,6
			c0,0-9,5-1,15l2-1l4,3c0,0,3,2,3-2l4-1v-2l1-4l-1-3l4-4l-1-2c0,0,5-13,4-17c0,0,11,2,13-4l1,3l-6.92,25.58L485,345l13.5-0.36
			c0,0,6.5,7.36,9.5,8.36v-3.92l6-2.08c0,0,16-24,17-29c0,0,0,5,1,7c0,0-2,9-1,15l-3-1l-6,11l2,4c0,0,2,4,4,3s0,0,0,0h3l7,2l8-6v-3
			c0,0,6-10,4-26c0,0,6-22-10-33c0,0-6-7-11-8l-1-8c0,0,8.66-1.92,11.82-10.5c0.06-0.17,0.12-0.33,0.18-0.5c3-9,0,0,0,0s9,3,12-5
			c0,0,2-9-7-11c0,0,2-17,1-19c0,0,0-5-14-7c0,0-7-4-11,2l-9,12v2c0,0-8-2-10,5c0,0-2,7,5,10c0,0-4,10,3,16"/>
		<path clip-path="url(#SVGID_4_)" fill="#D8BFAF" d="M126,265c0,0,7,15,0,22c0,0-7,3-7,7c0,0-21,15-17,35c0,0-3,11-5,14
			c0,0-6,19-1,33l18,8l2-1l-7.94-7c0,0-6.06-8-4.06-11l8.5,0.18c0,0,3.5-15.18,2.5-23.18l6-8l8,5l1,14l-1,32l17.2-4.34L163,361l7-17
			c0,0,1-12,5-17l3-7l11,15c0,0,9,0,9,3c0,0,8-6,10-6l-2-10c0,0-7-10-8-11s-9-33-32-28c0,0-13-8-18-8h-1l-5-8c0,0,13-6,12-15
			c0,0-9-17-8-32l-27,10l-2,18l1,5c0,0-5,5-1,10c0,0,1,3,8,1"/>
		<polyline clip-path="url(#SVGID_4_)" fill="#9B7649" points="29.5,510.04 4,531 633,531 593,505 		"/>
		<path clip-path="url(#SVGID_4_)" fill="#D6CBB9" d="M97,405l-57,29c0,0-11,1-9,27l-1,52c0,0-3.58,11.63,15.51,12.89
			C46.6,525.96,47.76,526,49,526h544c0,0,12,5,12-20v-59c0,0,5-11-12-15l-36-20"/>
		<polygon clip-path="url(#SVGID_4_)" fill="#AFA494" points="30,496 605,466 604,473 29.5,501.03 		"/>
		<polygon clip-path="url(#SVGID_4_)" fill="none" stroke="#000000" stroke-width="0.5" stroke-miterlimit="10" points="
			267.14,460.5 241.16,460.5 228.17,483 241.16,505.5 267.14,505.5 280.13,483 		"/>
		<polygon clip-path="url(#SVGID_4_)" fill="none" stroke="#000000" stroke-width="0.5" stroke-miterlimit="10" points="
			319.14,460.5 293.16,460.5 280.17,483 293.16,505.5 319.14,505.5 332.13,483 		"/>
		<polyline clip-path="url(#SVGID_4_)" fill="none" stroke="#000000" stroke-width="0.5" stroke-miterlimit="10" points="
			143.21,460.5 138.16,460.5 126.17,483 138.16,505.5 164.14,505.5 177.13,483 169.15,470.17 		"/>
		<polygon clip-path="url(#SVGID_4_)" fill="none" stroke="#000000" stroke-width="0.5" stroke-miterlimit="10" points="
			216.14,460.5 190.16,460.5 177.17,483 190.16,505.5 216.14,505.5 228.13,483 		"/>
		<polyline clip-path="url(#SVGID_4_)" fill="none" stroke="#000000" stroke-width="0.5" stroke-miterlimit="10" points="
			470.32,460.5 449.16,460.5 436.17,483 449.16,505.5 475.14,505.5 488.13,483 479.63,468.28 		"/>
		<polyline clip-path="url(#SVGID_4_)" fill="none" stroke="#000000" stroke-width="0.5" stroke-miterlimit="10" points="
			497.56,467.46 488.17,483 501.16,505.5 527.14,505.5 540.13,483 527.14,460.5 504.98,460.5 		"/>
		<polyline clip-path="url(#SVGID_4_)" fill="none" stroke="#000000" stroke-width="0.5" stroke-miterlimit="10" points="
			559.75,460.5 554.16,460.5 541.17,483 554.16,505.5 580.14,505.5 593.13,483 580.14,460.5 573.47,460.5 		"/>
		<polyline clip-path="url(#SVGID_4_)" fill="none" stroke="#000000" stroke-width="0.5" stroke-miterlimit="10" points="
			605.16,460.5 593.17,483 605.16,505.5 		"/>
		<polygon clip-path="url(#SVGID_4_)" fill="none" stroke="#000000" stroke-width="0.5" stroke-miterlimit="10" points="
			372.14,460.5 346.16,460.5 333.17,483 346.16,505.5 372.14,505.5 385.13,483 		"/>
		<polygon clip-path="url(#SVGID_4_)" fill="none" stroke="#000000" stroke-width="0.5" stroke-miterlimit="10" points="
			424.14,460.5 398.16,460.5 385.17,483 398.16,505.5 424.14,505.5 436.13,483 		"/>
		<polyline clip-path="url(#SVGID_4_)" fill="none" stroke="#000000" stroke-width="0.5" stroke-miterlimit="10" points="30,496.57 
			35.16,505.5 56.46,505.5 		"/>
		<polyline clip-path="url(#SVGID_4_)" fill="none" stroke="#000000" stroke-width="0.5" stroke-miterlimit="10" points="
			61.14,460.5 35.16,460.5 29.78,469.83 		"/>
		<polygon clip-path="url(#SVGID_4_)" fill="none" stroke="#000000" stroke-width="0.5" stroke-miterlimit="10" points="
			113.14,460.5 87.16,460.5 74.17,483 87.16,505.5 113.14,505.5 126.13,483 		"/>
		<path clip-path="url(#SVGID_4_)" fill="#C47CC1" d="M30.33,495.82L605,466.66V447c0,0,5-11-12-15l-36-20l-460-7l-57,29
			c0,0-11,1-9,27L30.33,495.82z"/>
		<path clip-path="url(#SVGID_4_)" fill="#B78774" d="M294,242c0,0-109,23-86,90c0,0-12,2-13,15c0,0,28,2,55-42c0,0,21-2,30-10
			l-11,17c0,0,28,2,41,15c0,0,22-15,52,0l-3-14c0,0,34,27,47,9c0,0,19-17,15-38c0,0,18-4,5-19l3-24c0,0-4,0-5,5l-1-7c0,0-7,2-5,18
			c0,0-7,3-7,4c0,0-10-1-7,8c0,0-2,4,1,7l-3,12h-5c0,0-35-32-52-40c0,0-4-10,5-11c0,0,34-1,38-18c0,0,10-6,2-9c0,0-9-4-11-8
			c0,0,18,1,17-9l-3-2l4-6c0,0,12-8-5-13c0,0-15-6-12-26c0,0,4-15-23-12s-53,34-53,34L294,242z"/>
		<path clip-path="url(#SVGID_4_)" fill="#FFFFFF" d="M371,157c0,0-15,2-16,21c0,0,10-7,20-6C375,172,382,161,371,157"/>
		<path clip-path="url(#SVGID_4_)" fill="#CC4D40" d="M388,219c-12-3-10-18-10-18s2,9,14,10C396,216,388,219,388,219"/>
		<path clip-path="url(#SVGID_4_)" fill="#CC4D40" d="M378,201c0,0,13-3,16-8c0,0,4-1,2,4C396,197,387,207,378,201"/>
		<path clip-path="url(#SVGID_4_)" fill="#FFFFFF" d="M390.99,213.77c-0.09,0.82-1.27,1.37-2.64,1.23s-2.42-0.93-2.33-1.76
			c0.09-0.82,1.27-1.37,2.65-1.23C390.03,212.16,391.07,212.94,390.99,213.77"/>
		<path clip-path="url(#SVGID_4_)" fill="#56609B" d="M247,312c0,0,42-6,63,15c0,0,20-18,63,4l27,12c0,0,47,8,47,34v8c0,0,9,14,28,9
			l19-7c0,0,84-5,82,41c0,0-1,27-5,41c0,0-12-5-13-17c0,0-17-12-19-20l-171,2c0,0-21-3-26,7c0,0-16,22-32,0c0,0-8-17-24-3
			c0,0-17,16-27-4c0,0-4-16-12-2c0,0-8,15-22,0l-87,3c0,0-50-6-64,41l-13,34c0,0-4,4-7-18c0,0-1-19,7-32v-25c0,0,10-18,47-23l39-32
			c0,0,24-31,48-33c0,0,24.41-3.06,35.7-17.53L247,312z"/>
		<path clip-path="url(#SVGID_4_)" fill="#EDB0B0" d="M203,405l-31,23c0,0-19-42-38-52c0,0-7-14-2-22c0,0-20-6-14,13l7,13h-4l-6-14
			c0,0-11-4-11-1c0,0-2,8,8,14l5,5c0,0-4,1-6-1c0,0-15-12-20-2c0,0-3,10,18,6l-16,6c0,0-5,11,7,6l-4,6c0,0,5,8,10,0c0,0,6,29,26,19
			c0,0,10,7,9,18c0,0-7,27,27,29l11-4l10-20l36-15c0,0,8-10,3-21C228,411,221,400,203,405"/>
		<path clip-path="url(#SVGID_4_)" fill="#EDB0B0" d="M442.94,409.73l33.77,18.69c0,0,13.27-44.15,30.78-56.58
			c0,0,5.08-14.8-0.93-22.07c0,0,19.03-8.6,15.6,11.03l-5.22,13.81l3.96-0.53l4.09-14.67c0,0,10.37-5.42,10.77-2.45
			c0,0,3.04,7.67-6.08,14.94l-4.29,5.62c0,0,4.1,0.46,5.81-1.79c0,0,13.28-13.88,19.56-4.63c0,0,4.3,9.52-17.05,8.33l16.65,3.83
			c0,0,6.41,10.24-6.14,6.88l4.76,5.42c0,0-3.9,8.59-9.91,1.33c0,0-2.11,29.54-23.25,22.28c0,0-8.98,8.26-6.54,19.03
			c0,0,10.52,25.83-22.92,32.32L474.94,468l-12.56-18.5l-37.67-10.1c0,0-31.71,14.6-58.71-6.4c0,0,10-11,17-15l4-1l-2-10
			c0,0,23-3,31-13l28,16"/>
		<path clip-path="url(#SVGID_4_)" fill="#8C6254" d="M387,406c0,0,5-19,29-12C416,394,403,407,387,406"/>
		<path clip-path="url(#SVGID_4_)" fill="#D3A5CF" d="M429,245l20-26c0,0,14,8,11,19l-33,16"/>
		<polygon clip-path="url(#SVGID_4_)" fill="#CEEAAC" points="423,252 418,259 422,257 		"/>
		<rect x="4" y="531" clip-path="url(#SVGID_4_)" fill="#7F5F34" width="629" height="12"/>
		<path clip-path="url(#SVGID_4_)" fill="#332B01" d="M449,219c0,0,2-4,7-1c0,0,7-5,10-1s2,3,2,3s0,8-4,11c0,0-1,5-4,7
			C460,238,459,222,449,219"/>
		<path clip-path="url(#SVGID_4_)" fill="#322F3D" d="M118.98,235.5c0,0,0.02,4.5,3.02,16.5l3,5l-4,1l-2-4c0,0-25-19-1-34l10-4
			c0,0,11-19,23-7c0,0,4,6-5,11c0,0-6,9.33-17.5,6.67L118.98,235.5z"/>
		<path clip-path="url(#SVGID_4_)" fill="#322F3D" d="M513.08,234.44L519,219c0,0,8-14,22-7c0,0,14,6,9,21l-5,15l1.16-17.58
			c0,0-0.66-3.42-3.41-4.92L528,220.75c0,0-5.48-0.75-6.24,2.75L513,236"/>
		<path clip-path="url(#SVGID_4_)" fill="#CC4D40" d="M456,220c0,0,6,3,5,6C461,226,464,219,456,220"/>
		<path clip-path="url(#SVGID_4_)" fill="#CC4D40" d="M463,217c0,0,3,0,2,3c0,0,3,4,1,6c0,0-1-7-5-8C461,218,459,216,463,217"/>
		<path clip-path="url(#SVGID_4_)" fill="#CC4D40" d="M461,229c0,0,5,0,1,5l-1.89,2.97c0,0,0.89-6.97-1.11-8.97S462,225,461,229"/>
		<path clip-path="url(#SVGID_4_)" fill="#8C6254" d="M265,262c0,0-58,32-57,70l-4.3,12.5c0,0,24.76-8.34,38.03-27.42l6.68-9.58
			c0,0,25.59-8.5,31.59-12.5l-11,17c0,0,39,5,41,15c0,0,42-12,52,0l-4-12l1-2c0,0,30,30,47,9c0,0-17,0-35-17c0,0-31-5-38-30
			c0,0-17-21-23,4c0,0-14,6-24-13C286,266,278,249,265,262"/>
		<path clip-path="url(#SVGID_4_)" fill="#8C6254" d="M353,166c0,0-24,28-3,59c0,0,12,6,8,11c0,0-21-5-34,10s-33,14-38,7s8-11,8-11"
			/>
		<path clip-path="url(#SVGID_4_)" fill="#1E160A" d="M272,213c0,0-5,3,0,5c0,0,1,6,4,6c0,0,6,8,10,8c0,0,3,7-3,9c0,0,11,4,15-8
			c0,0-2,15-10,16c0,0,18,3,20-14c0,0,4,3,0,8c0,0,9,0,11-13l2-27c0,0-16-15,0-32c0,0,10-5,10,2c0,0-1,18-6,20c0,0,9-1,11-8
			c0,0,2,2,1,5c0,0,12-9,9-24c0,0,11-3,16-16c0,0-3-36-49-33c0,0-36,4-42,15C271,132,231,178,272,213"/>
		<path clip-path="url(#SVGID_4_)" fill="#994D99" d="M272.5,129.98c0,0-15.5-0.98-17.5,2.02c0,0,8-19,20-22c0,0-6,0-8,2
			c0,0,8-13,20-15c0,0-5-2-9,1c0,0,4-11,17-7c0,0-1-9-9-8c0,0,13-8,38,9l1,1c0,0,2-9-10-16c0,0,17-2,29,15c0,0,4-11-5-13
			c0,0,18,1,18,21c0,0,0-21,18-18c0,0-14,6-5,19c0,0,4-10,15-8c0,0-11,8,2,18c0,0,0-7,3-7l1,6l4-1c0,0,8-7,5-11c0,0,10,3,7,23
			c0,0,3,0,5-9c0,0,7.33,30.97-31.84,32.99L368,143l-2,7c0,0-5-1-8-6c0,0,0,9-8,9c0,0,4-3,2-7c0,0-2,3-4,3c0,0,4-8-1-11l-3,5
			c0,0,3-8-5-11c0,0-12-2-13,4c0,0-2-7,5-12c0,0-15-3-19,5c0,0,0-6,4-8c0,0-12,8-8,19c0,0-4-4-4-9c0,0-5,3-1,13c0,0-7-3-7-11
			c0,0-4,5-2,11c0,0-7,1-7-13c0,0-11,3-10,12C277,143,271,137.96,272.5,129.98"/>
		<path clip-path="url(#SVGID_4_)" fill="#3F4972" d="M237,328c0,0-21,50,49,60l11-2c0,0,60,32,80-33c0,0,19,26,49,30
			c0,0,21-1,15,16l1,6c0,0,27.89-6,26.44,19.5L416,394c0,0-28-3-29,12c0,0-9,4-17,7c0,0-46,12-76-9c0,0-8,23-57,5c0,0-70,2-57-44
			c0,0,12,18,30,1C210,366,206,340,237,328"/>
		<path clip-path="url(#SVGID_4_)" fill="#3F4972" d="M251.95,408.5L227,431c0,0-1.66,10.1,9,3c3-2,18.15-25.5,18.15-25.5"/>
		<path clip-path="url(#SVGID_4_)" fill="#753277" d="M377.25,100.05c0,0-7.11,14.22,7.11,20.32c0,0,18.29,0,18.29-12.19
			c0,0-8.13,10.16-18.29,9.14C384.36,117.32,377.25,115.29,377.25,100.05"/>
		<path clip-path="url(#SVGID_4_)" fill="#753277" d="M393,130c0,0,14,4,17-4C410,126,405,130,393,130"/>
		<path clip-path="url(#SVGID_4_)" fill="#753277" d="M404.68,120.37c0,0-9.14,12.19-18.29,9.14c0,0,17.27-7.11,18.29-17.27
			C404.68,112.24,405.69,114.27,404.68,120.37"/>
		<path clip-path="url(#SVGID_4_)" fill="#753277" d="M362.01,97c0,0-5.08,15.24,16.26,24.38C378.26,121.38,363.02,107.16,362.01,97
			"/>
		<path clip-path="url(#SVGID_4_)" fill="#C19191" d="M539,396c-17-26-23-14-23-14c-26,7-28,60-28,60
			c-16.34,11.89-72.97-12.65-101.01-26.05L387,416l-4,1c-7,4-17,15-17,15c27,21,58.71,6.4,58.71,6.4l37.67,10.1l12.56,18.5
			l11.43,2.51c33.44-6.49,22.92-32.32,22.92-32.32c-2.45-10.77,6.54-19.03,6.54-19.03c20.12,6.91,23-19.47,23.23-22.06
			C539.04,396.06,539.02,396.03,539,396"/>
		<path clip-path="url(#SVGID_4_)" fill="#C19191" d="M212,425c-45.28,0-47,13-47,13c-1-10-24-26-24-26c-26-7-15-29-15-29l-2.4-3
			H121l-2.99-6.99l-6.51-8.13c-3.22-0.91-7.5-1.76-7.5,0.11c0,0-2,8,8,14l5,5c0,0-4,1-6-1c0,0-15-12-20-2c0,0-3,10,18,6l-16,6
			c0,0-5,11,7,6l-4,6c0,0,5,8,10,0c0,0,6,29,26,19c0,0,10,7,9,18c0,0-7,27,27,29l11-4l10-20l36-15c0,0,3.45-4.31,4.4-10.38
			C220.48,423.55,213.34,425,212,425"/>
		<path clip-path="url(#SVGID_4_)" fill="#C19191" d="M199.33,408.5c0,0,26.67-0.5,19.67,27.5l8-5c0,0,12-33-21.5-26L199.33,408.5z"
			/>
		<path clip-path="url(#SVGID_4_)" fill="#C19191" d="M421.5,398.23L416,394c0,0-20,14-29,12v10l-4,1l1,11c0,0,16-20,24-22
			L421.5,398.23z"/>
	</g>
	<g clip-path="url(#SVGID_2_)">
		<defs>
			<rect id="SVGID_7_" width="645" height="539"/>
		</defs>
		<clipPath id="SVGID_8_">
			<use xlink:href="#SVGID_7_"  overflow="visible"/>
		</clipPath>
		<path clip-path="url(#SVGID_8_)" fill="none" stroke="#000000" stroke-width="2" stroke-miterlimit="10" d="M294,243
			c0,0-99,19-87,77l1,12c0,0-10,2-11,11l-1.89,3.75"/>
		<path clip-path="url(#SVGID_8_)" fill="none" stroke="#000000" stroke-width="2" stroke-miterlimit="10" d="M250,305
			c0,0-19,31-33,35"/>
		<path clip-path="url(#SVGID_8_)" fill="none" stroke="#000000" stroke-width="2" stroke-miterlimit="10" d="M380,145
			c-3,22,11,27,11,27c19,3,5,15,5,15c-6,3-3,4-3,4c6,2,2,7,2,7c-6,7-16,4-16,4c1,7,13,9,13,9c4,6-4,8-4,8l-2,3c-7,14-28,14-28,14
			c-21,1-13,12-13,12s48,32,52,39l5,1l4-11c0,0-5-3-2-8c0,0-3-10,7-8c0,0,4-4,7-2c0,0-3-20,6-19v4c0,0,1-4,5-3l-3,24c0,0,14,13-4,19
			c0,0,1,28-16,38c0,0-7,12-24,5l-23-14l2,14c0,0,37,16,47,17c0,0,57,16,35,56c0,0-3,7,11,6c0,0,19,0,16,16v3"/>
		<path clip-path="url(#SVGID_8_)" fill="none" stroke="#000000" stroke-width="2" stroke-miterlimit="10" d="M380,146
			c-2-4-13-3-13-3l-1,8l-4-2c0,9-16,18-16,18c2,13-9,23-9,23c1-4-1-5-1-5c-1,7-11,8-11,8c8-6,6-21,6-21c-10-9-16,9-16,9
			c-4,11,2,18,2,18c5,7,9,3,9,3l1,13c0,15-6,17-6,17c0-9-2-7-2-7c0,16-11,18-11,18"/>
		<path clip-path="url(#SVGID_8_)" d="M375.76,150.45c0.18,0.56,0.3,1.14,0.38,1.74c0.04,0.6,0.06,1.22-0.07,1.84
			c-0.11,0.63-0.35,1.25-0.73,1.8c-0.41,0.56-0.85,1.02-1.61,1.36l-0.13,0.03c-1.23,0.29-2.47,0.55-3.69,0.87l-1.77,0.64
			c-0.59,0.21-1.18,0.41-1.72,0.72l-1.66,0.83c-0.55,0.29-1.02,0.69-1.54,1.01l-0.76,0.51l-0.68,0.61l-0.68,0.62
			c-0.23,0.2-0.46,0.4-0.64,0.65c-1.7,1.76-2.84,3.99-3.6,6.34c-0.18,0.59-0.32,1.2-0.47,1.8c-0.09,0.61-0.23,1.23-0.29,1.85
			c-0.17,1.24-0.19,2.52-0.13,3.74l0,0.01l-0.76-0.34c1.69-1.02,3.42-1.86,5.22-2.61c1.79-0.74,3.64-1.36,5.52-1.84
			c1.88-0.5,3.82-0.78,5.76-0.92c1.95-0.14,3.92,0.01,5.85,0.3l-0.18,0.98c-1.85-0.28-3.73-0.43-5.61-0.29
			c-1.88,0.14-3.75,0.41-5.58,0.89c-1.83,0.47-3.63,1.07-5.38,1.79c-1.74,0.73-3.47,1.57-5.06,2.53l-0.63,0.38l-0.14-0.72l0-0.01
			c-0.48-2.67-0.37-5.37,0.28-8c0.65-2.62,1.91-5.15,3.74-7.19c0.41-0.56,0.97-0.96,1.46-1.44c0.25-0.23,0.5-0.47,0.76-0.69
			l0.85-0.58c0.57-0.37,1.11-0.8,1.72-1.1l1.84-0.86c0.6-0.32,1.26-0.48,1.9-0.68l1.92-0.57c1.3-0.26,2.62-0.46,3.92-0.69
			l-0.13,0.03c0.3-0.09,0.75-0.41,1.03-0.76c0.31-0.36,0.52-0.81,0.68-1.29c0.18-0.48,0.23-1.02,0.28-1.55l0.02-0.82l-0.04-0.84
			L375.76,150.45z"/>
		<path clip-path="url(#SVGID_8_)" d="M372.5,150.5c0.24,0.6,0.41,1.23,0.51,1.87c0.1,0.64,0.15,1.31,0.04,1.97
			c-0.1,0.66-0.35,1.32-0.78,1.88c-0.43,0.58-1.05,0.94-1.68,1.24l-0.27-0.75c0.55-0.2,1.1-0.44,1.5-0.88
			c0.4-0.43,0.68-0.97,0.84-1.57c0.16-0.6,0.18-1.24,0.15-1.87C372.78,151.76,372.68,151.12,372.5,150.5"/>
		<path clip-path="url(#SVGID_8_)" fill="none" stroke="#000000" stroke-width="2" stroke-miterlimit="10" d="M392,183
			c0,0-10,11-12,3"/>
		<path clip-path="url(#SVGID_8_)" d="M377,164.5c0,4.14-2.46,7.5-5.5,7.5s-5.5-3.36-5.5-7.5s2.46-7.5,5.5-7.5S377,160.36,377,164.5
			"/>
		<path clip-path="url(#SVGID_8_)" fill="#FFFFFF" d="M375,165.27c0,1.51-0.9,2.73-2,2.73s-2-1.22-2-2.73s0.9-2.73,2-2.73
			S375,163.77,375,165.27"/>
		<path clip-path="url(#SVGID_8_)" fill="none" stroke="#000000" stroke-miterlimit="10" d="M374.5,175.5c0,0-10,0-12,3"/>
		<path clip-path="url(#SVGID_8_)" fill="none" stroke="#000000" stroke-miterlimit="10" d="M329.5,180.5c0,0-9,0-9,11"/>
		<polygon clip-path="url(#SVGID_8_)" points="349.45,182.44 353.2,179.1 354.69,177.77 353.99,179.62 352.5,183.5 353.01,179.38 
			353.8,179.9 349.55,182.56 		"/>
		<path clip-path="url(#SVGID_8_)" fill="none" stroke="#000000" stroke-miterlimit="10" d="M374.5,203.5c0,0-2,3,1,9"/>
		
			<line clip-path="url(#SVGID_8_)" fill="none" stroke="#000000" stroke-miterlimit="10" x1="385.5" y1="176.5" x2="382.5" y2="181.5"/>
		<path clip-path="url(#SVGID_8_)" d="M387,179.5c0,0.83-0.67,1.5-1.5,1.5s-1.5-0.67-1.5-1.5s0.67-1.5,1.5-1.5S387,178.67,387,179.5
			"/>
		<path clip-path="url(#SVGID_8_)" fill="#F7E28B" d="M386,179.5c0,0.28-0.22,0.5-0.5,0.5s-0.5-0.22-0.5-0.5s0.22-0.5,0.5-0.5
			S386,179.22,386,179.5"/>
		
			<line clip-path="url(#SVGID_8_)" fill="none" stroke="#000000" stroke-miterlimit="10" x1="378" y1="196" x2="374.03" y2="204.76"/>
		<path clip-path="url(#SVGID_8_)" fill="none" stroke="#000000" stroke-width="2" stroke-miterlimit="10" d="M433,430
			c-27,28-65,4-65,4c0-7,13-15,13-15c6-1,4-4,4-4c2-29,29-22,29-22s54,29,61,34c0,0,16-41,33-55c0,0,6-12,0-23c0,0,18-7,15,11l-6,14
			c0,0,4,2,5-2l4-13c0,0,11-7,11,1s-4,8-9,13l-2,4c0,0,2,1,5-2c0,0,15-13,20-4c0,0,3,8-9,9c0,0-7-2-10,0l18,3c0,0,6,4,1,7
			c0,0-2,4-12-3l10,9c0,0-2,9-10,1c0,0,0,27-23,22c0,0-7-2-7,20c0,0,4,17-6,23c0,0-12,13-29,4c0,0-8-15-14-19l-36-9"/>
		<path clip-path="url(#SVGID_8_)" fill="none" stroke="#000000" stroke-width="2" stroke-miterlimit="10" d="M517,380
			c0,0,8,23-18,28"/>
		<path clip-path="url(#SVGID_8_)" fill="none" stroke="#000000" stroke-width="2" stroke-miterlimit="10" d="M427.52,252.82
			L457,239c0,0,5-2,1-11c0,0-6-10-11-8l-18.72,26.78"/>
		<path clip-path="url(#SVGID_8_)" fill="none" stroke="#000000" stroke-width="2" stroke-miterlimit="10" d="M426.5,266.5
			c0,0-2-7-10,0l-6,5c0,0,5,6,14-1"/>
		<path clip-path="url(#SVGID_8_)" fill="none" stroke="#000000" stroke-width="2" stroke-miterlimit="10" d="M410.5,261.5
			c0,0-2,6,1,8"/>
		
			<line clip-path="url(#SVGID_8_)" fill="none" stroke="#000000" stroke-miterlimit="10" x1="417.5" y1="262.5" x2="415.73" y2="267.14"/>
		<path clip-path="url(#SVGID_8_)" d="M404.89,268.55c0.1,0.19,0.36,0.53,0.6,0.77c0.25,0.26,0.53,0.5,0.82,0.72
			c0.6,0.43,1.28,0.77,2,1.01l0,0l-1.29,0.71c0.21-0.62,0.38-1.36,0.51-2.07c0.13-0.72,0.23-1.45,0.29-2.18
			c0.13-1.47,0.11-2.97-0.05-4.46l0.45-0.09c0.42,1.47,0.7,3,0.83,4.54c0.07,0.77,0.09,1.55,0.09,2.34c-0.01,0.8-0.04,1.55-0.17,2.4
			l-0.16,1.08l-1.13-0.37l0,0c-0.89-0.3-1.75-0.73-2.54-1.29c-0.39-0.29-0.76-0.6-1.1-0.96c-0.35-0.38-0.63-0.7-0.94-1.26
			L404.89,268.55z"/>
		<polyline clip-path="url(#SVGID_8_)" fill="#FFFFFF" points="423,252 417,259 422,257 		"/>
		<polyline clip-path="url(#SVGID_8_)" fill="none" stroke="#000000" stroke-width="2" stroke-miterlimit="10" points="423,252 
			417,259 422,257 		"/>
		
			<line clip-path="url(#SVGID_8_)" fill="none" stroke="#000000" stroke-miterlimit="10" x1="421.5" y1="262.5" x2="423.5" y2="247.5"/>
		<path clip-path="url(#SVGID_8_)" fill="none" stroke="#000000" stroke-width="2" stroke-miterlimit="10" d="M459.55,237.67
			C464.1,234.33,464,231,464,231c4-3,4-5,4-5c1-2,0-2,0-6s-3-3-3-3c-1-3-9,1-9,1c-3-3-7,0-7,0l-2,2"/>
		<path clip-path="url(#SVGID_8_)" fill="none" stroke="#000000" stroke-miterlimit="10" d="M457.5,219.5c0,0,5,1,4,4"/>
		<path clip-path="url(#SVGID_8_)" fill="none" stroke="#000000" stroke-miterlimit="10" d="M465.5,221.5c0,0,2,3,0,4"/>
		<path clip-path="url(#SVGID_8_)" fill="none" stroke="#000000" stroke-width="2" stroke-miterlimit="10" d="M269.5,312.5L280,295
			c0,0-26,18-49,7"/>
		<path clip-path="url(#SVGID_8_)" d="M272.33,273.96c0.61,3.69,1.54,7.37,2.87,10.83c0.67,1.73,1.47,3.41,2.47,4.9
			c1,1.48,2.25,2.81,3.72,3.38l-0.79,1.84c-2.03-0.96-3.33-2.66-4.34-4.33c-1-1.71-1.72-3.52-2.31-5.34
			c-1.17-3.67-1.87-7.41-2.28-11.2L272.33,273.96z"/>
		<path clip-path="url(#SVGID_8_)" fill="none" stroke="#000000" stroke-width="2" stroke-miterlimit="10" d="M228,282c0,0-1,9,5,12
			"/>
		<path clip-path="url(#SVGID_8_)" d="M327.35,279.04c-0.05,1.96,0.33,4.01,0.94,5.92c0.26,0.98,0.69,1.9,1.06,2.84
			c0.41,0.92,0.91,1.81,1.36,2.71c2.01,3.52,4.74,6.59,7.77,9.27c1.47,1.4,3.14,2.57,4.76,3.78c0.79,0.64,1.7,1.11,2.55,1.67
			l2.59,1.61c1.81,0.93,3.59,1.91,5.42,2.8l5.6,2.44l-0.76,1.85l-5.65-2.64c-1.84-0.96-3.64-2.01-5.46-3.01l-2.61-1.72
			c-0.85-0.59-1.77-1.1-2.56-1.78c-1.64-1.29-3.31-2.53-4.79-4.01c-3.04-2.84-5.77-6.08-7.75-9.77c-0.44-0.95-0.94-1.87-1.33-2.84
			c-0.36-0.98-0.77-1.94-1.01-2.97c-0.57-2.02-0.92-4.08-0.8-6.23L327.35,279.04z"/>
		<path clip-path="url(#SVGID_8_)" fill="none" stroke="#000000" stroke-width="2" stroke-miterlimit="10" d="M315,302
			c0,0,3,17-5,22"/>
		<path clip-path="url(#SVGID_8_)" fill="none" stroke="#000000" stroke-width="0.92" stroke-miterlimit="10" d="M457.01,426.74
			c3.81-1.41,8.04,0.55,9.45,4.36"/>
		<path clip-path="url(#SVGID_8_)" fill="none" stroke="#000000" stroke-width="2" stroke-miterlimit="10" d="M225.22,432.5
			c-11.16,5.34-34.69,13.17-34.69,13.17c-5.49,4.68-11.67,20.51-11.67,20.51c-15.82,10.94-29.27-0.56-29.27-0.56
			c-10.64-4.78-8.66-22.13-8.66-22.13c-2.59-21.85-9.3-19.04-9.3-19.04c-22.25,7.67-25.43-19.14-25.43-19.14
			c-7,8.89-10.05,0.18-10.05,0.18l8.87-10.11c-9.11,8.13-11.56,4.39-11.56,4.39c-5.32-2.39,0.17-7.07,0.17-7.07l17.52-5.1
			c-3.22-1.63-9.93,1.18-9.93,1.18c-12.04,0.42-10-7.88-10-7.88c3.91-9.53,20.33,1.62,20.33,1.62c3.33,2.63,5.2,1.4,5.2,1.4
			l-2.46-3.74c-5.55-4.38-9.53-3.91-10.47-11.85c-0.94-7.94,10.81-2.29,10.81-2.29l5.5,12.44c1.46,3.85,5.2,1.4,5.2,1.4l-7.6-13.2
			c-5.1-17.52,13.6-12.69,13.6-12.69c-4.66,11.63,2.71,22.84,2.71,22.84c18.53,11.9,39.24,50.74,39.24,50.74
			C179.64,421.79,203,406,203,406s23-9,27,12C230,418,230.43,430.01,225.22,432.5z"/>
		<path clip-path="url(#SVGID_8_)" fill="none" stroke="#000000" stroke-width="2" stroke-miterlimit="10" d="M126.04,385.84
			c0,0-5.24,23.78,21.17,25.69"/>
		<path clip-path="url(#SVGID_8_)" fill="none" stroke="#000000" stroke-width="0.92" stroke-miterlimit="10" d="M187.68,439.51
			c3.95,0.95,7.92-1.49,8.87-5.44"/>
		<path clip-path="url(#SVGID_8_)" fill="none" stroke="#000000" stroke-width="0.92" stroke-miterlimit="10" d="M191.11,425.2
			c-3.95-0.95-7.92,1.49-8.87,5.44"/>
		<path clip-path="url(#SVGID_8_)" fill="none" stroke="#000000" stroke-width="2" stroke-miterlimit="10" d="M362,327
			c0,0-29-15-52,0c0,0-25.8-23-64.4-14.5"/>
		<path clip-path="url(#SVGID_8_)" fill="none" stroke="#000000" stroke-width="2" stroke-miterlimit="10" d="M225,431
			c0,0,10,22,25-3c0,0,6-6,9,6c0,0,8,23,30,2c0,0,14-13,21,5c0,0,15,26,33-2c0,0,8-8,25-5"/>
		<path clip-path="url(#SVGID_8_)" fill="none" stroke="#000000" stroke-width="2" stroke-miterlimit="10" d="M141.98,383.34
			L147,380c14-27,55-35,55-35l17-5"/>
		<path clip-path="url(#SVGID_8_)" fill="none" stroke="#000000" stroke-width="2" stroke-miterlimit="10" d="M107.69,411.53
			c0,0-49.69,11.47-47.69,27.47v23c0,0-6,3-6,31c0,0,3,22,6,16l17-40c0,0,14.44-39.87,62.22-34.93"/>
		<path clip-path="url(#SVGID_8_)" fill="none" stroke="#000000" stroke-width="2" stroke-miterlimit="10" d="M404,307
			c0,0,0-12-7-20"/>
		<path clip-path="url(#SVGID_8_)" d="M273.18,212.77c1.71,1.59,3.8,3.01,5.94,4.14c2.17,1.14,4.49,1.99,6.89,2.49
			c1.2,0.29,2.43,0.37,3.66,0.47c0.62,0.01,1.23-0.02,1.85-0.03c0.31-0.01,0.62,0,0.93-0.04l0.92-0.14
			c2.48-0.25,4.84-1.16,7.13-2.16c-2.22,1.15-4.54,2.24-7.05,2.66l-0.93,0.2c-0.31,0.06-0.63,0.07-0.95,0.1
			c-0.63,0.05-1.27,0.13-1.91,0.16c-1.27-0.02-2.56-0.02-3.82-0.24c-2.54-0.35-5.02-1.08-7.38-2.12c-2.36-1.07-4.56-2.34-6.65-4.02
			L273.18,212.77z"/>
		<path clip-path="url(#SVGID_8_)" fill="none" stroke="#000000" stroke-width="2" stroke-miterlimit="10" d="M333,166c0,0-9,8-19,2
			"/>
		
			<line clip-path="url(#SVGID_8_)" fill="none" stroke="#000000" stroke-width="2" stroke-miterlimit="10" x1="333" y1="196" x2="331" y2="200"/>
		<path clip-path="url(#SVGID_8_)" d="M324,250c1.21-1.5,2.73-2.76,4.43-3.72c1.71-0.95,3.61-1.63,5.59-1.83
			c0.49-0.09,0.99-0.06,1.49-0.09l0.75-0.02l0.75,0.07c0.5,0.05,1,0.08,1.49,0.16l1.46,0.33c0.5,0.09,0.97,0.25,1.44,0.43l1.42,0.51
			c0.91,0.4,1.79,0.87,2.7,1.3l-1.05,1.7c-0.79-0.47-1.57-0.97-2.39-1.42l-1.26-0.58c-0.42-0.2-0.84-0.39-1.29-0.51l-1.32-0.42
			c-0.45-0.12-0.9-0.17-1.36-0.27l-0.68-0.13l-0.69-0.04c-0.46-0.01-0.93-0.09-1.39-0.04c-1.86,0.02-3.71,0.51-5.44,1.28
			C326.94,247.51,325.33,248.61,324,250"/>
		<path clip-path="url(#SVGID_8_)" fill="none" stroke="#000000" stroke-width="2" stroke-miterlimit="10" d="M350,227
			c0,0-14-2-16-14"/>
		
			<line clip-path="url(#SVGID_8_)" fill="none" stroke="#000000" stroke-miterlimit="10" x1="127.5" y1="368.5" x2="123.5" y2="370.5"/>
		
			<line clip-path="url(#SVGID_8_)" fill="none" stroke="#000000" stroke-miterlimit="10" x1="116.5" y1="374.5" x2="112.5" y2="377.5"/>
		
			<line clip-path="url(#SVGID_8_)" fill="none" stroke="#000000" stroke-miterlimit="10" x1="103.5" y1="383.5" x2="102.74" y2="388.22"/>
		
			<line clip-path="url(#SVGID_8_)" fill="none" stroke="#000000" stroke-miterlimit="10" x1="100.5" y1="394.5" x2="101.43" y2="398.23"/>
		
			<line clip-path="url(#SVGID_8_)" fill="none" stroke="#000000" stroke-miterlimit="10" x1="103.5" y1="401.5" x2="105.56" y2="406.08"/>
		
			<line clip-path="url(#SVGID_8_)" fill="none" stroke="#000000" stroke-miterlimit="10" x1="513.5" y1="370.5" x2="515.5" y2="371.5"/>
		
			<line clip-path="url(#SVGID_8_)" fill="none" stroke="#000000" stroke-miterlimit="10" x1="523.5" y1="373.5" x2="525.5" y2="375.5"/>
		
			<line clip-path="url(#SVGID_8_)" fill="none" stroke="#000000" stroke-miterlimit="10" x1="534.5" y1="375.5" x2="534.5" y2="377.5"/>
		
			<line clip-path="url(#SVGID_8_)" fill="none" stroke="#000000" stroke-miterlimit="10" x1="541.5" y1="383.5" x2="540.5" y2="386.5"/>
		
			<line clip-path="url(#SVGID_8_)" fill="none" stroke="#000000" stroke-miterlimit="10" x1="541.5" y1="392.5" x2="539.5" y2="395.5"/>
		<path clip-path="url(#SVGID_8_)" fill="none" stroke="#000000" stroke-miterlimit="10" d="M402.5,400.5c0,0,3,1,3,4"/>
		<path clip-path="url(#SVGID_8_)" fill="none" stroke="#000000" stroke-miterlimit="10" d="M408.5,399.5c0,0,1,4,0,6"/>
		<path clip-path="url(#SVGID_8_)" fill="none" stroke="#000000" stroke-miterlimit="10" d="M400.5,406.5c0,0,0,1,1,3"/>
		
			<line clip-path="url(#SVGID_8_)" fill="none" stroke="#000000" stroke-miterlimit="10" x1="405.5" y1="409.5" x2="406.5" y2="412.5"/>
		<path clip-path="url(#SVGID_8_)" fill="none" stroke="#000000" stroke-miterlimit="10" d="M396.5,412.5c0,0,4,3,7,3"/>
		<path clip-path="url(#SVGID_8_)" fill="none" stroke="#000000" stroke-miterlimit="10" d="M392.5,416.5c0,0-3,0,0,2"/>
		<path clip-path="url(#SVGID_8_)" fill="none" stroke="#000000" stroke-miterlimit="10" d="M391.5,422.5c0,0,1,3,2,4"/>
		<path clip-path="url(#SVGID_8_)" fill="none" stroke="#000000" stroke-miterlimit="10" d="M397.5,419.5c0,0,0,5,1,6"/>
		<path clip-path="url(#SVGID_8_)" fill="none" stroke="#000000" stroke-miterlimit="10" d="M400.5,417.5c0,0,0,3,2,5"/>
		<path clip-path="url(#SVGID_8_)" fill="none" stroke="#000000" stroke-miterlimit="10" d="M384.5,425.5c0,0,0,1,2,3"/>
		<path clip-path="url(#SVGID_8_)" fill="none" stroke="#000000" stroke-miterlimit="10" d="M391.5,431.5c0,0-1,2,2,3"/>
		<path clip-path="url(#SVGID_8_)" fill="none" stroke="#000000" stroke-miterlimit="10" d="M398.5,428.5c0,0,1,4,3,5"/>
		<path clip-path="url(#SVGID_8_)" fill="none" stroke="#000000" stroke-miterlimit="10" d="M404.5,426.5c0,0-1,4,1,5"/>
		<path clip-path="url(#SVGID_8_)" fill="none" stroke="#000000" stroke-miterlimit="10" d="M408.5,419.5c0,0-2,6,0,6"/>
		<path clip-path="url(#SVGID_8_)" fill="none" stroke="#000000" stroke-miterlimit="10" d="M410.5,411.5c0,0-2,2,0,4"/>
		<path clip-path="url(#SVGID_8_)" fill="none" stroke="#000000" stroke-miterlimit="10" d="M413.5,401.5c0,0-2,3,0,5"/>
		<path clip-path="url(#SVGID_8_)" fill="none" stroke="#000000" stroke-miterlimit="10" d="M420.5,401.5c0,0-2,3,0,4"/>
		<path clip-path="url(#SVGID_8_)" fill="none" stroke="#000000" stroke-miterlimit="10" d="M373.5,430.5c0,0-1,2,1,3"/>
		<path clip-path="url(#SVGID_8_)" fill="none" stroke="#000000" stroke-miterlimit="10" d="M377.5,425.5c0,0-1,1,0,3"/>
		<path clip-path="url(#SVGID_8_)" fill="none" stroke="#000000" stroke-miterlimit="10" d="M381.5,431.5c0,0,0,3,1,4"/>
		<path clip-path="url(#SVGID_8_)" fill="none" stroke="#000000" stroke-miterlimit="10" d="M387.5,435.5c0,0,0,1,2,3"/>
		
			<line clip-path="url(#SVGID_8_)" fill="none" stroke="#000000" stroke-miterlimit="10" x1="395.5" y1="437.5" x2="397.5" y2="441.5"/>
		<path clip-path="url(#SVGID_8_)" fill="none" stroke="#000000" stroke-miterlimit="10" d="M377.5,437.5c0,0-2,3-2,4"/>
		
			<line clip-path="url(#SVGID_8_)" fill="none" stroke="#000000" stroke-miterlimit="10" x1="383.5" y1="439.5" x2="382.5" y2="444.5"/>
		
			<line clip-path="url(#SVGID_8_)" fill="none" stroke="#000000" stroke-miterlimit="10" x1="386.5" y1="439.5" x2="387.5" y2="446.5"/>
		
			<line clip-path="url(#SVGID_8_)" fill="none" stroke="#000000" stroke-miterlimit="10" x1="402.5" y1="439.5" x2="404.5" y2="436.5"/>
		
			<line clip-path="url(#SVGID_8_)" fill="none" stroke="#000000" stroke-miterlimit="10" x1="408.5" y1="433.5" x2="410.5" y2="436.5"/>
		<path clip-path="url(#SVGID_8_)" fill="none" stroke="#000000" stroke-miterlimit="10" d="M414.5,419.5c0,0-1,2,0,3"/>
		
			<line clip-path="url(#SVGID_8_)" fill="none" stroke="#000000" stroke-miterlimit="10" x1="415.5" y1="408.5" x2="415.5" y2="411.5"/>
		<path clip-path="url(#SVGID_8_)" fill="none" stroke="#000000" stroke-miterlimit="10" d="M413.5,396.5c0,0,4-4,5-4"/>
		<path clip-path="url(#SVGID_8_)" fill="none" stroke="#000000" stroke-miterlimit="10" d="M418.5,397.5c0,0,5-2,6-2"/>
		
			<line clip-path="url(#SVGID_8_)" fill="none" stroke="#000000" stroke-miterlimit="10" x1="427.5" y1="398.5" x2="423.5" y2="400.5"/>
		
			<line clip-path="url(#SVGID_8_)" fill="none" stroke="#000000" stroke-miterlimit="10" x1="426.5" y1="408.5" x2="429.5" y2="408.5"/>
		
			<line clip-path="url(#SVGID_8_)" fill="none" stroke="#000000" stroke-miterlimit="10" x1="426.5" y1="405.5" x2="429.5" y2="405.5"/>
		<path clip-path="url(#SVGID_8_)" fill="none" stroke="#000000" stroke-miterlimit="10" d="M423.5,412.5c0,0,3-1,5-1"/>
		
			<line clip-path="url(#SVGID_8_)" fill="none" stroke="#000000" stroke-miterlimit="10" x1="420.5" y1="415.5" x2="422.5" y2="416.5"/>
		<path clip-path="url(#SVGID_8_)" fill="none" stroke="#000000" stroke-miterlimit="10" d="M419.5,418.5c0,0-1,2,2,3"/>
		
			<line clip-path="url(#SVGID_8_)" fill="none" stroke="#000000" stroke-miterlimit="10" x1="418.5" y1="424.5" x2="421.5" y2="427.5"/>
		
			<line clip-path="url(#SVGID_8_)" fill="none" stroke="#000000" stroke-miterlimit="10" x1="417.5" y1="428.5" x2="419.5" y2="433.5"/>
		
			<line clip-path="url(#SVGID_8_)" fill="none" stroke="#000000" stroke-miterlimit="10" x1="414.5" y1="434.5" x2="415.5" y2="437.5"/>
		
			<line clip-path="url(#SVGID_8_)" fill="none" stroke="#000000" stroke-miterlimit="10" x1="411.5" y1="438.5" x2="412.5" y2="440.5"/>
		
			<line clip-path="url(#SVGID_8_)" fill="none" stroke="#000000" stroke-miterlimit="10" x1="408.5" y1="440.5" x2="408.5" y2="445.5"/>
		
			<line clip-path="url(#SVGID_8_)" fill="none" stroke="#000000" stroke-miterlimit="10" x1="405.5" y1="440.5" x2="405.5" y2="445.5"/>
		
			<line clip-path="url(#SVGID_8_)" fill="none" stroke="#000000" stroke-miterlimit="10" x1="416.5" y1="439.5" x2="417.5" y2="443.5"/>
		
			<line clip-path="url(#SVGID_8_)" fill="none" stroke="#000000" stroke-miterlimit="10" x1="417.5" y1="436.5" x2="418.5" y2="440.15"/>
		
			<line clip-path="url(#SVGID_8_)" fill="none" stroke="#000000" stroke-miterlimit="10" x1="419.5" y1="435.5" x2="422.5" y2="440.5"/>
		
			<line clip-path="url(#SVGID_8_)" fill="none" stroke="#000000" stroke-miterlimit="10" x1="422.5" y1="433.5" x2="424.5" y2="435.5"/>
		
			<line clip-path="url(#SVGID_8_)" fill="none" stroke="#000000" stroke-miterlimit="10" x1="425.5" y1="423.5" x2="428.5" y2="424.5"/>
		
			<line clip-path="url(#SVGID_8_)" fill="none" stroke="#000000" stroke-miterlimit="10" x1="426.5" y1="420.5" x2="432.5" y2="419.5"/>
		
			<line clip-path="url(#SVGID_8_)" fill="none" stroke="#000000" stroke-miterlimit="10" x1="427.5" y1="416.5" x2="431.5" y2="414.5"/>
		
			<line clip-path="url(#SVGID_8_)" fill="none" stroke="#000000" stroke-miterlimit="10" x1="432.5" y1="408.5" x2="436.5" y2="409.5"/>
		
			<line clip-path="url(#SVGID_8_)" fill="none" stroke="#000000" stroke-miterlimit="10" x1="438.5" y1="416.5" x2="441.5" y2="416.5"/>
		
			<line clip-path="url(#SVGID_8_)" fill="none" stroke="#000000" stroke-miterlimit="10" x1="438.5" y1="421.5" x2="440.5" y2="422.5"/>
		
			<line clip-path="url(#SVGID_8_)" fill="none" stroke="#000000" stroke-miterlimit="10" x1="435.5" y1="430.5" x2="437.5" y2="432.5"/>
		
			<line clip-path="url(#SVGID_8_)" fill="none" stroke="#000000" stroke-miterlimit="10" x1="216.5" y1="411.5" x2="219.5" y2="410.5"/>
		
			<line clip-path="url(#SVGID_8_)" fill="none" stroke="#000000" stroke-miterlimit="10" x1="213.5" y1="408.5" x2="210.5" y2="408.5"/>
		
			<line clip-path="url(#SVGID_8_)" fill="none" stroke="#000000" stroke-miterlimit="10" x1="219.5" y1="414.5" x2="217.5" y2="415.5"/>
		
			<line clip-path="url(#SVGID_8_)" fill="none" stroke="#000000" stroke-miterlimit="10" x1="224.5" y1="416.5" x2="219.5" y2="417.5"/>
		
			<line clip-path="url(#SVGID_8_)" fill="none" stroke="#000000" stroke-miterlimit="10" x1="227.5" y1="419.5" x2="224.5" y2="421.5"/>
		
			<line clip-path="url(#SVGID_8_)" fill="none" stroke="#000000" stroke-miterlimit="10" x1="225.5" y1="424.5" x2="224.5" y2="427.5"/>
		
			<line clip-path="url(#SVGID_8_)" fill="none" stroke="#000000" stroke-miterlimit="10" x1="207.5" y1="406.5" x2="205.5" y2="407.5"/>
		
			<line clip-path="url(#SVGID_8_)" fill="none" stroke="#000000" stroke-miterlimit="10" x1="210.5" y1="413.5" x2="206.5" y2="415.5"/>
		<path clip-path="url(#SVGID_8_)" fill="none" stroke="#000000" stroke-miterlimit="10" d="M136.5,365.5c0,0-1,5-5,6"/>
		
			<line clip-path="url(#SVGID_8_)" fill="none" stroke="#000000" stroke-miterlimit="10" x1="136.5" y1="371.5" x2="132.3" y2="373.5"/>
		<path clip-path="url(#SVGID_8_)" d="M272.02,403.94c3.41,0.96,7.07,0.86,10.39-0.14c3.32-1.02,6.26-3,8.53-5.55
			c2.3-2.54,4.02-5.57,5.35-8.74c1.32-3.19,2.26-6.54,2.98-9.94l3.45,0.86c-1.04,3.5-2.31,6.94-3.98,10.21
			c-1.69,3.26-3.8,6.35-6.49,8.89c-2.67,2.55-6.02,4.42-9.6,5.21c-3.57,0.77-7.31,0.55-10.67-0.69L272.02,403.94z"/>
		<path clip-path="url(#SVGID_8_)" d="M312,406c-1.72-0.18-3.4-0.7-5.01-1.37c-1.61-0.68-3.15-1.54-4.59-2.54
			c-1.42-1.04-2.79-2.16-4-3.45c-0.65-0.61-1.18-1.32-1.77-1.98c-0.56-0.69-1.07-1.42-1.6-2.13l1.7-1.06
			c0.44,0.71,0.85,1.44,1.31,2.14c0.5,0.67,0.93,1.4,1.49,2.03c1.03,1.34,2.23,2.52,3.49,3.65c1.29,1.09,2.69,2.07,4.2,2.88
			C308.71,404.98,310.31,405.66,312,406"/>
		<path clip-path="url(#SVGID_8_)" fill="none" stroke="#000000" stroke-width="2" stroke-miterlimit="10" d="M335,410
			c0,0,19,3,31-14"/>
		<path clip-path="url(#SVGID_8_)" fill="none" stroke="#000000" stroke-width="2" stroke-miterlimit="10" d="M369,337
			c0,0,17,16,6,39"/>
		<path clip-path="url(#SVGID_8_)" fill="none" stroke="#000000" stroke-width="2" stroke-miterlimit="10" d="M369,405
			c0,0,27,8,48-13"/>
		<path clip-path="url(#SVGID_8_)" d="M179.13,383.02c-0.26,2.62,0.08,5.31,0.9,7.79c0.82,2.49,2.13,4.79,3.85,6.74
			c0.93,0.91,1.79,1.88,2.87,2.61c0.53,0.37,1,0.83,1.58,1.13l1.68,0.97c0.54,0.35,1.16,0.58,1.75,0.84l1.78,0.77
			c1.24,0.41,2.49,0.78,3.72,1.17l-0.98,1.67l0,0c-1.08-1.1-2.06-2.22-3.03-3.39c-0.97-1.16-1.88-2.37-2.74-3.63
			c-0.86-1.25-1.65-2.58-2.3-4c-0.63-1.42-1.2-2.95-1.22-4.69h2c0.01,1.25,0.47,2.59,1.04,3.86c0.58,1.28,1.32,2.52,2.13,3.71
			c0.81,1.19,1.69,2.36,2.62,3.48c0.93,1.12,1.91,2.23,2.91,3.25l0,0l2.9,3.12l-3.88-1.45c-1.28-0.48-2.57-0.94-3.84-1.44
			l-1.84-0.92c-0.61-0.31-1.24-0.58-1.8-0.99l-1.72-1.13c-0.59-0.35-1.07-0.86-1.61-1.29c-1.09-0.83-1.97-1.91-2.89-2.92
			c-3.42-4.31-4.96-9.96-4.15-15.3L179.13,383.02z"/>
		<path clip-path="url(#SVGID_8_)" fill="none" stroke="#000000" stroke-miterlimit="10" d="M216.5,356.5c0,0-1-10,8-19.5"/>
		<path clip-path="url(#SVGID_8_)" fill="none" stroke="#614B63" stroke-miterlimit="10" d="M176.5,293.5c0,0,11,8,0.87,27.94
			c-0.68,1.33-1.14,2.77-1.87,4.06c0,0-6,9-5,19"/>
		<path clip-path="url(#SVGID_8_)" fill="none" stroke="#614B63" stroke-miterlimit="10" d="M145.5,221.5c0,0,2,21,8,30
			c0,0,3,8-12,16l5,7c0,0,14,4,19,8c0,0,24-4,32,28c0,0,9.25,8.96,10.12,16.98"/>
		<path clip-path="url(#SVGID_8_)" fill="none" stroke="#614B63" stroke-miterlimit="10" d="M96.5,377.5c-5-17,1-35,1-35
			c3-4,4-14,4-14c-2-22,17-34,17-34c1-5,8-8,8-8c5-7,1-18,1-18l-3-5c0,0-6,3-8-1c0,0-3-6,2-9"/>
		<path clip-path="url(#SVGID_8_)" fill="none" stroke="#614B63" stroke-miterlimit="10" d="M130.5,300.5
			c0,0-4.22,28.69-15.76,41.11c-1.02,1.1-2.1,2.08-3.24,2.89"/>
		<path clip-path="url(#SVGID_8_)" fill="none" stroke="#614B63" stroke-miterlimit="10" d="M112.5,364.5c0,0,4-6,2-23"/>
		<path clip-path="url(#SVGID_8_)" fill="none" stroke="#614B63" stroke-miterlimit="10" d="M160.5,315.5c0,0-2,18-17,23
			c0,0-12,2-19-8"/>
		<path clip-path="url(#SVGID_8_)" fill="none" stroke="#614B63" stroke-miterlimit="10" d="M162.5,327.5c0,0,10.04,2.91,15.52-8.04
			l11.48,16.04"/>
		<path clip-path="url(#SVGID_8_)" fill="none" stroke="#000000" stroke-miterlimit="10" d="M162.5,364.5l4-13c0,0,2-8,6-8h3
			c0,0,7-8,12-7c0,0,6-4,10,1"/>
		<polyline clip-path="url(#SVGID_8_)" fill="none" stroke="#614B63" stroke-miterlimit="10" points="121.5,334.5 129.5,339.5 
			130.5,353.5 		"/>
		<path clip-path="url(#SVGID_8_)" fill="none" stroke="#614B63" stroke-miterlimit="10" d="M153.5,338.5c0,0-2,14,4,10"/>
		<path clip-path="url(#SVGID_8_)" fill="none" stroke="#614B63" stroke-miterlimit="10" d="M155.5,353.5c0,0-3,11,2,10"/>
		
			<line clip-path="url(#SVGID_8_)" fill="none" stroke="#614B63" stroke-miterlimit="10" x1="160.5" y1="337.5" x2="160.5" y2="344.5"/>
		
			<line clip-path="url(#SVGID_8_)" fill="none" stroke="#614B63" stroke-miterlimit="10" x1="160.5" y1="353.5" x2="160.5" y2="360.5"/>
		<path clip-path="url(#SVGID_8_)" fill="none" stroke="#614B63" stroke-miterlimit="10" d="M164.5,334.5c0,0,5,7,2,9"/>
		
			<line clip-path="url(#SVGID_8_)" fill="none" stroke="#614B63" stroke-miterlimit="10" x1="164.5" y1="350.5" x2="165.57" y2="354.52"/>
		<path clip-path="url(#SVGID_8_)" fill="none" stroke="#614B63" stroke-miterlimit="10" d="M150.5,289.5c0,0,7,4,7,11"/>
		<path clip-path="url(#SVGID_8_)" fill="none" stroke="#614B63" stroke-miterlimit="10" d="M123.5,260.5c0,0,2,8,12,5"/>
		<path clip-path="url(#SVGID_8_)" fill="none" stroke="#614B63" stroke-miterlimit="10" d="M131.5,249.5c0,0,5,9,17,1"/>
		
			<line clip-path="url(#SVGID_8_)" fill="none" stroke="#614B63" stroke-miterlimit="10" x1="134.5" y1="248.5" x2="129.5" y2="250.5"/>
		<path clip-path="url(#SVGID_8_)" fill="none" stroke="#614B63" stroke-miterlimit="10" d="M139.5,248.5c0,0,4-1,4-4c0,0-3-2-5-6"
			/>
		<path clip-path="url(#SVGID_8_)" fill="none" stroke="#614B63" stroke-miterlimit="10" d="M119.5,256.5c0,0-2,3,3,4"/>
		<path clip-path="url(#SVGID_8_)" fill="#614B63" d="M133.89,238.27c0.65,2.11,0.1,4.15-1.21,4.56c-1.32,0.4-2.92-0.98-3.56-3.09
			c-0.65-2.11-0.1-4.15,1.22-4.56C131.64,234.77,133.24,236.15,133.89,238.27"/>
		<path clip-path="url(#SVGID_8_)" fill="#614B63" d="M146.18,235.31c0.52,1.7,0.08,3.34-0.98,3.66c-1.06,0.33-2.34-0.79-2.86-2.48
			c-0.52-1.7-0.08-3.34,0.98-3.66C144.38,232.5,145.66,233.61,146.18,235.31"/>
		<path clip-path="url(#SVGID_8_)" fill="none" stroke="#614B63" stroke-miterlimit="10" d="M113.5,239.5c0,0,4-1,5-4"/>
		<path clip-path="url(#SVGID_8_)" fill="none" stroke="#614B63" stroke-miterlimit="10" d="M117.88,240.5c0,0-1.38,3-4.38,3"/>
		<path clip-path="url(#SVGID_8_)" fill="none" stroke="#614B63" stroke-miterlimit="10" d="M124.5,237.5c0,0,1-8,9-8"/>
		
			<line clip-path="url(#SVGID_8_)" fill="none" stroke="#614B63" stroke-miterlimit="10" x1="138.5" y1="232.5" x2="145.5" y2="230.5"/>
		<path clip-path="url(#SVGID_8_)" fill="none" stroke="#614B63" stroke-miterlimit="10" d="M129.5,285.5c0,0,5-4,11,1"/>
		<path clip-path="url(#SVGID_8_)" fill="none" stroke="#614B63" stroke-miterlimit="10" d="M145.5,286.5c0,0-2-2,2-4"/>
		<path clip-path="url(#SVGID_8_)" fill="none" stroke="#614B63" stroke-miterlimit="10" d="M522.42,274.08l-7.58-2.55
			c-7.07-2.38-10.86-10.04-8.48-17.1l11.05-32.81c2.97-8.83,12.55-13.58,21.38-10.61l0.24,0.08c9.36,3.15,14.39,13.29,11.23,22.65
			l-10.73,31.87C537.14,272.66,529.48,276.46,522.42,274.08z"/>
		<path clip-path="url(#SVGID_8_)" fill="none" stroke="#614B63" stroke-miterlimit="10" d="M506.39,252.87
			c-2.87-1.21-4.89-4.06-4.89-7.37c0-4.42,3.58-8,8-8c0.55,0,2.09,0.06,2.61,0.16"/>
		<path clip-path="url(#SVGID_8_)" fill="none" stroke="#614B63" stroke-miterlimit="10" d="M545.27,248.54
			c4.06,0.39,7.23,3.81,7.23,7.96c0,4.42-3.58,8-8,8c-1.55,0-2.99-0.44-4.21-1.2"/>
		<path clip-path="url(#SVGID_8_)" fill="none" stroke="#614B63" stroke-miterlimit="10" d="M531.77,247.04
			c1.14,0.97,1.71,2.04,1.45,2.97c-0.52,1.86-4.17,2.47-8.16,1.36c-3.99-1.11-6.81-3.52-6.29-5.38c0.31-1.1,1.69-1.76,3.6-1.89"/>
		<path clip-path="url(#SVGID_8_)" fill="none" stroke="#614B63" stroke-miterlimit="10" d="M472.5,336.5l8-26c-5-9,0-22,0-22"/>
		<path clip-path="url(#SVGID_8_)" fill="none" stroke="#614B63" stroke-miterlimit="10" d="M514.5,346.5c5-5,16-28,16-28
			s-1.55,4.14,2.79,6.46"/>
		<path clip-path="url(#SVGID_8_)" fill="none" stroke="#614B63" stroke-miterlimit="10" d="M530.5,338.5c0,0-0.84-9.69,1.58-14.35"
			/>
		<path clip-path="url(#SVGID_8_)" fill="none" stroke="#614B63" stroke-miterlimit="10" d="M521.83,350.56
			c0,0,4.67-12.06,6.67-12.06c0,0,6,4,11,5c0,0,8,7,7,10l-10,6"/>
		<path clip-path="url(#SVGID_8_)" fill="none" stroke="#614B63" stroke-miterlimit="10" d="M537.9,343.09l-9.4,13.41c0,0-4,2-4-3
			l7.58-12.9"/>
		<path clip-path="url(#SVGID_8_)" fill="none" stroke="#614B63" stroke-miterlimit="10" d="M480.5,310.5c0,0,10,6,18,2"/>
		<path clip-path="url(#SVGID_8_)" fill="none" stroke="#614B63" stroke-miterlimit="10" d="M506.5,293.5c0,0-9,18,0,22
			c0,0,17,4,24,0"/>
		
			<line clip-path="url(#SVGID_8_)" fill="none" stroke="#614B63" stroke-miterlimit="10" x1="533.5" y1="296.5" x2="530.5" y2="318.5"/>
		<path clip-path="url(#SVGID_8_)" fill="none" stroke="#614B63" stroke-miterlimit="10" d="M485.5,328.5c0,0,10-14,17-11
			c0,0,7,6,4,15"/>
		<path clip-path="url(#SVGID_8_)" fill="none" stroke="#614B63" stroke-miterlimit="10" d="M498.5,324.5c0,0,0,5-4,4"/>
		<path clip-path="url(#SVGID_8_)" fill="none" stroke="#614B63" stroke-miterlimit="10" d="M496.5,331.5c0,0,1,3-5,5"/>
		<path clip-path="url(#SVGID_8_)" fill="none" stroke="#614B63" stroke-miterlimit="10" d="M494.5,338.5c0,0-1,5-5,4"/>
		<path clip-path="url(#SVGID_8_)" fill="none" stroke="#614B63" stroke-miterlimit="10" d="M453.5,328.5v4l4,6c0,0,2,1,1,4l-3,2"/>
		<path clip-path="url(#SVGID_8_)" fill="none" stroke="#614B63" stroke-miterlimit="10" d="M449.5,328.5c-3,9,6,16,6,16s1,1-4,2"/>
		<path clip-path="url(#SVGID_8_)" fill="none" stroke="#614B63" stroke-miterlimit="10" d="M463.5,330.5c0,0-1.89-3.42-5.44-5.71
			c0,0-11.56,1.71-14.56,7.71c0,0-4,8,3,12c0,0-0.22,0.15,1.39-1.42l3.61,3.42c0,0-8-8-6-15"/>
		<path clip-path="url(#SVGID_8_)" fill="#614B63" d="M525.39,237.47c-0.76,1.63-2.36,2.49-3.58,1.92c-1.22-0.57-1.6-2.35-0.84-3.98
			s2.36-2.49,3.58-1.92S526.14,235.84,525.39,237.47"/>
		<path clip-path="url(#SVGID_8_)" fill="#614B63" d="M540.61,241.44c0,1.79-1.09,3.25-2.44,3.25c-1.35,0-2.44-1.46-2.44-3.25
			s1.09-3.25,2.44-3.25C539.52,238.19,540.61,239.65,540.61,241.44"/>
		<path clip-path="url(#SVGID_8_)" fill="none" stroke="#614B63" stroke-miterlimit="10" d="M516.5,253.5c0,0,4,7,13,6"/>
		<path clip-path="url(#SVGID_8_)" fill="none" stroke="#614B63" stroke-miterlimit="10" d="M520.5,231.5c0,0,5-3,9,1"/>
		<path clip-path="url(#SVGID_8_)" fill="none" stroke="#614B63" stroke-miterlimit="10" d="M536.5,234.5c0,0,5-1,7,5"/>
		<path clip-path="url(#SVGID_8_)" fill="none" stroke="#614B63" stroke-miterlimit="10" d="M511.41,237.44l11.09-14.94
			c0,0,2.75-2.75,5.61-2.11c0.13,0.03,0.26,0.06,0.39,0.11l15,5c0,0,3,2,3,6l-1,17"/>
		<path clip-path="url(#SVGID_8_)" fill="none" stroke="#614B63" stroke-miterlimit="10" d="M507.6,248.9
			c-1.8-0.71-2.68-2.74-1.97-4.54c0.71-1.8,2.74-2.68,4.54-1.97"/>
		<path clip-path="url(#SVGID_8_)" fill="none" stroke="#614B63" stroke-miterlimit="10" d="M544.1,253.09
			c1.76,0.8,2.54,2.87,1.75,4.63c-0.8,1.76-2.87,2.54-4.63,1.75"/>
		
			<line clip-path="url(#SVGID_8_)" fill="none" stroke="#000000" stroke-miterlimit="10" x1="425.5" y1="351.5" x2="442.5" y2="339.5"/>
		<path clip-path="url(#SVGID_8_)" fill="none" stroke="#000000" stroke-miterlimit="10" d="M459.5,334.5c4-10,9-2,9-2l17,12h13
			c4,6,10,9,10,9"/>
		<path clip-path="url(#SVGID_8_)" fill="none" stroke="#000000" stroke-miterlimit="10" d="M540.5,357.5c0,0,14,6,11,13"/>
		<path clip-path="url(#SVGID_8_)" fill="none" stroke="#000000" stroke-width="2" stroke-miterlimit="10" d="M549,395
			c0,0,44,5,22,74c0,0-5,5-14-17c0,0-12-12-17-19l-30.87,1.07"/>
		<path clip-path="url(#SVGID_8_)" fill="none" stroke="#000000" stroke-width="2" stroke-miterlimit="10" d="M448.89,383
			c0,0-0.89,15,26.11,11l21.56-7.5"/>
		<path clip-path="url(#SVGID_8_)" fill="none" stroke="#000000" stroke-width="1.5" stroke-miterlimit="10" d="M447,359
			c0,0,21-11,39,3c0,0,10,8,21,2"/>
		<line clip-path="url(#SVGID_8_)" fill="none" stroke="#000000" stroke-miterlimit="10" x1="221" y1="434" x2="368" y2="434"/>
		<polyline clip-path="url(#SVGID_8_)" fill="none" stroke="#000000" stroke-width="0.5" stroke-miterlimit="10" points="
			61.14,505.5 74.13,483 71.85,479.05 		"/>
		
			<line clip-path="url(#SVGID_8_)" fill="none" stroke="#000000" stroke-width="0.5" stroke-miterlimit="10" x1="29.5" y1="515.5" x2="605.5" y2="515.5"/>
		
			<line clip-path="url(#SVGID_8_)" fill="none" stroke="#000000" stroke-width="0.5" stroke-miterlimit="10" x1="30.5" y1="444.5" x2="60.5" y2="444.5"/>
		
			<line clip-path="url(#SVGID_8_)" fill="none" stroke="#000000" stroke-width="0.5" stroke-miterlimit="10" x1="576.44" y1="445.5" x2="605.5" y2="445.5"/>
		
			<line clip-path="url(#SVGID_8_)" fill="none" stroke="#000000" stroke-width="0.5" stroke-miterlimit="10" x1="509.77" y1="445.5" x2="551.92" y2="445.5"/>
		
			<line clip-path="url(#SVGID_8_)" fill="none" stroke="#000000" stroke-width="0.5" stroke-miterlimit="10" x1="338.04" y1="445.5" x2="458.06" y2="445.5"/>
		
			<line clip-path="url(#SVGID_8_)" fill="none" stroke="#000000" stroke-width="0.5" stroke-miterlimit="10" x1="190.5" y1="445.5" x2="313.4" y2="445.5"/>
		
			<rect x="4.5" y="531.5" clip-path="url(#SVGID_8_)" fill="none" stroke="#000000" stroke-width="0.994" stroke-miterlimit="10" width="629" height="12"/>
		
			<line clip-path="url(#SVGID_8_)" fill="none" stroke="#000000" stroke-width="1.001" stroke-miterlimit="10" x1="30" y1="510.04" x2="4.5" y2="531.5"/>
		
			<line clip-path="url(#SVGID_8_)" fill="none" stroke="#000000" stroke-width="1.001" stroke-miterlimit="10" x1="633.5" y1="531.5" x2="605.5" y2="513.5"/>
		<path clip-path="url(#SVGID_8_)" fill="none" stroke="#614B63" stroke-miterlimit="10" d="M187.5,319.5c0,0,4,12,10,15"/>
		<path clip-path="url(#SVGID_8_)" fill="none" stroke="#614B63" stroke-miterlimit="10" d="M101.5,360.5c0,0-3-17,3-24"/>
		<path clip-path="url(#SVGID_8_)" fill="none" stroke="#614B63" stroke-miterlimit="10" d="M136.5,332.5c0,0,5,4,8-2c0,0,1-3-3-2
			C141.5,328.5,134.5,329.5,136.5,332.5z"/>
		<path clip-path="url(#SVGID_8_)" fill="none" stroke="#614B63" stroke-miterlimit="10" d="M171.5,322.5c0,0-2-5,5-7c0,0,2,0,0,3
			C176.5,318.5,174.5,322.5,171.5,322.5z"/>
		<path clip-path="url(#SVGID_8_)" fill="none" stroke="#614B63" stroke-miterlimit="10" d="M138.5,275.5c0,0,5-3,4-8"/>
		<path clip-path="url(#SVGID_8_)" fill="none" stroke="#614B63" stroke-miterlimit="10" d="M512.11,270.25c0,0-2.61,4.25,3.39,6.25
			"/>
		<path clip-path="url(#SVGID_8_)" fill="none" stroke="#614B63" stroke-miterlimit="10" d="M508.5,276.5c0,0-1,8,7,5"/>
		
			<ellipse transform="matrix(0.9355 0.3533 -0.3533 0.9355 140.2196 -151.7057)" clip-path="url(#SVGID_8_)" fill="none" stroke="#614B63" stroke-miterlimit="10" cx="485.6" cy="308.18" rx="3.22" ry="2.01"/>
		
			<ellipse transform="matrix(0.9375 -0.3479 0.3479 0.9375 -76.4362 200.691)" clip-path="url(#SVGID_8_)" fill="none" stroke="#614B63" stroke-miterlimit="10" cx="520.6" cy="313.18" rx="3.22" ry="2.01"/>
		<path clip-path="url(#SVGID_8_)" fill="none" stroke="#614B63" stroke-miterlimit="10" d="M528,274.72l0.5,7.78c0,0,10,4,11,8
			c0,0,18,14,10,33c0,0,3,21-4,26"/>
		<path clip-path="url(#SVGID_8_)" fill="none" stroke="#614B63" stroke-miterlimit="10" d="M510.16,269.5c0,0-4.66,6-7.66,7
			c0,0-13-3-15,1c0,0-20,4-26,19l-6,5c0,0-6,7-7,22l-1.5,5"/>
		<path clip-path="url(#SVGID_8_)" fill="none" stroke="#614B63" stroke-miterlimit="10" d="M458.78,340.5c0,0,3.72-1-1.28-9l1-3.5"
			/>
		<path clip-path="url(#SVGID_8_)" fill="none" stroke="#614B63" stroke-miterlimit="10" d="M479.87,307c0,0-3.37,5.5-13.37,3.5
			c0,0-1,10-5,18"/>
		<path clip-path="url(#SVGID_8_)" fill="none" stroke="#614B63" stroke-miterlimit="10" d="M460.5,301.5c0,0,1,8,6,9"/>
		<path clip-path="url(#SVGID_8_)" fill="none" stroke="#614B63" stroke-miterlimit="10" d="M538.5,324.5c0,0,8.45,3.15,11.73-2.93"
			/>
		
			<line clip-path="url(#SVGID_8_)" fill="none" stroke="#614B63" stroke-miterlimit="10" x1="484.5" y1="282.5" x2="487.5" y2="276.5"/>
		
			<line clip-path="url(#SVGID_8_)" fill="none" stroke="#614B63" stroke-miterlimit="10" x1="542.5" y1="346.75" x2="535.34" y2="356.5"/>
		
			<line clip-path="url(#SVGID_8_)" fill="none" stroke="#000000" stroke-width="0.5" stroke-miterlimit="10" x1="96.5" y1="444.5" x2="141" y2="444.5"/>
		<path clip-path="url(#SVGID_8_)" fill="#CC4D40" d="M336.5,217.5c0,11.05-4.48,20-10,20c-5.52,0-10-8.95-10-20s4.48-20,10-20
			C332.02,197.5,336.5,206.45,336.5,217.5"/>
		<path clip-path="url(#SVGID_8_)" fill="#FFFFFF" d="M332.62,209.2c1.13,4.63,1.18,8.6,0.1,8.86c-1.07,0.26-2.86-3.28-3.99-7.92
			c-1.13-4.63-1.18-8.6-0.1-8.86C329.7,201.02,331.49,204.57,332.62,209.2"/>
		<path clip-path="url(#SVGID_8_)" fill="none" stroke="#000000" stroke-miterlimit="10" d="M444.5,232.5c0,0,4-4,5,0"/>
		<path clip-path="url(#SVGID_8_)" fill="none" stroke="#000000" stroke-miterlimit="10" d="M448.5,222.5c0,0,5-1,4,2"/>
		<path clip-path="url(#SVGID_8_)" fill="none" stroke="#000000" stroke-miterlimit="10" d="M453.5,231.5c0,0,3,3,1,5"/>
		<path clip-path="url(#SVGID_8_)" fill="none" stroke="#000000" stroke-miterlimit="10" d="M445.5,239.5c0,0,2-1-1,3"/>
		<path clip-path="url(#SVGID_8_)" fill="none" stroke="#000000" stroke-miterlimit="10" d="M436.5,239.5c0,0,2,0,2,3"/>
		<path clip-path="url(#SVGID_8_)" fill="none" stroke="#000000" stroke-miterlimit="10" d="M438.88,231.61c0,0,1.62-2.11,1.62,2.89
			"/>
		<path clip-path="url(#SVGID_8_)" fill="none" stroke="#000000" stroke-miterlimit="10" d="M435.5,244.5c0,0,2,0,0,2"/>
	</g>
</g>
</svg>
