<?xml version="1.0" encoding="utf-8"?>
<!-- Generator: Adobe Illustrator 19.1.0, SVG Export Plug-In . SVG Version: 6.00 Build 0)  -->
<svg version="1.1" xmlns="http://www.w3.org/2000/svg" xmlns:xlink="http://www.w3.org/1999/xlink" x="0px" y="0px"
	 viewBox="0 0 1500 1500" style="enable-background:new 0 0 1500 1500;" xml:space="preserve">
<style type="text/css">
	.st0{fill:#ED3555;stroke:#111010;stroke-width:15;stroke-miterlimit:10;}
	.st1{fill:#111010;}
	.st2{fill:none;stroke:#111010;stroke-width:15;stroke-miterlimit:10;}
	.st3{fill:none;stroke:#111010;stroke-width:8;stroke-linecap:round;stroke-miterlimit:10;}
	.st4{fill:none;stroke:#111010;stroke-width:20;stroke-linecap:round;stroke-linejoin:round;stroke-miterlimit:10;}
	.st5{fill:#FFFFFF;stroke:#111010;stroke-width:15;stroke-miterlimit:10;}
	.st6{fill:none;stroke:#111010;stroke-width:8;stroke-linecap:round;stroke-linejoin:bevel;stroke-miterlimit:10;}
	.st7{fill:#FFFFFF;}
	.st8{fill:#ED3555;}
</style>
<g id="juguetes_y_accesorios">
	<g id="Layer_3">
	</g>
</g>
<g id="disfraces">
	<path class="st0" d="M969.5,546.9c-43.6-3.4-80.9,3.6-119,25.2c-33.6,19-55.8,38.2-96.8,32.4c-43.1-6.2-77.5-42.1-120.9-51.9
		c-49.3-11.1-102.7-4.6-150.9,8.8c-76.3,21.2-144.3,53.6-225.2,54.6c18,110.9,113.2,237,203.6,303.1c46.5,34,116.1,51.5,172.4,35.8
		c42.8-11.9,96.2-70.5,136.8-73c40-2.5,102.8,66.8,154.4,74c66.4,9.2,129.3-14.7,178.8-58.4c83.9-74,144.9-176.3,170.7-284.4
		C1170.3,641.9,1069.9,554.8,969.5,546.9z M575.8,789.4c-60.7-7.9-92.6-55.6-92.6-63.1c0-9.7,32.5-36.2,88.3-38.4
		c50.1-2,108.6,35.9,106.9,54.9C677.3,756.7,638.9,797.6,575.8,789.4z M967.2,780.2c-49.1,10.1-113-17.7-114.5-36.7
		c-1.1-13.9,30.1-60.6,93.7-62.8c61.1-2.1,100.4,39.8,101.6,47.2C1049.6,737.5,1021.8,768.9,967.2,780.2z"/>
	<g>
		<path class="st1" d="M382,641.3c0,0-1.4,1.2-3.9,3.3c-1.2,1.1-2.6,2.3-4.2,3.8c-1.6,1.5-3.3,3.1-5.1,5c-0.4,0.5-0.9,0.9-1.4,1.4
			c-0.4,0.5-0.9,1-1.4,1.5c-0.9,1-1.9,2.1-2.8,3.1c-1.8,2.2-3.6,4.5-5.3,7c-0.4,0.6-0.8,1.3-1.2,1.9c-0.4,0.6-0.8,1.3-1.2,1.9
			c-0.4,0.6-0.7,1.3-1.1,2c-0.3,0.7-0.7,1.3-1,2c-0.2,0.3-0.3,0.7-0.5,1l-0.4,1c-0.3,0.7-0.6,1.4-0.9,2.1c-0.4,1.4-1,2.8-1.3,4.3
			c-0.9,2.9-1.2,5.9-1.6,8.8c-0.1,0.7-0.1,1.5-0.1,2.3c0,0.8-0.1,1.5-0.1,2.3c0.1,1.5,0,3,0.1,4.5c0.2,1.5,0.2,3,0.4,4.4
			c0.2,1.5,0.4,2.9,0.6,4.3c0.2,1.4,0.6,2.8,0.8,4.1c0.1,0.7,0.2,1.4,0.4,2c0.2,0.6,0.3,1.3,0.5,1.9c0.3,1.3,0.6,2.5,0.8,3.7
			c0.3,1.2,0.7,2.3,0.9,3.3c0.3,1.1,0.5,2,0.8,3c0.3,0.9,0.5,1.8,0.7,2.5c0.9,3.1,1.3,5,1.3,5s-1.5-1.2-3.9-3.4
			c-0.6-0.6-1.3-1.2-1.9-1.9c-0.7-0.7-1.3-1.6-2.1-2.4c-0.7-0.9-1.5-1.8-2.3-2.8c-0.8-1-1.5-2.2-2.3-3.4c-1.6-2.3-3-5.1-4.5-8.1
			c-0.6-1.5-1.3-3.1-1.9-4.8c-0.3-0.8-0.5-1.7-0.8-2.6c-0.2-0.9-0.5-1.8-0.7-2.7c-0.5-1.8-0.7-3.7-1-5.7c-0.2-1.9-0.3-3.9-0.4-6
			c0.1-4,0.5-8.2,1.7-12.2c0.5-2,1.3-4,2-5.9c0.4-1,0.9-1.9,1.3-2.8l0.7-1.4c0.2-0.5,0.5-0.9,0.8-1.3c0.5-0.9,1-1.7,1.6-2.6
			c0.6-0.8,1.2-1.6,1.7-2.4c0.6-0.8,1.2-1.5,1.8-2.3c0.6-0.7,1.2-1.5,1.9-2.1c2.6-2.7,5.4-5,8.1-6.9c2.8-1.9,5.5-3.5,8.1-4.7
			c1.3-0.6,2.6-1.2,3.8-1.6c1.2-0.4,2.4-0.9,3.5-1.2c2.2-0.7,4.2-1.2,5.8-1.5C380.1,641.3,382,641.3,382,641.3z"/>
	</g>
	<g>
		<path class="st1" d="M1167.5,643c0,0,1.6,0.2,4.1,1.2c2.5,1,6.1,2.7,9.9,5.4c1,0.7,1.9,1.5,2.9,2.3c1,0.8,1.9,1.7,2.9,2.7
			c2,1.9,3.8,4.1,5.6,6.5c1.7,2.5,3.4,5.1,4.7,8.1c0.4,0.7,0.7,1.5,1,2.2c0.3,0.8,0.6,1.5,0.9,2.3c0.5,1.5,1,3.1,1.4,4.7
			c0.3,1.6,0.8,3.2,0.9,4.8c0.1,0.8,0.2,1.6,0.3,2.4c0,0.8,0.1,1.6,0.1,2.4c0,0.8,0.1,1.6,0.1,2.4c0,0.8-0.1,1.6-0.1,2.4
			c0,1.6-0.3,3.1-0.5,4.6c-0.1,0.8-0.2,1.5-0.4,2.2c-0.2,0.7-0.3,1.4-0.5,2.1c-0.3,1.4-0.8,2.8-1.2,4c-0.2,0.6-0.5,1.3-0.7,1.9
			c-0.3,0.6-0.5,1.2-0.8,1.8c-0.6,1.2-1,2.3-1.6,3.3c-1.2,2-2.2,3.9-3.4,5.4c-1.1,1.5-2.1,2.8-3.1,3.8c-1.9,2-3.1,3-3.1,3
			s0-1.6,0.3-4.2c0.2-1.3,0.3-2.9,0.4-4.6c0.2-1.7,0.3-3.7,0.5-5.8c0.1-1,0.1-2.1,0.2-3.2c0-0.6,0.1-1.1,0.1-1.7c0-0.6,0-1.1,0-1.7
			c0-1.2,0.1-2.3,0-3.5c-0.1-1.2,0-2.4-0.1-3.6c-0.1-1.2-0.1-2.4-0.3-3.6c-0.1-1.2-0.2-2.5-0.4-3.7c-0.1-0.6-0.2-1.2-0.3-1.8
			c-0.1-0.6-0.2-1.2-0.4-1.8c-0.2-1.2-0.5-2.4-0.8-3.7c-0.1-0.6-0.3-1.2-0.5-1.8c-0.2-0.6-0.3-1.2-0.5-1.8c-0.4-1.2-0.7-2.4-1.2-3.6
			c-0.8-2.4-1.8-4.7-2.7-6.9c-1-2.2-2-4.4-3.1-6.5c-1.1-2.1-2.1-4-3.2-5.8c-1-1.8-2.1-3.5-3-5c-0.9-1.5-1.8-2.8-2.4-3.9
			C1168.3,644.3,1167.5,643,1167.5,643z"/>
	</g>
</g>
<g id="diversion">
</g>
<g id="geles">
	<g id="colores">
	</g>
	<g id="lineas">
	</g>
</g>
</svg>
