<?xml version="1.0" encoding="utf-8"?>
<!-- Generator: Adobe Illustrator 17.0.0, SVG Export Plug-In . SVG Version: 6.00 Build 0)  -->
<!DOCTYPE svg PUBLIC "-//W3C//DTD SVG 1.1//EN" "http://www.w3.org/Graphics/SVG/1.1/DTD/svg11.dtd">
<svg version="1.1" id="Layer_1" xmlns="http://www.w3.org/2000/svg" xmlns:xlink="http://www.w3.org/1999/xlink" x="0px" y="0px"
	 width="350px" height="350px" viewBox="0 0 350 350" style="enable-background:new 0 0 350 350;" xml:space="preserve">
<g>
	<path style="fill:#48b4e3;stroke:#48b4e3;stroke-miterlimit:10;" d="M141.1,16.9c5.6,27.2,4,54.1-13.8,76.6
		c-10,12.7-23.7,22.3-35.9,33.3c-15.4,14-32.1,26.7-46.1,42c-38.7,42.1-46.1,92-33.2,146.1c1.1,4.7,2.4,9.4,3,14.1
		C4,303.8-2,277.7,0.5,250c3.5-39,22.2-70.7,49.3-97.6c16.6-16.5,34.5-32,53-46.4c24.9-19.3,36.8-44.4,38.3-75.2
		C141.3,26.2,141.1,21.6,141.1,16.9z"/>
	<path style="fill:#48b4e3;stroke:#48b4e3;stroke-miterlimit:10;" d="M277.5,324.5c-5-26-8.1-52.3-2.2-78.6
		c2.3-10.4,6.5-20.5,11-30.3c9.3-20.4,16-41,13.9-63.9c-0.6-7.1,0.6-14.5,2.5-21.6c0.9,14.6,4.1,29.5,2,43.6
		c-2.5,15.9-8.2,31.9-15.4,46.4c-10.4,21-14,42.7-13.6,65.5C275.8,298.6,276.8,311.5,277.5,324.5z"/>
	<path style="fill:#48b4e3;stroke:#48b4e3;stroke-miterlimit:10;" d="M349.8,13.9c1.2,15.2-2.9,28.9-11.8,41.2
		c-6.6,9.1-13.8,17.9-19.9,27.3c-11.9,18.7-17.3,39.9-22.6,61c-6.8,26.9-14.1,53.6-30.5,76.7c-3.8,5.4-8,10.5-12.7,16.8
		c0-1.9-0.2-2.7,0-3c22.5-28.4,33.7-61.7,41.8-96.2c7.2-30.4,18.5-58.8,38.9-83.1C342.7,43,348.3,29.2,349.8,13.9z"/>
	<path style="fill:#48b4e3;stroke:#48b4e3;stroke-miterlimit:10;" d="M256.3,165.6c6.3-13.9,12.4-27.9,19.1-41.7
		c14.1-29.3,31.7-57.2,34.4-90.8c0.5-6.3,0.8-12.7,1.4-19c3.6,21.7,1.1,43-7.6,63c-5.8,13.4-13.9,25.8-20.6,38.9
		c-7.3,14.2-14.1,28.5-21.1,42.9c-1.2,2.5-2.3,5.2-3.5,7.7C257.7,166.3,257,165.9,256.3,165.6z"/>
	<path style="fill:#48b4e3;stroke:#48b4e3;stroke-miterlimit:10;" d="M162.2,261.6c20.2,20.7,30,46,32.4,74.5
		C188,309.4,178.2,284.1,162.2,261.6z"/>
	<path style="fill:#48b4e3;stroke:#48b4e3;stroke-miterlimit:10;" d="M205,321.2c6.6-10.3,13.4-20.8,20.2-31.4
		C223.1,303.3,216.9,314.3,205,321.2z"/>
</g>
</svg>
