<svg xmlns="http://www.w3.org/2000/svg" viewBox="0 0 631 219">
  <g fill="none">
    <g transform="translate(0 31)">
      <path fill="#8DCEFF" d="M362,1.1 C362,1.1 408.5,5.8 460,48 C521,98 516,188 516,188 C516,188 464.5,183.8 464,184 C463.5,184.2 460.4,157.7 454,142 C445,120 428,99 393,83 C378.5,76.4 356.9,69.2 356.9,69.2 C356.9,69.2 334.5,7.9 362,1.1 Z"/>
      <circle cx="358.9" cy="35.1" r="34.2" fill="#DDE7ED"/>
      <path fill="#333333" d="M345.1 31C345.1 31 345.5 35.4 346.9 39.9 348.2 44.4 349.1 46.1 349.1 46.1 349.1 46.1 352.2 46.5 357.3 46.9 362.4 47.2 363.7 47.4 363.7 47.4 363.7 47.4 366.1 43.8 367.9 39.4 369.7 35 369.8 33.6 369.8 33.6 369.8 33.6 366.8 29.7 364.2 27.4 361.6 25.1 358.7 23.2 358.7 23.2 358.7 23.2 354.6 24.9 350.9 27.2 347.2 29.4 345.1 31 345.1 31zM325 31.5C325 31.5 324.9 27.6 326.9 22.8 328.9 18 330.8 15.1 331.4 14.6 332 14 332.8 13.7 332.8 13.7L336.1 13.5C336.1 13.5 334.9 16.5 334.1 19.9 333.3 23.3 333.9 25.9 333.9 25.9 333.9 25.9 331.3 27.7 329.7 30.4 328 33.2 327 34.6 327 34.6 327 34.6 325.6 32.9 325 31.5zM348.2 5.6C348.2 5.6 349.3 3.8 351.6 2.4 353.9 1 356.8 1 359.9.9 363 .8 367.5 1.7 370.2 4.1 373 6.5 372.6 7.4 372.6 7.4 372.6 7.4 370.9 7.3 366.1 8.3 361.3 9.3 359.4 10.3 359.4 10.3 359.4 10.3 354 6.3 348.2 5.6zM383.6 17.2C383.6 17.2 386.8 18 388.8 19.6 390.9 21.2 391.9 25.1 392.6 28 393.3 30.9 393.3 33.7 393.1 35.1 392.8 36.4 391.6 38.1 390.6 39.4 389.6 40.7 389 40.9 389 40.9 389 40.9 388.2 37.7 385.5 33.7 382.7 29.8 382.3 29.4 382.3 29.4 382.3 29.4 384.1 25.2 383.6 17.2zM363.1 66.1C363.1 66.1 364.1 65.4 367 62.6 369.9 59.8 371 57.6 371 57.6 371 57.6 373.2 57.8 377.7 56.6 382.2 55.4 383.4 54 383.4 54 383.4 54 383.8 58 381.3 60.9 378.8 63.8 372.7 66.7 369.7 67.6 366.7 68.5 363.1 66.1 363.1 66.1zM340.7 55.1C340.7 55.1 342.4 58.4 344.9 61.2 347.4 64 348.1 64.6 348.1 64.6 348.1 64.6 345 66.1 341.9 65.1 340.1 64.5 335 60.1 333.8 58.7 332.3 56.9 331.6 55.8 331.6 55.8L331.2 51.1 340.7 55.1z"/>
      <path fill="#841F00" d="M626,188 L4.7,188 C2.3,188 0.4,186 0.4,183.5 C0.4,181 2.3,179 4.7,179 L626,179 C628.4,179 630.3,181 630.3,183.5 C630.4,186 628.4,188 626,188 Z"/>
    </g>
    <g fill="#EFE5DC" transform="translate(142 51)">
      <g transform="translate(158 26)">
        <path d="M53,35.1 L8.3,35.1 C4,35.1 0.5,31.6 0.5,27.3 C0.5,23 4,19.5 8.3,19.5 L53,19.5 C57.3,19.5 60.8,23 60.8,27.3 C60.8,31.5 57.3,35.1 53,35.1 Z"/>
        <circle cx="19.2" cy="19.6" r="9.7"/>
        <circle cx="37.4" cy="16.7" r="15.8"/>
      </g>
      <path d="M84.4,51 L10.7,51 C5.1,51 0.5,46.4 0.5,40.8 C0.5,35.2 5.1,30.6 10.7,30.6 L84.4,30.6 C90,30.6 94.6,35.2 94.6,40.8 C94.6,46.4 90,51 84.4,51 Z"/>
      <circle cx="20.9" cy="31.3" r="10.7"/>
      <circle cx="70.6" cy="28" r="15.6"/>
      <circle cx="47.2" cy="23.9" r="23"/>
    </g>
    <g transform="translate(479)">
      <rect width="30" height="18" x="26" y="108" fill="#00ACDD"/>
      <rect width="30" height="18" x="95" y="108" fill="#00ACDD"/>
      <circle cx="75.5" cy="96.5" r="26.5" fill="#00ACDD"/>
      <path fill="#2CD7FF" d="M60,96.5 C60,83.8 69,73.1 81,70.6 C79.2,70.2 77.4,70 75.5,70 C60.9,70 49,81.9 49,96.5 C49,111.1 60.9,123 75.5,123 C77.4,123 79.2,122.8 81,122.4 C69,119.9 60,109.2 60,96.5 Z"/>
      <rect width="53" height="24.8" x="49" y="94" fill="#EAE7D2"/>
      <rect width="12" height="24.8" x="90" y="94" fill="#CECAB3"/>
      <rect width="13" height="24.8" x="49" y="94" fill="#F7F5E8"/>
      <path fill="#EAE7D2" d="M94.6,96 C94,92.6 90.9,90.4 90.7,90.3 L89.6,89.6 L88.5,90.3 C88.4,90.4 85.2,92.5 84.7,96 L84.6,96 L80.3,96 C80.3,96 82.2,97.9 83,99.3 C83.7,100.5 84.3,101.4 84.5,104.8 C84.5,105.3 84.5,107 84.5,107 L86.5,107 L89.5,107 L92.5,107 L94.5,107 C94.5,107 94.5,105.3 94.5,104.8 C94.7,101.4 95.3,100.5 96,99.3 C96.8,98 98.7,96 98.7,96 L94.6,96 Z"/>
      <path fill="#CECAB3" d="M68.5,96 C67.9,92.6 64.8,90.4 64.6,90.3 L63.5,89.6 L62.4,90.3 C62.3,90.4 59.1,92.5 58.6,96 L58.5,96 L54.2,96 C54.2,96 56.1,97.9 56.9,99.3 C57.6,100.5 58.2,101.4 58.4,104.8 C58.4,105.3 58.4,107 58.4,107 L60.4,107 L63.4,107 L66.4,107 L68.4,107 C68.4,107 68.4,105.3 68.4,104.8 C68.6,101.4 69.2,100.5 69.9,99.3 C70.7,98 72.6,96 72.6,96 L68.5,96 Z"/>
      <path fill="#EAE7D2" d="M66.5,96 C65.9,92.6 62.8,90.4 62.6,90.3 L61.5,89.6 L60.4,90.3 C60.3,90.4 57.1,92.5 56.6,96 L56.5,96 L52.2,96 C52.2,96 54.1,97.9 54.9,99.3 C55.6,100.5 56.2,101.4 56.4,104.8 C56.4,105.3 56.4,107 56.4,107 L58.4,107 L61.4,107 L64.4,107 L66.4,107 C66.4,107 66.4,105.3 66.4,104.8 C66.6,101.4 67.2,100.5 67.9,99.3 C68.7,98 70.6,96 70.6,96 L66.5,96 Z"/>
      <path fill="#75736B" d="M66.5 98L64.5 98 64.5 97C64.5 94 61.5 92 61.5 92 61.5 92 58.5 94 58.5 97L58.5 98 56.5 98C57.4 99.1 58.2 101.6 58.5 104.7L58.5 105 64.5 105C64.8 101.8 65.5 99.2 66.5 98zM94.6 98L92.6 98 92.6 97C92.6 94 89.6 92 89.6 92 89.6 92 86.6 94 86.6 97L86.6 98 84.6 98C85.5 99.1 86.3 101.6 86.6 104.7L86.6 105 92.6 105C93 101.8 93.7 99.2 94.6 98z"/>
      <polygon fill="#CECAB3" points="102 109 49 109 47 105 104 105"/>
      <path fill="#008BC1" d="M96.2,93.9 C95,90.7 92.3,88.8 91.9,88.6 L89.6,87.1 L87.3,88.6 C87,88.8 84.2,90.7 83,93.9 L75.2,93.9 L67.9,93.9 C66.7,90.7 64,88.8 63.6,88.6 L61.3,87.1 L59,88.6 C58.7,88.8 55.9,90.7 54.7,93.9 L46.9,93.9 L49.1,96.1 L56.4,96.1 L56.4,96 C56.9,92.6 60,90.5 60.2,90.4 L61.2,89.7 L62.2,90.4 C62.3,90.5 65.4,92.6 66,96 L66,96.1 L73.3,96.1 L75.3,94.1 L77.2,96 L84.5,96 L84.5,95.9 C85,92.5 88.1,90.4 88.3,90.3 L89.3,89.6 L90.3,90.3 C90.4,90.4 93.5,92.5 94.1,95.9 L94.1,96 L101.4,96 L103.6,93.8 L96.2,93.9 Z"/>
      <rect width="57" height="2" x="47" y="103" fill="#A5A08B"/>
      <rect width="1" height="19" x="75" y="51" fill="#FFB000"/>
      <ellipse cx="75.5" cy="118.6" fill="#00ACDD" rx="30" ry="16.1"/>
      <path fill="#008BC1" d="M75.5,102.5 C75.5,102.5 105.5,109.7 105.5,118.6 C105.5,127.5 92.1,134.7 75.5,134.7 C58.9,134.7 45.5,127.5 45.5,118.6 C45.5,109.7 75.5,102.5 75.5,102.5 Z M75.5,100.4 L75,100.5 C74.7,100.6 67.3,102.4 59.7,105.3 C48.7,109.6 43.4,113.9 43.4,118.6 C43.4,128.8 57.5,136.7 75.4,136.7 C93.3,136.7 107.4,128.7 107.4,118.6 C107.4,113.9 102.1,109.6 91.1,105.3 C83.6,102.4 76.2,100.6 75.8,100.5 L75.5,100.4 Z"/>
      <path fill="#EAE7D2" d="M53.2,118.8 C56.3,116.3 65.3,112.4 75.5,109.7 C77.6,110.3 81.7,111.4 85.9,113 C93,115.6 96.3,117.7 97.7,118.8 L105.5,118.8 C105.5,118.7 105.5,118.7 105.5,118.6 C105.5,109.7 75.5,102.5 75.5,102.5 C75.5,102.5 45.5,109.7 45.5,118.6 C45.5,118.7 45.5,118.7 45.5,118.8 L53.2,118.8 Z"/>
      <path fill="#008BC1" d="M80.7,117.3 L77,113.2 L75.5,111.5 L74,113.2 L70.3,117.3 C69.7,118 64,124.5 64,133 L87,133 C87,124.6 81.3,118 80.7,117.3 Z"/>
      <path fill="#8D49A4" d="M75.5,122 C75.5,122 71,127 71,133 L71,208 L80,208 L80,133 C80,127 75.5,122 75.5,122 Z"/>
      <path fill="#EAE7D2" d="M75.5,122 C75.5,122 80,127 80,133 L80,208 L71,208 L71,133 C71,127 75.5,122 75.5,122 Z M75.5,114.5 L71.8,118.6 C71.2,119.3 66,125.2 66,132.9 L66,207.9 L66,212.9 L71,212.9 L80,212.9 L85,212.9 L85,207.9 L85,132.9 C85,125.2 79.8,119.2 79.2,118.6 L75.5,114.5 Z"/>
      <path fill="#75736B" d="M71,208 L80,208 L80,133 C80,127 75.5,122 75.5,122 C75.5,122 71,127 71,133 L71,208"/>
      <path fill="#008BC1" d="M41,109.8 L61.8,114.3 C61.8,114.3 62.6,117 63.3,122.4 C63.9,126.8 64.1,132.9 64.1,132.9 C64.1,132.9 40.4,115 41,109.8 Z"/>
      <path fill="#2CD7FF" d="M110.1,109.8 L89.3,114.3 C89.3,114.3 88.5,117 87.8,122.4 C87.2,126.8 87,132.9 87,132.9 C87,132.9 110.7,115 110.1,109.8 Z"/>
      <path fill="#EAE7D2" d="M62.6,133.1 C62.3,121.5 41,111.1 41,111.1 C41,111.1 27.6,117.7 21.9,126.2 C20.3,128.6 20.1,131.4 20,134 L20,213 L62,213 L62.6,134.2 L62.6,133.1 Z"/>
      <path fill="#CECAB3" d="M57,133.3 C56.9,130.2 54,126.3 48.6,122.4 C45.9,120.4 43.3,118.9 41.5,117.9 L41,117.6 L40.5,117.9 C38.7,118.9 36,120.4 33.4,122.4 C28.1,126.4 25.1,130.2 25,133.3 L25,207.9 L57,207.9 L57,134.1 L57,133.3 Z M55,205.9 L27,205.9 L27,134.4 L27,133.4 C27.1,131 29.9,127.5 34.6,124 C36.9,122.3 39.3,120.9 41,119.9 C42.7,120.8 45.1,122.2 47.4,124 C52.1,127.5 54.9,131 55,133.4 L55,134.2 L55,205.9 Z"/>
      <path fill="#75736B" d="M38,136.1 C38,133.2 33.5,129 33.5,129 C33.5,129 29,133.2 29,136.1 C29,136.2 29,136.2 29,136.3 L29,166 L38,166 L38,136.3 C38,136.3 38,136.2 38,136.1 Z"/>
      <path fill="#CECAB3" d="M42,170 L25,170 L25,136.4 C25,136.4 25,136.2 25,136.1 C25,131.9 29,127.7 30.8,126.1 L33.5,123.6 L36.2,126.1 C37.9,127.7 42,131.9 42,136.1 L42,170 Z M27,168 L40,168 L40,136.1 C40,133.3 37.3,129.9 34.9,127.5 L33.5,126.2 L32.1,127.5 C29.6,129.8 27,133.3 27,136.1 C27,136.2 27,136.3 27,136.3 L27,168 Z"/>
      <path fill="#75736B" d="M53,136.1 C53,133.2 48.5,129 48.5,129 C48.5,129 44,133.2 44,136.1 C44,136.2 44,136.2 44,136.3 L44,166 L53,166 L53,136.3 C53,136.3 53,136.2 53,136.1 Z"/>
      <path fill="#CECAB3" d="M57,170 L40,170 L40,136.4 C40,136.4 40,136.2 40,136.1 C40,131.9 44,127.7 45.8,126.1 L48.5,123.6 L51.2,126.1 C52.9,127.7 57,131.9 57,136.1 L57,170 Z M42,168 L55,168 L55,136.1 C55,133.3 52.3,129.9 49.9,127.5 L48.5,126.2 L47.1,127.5 C44.6,129.8 42,133.3 42,136.1 C42,136.2 42,136.3 42,136.3 L42,168 Z"/>
      <path fill="#008BC1" d="M20,133 C20.5,121.3 41,112 41,112 C41,112 61.5,121.4 62,133 L64,133 L64,132 C63,125.9 59.1,121.4 52.6,116.5 C47.3,112.6 42.1,110.2 41.9,110.1 L41.1,109.7 L40.3,110.1 C40.1,110.2 34.9,112.6 29.6,116.5 C23,121.3 19.3,126.2 18.4,131.1 L18,131.1 L18,132.9 L20,134.9 L20,133 Z"/>
      <rect width="4" height="80" x="62" y="133" fill="#F7F5E8"/>
      <path fill="#EAE7D2" d="M131.6,133.1 C131.3,121.5 110,111.1 110,111.1 C110,111.1 96.6,117.7 90.9,126.2 C89.3,128.6 89.1,131.4 89,134 L89,213 L131,213 L131.6,134.2 L131.6,133.1 Z"/>
      <path fill="#CECAB3" d="M126,133.3 C125.9,130.2 123,126.3 117.6,122.4 C114.9,120.4 112.3,118.9 110.5,117.9 L110,117.6 L109.5,117.9 C107.7,118.9 105,120.4 102.4,122.4 C97.1,126.4 94.1,130.2 94,133.3 L94,207.9 L126,207.9 L126,134.1 L126,133.3 Z M124,205.9 L96,205.9 L96,134.4 L96,133.4 C96.1,131 98.9,127.5 103.6,124 C105.9,122.3 108.3,120.9 110,119.9 C111.7,120.8 114.1,122.2 116.4,124 C121.1,127.5 123.9,131 124,133.4 L124,134.2 L124,205.9 Z"/>
      <path fill="#75736B" d="M107,136.1 C107,133.2 102.5,129 102.5,129 C102.5,129 98,133.2 98,136.1 C98,136.2 98,136.2 98,136.3 L98,166 L107,166 L107,136.3 C107,136.3 107,136.2 107,136.1 Z"/>
      <path fill="#CECAB3" d="M111,170 L94,170 L94,136.4 C94,136.4 94,136.2 94,136.1 C94,131.9 98,127.7 99.8,126.1 L102.5,123.6 L105.2,126.1 C106.9,127.7 111,131.9 111,136.1 L111,170 Z M96,168 L109,168 L109,136.1 C109,133.3 106.3,129.9 103.9,127.5 L102.5,126.2 L101.1,127.5 C98.6,129.8 96,133.3 96,136.1 C96,136.2 96,136.3 96,136.3 L96,168 Z"/>
      <path fill="#75736B" d="M122,136.1 C122,133.2 117.5,129 117.5,129 C117.5,129 113,133.2 113,136.1 C113,136.2 113,136.2 113,136.3 L113,166 L122,166 L122,136.3 C122,136.3 122,136.2 122,136.1 Z"/>
      <path fill="#CECAB3" d="M126,170 L109,170 L109,136.4 C109,136.4 109,136.2 109,136.1 C109,131.9 113,127.7 114.8,126.1 L117.5,123.6 L120.2,126.1 C121.9,127.7 126,131.9 126,136.1 L126,170 Z M111,168 L124,168 L124,136.1 C124,133.3 121.3,129.9 118.9,127.5 L117.5,126.2 L116.1,127.5 C113.6,129.8 111,133.3 111,136.1 C111,136.2 111,136.3 111,136.3 L111,168 Z"/>
      <path fill="#008BC1" d="M89,133 C89.5,121.3 110,112 110,112 C110,112 130.5,121.4 131,133 L133,133 L133,131.2 L132.8,131.2 C131.9,126.3 128.2,121.4 121.6,116.6 C116.3,112.7 111.1,110.3 110.9,110.2 L110.1,109.8 L109.3,110.2 C109.1,110.3 103.9,112.7 98.6,116.6 C92,121.4 88.1,125.5 87,131.6 L87.1,133.1 L89,133.1 L89,133 Z"/>
      <rect width="4" height="80" x="85" y="133" fill="#F7F5E8"/>
      <rect width="111" height="48" x="20" y="165" fill="#EAE7D2"/>
      <polygon fill="#F7F5E8" points="20 172 20 213 76 213 33.3 172"/>
      <polygon fill="#CECAB3" points="133 162 18 162 20 172 131 172"/>
      <rect width="115" height="2" x="18" y="160" fill="#F7F5E8"/>
      <polygon fill="#EAE7D2" points="132.3 165 18.6 165 19 167 131.9 167"/>
      <rect width="15" height="14" x="23" y="175" fill="#75736B"/>
      <rect width="6" height="14" x="44" y="175" fill="#75736B"/>
      <rect width="15" height="15" x="23" y="194" fill="#75736B"/>
      <rect width="6" height="15" x="44" y="194" fill="#75736B"/>
      <rect width="15" height="14" x="113" y="175" fill="#75736B" transform="rotate(-180 120.5 182)"/>
      <rect width="6" height="14" x="101" y="175" fill="#75736B" transform="rotate(-180 104 182)"/>
      <rect width="15" height="15" x="113" y="194" fill="#75736B" transform="rotate(-180 120.5 201.5)"/>
      <rect width="6" height="15" x="101" y="194" fill="#75736B" transform="rotate(-180 104 201.5)"/>
      <path fill="#A5A08B" d="M91.4,170 C91.9,169.7 92.1,169.4 92,169 C91,165 75,157 75,157 C75,157 62,164 59,166 C57.4,167.1 57.2,168.7 57.4,170 L57,170 L57,213 L95,213 L95,170 L91.4,170 Z"/>
      <rect width="39" height="14" x="57" y="175" fill="#75736B"/>
      <rect width="39" height="19" x="57" y="194" fill="#75736B"/>
      <g transform="translate(49 124)">
        <path fill="#FFB000" d="M8 13C8 18 6.4 18 4.5 18 2.6 18 1 18 1 13 1 5 4.5 0 4.5 0 4.5 0 8 5 8 13zM52 13C52 18 50.4 18 48.5 18 46.6 18 45 18 45 13 45 5 48.5 0 48.5 0 48.5 0 52 5 52 13z"/>
        <rect width="9" height="5" y="85" fill="#CECAB3"/>
        <rect width="9" height="5" y="65" fill="#CECAB3"/>
        <rect width="9" height="3" y="17" fill="#CECAB3"/>
        <rect width="9" height="3" x="44" y="17" fill="#CECAB3"/>
        <rect width="9" height="5" x="44" y="85" fill="#CECAB3"/>
        <rect width="9" height="5" x="44" y="65" fill="#CECAB3"/>
        <path fill="#CECAB3" d="M8.1,53 C9.5,43.5 26.5,36 26.5,36 C26.5,36 43.5,43.5 44.9,53 L50,53 L50,49 L49,49 C47.4,44.9 43.9,41 38.6,37.2 C33.7,33.7 28.8,31.5 28.6,31.4 L26.6,30.5 L24.6,31.4 C24.4,31.5 19.5,33.6 14.6,37.2 C9.3,41 5.8,44.9 4.2,49 L3.2,49 L3.2,53 L8.1,53 Z"/>
        <rect width="51" height="7" x="1" y="20" fill="#CECAB3"/>
        <path fill="#A5A08B" d="M3,51.3 L3,49 L4,49 C5.6,44.9 9.1,41 14.4,37.2 C19.3,33.7 24.2,31.5 24.4,31.4 L26.4,30.5 L28.4,31.4 C28.6,31.5 33.5,33.6 38.4,37.2 C43.6,40.9 47,44.7 48.7,48.7 C49.8,48.9 50.9,49 51.9,49.1 L51.9,49 L51.9,47 L50.2,47 C48.3,43 44.7,39.2 39.6,35.5 C34.5,31.9 29.4,29.6 29.2,29.5 L27.2,28.6 L26.4,28.2 L25.6,28.6 L23.6,29.5 C23.4,29.6 18.3,31.8 13.2,35.5 C8.1,39.1 4.5,43 2.6,47 L1,47 L1,49 L1,51.9 C1.6,51.8 2.3,51.6 3,51.3 Z"/>
        <rect width="7" height="66" x="1" y="24" fill="#CECAB3"/>
        <rect width="7" height="66" x="45" y="24" fill="#CECAB3"/>
        <path fill="#CECAB3" d="M26,36 C26,36 23.2,37.6 19.9,42.9 C17.2,47.1 17,52 17,52 L17,89 L22,89 L22,53 C22,53 22.1,49.1 23.3,46.2 C24.8,42.7 27,40.8 27,40.8 L27,36 L26,36 Z"/>
        <path fill="#CECAB3" d="M27,36 C27,36 29.8,37.6 33.1,42.9 C35.8,47.1 36,52 36,52 L36,89 L31,89 L31,53 C31,53 30.9,49.1 29.7,46.2 C28.2,42.7 26,40.8 26,40.8 L26,36 L27,36 Z"/>
      </g>
      <circle cx="75.5" cy="61.5" r="2.5" fill="#FFB000"/>
      <rect width="10" height="188" x="7" y="26" fill="#EAE7D2"/>
      <rect width="12" height="165" x="6" y="49" fill="#EAE7D2"/>
      <rect width="6" height="165" x="12" y="49" fill="#CECAB3"/>
      <rect width="16" height="74" x="4" y="140" fill="#EAE7D2"/>
      <polygon fill="#00ACDD" points="21 135 18 131.5 15.6 134 12 131.6 8.6 134 6 131.7 3 135 6 136.8 6 140 18 140 18 137.2"/>
      <ellipse cx="12" cy="143" fill="#EAE7D2" rx="5" ry="8"/>
      <path fill="#EAE7D2" d="M3,135 C3,135 4,138.6 4,143 L4,204 L12,204 L12,143 C12,138.6 3,135 3,135 Z"/>
      <path fill="#CECAB3" d="M21,135 C21,135 12,138.6 12,143 C12,143.3 12,143.7 12,144 L12,214 L20,214 L20,144 C20,143.7 20,143.3 20,143 C20,138.6 21,135 21,135 Z"/>
      <polygon fill="#EAE7D2" points="23 46 1 46 5 53 19 53"/>
      <polygon fill="#CECAB3" points="23 46 16 46 12 53 19 53"/>
      <rect width="24" height="2.1" y="44" fill="#CECAB3"/>
      <rect width="16" height="2.1" x="4" y="25" fill="#008BC1"/>
      <polygon fill="#00ACDD" points="20 25 4 25 8 23 16 23"/>
      <path fill="#00ACDD" d="M15.9,23 L16,20 C16,19.8 16,19.7 16,19.5 C16,8.7 12,0 12,0 C12,0 8,8.7 8,19.5 C8,19.7 8,19.8 8,20 L8,23 L8.1,23 L15.9,23 Z"/>
      <rect width="10" height="1" x="7" y="20" fill="#008BC1"/>
      <path fill="#75736B" d="M14,44 C14,43.8 14,43.7 14,43.5 C14,33 12,31 12,31 C12,31 10,33 10,43.5 C10,43.7 10,43.8 10,44 L14,44 Z"/>
      <rect width="10" height="2" x="7" y="27" fill="#CECAB3"/>
      <rect width="10" height="188" x="133" y="26" fill="#EAE7D2"/>
      <rect width="12" height="165" x="132" y="49" fill="#EAE7D2"/>
      <rect width="6" height="165" x="138" y="49" fill="#CECAB3"/>
      <rect width="16" height="74" x="130" y="140" fill="#EAE7D2"/>
      <polygon fill="#00ACDD" points="147 135 144 131.5 141.6 134 138 131.6 134.6 134 132 131.7 129 135 132 136.8 132 140 144 140 144 137.2"/>
      <ellipse cx="138" cy="143" fill="#EAE7D2" rx="5" ry="8"/>
      <path fill="#EAE7D2" d="M129,135 C129,135 130,138.6 130,143 L130,204 L138,204 L138,143 C138,138.6 129,135 129,135 Z"/>
      <path fill="#CECAB3" d="M147,135 C147,135 138,138.6 138,143 C138,143.3 138,143.7 138,144 L138,214 L146,214 L146,144 C146,143.7 146,143.3 146,143 C146,138.6 147,135 147,135 Z"/>
      <polygon fill="#EAE7D2" points="149 46 127 46 131 53 145 53"/>
      <polygon fill="#CECAB3" points="149 46 142 46 138 53 145 53"/>
      <rect width="24" height="2.1" x="126" y="44" fill="#CECAB3"/>
      <rect width="16" height="2.1" x="130" y="25" fill="#008BC1"/>
      <polygon fill="#00ACDD" points="146 25 130 25 134 23 142 23"/>
      <path fill="#00ACDD" d="M141.9,23 L142,20 C142,19.8 142,19.7 142,19.5 C142,8.7 138,0 138,0 C138,0 134,8.7 134,19.5 C134,19.7 134,19.8 134,20 L134,23 L134.1,23 L141.9,23 Z"/>
      <rect width="10" height="1" x="133" y="20" fill="#008BC1"/>
      <path fill="#75736B" d="M140,44 C140,43.8 140,43.7 140,43.5 C140,33 138,31 138,31 C138,31 136,33 136,43.5 C136,43.7 136,43.8 136,44 L140,44 Z"/>
      <rect width="10" height="2" x="133" y="27" fill="#CECAB3"/>
    </g>
    <g transform="translate(3 49)">
      <rect width="49" height="98.3" x="58.7" y="64.3" fill="#ACA99E"/>
      <rect width="9" height="9" x="78" y="12" fill="#ACA99E"/>
      <polygon fill="#675A4D" points="83 3 82 3 78 12 87 12"/>
      <ellipse cx="83" cy="39" fill="#675A4D" rx="18" ry="22"/>
      <circle cx="82.5" cy="1.5" r="1.5" fill="#675A4D"/>
      <path fill="#827E74" d="M67,41 C67,41 67,41 67,41 C66.4,41 66,40.5 66,39.9 C66,39.5 66.6,30 71.2,24.3 C76,18.5 81.5,16.2 89.1,16.9 C89.6,17 90.1,17.4 90,18 C89.9,18.5 89.5,18.9 88.9,18.9 C81.9,18.2 77.1,20.2 72.8,25.5 C68.5,30.8 68,40 68,40.1 C68,40.6 67.5,41 67,41 Z"/>
      <path fill="#827E74" d="M73.7,42.2 C73.2,42.2 72.7,41.8 72.7,41.2 C72.7,40.7 72.3,29.6 81.4,22.7 C87.8,17.9 91.5,18.4 91.9,18.5 C92.4,18.6 92.8,19.1 92.7,19.7 C92.6,20.2 92.1,20.6 91.5,20.5 C91.5,20.5 88.3,20 82.6,24.3 C74.3,30.6 74.7,41 74.7,41.1 C74.7,41.7 74.3,42.1 73.7,42.2 C73.7,42.2 73.7,42.2 73.7,42.2 Z"/>
      <path fill="#827E74" d="M81.2,41.7 C80.6,41.7 80.2,41.3 80.2,40.7 C80.2,40.5 80.2,36.4 81.8,31.8 C83.9,25.6 87.7,21.5 93,19.9 C93.5,19.7 94.1,20 94.2,20.6 C94.4,21.1 94.1,21.7 93.5,21.8 C82.3,25.2 82.2,40.5 82.2,40.7 C82.2,41.2 81.7,41.7 81.2,41.7 Z"/>
      <path fill="#827E74" d="M89 41.8C88.5 41.8 88 41.4 88 40.8 87.8 25.7 94.2 21.9 94.5 21.8 95 21.5 95.6 21.7 95.9 22.2 96.2 22.7 96 23.3 95.5 23.6 95.4 23.7 89.8 27.2 90 40.9 90 41.4 89.6 41.8 89 41.8 89 41.8 89 41.8 89 41.8zM96.5 41C96.1 41 95.7 40.7 95.5 40.3 92.9 31.1 96.3 25.6 96.4 25.3 96.7 24.8 97.3 24.7 97.8 25 98.3 25.3 98.4 25.9 98.1 26.4 98.1 26.5 95.1 31.5 97.4 39.8 97.6 40.3 97.2 40.9 96.7 41 96.7 41 96.6 41 96.5 41z"/>
      <g fill="#C4C2BB" transform="translate(59 35)">
        <path d="M27.4 0C27.4.2 27.4.3 27.4.5 27.4.3 27.5.2 27.4 0zM20.5 0C20.5.2 20.5.3 20.5.5 20.6.3 20.6.2 20.5 0zM13.7 0C13.7.2 13.7.3 13.7.5 13.7.3 13.7.2 13.7 0zM6.8 0C6.8.2 6.8.3 6.8.5 6.9.3 6.9.2 6.8 0zM0 0L0 .5C0 .3 0 .2 0 0zM44.6 4C42.7 4 41.2 2.4 41.2.5 41.2 2.4 39.7 4 37.8 4 35.9 4 34.4 2.4 34.4.5 34.4 2.4 32.9 4 31 4 29.1 4 27.6 2.4 27.6.5 27.6 2.4 26.1 4 24.2 4 22.3 4 20.8 2.4 20.8.5 20.8 2.4 19.3 4 17.4 4 15.5 4 14 2.4 14 .5 14 2.4 12.5 4 10.6 4 8.7 4 7.2 2.4 7.2.5 7.2 2.4 5.7 4 3.8 4 1.9 4 .4 2.4.4.5L.4 13 48.4 13 48.4.5C48 2.4 46.5 4 44.6 4zM48 0C48 .2 48 .3 48 .5L48 0zM41.1 0C41.1.2 41.1.3 41.1.5 41.1.3 41.2.2 41.1 0zM34.2 0C34.2.2 34.2.3 34.2.5 34.3.3 34.3.2 34.2 0z"/>
      </g>
      <rect width="58" height="10" x="52" y="45" fill="#ACA99E"/>
      <rect width="6" height="9" x="108" y="46" fill="#C4C2BB"/>
      <rect width="8" height="3" x="107" y="43" fill="#827E74"/>
      <rect width="54" height="76" x="5" y="87" fill="#ACA99E"/>
      <path fill="#ACA99E" d="M47,61 C47,72.6 37.6,82 26,82 L14,82 L14,88 L50,88 L50,61 L47,61 Z"/>
      <rect width="20" height="38" x="22" y="125" fill="#C4C2BB"/>
      <path fill="#9EC7EF" d="M102,90.9 C102,80.7 93.7,72.4 83.5,72.4 C73.3,72.4 65,80.7 65,90.9 C65,91.1 65,91.2 65,91.4 L65,163 L102,163 L102,91.3 C102,91.2 102,91 102,90.9 Z"/>
      <g fill="#646970" transform="translate(65 72)">
        <path d="M37 27.3L37 26.8C37 27 37 27.2 37 27.3zM0 27.3C0 27.1 0 27 0 26.8L0 27.3zM37 18.9C37 8.7 28.7.4 18.5.4 8.3.4 0 8.7 0 18.9 0 19.1 0 19.2 0 19.4L0 26.9C0 16.7 8.3 8.4 18.5 8.4 28.7 8.4 37 16.7 37 26.9L37 19.4C37 19.2 37 19 37 18.9z"/>
      </g>
      <path fill="#827E74" d="M65,91.3 C65,91.1 65,91 65,90.8 C65,80.6 73.3,72.3 83.5,72.3 C93.7,72.3 102,80.6 102,90.8 C102,91 102,91.1 102,91.3 L102,163 L104,163 L104,91.3 L104,90.8 L104,89.3 L103.9,89.3 C103.1,78.7 94.2,70.3 83.5,70.3 C72.7,70.3 63.8,78.7 63.1,89.3 L63.1,90 C63.1,90.3 63.1,90.5 63.1,90.8 C63.1,90.9 63.1,90.9 63.1,91 L63.1,91.3 L63.1,163 L65.1,163 L65.1,91.3 L65,91.3 Z"/>
      <rect width="4" height="29" x="57" y="127" fill="#C4C2BB"/>
      <polygon fill="#C4C2BB" points="57 156 61 156 62 159 56 159"/>
      <rect width="6" height="1" x="56" y="159" fill="#827E74"/>
      <polygon fill="#827E74" points="57 127 61 127 62 124 56 124"/>
      <rect width="6" height="1" x="56" y="123" fill="#ACA99E"/>
      <rect width="4" height="29" x="50" y="127" fill="#C4C2BB"/>
      <polygon fill="#C4C2BB" points="50 156 54 156 55 159 49 159"/>
      <rect width="6" height="1" x="49" y="159" fill="#827E74"/>
      <polygon fill="#827E74" points="50 127 54 127 55 124 49 124"/>
      <rect width="6" height="1" x="49" y="123" fill="#ACA99E"/>
      <rect width="45" height="2" x="5" y="106" fill="#827E74"/>
      <rect width="45" height="2" x="5" y="86" fill="#C4C2BB"/>
      <rect width="45" height="3" x="5" y="88" fill="#827E74"/>
      <polygon fill="#C4C2BB" points="85 74 82 74 81 66 86 66"/>
      <rect width="15" height="3" x="48" y="160" fill="#827E74"/>
      <path fill="#9EC7EF" d="M32,130 C28.7,130 26,132.7 26,136 L26,163 L38,163 L38,136 C38,132.7 35.3,130 32,130 Z"/>
      <path fill="#ACA99E" d="M32,109.5 C30.3,109.5 29,110.8 29,112.5 L29,120 L35,120 L35,112.5 C35,110.8 33.7,109.5 32,109.5 Z"/>
      <rect width="5" height="3" x="21" y="160" fill="#827E74"/>
      <rect width="5" height="3" x="38" y="160" fill="#827E74"/>
      <polygon fill="#827E74" points="42 128 22 128 21 125 43 125"/>
      <rect width="24" height="1" x="20" y="124" fill="#827E74"/>
      <path fill="#C4C2BB" d="M29,112.5 C29,110.8 30.3,109.5 32,109.5 C33.7,109.5 35,110.8 35,112.5 L35,120 L37,120 L37,112.5 C37,109.7 34.8,107.5 32,107.5 C29.2,107.5 27,109.7 27,112.5 L27,120 L29,120 L29,112.5 Z"/>
      <polygon fill="#C4C2BB" points="43 124 21 124 27 120 37 120"/>
      <rect width="6" height="7" x="29" y="113" fill="#9EC7EF"/>
      <rect width="3" height="15" x="44" y="91" fill="#C4C2BB"/>
      <rect width="3" height="15" x="35" y="91" fill="#C4C2BB"/>
      <rect width="3" height="15" x="26" y="91" fill="#C4C2BB"/>
      <rect width="3" height="15" x="17" y="91" fill="#C4C2BB"/>
      <rect width="3" height="15" x="10" y="91" fill="#953544"/>
      <rect width="11" height="57" x="50" y="66" fill="#C4C2BB"/>
      <rect width="6" height="9" x="52" y="46" fill="#C4C2BB"/>
      <rect width="15" height="2" x="48" y="104" fill="#ACA99E"/>
      <polygon fill="#827E74" points="61 109 50 109 48 106 63 106"/>
      <rect width="15" height="2" x="48" y="84" fill="#ACA99E"/>
      <polygon fill="#827E74" points="61 89 50 89 48 86 63 86"/>
      <path fill="#433A30" d="M53.3,89.3 C53.3,89.3 56,88.4 57.4,89.5 C58.8,90.6 58.4,92 57.7,93.1 C57,94.2 57,94.8 57.9,95.6 C58.8,96.4 60.1,98.1 60.1,98.1 C60.1,98.1 62.2,97.3 62.7,98.3 C63.2,99.3 63.1,100.4 63.8,100.7 C64.5,101 62.8,102.5 62.3,101.7 C61.8,100.8 61.5,99.7 61,99.9 C60.5,100 59.6,99.9 59.4,101 C59.2,102.1 60.2,103 59.5,103.2 C58.8,103.4 57.5,104.1 57.5,104.1 L53.4,104 C53.4,104 53.6,103.2 54.2,102.9 C54.7,102.6 54.9,101.5 54.9,100.8 C54.9,99.4 55.9,99.5 55.9,99.5 C55.9,99.5 54.3,98.4 53.7,97.5 C53.2,96.6 52.4,96 52.4,96 C52.4,96 51.2,95.2 50.2,95.9 C49.2,96.6 47.9,96.6 48.4,95.8 C48.8,95 50,94.4 50,94.4 C50,94.4 47.9,93.2 48.5,92.6 C49,91.9 51,92.7 51.4,93.3 C51.8,93.8 52.4,94.1 52.4,94.1 C52.4,94.1 52.9,93.2 53.9,92.5 C54.9,91.7 55.6,91.5 54.2,90.9 C52.6,90 53,89.5 53.3,89.3 Z"/>
      <rect width="4" height="29" x="2.946" y="127" fill="#C4C2BB" transform="rotate(-180 4.946 141.5)"/>
      <polygon fill="#C4C2BB" points="7 156 3 156 2 159 8 159"/>
      <rect width="6" height="1" x="1.946" y="159" fill="#827E74" transform="rotate(-180 4.946 159.5)"/>
      <polygon fill="#827E74" points="7 127 3 127 2 124 8 124"/>
      <rect width="6" height="1" x="1.946" y="123" fill="#ACA99E" transform="rotate(-180 4.946 123.5)"/>
      <rect width="4" height="29" x="9.946" y="127" fill="#C4C2BB" transform="rotate(-180 11.946 141.5)"/>
      <polygon fill="#C4C2BB" points="14 156 10 156 9 159 15 159"/>
      <rect width="6" height="1" x="8.946" y="159" fill="#827E74" transform="rotate(-180 11.946 159.5)"/>
      <polygon fill="#827E74" points="14 127 10 127 9 124 15 124"/>
      <rect width="6" height="1" x="8.946" y="123" fill="#ACA99E" transform="rotate(-180 11.946 123.5)"/>
      <rect width="15" height="3" x=".946" y="160" fill="#827E74" transform="rotate(-180 8.446 161.5)"/>
      <rect width="11" height="44" x="2.946" y="79" fill="#C4C2BB" transform="rotate(-180 8.446 101)"/>
      <rect width="15" height="2" x=".946" y="104" fill="#ACA99E" transform="rotate(-180 8.446 105)"/>
      <polygon fill="#827E74" points="3 109 14 109 16 106 1 106"/>
      <rect width="15" height="2" x=".946" y="84" fill="#ACA99E" transform="rotate(-180 8.446 85)"/>
      <polygon fill="#827E74" points="3 89 14 89 16 86 1 86"/>
      <path fill="#433A30" d="M10.7,89.3 C10.7,89.3 8,88.4 6.6,89.5 C5.2,90.6 5.6,92 6.3,93.1 C7,94.2 7,94.8 6.1,95.6 C5.2,96.4 3.9,98.1 3.9,98.1 C3.9,98.1 1.8,97.3 1.3,98.3 C0.8,99.3 0.9,100.4 0.2,100.7 C-0.5,101 1.2,102.5 1.7,101.7 C2.2,100.8 2.5,99.7 3,99.9 C3.5,100 4.4,99.9 4.6,101 C4.8,102.1 3.8,103 4.5,103.2 C5.2,103.4 6.5,104.1 6.5,104.1 L10.6,104 C10.6,104 10.4,103.2 9.8,102.9 C9.3,102.6 9.1,101.5 9.1,100.8 C9.1,99.4 8.1,99.5 8.1,99.5 C8.1,99.5 9.7,98.4 10.3,97.5 C10.8,96.6 11.6,96 11.6,96 C11.6,96 12.8,95.2 13.8,95.9 C14.8,96.6 16.1,96.6 15.6,95.8 C15.2,95 14,94.4 14,94.4 C14,94.4 16.1,93.2 15.5,92.6 C15,91.9 13,92.7 12.6,93.3 C12.2,93.8 11.6,94.1 11.6,94.1 C11.6,94.1 11.1,93.2 10.1,92.5 C9.1,91.7 8.4,91.5 9.8,90.9 C11.3,90 11,89.5 10.7,89.3 Z"/>
      <polygon fill="#827E74" points="13 77 4 77 6 79 11 79"/>
      <polygon fill="#C4C2BB" points="11 72 6 72 4 77 13 77"/>
      <circle cx="8.5" cy="69.5" r="2.5" fill="#827E74"/>
      <rect width="54" height="76" x="107.946" y="87" fill="#ACA99E" transform="rotate(-180 134.946 125)"/>
      <path fill="#ACA99E" d="M120,61 C120,72.6 129.4,82 141,82 L153,82 L153,88 L117,88 L117,61 L120,61 Z"/>
      <rect width="20" height="38" x="124.946" y="125" fill="#C4C2BB" transform="rotate(-180 134.946 144)"/>
      <rect width="4" height="29" x="105.946" y="127" fill="#C4C2BB" transform="rotate(-180 107.946 141.5)"/>
      <polygon fill="#C4C2BB" points="110 156 106 156 105 159 111 159"/>
      <rect width="6" height="1" x="104.946" y="159" fill="#827E74" transform="rotate(-180 107.946 159.5)"/>
      <polygon fill="#827E74" points="110 127 106 127 105 124 111 124"/>
      <rect width="6" height="1" x="104.946" y="123" fill="#ACA99E" transform="rotate(-180 107.946 123.5)"/>
      <rect width="4" height="29" x="112.946" y="127" fill="#C4C2BB" transform="rotate(-180 114.946 141.5)"/>
      <polygon fill="#C4C2BB" points="117 156 113 156 112 159 118 159"/>
      <rect width="6" height="1" x="111.946" y="159" fill="#827E74" transform="rotate(-180 114.946 159.5)"/>
      <polygon fill="#827E74" points="117 127 113 127 112 124 118 124"/>
      <rect width="6" height="1" x="111.946" y="123" fill="#ACA99E" transform="rotate(-180 114.946 123.5)"/>
      <rect width="45" height="2" x="116.946" y="106" fill="#827E74" transform="rotate(-180 139.446 107)"/>
      <rect width="45" height="2" x="116.946" y="86" fill="#C4C2BB" transform="rotate(-180 139.446 87)"/>
      <rect width="45" height="3" x="116.946" y="88" fill="#827E74" transform="rotate(-180 139.446 89.5)"/>
      <rect width="15" height="3" x="103.946" y="160" fill="#827E74" transform="rotate(-180 111.446 161.5)"/>
      <path fill="#9EC7EF" d="M135,130 C138.3,130 141,132.7 141,136 L141,163 L129,163 L129,136 C129,132.7 131.7,130 135,130 Z"/>
      <path fill="#ACA99E" d="M135,109.5 C136.7,109.5 138,110.8 138,112.5 L138,120 L132,120 L132,112.5 C132,110.8 133.3,109.5 135,109.5 Z"/>
      <rect width="5" height="3" x="140.946" y="160" fill="#4537A3" transform="rotate(-180 143.446 161.5)"/>
      <rect width="5" height="3" x="123.946" y="160" fill="#827E74" transform="rotate(-180 126.446 161.5)"/>
      <polygon fill="#827E74" points="125 128 145 128 146 125 124 125"/>
      <rect width="24" height="1" x="122.946" y="124" fill="#827E74" transform="rotate(-180 134.946 124.5)"/>
      <path fill="#C4C2BB" d="M138,112.5 C138,110.8 136.7,109.5 135,109.5 C133.3,109.5 132,110.8 132,112.5 L132,120 L130,120 L130,112.5 C130,109.7 132.2,107.5 135,107.5 C137.8,107.5 140,109.7 140,112.5 L140,120 L138,120 L138,112.5 Z"/>
      <polygon fill="#C4C2BB" points="124 124 146 124 140 120 130 120"/>
      <rect width="6" height="7" x="131.946" y="113" fill="#9EC7EF" transform="rotate(-180 134.946 116.5)"/>
      <rect width="3" height="15" x="119.946" y="91" fill="#C4C2BB" transform="rotate(-180 121.446 98.5)"/>
      <rect width="3" height="15" x="128.946" y="91" fill="#C4C2BB" transform="rotate(-180 130.446 98.5)"/>
      <rect width="3" height="15" x="137.946" y="91" fill="#C4C2BB" transform="rotate(-180 139.446 98.5)"/>
      <rect width="3" height="15" x="146.946" y="91" fill="#C4C2BB" transform="rotate(-180 148.446 98.5)"/>
      <rect width="3" height="15" x="153.946" y="91" fill="#953544" transform="rotate(-180 155.446 98.5)"/>
      <rect width="11" height="57" x="105.946" y="66" fill="#C4C2BB" transform="rotate(-180 111.446 94.5)"/>
      <rect width="15" height="2" x="103.946" y="104" fill="#ACA99E" transform="rotate(-180 111.446 105)"/>
      <polygon fill="#827E74" points="106 109 117 109 119 106 104 106"/>
      <rect width="15" height="2" x="103.946" y="84" fill="#ACA99E" transform="rotate(-180 111.446 85)"/>
      <polygon fill="#827E74" points="106 89 117 89 119 86 104 86"/>
      <path fill="#433A30" d="M113.7,89.3 C113.7,89.3 111,88.4 109.6,89.5 C108.2,90.6 108.6,92 109.3,93.1 C110,94.2 110,94.8 109.1,95.6 C108.2,96.4 106.9,98.1 106.9,98.1 C106.9,98.1 104.8,97.3 104.3,98.3 C103.8,99.3 103.9,100.4 103.2,100.7 C102.5,101 104.2,102.5 104.7,101.7 C105.2,100.8 105.5,99.7 106,99.9 C106.5,100 107.4,99.9 107.6,101 C107.8,102.1 106.8,103 107.5,103.2 C108.2,103.4 109.5,104.1 109.5,104.1 L113.6,104 C113.6,104 113.4,103.2 112.8,102.9 C112.3,102.6 112.1,101.5 112.1,100.8 C112.1,99.4 111.1,99.5 111.1,99.5 C111.1,99.5 112.7,98.4 113.3,97.5 C113.8,96.6 114.6,96 114.6,96 C114.6,96 115.8,95.2 116.8,95.9 C117.8,96.6 119.1,96.6 118.6,95.8 C118.2,95 117,94.4 117,94.4 C117,94.4 119.1,93.2 118.5,92.6 C118,91.9 116,92.7 115.6,93.3 C115.2,93.8 114.6,94.1 114.6,94.1 C114.6,94.1 114.1,93.2 113.1,92.5 C112.1,91.7 111.4,91.5 112.8,90.9 C114.3,90 114,89.5 113.7,89.3 Z"/>
      <rect width="4" height="29" x="160" y="127" fill="#C4C2BB"/>
      <polygon fill="#C4C2BB" points="160 156 164 156 165 159 159 159"/>
      <rect width="6" height="1" x="159" y="159" fill="#827E74"/>
      <polygon fill="#827E74" points="160 127 164 127 165 124 159 124"/>
      <rect width="6" height="1" x="159" y="123" fill="#ACA99E"/>
      <rect width="4" height="29" x="153" y="127" fill="#C4C2BB"/>
      <polygon fill="#C4C2BB" points="153 156 157 156 158 159 152 159"/>
      <rect width="6" height="1" x="152" y="159" fill="#827E74"/>
      <polygon fill="#827E74" points="153 127 157 127 158 124 152 124"/>
      <rect width="6" height="1" x="152" y="123" fill="#ACA99E"/>
      <rect width="15" height="3" x="151" y="160" fill="#827E74"/>
      <rect width="11" height="44" x="153" y="79" fill="#C4C2BB"/>
      <rect width="15" height="2" x="151" y="104" fill="#ACA99E"/>
      <polygon fill="#827E74" points="164 109 153 109 151 106 166 106"/>
      <rect width="15" height="2" x="151" y="84" fill="#ACA99E"/>
      <polygon fill="#827E74" points="164 89 153 89 151 86 166 86"/>
      <path fill="#433A30" d="M156.3,89.3 C156.3,89.3 159,88.4 160.4,89.5 C161.8,90.6 161.4,92 160.7,93.1 C160,94.2 160,94.8 160.9,95.6 C161.8,96.4 163.1,98.1 163.1,98.1 C163.1,98.1 165.2,97.3 165.7,98.3 C166.2,99.3 166.1,100.4 166.8,100.7 C167.5,101 165.8,102.5 165.3,101.7 C164.8,100.8 164.5,99.7 164,99.9 C163.5,100 162.6,99.9 162.4,101 C162.2,102.1 163.2,103 162.5,103.2 C161.8,103.4 160.5,104.1 160.5,104.1 L156.4,104 C156.4,104 156.6,103.2 157.2,102.9 C157.7,102.6 157.9,101.5 157.9,100.8 C157.9,99.4 158.9,99.5 158.9,99.5 C158.9,99.5 157.3,98.4 156.7,97.5 C156.2,96.6 155.4,96 155.4,96 C155.4,96 154.2,95.2 153.2,95.9 C152.2,96.6 150.9,96.6 151.4,95.8 C151.8,95 153,94.4 153,94.4 C153,94.4 150.9,93.2 151.5,92.6 C152,91.9 154,92.7 154.4,93.3 C154.8,93.8 155.4,94.1 155.4,94.1 C155.4,94.1 155.9,93.2 156.9,92.5 C157.9,91.7 158.6,91.5 157.2,90.9 C155.6,90 156,89.5 156.3,89.3 Z"/>
      <polygon fill="#827E74" points="154 77 163 77 161 79 156 79"/>
      <polygon fill="#C4C2BB" points="156 72 161 72 163 77 154 77"/>
      <circle cx="158.5" cy="69.5" r="2.5" fill="#827E74"/>
      <polygon fill="#827E74" points="123 63 44 63 46 66 121 66"/>
      <rect width="73" height="6" x="47" y="57" fill="#ACA99E"/>
      <polygon fill="#827E74" points="122 53 45 53 47 57 120 57"/>
      <rect width="8" height="3" x="51" y="43" fill="#827E74"/>
      <path fill="#433A30" d="M84.3,163 C84.3,163 80.5,154.3 79.5,147.2 C78.5,140 78.8,132 78.8,132 C78.8,132 75.5,129.8 72.8,125.7 C70.1,121.5 70.3,116.5 68.8,113.5 C67.3,110.5 64.8,108.8 64.8,108.8 L64.8,107 C64.8,107 67.1,109.2 68.3,110.5 C69.5,111.8 69.6,113.2 70.3,114.8 C71,116.5 71.3,117.6 71.3,117.6 C71.3,117.6 71.6,114.9 70.5,110.3 C69.3,105.6 65,101.5 65,101.5 L65,99.3 C65,99.3 69.8,104.3 71.3,109.3 C72.8,114.3 72.3,118.6 72.3,119.5 C72.3,120.4 74.1,124.7 76,126.7 C77.8,128.7 79.5,128.9 79.5,128.9 L79.5,124.9 C79.5,124.9 75.5,119.1 74.8,112.1 C74.1,105.1 73.1,102.8 71.1,98.9 C69.1,95.1 65.3,92.9 65.3,92.9 L65,91.4 C65,91.4 69.6,93.6 72.3,99.1 C75,104.6 74.8,104.8 75.3,108.3 C75.8,111.8 76.6,114.5 76.6,114.5 C76.6,114.5 77.6,108.8 76.9,103 C76.2,97.2 73.1,91.2 71.2,88 C69.4,84.8 68.7,80.2 68.7,80.2 L69.4,79 C69.4,79 70.6,85 72.4,88.2 C74.2,91.4 77.2,97.5 77.7,100.5 C78.2,103.5 78.2,105.8 78.2,105.8 C78.2,105.8 78.2,110 78,112.5 C77.8,115 77.5,116.2 77.5,116.2 C77.5,116.2 77.8,118.5 78.8,120 C79.8,121.5 80.6,122.5 80.6,122.5 C80.6,122.5 81.8,122.7 82.8,118.3 C83.8,114 85.8,106 84.6,101.3 C83.4,96.6 79.8,90.8 76.4,86.8 C73.1,82.8 70.9,77.5 70.9,77.5 L71.7,76.7 C71.7,76.7 74,82 76.5,85.4 C79,88.7 80.3,90.2 81.5,91.7 C83,93 83,93 83,93 C83,93 82.7,88.2 80.5,83.2 C78.3,78.2 75,74.5 75,74.5 L75.7,74.2 C75.7,74.2 80,78.7 81.9,83.7 C83.7,88.7 84.2,91.9 84.2,93 C84.2,94.1 84.5,95.5 84.5,95.5 C84.5,95.5 85.2,97.2 86.3,99.8 C87.5,102.5 87.5,104.5 87.5,104.5 C87.5,104.5 89,100.2 89.8,94.8 C90.6,89.5 90.5,84.1 89,80 C87.5,75.9 87.7,73 87.7,73 L88.7,73.3 C88.7,73.3 88.7,76.6 90.2,80.8 C91.7,85 91.4,87.8 91.2,89.8 C91,91.8 90.9,92.8 90.9,92.8 C90.9,92.8 92.7,89.5 93.2,84.8 C93.7,80.1 93.5,75.1 93.5,75.1 L94.3,75.9 C94.3,75.9 94.6,82.4 93.6,87.7 C92.6,93 91.1,94.4 91.1,94.4 C91.1,94.4 90.4,98.9 89.6,102.1 C88.8,105.3 87.1,108.4 87.1,108.4 C87.1,108.4 86.4,113.6 85.9,115.6 C85.4,117.6 85.4,118.3 85.4,118.3 C85.4,118.3 88.2,118.1 90.7,112.1 C93.2,106.1 93.9,101.6 96.2,98.4 C98.5,95.2 101.7,93.7 101.7,93.7 L101.7,94.9 C101.7,94.9 97.4,98.1 95.4,103.2 C93.4,108.4 91.9,112.7 90.6,115.4 C89.3,118.1 86.9,119.4 86.9,119.4 L85.7,120.1 C85.7,120.1 85,122.8 84.9,125.8 C84.7,128.8 85.2,130.1 85.2,130.1 C85.2,130.1 87.5,125.4 90.4,122.6 C93.2,119.8 96.9,117.4 98.4,115.4 C99.9,113.4 101.9,110.4 101.9,110.4 L101.9,111.7 C101.9,111.7 99.6,116.4 96.9,118.7 C94.2,121 92.7,122 92.7,122 C92.7,122 94.5,122.2 97,121.5 C99.5,120.8 101.8,119.5 101.8,119.5 L101.8,120.7 C101.8,120.7 98.3,122.9 96,123.5 C93.7,124.2 92.2,123.8 92.2,123.8 C92.2,123.8 88.9,127.5 88,131.8 C87.2,136.1 88.7,144.3 90.5,148.8 C92.3,153.3 95.5,158.1 96.7,159.6 C97.9,161.1 99,162.8 99,162.8 L84.3,162.8 L84.3,163 Z"/>
    </g>
    <g transform="translate(0 159)">
      <path fill="#88C11A" d="M21.3,37.2 C21.3,44 16.7,47.2 11.1,47.2 C5.5,47.2 0.9,44 0.9,37.2 C0.9,30.4 5.5,19.5 11.1,19.5 C16.8,19.5 21.3,30.4 21.3,37.2 Z"/>
      <path fill="#E0DAD1" d="M9.3,54.7 C9.3,54.7 10.4,52.6 11.1,49 C11.8,45.4 11,41.8 11,41.8 C11,41.8 8.8,40 7.4,36.8 C6.3,34.4 6.4,33.5 6.8,33.3 C7.1,33.2 8.1,36.2 8.8,37.5 C9.8,39.3 11.5,40.6 11.5,40.6 C11.5,40.6 12.3,38.1 11.8,32.8 C11.5,29.3 11,27.7 11.3,27.3 C11.5,27 12.6,29.1 13.1,34.6 C13.3,37.2 12.9,39.7 12.7,40.7 C12.5,42 13.3,43.1 12.7,48.7 C12.3,52.3 11.5,54.6 11.5,54.6 L9.3,54.7 Z"/>
      <path fill="#88C11A" d="M128.6,31.5 C128.6,40.2 134.4,44.4 141.6,44.4 C148.8,44.4 154.6,40.3 154.6,31.5 C154.6,22.8 148.8,8.8 141.6,8.8 C134.4,8.8 128.6,22.8 128.6,31.5 Z"/>
      <path fill="#88C11A" d="M148.1,24.9 C148.1,34.2 154.3,38.7 162.1,38.7 C169.8,38.7 176.1,34.3 176.1,24.9 C176.1,15.6 169.9,0.7 162.1,0.7 C154.3,0.7 148.1,15.6 148.1,24.9 Z"/>
      <path fill="#E0DAD1" d="M144.2,52.4 C144.2,52.4 145,46.1 144.8,41.9 C144.7,37.7 144.2,36.6 144.2,36.6 C144.2,36.6 146.3,33.5 147,31.5 C147.9,29 148.2,27.4 148.3,25.9 C148.4,25.3 148.5,23.7 147.6,23.8 C147.1,23.8 147,28.1 145.8,31 C145.1,32.7 143.5,35 143.5,35 C143.5,35 141.4,31 141.1,25.6 C140.8,20.2 142,17.8 141.4,17.2 C140.9,16.6 139.7,19.3 139.7,24.8 C139.6,31.4 140.7,33.2 141.1,34.3 C141.4,35.4 142.1,36.5 142.3,38.1 C142.5,39.1 142.4,40 142.4,40 C142.4,40 140,39.4 138.3,37.7 C137,36.4 136.2,35.3 135.7,35.5 C135.4,35.6 136.1,37.4 138.3,39.3 C140.1,40.9 142.6,41.7 142.6,41.7 C142.6,41.7 142.5,45.6 142.2,47.7 C141.9,49.8 141.3,52.5 141.3,52.5 L144.2,52.4 Z"/>
      <path fill="#3F3C38" d="M142.9 46.1L144.7 46.1C144.7 46.9 144.6 47.6 144.5 48.3L142.8 48.3 142.8 46.1 142.9 46.1zM144.2 42.4L144.2 44.6 142.5 44.6C142.5 43.8 142.6 43 142.6 42.4L144.2 42.4zM140.8 32.4L140.8 30.2 141.8 30.2C142 31 142.2 31.8 142.4 32.4L140.8 32.4zM11.7 45.5L12.8 45.5C12.8 44.6 12.8 43.9 12.7 43.3L11.7 43.3 11.7 45.5zM12.2 49.2L11 49.2C10.8 50 10.7 50.7 10.5 51.4L12.2 51.4 12.2 49.2z"/>
      <path fill="#88C11A" d="M468,34.4 C468,42.3 473.3,46 479.8,46 C486.3,46 491.6,42.3 491.6,34.4 C491.6,26.5 486.3,14 479.8,14 C473.3,14 468,26.6 468,34.4 Z"/>
      <path fill="#E0DAD1" d="M481.9,54.7 C481.9,54.7 480.6,52.3 479.9,48.1 C479.1,43.9 480,39.8 480,39.8 C480,39.8 482.6,37.7 484.2,34.1 C485.4,31.3 485.4,30.3 484.9,30.1 C484.6,30 483.4,33.4 482.6,35 C481.5,37.1 479.5,38.6 479.5,38.6 C479.5,38.6 478.6,35.7 479.2,29.6 C479.6,25.6 480.1,23.7 479.8,23.2 C479.6,22.8 478.3,25.3 477.8,31.7 C477.6,34.7 478.1,37.6 478.2,38.8 C478.4,40.3 477.5,41.6 478.2,48 C478.6,52.2 479.6,54.8 479.6,54.8 L481.9,54.7 Z"/>
      <path fill="#3F3C38" d="M479.1 44L477.8 44C477.8 42.9 477.8 42.1 477.9 41.5L479.1 41.5 479.1 44zM478.6 48.3L479.9 48.3C480.1 49.2 480.3 50.1 480.5 50.8L478.6 50.8 478.6 48.3z"/>
    </g>
    <g transform="translate(137 125)">
      <path fill="#B1C0C4" d="M0,69 C0,69 6,84.8 25,86.8 C44,88.8 33.2,65.1 33.2,65.1 L0,69 Z"/>
      <path fill="#3D3D3D" d="M164,27.7 C164,27.7 209.3,27 235.7,22 C262,17 295.7,49.3 281.4,53 C267,56.7 164,27.7 164,27.7 Z"/>
      <path fill="#3D3D3D" d="M95.8,20 C95.8,20 106.6,9 189,18.5 C271.4,28 145.2,6.7 138.2,5.5 C131.2,4.3 82.2,0.5 68.2,1.5 C54.2,2.5 22.4,7.5 23,23 C23.6,38.5 42.2,33.8 42.2,33.8 L95.8,20 Z"/>
      <path fill="#A0AEB5" d="M63.7,4.8 C63.7,4.8 35.5,10 29.9,22.8 C25.7,32.3 28.4,40.8 28.4,40.8 C28.4,40.8 26.2,45.5 21.9,37.5 C17.6,29.5 18.2,20 20.9,18.3 C34.2,9.8 49.2,4.1 63.7,4.8 Z"/>
      <g fill="#DAE7EA" transform="translate(30 2)">
        <polygon points="7.2 16.8 6 11.8 4 12.2 5.3 17.3 1.6 14.2 .4 15.8 7.4 21.6 12.9 8.4 11.1 7.6"/>
        <path d="M227.3,38 L226.8,36.1 L217.3,38.7 L218,34.2 L216,33.9 L215.3,38 L211.8,34.6 L213.3,33.9 L212.5,32.1 L210.2,33.1 L208.6,31.6 L207.2,33 L208.2,34 L201.9,36.7 L201.9,30 L199.9,30 L199.9,35.7 L195.9,30.5 L197.3,29.9 L196.5,28.1 L194.6,28.9 L192.7,26.4 L191.1,27.6 L192.7,29.7 L185.9,32.5 L185.9,24 L183.9,24 L183.9,31.2 L178.8,25.1 L179.3,24.8 L178.3,23 L177.4,23.5 L175.5,21.3 L174,22.6 L175.6,24.5 L168.8,28.2 L168.8,20.4 L166.8,20.4 L166.8,27 L162.2,21.2 L163.8,20.3 L162.8,18.6 L160.9,19.7 L159.1,17.4 L157.5,18.6 L159.1,20.7 L152.7,24.3 L152.7,16 L150.7,16 L150.7,23.2 L145.3,16.6 L146.2,16.1 L145.2,14.4 L144.1,15.1 L142.5,13.1 L141,14.4 L142.4,16.1 L135.7,20.2 L135.7,11 L133.7,11 L133.7,19.1 L129.3,13.6 L131.4,12.3 L130.4,10.6 L128.1,12 L125.7,9 L124.1,10.2 L126.3,13 L120.4,16.6 L119.6,7.8 L117.6,8 L118.4,17.3 L111.2,9.5 L112.6,8.4 L111.4,6.8 L109.8,8 L107.2,5.2 L105.7,6.6 L108.1,9.2 L101.3,14.2 L100.3,3.7 L98.3,3.9 L99.2,14 L94.1,8.6 L97.7,5.9 L96.5,4.3 L92.8,7.1 L88.9,2.9 L87.4,4.3 L91.2,8.3 L86.2,12 L85.3,1.7 L83.3,1.9 L84.1,11.2 L79.5,5.4 L81.9,3.6 L80.7,2 L78.2,3.8 L76.3,1.4 L74.7,2.6 L76.6,5 L70.1,9.9 L69.3,1.7 L67.3,1.9 L68.1,9.4 L61.5,3.8 L63,2.5 L61.7,1 L59.9,2.5 L57,-5.68434189e-14 L55.7,1.5 L58.4,3.8 L51.1,9.9 L49.4,0.6 L47.4,1 L48.9,9.4 L42,4.1 L44.2,1.5 L42.7,0.2 L40.5,2.9 L38.1,1 L36.9,2.6 L39.3,4.4 L35.3,9.3 L34.5,1.7 L32.5,1.9 L33.2,9.4 L29.8,6.4 L31.8,3.1 L30.1,2.1 L28.2,5.1 L25.6,2.8 L24.3,4.3 L27.2,6.8 L24,12.1 L22.5,4.1 L20.5,4.5 L22,12.3 L14.1,6 L12.9,7.6 L23.8,16.3 L28.8,8.1 L34.7,13.2 L40.9,5.6 L50.6,13.1 L60.1,5.1 L69.5,13 L78.1,6.5 L85.1,15.3 L92.7,9.6 L100.1,17.5 L109.5,10.5 L118.2,20 L127.3,14.4 L134.1,23 L143.3,17.4 L151.1,27 L160,22 L167.1,31 L176.5,25.9 L184.1,35 L193.5,31.1 L199.9,39.3 L209.3,35.3 L215.2,41 L227.3,38 Z M100.7,15 L101.1,15 L100.9,15.2 L100.7,15 Z"/>
      </g>
      <path fill="#86939B" d="M232.3,40.7 C219,38.3 196.9,32.8 180.5,28.5 C120,13 73,13 54,17 C31,21.8 27,31 27,31 L27,65 L334,65 L334,48 C334,48 321,57 232.3,40.7 Z"/>
      <path fill="#555F6B" d="M89,15 C89,15 125,21 159,32 C193,43 255.1,58.1 288,62 C330,67 334,61 334,61 L334,47 C334,47 329.7,54.7 283.3,49.3 C237,44 161.3,22 137.7,19 C114,16 89,15 89,15 Z"/>
      <path fill="#DAE7EA" d="M27,31 C27,31 31,21.8 54,17 C60.4,15.7 70,14.8 82.2,14.8 C106.2,14.8 140.4,18.3 180.5,28.5 C197,32.7 219,38.2 232.3,40.7 C274.5,48.5 299.5,50.5 314.2,50.5 C330.4,50.5 333.9,48 333.9,48 L333.9,48.6 C334.6,48.1 335.2,47.7 335.8,47.3 C335.6,46.8 335.3,46.4 334.8,46.1 C334.5,46 334.2,45.9 333.9,45.9 C333.5,45.9 333.1,46 332.8,46.3 C332.4,46.5 328.3,48.4 314.2,48.4 C295.3,48.4 267.9,45.1 232.6,38.6 C222.2,36.7 205.3,32.7 180.9,26.5 C134,14.5 98.9,12.7 82.1,12.7 C70.5,12.7 60.6,13.5 53.5,15 C34.5,19 26.6,26.3 25.1,30.2 C24.6,31.6 25.1,32.6 25.2,32.9 C25.6,33.7 26.9,34.1 26.9,34.1 C27,32.6 27,32.3 27,31 Z"/>
      <rect width="79" height="21" x="156" y="68" fill="#555F6B"/>
      <rect width="125" height="5" x="156" y="87" fill="#D9EBF4"/>
      <rect width="67" height="5" x="156" y="76" fill="#D9EBF4"/>
      <rect width="5" height="23" x="175" y="69" fill="#D9EBF4"/>
      <rect width="5" height="4.1" x="175" y="69" fill="#98ABAF"/>
      <rect width="5" height="23" x="198" y="69" fill="#D9EBF4"/>
      <rect width="5" height="23" x="221" y="69" fill="#D9EBF4"/>
      <rect width="5" height="23" x="244" y="69" fill="#D9EBF4"/>
      <rect width="5" height="23" x="333" y="69" fill="#D9EBF4"/>
      <rect width="5" height="23" x="267" y="69" fill="#D9EBF4"/>
      <rect width="349" height="5" y="64" fill="#D9EBF4"/>
      <polygon fill="#D9EBF4" points="81 69 29 69 1 88.3 1 92 81 92"/>
      <polygon fill="#B1C0C4" points="81 69 65 92 81 92"/>
      <polygon fill="#86939B" points="74 69 39 69 8 92 56 92"/>
      <rect width="76" height="23" x="81" y="69" fill="#98ABAF"/>
      <polygon fill="#D9EBF4" points="305 92 267 92 267 88 301 69 336 69"/>
      <rect width="5" height="23" x="152" y="69" fill="#D9EBF4"/>
      <polygon fill="#D9EBF4" points="105 92 91 92 152 69 154 74"/>
      <path fill="#D9EBF4" d="M341,39.3 C329.8,17.5 278.2,9 249,7.3 C222.7,5.8 108,-1 71.7,0.3 C35.4,1.6 14.4,14.3 15.4,28.3 C16.1,38.3 23.1,44 27.1,46.5 L27.1,41 C19.6,34.2 16.7,24.2 25.1,17.7 C36.9,8.5 54.9,4.4 85.4,4 C146.7,3.3 220,30.3 265.3,43 C274,45.4 282.5,47.5 290.6,49.2 C327.3,55.4 334.1,52.5 334.1,52.5 C341.7,50.8 344.8,46.7 341,39.3 Z"/>
      <path fill="#00BF88" d="M123.5,1.2 C123.5,1.2 162.7,5.7 205.7,18 C248.7,30.3 306.2,45 323.5,41.2 C342.1,37.2 313.5,20.2 292.3,15 C271.1,9.8 249.4,7.8 249.4,7.8 C249.4,7.8 229.6,6.1 203.7,4.8 C168.4,3 126.1,1.5 123.5,1.2 Z"/>
      <path fill="#D9EBF4" d="M164.8,2.8 C164.8,2.8 196.3,9.3 215.8,16.3 C228.3,20.8 238.6,24.3 254.8,24.8 C268.3,25.2 294.6,23 294,21.3 C292.8,17.2 265.2,8.8 245.8,7.5 C226.4,6.2 164.8,2.8 164.8,2.8 Z"/>
      <path fill="#6B6B6B" d="M182.8,3.8 C182.8,3.8 212.8,9.6 221.3,12.3 C229.8,15 231.3,14.5 242.1,14.5 C252.9,14.5 269.3,15 269.1,13.7 C268.9,12.4 246.6,6.7 231.1,6.2 C215.6,5.7 182.8,3.8 182.8,3.8 Z"/>
      <rect width="5" height="4.1" x="198" y="69" fill="#98ABAF"/>
      <rect width="5" height="4.1" x="220.9" y="69" fill="#98ABAF"/>
      <rect width="5" height="4.1" x="243.9" y="69" fill="#98ABAF"/>
      <rect width="5" height="4.1" x="266.9" y="69" fill="#98ABAF"/>
      <path fill="#555F6B" d="M27,31 C27,31 32.1,20.9 56.9,16.4 C81.7,11.9 104.1,16 104.1,16 L114.6,20.1 C114.6,20.1 88.4,14.6 63.2,18 C38,21.4 27,36.6 27,36.6 L27,31 Z"/>
    </g>
    <g transform="translate(4 21)">
      <rect width="7.1" height="7.1" x="274.093" y="65.59" fill="#C0F9FF" transform="rotate(11.836 277.643 69.14)"/>
      <rect width="5" height="5" x="274.827" y="41.705" fill="#A4DCFF" transform="rotate(67.803 277.327 44.205)"/>
      <rect width="5" height="5" x="307.103" y="62.553" fill="#A4DCFF" transform="rotate(67.803 309.603 65.053)"/>
      <rect width="5" height="5" x="304.804" y="13.473" fill="#A4DCFF" transform="rotate(-57.554 307.304 15.973)"/>
      <rect width="7.7" height="7.7" x="310.009" y="52.543" fill="#C0F9FF" transform="rotate(-57.554 313.86 56.393)"/>
      <rect width="5" height="5" x="280.43" y="85.318" fill="#C0F9FF" transform="rotate(-40.202 282.93 87.818)"/>
      <rect width="2.5" height="2.5" x="13.918" y="90.419" fill="#C0F9FF" transform="rotate(-40.202 15.168 91.669)"/>
      <rect width="5" height="5" x="1.418" y="66.316" fill="#C0F9FF" transform="rotate(-40.202 3.918 68.816)"/>
      <rect width="7.1" height="7.1" x="344.694" y="77.681" fill="#A4DCFF" transform="rotate(11.836 348.243 81.231)"/>
      <rect width="8.5" height="8.5" x="354.352" y="95.975" fill="#A6CAFF" transform="rotate(62.174 358.602 100.225)"/>
      <rect width="8.5" height="8.5" x="404.351" y="100.977" fill="#A6CAFF" transform="rotate(62.174 408.601 105.227)"/>
      <rect width="8.5" height="8.5" x="439.353" y="43.979" fill="#A6CAFF" transform="rotate(62.174 443.603 48.23)"/>
      <rect width="8.5" height="8.5" x="452.35" y="102.979" fill="#A6CAFF" transform="rotate(62.174 456.6 107.23)"/>
      <rect width="8.5" height="8.5" x="458.351" y="90.979" fill="#A6CAFF" transform="rotate(62.174 462.601 95.23)"/>
      <rect width="8.5" height="8.5" x="434.351" y="94.978" fill="#A6CAFF" transform="rotate(62.174 438.601 99.228)"/>
      <rect width="10.5" height="10.5" x="401.523" y="50.736" fill="#A4DCFF" transform="rotate(32.052 406.773 55.986)"/>
      <rect width="10.5" height="10.5" x="385.522" y="97.737" fill="#A4DCFF" transform="rotate(32.052 390.773 102.988)"/>
      <rect width="6.5" height="6.5" x="436.695" y="111.423" fill="#A4DCFF" transform="rotate(32.052 439.945 114.673)"/>
      <rect width="6.5" height="6.5" x="466.697" y="49.42" fill="#A4DCFF" transform="rotate(32.052 469.947 52.67)"/>
      <rect width="4" height="4" x="235.217" y="95.991" fill="#A4DCFF" transform="rotate(32.052 237.217 97.99)"/>
      <rect width="4" height="4" x="252.218" y="72.99" fill="#A4DCFF" transform="rotate(32.052 254.218 74.99)"/>
      <rect width="6.5" height="6.5" x="221.687" y="84.421" fill="#A4DCFF" transform="rotate(32.052 224.937 87.671)"/>
      <rect width="7.1" height="7.1" x="393.393" y="69.17" fill="#A6CAFF" transform="rotate(11.836 396.943 72.72)"/>
      <rect width="5" height="5" x="408.617" y="75.046" fill="#A4DCFF" transform="rotate(67.803 411.117 77.546)"/>
      <rect width="5" height="5" x="450.615" y="93.046" fill="#A4DCFF" transform="rotate(67.803 453.115 95.546)"/>
      <rect width="8.5" height="8.5" x="420.126" y="70.522" fill="#C0F9FF" transform="rotate(62.174 424.376 74.772)"/>
      <rect width="6" height="6" x="574.671" y="23.142" fill="#A6CAFF" transform="rotate(132.686 577.671 26.142)"/>
      <rect width="7.4" height="7.4" x="578.315" y="1.584" fill="#A4DCFF" transform="rotate(102.569 582.015 5.284)"/>
      <rect width="5" height="5" x="587.162" y="35.315" fill="#A6CAFF" transform="rotate(82.351 589.662 37.815)"/>
      <rect width="3.5" height="3.5" x="588.07" y="46.434" fill="#A4DCFF" transform="rotate(138.316 589.82 48.184)"/>
      <rect width="6" height="6" x="591.805" y="53.433" fill="#C0F9FF" transform="rotate(132.686 594.805 56.433)"/>
      <rect width="13.3" height="13.3" x="135.158" y="86.997" fill="#A4DCFF" transform="rotate(83.125 141.808 93.647)"/>
      <rect width="5" height="5" x="124.932" y="66.151" fill="#A4DCFF" transform="rotate(144.578 127.432 68.651)"/>
      <rect width="8.5" height="8.5" x="135.933" y="68.957" fill="#A6CAFF" transform="rotate(93.948 140.183 73.207)"/>
      <rect width="10.5" height="10.5" x="175.674" y="61.251" fill="#A4DCFF" transform="rotate(63.827 180.925 66.5)"/>
      <rect width="7.1" height="7.1" x="160.322" y="72.032" fill="#A6CAFF" transform="rotate(43.614 163.872 75.582)"/>
      <rect width="5" height="5" x="170.761" y="84.568" fill="#A4DCFF" transform="rotate(-132.406 173.261 87.068)"/>
      <rect width="5" height="5" x="1.766" y="79.569" fill="#A4DCFF" transform="rotate(-132.406 4.266 82.069)"/>
      <rect width="5" height="5" x="128.762" y="80.568" fill="#A4DCFF" transform="rotate(-132.406 131.262 83.068)"/>
      <rect width="5" height="5" x="193.761" y="96.567" fill="#A4DCFF" transform="rotate(-132.406 196.26 99.067)"/>
      <rect width="5" height="5" x="197.764" y="87.574" fill="#A4DCFF" transform="rotate(-111.994 200.264 90.074)"/>
      <rect width="8.5" height="8.5" x="181.792" y="87.478" fill="#C0F9FF" transform="rotate(93.948 186.042 91.728)"/>
    </g>
  </g>
</svg>
