<svg xmlns="http://www.w3.org/2000/svg" viewBox="0 0 631 252">
  <g fill="none">
    <path fill="#841F00" d="M626.5,9 L5.2,9 C2.8,9 0.9,7 0.9,4.5 C0.9,2 2.8,0 5.2,0 L626.5,0 C628.9,0 630.8,2 630.8,4.5 C630.8,7 628.9,9 626.5,9 Z" transform="translate(0 235)"/>
    <g transform="translate(167 31)">
      <path fill="#8DCEFF" d="M283.1,188 C283.1,188 307.7,102 249.4,51.9 C214.6,21.9 180.5,21.1 168.6,22.3 C160.9,23.1 175.6,92.2 175.6,92.2 C175.6,92.2 205,91.8 227.1,117.1 C249.1,142.4 240.3,181.8 240.3,181.8 L283.1,188 Z"/>
      <circle cx="174.916" cy="57.088" r="35.302" fill="#DDE7ED" transform="rotate(-10.626 174.916 57.088)"/>
      <path fill="#333333" d="M160.1 55.5C160.1 55.5 161.4 59.9 163.6 64.2 165.8 68.5 167.1 70 167.1 70 167.1 70 170.3 69.8 175.5 69.2 180.7 68.6 182.1 68.5 182.1 68.5 182.1 68.5 183.9 64.4 184.9 59.6 185.9 54.8 185.8 53.4 185.8 53.4 185.8 53.4 182 50 178.9 48.1 175.8 46.2 172.5 44.8 172.5 44.8 172.5 44.8 168.7 47.3 165.3 50.4 161.9 53.5 160.1 55.5 160.1 55.5zM139.7 59.9C139.7 59.9 138.9 55.9 140 50.7 141.1 45.5 142.5 42.2 143 41.5 143.5 40.8 144.3 40.3 144.3 40.3L147.6 39.4C147.6 39.4 146.9 42.7 146.8 46.3 146.7 49.9 147.7 52.4 147.7 52.4 147.7 52.4 145.4 54.7 144.2 57.8 143 60.9 142.3 62.5 142.3 62.5 142.3 62.5 140.6 61.2 139.7 59.9zM158.4 29.2C158.4 29.2 159.2 27.1 161.2 25.3 163.3 23.4 166.3 22.9 169.4 22.2 172.5 21.5 177.2 21.5 180.5 23.4 183.8 25.3 183.6 26.3 183.6 26.3 183.6 26.3 181.9 26.5 177.2 28.5 172.5 30.4 170.8 31.8 170.8 31.8 170.8 31.8 164.3 28.8 158.4 29.2zM196.5 34.2C196.5 34.2 199.9 34.4 202.3 35.7 204.7 36.9 206.5 40.7 207.7 43.5 208.9 46.3 209.5 49.2 209.5 50.6 209.5 52 208.6 53.9 207.7 55.4 206.8 56.9 206.4 57.2 206.4 57.2 206.4 57.2 205 54 201.5 50.6 198 47.1 197.5 46.8 197.5 46.8 197.5 46.8 198.6 42.3 196.5 34.2zM185 87.8C185 87.8 185.9 86.9 188.3 83.5 190.7 80.1 191.4 77.7 191.4 77.7 191.4 77.7 193.6 77.5 198 75.4 202.3 73.3 203.3 71.7 203.3 71.7 203.3 71.7 204.5 75.7 202.5 79.1 200.5 82.5 194.9 86.7 192 88.1 189.1 89.5 185 87.8 185 87.8zM160.2 80.8C160.2 80.8 162.5 83.9 165.6 86.2 168.7 88.5 169.5 89 169.5 89 169.5 89 166.6 91.1 163.3 90.7 161.4 90.4 155.4 87 153.9 85.7 152 84.2 151.1 83.2 151.1 83.2L149.8 78.5 160.2 80.8z"/>
      <rect width="9.4" height="9.4" x="124.236" y="68.195" fill="#A4DCFF" transform="rotate(32.052 128.936 72.895)"/>
      <rect width="7.3" height="7.3" x="451.462" y="52.972" fill="#A4DCFF" transform="rotate(-132.406 455.112 56.622)"/>
      <rect width="4.1" height="4.1" x="92.871" y="94.508" fill="#A4DCFF" transform="rotate(-132.406 94.92 96.558)"/>
      <rect width="4.1" height="4.1" x="189.869" y="97.506" fill="#A4DCFF" transform="rotate(-132.406 191.92 99.556)"/>
      <rect width="4.1" height="4.1" x="143.829" y="95.495" fill="#A4DCFF" transform="rotate(-102.72 145.88 97.545)"/>
      <rect width="7.3" height="7.3" x="101.497" y="77.698" fill="#A6CAFF" transform="rotate(-111.994 105.147 81.348)"/>
      <rect width="7.3" height="7.3" x="254.466" y="38.667" fill="#A6CAFF" transform="rotate(-69.494 258.116 42.317)"/>
      <rect width="4.2" height="4.2" x="1.087" y="66.094" fill="#A6CAFF" transform="rotate(-69.494 3.187 68.193)"/>
      <rect width="7.3" height="7.3" x="270.492" y="77.704" fill="#A6CAFF" transform="rotate(-111.994 274.142 81.354)"/>
      <rect width="7.3" height="7.3" x="451.486" y="76.712" fill="#A6CAFF" transform="rotate(-111.994 455.136 80.361)"/>
      <rect width="8.5" height="8.5" x="86.829" y="63.453" fill="#C0F9FF" transform="rotate(93.947 91.079 67.702)"/>
      <rect width="12.8" height="12.8" x="197.492" y="90.322" fill="#C0F9FF" transform="rotate(64.596 203.892 96.722)"/>
      <rect width="5" height="5" x="210.08" y="115.114" fill="#A6CAFF" transform="rotate(-99.573 212.58 117.614)"/>
      <rect width="4" height="4" x="255.209" y="133.802" fill="#A4DCFF" transform="rotate(3.262 257.209 135.803)"/>
      <rect width="6.5" height="6.5" x="234.3" y="130.311" fill="#A4DCFF" transform="rotate(-15.402 237.55 133.561)"/>
      <rect width="5" height="5" x="240.031" y="116.424" fill="#A6CAFF" transform="rotate(-159.445 242.531 118.924)"/>
      <rect width="5" height="5" x="244.834" y="128.742" fill="#A4DCFF" transform="rotate(135.097 247.334 131.242)"/>
      <rect width="8.1" height="8.1" x="279.868" y="123.448" fill="#A4DCFF" transform="rotate(-105.546 283.918 127.498)"/>
      <rect width="6.5" height="6.5" x="283.418" y="93.404" fill="#A4DCFF" transform="rotate(-.961 286.668 96.654)"/>
      <rect width="15.899" height="15.899" x="122.094" y="85.38" fill="#A6CAFF" transform="rotate(8.135 130.044 93.33)"/>
      <rect width="15.9" height="15.9" x="267.089" y="13.379" fill="#48A8FF" transform="rotate(45 275.039 21.328)"/>
      <rect width="4" height="4" x="185.928" y="133.56" fill="#A4DCFF" transform="rotate(-60.482 187.928 135.56)"/>
      <rect width="6.5" height="6.5" x="151.815" y="128.719" fill="#A4DCFF" transform="rotate(-79.146 155.065 131.969)"/>
      <rect width="9.4" height="9.4" x="177.195" y="114.876" fill="#C0F9FF" transform="rotate(42.617 181.895 119.576)"/>
      <rect width="5" height="5" x="221.014" y="133.811" fill="#A4DCFF" transform="rotate(16.469 223.514 136.311)"/>
      <rect width="7.1" height="7.1" x="164.621" y="127.767" fill="#A6CAFF" transform="rotate(-39.494 168.171 131.317)"/>
      <rect width="11.9" height="11.9" x="233.21" y="94.185" fill="#A6CAFF" transform="rotate(-39.494 239.16 100.135)"/>
      <rect width="4" height="4" x="378.257" y="101.5" fill="#A4DCFF" transform="rotate(-60.487 380.257 103.5)"/>
      <rect width="6.5" height="6.5" x="346.127" y="102.647" fill="#A4DCFF" transform="rotate(-79.152 349.377 105.897)"/>
      <rect width="9.4" height="9.4" x="364.195" y="79.879" fill="#C0F9FF" transform="rotate(42.617 368.895 84.579)"/>
      <rect width="7.1" height="7.1" x="351.621" y="92.764" fill="#A6CAFF" transform="rotate(-39.494 355.17 96.314)"/>
      <rect width="10.3" height="10.3" x="323.984" y="8.489" fill="#C0F9FF" transform="rotate(-19.281 329.134 13.639)"/>
      <rect width="4" height="4" x="313.525" y="27.826" fill="#A4DCFF" transform="rotate(-77.579 315.525 29.826)"/>
      <rect width="4" height="4" x="336.497" y="1.834" fill="#C0F9FF" transform="rotate(-21.624 338.497 3.834)"/>
      <rect width="4" height="4" x="328.525" y="23.826" fill="#A4DCFF" transform="rotate(-77.579 330.525 25.826)"/>
      <rect width="4" height="4" x="445.523" y="84.823" fill="#A4DCFF" transform="rotate(-77.579 447.523 86.823)"/>
      <rect width="4" height="4" x="286.525" y=".827" fill="#A4DCFF" transform="rotate(-77.579 288.525 2.827)"/>
      <rect width="6.5" height="6.5" x="261.529" y="5.922" fill="#A4DCFF" transform="rotate(-96.24 264.779 9.172)"/>
      <rect width="7.1" height="7.1" x="62.845" y="79.803" fill="#A6CAFF" transform="rotate(-56.585 66.395 83.353)"/>
      <path fill="#EFE5DC" d="M322.1,83.6 L258.2,83.6 C252,83.6 247,78.6 247,72.4 C247,66.2 252,61.2 258.2,61.2 L322.1,61.2 C328.3,61.2 333.3,66.2 333.3,72.4 C333.3,78.5 328.3,83.6 322.1,83.6 Z"/>
      <circle cx="273.8" cy="61.4" r="13.8" fill="#EFE5DC"/>
      <circle cx="299.8" cy="57.3" r="22.6" fill="#EFE5DC"/>
      <path fill="#EFE5DC" d="M78.3,92.2 L25.3,92.2 C20.2,92.2 16,88 16,82.9 C16,77.8 20.2,73.6 25.3,73.6 L78.3,73.6 C83.4,73.6 87.6,77.8 87.6,82.9 C87.6,88 83.5,92.2 78.3,92.2 Z"/>
      <circle cx="38.3" cy="73.8" r="11.5" fill="#EFE5DC"/>
      <circle cx="59.8" cy="70.5" r="18.8" fill="#EFE5DC"/>
    </g>
    <g transform="translate(441 12)">
      <path fill="#F7AC2B" d="M127.4,65 C127.4,81.7 110.9,89.2 90.6,89.2 C70.3,89.2 53.8,81.7 53.8,65 C53.8,58.1 61,51.7 68.3,44.2 C78.8,33.6 90.6,22.8 90.6,22.8 C90.6,22.8 102.1,33.5 112.6,44.2 C120,51.7 127.4,58.2 127.4,65 Z"/>
      <g fill="#E0911E" transform="translate(59)">
        <path d="M52.6,44 C51.9,43.2 51.1,42.4 50.4,41.6 C41.7,32.2 32.1,22.6 31.9,22.4 L31.5,22 L31.1,22.4 C30.7,22.8 21,32.3 12.4,41.6 C11.8,42.3 11.2,42.9 10.6,43.6 C4.9,49.7 0.1,54.9 0.1,60.7 C0.1,74.6 11.9,82.9 31.6,82.9 C51.3,82.9 63,74.5 63,60.6 C63,55.1 57.9,49.7 52.6,44 Z M30.6,69.8 C26,69.1 23.3,63.1 23.3,53.5 C23.3,49.2 24.6,45.2 26.2,40.6 L26.7,39.1 C28.2,34.7 29.8,30.2 30.8,27.3 C30.7,30.2 30.4,34.6 30.2,38.9 L30.1,40.4 C29.9,45.1 29.7,49.1 29.7,53.5 C29.8,64 30.2,68.2 30.6,69.8 Z M31.7,69.9 C31.5,69.4 30.8,66.8 30.8,53.5 C30.8,49.2 31,45.1 31.2,40.5 L31.3,39 C31.5,34.2 31.8,29.3 31.9,26.5 C32.9,29.3 34.6,34.2 36.2,39.1 C36.4,39.7 36.6,40.4 36.8,41 C38.3,45.5 39.6,49.4 39.6,53.5 C39.7,63.6 36.7,69.7 31.7,69.9 Z M25.8,38.8 L25.3,40.3 C23.7,45 22.4,49.1 22.4,53.5 C22.4,69.5 29.3,70.9 31.5,70.9 C31.5,70.9 31.5,70.9 31.6,70.9 C33.8,70.9 40.8,69.6 40.8,53.5 C40.8,49.2 39.4,45 37.9,40.6 C37.7,40 37.5,39.4 37.3,38.7 C35.9,34.5 34.4,30.3 33.4,27.4 C35.4,30.4 38.6,35.2 41.6,39.9 C42,40.6 42.4,41.2 42.9,41.9 C45.9,46.6 48.5,50.7 48.5,55 C48.5,65.8 42.2,72.3 31.7,72.3 C21.2,72.3 14.9,65.9 14.9,55 C14.9,50.6 17.6,46.4 20.6,41.6 L21.6,40 C24.6,35.3 27.8,30.5 29.9,27.5 C28.7,30.3 27.2,34.6 25.8,38.8 Z M29.6,25.8 C27.6,28.7 23.9,34.1 20.6,39.5 L19.6,41.1 C16.4,46.1 13.7,50.4 13.7,55.1 C13.7,66.4 20.5,73.4 31.5,73.4 C42.5,73.4 49.3,66.4 49.3,55.1 C49.3,50.5 46.5,46.1 43.5,41.5 C43.1,40.9 42.7,40.2 42.3,39.5 C39,34.2 35.4,28.8 33.4,25.9 C36.1,29.2 40.8,35 45.2,40.8 C45.8,41.5 46.3,42.3 46.9,43 C51,48.3 54.5,52.9 54.5,57.7 C54.5,69.9 45.9,77.1 31.5,77.1 C17.1,77.1 8.5,69.8 8.5,57.7 C8.5,52.7 12.1,48.1 16.3,42.6 C16.8,42 17.2,41.4 17.7,40.8 C22.1,35 26.9,29.1 29.6,25.8 Z M31.5,81.8 C12.4,81.8 1,73.9 1,60.6 C1,55.2 5.8,50.1 11.3,44.2 C11.9,43.6 12.5,42.9 13.1,42.2 C17,38 21.1,33.8 24.5,30.3 C22.1,33.2 19.4,36.6 16.9,40 C16.4,40.6 16,41.2 15.5,41.8 C11.2,47.4 7.5,52.2 7.5,57.5 C7.5,70.3 16.5,77.9 31.5,77.9 C46.5,77.9 55.5,70.3 55.5,57.5 C55.5,52.4 51.7,47.4 47.6,42.2 C47,41.5 46.5,40.7 45.9,40 C43.3,36.6 40.7,33.3 38.4,30.4 C41.7,33.8 45.8,38 49.6,42.2 C50.3,43 51.1,43.8 51.8,44.6 C57,50.1 61.9,55.4 61.9,60.5 C62,73.9 50.6,81.8 31.5,81.8 Z"/>
        <rect width="1" height="17.9" x="31" y=".1"/>
      </g>
      <rect width="19.1" height="71.4" x="4.8" y="149" fill="#EAE7D2"/>
      <rect width="73.7" height="41.7" x="53.7" y="82.3" fill="#EAE7D2"/>
      <rect width="73.7" height="3.6" x="53.7" y="71.6" fill="#CECAB3"/>
      <rect width="73.7" height="2.4" x="53.7" y="69.2" fill="#A5A08B"/>
      <rect width="73.7" height="2.4" x="53.7" y="82.3" fill="#A5A08B"/>
      <polygon fill="#EAE7D2" points="129.8 75.2 51.2 75.2 53.7 82.3 127.3 82.3"/>
      <path fill="#F7AC2B" d="M47.6,82.3 C47.6,88.9 42.3,91.8 35.7,91.8 C29.1,91.8 23.8,88.9 23.8,82.3 C23.8,75.7 35.7,65.6 35.7,65.6 C35.7,65.6 47.6,75.7 47.6,82.3 Z"/>
      <path fill="#E0911E" d="M34.5,83.5 C39.2,83.5 43.5,81.7 46.7,78.7 C47.3,80 47.6,81.2 47.6,82.3 C47.6,88.9 42.3,91.8 35.7,91.8 C29.1,91.8 23.8,88.9 23.8,82.3 C23.8,81.6 23.9,80.9 24.2,80.2 C27.1,82.2 30.7,83.5 34.5,83.5 Z"/>
      <rect width="128.6" height="21.4" x="26.2" y="116.8" fill="#CECAB3"/>
      <rect width="128.6" height="2.4" x="26.2" y="114.4" fill="#75736B"/>
      <path fill="#EAE7D2" d="M90.5,114.4 C81.3,114.4 73.8,121.9 73.8,131.1 L73.8,218 L107.1,218 L107.1,131.1 C107.2,121.9 99.7,114.4 90.5,114.4 Z"/>
      <path fill="#A5A08B" d="M59.5,120.4 C64.8,120.4 69,124.7 69,129.9 L69,218 L50,218 L50,129.9 C50,124.7 54.3,120.4 59.5,120.4 Z M59.5,118 C52.9,118 47.6,123.3 47.6,129.9 L47.6,218 L47.6,220.4 L50,220.4 L69.1,220.4 L71.5,220.4 L71.5,218 L71.5,129.9 C71.4,123.4 66.1,118 59.5,118 Z"/>
      <path fill="#A5A08B" d="M59.4,115 C58.5,116.7 57.1,118.1 55.4,118.9 L53.5,121 L65.8,121 L63.9,119 C62,118.2 60.4,116.8 59.4,115 Z"/>
      <path fill="#EAE7D2" d="M69.1,218 L50,218 L50,128.4 C50,124 53.6,120.4 58,120.4 L61.1,120.4 C65.5,120.4 69.1,124 69.1,128.4 L69.1,218 Z"/>
      <path fill="#75736B" d="M85.8 152.6C85.8 151.9 85.5 151.3 85.1 150.9 84.7 150.5 84.1 150.2 83.4 150.2 82.1 150.2 81 151.3 81 152.6L81 180 85.8 180 85.8 152.6zM92.9 152.6C92.9 151.9 92.6 151.3 92.2 150.9 91.8 150.5 91.2 150.2 90.5 150.2 89.2 150.2 88.1 151.3 88.1 152.6L88.1 180 92.9 180 92.9 152.6zM100.1 152.6C100.1 151.9 99.8 151.3 99.4 150.9 99 150.5 98.4 150.2 97.7 150.2 96.4 150.2 95.3 151.3 95.3 152.6L95.3 180 100.1 180 100.1 152.6z"/>
      <rect width="23.8" height="2.4" x="47.6" y="129.9" fill="#A5A08B"/>
      <rect width="19.1" height="4.8" x="50" y="132.3" fill="#CECAB3"/>
      <rect width="38.1" height="2.4" x="71.4" y="129.9" fill="#A5A08B"/>
      <rect width="33.3" height="4.8" x="73.8" y="132.3" fill="#CECAB3"/>
      <circle cx="59.5" cy="125.2" r="3.6" fill="#CECAB3"/>
      <path fill="#A5A08B" d="M35.7,120.4 C41,120.4 45.2,124.7 45.2,129.9 L45.2,218 L26.1,218 L26.1,129.9 C26.2,124.7 30.5,120.4 35.7,120.4 Z M35.7,118 C29.1,118 23.8,123.3 23.8,129.9 L23.8,218 L23.8,220.4 L26.2,220.4 L45.3,220.4 L47.7,220.4 L47.7,218 L47.7,129.9 C47.6,123.4 42.3,118 35.7,118 Z"/>
      <path fill="#A5A08B" d="M35.5,115 C34.6,116.7 33.2,118.1 31.5,118.9 L29.6,121 L42,121 L40.1,119 C38.1,118.2 36.5,116.8 35.5,115 Z"/>
      <path fill="#EAE7D2" d="M45.2,218 L26.1,218 L26.1,128.4 C26.1,124 29.7,120.4 34.1,120.4 L37.2,120.4 C41.6,120.4 45.2,124 45.2,128.4 L45.2,218 Z"/>
      <path fill="#75736B" d="M38.2 152.6C38.2 151.9 37.9 151.3 37.5 150.9 37.1 150.5 36.5 150.2 35.8 150.2 34.5 150.2 33.4 151.3 33.4 152.6L33.4 180 38.2 180 38.2 152.6zM62 152.6C62 151.9 61.7 151.3 61.3 150.9 60.9 150.5 60.3 150.2 59.6 150.2 58.3 150.2 57.2 151.3 57.2 152.6L57.2 180 62 180 62 152.6z"/>
      <rect width="23.8" height="2.4" x="23.8" y="129.9" fill="#A5A08B"/>
      <rect width="7.1" height="2.4" x="44.063" y="129.937" fill="#CECAB3" transform="rotate(-180 47.613 131.137)"/>
      <rect width="19.1" height="4.8" x="26.2" y="132.3" fill="#CECAB3"/>
      <rect width="4.8" height="4.8" x="45.263" y="132.282" fill="#EAE7D2" transform="rotate(-180 47.663 134.682)"/>
      <circle cx="35.7" cy="125.2" r="3.6" fill="#CECAB3"/>
      <path fill="#CECAB3" d="M45.2,148.4 C44.5,148 43.7,147.8 42.8,147.8 C41.4,147.8 40.1,148.4 39.2,149.4 C39.1,149.3 39,149.2 39,149.1 C38.1,148.2 36.9,147.8 35.7,147.8 C34.3,147.8 33,148.4 32.1,149.4 C31.2,148.4 30,147.8 28.5,147.8 C27.6,147.8 26.8,148.1 26.1,148.5 L26.1,152.6 C26.1,151.3 27.2,150.2 28.5,150.2 C29.7,150.2 30.8,151.1 30.9,152.4 C30.9,152.5 30.9,152.6 30.9,152.6 L30.9,180 L32.1,181.9 L33.4,180 L33.4,152.6 C33.4,152.5 33.4,152.4 33.4,152.4 C33.5,151.2 34.5,150.2 35.8,150.2 C36.5,150.2 37,150.5 37.5,150.9 C37.9,151.3 38.1,151.8 38.2,152.4 C38.2,152.5 38.2,152.6 38.2,152.6 L38.2,180 L39.5,181.9 L40.6,180 L40.6,152.6 C40.6,152.5 40.6,152.4 40.6,152.4 C40.7,151.2 41.7,150.2 43,150.2 C44.2,150.2 45.1,151 45.4,152.1 L45.4,148.4 L45.2,148.4 Z"/>
      <path fill="#75736B" d="M16.7,160.9 C16.7,160.2 16.4,159.6 16,159.2 C15.6,158.8 15,158.5 14.3,158.5 C13,158.5 11.9,159.6 11.9,160.9 L11.9,188.3 L16.7,188.3 L16.7,160.9 Z"/>
      <path fill="#CECAB3" d="M23.8 156.8C23.1 156.4 22.3 156.2 21.4 156.2 20 156.2 18.7 156.8 17.8 157.8 17.7 157.7 17.6 157.6 17.6 157.5 16.7 156.6 15.5 156.2 14.3 156.2 12.9 156.2 11.6 156.8 10.7 157.8 9.8 156.8 8.6 156.2 7.1 156.2 6.2 156.2 5.4 156.5 4.7 156.9L4.7 161C4.7 159.7 5.8 158.6 7.1 158.6 8.3 158.6 9.4 159.5 9.5 160.8 9.5 160.9 9.5 161 9.5 161L9.5 188.4 10.7 190.3 12 188.4 12 161C12 160.9 12 160.8 12 160.8 12.1 159.6 13.1 158.6 14.4 158.6 15.1 158.6 15.6 158.9 16.1 159.3 16.5 159.7 16.7 160.2 16.8 160.8 16.8 160.9 16.8 161 16.8 161L16.8 188.4 18.1 190.3 19.2 188.4 19.2 161C19.2 160.9 19.2 160.8 19.2 160.8 19.3 159.6 20.3 158.6 21.6 158.6 22.8 158.6 23.7 159.4 24 160.5L24 156.8 23.8 156.8zM69.1 148.4C68.4 148 67.6 147.8 66.7 147.8 65.3 147.8 64 148.4 63.1 149.4 63 149.3 62.9 149.2 62.9 149.1 62 148.2 60.8 147.8 59.6 147.8 58.2 147.8 56.9 148.4 56 149.4 55.1 148.4 53.9 147.8 52.4 147.8 51.5 147.8 50.7 148.1 50 148.5L50 152.6C50 151.3 51.1 150.2 52.4 150.2 53.6 150.2 54.7 151.1 54.8 152.4 54.8 152.5 54.8 152.6 54.8 152.6L54.8 180 56 181.9 57.3 180 57.3 152.6C57.3 152.5 57.3 152.4 57.3 152.4 57.4 151.2 58.4 150.2 59.7 150.2 60.4 150.2 60.9 150.5 61.4 150.9 61.8 151.3 62 151.8 62.1 152.4 62.1 152.5 62.1 152.6 62.1 152.6L62.1 180 63.4 181.9 64.5 180 64.5 152.6C64.5 152.5 64.5 152.4 64.5 152.4 64.6 151.2 65.6 150.2 66.9 150.2 68.1 150.2 69 151 69.3 152.1L69.3 148.4 69.1 148.4z"/>
      <circle cx="90.5" cy="122.8" r="6" fill="#CECAB3"/>
      <path fill="#CECAB3" d="M108.1,149.1 C107.2,148.2 106,147.8 104.8,147.8 C103.4,147.8 102.1,148.4 101.2,149.4 C101.1,149.3 101,149.2 101,149.1 C100.1,148.2 98.9,147.8 97.7,147.8 C96.3,147.8 95,148.4 94.1,149.4 C94,149.3 93.9,149.2 93.9,149.1 C93,148.2 91.8,147.8 90.6,147.8 C89.2,147.8 87.9,148.4 87,149.4 C86.9,149.3 86.8,149.2 86.8,149.1 C85.9,148.2 84.7,147.8 83.5,147.8 C82.1,147.8 80.8,148.4 79.9,149.4 C79.8,149.3 79.7,149.2 79.7,149.1 C78.8,148.2 77.6,147.8 76.4,147.8 C73.8,147.8 71.6,149.9 71.6,152.6 L71.6,180 L74,180 L74,152.6 C74,151.3 75.1,150.2 76.4,150.2 C77.1,150.2 77.6,150.5 78.1,150.9 C78.5,151.3 78.7,151.8 78.8,152.4 C78.8,152.5 78.8,152.6 78.8,152.6 L78.8,180 L80,182.1 L81.2,180 L81.2,152.6 C81.2,152.5 81.2,152.4 81.2,152.4 C81.3,151.2 82.3,150.2 83.6,150.2 C84.3,150.2 84.8,150.5 85.3,150.9 C85.7,151.3 85.9,151.8 86,152.4 C86,152.5 86,152.6 86,152.6 L86,180 L87.2,182.1 L88.4,180 L88.4,152.6 C88.4,152.5 88.4,152.4 88.4,152.4 C88.5,151.2 89.5,150.2 90.8,150.2 C91.5,150.2 92,150.5 92.5,150.9 C92.9,151.3 93.1,151.8 93.2,152.4 C93.2,152.5 93.2,152.6 93.2,152.6 L93.2,180 L94.4,182.1 L95.6,180 L95.6,152.6 C95.6,152.5 95.6,152.4 95.6,152.4 C95.7,151.2 96.7,150.2 98,150.2 C98.7,150.2 99.2,150.5 99.7,150.9 C100.1,151.3 100.3,151.8 100.4,152.4 C100.4,152.5 100.4,152.6 100.4,152.6 L100.4,180 L101.6,182.1 L102.8,180 L102.8,152.6 C102.8,152.5 102.8,152.4 102.8,152.4 C102.9,151.2 103.9,150.2 105.2,150.2 C105.9,150.2 106.4,150.5 106.9,150.9 C107.4,151.3 107.6,151.9 107.6,152.6 L107.6,180 L110,180 L110,152.6 C109.6,151.3 109.1,150 108.1,149.1 Z"/>
      <path fill="#A5A08B" d="M121.5,120.4 C126.8,120.4 131,124.7 131,129.9 L131,218 L112,218 L112,129.9 C112,124.7 116.3,120.4 121.5,120.4 Z M121.5,118 C114.9,118 109.6,123.3 109.6,129.9 L109.6,218 L109.6,220.4 L112,220.4 L131.1,220.4 L133.5,220.4 L133.5,218 L133.5,129.9 C133.4,123.4 128.1,118 121.5,118 Z"/>
      <path fill="#A5A08B" d="M121.7,115 C122.6,116.7 124,118.1 125.7,118.9 L127.6,121 L115.3,121 L117.2,119 C119.1,118.2 120.7,116.8 121.7,115 Z"/>
      <path fill="#EAE7D2" d="M112,218 L131.1,218 L131.1,128.4 C131.1,124 127.5,120.4 123.1,120.4 L120,120.4 C115.6,120.4 112,124 112,128.4 L112,218 Z"/>
      <rect width="23.8" height="2.4" x="109.679" y="129.937" fill="#A5A08B" transform="rotate(-180 121.579 131.137)"/>
      <rect width="19.1" height="4.8" x="111.979" y="132.282" fill="#CECAB3" transform="rotate(-180 121.529 134.682)"/>
      <circle cx="121.5" cy="125.2" r="3.6" fill="#CECAB3"/>
      <path fill="#A5A08B" d="M145.4,120.4 C150.7,120.4 154.9,124.7 154.9,129.9 L154.9,218 L135.8,218 L135.8,129.9 C135.8,124.7 140.1,120.4 145.4,120.4 Z M145.4,118 C138.8,118 133.5,123.3 133.5,129.9 L133.5,218 L133.5,220.4 L135.9,220.4 L155,220.4 L157.4,220.4 L157.4,218 L157.4,129.9 C157.3,123.4 151.9,118 145.4,118 Z"/>
      <path fill="#A5A08B" d="M145.5,115 C146.4,116.7 147.8,118.1 149.5,118.9 L151.4,121 L139.1,121 L141,119 C142.9,118.2 144.5,116.8 145.5,115 Z"/>
      <path fill="#EAE7D2" d="M135.8,218 L154.9,218 L154.9,128.4 C154.9,124 151.3,120.4 146.9,120.4 L143.8,120.4 C139.4,120.4 135.8,124 135.8,128.4 L135.8,218 Z"/>
      <path fill="#75736B" d="M142.9 152.6C142.9 151.9 143.2 151.3 143.6 150.9 144 150.5 144.6 150.2 145.3 150.2 146.6 150.2 147.7 151.3 147.7 152.6L147.7 180 142.9 180 142.9 152.6zM119.1 152.6C119.1 151.9 119.4 151.3 119.8 150.9 120.2 150.5 120.8 150.2 121.5 150.2 122.8 150.2 123.9 151.3 123.9 152.6L123.9 180 119.1 180 119.1 152.6z"/>
      <rect width="23.8" height="2.4" x="133.51" y="129.937" fill="#A5A08B" transform="rotate(-180 145.41 131.137)"/>
      <rect width="7.1" height="2.4" x="129.9" y="129.9" fill="#CECAB3"/>
      <rect width="19.1" height="4.8" x="135.81" y="132.282" fill="#CECAB3" transform="rotate(-180 145.36 134.682)"/>
      <rect width="4.8" height="4.8" x="131.1" y="132.3" fill="#EAE7D2"/>
      <circle cx="145.4" cy="125.2" r="3.6" fill="#CECAB3"/>
      <path fill="#CECAB3" d="M135.8 148.4C136.5 148 137.3 147.8 138.2 147.8 139.6 147.8 140.9 148.4 141.8 149.4 141.9 149.3 142 149.2 142 149.1 142.9 148.2 144.1 147.8 145.3 147.8 146.7 147.8 148 148.4 148.9 149.4 149.8 148.4 151 147.8 152.5 147.8 153.4 147.8 154.2 148.1 154.9 148.5L154.9 152.6C154.9 151.3 153.8 150.2 152.5 150.2 151.3 150.2 150.2 151.1 150.1 152.4 150.1 152.5 150.1 152.6 150.1 152.6L150.1 180 148.9 181.9 147.6 180 147.6 152.6C147.6 152.5 147.6 152.4 147.6 152.4 147.5 151.2 146.5 150.2 145.2 150.2 144.5 150.2 144 150.5 143.5 150.9 143.1 151.3 142.9 151.8 142.8 152.4 142.8 152.5 142.8 152.6 142.8 152.6L142.8 180 141.5 181.9 140.4 180 140.4 152.6C140.4 152.5 140.4 152.4 140.4 152.4 140.3 151.2 139.3 150.2 138 150.2 136.8 150.2 135.9 151 135.6 152.1L135.6 148.4 135.8 148.4zM112 148.4C112.7 148 113.5 147.8 114.4 147.8 115.8 147.8 117.1 148.4 118 149.4 118.1 149.3 118.2 149.2 118.2 149.1 119.1 148.2 120.3 147.8 121.5 147.8 122.9 147.8 124.2 148.4 125.1 149.4 126 148.4 127.2 147.8 128.7 147.8 129.6 147.8 130.4 148.1 131.1 148.5L131.1 152.6C131.1 151.3 130 150.2 128.7 150.2 127.5 150.2 126.4 151.1 126.3 152.4 126.3 152.5 126.3 152.6 126.3 152.6L126.3 180 125.1 181.9 123.8 180 123.8 152.6C123.8 152.5 123.8 152.4 123.8 152.4 123.7 151.2 122.7 150.2 121.4 150.2 120.7 150.2 120.2 150.5 119.7 150.9 119.3 151.3 119.1 151.8 119 152.4 119 152.5 119 152.6 119 152.6L119 180 117.7 181.9 116.6 180 116.6 152.6C116.6 152.5 116.6 152.4 116.6 152.4 116.5 151.2 115.5 150.2 114.2 150.2 113 150.2 112.1 151 111.8 152.1L111.8 148.4 112 148.4z"/>
      <rect width="19.1" height="22.6" x="26.2" y="91.8" fill="#EAE7D2"/>
      <rect width="19.1" height="3.6" x="26.2" y="110.9" fill="#CECAB3"/>
      <rect width="23.8" height="2.4" x="23.8" y="87.1" fill="#EAE7D2"/>
      <polygon fill="#A5A08B" points="45.2 91.8 26.2 91.8 23.8 89.4 47.6 89.4"/>
      <path fill="#75736B" d="M38.2,100.2 C38.2,99.5 37.9,98.9 37.5,98.5 C37.1,98.1 36.5,97.8 35.8,97.8 C34.5,97.8 33.4,98.9 33.4,100.2 L33.4,110.9 L38.2,110.9 L38.2,100.2 Z"/>
      <path fill="#CECAB3" d="M33.3,101.3 L33.3,100.1 C33.3,98.8 34.4,97.7 35.7,97.7 C36.4,97.7 36.9,98 37.4,98.4 C37.9,98.8 38.1,99.4 38.1,100.1 L38.1,101.3 L40.5,101.3 L40.5,100.1 C40.5,98.8 40,97.6 39,96.7 C38.1,95.8 36.9,95.4 35.7,95.4 C33.1,95.4 30.9,97.5 30.9,100.2 L30.9,101.4 L33.3,101.4 L33.3,101.3 Z"/>
      <path fill="#F7AC2B" d="M157.2,82.3 C157.2,88.9 151.9,91.8 145.3,91.8 C138.7,91.8 133.4,88.9 133.4,82.3 C133.4,75.7 145.3,65.6 145.3,65.6 C145.3,65.6 157.2,75.7 157.2,82.3 Z"/>
      <circle cx="145.3" cy="64.4" r="2.4" fill="#F7AC2B"/>
      <circle cx="35.7" cy="64.4" r="2.4" fill="#F7AC2B"/>
      <circle cx="90.5" cy="20.4" r="2.4" fill="#F7AC2B"/>
      <path fill="#E0911E" d="M144.1,83.5 C148.8,83.5 153.1,81.7 156.3,78.7 C156.9,80 157.2,81.2 157.2,82.3 C157.2,88.9 151.9,91.8 145.3,91.8 C138.7,91.8 133.4,88.9 133.4,82.3 C133.4,81.6 133.5,80.9 133.8,80.2 C136.7,82.2 140.2,83.5 144.1,83.5 Z"/>
      <rect width="19.1" height="22.6" x="135.8" y="91.8" fill="#EAE7D2"/>
      <rect width="19.1" height="3.6" x="135.8" y="110.9" fill="#CECAB3"/>
      <rect width="23.8" height="2.4" x="133.4" y="87.1" fill="#EAE7D2"/>
      <polygon fill="#A5A08B" points="154.8 91.8 135.8 91.8 133.4 89.4 157.2 89.4"/>
      <path fill="#75736B" d="M147.7,100.2 C147.7,99.5 147.4,98.9 147,98.5 C146.6,98.1 146,97.8 145.3,97.8 C144,97.8 142.9,98.9 142.9,100.2 L142.9,110.9 L147.7,110.9 L147.7,100.2 Z"/>
      <path fill="#CECAB3" d="M142.9,101.3 L142.9,100.1 C142.9,98.8 144,97.7 145.3,97.7 C146,97.7 146.5,98 147,98.4 C147.5,98.8 147.7,99.4 147.7,100.1 L147.7,101.3 L150.1,101.3 L150.1,100.1 C150.1,98.8 149.6,97.6 148.6,96.7 C147.7,95.8 146.5,95.4 145.3,95.4 C142.7,95.4 140.5,97.5 140.5,100.2 L140.5,101.4 L142.9,101.4 L142.9,101.3 Z"/>
      <path fill="#75736B" d="M59.6,90.6 C59.6,89.9 59.9,89.3 60.3,88.9 C60.7,88.5 61.3,88.2 62,88.2 C63.3,88.2 64.4,89.3 64.4,90.6 L64.4,106.1 L59.6,106.1 L59.6,90.6 Z"/>
      <path fill="#CECAB3" d="M59.6,94.2 L59.6,90.6 C59.6,89.9 59.9,89.3 60.3,88.9 C60.7,88.5 61.3,88.2 62,88.2 C63.3,88.2 64.4,89.3 64.4,90.6 L64.4,94.2 L66.8,94.2 L66.8,90.6 C66.8,88 64.6,85.8 62,85.8 C60.8,85.8 59.6,86.3 58.7,87.1 C57.8,88 57.2,89.2 57.2,90.5 L57.2,94.1 L59.6,94.1 L59.6,94.2 Z"/>
      <path fill="#CECAB3" d="M66.7,94.2 L66.7,90.6 C66.7,89.9 67,89.3 67.4,88.9 C67.8,88.5 68.4,88.2 69.1,88.2 C70.4,88.2 71.5,89.3 71.5,90.6 L71.5,94.2 L73.9,94.2 L73.9,90.6 C73.9,88 71.7,85.8 69.1,85.8 C67.9,85.8 66.7,86.3 65.8,87.1 C64.9,88 64.3,89.2 64.3,90.5 L64.3,94.1 L66.7,94.1 L66.7,94.2 Z"/>
      <path fill="#75736B" d="M73.9,90.6 C73.9,89.9 74.2,89.3 74.6,88.9 C75,88.5 75.6,88.2 76.3,88.2 C77.6,88.2 78.7,89.3 78.7,90.6 L78.7,106.1 L73.9,106.1 L73.9,90.6 Z"/>
      <path fill="#CECAB3" d="M73.9,94.2 L73.9,90.6 C73.9,89.9 74.2,89.3 74.6,88.9 C75,88.5 75.6,88.2 76.3,88.2 C77.6,88.2 78.7,89.3 78.7,90.6 L78.7,94.2 L81.1,94.2 L81.1,90.6 C81.1,88 78.9,85.8 76.3,85.8 C75.1,85.8 73.9,86.3 73,87.1 C72.1,88 71.5,89.2 71.5,90.5 L71.5,94.1 L73.9,94.1 L73.9,94.2 Z"/>
      <path fill="#CECAB3" d="M81,94.2 L81,90.6 C81,89.9 81.3,89.3 81.7,88.9 C82.1,88.5 82.7,88.2 83.4,88.2 C84.7,88.2 85.8,89.3 85.8,90.6 L85.8,94.2 L88.2,94.2 L88.2,90.6 C88.2,88 86,85.8 83.4,85.8 C82.2,85.8 81,86.3 80.1,87.1 C79.2,88 78.6,89.2 78.6,90.5 L78.6,94.1 L81,94.1 L81,94.2 Z"/>
      <path fill="#75736B" d="M88.1,90.6 C88.1,89.9 88.4,89.3 88.8,88.9 C89.2,88.5 89.8,88.2 90.5,88.2 C91.8,88.2 92.9,89.3 92.9,90.6 L92.9,106.1 L88.1,106.1 L88.1,90.6 Z"/>
      <path fill="#CECAB3" d="M88.1,94.2 L88.1,90.6 C88.1,89.9 88.4,89.3 88.8,88.9 C89.2,88.5 89.8,88.2 90.5,88.2 C91.8,88.2 92.9,89.3 92.9,90.6 L92.9,94.2 L95.3,94.2 L95.3,90.6 C95.3,88 93.1,85.8 90.5,85.8 C89.3,85.8 88.1,86.3 87.2,87.1 C86.3,88 85.7,89.2 85.7,90.5 L85.7,94.1 L88.1,94.1 L88.1,94.2 Z"/>
      <path fill="#CECAB3" d="M95.3,94.2 L95.3,90.6 C95.3,89.9 95.6,89.3 96,88.9 C96.4,88.5 97,88.2 97.7,88.2 C99,88.2 100.1,89.3 100.1,90.6 L100.1,94.2 L102.5,94.2 L102.5,90.6 C102.5,88 100.3,85.8 97.7,85.8 C96.5,85.8 95.3,86.3 94.4,87.1 C93.5,88 92.9,89.2 92.9,90.5 L92.9,94.1 L95.3,94.1 L95.3,94.2 Z"/>
      <path fill="#75736B" d="M102.4,90.6 C102.4,89.9 102.7,89.3 103.1,88.9 C103.5,88.5 104.1,88.2 104.8,88.2 C106.1,88.2 107.2,89.3 107.2,90.6 L107.2,106.1 L102.4,106.1 L102.4,90.6 Z"/>
      <path fill="#CECAB3" d="M102.4,94.2 L102.4,90.6 C102.4,89.9 102.7,89.3 103.1,88.9 C103.5,88.5 104.1,88.2 104.8,88.2 C106.1,88.2 107.2,89.3 107.2,90.6 L107.2,94.2 L109.6,94.2 L109.6,90.6 C109.6,88 107.4,85.8 104.8,85.8 C103.6,85.8 102.4,86.3 101.5,87.1 C100.6,88 100,89.2 100,90.5 L100,94.1 L102.4,94.1 L102.4,94.2 Z"/>
      <path fill="#CECAB3" d="M109.6,94.2 L109.6,90.6 C109.6,89.9 109.9,89.3 110.3,88.9 C110.7,88.5 111.3,88.2 112,88.2 C113.3,88.2 114.4,89.3 114.4,90.6 L114.4,94.2 L116.8,94.2 L116.8,90.6 C116.8,88 114.6,85.8 112,85.8 C110.8,85.8 109.6,86.3 108.7,87.1 C107.8,88 107.2,89.2 107.2,90.5 L107.2,94.1 L109.6,94.1 L109.6,94.2 Z"/>
      <path fill="#75736B" d="M116.7,90.6 C116.7,89.9 117,89.3 117.4,88.9 C117.8,88.5 118.4,88.2 119.1,88.2 C120.4,88.2 121.5,89.3 121.5,90.6 L121.5,106.1 L116.7,106.1 L116.7,90.6 Z"/>
      <path fill="#CECAB3" d="M116.7 94.2L116.7 90.6C116.7 89.9 117 89.3 117.4 88.9 117.8 88.5 118.4 88.2 119.1 88.2 120.4 88.2 121.5 89.3 121.5 90.6L121.5 94.2 123.9 94.2 123.9 90.6C123.9 88 121.7 85.8 119.1 85.8 117.9 85.8 116.7 86.3 115.8 87.1 114.9 88 114.3 89.2 114.3 90.5L114.3 94.1 116.7 94.1 116.7 94.2zM54.8 85.9C54.4 85.9 54 86 53.6 86.1L53.6 88.7C54 88.5 54.4 88.3 54.8 88.3 56.1 88.3 57.2 89.4 57.2 90.7L57.2 94.3 59.6 94.3 59.6 90.7C59.6 88 57.5 85.9 54.8 85.9z"/>
      <path fill="#CECAB3" d="M127.4,86 C127,85.9 126.7,85.8 126.3,85.8 C125.1,85.8 123.9,86.3 123,87.1 C122.1,88 121.5,89.2 121.5,90.5 L121.5,94.1 L123.9,94.1 L123.9,90.5 C123.9,89.8 124.2,89.2 124.6,88.8 C125,88.4 125.6,88.1 126.3,88.1 C126.7,88.1 127.1,88.2 127.4,88.4 L127.4,86 Z"/>
      <rect width="19.1" height="11.9" x="4.8" y="132.3" fill="#F7AC2B"/>
      <rect width="3.6" height="90.5" x="1.154" y="129.955" fill="#CECAB3" transform="rotate(-180 2.954 175.205)"/>
      <rect width="3.6" height="15.5" x="1.154" y="128.754" fill="#E0911E" transform="rotate(-180 2.954 136.504)"/>
      <rect width="19.1" height="4.8" x="4.8" y="144.2" fill="#A5A08B"/>
      <rect width="19.1" height="2.4" x="4.8" y="149" fill="#CECAB3"/>
      <rect width="4.8" height="2.4" y="149" fill="#CECAB3"/>
      <rect width="19.1" height="71.4" x="157.121" y="149.008" fill="#EAE7D2" transform="rotate(-180 166.671 184.708)"/>
      <path fill="#75736B" d="M164.3,160.9 C164.3,160.2 164.6,159.6 165,159.2 C165.4,158.8 166,158.5 166.7,158.5 C168,158.5 169.1,159.6 169.1,160.9 L169.1,188.3 L164.3,188.3 L164.3,160.9 Z"/>
      <path fill="#CECAB3" d="M157.2,156.8 C157.9,156.4 158.7,156.2 159.6,156.2 C161,156.2 162.3,156.8 163.2,157.8 C163.3,157.7 163.4,157.6 163.4,157.5 C164.3,156.6 165.5,156.2 166.7,156.2 C168.1,156.2 169.4,156.8 170.3,157.8 C171.2,156.8 172.4,156.2 173.9,156.2 C174.8,156.2 175.6,156.5 176.3,156.9 L176.3,161 C176.3,159.7 175.2,158.6 173.9,158.6 C172.7,158.6 171.6,159.5 171.5,160.8 C171.5,160.9 171.5,161 171.5,161 L171.5,188.4 L170.3,190.3 L169,188.4 L169,161 C169,160.9 169,160.8 169,160.8 C168.9,159.6 167.9,158.6 166.6,158.6 C165.9,158.6 165.4,158.9 164.9,159.3 C164.5,159.7 164.3,160.2 164.2,160.8 C164.2,160.9 164.2,161 164.2,161 L164.2,188.4 L162.9,190.3 L161.8,188.4 L161.8,161 C161.8,160.9 161.8,160.8 161.8,160.8 C161.7,159.6 160.7,158.6 159.4,158.6 C158.2,158.6 157.3,159.4 157,160.5 L157,156.8 L157.2,156.8 Z"/>
      <rect width="19.1" height="11.9" x="157.121" y="132.326" fill="#F7AC2B" transform="rotate(-180 166.671 138.276)"/>
      <rect width="3.6" height="90.5" x="176.2" y="129.9" fill="#CECAB3"/>
      <rect width="3.6" height="15.5" x="176.2" y="128.7" fill="#E0911E"/>
      <rect width="19.1" height="4.8" x="157.121" y="144.197" fill="#A5A08B" transform="rotate(-180 166.671 146.597)"/>
      <rect width="19.1" height="2.4" x="157.121" y="148.942" fill="#CECAB3" transform="rotate(-180 166.671 150.142)"/>
      <rect width="4.8" height="2.4" x="176.237" y="148.942" fill="#CECAB3" transform="rotate(-180 178.637 150.142)"/>
      <path fill="#A5A08B" d="M110.3,130.3 L109.5,130.3 C109.1,121.4 102.7,114.1 94.2,112.4 C92.6,111.6 91.2,110.3 90.3,108.7 C89.5,110.3 88.3,111.5 86.7,112.4 C78,114.1 71.3,121.8 71.3,131.1 L71.3,218 L71.3,220.4 L73.7,220.4 L107,220.4 L109.4,220.4 L109.4,218 L109.4,202.5 L110.2,202.5 L110.2,130.3 L110.3,130.3 Z M107.2,218 L73.9,218 L73.9,131.1 C73.9,123 79.8,116.2 87.5,114.7 L93.7,114.7 C101.4,116.2 107.3,122.9 107.3,131.1 L107.3,218 L107.2,218 Z"/>
      <rect width="56" height="17.9" x="23.8" y="202.6" fill="#BEB7DB"/>
      <rect width="56" height="17.9" x="23.8" y="202.6" fill="#A5A08B"/>
      <rect width="56" height="2.4" x="23.8" y="202.6" fill="#EAE7D2"/>
      <path fill="#66471E" d="M73.8,197 C73.8,197 74.5,193.9 75.9,193.8 C77.3,193.7 78.1,193.9 78.1,193.9 C78.1,193.9 77.1,191.7 78.2,190.8 C79.2,190 80,190.2 80,190.2 C80,190.2 81.4,189.4 81.1,188.1 C80.8,186.8 81.6,186.8 82.1,187.2 C82.6,187.6 83,188.2 83,188.2 C83,188.2 83.5,187.2 84.7,187 C85.9,186.9 87.6,188.8 87.6,188.8 C87.6,188.8 83.3,190.4 81.6,193.3 C80,196.2 79.8,197.9 79.7,199.9 C79.6,201.9 79.7,202.5 79.7,202.5 L73.8,202.5 L73.8,197 Z"/>
      <path fill="#483009" d="M73.9,200.9 C73.9,200.9 74.6,198.3 75.9,198.1 C77.2,198 77.9,199.1 77.9,199.1 C77.9,199.1 77.8,196.9 78.6,196 C79.3,195 80.5,195.8 80.5,195.8 C80.5,195.8 79.8,197.5 79.8,199.6 C79.8,201.7 79.8,202.6 79.8,202.6 L73.9,202.6 L73.9,200.9 Z"/>
      <path fill="#66471E" d="M62 193.5C62 193.5 62.7 191.2 64.5 191.7 66.3 192.2 65.6 193.2 66.8 193.3 68 193.4 69.1 195.4 69.1 195.4L69.1 202.4 65.6 202.5 62 193.5zM57.9 193.3C57.9 193.3 57.8 192.2 57.1 192.2 56.4 192.2 55.6 193 55.6 193 55.6 193 55.3 192.6 54.5 192.6 53.8 192.6 52.9 193.3 53 194.5 53.1 195.6 52.6 196.6 51.9 196.1 51.3 195.6 50.2 196.3 50.2 196.3 50.2 196.3 50.2 196.1 50.1 197 50.1 197.9 50.1 202.5 50.1 202.5L54.1 202.5 57.9 193.3z"/>
      <path fill="#4E4E48" d="M63.1,220.4 L56,220.4 L56,198.4 C56,196.7 57.3,195.4 59,195.4 L60.1,195.4 C61.8,195.4 63.1,196.7 63.1,198.4 L63.1,220.4 Z"/>
      <path fill="#EAE7D2" d="M59.5,195.4 C57.5,195.4 55.9,197 55.9,199 L55.9,220.4 L57.1,220.4 L57.1,219.2 L57.1,215.6 L57.1,199 C57.1,197.7 58.2,196.6 59.5,196.6 C60.8,196.6 61.9,197.7 61.9,199 L61.9,215.7 L61.9,219.3 L61.9,220.5 L63.1,220.5 L63.1,199 C63.1,197 61.5,195.4 59.5,195.4 Z"/>
      <path fill="#CECAB3" d="M56,199 C56,197 57.6,195.4 59.6,195.4 C61.6,195.4 63.2,197 63.2,199 L63.2,220.4 L65.6,220.4 L65.6,199 C65.6,195.7 62.9,193 59.6,193 C56.3,193 53.6,195.7 53.6,199 L53.6,220.4 L56,220.4 L56,199 Z"/>
      <path fill="#66471E" d="M45.2,197.9 C45.2,197.9 43.6,196.1 41.7,196.1 C39.8,196.1 38.7,196.9 38.7,196.9 C38.7,196.9 38.7,195.9 37.8,195.7 C36.5,195.5 36.3,196 36.3,196 C36.3,196 35.9,195.2 35.1,195 C34.3,194.8 33.6,195.6 32.9,195 C32.2,194.3 32.2,193.6 30.9,193.6 C29.6,193.6 29.2,194.5 29.2,194.5 C29.2,194.5 29.4,192.9 28.2,192.5 C27.2,192.2 26.5,192.7 26.5,192.7 L26.4,202.5 L45.6,202.5 L45.2,197.9 Z"/>
      <rect width="56" height="17.9" x="101.259" y="202.493" fill="#A5A08B" transform="rotate(-180 129.26 211.443)"/>
      <rect width="56" height="2.4" x="101.259" y="202.513" fill="#EAE7D2" transform="rotate(-180 129.26 203.713)"/>
      <path fill="#66471E" d="M107.2,197 C107.2,197 106.5,193.9 105.1,193.8 C103.7,193.7 102.9,193.9 102.9,193.9 C102.9,193.9 103.9,191.7 102.8,190.8 C101.8,190 101,190.2 101,190.2 C101,190.2 99.6,189.4 99.9,188.1 C100.2,186.8 99.4,186.8 98.9,187.2 C98.5,187.6 98,188.2 98,188.2 C98,188.2 97.5,187.2 96.3,187 C95.1,186.9 93.4,188.8 93.4,188.8 C93.4,188.8 97.7,190.4 99.4,193.3 C101,196.2 101.2,197.9 101.3,199.9 C101.4,201.9 101.3,202.5 101.3,202.5 L107.2,202.5 L107.2,197 Z"/>
      <path fill="#483009" d="M107.2,200.9 C107.2,200.9 106.5,198.3 105.2,198.1 C103.9,198 103.2,199.1 103.2,199.1 C103.2,199.1 103.3,196.9 102.5,196 C101.8,195 100.6,195.8 100.6,195.8 C100.6,195.8 101.3,197.5 101.3,199.6 C101.3,201.7 101.3,202.6 101.3,202.6 L107.2,202.6 L107.2,200.9 Z"/>
      <path fill="#66471E" d="M119.1 193.5C119.1 193.5 118.4 191.2 116.6 191.7 114.8 192.2 115.5 193.2 114.3 193.3 113.1 193.4 112 195.4 112 195.4L112 202.4 115.5 202.5 119.1 193.5zM123.2 193.3C123.2 193.3 123.3 192.2 124 192.2 124.7 192.2 125.5 193 125.5 193 125.5 193 125.8 192.6 126.6 192.6 127.3 192.6 128.2 193.3 128.1 194.5 128 195.6 128.5 196.6 129.2 196.1 129.8 195.6 130.9 196.3 130.9 196.3 130.9 196.3 130.9 196.1 131 197 131 197.9 131 202.5 131 202.5L127 202.5 123.2 193.3z"/>
      <path fill="#4E4E48" d="M118,220.4 L125.1,220.4 L125.1,198.4 C125.1,196.7 123.8,195.4 122.1,195.4 L121,195.4 C119.3,195.4 118,196.7 118,198.4 L118,220.4 Z"/>
      <path fill="#EAE7D2" d="M121.5,195.4 C123.5,195.4 125.1,197 125.1,199 L125.1,220.4 L123.9,220.4 L123.9,219.2 L123.9,215.6 L123.9,199 C123.9,197.7 122.8,196.6 121.5,196.6 C120.2,196.6 119.1,197.7 119.1,199 L119.1,215.7 L119.1,219.3 L119.1,220.5 L118,220.5 L118,199 C118,197 119.6,195.4 121.5,195.4 Z"/>
      <path fill="#CECAB3" d="M125.1,199 C125.1,197 123.5,195.4 121.5,195.4 C119.5,195.4 117.9,197 117.9,199 L117.9,220.4 L115.5,220.4 L115.5,199 C115.5,195.7 118.2,193 121.5,193 C124.8,193 127.5,195.7 127.5,199 L127.5,220.4 L125.1,220.4 L125.1,199 Z"/>
      <path fill="#66471E" d="M135.8,197.9 C135.8,197.9 137.4,196.1 139.3,196.1 C141.2,196.1 142.3,196.9 142.3,196.9 C142.3,196.9 142.3,195.9 143.2,195.7 C144.5,195.5 144.7,196 144.7,196 C144.7,196 145.1,195.2 145.9,195 C146.7,194.8 147.4,195.6 148.1,195 C148.8,194.3 148.8,193.6 150.1,193.6 C151.4,193.6 151.8,194.5 151.8,194.5 C151.8,194.5 151.6,192.9 152.8,192.5 C153.8,192.2 154.5,192.7 154.5,192.7 L154.6,202.5 L135.4,202.5 L135.8,197.9 Z"/>
      <path fill="#4E4E48" d="M99.5,220.4 L81.6,220.4 L81.6,198.1 C81.6,194 85,190.6 89.1,190.6 L92,190.6 C96.1,190.6 99.5,194 99.5,198.1 L99.5,220.4 Z"/>
      <path fill="#EAE7D2" d="M90.6,190.7 C85.7,190.7 81.7,194.7 81.7,199.6 L81.7,220.4 L82.9,220.4 L82.9,219.2 L82.9,207.3 L82.9,199.6 C82.9,195.3 86.4,191.9 90.6,191.9 C94.8,191.9 98.3,195.4 98.3,199.6 L98.3,207.3 L98.3,219.2 L98.3,220.4 L99.5,220.4 L99.5,199.6 C99.5,194.7 95.5,190.7 90.6,190.7 Z"/>
      <path fill="#CECAB3" d="M81.7,199.6 C81.7,194.7 85.7,190.7 90.6,190.7 C95.5,190.7 99.5,194.7 99.5,199.6 L99.5,220.4 L101.9,220.4 L101.9,199.6 C101.9,193.4 96.8,188.3 90.6,188.3 C84.4,188.3 79.3,193.4 79.3,199.6 L79.3,220.4 L81.7,220.4 L81.7,199.6 Z"/>
      <rect width="178.6" height="3.6" x="1.2" y="220.4" fill="#75736B"/>
    </g>
    <g transform="translate(20 58)">
      <polygon fill="#009C07" points="190.6 73 46.5 62 46.5 80.2 224.3 90.3"/>
      <path fill="#F7AC2B" d="M128.1,49.2 C125.8,49.2 124,47.4 124,45.1 L124,31.5 C124,29.2 125.8,27.4 128.1,27.4 C130.4,27.4 132.2,29.2 132.2,31.5 L132.2,45.2 C132.2,47.4 130.4,49.2 128.1,49.2 Z"/>
      <path fill="#F7AC2B" d="M134.7,64.7 L120.7,64.7 C116,64.7 112.2,60.9 112.2,56.2 L112.2,48.6 C112.2,43.9 116,40.1 120.7,40.1 L134.7,40.1 C139.4,40.1 143.2,43.9 143.2,48.6 L143.2,56.2 C143.2,60.9 139.3,64.7 134.7,64.7 Z"/>
      <path fill="#006000" d="M145.4,50.2 L123.5,49.3 L110.7,50.8 C106.8,50.8 103.5,53.8 103,57.5 C102.8,58.2 102.1,61.1 100.4,63 C98.4,65.2 94.5,65.7 94.5,65.7 L102.9,66.8 L102.9,71.6 C102.9,75.9 106.4,79.4 110.7,79.4 L145.3,79.4 C149.6,79.4 153.1,75.9 153.1,71.6 L153.1,57.9 C153.2,53.6 149.7,50.2 145.4,50.2 Z"/>
      <path fill="#009C07" d="M161.4,67.5 C161.4,67.5 158.1,66.6 155.9,64.5 C154,62.8 153.4,59.1 153.2,58 L153.2,57.9 C153.2,53.6 149.7,50.1 145.4,50.1 L123.5,49.2 C119.2,49.2 115.7,52.7 115.7,57 L115.7,57.5 C114.8,62.1 111.1,64.8 111.1,64.8 L115.7,65 L115.7,71.7 C115.7,76 119.2,79.5 123.5,79.5 L145.4,79.5 C149.7,79.5 153.2,76 153.2,71.7 L153.2,67.3 L161.4,67.5 Z"/>
      <polygon fill="#E0911E" points="46.5 176 0 176 0 94.8 46.5 83.9"/>
      <polygon fill="#F7AC2B" points="46.5 176 224.3 176 224.3 93 46.5 83.9"/>
      <g fill="#666157" transform="translate(2 99)">
        <polygon points="7.1 5.9 .7 7.2 .7 18.2 7.1 17.2"/>
        <polygon points="21.7 3 15.3 4.3 15.3 15.9 21.7 14.9"/>
        <polygon points="36.3 .2 29.9 1.4 29.9 13.6 36.3 12.6"/>
      </g>
      <g fill="#666157" transform="translate(2 123)">
        <polygon points="7.1 3.6 .7 4.3 .7 15.4 7.1 14.9"/>
        <polygon points="36.3 .2 29.9 .9 29.9 13.1 36.3 12.6"/>
        <polygon points="21.7 1.9 15.3 2.6 15.3 14.3 21.7 13.8"/>
      </g>
      <g fill="#666157" transform="translate(2 149)">
        <polygon points="21.7 1.4 15.3 1.7 15.3 14.5 21.7 14.2"/>
        <polygon points="7.1 2 .7 2.3 .7 15 7.1 14.8"/>
        <polygon points="36.3 .9 29.9 1.1 29.9 13.9 36.3 13.6"/>
      </g>
      <g fill="#666157" transform="translate(54 149)">
        <polygon points="54.5 1.6 47.2 1.4 47.2 14.2 54.5 14.4"/>
        <polygon points="39 1.3 31.7 1.1 31.7 13.9 39 14"/>
        <polygon points="70 1.9 62.7 1.8 62.7 14.5 70 14.7"/>
        <polygon points="23.5 1 16.2 .8 16.2 13.6 23.5 13.7"/>
        <polygon points="8 .6 .7 .5 .7 13.3 8 13.4"/>
        <polygon points="116.5 2.9 109.2 2.7 109.2 15.5 116.5 15.6"/>
        <polygon points="147.5 3.5 140.2 3.4 140.2 16.1 147.5 16.3"/>
        <polygon points="163 3.8 155.7 3.7 155.7 16.4 163 16.6"/>
        <polygon points="101 2.6 93.7 2.4 93.7 15.2 101 15.3"/>
        <polygon points="132 3.2 124.7 3 124.7 15.8 132 16"/>
        <polygon points="85.5 2.2 78.2 2.1 78.2 14.9 85.5 15"/>
      </g>
      <g fill="#666157" transform="translate(54 122)">
        <polygon points="39 1.6 31.7 1.4 31.7 14.2 39 14.4"/>
        <polygon points="54.5 2.1 47.2 1.9 47.2 14.6 54.5 14.9"/>
        <polygon points="8 .7 .7 .4 .7 13.2 8 13.4"/>
        <polygon points="23.5 1.2 16.2 .9 16.2 13.7 23.5 13.9"/>
        <polygon points="70 2.6 62.7 2.4 62.7 15.1 70 15.3"/>
        <polygon points="163 5.4 155.7 5.2 155.7 18 163 18.2"/>
        <polygon points="132 4.5 124.7 4.3 124.7 17 132 17.3"/>
        <polygon points="85.5 3.1 78.2 2.8 78.2 15.6 85.5 15.8"/>
        <polygon points="147.5 5 140.2 4.7 140.2 17.5 147.5 17.7"/>
        <polygon points="116.5 4 109.2 3.8 109.2 16.6 116.5 16.8"/>
        <polygon points="101 3.5 93.7 3.3 93.7 16.1 101 16.3"/>
      </g>
      <polygon fill="#EAE7D2" points="224.3 98.5 51.1 90.3 51.1 83.9 224.3 93"/>
      <polygon fill="#EAE7D2" points="224.3 98.5 51.1 90.3 51.1 83.9 224.3 93"/>
      <rect width="2.7" height="85.7" x="64.7" y="90.3" fill="#EAE7D2"/>
      <rect width="2.7" height="85.7" x="80.2" y="90.3" fill="#EAE7D2"/>
      <rect width="2.7" height="85.7" x="26" y="90.3" fill="#CECAB3"/>
      <rect width="2.7" height="85.7" x="11.7" y="90.3" fill="#CECAB3"/>
      <rect width="2.7" height="85.7" x="95.8" y="90.3" fill="#EAE7D2"/>
      <rect width="2.7" height="85.7" x="111.3" y="90.3" fill="#EAE7D2"/>
      <rect width="2.7" height="85.7" x="126.8" y="90.3" fill="#EAE7D2"/>
      <rect width="2.7" height="85.7" x="142.3" y="90.3" fill="#EAE7D2"/>
      <rect width="2.7" height="85.7" x="157.8" y="90.3" fill="#EAE7D2"/>
      <rect width="2.7" height="83.9" x="173.3" y="91.2" fill="#EAE7D2"/>
      <rect width="2.7" height="83.9" x="188.8" y="92.1" fill="#EAE7D2"/>
      <rect width="2.7" height="83" x="204.3" y="93" fill="#EAE7D2"/>
      <polygon fill="#EAE7D2" points="224.3 148.6 49.2 144.1 49.2 137.7 224.3 142.3"/>
      <polygon fill="#CECAB3" points="224.3 144.1 49.2 139.5 49.2 137.7 224.3 142.3"/>
      <polygon fill="#EAE7D2" points="224.3 119.5 49.2 114 49.2 112.2 224.3 117.6"/>
      <polygon fill="#EAE7D2" points="58.9 93.9 54.8 97.4 62.7 97.7"/>
      <polygon fill="#CECAB3" points="33.7 95.8 30.6 100.2 38.3 98.6"/>
      <polygon fill="#CECAB3" points="19.1 98.8 16 103.2 23.7 101.6"/>
      <polygon fill="#CECAB3" points="4.5 101.6 1.4 105.9 9.1 104.3"/>
      <polygon fill="#CECAB3" points="5.1 122.9 1.7 127 9.5 126"/>
      <polygon fill="#CECAB3" points="19.6 121.3 16.1 125.4 24 124.4"/>
      <polygon fill="#CECAB3" points="34.2 119.7 30.7 123.8 38.6 122.7"/>
      <polygon fill="#CECAB3" points="34.4 146.1 30.7 149.9 38.5 149.5"/>
      <polygon fill="#CECAB3" points="19.8 146.6 16.1 150.4 24 150"/>
      <polygon fill="#CECAB3" points="5.4 147.3 1.6 151.1 9.5 150.7"/>
      <polygon fill="#EAE7D2" points="74.4 94.5 70.3 98 78.2 98.3"/>
      <polygon fill="#EAE7D2" points="89.9 95.1 85.8 98.6 93.7 98.9"/>
      <polygon fill="#EAE7D2" points="105.4 95.3 101.3 98.8 109.2 99.1"/>
      <polygon fill="#EAE7D2" points="120.9 96.2 116.8 99.7 124.7 100"/>
      <polygon fill="#EAE7D2" points="136.4 96.7 132.3 100.2 140.2 100.5"/>
      <polygon fill="#EAE7D2" points="151.9 97.3 147.8 100.8 155.7 101.1"/>
      <polygon fill="#EAE7D2" points="167.4 97.8 163.3 101.3 171.2 101.6"/>
      <polygon fill="#EAE7D2" points="182.9 98.5 178.8 101.9 186.7 102.2"/>
      <polygon fill="#EAE7D2" points="198.4 98.9 194.3 102.4 202.2 102.7"/>
      <polygon fill="#EAE7D2" points="213.9 99.3 209.9 102.8 217.7 103.1"/>
      <polygon fill="#EAE7D2" points="58.9 118.5 54.8 122 62.7 122.3"/>
      <polygon fill="#EAE7D2" points="74.4 119.1 70.3 122.6 78.2 122.9"/>
      <polygon fill="#EAE7D2" points="89.9 119.5 85.8 123 93.7 123.3"/>
      <polygon fill="#EAE7D2" points="105.4 119.8 101.3 123.3 109.2 123.6"/>
      <polygon fill="#EAE7D2" points="120.9 120.3 116.8 123.8 124.7 124.1"/>
      <polygon fill="#EAE7D2" points="136.4 120.9 132.3 124.4 140.2 124.7"/>
      <polygon fill="#EAE7D2" points="151.9 121.5 147.8 125 155.7 125.3"/>
      <polygon fill="#EAE7D2" points="167.4 122 163.3 125.5 171.2 125.8"/>
      <polygon fill="#EAE7D2" points="182.9 122.6 178.8 126.1 186.7 126.4"/>
      <polygon fill="#EAE7D2" points="198.4 123.1 194.3 126.6 202.2 126.9"/>
      <polygon fill="#EAE7D2" points="213.9 123.5 209.9 127 217.7 127.3"/>
      <polygon fill="#EAE7D2" points="58.9 145.5 54.8 149 62.7 149.3"/>
      <polygon fill="#EAE7D2" points="74.3 146 70.2 149.5 78.1 149.8"/>
      <polygon fill="#EAE7D2" points="89.9 146.3 85.8 149.8 93.7 150.1"/>
      <polygon fill="#EAE7D2" points="105.3 146.6 101.2 150.1 109.1 150.4"/>
      <polygon fill="#EAE7D2" points="120.8 146.9 116.7 150.4 124.6 150.7"/>
      <polygon fill="#EAE7D2" points="136.4 147.2 132.3 150.7 140.2 151"/>
      <polygon fill="#EAE7D2" points="151.9 147.5 147.8 151 155.7 151.3"/>
      <polygon fill="#EAE7D2" points="167.4 148 163.3 151.5 171.2 151.8"/>
      <polygon fill="#EAE7D2" points="182.9 148.3 178.8 151.8 186.7 152.1"/>
      <polygon fill="#EAE7D2" points="198.2 148.5 194.2 151.9 202.1 152.2"/>
      <polygon fill="#EAE7D2" points="213.9 148.8 209.8 152.3 217.7 152.6"/>
      <polygon fill="#CECAB3" points="0 99.4 41.9 90.3 41.9 84.8 0 94.8"/>
      <polygon fill="#CECAB3" points="0 118.9 0 120.7 46.5 114 46.5 112.2"/>
      <polygon fill="#A5A08B" points="0 140.8 0 142.6 46.5 139.5 46.5 137.7"/>
      <polygon fill="#CECAB3" points="46.5 144.1 0 145.9 0 142.6 46.5 139.5"/>
      <polygon fill="#F7AC2B" points="161.4 70.2 111.3 67.5 111.3 83.9 161.4 86.6"/>
      <polygon fill="#E0911E" points="161.4 70.6 111.3 67.5 111.3 64.4 161.4 67.5"/>
      <polygon fill="#EAE7D2" points="161.4 87 111.3 83.9 111.3 80.7 161.4 83.9"/>
      <polygon fill="#CECAB3" points="224.3 90.3 46.5 80.2 46.5 83.9 224.3 93"/>
      <polygon fill="#A5A08B" points="0 94.8 46.5 83.9 46.5 80.2 0 92.1"/>
      <polygon fill="#006000" points="0 92.1 46.5 80.2 46.5 62"/>
      <polygon fill="#E0911E" points="97.2 68.4 111.3 67.5 111.3 83.9"/>
      <polygon fill="#C17510" points="97.2 68.4 111.3 67.6 111.3 64.4 94.7 65.6"/>
      <rect width="2.7" height="32.8" x="126.8" fill="#F7AC2B"/>
      <polygon fill="#CECAB3" points="41.9 176 46.5 176 46.5 83.9 41.9 85"/>
      <path fill="#FFCC83" d="M135.4,47 L119.9,47 C118.3,47 117,45.7 117,44.1 C117,42.5 118.3,41.2 119.9,41.2 L135.4,41.2 C137,41.2 138.3,42.5 138.3,44.1 C138.2,45.7 137,47 135.4,47 Z"/>
      <circle cx="128.2" cy="32" r="2.8" fill="#FFCC83"/>
      <rect width="4.6" height="92.1" x="46.5" y="83.9" fill="#EAE7D2"/>
      <rect width="4.6" height="82.1" x="219.8" y="93.9" fill="#EAE7D2"/>
      <g fill="#666157" transform="translate(54 73)">
        <polygon points="54.5 26.8 47.2 26.5 47.2 39.3 54.5 39.6"/>
        <polygon points="39 26.2 31.7 26 31.7 38.7 39 39"/>
        <polygon points="70 27.4 62.7 27.1 62.7 39.9 70 40.1"/>
        <polygon points="75.3 .6 70.7 .4 70.7 8.4 75.3 8.6"/>
        <polygon points="85.2 1.1 80.6 .9 80.6 8.9 85.2 9.1"/>
        <polygon points="94.9 1.6 90.3 1.5 90.3 9.5 94.9 9.6"/>
        <polygon points="8 25.1 .7 24.9 .7 37.6 8 37.9"/>
        <polygon points="23.5 25.7 16.2 25.4 16.2 38.2 23.5 38.5"/>
        <polygon points="85.5 27.9 78.2 27.7 78.2 40.4 85.5 40.7"/>
        <polygon points="163 30.7 155.7 30.4 155.7 43.2 163 43.5"/>
        <polygon points="147.5 30.1 140.2 29.9 140.2 42.6 147.5 42.9"/>
        <polygon points="101 28.5 93.7 28.2 93.7 41 101 41.2"/>
        <polygon points="132 29.6 124.7 29.3 124.7 42.1 132 42.4"/>
        <polygon points="116.5 29 109.2 28.8 109.2 41.5 116.5 41.8"/>
      </g>
      <polygon fill="#EAE7D2" points="127.4 70.9 124.8 73.2 129.9 73.4"/>
      <polygon fill="#EAE7D2" points="137.3 71.3 134.7 73.6 139.8 73.8"/>
      <polygon fill="#EAE7D2" points="147 71.8 144.3 74.1 149.4 74.3"/>
    </g>
    <g fill="#6E9B0B" transform="translate(32 189)">
      <path d="M109.5 11.7C107.8 11.7 106.3 12.2 105 13.1 103.5 5.9 98 .6 91.4.6 83.7.6 77.4 7.9 77.4 17 77.4 26 83.7 33.4 91.4 33.4 95.5 33.4 99.1 31.4 101.7 28.1 103.3 31.2 106.2 33.3 109.6 33.3 114.7 33.3 118.8 28.5 118.8 22.5 118.7 16.6 114.6 11.7 109.5 11.7zM46.6 7.9C41.3 7.9 36.9 12.1 35.6 17.8 34.1 16.6 32.3 16 30.4 16 29.1 16 27.8 16.3 26.7 16.9 24.3 12.6 19.8 9.8 14.6 9.8 6.9 9.8.7 16 .7 23.7.7 31.4 6.9 37.6 14.6 37.6 18.1 37.6 21.3 36.3 23.7 34.2 25.4 36.3 27.8 37.6 30.4 37.6 34.2 37.6 37.5 34.9 38.9 31.1 40.9 33.3 43.6 34.6 46.6 34.6 52.9 34.6 58 28.6 58 21.3 58 13.9 52.9 7.9 46.6 7.9z"/>
    </g>
    <g transform="translate(9 40)">
      <polygon fill="#D8401D" points="68 173 68 177 66 177 66 173 62 173 62 177 60 177 60 173 56 173 56 177 54 177 54 173 50 173 50 177 48 177 48 173 44 173 44 177 42 177 42 173 38 173 38 177 36 177 36 173 32 173 32 177 30 177 30 173 26 173 26 177 24 177 24 173 20 173 20 177 18 177 18 173 14 173 14 177 12 177 12 173 8 173 8 177 6 177 6 173 2 173 2 177 0 177 0 196 81 196 81 173"/>
      <rect width="23.9" height="12.8" x="80.5" y="93.5" fill="#D8401D"/>
      <path fill="#841F00" d="M89.1 108.9L85.7 108.9 85.7 99.5C85.7 98.6 86.5 97.8 87.4 97.8 88.3 97.8 89.1 98.6 89.1 99.5L89.1 108.9zM99.3 108.9L95.9 108.9 95.9 99.5C95.9 98.6 96.7 97.8 97.6 97.8 98.5 97.8 99.3 98.6 99.3 99.5L99.3 108.9z"/>
      <rect width="32.5" height="23.9" x="76.3" y="106.3" fill="#BC2713"/>
      <rect width="32.5" height="2.6" x="76.3" y="103.8" fill="#00633B"/>
      <path fill="#841F00" d="M84.8 121.7L81.4 121.7 81.4 112.3C81.4 111.4 82.2 110.6 83.1 110.6 84 110.6 84.8 111.4 84.8 112.3L84.8 121.7zM94.2 121.7L90.8 121.7 90.8 112.3C90.8 111.4 91.6 110.6 92.5 110.6 93.4 110.6 94.2 111.4 94.2 112.3L94.2 121.7zM103.6 121.7L100.2 121.7 100.2 112.3C100.2 111.4 101 110.6 101.9 110.6 102.8 110.6 103.6 111.4 103.6 112.3L103.6 121.7z"/>
      <rect width="37.6" height="56.4" x="73.7" y="139.6" fill="#D8401D"/>
      <rect width="5.4" height="56.4" x="105.9" y="139.6" fill="#BC2713"/>
      <polygon fill="#A31B0D" points="113 126.8 72 126.8 73.7 139.6 111.3 139.6"/>
      <polygon fill="#D8401D" points="110.4 119.1 110.4 123.4 108.7 123.4 108.7 119.1 106.2 119.1 106.2 123.4 104.5 123.4 104.5 119.1 101.9 119.1 101.9 123.4 100.2 123.4 100.2 119.1 97.6 119.1 97.6 123.4 95.9 123.4 95.9 119.1 93.4 119.1 93.4 123.4 91.6 123.4 91.6 119.1 89.1 119.1 89.1 123.4 87.4 123.4 87.4 119.1 84.8 119.1 84.8 123.4 83.1 123.4 83.1 119.1 80.5 119.1 80.5 123.4 78.8 123.4 78.8 119.1 76.3 119.1 76.3 123.4 74.6 123.4 74.6 119.1 72 119.1 72 126.8 113 126.8 113 119.1"/>
      <rect width="23.9" height="2.6" x="80.5" y="93.5" fill="#841F00"/>
      <polygon fill="#13A067" points="104.5 93.5 80.5 93.5 85.7 61.9 99.3 61.9"/>
      <rect width="13.7" height="14.5" x="85.7" y="47.4" fill="#D8401D"/>
      <rect width="3.4" height="14.5" x="95.9" y="47.4" fill="#841F00"/>
      <rect width="7" height="14.5" x="89" y="47.4" fill="#BC2713"/>
      <polygon fill="#008954" points="92.5 14.1 85.7 47.4 99.3 47.4"/>
      <polygon fill="#00633B" points="92.5 14.1 96 47.4 99.3 47.4"/>
      <polygon fill="#13A067" points="92.5 14.2 85.7 47.4 89.2 47.4"/>
      <polygon fill="#BC2713" points="213 173 213 177 211 177 211 173 207 173 207 177 205 177 205 173 201 173 201 177 199 177 199 173 195 173 195 177 193 177 193 173 189 173 189 177 187 177 187 173 183 173 183 177 181 177 181 173 177 173 177 177 175 177 175 173 171 173 171 177 169 177 169 173 165 173 165 177 163 177 163 173 159 173 159 177 157 177 157 173 153 173 153 177 151 177 151 173 147 173 147 177 145 177 145 173 141 173 141 177 139 177 139 173 135 173 135 177 133 177 133 173 129 173 129 177 127 177 127 173 123 173 123 177 121 177 121 173 117 173 117 177 115 177 115 173 111 173 111 177 109 177 109 173 106 173 106 196 226 196 226 173"/>
      <g fill="#841F00" transform="translate(80 144)">
        <rect width="3" height="6" x=".5"/>
        <rect width="3" height="6" x="11"/>
        <rect width="3" height="6" x="21.5"/>
      </g>
      <polygon fill="#00633B" points="92.7 93.5 104.5 93.5 99.3 61.9 92.7 61.9"/>
      <polygon fill="#008954" points="98 93.5 87 93.5 89.4 61.9 95.6 61.9"/>
      <path fill="#841F00" d="M94.2,83.7 L90.8,83.7 L90.8,74.3 C90.8,73.4 91.6,72.6 92.5,72.6 C93.4,72.6 94.2,73.4 94.2,74.3 L94.2,83.7 Z"/>
      <path fill="#D8401D" d="M90.8,83.6 L90.8,74.2 C90.8,73.3 91.6,72.5 92.5,72.5 C93.4,72.5 94.2,73.3 94.2,74.2 L94.2,83.6 L96.2,83.6 L96.2,74.2 C96.2,72.2 94.5,70.5 92.5,70.5 C90.5,70.5 88.8,72.2 88.8,74.2 L88.8,83.6 L90.8,83.6 Z"/>
      <rect width="5.9" height="56.4" x="73.7" y="139.6" fill="#E85138"/>
      <polygon fill="#D8401D" points="92.7 0 95.1 4.8 100.5 5.6 96.6 9.4 97.5 14.7 92.7 12.2 87.9 14.7 88.8 9.4 85 5.6 90.3 4.8"/>
      <rect width="1" height="7" x="92" y="9" fill="#D8401D"/>
    </g>
    <g transform="translate(384)">
      <rect width="8" height="56" x="5" y="78" fill="#ACA99E"/>
      <rect width="8" height="21" x="5" y="137" fill="#827E74"/>
      <rect width="8" height="32" x="5" y="137" fill="#ACA99E"/>
      <polygon fill="#827E74" points="18 197 0 197 4 168 14 168"/>
      <rect width="8" height="10" x="5" y="46" fill="#ACA99E"/>
      <rect width="10" height="2" x="4" y="44" fill="#827E74"/>
      <polygon fill="#827E74" points="16 69 2 69 4 79 14 79"/>
      <rect width="12" height="8" x="3" y="100" fill="#827E74"/>
      <rect width="12" height="3" x="3" y="134" fill="#827E74"/>
      <rect width="12" height="1" x="3" y="138" fill="#827E74"/>
      <rect width="12" height="1" x="3" y="140" fill="#827E74"/>
      <polygon fill="#666157" points="17 69 1 69 2.8 55 15.2 55"/>
      <rect width="4" height="12" x="7" y="20" fill="#ACA99E"/>
      <rect width="2" height="10" x="8" y="10" fill="#ACA99E"/>
      <rect width="6" height="12" x="6" y="32" fill="#ACA99E"/>
      <polygon fill="#ACA99E" points="9 0 9 0 8 10 10 10"/>
      <rect width="10" height="2" x="4" y="88" fill="#827E74"/>
      <rect width="8" height="2" x="5" y="79" fill="#666157"/>
      <rect width="8" height="2" x="5" y="108" fill="#666157"/>
    </g>
    <g fill="#008951" transform="translate(130 199)">
      <polygon points="39.2 .8 32.8 11.9 45.6 11.9"/>
      <polygon points="39.2 4.3 30.2 19.8 48.2 19.8"/>
      <polygon points="39.2 8.4 27.5 28.6 50.9 28.6"/>
      <polygon points="39.2 13.3 25.2 37.5 53.2 37.5"/>
      <polygon points="14.9 .8 8.4 11.9 21.3 11.9"/>
      <polygon points="14.9 4.3 5.9 19.8 23.8 19.8"/>
      <polygon points="14.9 8.4 3.2 28.6 26.6 28.6"/>
      <polygon points="14.9 13.3 .9 37.5 28.8 37.5"/>
    </g>
    <g transform="translate(138 138)">
      <path fill="#666157" d="M297.9,99 L298,77 L32,77 L32,99 L32.1,99 C32,99.2 32,99.3 32,99.5 C32,107 91.5,113 165,113 C238.5,113 298,107 298,99.5 C298,99.3 298,99.2 297.9,99 Z"/>
      <path fill="#827E74" d="M287.5,19 L40.5,19 C18.8,19 1,36.8 1,58.5 C1,78.6 16.2,95.3 35.6,97.7 C58.5,102.6 107.7,106 164.8,106 C239.9,106 301.4,100.1 307.2,92.7 C319,85.8 327,73 327,58.5 C327,36.8 309.2,19 287.5,19 Z"/>
      <path fill="#666157" d="M27.3,95.7 L30,94 L40,100 L49,94 L59.7,102 L72,95 L84,102 L95,94 L105,103 L117.7,94 L130,105 L141,95 L154,103 L166,94 L178,102 L190,94 L200,103 L211,95 L223,102 L235,94 L247.3,102.3 L259,93 L271,102 L285,94 L290,100 L302,92 L303.7,94.7 C303.7,94.7 309,92.7 310,90.4 C311,88.1 291,72.1 291,72.1 L93,66.1 L20,77.1 L16,89.1 C16,89 21.7,94.3 27.3,95.7 Z"/>
      <g fill="#C1BFB8" transform="translate(29 84)">
        <rect width="3" height="24"/>
        <rect width="3" height="27" x="34"/>
        <rect width="3" height="29" x="68"/>
        <rect width="3" height="30" x="102"/>
        <rect width="3" height="30" x="136"/>
        <rect width="3" height="30" x="170"/>
        <rect width="3" height="29" x="204"/>
        <rect width="3" height="27" x="238"/>
        <rect width="3" height="24" x="272"/>
      </g>
      <polygon fill="#9D9D97" points="131 90 131 114 117.8 112 117 83"/>
      <polygon fill="#9D9D97" points="236.2 85.7 236 113 246.8 110.2 247 94"/>
      <polygon fill="#9D9D97" points="270 93.2 270 111 283 105.8 283 85.5"/>
      <ellipse cx="164.9" cy="23.7" fill="#ACA99E" rx="142.9" ry="8.2"/>
      <polygon fill="#D8401D" points="59.2 77.2 55 80.1 49.6 83.8 47.4 85.4 59.2 93.6 71 85.4"/>
      <polygon fill="#D8401D" points="82.7 77.2 78.5 80.1 73.1 83.8 70.9 85.4 82.7 93.6 94.5 85.4"/>
      <polygon fill="#EAE7D2" points="106.2 77.2 102 80.1 96.6 83.8 94.4 85.4 106.2 93.6 118 85.4"/>
      <polygon fill="#EAE7D2" points="129.7 77.2 125.5 80.1 120.1 83.8 117.9 85.4 129.7 93.6 141.5 85.4"/>
      <polygon fill="#EAE7D2" points="153.2 77.2 149 80.1 143.6 83.8 141.4 85.4 153.2 93.6 165 85.4"/>
      <polygon fill="#EAE7D2" points="176.7 77.2 172.5 80.1 167.1 83.8 164.9 85.4 176.7 93.6 188.5 85.4"/>
      <polygon fill="#EAE7D2" points="200.2 77.2 196 80.1 190.6 83.8 188.4 85.4 200.2 93.6 212 85.4"/>
      <polygon fill="#EAE7D2" points="223.7 77.2 219.5 80.1 214.1 83.8 211.9 85.4 223.7 93.6 235.5 85.4"/>
      <polygon fill="#D8401D" points="247.2 77.2 243 80.1 237.6 83.8 235.4 85.4 247.2 93.6 259 85.4"/>
      <polygon fill="#EAE7D2" points="270.7 77.2 266.5 80.1 261.1 83.8 258.9 85.4 270.7 93.6 282.5 85.4"/>
      <polygon fill="#D8401D" points="294.5 77 282.4 85.4 291 93.8 301.5 85.4"/>
      <polygon fill="#EAE7D2" points="311.2 77.5 301.4 85.4 308 92.2 317.1 84.6"/>
      <polygon fill="#D8401D" points="34.7 77 47.4 85.4 38.4 93.8 27.4 85.4"/>
      <path fill="#D8401D" d="M17.2,77.5 L27.5,85.4 L20.6,92.3 C20.6,92.3 17.4,90.5 15.7,89.2 C13.4,87.3 11,84.6 11,84.6 L17.2,77.5 Z"/>
      <polygon fill="#D8401D" points="282.7 68.8 278.3 71.9 272.6 75.9 270.2 77.5 282.7 86.2 295.2 77.5"/>
      <polygon fill="#CECAB3" points="270.3 77.6 282 85.8 279.7 87.5 267.9 79.3"/>
      <polygon fill="#EAE7D2" points="259 68.8 254.6 71.9 248.9 75.9 246.5 77.5 259 86.2 271.4 77.5"/>
      <polygon fill="#BC2713" points="246.5 77.6 258.3 85.8 256 87.5 244.1 79.3"/>
      <polygon fill="#EAE7D2" points="235.5 68.8 231.1 71.9 225.4 75.9 223 77.5 235.5 86.2 247.9 77.5"/>
      <polygon fill="#CECAB3" points="223 77.6 234.8 85.8 232.5 87.5 220.6 79.3"/>
      <polygon fill="#EAE7D2" points="212.1 68.8 207.7 71.9 202.1 75.9 199.7 77.5 212.1 86.2 224.6 77.5"/>
      <polygon fill="#CECAB3" points="199.7 77.6 211.5 85.8 209.1 87.5 197.3 79.3"/>
      <polygon fill="#EAE7D2" points="188.8 68.8 184.4 71.9 178.7 75.9 176.4 77.5 188.8 86.2 201.3 77.5"/>
      <polygon fill="#CECAB3" points="176.4 77.6 188.2 85.8 185.8 87.5 174 79.3"/>
      <polygon fill="#EAE7D2" points="165.1 68.8 160.7 71.9 155 75.9 152.6 77.5 165.1 86.2 177.5 77.5"/>
      <polygon fill="#CECAB3" points="152.6 77.6 164.4 85.8 162.1 87.5 150.2 79.3"/>
      <polygon fill="#EAE7D2" points="141.5 68.8 137.1 71.9 131.4 75.9 129.1 77.5 141.5 86.2 154 77.5"/>
      <polygon fill="#CECAB3" points="129.1 77.6 140.9 85.8 138.5 87.5 126.7 79.3"/>
      <polygon fill="#EAE7D2" points="118 68.8 113.6 71.9 107.9 75.9 105.5 77.5 118 86.2 130.4 77.5"/>
      <polygon fill="#CECAB3" points="105.6 77.6 117.3 85.8 115 87.5 103.1 79.3"/>
      <polygon fill="#EAE7D2" points="94.4 68.8 90 71.9 84.4 75.9 82 77.5 94.4 86.2 106.9 77.5"/>
      <polygon fill="#BC2713" points="82 77.6 93.8 85.8 91.4 87.5 79.6 79.3"/>
      <polygon fill="#EAE7D2" points="70.9 68.8 66.5 71.9 60.8 75.9 58.4 77.5 70.9 86.2 83.4 77.5"/>
      <polygon fill="#BC2713" points="58.5 77.6 70.2 85.8 67.9 87.5 56.1 79.3"/>
      <polygon fill="#BC2713" points="34.6 77.1 47 85.8 44.7 87.9 32.8 79.2"/>
      <polygon fill="#EAE7D2" points="45.2 68.7 34.6 77.2 47.4 86.2 59.1 77.6"/>
      <polygon fill="#EAE7D2" points="59.2 61.8 55 64.7 49.6 68.5 47.4 70.1 59.2 78.3 71 70.1"/>
      <polygon fill="#D8401D" points="82.7 61.8 78.5 64.7 73.1 68.5 70.9 70.1 82.7 78.3 94.5 70.1"/>
      <polygon fill="#EAE7D2" points="106.2 61.8 102 64.7 96.6 68.5 94.4 70.1 106.2 78.3 118 70.1"/>
      <polygon fill="#EAE7D2" points="129.7 61.8 125.5 64.7 120.1 68.5 117.9 70.1 129.7 78.3 141.5 70.1"/>
      <polygon fill="#EAE7D2" points="153.2 61.8 149 64.7 143.6 68.5 141.4 70.1 153.2 78.3 165 70.1"/>
      <polygon fill="#EAE7D2" points="176.7 61.8 172.5 64.7 167.1 68.5 164.9 70.1 176.7 78.3 188.5 70.1"/>
      <polygon fill="#EAE7D2" points="200.2 61.8 196 64.7 190.6 68.5 188.4 70.1 200.2 78.3 212 70.1"/>
      <polygon fill="#D8401D" points="223.7 61.8 219.5 64.7 214.1 68.5 211.9 70.1 223.7 78.3 235.5 70.1"/>
      <polygon fill="#D8401D" points="247.2 61.8 243 64.7 237.6 68.5 235.4 70.1 247.2 78.3 259 70.1"/>
      <polygon fill="#D8401D" points="270.7 61.8 266.5 64.7 261.1 68.5 258.9 70.1 270.7 78.3 282.5 70.1"/>
      <polygon fill="#D8401D" points="282.7 53.5 278.3 56.6 272.6 60.5 270.2 62.2 282.7 70.9 295.2 62.2"/>
      <polygon fill="#BC2713" points="270.3 62.2 282 70.5 279.7 72.2 267.9 64"/>
      <polygon fill="#EAE7D2" points="259 53.5 254.6 56.6 248.9 60.5 246.5 62.2 259 70.9 271.4 62.2"/>
      <polygon fill="#BC2713" points="246.5 62.2 258.3 70.5 256 72.2 244.1 64"/>
      <polygon fill="#EAE7D2" points="235.5 53.5 231.1 56.6 225.4 60.5 223 62.2 235.5 70.9 247.9 62.2"/>
      <polygon fill="#BC2713" points="223 62.2 234.8 70.5 232.5 72.2 220.6 64"/>
      <polygon fill="#EAE7D2" points="212.1 53.5 207.7 56.6 202.1 60.5 199.7 62.2 212.1 70.9 224.6 62.2"/>
      <polygon fill="#CECAB3" points="199.7 62.2 211.5 70.5 209.1 72.2 197.3 64"/>
      <polygon fill="#EAE7D2" points="188.8 53.5 184.4 56.6 178.7 60.5 176.4 62.2 188.8 70.9 201.3 62.2"/>
      <polygon fill="#CECAB3" points="176.4 62.2 188.2 70.5 185.8 72.2 174 64"/>
      <polygon fill="#EAE7D2" points="165.1 53.5 160.7 56.6 155 60.5 152.6 62.2 165.1 70.9 177.5 62.2"/>
      <polygon fill="#CECAB3" points="152.6 62.2 164.4 70.5 162.1 72.2 150.2 64"/>
      <polygon fill="#EAE7D2" points="141.5 53.5 137.1 56.6 131.4 60.5 129.1 62.2 141.5 70.9 154 62.2"/>
      <polygon fill="#CECAB3" points="129.1 62.2 140.9 70.5 138.5 72.2 126.7 64"/>
      <polygon fill="#EAE7D2" points="118 53.5 113.6 56.6 107.9 60.5 105.5 62.2 118 70.9 130.4 62.2"/>
      <polygon fill="#CECAB3" points="105.6 62.2 117.3 70.5 115 72.2 103.1 64"/>
      <polygon fill="#EAE7D2" points="94.4 53.5 90 56.6 84.4 60.5 82 62.2 94.4 70.9 106.9 62.2"/>
      <polygon fill="#BC2713" points="82 62.2 93.8 70.5 91.4 72.2 79.6 64"/>
      <polygon fill="#D8401D" points="70.9 53.5 66.5 56.6 60.8 60.5 58.4 62.2 70.9 70.9 83.4 62.2"/>
      <polygon fill="#CECAB3" points="58.5 62.2 70.2 70.5 67.9 72.2 56.1 64"/>
      <polygon fill="#D8401D" points="45.2 53.4 34.6 61.9 47.4 70.9 59.1 62.3"/>
      <polygon fill="#EAE7D2" points="59.2 46.5 55 49.4 49.6 53.2 47.4 54.7 59.2 63 71 54.7"/>
      <polygon fill="#EAE7D2" points="82.7 46.5 78.5 49.4 73.1 53.2 70.9 54.7 82.7 63 94.5 54.7"/>
      <polygon fill="#D8401D" points="106.2 46.5 102 49.4 96.6 53.2 94.4 54.7 106.2 63 118 54.7"/>
      <polygon fill="#EAE7D2" points="129.7 46.5 125.5 49.4 120.1 53.2 117.9 54.7 129.7 63 141.5 54.7"/>
      <polygon fill="#EAE7D2" points="153.2 46.5 149 49.4 143.6 53.2 141.4 54.7 153.2 63 165 54.7"/>
      <polygon fill="#EAE7D2" points="176.7 46.5 172.5 49.4 167.1 53.2 164.9 54.7 176.7 63 188.5 54.7"/>
      <polygon fill="#EAE7D2" points="200.2 46.5 196 49.4 190.6 53.2 188.4 54.7 200.2 63 212 54.7"/>
      <polygon fill="#EAE7D2" points="223.7 46.5 219.5 49.4 214.1 53.2 211.9 54.7 223.7 63 235.5 54.7"/>
      <polygon fill="#EAE7D2" points="247.2 46.5 243 49.4 237.6 53.2 235.4 54.7 247.2 63 259 54.7"/>
      <polygon fill="#D8401D" points="270.7 46.5 266.5 49.4 261.1 53.2 258.9 54.7 270.7 63 282.5 54.7"/>
      <polygon fill="#EAE7D2" points="282.7 38.2 278.3 41.2 272.6 45.2 270.2 46.9 282.7 55.5 295.2 46.9"/>
      <polygon fill="#BC2713" points="270.3 46.9 282 55.1 279.7 56.9 267.9 48.6"/>
      <polygon fill="#D8401D" points="259 38.2 254.6 41.2 248.9 45.2 246.5 46.9 259 55.5 271.4 46.9"/>
      <polygon fill="#CECAB3" points="246.5 46.9 258.3 55.1 256 56.9 244.1 48.6"/>
      <polygon fill="#D8401D" points="235.5 38.2 231.1 41.2 225.4 45.2 223 46.9 235.5 55.5 247.9 46.9"/>
      <polygon fill="#CECAB3" points="223 46.9 234.8 55.1 232.5 56.9 220.6 48.6"/>
      <polygon fill="#EAE7D2" points="212.1 38.2 207.7 41.2 202.1 45.2 199.7 46.9 212.1 55.5 224.6 46.9"/>
      <polygon fill="#CECAB3" points="199.7 46.9 211.5 55.1 209.1 56.9 197.3 48.6"/>
      <polygon fill="#EAE7D2" points="188.8 38.2 184.4 41.2 178.7 45.2 176.4 46.9 188.8 55.5 201.3 46.9"/>
      <polygon fill="#CECAB3" points="176.4 46.9 188.2 55.1 185.8 56.9 174 48.6"/>
      <polygon fill="#EAE7D2" points="165.1 38.2 160.7 41.2 155 45.2 152.6 46.9 165.1 55.5 177.5 46.9"/>
      <polygon fill="#CECAB3" points="152.6 46.9 164.4 55.1 162.1 56.9 150.2 48.6"/>
      <polygon fill="#EAE7D2" points="141.5 38.2 137.1 41.2 131.4 45.2 129.1 46.9 141.5 55.5 154 46.9"/>
      <polygon fill="#CECAB3" points="129.1 46.9 140.9 55.1 138.5 56.9 126.7 48.6"/>
      <polygon fill="#EAE7D2" points="118 38.2 113.6 41.2 107.9 45.2 105.5 46.9 118 55.5 130.4 46.9"/>
      <polygon fill="#BC2713" points="105.6 46.9 117.3 55.1 115 56.9 103.1 48.6"/>
      <polygon fill="#EAE7D2" points="94.4 38.2 90 41.2 84.4 45.2 82 46.9 94.4 55.5 106.9 46.9"/>
      <polygon fill="#CECAB3" points="82 46.9 93.8 55.1 91.4 56.9 79.6 48.6"/>
      <polygon fill="#D8401D" points="70.9 38.2 66.5 41.2 60.8 45.2 58.4 46.9 70.9 55.5 83.4 46.9"/>
      <polygon fill="#CECAB3" points="58.5 46.9 70.2 55.1 67.9 56.9 56.1 48.6"/>
      <polygon fill="#EAE7D2" points="45.2 38 34.6 46.5 47.4 55.5 59.1 47"/>
      <polygon fill="#BC2713" points="20.6 38 9.9 46.5 22.7 55.5 34.5 47"/>
      <polygon fill="#D8401D" points="23.4 69.1 35 77.1 27.1 85.9 16.1 77.5"/>
      <polygon fill="#BC2713" points="16.6 78.1 27.1 85.9 25.1 87.7 14.9 80.1"/>
      <path fill="#BC2713" d="M6.1,71.2 C6.1,71.2 8,72.9 11.2,74.8 C14,76.5 17.1,77.7 17.1,77.7 L11.1,85 C11.1,85 9.6,83.6 8.3,82.2 C7.1,80.9 5.8,79 5.8,79 C5.8,79 5.3,77.6 5.4,75.4 C5.6,73.2 6.1,71.2 6.1,71.2 Z"/>
      <polygon fill="#D8401D" points="34.7 61.2 30.5 64.1 25.1 67.9 22.9 69.4 34.7 77.7 46.5 69.4"/>
      <polygon fill="#BC2713" points="11.5 63.6 5.9 71.5 15.9 77.7 24.1 69.4"/>
      <polygon fill="#BC2713" points="10.5 46.9 1.9 56.4 11.5 64 22 54.9"/>
      <polygon fill="#D8401D" points="21.8 54.2 11.4 63.6 23.8 70.6 35.2 61.5"/>
      <polygon fill="#D8401D" points="33.8 46.4 29.6 49.3 24.2 53.1 22 54.6 34.9 62.3 46 54.4"/>
      <path fill="#BC2713" d="M1.9 56.4L11.4 63.6 5.2 72.4 3 71C2.9 71-.8 60 1.9 56.4zM4.5 41.4L10.5 46.9 1.9 56.4 1 55.3C1 55.2 1.4 46.9 4.5 41.4z"/>
      <path fill="#BC2713" d="M20.6,38 L14.8,30.7 C14.8,30.7 10.6,33.5 9.2,34.5 C7.8,35.5 6.7,37.3 6.7,37.3 C6.7,37.3 5.1,40.5 5.7,42.1 C6.3,43.7 10,46.6 10,46.6 L20.6,38 Z"/>
      <polygon fill="#D8401D" points="45.2 38 32.8 32.6 20.6 38 34 47.4"/>
      <path fill="#D8401D" d="M311.1,77.5 L300.8,85.4 L307.7,92.3 C307.7,92.3 310.9,90.5 312.6,89.2 C314.9,87.3 317.3,84.6 317.3,84.6 L311.1,77.5 Z"/>
      <polygon fill="#BC2713" points="307.7 38 318.4 46.5 305.6 55.5 293.8 47"/>
      <polygon fill="#BC2713" points="304.9 69.1 293.3 77.1 301.2 85.9 312.2 77.5"/>
      <path fill="#BC2713" d="M322.2,71.2 C322.2,71.2 320.3,72.9 317.1,74.8 C314.3,76.5 311.2,77.7 311.2,77.7 L317.2,85 C317.2,85 318.7,83.6 320,82.2 C321.2,80.9 322.5,79 322.5,79 C322.5,79 323,77.6 322.9,75.4 C322.7,73.2 322.2,71.2 322.2,71.2 Z"/>
      <polygon fill="#D8401D" points="293.6 61.2 297.8 64.1 303.2 67.9 305.4 69.4 293.6 77.7 281.8 69.4"/>
      <polygon fill="#D8401D" points="316.8 63.6 322.4 71.5 312.4 77.7 304.2 69.4"/>
      <polygon fill="#D8401D" points="317.8 46.9 326.4 56.4 316.8 64 306.3 54.9"/>
      <polygon fill="#D8401D" points="294.5 46.4 298.7 49.3 304.1 53.1 306.3 54.6 293.4 62.3 282.3 54.4"/>
      <path fill="#BC2713" d="M326.4,56.4 L316.9,63.6 L323.1,72.4 L325.3,71 C325.4,71 329,60 326.4,56.4 Z"/>
      <path fill="#D8401D" d="M323.8,41.4 L317.8,46.9 L326.4,56.4 L327.3,55.3 C327.3,55.2 326.9,46.9 323.8,41.4 Z"/>
      <path fill="#BC2713" d="M307.7,38 L313.5,30.7 C313.5,30.7 317.7,33.5 319.1,34.5 C320.5,35.5 321.6,37.3 321.6,37.3 C321.6,37.3 323.2,40.5 322.6,42.1 C322,43.7 318.3,46.6 318.3,46.6 L307.7,38 Z"/>
      <polygon fill="#BC2713" points="283.1 38 295.5 32.6 307.7 38 294.3 47.4"/>
      <polygon fill="#BC2713" points="35.7 61.9 46.5 69.4 44.1 71 33.3 63.1 34.5 62.2 34.9 62.3"/>
      <polygon fill="#BC2713" points="33.1 46.8 34 47.4 34.9 46.8 46 54.4 43.8 56 31.5 48"/>
      <polygon fill="#BC2713" points="293.6 61.2 306.3 54.6 316.9 63.6 304.2 69.4"/>
      <g fill="#666157" transform="translate(39 2)">
        <polygon points="131.1 23 138.3 5.6 145.4 23 147.6 23 138.3 .4 128.9 23"/>
        <polygon points="157.1 23 164.3 5.6 171.4 23 173.6 23 164.3 .4 154.9 23"/>
        <polygon points="182.1 23 190.3 6.7 198.4 23 200.6 23 190.3 2.3 179.9 23"/>
        <polygon points="210.1 23 216.3 12 222.4 23 224 23.1 216.3 8 207.8 23"/>
        <polygon points="237.8 23 242.3 15.9 246.7 23 249.1 23 242.3 12.1 235.4 23"/>
        <polygon points="105.1 23 112.3 5.6 119.4 23 121.6 23 112.3 .4 102.9 23"/>
        <polygon points="27.7 23 34.3 10.2 40.8 23 43 23 34.3 5.8 25.5 23"/>
        <polygon points="53.5 23 60.3 8.4 67.1 23 69.3 23 60.3 3.6 51.2 23"/>
        <polygon points="79.1 23 86.3 5.6 93.4 23 95.6 23 86.3 .4 76.9 23"/>
        <polygon points="2.5 23 8.3 13.9 14 23 16.3 23 8.3 10.1 .2 23"/>
      </g>
      <path fill="#666157" d="M24.3,26 C28.8,21.9 40.3,17 62.4,12.9 C89.4,7.8 125.3,5 163.5,5 C201.7,5 237.6,7.8 264.6,12.9 C286.6,17 298.2,21.9 302.7,26 L307.8,26 C298,9.7 228.9,1 163.5,1 C125,1 88.9,3.8 61.7,8.9 C37.4,13.5 23.1,19.2 19.2,26 L24.3,26 Z"/>
      <path fill="#666157" d="M68.7,30.3 C68.7,26.5 69.5,21.1 73.1,16.6 C77.1,11.6 83.1,7.9 90.1,6.2 C95.3,4.9 100.4,4.8 105,5.8 C112.1,7.3 117.5,10.2 119.8,15.9 L124,16 C119.7,4.5 104.6,-1.5 89.1,2.4 C81.3,4.4 74.5,8.6 70,14.2 C65.6,19.7 64.6,23.6 64.7,30.1 L68.7,30.3 Z"/>
      <polygon fill="#666157" points="72 30.6 67.8 18.3 69.7 17.6 72.7 26.4 76.2 9.5 78.2 9.4 82.2 24.1 88 5.6 89.9 5.8 92.8 21 98.3 4.2 100.2 4.4 103 18.7 109 5.3 110.9 5.6 112.2 16.8 116.2 9.9 117.9 10.9 112.4 20.4 110.5 20 109.4 9.5 103.5 22.4 101.6 22.2 99 8.5 93.4 25.3 91.5 25.2 88.7 10.1 83.1 28 81.2 27.9 77.3 13.9 73.9 30.5"/>
      <path fill="#666157" d="M207.1,16.2 L210.6,15.7 C211.2,14.2 212,12.9 213,11.7 L218,20.2 L219.9,19.8 L221,9.3 L226.9,22.3 L228.8,22.1 L231.4,8.4 L237,25 L238.9,24.9 L241.7,9.8 L247.3,27.6 L249.2,27.6 L253.1,13.6 L256.6,30.1 L258.5,30.2 L260.7,23.6 C261.3,25 262.2,27.5 261.7,30.2 L265.2,29.9 C265.4,21.6 263.8,18.8 260.2,13.8 C256,7.9 249.2,4 241.3,2.1 C225.8,-1.8 211.3,3 207.1,16.2 Z M257.7,26.1 L255.2,14 C256,14.7 256.7,15.5 257.4,16.3 C258.3,17.5 259.1,18.9 259.7,20.3 L257.7,26.1 Z M242.8,6.6 C246.1,7.7 249,9.2 251.7,11 L248.2,23.8 L242.8,6.6 Z M232.4,4.9 C235,4.9 237.7,5.3 240.4,5.9 C240.4,5.9 240.4,5.9 240.4,5.9 L237.7,20.7 L232.4,4.9 Z M221.9,6.5 C223,6.2 224.2,5.8 225.4,5.6 C226.9,5.3 228.4,5.1 229.9,5 L227.4,18.5 L221.9,6.5 Z M214.5,10.3 C215.8,9.2 217.4,8.2 219.2,7.5 L218.2,16.6 L214.5,10.3 Z"/>
    </g>
    <g fill="#008951" transform="translate(6 199)">
      <polygon points="14.7 .5 8.3 11.6 21.1 11.6"/>
      <polygon points="14.7 4 5.7 19.5 23.7 19.5"/>
      <polygon points="14.7 8 3 28.3 26.4 28.3"/>
      <polygon points="14.7 13 .7 37.2 28.7 37.2"/>
      <polygon points="39.9 .5 33.4 11.6 46.3 11.6"/>
      <polygon points="39.9 4 30.9 19.5 48.8 19.5"/>
      <polygon points="39.9 8 28.2 28.3 51.6 28.3"/>
      <polygon points="39.9 13 25.9 37.2 53.8 37.2"/>
    </g>
  </g>
</svg>
