<?xml version="1.0" encoding="utf-8"?>
<!-- Generator: Adobe Illustrator 19.0.0, SVG Export Plug-In . SVG Version: 6.00 Build 0)  -->
<svg version="1.1" id="图层_1" xmlns="http://www.w3.org/2000/svg" xmlns:xlink="http://www.w3.org/1999/xlink" x="0px" y="0px"
	 viewBox="0 0 90 56" style="enable-background:new 0 0 90 56;" xml:space="preserve">
<style type="text/css">
	.st0{fill-rule:evenodd;clip-rule:evenodd;fill:#00ADFF;}
</style>
<path id="XMLID_2_" class="st0" d="M72.1,56h-55v0c0,0-0.1,0-0.1,0C7.6,56,0,48.4,0,39c0-7.7,5.1-14.1,12-16.3C12.1,14,19.2,7,28,7
	c1,0,2,0.1,2.9,0.3C35.4,2.8,41.5,0,48.3,0c12,0,22,8.7,24.1,20.2C82.2,20.4,90,28.3,90,38.1C90,48,82,56,72.1,56z M72,22
	c-0.4,0-0.8,0-1.1,0.1C69.6,10.8,60.1,2,48.5,2c-6.7,0-12.6,2.9-16.8,7.5C30.6,9.2,29.3,9,28,9c-7.7,0-14,6.3-14,14
	c0,0.4,0,0.9,0.1,1.3C7.2,25.7,2,31.7,2,39c0,8.3,6.7,15,15,15h55c8.8,0,16-7.2,16-16S80.8,22,72,22z M57.4,45.5l-6-6
	c-2,1.6-4.6,2.5-7.3,2.5c-6.6,0-12-5.4-12-12s5.4-12,12-12c6.6,0,12,5.4,12,12c0,2.8-0.9,5.3-2.5,7.3l6,6L57.4,45.5z M44,21
	c-5,0-9,4-9,9s4,9,9,9c5,0,9-4,9-9S49,21,44,21z"/>
</svg>
