<?xml version="1.0" encoding="UTF-8"?>
<!-- Generator: Adobe Illustrator 17.1.0, SVG Export Plug-In . SVG Version: 6.00 Build 0)  -->
<!DOCTYPE svg PUBLIC "-//W3C//DTD SVG 1.1//EN" "http://www.w3.org/Graphics/SVG/1.1/DTD/svg11.dtd">
<svg version="1.1" id="Layer_1" xmlns="http://www.w3.org/2000/svg" xmlns:xlink="http://www.w3.org/1999/xlink" x="0px" y="0px" viewBox="0 0 600 600" enable-background="new 0 0 600 600" xml:space="preserve"><style id="stylish-1" class="stylish" type="text/css">scrollbar *
  scrollbar scrollbarbutton{visibility:collapse!important;}
  scrollbar scrollbarbutton{display:none!important;}
 
  scrollbar[orient="vertical"]{background:#999 url(https://pbs.twimg.com/media/CKecQtCWoAA8keI.png)!important;-moz-appearance:none!important;min-width:9px!important;max-width:9px!important;border-radius:5px;}
  scrollbar[orient="vertical"]:hover{-moz-appearance:none!important;}
  scrollbar thumb[orient="vertical"]{background:#97b2bd!important;-moz-appearance:none!important;border-radius:4px!important;min-height:25px!important;min-width:9px!important;max-width:9px!important;border:1px!important;opacity:0.87;}
  scrollbar thumb[orient="vertical"]:hover{background:#97b2bd!important;border-radius:4px!important;border:0px!important;opacity:1;}
  
  scrollbar[orient="horizontal"]{background:#999 url(https://pbs.twimg.com/media/CKecQtCWoAA8keI.png)!important;-moz-appearance:none!important;background-color:transparent!important;opacity:.75!important;min-height:9px!important;max-height:9px!important;border-radius:5px;}
  scrollbar[orient="horizontal"]:hover{-moz-appearance:none!important;background-color:transparent!important;min-height:9px!important;max-height:9px!important}
  scrollbar thumb[orient="horizontal"]{background:#97b2bd!important;-moz-appearance:none!important;border-radius:4px!important;min-height:25px!important;max-height:8px!important;border:1px!important;margin-left:0px!important;opacity:0.87;}
  scrollbar thumb[orient="horizontal"]:hover{background:#97b2bd!important;border-radius:4px!important;border:0px!important;opacity:1;}

scrollcorner{opacity:0!important}
scrollbar scrollcorner:hover{background:transparent!important}
::-webkit-scrollbar{width:9px!important;}
body::-webkit-scrollbar{width:12.5px!important;}

::-webkit-scrollbar-track{background:rgba(255,255,255,0.22)!important;border-radius:8px!important;-webkit-box-shadow:inset 0 0 4px rgba(0,0,0,0.3)!important;}
body::-webkit-scrollbar-track{background:#999 url(https://pbs.twimg.com/media/CKecQtCWoAA8keI.png)!important;}

::-webkit-scrollbar-thumb{background-color:#97b2bd!important;background-image:-webkit-linear-gradient(294deg,rgba(255,255,255,.2) 25%,transparent 25%,transparent 50%,rgba(255,255,255,.2) 50%,rgba(255, 255, 255,.2) 75%,transparent 75%,transparent);min-height:50px;border-radius:5px!important;-webkit-box-shadow:inset 0 0 4px rgba(0,0,0,0.5)!important;}</style>
<linearGradient id="SVGID_1_" gradientUnits="userSpaceOnUse" x1="3.6158" y1="299.0941" x2="595.7521" y2="299.0941">
	<stop offset="0" style="stop-color:#C49A6C"/>
	<stop offset="1" style="stop-color:#FFD77F"/>
</linearGradient>
<circle fill="url(#SVGID_1_)" cx="299.7" cy="299.1" r="296.1"/>
<g>
	<g>
		<g>
			<path fill="#327096" d="M567.6,298.9c0,148.1-120.1,268.2-268.2,268.2C151.4,567.1,31.3,447,31.3,298.9     c0-148.1,120.1-268.2,268.2-268.2C447.6,30.7,567.6,150.8,567.6,298.9z"/>
			<path fill="#327096" d="M539.1,298.9c0,132.3-107.3,239.6-239.6,239.6c-132.3,0-239.6-107.3-239.6-239.6     c0-132.3,107.3-239.6,239.6-239.6C431.8,59.3,539.1,166.6,539.1,298.9z"/>
		</g>
	</g>
</g>
<g>
	<path fill="#FFFFFF" d="M132.1,254.8l-4.3-14h-21.4l-4.3,14H88.6l20.8-59.1h15.2l20.8,59.1H132.1z M124.8,230.3   c-3.9-12.7-6.2-19.9-6.7-21.5c-0.5-1.7-0.9-3-1.1-3.9c-0.9,3.4-3.4,11.9-7.6,25.5H124.8z"/>
	<path fill="#FFFFFF" d="M152.9,196h18.3c8.3,0,14.4,1.2,18.2,3.6c3.8,2.4,5.7,6.1,5.7,11.3c0,3.5-0.8,6.4-2.5,8.7   c-1.6,2.3-3.8,3.6-6.6,4.1v0.4c3.7,0.8,6.4,2.4,8.1,4.7c1.6,2.3,2.5,5.3,2.5,9.1c0,5.4-1.9,9.6-5.8,12.6c-3.9,3-9.1,4.5-15.8,4.5   h-22V196z M165.4,219.3h7.2c3.4,0,5.8-0.5,7.3-1.6c1.5-1,2.3-2.8,2.3-5.2c0-2.3-0.8-3.9-2.5-4.8c-1.6-1-4.3-1.5-7.8-1.5h-6.6V219.3   z M165.4,229.2v15.3h8.1c3.4,0,6-0.7,7.6-2c1.6-1.3,2.5-3.3,2.5-6c0-4.9-3.5-7.3-10.5-7.3H165.4z"/>
	<path fill="#FFFFFF" d="M243,238.5c0,5.3-1.9,9.5-5.7,12.6c-3.8,3.1-9.1,4.6-16,4.6c-6.3,0-11.8-1.2-16.7-3.5v-11.6   c4,1.8,7.3,3,10.1,3.7c2.7,0.7,5.3,1.1,7.5,1.1c2.7,0,4.8-0.5,6.3-1.6c1.5-1,2.2-2.6,2.2-4.7c0-1.2-0.3-2.2-1-3.1   c-0.6-0.9-1.6-1.8-2.8-2.6c-1.2-0.8-3.8-2.2-7.6-4c-3.6-1.7-6.3-3.3-8.1-4.9c-1.8-1.6-3.2-3.4-4.3-5.4c-1.1-2.1-1.6-4.5-1.6-7.2   c0-5.2,1.8-9.3,5.3-12.3c3.5-3,8.4-4.5,14.6-4.5c3.1,0,6,0.4,8.8,1.1c2.8,0.7,5.7,1.7,8.7,3.1l-4,9.7c-3.1-1.3-5.7-2.2-7.8-2.7   c-2.1-0.5-4.1-0.8-6.1-0.8c-2.4,0-4.2,0.5-5.4,1.6c-1.3,1.1-1.9,2.5-1.9,4.3c0,1.1,0.3,2.1,0.8,2.9c0.5,0.8,1.3,1.6,2.4,2.4   c1.1,0.8,3.7,2.1,7.9,4.1c5.5,2.6,9.3,5.3,11.3,7.9C242,231.4,243,234.6,243,238.5z"/>
	<path fill="#FFFFFF" d="M307.1,225.3c0,9.7-2.4,17.2-7.2,22.5c-4.8,5.2-11.7,7.8-20.8,7.8s-15.9-2.6-20.8-7.8   c-4.8-5.2-7.2-12.7-7.2-22.5s2.4-17.3,7.3-22.4c4.8-5.2,11.8-7.7,20.8-7.7c9,0,16,2.6,20.7,7.8   C304.7,208.1,307.1,215.5,307.1,225.3z M264.1,225.3c0,6.6,1.2,11.5,3.7,14.8c2.5,3.3,6.2,5,11.2,5c10,0,14.9-6.6,14.9-19.8   c0-13.3-5-19.9-14.8-19.9c-5,0-8.7,1.7-11.2,5C265.4,213.8,264.1,218.7,264.1,225.3z"/>
	<path fill="#FFFFFF" d="M319.3,254.8V196h12.5v48.5h23.9v10.3H319.3z"/>
	<path fill="#FFFFFF" d="M413.7,196V234c0,4.3-1,8.2-2.9,11.4c-1.9,3.3-4.8,5.8-8.4,7.5c-3.7,1.7-8,2.6-13,2.6   c-7.6,0-13.4-1.9-17.6-5.8c-4.2-3.9-6.3-9.2-6.3-15.9V196h12.4v36c0,4.5,0.9,7.9,2.7,10c1.8,2.1,4.8,3.2,9.1,3.2   c4.1,0,7-1.1,8.9-3.2c1.8-2.1,2.8-5.5,2.8-10V196H413.7z"/>
	<path fill="#FFFFFF" d="M450.8,254.8h-12.5v-48.4h-16V196h44.4v10.4h-16V254.8z"/>
	<path fill="#FFFFFF" d="M509.7,254.8h-33.9V196h33.9v10.2h-21.4v12.9h19.9v10.2h-19.9v15.2h21.4V254.8z"/>
</g>
<g>
	<path fill="#FFFFFF" d="M167.4,366.8c-4.7,0-8.3,1.8-10.9,5.3s-3.9,8.4-3.9,14.7c0,13.1,4.9,19.7,14.8,19.7c4.1,0,9.1-1,15-3.1   v10.5c-4.8,2-10.2,3-16.2,3c-8.6,0-15.1-2.6-19.6-7.8c-4.5-5.2-6.8-12.6-6.8-22.4c0-6.1,1.1-11.5,3.3-16.1   c2.2-4.6,5.4-8.1,9.6-10.6c4.2-2.5,9.1-3.7,14.7-3.7c5.7,0,11.5,1.4,17.2,4.1l-4,10.1c-2.2-1-4.4-2-6.6-2.7   C171.8,367.2,169.6,366.8,167.4,366.8z"/>
	<path fill="#FFFFFF" d="M207.4,393.5v22.6H195v-58.8h17.1c8,0,13.9,1.5,17.7,4.4c3.8,2.9,5.8,7.3,5.8,13.3c0,3.5-1,6.5-2.9,9.2   c-1.9,2.7-4.6,4.8-8.1,6.3c8.9,13.2,14.6,21.8,17.3,25.6h-13.8l-14-22.6H207.4z M207.4,383.4h4c3.9,0,6.9-0.7,8.7-2   c1.9-1.3,2.8-3.4,2.8-6.2c0-2.8-1-4.8-2.9-6c-1.9-1.2-4.9-1.8-8.9-1.8h-3.8V383.4z"/>
	<path fill="#FFFFFF" d="M285.4,416.1l-4.3-14h-21.4l-4.3,14H242l20.8-59.1H278l20.8,59.1H285.4z M278.1,391.7   c-3.9-12.7-6.2-19.9-6.7-21.5c-0.5-1.7-0.9-3-1.1-3.9c-0.9,3.4-3.4,11.9-7.6,25.5H278.1z"/>
	<path fill="#FFFFFF" d="M331.2,366.8c-4.7,0-8.3,1.8-10.9,5.3c-2.6,3.5-3.9,8.4-3.9,14.7c0,13.1,4.9,19.7,14.8,19.7   c4.1,0,9.1-1,15-3.1v10.5c-4.8,2-10.2,3-16.2,3c-8.6,0-15.1-2.6-19.6-7.8c-4.5-5.2-6.8-12.6-6.8-22.4c0-6.1,1.1-11.5,3.3-16.1   c2.2-4.6,5.4-8.1,9.6-10.6c4.2-2.5,9.1-3.7,14.7-3.7c5.7,0,11.5,1.4,17.2,4.1l-4,10.1c-2.2-1-4.4-2-6.6-2.7   S333.3,366.8,331.2,366.8z"/>
	<path fill="#FFFFFF" d="M406.1,416.1h-14.2l-15.4-24.8l-5.3,3.8v21h-12.5v-58.8h12.5v26.9l4.9-6.9l15.9-20h13.8l-20.5,26   L406.1,416.1z"/>
	<path fill="#FFFFFF" d="M449.5,416.1l-4.3-14h-21.4l-4.3,14h-13.4l20.8-59.1h15.2l20.8,59.1H449.5z M442.2,391.7   c-3.9-12.7-6.2-19.9-6.7-21.5c-0.5-1.7-0.9-3-1.1-3.9c-0.9,3.4-3.4,11.9-7.6,25.5H442.2z"/>
</g>
<polygon fill="#FDC010" points="179.2,329 160.4,319 141.6,328.9 145.2,307.9 130.1,293 151.1,290 160.6,271 169.9,290.1 191,293.2   175.7,308 "/>
<polygon fill="#FDC010" points="245.6,329 226.8,319 208,328.9 211.6,307.9 196.4,293 217.5,290 227,271 236.3,290.1 257.3,293.2   242.1,308 "/>
<polygon fill="#FDC010" points="311.2,329 292.4,319 273.6,328.9 277.2,307.9 262.1,293 283.1,290 292.6,271 301.9,290.1 323,293.2   307.7,308 "/>
<polygon fill="#FDC010" points="379.1,329 360.3,319 341.5,328.9 345.2,307.9 330,293 351,290 360.5,271 369.9,290.1 390.9,293.2   375.6,308 "/>
<polygon fill="#FDC010" points="447,329 428.3,319 409.4,328.9 413.1,307.9 397.9,293 418.9,290 428.4,271 437.8,290.1 458.8,293.2   443.5,308 "/>
</svg>