<?xml version="1.0" encoding="UTF-8" standalone="no"?>
<svg width="50px" height="48px" viewBox="0 0 50 48" version="1.1" xmlns="http://www.w3.org/2000/svg" xmlns:xlink="http://www.w3.org/1999/xlink">
    <!-- Generator: Sketch 49.2 (51160) - http://www.bohemiancoding.com/sketch -->
    <title>desktop</title>
    <desc>Created with Sketch.</desc>
    <defs/>
    <g id="Design-Files" stroke="none" stroke-width="1" fill="none" fill-rule="evenodd">
        <g id="Downloads" transform="translate(-339.000000, -651.000000)" fill-rule="nonzero" fill="currentColor">
            <g id="desktop" transform="translate(339.000000, 651.000000)">
                <path d="M47,4.4408921e-16 L3,4.4408921e-16 C1.34387685,0.00176371092 0.00176371092,1.34387685 0,3 L0,37 C0.00176371092,38.6561231 1.34387685,39.9982363 3,40 L19.6,40 L18.4,46 L15,46 C14.4477153,46 14,46.4477153 14,47 C14,47.5522847 14.4477153,48 15,48 L35,48 C35.5522847,48 36,47.5522847 36,47 C36,46.4477153 35.5522847,46 35,46 L31.6,46 L30.4,40 L47,40 C48.6561231,39.9982363 49.9982363,38.6561231 50,37 L50,3 C49.9982363,1.34387685 48.6561231,0.00176371092 47,4.4408921e-16 Z M29.56,46 L20.44,46 L21.64,40 L28.36,40 L29.56,46 Z M48,37 C48,37.5522847 47.5522847,38 47,38 L3,38 C2.44771525,38 2,37.5522847 2,37 L2,32 L48,32 L48,37 Z M48,30 L2,30 L2,3 C2,2.44771525 2.44771525,2 3,2 L47,2 C47.5522847,2 48,2.44771525 48,3 L48,30 Z" id="Shape"/>
            </g>
        </g>
    </g>
</svg>