<?xml version="1.0" encoding="iso-8859-1"?>
<!-- Generator: Adobe Illustrator 18.0.0, SVG Export Plug-In . SVG Version: 6.00 Build 0)  -->
<!DOCTYPE svg PUBLIC "-//W3C//DTD SVG 1.1//EN" "http://www.w3.org/Graphics/SVG/1.1/DTD/svg11.dtd">
<svg xmlns="http://www.w3.org/2000/svg" xmlns:xlink="http://www.w3.org/1999/xlink" version="1.1" id="Capa_1" x="0px" y="0px" viewBox="0 0 291.001 291.001" style="enable-background:new 0 0 291.001 291.001;" xml:space="preserve" width="512px" height="512px">
<g>
	<path d="M259.94,9.533h-12.106V7.317c0-2.209-1.791-4-4-4s-4,1.791-4,4v2.216H230.1V7.317c0-2.209-1.791-4-4-4   c-2.209,0-4,1.791-4,4v2.216h-9.733V7.317c0-2.209-1.791-4-4-4s-4,1.791-4,4v2.216h-9.733V7.317c0-2.209-1.791-4-4-4s-4,1.791-4,4   v2.216H176.9V7.317c0-2.209-1.791-4-4-4s-4,1.791-4,4v2.216h-9.733V7.317c0-2.209-1.791-4-4-4c-2.209,0-4,1.791-4,4v2.216h-12.106   C121.934,9.533,108,23.467,108,40.593v208.879c0,9.142,3.971,17.372,10.278,23.061H77.667v-45.817   c4.86-1.668,8.368-6.272,8.368-11.69v-37.492h5.299c2.209,0,4-1.791,4-4s-1.791-4-4-4h-5.299v-14c0-2.209-1.791-4-4-4h-4.368v-24   c0-2.209-1.791-4-4-4s-4,1.791-4,4v24h-4.368c-2.209,0-4,1.791-4,4v14H56c-2.209,0-4,1.791-4,4s1.791,4,4,4h5.299v37.492   c0,5.418,3.508,10.023,8.368,11.69v45.817h-22.97c-11.596,0-21.03-9.434-21.03-21.029v-24.788c4.86-1.668,8.368-6.272,8.368-11.69   v-37.492h5.299c2.209,0,4-1.791,4-4s-1.791-4-4-4h-5.299v-14c0-2.209-1.791-4-4-4h-4.368v-24c0-2.209-1.791-4-4-4s-4,1.791-4,4v24   h-4.368c-2.209,0-4,1.791-4,4v14H4c-2.209,0-4,1.791-4,4s1.791,4,4,4h5.299v37.492c0,5.418,3.508,10.023,8.368,11.69v24.788   c0,16.007,13.022,29.029,29.03,29.029h104.47v3.15c0,2.209,1.791,4,4,4c2.209,0,4-1.791,4-4v-3.15h9.733v3.15c0,2.209,1.791,4,4,4   s4-1.791,4-4v-3.15h9.733v3.15c0,2.209,1.791,4,4,4s4-1.791,4-4v-3.15h9.733v3.15c0,2.209,1.791,4,4,4s4-1.791,4-4v-3.15h9.733   v3.15c0,2.209,1.791,4,4,4c2.209,0,4-1.791,4-4v-3.15h9.733v3.15c0,2.209,1.791,4,4,4s4-1.791,4-4v-3.15h12.106   c17.127,0,31.061-13.934,31.061-31.061V40.593C291.001,23.467,277.067,9.533,259.94,9.533z M69.299,159.533h8.735v10h-8.735   V159.533z M69.299,177.533h8.735v37.492c0,2.408-1.96,4.367-4.368,4.367c-2.408,0-4.368-1.959-4.368-4.367V177.533z    M17.299,159.533h8.735v10h-8.735V159.533z M17.299,177.533h8.735v37.492c0,2.408-1.959,4.367-4.368,4.367   s-4.368-1.959-4.368-4.367V177.533z M283.001,249.472c0,12.716-10.345,23.061-23.061,23.061h-12.106v-4.717c0-2.209-1.791-4-4-4   s-4,1.791-4,4v4.717H230.1v-4.717c0-2.209-1.791-4-4-4c-2.209,0-4,1.791-4,4v4.717h-9.733v-4.717c0-2.209-1.791-4-4-4s-4,1.791-4,4   v4.717h-9.733v-4.717c0-2.209-1.791-4-4-4s-4,1.791-4,4v4.717H176.9v-4.717c0-2.209-1.791-4-4-4s-4,1.791-4,4v4.717h-9.733v-4.717   c0-2.209-1.791-4-4-4c-2.209,0-4,1.791-4,4v4.717h-12.106c-12.716,0-23.061-10.345-23.061-23.061V40.593   c0-12.716,10.345-23.06,23.061-23.06H259.94c12.716,0,23.061,10.345,23.061,23.06V249.472z" fill="#FFFFFF"/>
	<path d="M252.563,25.592H146.438c-11.27,0-20.438,9.168-20.438,20.438v173.316c0,11.27,9.168,20.438,20.438,20.438h106.126   c11.27,0,20.438-9.168,20.438-20.438V46.029C273.001,34.76,263.833,25.592,252.563,25.592z M265.001,219.345   c0,6.858-5.579,12.438-12.438,12.438H146.438c-6.858,0-12.438-5.579-12.438-12.438V46.029c0-6.858,5.58-12.438,12.438-12.438   h106.126c6.858,0,12.438,5.579,12.438,12.438V219.345z" fill="#FFFFFF"/>
	<path d="M253.501,40.891H145.5c-2.209,0-4,1.791-4,4v44c0,2.209,1.791,4,4,4h108.001c2.209,0,4-1.791,4-4v-44   C257.501,42.682,255.71,40.891,253.501,40.891z M249.501,84.891h-100v-36h100V84.891z" fill="#FFFFFF"/>
	<path d="M199.501,108.592c-10.15,0-19.693,3.953-26.87,11.131c-14.816,14.815-14.817,38.923,0,53.739   c7.178,7.178,16.72,11.13,26.87,11.13c10.15,0,19.692-3.952,26.869-11.13c7.178-7.177,11.131-16.72,11.131-26.87   c0-10.15-3.953-19.692-11.131-26.869C219.193,112.545,209.651,108.592,199.501,108.592z M218.496,169.816l-42.217-42.217   c0.626-0.765,1.295-1.507,2.008-2.22c0.711-0.711,1.452-1.381,2.218-2.011l42.219,42.219c-0.63,0.767-1.3,1.508-2.011,2.219   C220.003,168.516,219.262,169.187,218.496,169.816z M178.287,167.805c-8.954-8.955-11.045-22.205-6.29-33.175l39.477,39.477   c-3.729,1.624-7.784,2.484-11.974,2.484C191.487,176.592,183.954,173.471,178.287,167.805z M227.016,158.566l-39.489-39.489   c3.729-1.624,7.784-2.485,11.974-2.485c8.013,0,15.547,3.121,21.213,8.787c5.666,5.666,8.787,13.2,8.787,21.213   C229.501,150.781,228.64,154.837,227.016,158.566z" fill="#FFFFFF"/>
	<path d="M150.8,203.592c-6.617,0-12,5.383-12,12c0,6.617,5.383,12,12,12c6.617,0,12-5.383,12-12   C162.8,208.974,157.417,203.592,150.8,203.592z M150.8,219.592c-2.206,0-4-1.794-4-4c0-2.206,1.794-4,4-4c2.206,0,4,1.794,4,4   C154.8,217.798,153.006,219.592,150.8,219.592z" fill="#FFFFFF"/>
	<path d="M180.467,203.592c-6.617,0-12,5.383-12,12c0,6.617,5.383,12,12,12c6.617,0,12-5.383,12-12   C192.467,208.974,187.085,203.592,180.467,203.592z M180.467,219.592c-2.206,0-4-1.794-4-4c0-2.206,1.794-4,4-4   c2.206,0,4,1.794,4,4C184.467,217.798,182.673,219.592,180.467,219.592z" fill="#FFFFFF"/>
	<path d="M175.133,195.592H185.8c2.209,0,4-1.791,4-4c0-2.209-1.791-4-4-4h-10.667c-2.209,0-4,1.791-4,4   C171.133,193.801,172.924,195.592,175.133,195.592z" fill="#FFFFFF"/>
	<path d="M150.8,182.259c-2.209,0-4,1.791-4,4v1.333h-1.333c-2.209,0-4,1.791-4,4c0,2.209,1.791,4,4,4h1.333v1.333   c0,2.209,1.791,4,4,4s4-1.791,4-4v-1.333h1.333c2.209,0,4-1.791,4-4c0-2.209-1.791-4-4-4H154.8v-1.333   C154.8,184.05,153.009,182.259,150.8,182.259z" fill="#FFFFFF"/>
</g>
<g>
</g>
<g>
</g>
<g>
</g>
<g>
</g>
<g>
</g>
<g>
</g>
<g>
</g>
<g>
</g>
<g>
</g>
<g>
</g>
<g>
</g>
<g>
</g>
<g>
</g>
<g>
</g>
<g>
</g>
</svg>
