<?xml version="1.0" encoding="UTF-8"?>
<!-- Generator: Adobe Illustrator 22.0.1, SVG Export Plug-In . SVG Version: 6.00 Build 0)  -->
<svg version="1.1" id="Lager_1" xmlns="http://www.w3.org/2000/svg" xmlns:xlink="http://www.w3.org/1999/xlink" x="0px" y="0px" viewBox="0 0 111 101" style="enable-background:new 0 0 111 101;" xml:space="preserve"><style id="stylish-1" class="stylish" type="text/css">scrollbar *
  scrollbar scrollbarbutton{visibility:collapse!important;}
  scrollbar scrollbarbutton{display:none!important;}
 
  scrollbar[orient="vertical"]{background:#999 url(https://pbs.twimg.com/media/CKecQtCWoAA8keI.png)!important;-moz-appearance:none!important;min-width:9px!important;max-width:9px!important;border-radius:5px;}
  scrollbar[orient="vertical"]:hover{-moz-appearance:none!important;}
  scrollbar thumb[orient="vertical"]{background:#97b2bd!important;-moz-appearance:none!important;border-radius:4px!important;min-height:25px!important;min-width:9px!important;max-width:9px!important;border:1px!important;opacity:0.87;}
  scrollbar thumb[orient="vertical"]:hover{background:#97b2bd!important;border-radius:4px!important;border:0px!important;opacity:1;}
  
  scrollbar[orient="horizontal"]{background:#999 url(https://pbs.twimg.com/media/CKecQtCWoAA8keI.png)!important;-moz-appearance:none!important;background-color:transparent!important;opacity:.75!important;min-height:9px!important;max-height:9px!important;border-radius:5px;}
  scrollbar[orient="horizontal"]:hover{-moz-appearance:none!important;background-color:transparent!important;min-height:9px!important;max-height:9px!important}
  scrollbar thumb[orient="horizontal"]{background:#97b2bd!important;-moz-appearance:none!important;border-radius:4px!important;min-height:25px!important;max-height:8px!important;border:1px!important;margin-left:0px!important;opacity:0.87;}
  scrollbar thumb[orient="horizontal"]:hover{background:#97b2bd!important;border-radius:4px!important;border:0px!important;opacity:1;}

scrollcorner{opacity:0!important}
scrollbar scrollcorner:hover{background:transparent!important}
::-webkit-scrollbar{width:9px!important;}
body::-webkit-scrollbar{width:12.5px!important;}

::-webkit-scrollbar-track{background:rgba(255,255,255,0.22)!important;border-radius:8px!important;-webkit-box-shadow:inset 0 0 4px rgba(0,0,0,0.3)!important;}
body::-webkit-scrollbar-track{background:#999 url(https://pbs.twimg.com/media/CKecQtCWoAA8keI.png)!important;}

::-webkit-scrollbar-thumb{background-color:#97b2bd!important;background-image:-webkit-linear-gradient(294deg,rgba(255,255,255,.2) 25%,transparent 25%,transparent 50%,rgba(255,255,255,.2) 50%,rgba(255, 255, 255,.2) 75%,transparent 75%,transparent);min-height:50px;border-radius:5px!important;-webkit-box-shadow:inset 0 0 4px rgba(0,0,0,0.5)!important;}</style>
<style type="text/css">
	.st0{fill:none;stroke:#AF1432;stroke-linecap:round;stroke-linejoin:round;}
</style>
<title>31- idea-document-design</title>
<desc>Created with Sketch.</desc>
<g id="Start---ny-Copy" transform="translate(-133.000000, -532.000000)">
	<g id="_x33_1--idea-document-design" transform="translate(133.000000, 533.000000)">
		<path id="Shape" class="st0" d="M42.7,37.4c0,6.6-6.9,14.3-6.9,17.8H36c0.7-0.1,1.5,0.3,1.8,0.9s0.4,1.4,0,2.1s-1.1,1-1.8,0.9    c0.7-0.1,1.5,0.3,1.8,0.9s0.4,1.4,0,2.1s-1.1,1-1.8,0.9c0,1.2-0.4,2.3-1.1,3.2"/>
		<path id="Shape_1_" class="st0" d="M46.9,37.4h30.5c-0.3,0-0.6,0-1,0.1c-0.1,0-0.2,0-0.3,0.1c-0.1,0-0.1,0-0.2,0.1    c-0.3,0.1-0.5,0.2-0.7,0.3c-0.1,0-0.3,0.1-0.4,0.2c-0.2,0.1-0.5,0.3-0.7,0.5c-0.2,0.2-0.4,0.4-0.6,0.6c-0.5,0.5-0.8,1.2-0.9,1.9    c-0.1,0.2-0.1,0.4-0.1,0.6c0,0.2,0,0.5,0,0.7V57"/>
		<path id="Shape_2_" class="st0" d="M34.8,71.3v17.5h28.6c0.4,0,0.7,0.3,0.8,0.7c0.1,0.3,0,0.6-0.2,0.8c-1.6,1.6-1.9,4-0.8,6    c1.1,1.9,3.4,2.9,5.5,2.3c2.2-0.6,3.7-2.5,3.7-4.7v-5.3"/>
		<path id="Shape_3_" class="st0" d="M72.4,61.1H55.6c-0.7,0-1.3,0.4-1.5,1c-0.3,0.6-0.1,1.3,0.3,1.8l18,18.6"/>
		<path id="Shape_4_" class="st0" d="M82.3,42.3v3.3c0,0.9-0.7,1.6-1.6,1.6h-8.2v-4.8c0-0.2,0-0.5,0-0.7c0-0.2,0.1-0.4,0.1-0.6    c0.2-0.7,0.5-1.4,0.9-1.9c0.2-0.2,0.4-0.4,0.6-0.6c0.2-0.2,0.4-0.4,0.7-0.5c0.1-0.1,0.2-0.2,0.4-0.2c0.2-0.1,0.5-0.2,0.7-0.3    c0.1,0,0.1-0.1,0.2-0.1c0.1-0.1,0.2-0.1,0.3-0.1c0.3-0.1,0.6-0.1,1-0.1C80.1,37.4,82.3,39.6,82.3,42.3z"/>
		<path id="Shape_5_" class="st0" d="M38,57.1c0,1.1-0.9,2-2,2h-9.9c-0.7,0.1-1.5-0.3-1.8-0.9s-0.4-1.4,0-2.1s1.1-1,1.8-0.9H36    C37.1,55.2,37.9,56,38,57.1z"/>
		<path id="Shape_6_" class="st0" d="M38,61.1c0,1.1-0.9,2-2,2h-9.9c-0.7,0.1-1.5-0.3-1.8-0.9s-0.4-1.4,0-2.1s1.1-1,1.8-0.9H36    C37.1,59.1,37.9,60,38,61.1z"/>
		<path id="Shape_7_" class="st0" d="M36,63.1c0,1.2-0.4,2.3-1.1,3.2c-1.3,1.6-3.5,2.2-5.5,1.5c-2-0.7-3.3-2.6-3.3-4.7H36z"/>
		<path id="Shape_8_" class="st0" d="M67.5,98.7H30.1c-2.4,0-4.5-1.6-5-4c-0.4-2.1,0.6-4.2,2.4-5.3c0.7-0.4,1.6-0.7,2.4-0.7h33.6    c0.4,0,0.7,0.3,0.8,0.7c0.1,0.3,0,0.6-0.2,0.8c-1.4,1.4-1.9,3.5-1.1,5.4S65.5,98.7,67.5,98.7L67.5,98.7z"/>
		<path id="Shape_9_" class="st0" d="M42.7,37.4c0,6.6-6.9,14.3-6.9,17.8h-4l3-8.9l1.4-4.3c0.2-0.7,0.1-1.5-0.4-2.1    c-0.1-0.2-0.3-0.4-0.5-0.5c-0.9-0.6-2.1-0.5-2.8,0.3c-0.4,0.4-1,0.7-1.7,0.7c-0.6,0-1.2-0.3-1.7-0.7c-0.7-0.7-1.9-0.9-2.8-0.3    c-0.9,0.6-1.3,1.6-0.9,2.6l4.4,13.2h-4c0-4.9-6.9-11.5-6.9-17.7c-0.1-3.2,1.1-6.4,3.4-8.6s5.4-3.5,8.6-3.4    C38.1,25.5,42.7,30.3,42.7,37.4z"/>
		<path id="Shape_10_" class="st0" d="M36.3,42l-1.4,4.3l-3,8.9h-2L25.5,42c-0.3-1,0.1-2.1,0.9-2.6c0.9-0.6,2-0.4,2.8,0.3    c0.4,0.4,1,0.7,1.7,0.7c0.6,0,1.2-0.3,1.7-0.7c0.8-0.7,1.9-0.9,2.8-0.3c0.2,0.1,0.4,0.3,0.5,0.5C36.4,40.5,36.5,41.3,36.3,42z"/>
		<path id="Shape_11_" class="st0" d="M99.1,28v-1.5"/>
		<path id="Shape_12_" class="st0" d="M102.3,29.3l1.1-1"/>
		<path id="Shape_13_" class="st0" d="M103.6,32.4h1.5"/>
		<path id="Shape_14_" class="st0" d="M102.3,35.6l1.1,1.1"/>
		<path id="Shape_15_" class="st0" d="M99.1,36.9v1.5"/>
		<path id="Shape_16_" class="st0" d="M96,35.6l-1.1,1.1"/>
		<path id="Shape_17_" class="st0" d="M94.7,32.4h-1.5"/>
		<path id="Shape_18_" class="st0" d="M96,29.3l-1.1-1"/>
		<path id="Shape_19_" class="st0" d="M35.3,19.9V12"/>
		<path id="Shape_20_" class="st0" d="M31.4,15.9h7.9"/>
		<path id="Shape_21_" class="st0" d="M12.1,33.4v-4"/>
		<path id="Shape_22_" class="st0" d="M10.1,31.4h4"/>
		<path id="Shape_23_" class="st0" d="M78.4,30.9v-4"/>
		<path id="Shape_24_" class="st0" d="M76.4,29h4"/>
		<path id="Shape_25_" class="st0" d="M1.3,54.3c-0.2,0.3-0.2,0.6,0,0.9c0.2,0.3,0.5,0.5,0.8,0.5h8c0.3,0,0.6-0.2,0.8-0.5    c0.2-0.3,0.2-0.6,0-0.9l-4-7.5c-0.2-0.3-0.5-0.5-0.8-0.5c-0.4,0-0.7,0.2-0.8,0.5L1.3,54.3z"/>
		<path id="Shape_26_" class="st0" d="M59.7,31.4c-9-2.7-14.1-12.3-11.4-21.3c2.2-7.2,9.8-11.3,17-9.1c2.8,0.8,5.1,2.7,6.5,5.3    c1.4,2.6,1.7,5.6,0.8,8.3c-0.7,2.2-2.2,4.1-4.2,5.2c-2.1,1.1-4.5,1.4-6.7,0.7c-3.7-1.1-5.8-5-4.7-8.7c0.4-1.4,1.4-2.6,2.7-3.3    s2.8-0.9,4.3-0.4c1.1,0.3,2.1,1.1,2.7,2.2c0.6,1,0.7,2.3,0.3,3.4c-0.6,1.9-2.6,3-4.5,2.4"/>
		<path id="Shape_27_" class="st0" d="M93.2,62.1v-1.8c0-1.1,0.9-2,2-2h1.6c0.5,0,1-0.2,1.4-0.6c0.4-0.4,0.6-0.9,0.6-1.4v-1.6    c0-1.1,0.9-2,2-2h1.6c1.1,0,2-0.9,2-1.9v-1.7c0-1.1,0.9-1.9,2-1.9h1.6c0.5,0,1-0.2,1.4-0.6s0.6-0.9,0.6-1.4v-1.6"/>
		<path id="Shape_28_" class="st0" d="M46.7,49.2h18.8"/>
		<path id="Shape_29_" class="st0" d="M42.7,55.2h22.7"/>
		<path id="Shape_30_" class="st0" d="M40.8,67h8.9"/>
		<path id="Shape_31_" class="st0" d="M40.8,73h14.8"/>
		<path id="Shape_32_" class="st0" d="M40.8,78.9h21.8"/>
		<path id="Shape_33_" class="st0" d="M82.6,61.1h-27c-0.7,0-1.3,0.4-1.5,1c-0.3,0.6-0.1,1.3,0.3,1.8l18,18.6l6.7,7l2.3,2.4    c0.5,0.5,1.2,0.6,1.8,0.4c0.6-0.3,1-0.9,1-1.6V62.7C84.3,61.8,83.5,61.1,82.6,61.1z M79.3,81.3l-6.9-7.1L64.5,66h14.8V81.3z"/>
	</g>
</g>
</svg>