<?xml version="1.0" encoding="utf-8"?>
<!-- Generator: Adobe Illustrator 17.0.0, SVG Export Plug-In . SVG Version: 6.00 Build 0)  -->
<!DOCTYPE svg PUBLIC "-//W3C//DTD SVG 1.1//EN" "http://www.w3.org/Graphics/SVG/1.1/DTD/svg11.dtd">
<svg version="1.1" id="Слой_1" xmlns="http://www.w3.org/2000/svg" xmlns:xlink="http://www.w3.org/1999/xlink" x="0px" y="0px"
	 width="550px" height="402.239px" viewBox="0 0 550 402.239" enable-background="new 0 0 550 402.239" xml:space="preserve">
<g>
	<path opacity="0.1" fill-rule="evenodd" clip-rule="evenodd" fill="#EFF0F0" d="M462.95,126.917l-0.687-24.212l-1.05-1.031
		l-1.211-41.914l-3.876-4.524l-5.491,0.238l-2.18-2.54V42.296l-8.923,0.953l-0.484-10.24l0.565-0.079l0.121-3.295l-9.771-10.994
		l-33.996,8.057l-0.08,3.453l1.09,0.913l0.283,17.067c0,0-7.853,0.794-7.954,0.853c-0.101,0.06-8.438,5.458-8.438,5.458l1.13,46.517
		l-0.383,0.02l-0.141-8.534l-6.44-0.794l-0.1-3.83l-2.1-0.198l-1.817-0.02l-4.401,0.595L365.85,64.96l0.101-0.129l-0.01-0.982
		l-8.358-1.945l-0.101-2.183l-5.067-1.33l-4.522,1.032l0.041,3.334l-14.414,1.826l-0.485-16.512c0,0-0.605-0.198-2.665-0.516
		c-2.059-0.318-5.077-0.407-5.077-0.407V46.94l0.353-0.139l0.071-1.746c0,0-5.33-1.131-7.59-1.012
		c-2.261,0.119-9.206,1.945-9.206,1.945l-0.01,2.292l0.353,0.099l0.01,0.318l-7.984,1.955l0.283,11.51l-8.519-1.429l-15.787,3.453
		l0.04,21.215l-6.137-1.251l-12.456,1.826l-0.02-0.952l-7.066-1.052l-0.161-4.941l-0.303-0.139c0,0-0.121-2.818-0.121-2.917
		c0-0.099-0.414-0.308-0.414-0.308l-0.111-2.183l-0.262-0.407l-0.03-0.506c0,0-0.091-0.089-0.141-0.069
		c-0.051,0.02-0.061,0.198-0.061,0.198l-0.101,0.059l-0.041,0.347l-2.715-6.341c0,0-0.03-1.727-0.081-1.826
		c-0.05-0.099-0.192-0.238-0.192-0.238l0.03-0.159c0,0-0.051-2.535-0.055-2.57c-0.005-0.035-0.202-0.089-0.202-0.089l-0.03-0.347
		l-0.136-0.139c0,0-0.131-1.727-0.131-1.761c0-0.035-0.066-0.154-0.066-0.154l-0.111-3.091c0,0-0.02,3.026-0.081,3.106
		c-0.06,0.08-0.051,0.149-0.06,0.208c-0.01,0.06-0.076,1.752-0.076,1.752l-0.137,0.034c0,0-0.03,0.566-0.035,0.606
		c-0.005,0.04-0.106-0.06-0.126-0.094c-0.02-0.035-0.106-0.005-0.161,0.044c-0.055,0.05-0.01,2.431-0.01,2.521
		c0,0.089,0.192,0.138,0.192,0.138l-0.273,0.169l-0.02,0.387l-0.101,0.06c0,0-0.04,1.449-0.03,1.548
		c0.01,0.099-1.524,4.287-1.524,4.287l-20.914,0.119l-1.09,1.786v13.713l-7.49,0.238l0.02,3.275l-2.463-0.06
		c0,0-0.464,0-0.706,0.238c-0.242,0.238-0.03,0.774-0.03,0.774l-0.167,0.084c0,0,0.01,0.139,0.015,0.164
		c0.005,0.025,0.172,0.055,0.172,0.055l0.056,2.486l-0.808,0.069l-1.181,0.625l0.02,0.268h0.182l0.071,1.409l-0.505-0.01
		l-0.04-12.632l-6.268-0.02l-0.242-0.129l-0.101-1.796l-0.141-0.109l-0.03-1.796l-0.414-0.06l-0.061-3.16
		c0,0-0.303-0.055-0.343-0.06c-0.041-0.005-0.489,0.09-0.489,0.09l-0.359-0.015l-0.106-0.169l-2.246-0.03l-0.363-0.01l-0.646,0.209
		l-0.384-0.01l-0.706,0.169l-0.03,0.297l-0.162,0.08l-0.015,2.213l-0.141,0.044l-0.03,0.576l-0.106,0.04l-0.01,0.169l-0.076,0.045
		l-0.02,1.796l-0.151,0.06l-0.04,1.409l-2.271,0.03l-0.041-0.913l-1.463-0.03l-0.202,0.179l0.01,0.734l-0.838-0.01l-0.848,1.111
		l-0.02,4.664l-0.949-0.08l-0.081-1.191l-2.059-0.159l-0.807,0.199l0.02,1.22l-2.15-0.049l-0.495,0.188l-0.111,2.014l-0.444,0.01
		l-0.151-0.526h-0.353l-0.05,0.387l-0.575,0.149l-0.051-0.397l-0.313,0.129l0.02,0.476l-0.151,0.069l-0.03-0.466l-0.243,0.188
		l0.01,0.913l-2.978-0.139l-0.605,0.228l0.06,1.012h-0.575l0.01-1.836l-2.201-0.129l-0.394,0.258l-0.03,1.608l-2.221-0.08
		l0.02-13.257l-5.3-0.337l-0.01-0.834l-4.592-0.327l-0.374,0.218v0.655l-10.79-0.635l-1.736,2.104l-0.161,16.68l-0.394-0.04
		l0.071-8.98c0,0,0.061-0.189,0.101-0.298c0.041-0.109-0.02-0.705-0.02-0.705s0.01-0.7,0.02-0.784
		c0.01-0.084,0.131-0.367,0.147-0.476c0.015-0.109-0.182-1.642-0.182-1.642l-2.433-0.278l-0.06-2.183c0,0-1.181-0.169-1.252-0.229
		c-0.071-0.059-0.061-0.546-0.061-0.605c0-0.06,0.04-0.228,0.071-0.288c0.03-0.06,0-0.347-0.111-0.456l-0.041-0.248l-1.211-0.159
		l-0.041-0.189c0,0-3.038-1.111-3.089-1.082c-0.05,0.03-3.008,0.357-3.008,0.357h-0.444l-0.02-2.371c0,0,0.111-0.059,0.111-0.109
		c0-0.049-1.423-0.883-1.423-0.883s-1.433,0.655-1.504,0.715c-0.07,0.059,0.03,0.099,0.04,0.149c0.01,0.049-0.01,2.292-0.01,2.292
		l-1.03,0.397l0.061,1.409l-0.262,0.159l-0.626-0.019l0.06-6.589l-2.21-0.308l-0.01-0.208l-1.161-0.169l-0.071-4.525l-4.149-0.625
		l-1.261,0.586l-0.02,3.88l-0.585-0.08l-0.727,0.288l-0.04,0.65l-0.061,0.04c0,0-0.015,0.481-0.015,0.506
		c0,0.025-0.101,0.049-0.101,0.049l-0.126,12.19l-0.313,0.104l-0.01,0.412l-0.152,0.139l0.02,0.555c0,0-0.05,0.02-0.101,0.08
		c-0.051,0.06,0.02,0.328,0.02,0.328l-0.161,0.1l0.091,0.317l0.021,0.933l-0.586,0.218l-0.061,2.223l-2.907-0.218l-0.889,0.178
		l-0.03-9.436l-0.454-0.03l0.434-0.566l0.051-0.625l-0.606-0.04l-0.02-0.367l-11.275-0.843l-1.857,0.853l0.01,0.645h0.212v0.467
		l-0.232,0.159l-0.202,20.986l-0.525,0.377l-0.05,3.245c0,0-0.384,0.02-0.454,0.03c-0.071,0.01-0.071-0.843-0.071-0.843
		l-0.293-0.059l-0.071-0.903l-0.737-0.496l-1.171-0.02l-1.097,0.473l-0.04,0.695l-0.465,0.119l-0.08,1.23l-0.606,0.496l-0.04,0.635
		l-1.797-0.02l-1.171,0.873l0.03,8.633l-0.272,0.069l-0.01,0.367l-0.848-0.05l-0.061,1.488l-0.403,0.005v30.364l386.741-1.197
		v-20.676L462.95,126.917z"/>
	<g id="XMLID_31_">
		<g id="XMLID_32_">
			<g id="XMLID_33_">
				<path id="XMLID_48_" fill-rule="evenodd" clip-rule="evenodd" fill="#404041" d="M35.201,33.539
					c-0.103,0.124-0.207,0.255-0.313,0.396c-2.008,2.684-3.5,12.076-10.16,13.609c-16.89,3.889-20.217,8.993-20.217,8.993
					l35.187-0.885l35.188,0.885c0,0-3.327-5.104-20.217-8.993c-6.661-1.534-8.153-10.925-10.161-13.609
					c-0.105-0.141-0.21-0.273-0.313-0.396h2.988c0.704,0,1.279-0.547,1.279-1.216l0,0c0-0.668-0.575-1.214-1.279-1.214H45.95
					c-0.047-1.269-0.235-2.592-0.715-3.549c-1.258-2.509-3.397-4.302-2.391-9.203C43.986,12.8,50.214,4.41,39.698,0
					c-10.516,4.41-4.287,12.8-3.146,18.357c1.007,4.9-1.132,6.694-2.391,9.203c-0.48,0.957-0.666,2.28-0.714,3.549h-1.234
					c-0.704,0-1.28,0.547-1.28,1.214l0,0c0,0.669,0.575,1.216,1.28,1.216H35.201z"/>
				<path id="XMLID_47_" fill-rule="evenodd" clip-rule="evenodd" fill="#404041" d="M2.175,54.806h74.471
					c1.196,0,2.175,0.929,2.175,2.065v0.001c0,1.136-0.979,2.065-2.175,2.065H2.175C0.979,58.938,0,58.009,0,56.872v-0.001
					C0,55.735,0.979,54.806,2.175,54.806z"/>
				
					<rect id="XMLID_41_" x="34.857" y="146.857" fill-rule="evenodd" clip-rule="evenodd" fill="#404041" width="12.045" height="206.811"/>
				<path id="XMLID_39_" fill-rule="evenodd" clip-rule="evenodd" fill="#404041" d="M32.652,126.441
					c0.784,2.552,0.627,8.507-0.783,10.816c-1.41,2.309-6.19,5.59-5.955,7.534c0.159,1.308,3.825,4.264,6.424,6.319h8.542h8.542
					c2.599-2.055,6.266-5.011,6.424-6.319c0.235-1.944-4.545-5.225-5.955-7.534c-1.41-2.309-1.567-8.264-0.783-10.816l-8.227,2.592
					L32.652,126.441z"/>
				<path id="XMLID_1_" fill-rule="evenodd" clip-rule="evenodd" fill="#404041" d="M32.652,329.775
					c0.784,2.552,0.627,8.507-0.783,10.816c-1.41,2.309-6.19,5.59-5.955,7.534c0.159,1.308,3.825,4.264,6.424,6.319h8.542h8.542
					c2.599-2.055,6.266-5.011,6.424-6.319c0.235-1.944-4.545-5.225-5.955-7.534c-1.41-2.309-1.567-8.264-0.783-10.816l-8.227,2.592
					L32.652,329.775z"/>
				<polygon id="XMLID_38_" fill-rule="evenodd" clip-rule="evenodd" fill="#404041" points="40.88,56.874 4.762,56.963 
					26.469,128.772 40.88,129.197 55.29,128.772 76.997,56.963 				"/>
				<g id="XMLID_35_">
					<polygon id="XMLID_37_" fill-rule="evenodd" clip-rule="evenodd" fill="#E6E7E8" points="37.777,59.829 8.879,59.899 
						28.827,125.893 37.777,126.157 					"/>
					<polygon id="XMLID_36_" fill-rule="evenodd" clip-rule="evenodd" fill="#E6E7E8" points="43.982,59.829 72.88,59.899 
						52.932,125.893 43.982,126.157 					"/>
				</g>
				<g id="XMLID_34_">
					<polygon fill-rule="evenodd" clip-rule="evenodd" fill="#D1D3D4" points="43.982,113.284 61.882,96.284 72.486,61.203 
						43.982,88.274 					"/>
					<polygon fill-rule="evenodd" clip-rule="evenodd" fill="#D1D3D4" points="19.183,93.99 37.777,76.332 37.777,59.829 
						28.796,59.851 13.31,74.559 					"/>
				</g>
			</g>
		</g>
	</g>
	<g>
		<path fill="#6B9620" d="M85.674,358.647c0,0-1.017-26.54,18.1-38.132c0,0-13.829,11.592-10.169,38.132H85.674z"/>
		<path fill="#6B9620" d="M87.708,358.647c0,0,5.084-33.822-13.829-43.298c0,0,18.925,11.674,7.225,43.298H87.708z"/>
		<path fill="#6B9620" d="M60.363,358.647c0,0-0.868-22.649,15.446-32.541c0,0-11.802,9.893-8.678,32.541H60.363z"/>
		<path fill="#6B9620" d="M78.76,358.647c0,0,1.659-10.655-4.881-17.592c0,0,5.288,14.033-2.44,17.592H78.76z"/>
		<path fill="#6B9620" d="M101.537,358.647c0,0,9.762-7.22,4.067-26.54c0,0,8.135,14.439,4.271,26.54H101.537z"/>
		<path fill="#6B9620" d="M116.79,358.647c0,0,3.813-21.812-1.83-31.116c0,0,7.779,9.304,6.864,31.116H116.79z"/>
		<path fill="#6B9620" d="M120.603,358.647c0,0,3.295-24.71,19.646-25.015c0,0-14.155-0.153-16.748,25.015H120.603z"/>
		<path fill="#6B9620" d="M141.805,358.647c0,0,1.373-8.542-5.033-11.897c0,0,6.559,3.508,1.83,11.897H141.805z"/>
	</g>
	<polyline opacity="0.1" points="290.336,401.359 528.816,401.359 479.537,352.393 290.336,352.393 293.217,352.393 
		104.016,352.393 54.737,401.359 293.217,401.359 	"/>
	<g>
		<path fill="#2D2D2D" d="M490.775,265.602H479.08V152.946h-9.143v107.798h-0.31v4.858H97.016v-4.858V152.946h-9.142v107.798v4.858
			H76.445l-22.861,19.43v10.957h13.716v104.297h9.146v-15.875l11.429-14.645v7.991h9.142v-81.768h372.611v81.46h0.31v0.307h9.143
			v-7.907l11.122,14.254v15.875h9.141v-103.99h14.289v-10.957L490.775,265.602z M87.874,354.897l-11.429,14.649v-73.557h11.429
			V354.897z M490.202,369.239l-11.122-14.255v-58.994h11.122V369.239z"/>
		<path fill-rule="evenodd" clip-rule="evenodd" fill="#EFF0F0" d="M493.903,170.842c0,5.366-4.35,9.716-9.716,9.716H89.288
			c-5.366,0-9.716-4.35-9.716-9.716l0,0c0-5.366,4.35-9.716,9.716-9.716h394.898C489.553,161.126,493.903,165.476,493.903,170.842
			L493.903,170.842z"/>
		<path fill-rule="evenodd" clip-rule="evenodd" fill="#EFF0F0" d="M493.903,196.478c0,5.366-4.35,9.716-9.716,9.716H89.288
			c-5.366,0-9.716-4.35-9.716-9.716l0,0c0-5.366,4.35-9.716,9.716-9.716h394.898C489.553,186.762,493.903,191.112,493.903,196.478
			L493.903,196.478z"/>
		<path fill-rule="evenodd" clip-rule="evenodd" fill="#EFF0F0" d="M493.903,222.113c0,5.366-4.35,9.716-9.716,9.716H89.288
			c-5.366,0-9.716-4.35-9.716-9.716l0,0c0-5.366,4.35-9.716,9.716-9.716h394.898C489.553,212.397,493.903,216.747,493.903,222.113
			L493.903,222.113z"/>
		<path fill-rule="evenodd" clip-rule="evenodd" fill="#EFF0F0" d="M493.903,248.232c0,5.366-4.35,9.716-9.716,9.716H89.288
			c-5.366,0-9.716-4.35-9.716-9.716l0,0c0-5.366,4.35-9.716,9.716-9.716h394.898C489.553,238.516,493.903,242.866,493.903,248.232
			L493.903,248.232z"/>
		<rect x="53.44" y="283.801" fill-rule="evenodd" clip-rule="evenodd" fill="#EFF0F0" width="460.336" height="18.663"/>
		<polygon fill-rule="evenodd" clip-rule="evenodd" fill="#C9C9C9" points="53.44,283.801 75.609,265.139 491.691,265.139 
			516.761,283.801 		"/>
		<path fill-rule="evenodd" clip-rule="evenodd" fill="#EFF0F0" d="M493.903,145.691c0,5.366-4.35,9.716-9.716,9.716H89.288
			c-5.366,0-9.716-4.35-9.716-9.716l0,0c0-5.366,4.35-9.716,9.716-9.716h394.898C489.553,135.975,493.903,140.325,493.903,145.691
			L493.903,145.691z"/>
	</g>
	<g>
		<path fill="#404041" d="M425.056,225.14c-1.334-4.212-4.669-6.015-4.669-6.015s-26.009,0.397-37.805,0.397
			c-11.795,0-37.805-0.397-37.805-0.397s-3.334,1.804-4.668,6.015c-1.334,4.21-8.669,17.443-2,25.261
			c6.253,7.331,27.591,8.512,44.474,8.512c16.882,0,38.222-1.181,44.473-8.512C433.725,242.582,426.389,229.35,425.056,225.14z"/>
		<g>
			<g>
				<path fill="#FFD3AB" d="M309.736,189.297c-0.132-17.082,12.63-48.682,14.086-52.228l18.51,7.596l-9.255-3.798l9.255,3.797
					c-4.907,11.97-12.665,34.63-12.588,44.479L309.736,189.297z"/>
			</g>
			<g>
				<path fill="#FFD3AB" d="M455.428,189.297l-20.006-0.155c0.076-9.849-7.682-32.509-12.588-44.479l18.509-7.595
					C442.799,140.615,455.56,172.214,455.428,189.297z"/>
			</g>
		</g>
		<g>
			<path fill="#FFD3AB" d="M440.191,128.188c-0.703-20.735-7.027-22.141-18.273-24.123c-11.247-1.983-26.008,3.036-28.117-3.641
				c-2.109-6.677,0-15.463,0-15.463h-22.439c0,0,2.109,8.786,0,15.463c-2.109,6.677-16.869,1.658-28.116,3.641
				c-11.245,1.983-17.572,3.388-18.275,24.123c-0.703,20.735-1.226,26.359-1.226,26.359h117.67
				C441.417,154.547,440.894,148.923,440.191,128.188z"/>
			<path fill="#E4BC99" d="M384.701,108.187c3.099-3.983,4.283-12.51,8.169-15.277c0.069-4.346,0.932-7.949,0.932-7.949h-22.439
				c0,0,2.109,8.786,0,15.463c-1.468,4.651-9.072,3.629-17.353,3.249C371.24,108.921,380.033,114.19,384.701,108.187z"/>
		</g>
		<path fill="#4A4A78" d="M441.821,127.528c-1.001-9.337-3.217-13.368-5.45-16.731c-3.076-4.629-7.939-5.584-14.453-6.732
			c-6.366-1.122-13.856-0.003-19.541-0.029c-7.121,11.05-19.795,18.676-19.795,18.676s-12.673-7.626-19.795-18.676
			c-5.686,0.026-13.176-1.094-19.54,0.029c-6.513,1.148-11.377,2.104-14.452,6.732c-2.235,3.363-4.452,7.394-5.451,16.731
			c-1.001,9.338-8.17,20.841-6.836,23.842c1.061,2.388,20.675,9.504,23.343,9.504c2.668,0,5.068-6.328,5.068-6.328
			c0.08,1.145,0.161,2.313,0.239,3.496c0.892,13.35-1,52.823-1.702,57.735c-1.333,9.337,3.662,11.79,39.127,11.79
			s40.461-2.453,39.128-11.79c-0.703-4.912-2.594-44.385-1.704-57.735c0.079-1.183,0.159-2.351,0.24-3.496
			c0,0,2.4,6.328,5.067,6.328c2.668,0,22.282-7.116,23.344-9.504C449.99,148.369,442.821,136.866,441.821,127.528z"/>
		<path fill="#CDA71B" d="M382.583,129.564c6.238-3.757,17.545-16.018,24.984-25.705c-1.828,0.099-3.583,0.184-5.19,0.176
			c-7.121,11.05-19.795,18.676-19.795,18.676s-12.673-7.626-19.795-18.676c-1.607,0.007-3.361-0.077-5.189-0.176
			C365.036,113.545,376.342,125.806,382.583,129.564z"/>
		<g>
			<g>
				<path fill="#FFD3AB" d="M336.154,204.628c-13.012,0-18.164-2.591-20.973-4.722c-3.511-2.668-5.446-6.464-5.446-10.687
					c0,0,18.091-5.085,17.066-5.555c4.717,2.161,28.959,0.537,44.481-3.789l5.372,19.274c-8.234,2.294-20.385,4.291-30.954,5.09
					C342.119,204.508,338.954,204.628,336.154,204.628z"/>
			</g>
			<g>
				<path fill="#FFD3AB" d="M429.011,204.628c-2.802,0-5.965-0.119-9.548-0.39c-10.568-0.799-22.72-2.796-30.954-5.09l5.373-19.274
					c15.52,4.326,39.758,5.95,44.481,3.789c-1.026,0.47,17.065,5.555,17.065,5.555c0,4.223-1.934,8.019-5.446,10.687
					C447.176,202.036,442.019,204.628,429.011,204.628z"/>
			</g>
		</g>
		<g>
			<path fill="#CBCBCB" d="M428.417,212.854c0,1.139-0.921,2.062-2.062,2.062H338.81c-1.14,0-2.062-0.923-2.062-2.062v-2.292
				c0-1.14,0.922-2.063,2.062-2.063h87.545c1.14,0,2.062,0.923,2.062,2.063V212.854z"/>
			<path fill="#F1F1F1" d="M428.877,209.644c0,1.14-0.925,2.062-2.064,2.062h-88.463c-1.14,0-2.063-0.922-2.063-2.062L332.85,149.6
				c0-1.139,0.923-2.063,2.062-2.063h95.34c1.139,0,2.064,0.923,2.064,2.063L428.877,209.644z"/>
			<g>
				<ellipse fill="#CBCBCB" cx="382.583" cy="183.237" rx="9.626" ry="8.679"/>
				<ellipse fill="#F1F1F1" cx="382.583" cy="183.237" rx="6.959" ry="6.272"/>
			</g>
		</g>
		<g>
			<g>
				<path fill="#705925" d="M439.894,264.295c-1.275,4.292-6.162,15.925-12.898,19.979c-6.735,4.053-5.153,20.393,8.935,17.263
					c14.087-3.133,22.586-21.918,24.416-29.223c3.324-13.275-4.484-21.491-11.839-22.412c-7.355-0.923-7.517,1.394-7.513,5.068
					C441,258.644,441.168,260.002,439.894,264.295z"/>
				<path fill="#404041" d="M428.28,245.527c-13.619-0.374-73.884-15.611-89.108-28.876c-15.225-13.264-25.679-20.921-42.38-13.329
					c-16.702,7.59-13.4,39.564,15.184,45.653c28.584,6.089,94.607,16.707,106.493,32.224c11.704,15.278,15.708,0.8,22.292-11.734
					C447.347,256.934,441.901,245.898,428.28,245.527z"/>
				<path fill="#C8DD8E" d="M446.305,268.55c0,0-1.789-3.453-8.908,4.783c-7.117,8.235-14.298,12.344-13.234,17.266
					c1.064,4.919,6.919,8.325,15.876,0.32C448.997,282.912,449.987,272.685,446.305,268.55z"/>
			</g>
			<g>
				<path fill="#705925" d="M325.272,264.295c1.276,4.292,6.162,15.925,12.898,19.979c6.734,4.053,5.152,20.393-8.935,17.263
					c-14.089-3.133-22.587-21.918-24.417-29.223c-3.324-13.275,4.484-21.491,11.839-22.412c7.354-0.923,7.517,1.394,7.513,5.068
					C324.166,258.644,323.996,260.002,325.272,264.295z"/>
				<path fill="#545454" d="M336.883,245.527c13.62-0.374,73.885-15.611,89.109-28.876c15.224-13.264,25.678-20.921,42.379-13.329
					c16.703,7.59,13.402,39.564-15.183,45.653c-28.584,6.089-94.607,16.707-106.493,32.224c-11.702,15.278-15.708,0.8-22.293-11.734
					C317.817,256.934,323.264,245.898,336.883,245.527z"/>
				<path fill="#C8DD8E" d="M318.86,268.55c0,0,1.788-3.453,8.906,4.783c7.118,8.235,14.3,12.344,13.235,17.266
					c-1.065,4.919-6.919,8.325-15.875,0.32C316.167,282.912,315.178,272.685,318.86,268.55z"/>
			</g>
		</g>
		<g>
			<g>
				<g>
					<path fill="#E4BC99" d="M359.971,63.098c0,0-8.954-7.253-12.892,0c-3.939,7.253,11.104,20.177,15.76,17.971
						C367.493,78.864,359.971,63.098,359.971,63.098z"/>
					<path fill="#E4BC99" d="M403.497,63.098c0,0,8.955-7.253,12.893,0c3.939,7.253-11.103,20.177-15.76,17.971
						C395.976,78.864,403.497,63.098,403.497,63.098z"/>
				</g>
				<path fill="#FFD3AB" d="M408.19,46.834c-0.727-20.277-22.35-20.295-26.455-20.295c-4.106,0-25.73,0.018-26.458,20.295
					c-0.727,20.279,0.364,34.996,5.091,41.535c4.677,6.475,15.848,9.904,21.366,9.904c5.516,0,16.687-3.429,21.365-9.904
					C407.825,81.83,408.919,67.113,408.19,46.834z"/>
			</g>
			<path fill="#4F4F4F" d="M408.748,55.138c-0.15-2.829-1.485-1.131-1.784,2.121c0,0-1.337,14.851-5.348,18.386
				c-3.685,3.248-6.367,9.691-9.199,10.685c-2.443-1.227-2.862-2.26-5.807-3.407c-2.678-1.043-4.356-0.188-4.876,0.156
				c-0.52-0.344-2.198-1.198-4.877-0.156c-2.946,1.147-3.365,2.18-5.809,3.407c-2.829-0.995-5.513-7.438-9.197-10.685
				c-4.012-3.534-5.349-18.386-5.349-18.386c-0.297-3.252-1.634-4.95-1.783-2.121c-0.148,2.829-1.188,5.516-0.891,9.9
				c0.297,4.384,2.08,12.021,2.526,15.416c0.445,3.393,0.676,7.495,2.756,10.748c2.079,3.253,5.348,9.836,8.913,10.26
				c3.566,0.424,7.791,4.102,13.71,4.102c5.919,0,10.143-3.677,13.709-4.102c3.565-0.424,6.833-7.007,8.914-10.26
				c2.08-3.253,2.311-7.355,2.755-10.748c0.446-3.395,2.229-11.032,2.527-15.416C409.936,60.654,408.896,57.967,408.748,55.138z
				 M385.572,92.964c-2.195,0.495-3.31,0.67-3.837,0.913c-0.529-0.243-1.643-0.418-3.837-0.913
				c-3.302-0.744-3.757-2.408-4.192-3.888c2.299-1.015,4.782-2.645,7.547-2.476c0.152,0.011,0.313,0.013,0.482,0.011
				c0.168,0.002,0.33,0,0.481-0.011c2.765-0.168,5.249,1.462,7.547,2.476C389.33,90.556,388.874,92.22,385.572,92.964z"/>
			<path fill="#4F4F4F" d="M409.307,48.114c-0.376-7.543,0.566-13.01-3.961-17.16c-4.525-4.148-9.789-8.658-23.612-8.658
				c-13.823,0-19.088,4.509-23.614,8.658c-4.526,4.15-3.582,9.617-3.96,17.16c-0.377,7.543,1.131,21.397,1.509,19.7
				c0.377-1.697,2.263-2.451,3.017-4.715c0.753-2.263,0.943-5.656,0.188-8.486c-0.754-2.828,6.034-4.791,8.109-8.751
				c2.074-3.961,11.021-5.488,14.751-5.488c3.728,0,12.675,1.528,14.75,5.488c2.075,3.96,8.862,5.923,8.109,8.751
				c-0.754,2.83-0.566,6.223,0.189,8.486c0.753,2.263,2.638,3.017,3.016,4.715C408.176,69.511,409.686,55.657,409.307,48.114z"/>
		</g>
	</g>
	<g>
		<path fill="#6B9620" d="M58.117,400.897c0,0-0.727-18.976,12.941-27.264c0,0-9.888,8.288-7.27,27.264H58.117z"/>
		<path fill="#6B9620" d="M59.572,400.897c0,0,3.635-24.183-9.888-30.958c0,0,13.531,8.347,5.166,30.958H59.572z"/>
		<path fill="#6B9620" d="M40.02,400.897c0,0-0.62-16.194,11.044-23.267c0,0-8.438,7.073-6.204,23.267H40.02z"/>
		<path fill="#6B9620" d="M53.174,400.897c0,0,1.186-7.618-3.49-12.578c0,0,3.781,10.033-1.745,12.578H53.174z"/>
		<path fill="#6B9620" d="M69.459,400.897c0,0,6.98-5.162,2.908-18.976c0,0,5.816,10.324,3.054,18.976H69.459z"/>
		<path fill="#6B9620" d="M80.365,400.897c0,0,2.726-15.595-1.309-22.248c0,0,5.562,6.652,4.908,22.248H80.365z"/>
		<path fill="#6B9620" d="M83.091,400.897c0,0,2.356-17.667,14.047-17.885c0,0-10.121-0.109-11.974,17.885H83.091z"/>
		<path fill="#6B9620" d="M98.25,400.897c0,0,0.982-6.107-3.599-8.506c0,0,4.689,2.508,1.309,8.506H98.25z"/>
	</g>
	<g>
		<path fill="#6B9620" d="M238.866,402.239c0,0-1.504-39.255,26.772-56.402c0,0-20.455,17.146-15.04,56.402H238.866z"/>
		<path fill="#6B9620" d="M241.874,402.239c0,0,7.52-50.027-20.455-64.043c0,0,27.992,17.268,10.687,64.043H241.874z"/>
		<path fill="#6B9620" d="M201.427,402.239c0,0-1.284-33.5,22.847-48.132c0,0-17.456,14.632-12.835,48.132H201.427z"/>
		<path fill="#6B9620" d="M228.639,402.239c0,0,2.454-15.76-7.219-26.02c0,0,7.821,20.756-3.61,26.02H228.639z"/>
		<path fill="#6B9620" d="M262.329,402.239c0,0,14.439-10.679,6.016-39.255c0,0,12.032,21.357,6.317,39.255H262.329z"/>
		<path fill="#6B9620" d="M284.89,402.239c0,0,5.64-32.262-2.707-46.024c0,0,11.506,13.762,10.152,46.024H284.89z"/>
		<path fill="#6B9620" d="M290.53,402.239c0,0,4.873-36.548,29.058-36.999c0,0-20.936-0.226-24.772,36.999H290.53z"/>
		<path fill="#6B9620" d="M321.889,402.239c0,0,2.03-12.634-7.445-17.597c0,0,9.701,5.189,2.707,17.597H321.889z"/>
	</g>
	<g>
		<path fill="#6B9620" d="M489.275,401.55c0,0-1.098-28.649,19.538-41.163c0,0-14.928,12.513-10.977,41.163H489.275z"/>
		<path fill="#6B9620" d="M491.471,401.55c0,0,5.488-36.51-14.928-46.74c0,0,20.429,12.602,7.8,46.74H491.471z"/>
		<path fill="#6B9620" d="M461.952,401.55c0,0-0.937-24.449,16.674-35.127c0,0-12.739,10.679-9.367,35.127H461.952z"/>
		<path fill="#6B9620" d="M481.811,401.55c0,0,1.791-11.502-5.269-18.99c0,0,5.708,15.148-2.634,18.99H481.811z"/>
		<path fill="#6B9620" d="M506.399,401.55c0,0,10.538-7.793,4.391-28.649c0,0,8.781,15.587,4.61,28.649H506.399z"/>
		<path fill="#6B9620" d="M522.864,401.55c0,0,4.116-23.545-1.976-33.589c0,0,8.397,10.044,7.409,33.589H522.864z"/>
		<path fill="#6B9620" d="M526.98,401.55c0,0,3.557-26.673,21.207-27.003c0,0-15.28-0.165-18.079,27.003H526.98z"/>
		<path fill="#6B9620" d="M549.867,401.55c0,0,1.482-9.22-5.433-12.843c0,0,7.08,3.787,1.976,12.843H549.867z"/>
	</g>
</g>
</svg>
