<?xml version="1.0" encoding="utf-8"?>
<!-- Generator: Adobe Illustrator 16.0.0, SVG Export Plug-In . SVG Version: 6.00 Build 0)  -->
<!DOCTYPE svg PUBLIC "-//W3C//DTD SVG 1.1//EN" "http://www.w3.org/Graphics/SVG/1.1/DTD/svg11.dtd">
<svg version="1.1" id="Layer_1" xmlns="http://www.w3.org/2000/svg" xmlns:xlink="http://www.w3.org/1999/xlink" x="0px" y="0px"
	 width="730px" height="360px" viewBox="0 0 730 360" enable-background="new 0 0 730 360" xml:space="preserve">
<g>
	<path fill="#94CE28" d="M717.497,204.706h-352.49H12.503c-6.796,0-12.306,5.51-12.306,12.308v4.619
		c0,6.797,5.509,12.305,12.306,12.305h352.504h352.49c6.796,0,12.306-5.509,12.306-12.305v-4.619
		C729.803,210.216,724.293,204.706,717.497,204.706z"/>
</g>
<rect x="668.297" y="233.938" fill="#1B9B05" width="32.04" height="126.062"/>
<rect x="25.133" y="233.938" fill="#1B9B05" width="32.04" height="126.062"/>
<g>
	<g>
		<g>
			<g>
				<g>
					<g>
						<g>
							<path fill="#D0EB51" d="M456.888,20.357h-11.284H273.111c-5.118,0-9.433,4.147-9.433,9.265v126.811
								c0,5.118,4.315,9.26,9.433,9.26h27.197h62.429h94.152c5.118,0,9.435-4.142,9.435-9.26V29.622
								C466.322,24.504,462.007,20.357,456.888,20.357z"/>
							<circle fill="#94CE28" cx="362.735" cy="149.748" r="5.913"/>
						</g>
						<g>
							<polygon fill="#FFFFFF" points="452.143,36.077 431.977,36.077 276.946,36.077 276.946,133.6 334.095,133.6 452.006,133.6 
								452.143,133.6 452.143,75.769 452.237,36.077 							"/>
						</g>
					</g>
					<polygon fill="#94CE28" points="369.373,165.693 362.735,165.693 341.159,165.693 341.159,193.802 341.159,198.245 
						362.735,198.245 384.256,198.245 384.256,165.693 					"/>
					<path fill="none" d="M422.626,43.591"/>
					<path fill="none" d="M370.902,95.315"/>
				</g>
			</g>
		</g>
		<path fill="#D0EB51" d="M400.244,198.832c0,3.244-2.63,5.874-5.874,5.874h-63.27c-3.243,0-5.874-2.63-5.874-5.874v-1.175
			c0-3.244,2.631-5.874,5.874-5.874h63.27c3.244,0,5.874,2.63,5.874,5.874V198.832z"/>
	</g>
	<g>
		<g>
			<g>
				<path fill="#56BA22" d="M315.276,79.444c-5.05,0-9.157,4.108-9.157,9.156v28.947c0,5.049,4.107,9.157,9.157,9.157h31.031v-47.26
					H315.276z"/>
				<path fill="#94CE28" d="M410.198,79.444h-63.891v47.26h63.891c5.049,0,9.155-4.108,9.155-9.157V88.601
					C419.354,83.552,415.247,79.444,410.198,79.444z"/>
			</g>
			<g>
				<g>
					<g>
						<g>
							<path fill="#56BA22" d="M408.241,94.853h-49.769c-1.319,0-2.39-1.07-2.39-2.39c0-1.32,1.07-2.39,2.39-2.39h49.769
								c1.319,0,2.39,1.07,2.39,2.39C410.63,93.783,409.561,94.853,408.241,94.853z"/>
						</g>
						<g>
							<path fill="#127045" d="M335.193,94.853h-17.959c-1.32,0-2.391-1.07-2.391-2.39c0-1.32,1.07-2.39,2.391-2.39h17.959
								c1.319,0,2.39,1.07,2.39,2.39C337.583,93.783,336.513,94.853,335.193,94.853z"/>
						</g>
						<g>
							<path fill="#D0EB51" d="M408.241,105.464h-49.769c-1.319,0-2.39-1.07-2.39-2.39c0-1.32,1.07-2.39,2.39-2.39h49.769
								c1.319,0,2.39,1.07,2.39,2.39C410.63,104.394,409.561,105.464,408.241,105.464z"/>
						</g>
						<g>
							<path fill="#D0EB51" d="M408.241,116.076h-49.769c-1.319,0-2.39-1.07-2.39-2.39s1.07-2.39,2.39-2.39h49.769
								c1.319,0,2.39,1.07,2.39,2.39C410.63,115.006,409.561,116.076,408.241,116.076z"/>
						</g>
					</g>
				</g>
			</g>
		</g>
		<path fill="#94CE28" d="M314.86,105.481c0-2.409,1.952-4.362,4.361-4.362h14.015c2.408,0,4.361,1.953,4.361,4.362v5.073
			c0,2.409-1.953,4.362-4.361,4.362h-14.015c-2.409,0-4.361-1.953-4.361-4.362V105.481z"/>
	</g>
	<circle fill="#EF5854" cx="362.079" cy="65.953" r="22.362"/>
	<path fill="#FFFFFF" d="M385.007,109.375l-7.062-7.063l3.672-1.131c0.537-0.167,0.909-0.656,0.926-1.221
		c0.017-0.562-0.325-1.075-0.849-1.275l-13.742-5.219c-0.489-0.186-1.032-0.07-1.402,0.298c-0.366,0.368-0.485,0.918-0.299,1.402
		l5.22,13.742c0.199,0.526,0.688,0.9,1.277,0.851c0.562-0.019,1.052-0.392,1.218-0.928l1.131-3.672l7.063,7.063
		c0.33,0.328,0.767,0.509,1.231,0.509c0.459,0,0.909-0.186,1.233-0.51l0.381-0.381C385.688,111.16,385.688,110.053,385.007,109.375z
		"/>
	<g>
		<g>
			<g>
				<g>
					<g>
						<path fill="#FFFFFF" d="M371.09,71.085c1.242,1.243,1.242,3.257,0,4.499l0,0c-1.242,1.242-3.256,1.242-4.498,0l-13.435-13.435
							c-1.242-1.242-1.242-3.256,0-4.498l0,0c1.242-1.242,3.256-1.242,4.498,0L371.09,71.085z"/>
					</g>
					<g>
						<path fill="#FFFFFF" d="M357.567,75.671c-1.242,1.242-3.256,1.242-4.499,0l0,0c-1.242-1.242-1.242-3.256,0-4.499
							l13.435-13.435c1.243-1.242,3.257-1.242,4.499,0l0,0c1.242,1.242,1.242,3.256,0,4.498L357.567,75.671z"/>
					</g>
				</g>
			</g>
		</g>
	</g>
</g>
<g>
	<g>
		<path fill="#F1FF8D" d="M113.579,175.973c-15.869,0-28.732,12.864-28.732,28.732h57.465
			C142.311,188.838,129.447,175.973,113.579,175.973z"/>
	</g>
	<g>
		<path fill="#6B3429" d="M162.812,180.919c-1.795,0-3.54-0.931-4.502-2.597L59.854,7.79c-1.434-2.484-0.583-5.659,1.901-7.093
			c2.485-1.436,5.66-0.583,7.093,1.901l98.456,170.531c1.434,2.484,0.583,5.659-1.901,7.093
			C164.586,180.695,163.693,180.919,162.812,180.919z"/>
	</g>
	<g>
		<g>
			<g>
				<g>
					<path fill="#94CE28" d="M50.609,85.55c0-1.237-1.002-2.237-2.236-2.237h-6.184c-0.146,1.471-0.171,2.976-0.228,4.473h6.412
						C49.607,87.785,50.609,86.785,50.609,85.55z"/>
					<path fill="#94CE28" d="M44.549,101.207c1.237,0,2.239-1.002,2.239-2.237c0-1.235-1.002-2.237-2.239-2.237h-2.404
						c0.14,1.598,0.371,3.166,0.612,4.733c0.415-0.125,0.828-0.258,1.284-0.258L44.549,101.207L44.549,101.207z"/>
					<path fill="#94CE28" d="M63.449,139.233c0-1.235-1.005-2.236-2.239-2.236h0.92c-2.473,0-4.474-2.004-4.474-4.474
						c0-2.471,2.001-4.473,4.474-4.473h-0.92c1.234,0,2.239-1.002,2.239-2.237s-1.005-2.237-2.239-2.237h-5.308
						c-2.473,0-4.475-2.003-4.475-4.473c0-2.472,2.001-4.475,4.475-4.475h-0.514c1.237,0,2.239-1,2.239-2.237
						c0-1.235-1.002-2.236-2.239-2.236H44.631c3.355,11.771,9.596,22.322,17.974,30.783
						C63.109,140.528,63.449,139.93,63.449,139.233z"/>
					<path fill="#94CE28" d="M174.484,101.242c-2.467,0-4.471-2.003-4.471-4.475c0-2.47,2.004-4.473,4.471-4.473h-0.152
						c1.234,0,2.239-1.002,2.239-2.237s-1.005-2.237-2.239-2.237h-7.662c-2.473,0-4.478-2.003-4.478-4.473
						c0-2.47,2.004-4.474,4.478-4.474h7.662c1.234,0,2.239-1,2.239-2.236c0-1.236-1.005-2.237-2.239-2.237h-53.539
						c-1.24,0-2.236,1.002-2.236,2.237c0,1.235,0.996,2.236,2.236,2.236h26.971c2.467,0,4.472,2.004,4.472,4.474
						c0,2.471-2.004,4.473-4.472,4.473h-1.119c-1.237,0-2.239,1.002-2.239,2.237s1.002,2.237,2.239,2.237h12.485
						c2.474,0,4.478,2.003,4.478,4.473c0,2.472-2.004,4.475-4.478,4.475h-6.78c-1.084,0.155-1.934,1.048-1.934,2.175
						c0,1.235,1.002,2.237,2.239,2.237l2.416,0.026c2.474,0,4.471,2.004,4.471,4.474c0,2.47-1.998,4.473-4.471,4.473h-3.501
						c-1.237,0.002-2.239,1.002-2.239,2.237c0,1.235,1.002,2.237,2.239,2.237c2.47,0,4.474,2.003,4.474,4.473
						c0,2.47-2.004,4.474-4.474,4.474h-3.307c-1.237,0-2.239,1-2.239,2.236c0,1.236,1.002,2.237,2.239,2.237h-0.143
						c2.473,0,4.478,2.003,4.478,4.474c0,2.47-2.004,4.473-4.478,4.473h-9.406c-2.467,0-4.471-2.003-4.471-4.473
						c0-2.472,2.004-4.474,4.471-4.474h-0.273c1.237,0,2.239-1.002,2.239-2.237c0-1.235-1.002-2.236-2.239-2.236h-6.923
						c-2.47,0-4.474-2.004-4.474-4.474c0-2.47,2.004-4.473,4.474-4.473c1.234,0,2.236-1.002,2.236-2.237
						c0-1.235-1.002-2.236-2.233-2.237h-19.75c-2.47,0-4.471-2.003-4.471-4.473c0-2.471,2.001-4.474,4.471-4.474l2.201-0.026
						c1.237,0,2.239-1.002,2.239-2.237c0-1.127-0.847-2.02-1.934-2.175h-7.693c-2.473,0-4.478-2.003-4.478-4.475
						c0-2.47,2.004-4.473,4.478-4.473h7.389c1.237,0,2.239-1.002,2.239-2.237s-1.002-2.237-2.239-2.237
						c-2.467,0-4.472-2.003-4.472-4.473c0-2.47,2.004-4.474,4.472-4.474h-0.425c1.23,0,2.236-1,2.236-2.236
						c0-1.236-1.005-2.237-2.236-2.237h-2.493c-2.47,0-4.471-2.003-4.471-4.473c0-2.472,2.001-4.474,4.579-4.474h6.365
						c1.234,0,2.236-1.002,2.236-2.237c0-1.235-1.002-2.236-2.236-2.236h0.492c-2.473,0-4.472-2.004-4.472-4.474
						c0-2.47,1.998-4.473,4.472-4.473h-0.641c1.237,0,2.239-1.002,2.239-2.237c0-1.015-0.691-1.838-1.614-2.112h-9.612
						c-2.473,0-4.474-2.003-4.474-4.473c0-2.471,2.001-4.473,4.474-4.473h15.637c2.47,0,4.474,2.003,4.474,4.473
						c0,2.47-2.004,4.473-4.474,4.473h-0.026c-0.926,0.274-1.614,1.097-1.614,2.112c0,1.235,1.002,2.237,2.239,2.237h16.496
						c1.234,0,2.233-1.002,2.233-2.237c0-1.015-0.685-1.838-1.611-2.112h-2.359c-2.471,0-4.472-2.003-4.472-4.473
						c0-2.471,2.001-4.473,4.472-4.473h4.271c1.234,0,2.236-1.002,2.236-2.237s-1.002-2.237-2.236-2.237h-7.7
						c-2.471,0-4.474-2.003-4.474-4.473c0-2.472,2.004-4.475,4.474-4.475h7.566c-9.124-4.202-19.239-6.609-29.945-6.609
						c-17.254,0-33.082,6.1-45.456,16.249c2.163,0.312,3.856,2.098,3.856,4.349c0,2.471-2.004,4.473-4.478,4.473h-3.304
						c-0.444,0.409-0.733,0.982-0.733,1.635c0,1.235,0.999,2.236,2.235,2.236h21.282c2.47,0,4.474,2.004,4.474,4.474
						s-2.004,4.473-4.474,4.473H76.596c-0.926,0.274-1.617,1.097-1.617,2.112c0,1.235,1.002,2.237,2.239,2.237h8.163
						c2.467,0,4.471,2.003,4.471,4.473c0,2.471-2.004,4.473-11.543,4.473H65.7c-1.237,0-2.235,1.002-2.235,2.237
						c0,1.235,0.999,2.237,2.235,2.237h0.736c2.467,0,4.472,2.003,4.472,4.474c0,2.471-2.004,4.473-4.472,4.473h-6.821
						c-1.237,0-2.236,1-2.236,2.237c0,1.235,0.999,2.236,2.236,2.236h13.842c2.473,0,4.472,2.004,4.472,4.474
						c0,2.471-1.998,4.473-4.472,4.473h-0.222c-1.237,0-2.239,1.002-2.239,2.237c0,1.042,0.996,2.237,2.239,2.237h11.264
						c2.473,0,4.478,2.003,4.478,4.473c0,2.472-2.004,4.474-4.478,4.474H72.861c-1.237,0-2.239,1-2.239,2.236
						c0,1.237,1.002,2.237,2.239,2.237h4.145c2.47,0,4.474,2.003,4.474,4.475c0,2.47-2.004,4.473-4.474,4.473h-4.557
						c-1.23,0-2.233,1.002-2.233,2.237s1.002,2.237,2.233,2.237h-0.913c2.471,0,4.472,2.003,4.472,4.473s-2.001,4.474-4.472,4.474
						h0.913c-1.23,0-2.233,1-2.233,2.236c0,1.235,1.002,2.237,2.233,2.237h-0.913c2.471,0,4.472,2.003,4.472,4.473
						c0,1.779-1.059,3.284-2.556,4.005c11.454,7.742,25.262,12.264,40.128,12.264c22.905,0,43.255-10.769,56.39-27.475
						c-2.416-0.063-4.363-2.02-4.363-4.452c0-2.47,2.004-4.473,4.478-4.473h5.892c4.237-7.459,7.129-15.751,8.461-24.57h-9.954
						V101.242z M82.032,43.778c-2.467,0-4.471-2.003-4.471-4.473c0-2.472,2.004-4.474,4.471-4.474c2.474,0,4.478,2.003,4.478,4.474
						C86.51,41.775,84.505,43.778,82.032,43.778z M168.113,114.628c-2.47,0-4.474-2.003-4.474-4.473
						c0-2.471,2.004-4.474,4.474-4.474c2.471,0,4.475,2.004,4.475,4.474C172.588,112.625,170.584,114.628,168.113,114.628z"/>
					<path fill="#94CE28" d="M157.721,36.5c0,1.235,1.002,2.237,2.239,2.237c2.467,0,4.471,2.003,4.471,4.473
						c0,2.47-2.004,4.473-4.471,4.473h-8.772c-0.929,0.274-1.617,1.097-1.617,2.112c0,1.235,0.999,2.237,2.233,2.237h14.816
						c2.676,0,5.134,0.001,7.49,0.003c-4.186-6.578-9.374-12.445-15.412-17.335C158.124,35.104,157.721,35.742,157.721,36.5z"/>
					<path fill="#1B9B05" d="M165.605,130.285c0,2.432,1.947,4.389,4.363,4.452c2.214-2.816,4.224-5.792,6.006-8.925h-5.892
						C167.609,125.813,165.605,127.815,165.605,130.285z"/>
					<circle fill="#1B9B05" cx="168.113" cy="110.154" r="4.474"/>
					<path fill="#1B9B05" d="M82.032,34.83c-2.467,0-4.471,2.003-4.471,4.474c0,2.471,2.004,4.473,4.471,4.473
						c2.474,0,4.478-2.003,4.478-4.473C86.51,36.833,84.505,34.83,82.032,34.83z"/>
					<path fill="#1B9B05" d="M76.007,145.943c0-2.471-2.001-4.473-4.472-4.473h0.913c-1.23,0-2.233-1.002-2.233-2.237
						s1.002-2.236,2.233-2.236h-0.913c2.471,0,4.472-2.004,4.472-4.474c0-2.471-2.001-4.473-4.472-4.473h0.913
						c-1.23,0-2.233-1.002-2.233-2.237s1.002-2.237,2.233-2.237h4.557c2.47,0,4.474-2.003,4.474-4.473
						c0-2.472-2.004-4.475-4.474-4.475H72.86c-1.237,0-2.239-1-2.239-2.237c0-1.235,1.002-2.236,2.239-2.236h11.638
						c2.473,0,4.478-2.003,4.478-4.474c0-2.471-2.004-4.473-4.478-4.473H73.235c-1.243,0-2.239-1.195-2.239-2.237
						c0-1.235,1.002-2.237,2.239-2.237h0.222c2.473,0,4.472-2.003,4.472-4.473c0-2.47-1.998-4.474-4.472-4.474H59.615
						c-1.237,0-2.236-1-2.236-2.236c0-1.237,0.999-2.237,2.236-2.237h6.821c2.467,0,4.472-2.003,4.472-4.473
						c0-2.472-2.004-4.474-4.472-4.474H65.7c-1.237,0-2.235-1.002-2.235-2.237c0-1.235,0.999-2.237,2.235-2.237h12.609
						c9.539,0,11.543-2.003,11.543-4.473c0-2.47-2.004-4.473-4.471-4.473h-8.163c-1.237,0-2.239-1.002-2.239-2.237
						c0-1.015,0.691-1.838,1.617-2.112h10.386c2.47,0,4.474-2.003,4.474-4.473s-2.004-4.474-4.474-4.474H65.7
						c-1.237,0-2.235-1-2.235-2.236c0-0.652,0.288-1.226,0.733-1.635h3.304c2.474,0,4.478-2.003,4.478-4.473
						c0-2.251-1.693-4.037-3.856-4.349C53.803,46.698,44.112,63.862,42.19,83.315h6.184c1.234,0,2.236,1,2.236,2.237
						c0,1.235-1.002,2.236-2.236,2.236h-6.412c-0.032,0.896-0.133,1.771-0.133,2.673c0,2.118,0.133,4.203,0.317,6.274h2.404
						c1.237,0,2.239,1.002,2.239,2.237c0,1.235-1.002,2.237-2.239,2.237h-0.508c-0.457,0-0.869,0.133-1.284,0.258
						c0.46,2.959,1.069,5.862,1.874,8.689h10.757c1.237,0,2.239,1,2.239,2.236c0,1.237-1.002,2.237-2.239,2.237h0.514
						c-2.473,0-4.475,2.003-4.475,4.475c0,2.47,2.001,4.473,4.475,4.473h5.308c1.234,0,2.239,1.002,2.239,2.237
						s-1.005,2.237-2.239,2.237h0.92c-2.473,0-4.474,2.003-4.474,4.473s2.001,4.474,4.474,4.474h-0.92c1.234,0,2.239,1,2.239,2.236
						c0,0.698-0.339,1.295-0.844,1.704c3.311,3.341,6.932,6.369,10.846,9.011C74.947,149.227,76.007,147.722,76.007,145.943z"/>
					<path fill="#1B9B05" d="M131.483,29.79c0,2.47,2.004,4.473,4.474,4.473h7.7c1.234,0,2.236,1.002,2.236,2.237
						s-1.002,2.237-2.236,2.237h-4.271c-2.471,0-4.472,2.003-4.472,4.473c0,2.47,2.001,4.473,4.472,4.473h2.359
						c0.926,0.274,1.611,1.097,1.611,2.112c0,1.235-0.999,2.237-2.233,2.237h-16.496c-1.237,0-2.239-1.002-2.239-2.237
						c0-1.015,0.688-1.838,1.614-2.112h0.026c2.47,0,4.474-2.003,4.474-4.473c0-2.471-2.004-4.473-4.474-4.473H108.39
						c-2.473,0-4.474,2.003-4.474,4.473c0,2.47,2.001,4.473,4.474,4.473h9.612c0.923,0.274,1.614,1.097,1.614,2.112
						c0,1.235-1.002,2.237-2.239,2.237h0.641c-2.473,0-4.472,2.003-4.472,4.473c0,2.47,1.998,4.474,4.472,4.474h-0.492
						c1.234,0,2.236,1,2.236,2.236c0,1.236-1.002,2.237-2.236,2.237h-6.365c-2.578,0-4.579,2.003-4.579,4.474
						c0,2.47,2.001,4.473,4.471,4.473h2.493c1.23,0,2.236,1.002,2.236,2.237c0,1.235-1.005,2.236-2.236,2.236h0.425
						c-2.467,0-4.472,2.004-4.472,4.474c0,2.471,2.004,4.473,4.472,4.473c1.237,0,2.239,1.002,2.239,2.237s-1.002,2.237-2.239,2.237
						h-7.389c-2.473,0-4.478,2.003-4.478,4.473c0,2.472,2.004,4.475,4.478,4.475h7.693c1.088,0.155,1.934,1.048,1.934,2.175
						c0,1.235-1.002,2.237-2.239,2.237l-2.201,0.026c-2.47,0-4.471,2.004-4.471,4.474c0,2.47,2.001,4.473,4.471,4.473h19.75
						c1.23,0.002,2.233,1.002,2.233,2.237c0,1.235-1.002,2.237-2.236,2.237c-2.47,0-4.474,2.003-4.474,4.473
						c0,2.47,2.004,4.474,4.474,4.474h6.923c1.237,0,2.239,1,2.239,2.236c0,1.236-1.002,2.237-2.239,2.237h0.273
						c-2.467,0-4.471,2.003-4.471,4.474c0,2.47,2.004,4.473,4.471,4.473h9.406c2.473,0,4.478-2.003,4.478-4.473
						c0-2.472-2.004-4.474-4.478-4.474h0.143c-1.237,0-2.239-1.002-2.239-2.237c0-1.235,1.002-2.236,2.239-2.236h3.307
						c2.47,0,4.474-2.004,4.474-4.474c0-2.47-2.004-4.473-4.474-4.473c-1.237,0-2.239-1.002-2.239-2.237
						c0-1.235,1.002-2.236,2.239-2.237h3.501c2.474,0,4.471-2.003,4.471-4.473c0-2.471-1.998-4.474-4.471-4.474l-2.416-0.026
						c-1.237,0-2.239-1.002-2.239-2.237c0-1.127,0.85-2.02,1.934-2.175h6.78c2.474,0,4.478-2.003,4.478-4.475
						c0-2.47-2.004-4.473-4.478-4.473h-12.485c-1.237,0-2.239-1.002-2.239-2.237s1.002-2.237,2.239-2.237h1.119
						c2.467,0,4.472-2.003,4.472-4.473c0-2.47-2.004-4.474-4.472-4.474h-26.971c-1.24,0-2.236-1-2.236-2.236
						c0-1.236,0.996-2.237,2.236-2.237h53.539c1.234,0,2.239,1.002,2.239,2.237c0,1.235-1.005,2.236-2.239,2.236h-7.662
						c-2.473,0-4.478,2.004-4.478,4.474c0,2.471,2.004,4.473,4.478,4.473h7.662c1.234,0,2.239,1.002,2.239,2.237
						s-1.005,2.237-2.239,2.237h0.152c-2.467,0-4.471,2.003-4.471,4.473c0,2.472,2.004,4.475,4.471,4.475h9.951
						c0.533-3.527,0.9-7.108,0.9-10.784c0-14.152-4.154-27.307-11.226-38.424c-2.356-0.002-4.814-0.003-7.49-0.003h-14.816
						c-1.234,0-2.233-1.002-2.233-2.237c0-1.015,0.688-1.838,1.617-2.112h8.772c2.467,0,4.471-2.003,4.471-4.473
						c0-2.471-2.004-4.473-4.471-4.473c-1.237,0-2.239-1.002-2.239-2.237c0-0.758,0.403-1.395,0.978-1.8
						c-4.611-3.737-9.717-6.874-15.174-9.385h-7.566C133.487,25.315,131.483,27.317,131.483,29.79z"/>
				</g>
			</g>
		</g>
	</g>
	<g>
		<path fill="#D0EB51" d="M113.579,184.809c-52.024,0-94.349-42.326-94.349-94.35c0-37.033,21.865-70.817,55.702-86.068
			c2.617-1.177,5.69-0.012,6.868,2.6c1.178,2.615,0.014,5.69-2.6,6.868C49.079,27.436,29.615,57.503,29.615,90.46
			c0,46.298,37.666,83.963,83.963,83.963c18.781,0,36.55-6.088,51.387-17.606c2.264-1.761,5.527-1.349,7.286,0.917
			s1.348,5.527-0.918,7.286C154.658,177.965,134.687,184.809,113.579,184.809z"/>
	</g>
</g>
<g>
	<g>
		<g>
			<g>
				<path fill="#1B9B05" d="M498.008,127.497c0,5.34,4.346,9.685,9.686,9.685h0.257h4.668v-4.667h-4.925
					c-2.767,0-5.018-2.251-5.018-5.018v-11.203c0-3.216-1.917-5.979-4.668-7.226v7.226V127.497z"/>
				<path fill="#1B9B05" d="M507.693,143.717c-8.944,0-16.22-7.276-16.22-16.22v-11.203v-7.226
					c-2.751,1.247-4.668,4.009-4.668,7.226v11.203c0,11.517,9.37,20.888,20.888,20.888h4.925v-4.667h-4.668H507.693z"/>
				<path fill="#127045" d="M507.95,137.182h-0.257c-5.34,0-9.686-4.345-9.686-9.685v-11.203v-7.226
					c-0.997-0.452-2.102-0.709-3.268-0.709s-2.27,0.258-3.267,0.709v7.226v11.203c0,8.944,7.275,16.22,16.22,16.22h0.257h4.668
					v-6.535H507.95z"/>
			</g>
			<g>
				<path fill="#1B9B05" d="M541.418,121.895c0,5.341-4.345,9.686-9.686,9.686h-0.257h-4.668v-4.667h4.925
					c2.767,0,5.018-2.251,5.018-5.018v-11.203c0-3.216,1.917-5.979,4.668-7.225v7.225V121.895z"/>
				<path fill="#1B9B05" d="M531.732,138.115c8.944,0,16.22-7.276,16.22-16.22v-11.203v-7.225c2.751,1.246,4.668,4.009,4.668,7.225
					v11.203c0,11.518-9.37,20.888-20.888,20.888h-4.925v-4.668h4.668H531.732z"/>
				<path fill="#127045" d="M531.476,131.581h0.257c5.341,0,9.686-4.345,9.686-9.686v-11.203v-7.225
					c0.997-0.452,2.102-0.71,3.268-0.71s2.27,0.258,3.267,0.71v7.225v11.203c0,8.944-7.275,16.22-16.22,16.22h-0.257h-4.668v-6.535
					H531.476z"/>
			</g>
		</g>
		<g>
			<path fill="#56BA22" d="M509.561,98.872v33.642v15.87v35.708c0,4.825,3.088,8.919,7.391,10.441V88.43
				C512.648,89.954,509.561,94.047,509.561,98.872z"/>
			<path fill="#1B9B05" d="M520.646,87.786c-1.297,0-2.538,0.234-3.695,0.644v106.104c1.157,0.41,2.398,0.645,3.695,0.645
				s2.538-0.234,3.695-0.645V88.43C523.185,88.021,521.943,87.786,520.646,87.786z"/>
			<path fill="#56BA22" d="M524.342,88.43v106.104c4.303-1.522,7.391-5.616,7.391-10.441v-41.31v-15.87V98.872
				C531.732,94.047,528.645,89.954,524.342,88.43z"/>
		</g>
	</g>
	<polygon fill="#D0EB51" points="541.885,204.706 499.408,204.706 496.607,173.52 544.686,173.52 	"/>
	<path fill="#94CE28" d="M544.687,157.806h-48.079c-2.535,0-4.59,2.055-4.59,4.59v6.535c0,2.535,2.055,4.59,4.59,4.59h48.079
		c2.534,0,4.589-2.055,4.589-4.59v-6.535C549.275,159.86,547.221,157.806,544.687,157.806z"/>
</g>
<g>
	<g>
		<path fill="#127045" d="M638.152,192.898h-60.964c-4.612,0-8.352,3.739-8.352,8.352v3.456h77.667v-3.456
			C646.504,196.638,642.765,192.898,638.152,192.898z"/>
		<rect x="624.698" y="178.458" fill="#1B9B05" width="7.089" height="14.44"/>
	</g>
	<g>
		<g>
			<g>
				
					<rect x="619.231" y="64.662" transform="matrix(0.8191 -0.5736 0.5736 0.8191 58.749 374.175)" fill="#1B9B05" width="6.999" height="58.525"/>
				
					<rect x="629.88" y="57.206" transform="matrix(0.8192 -0.5736 0.5736 0.8192 64.9451 378.9218)" fill="#1B9B05" width="7" height="58.525"/>
				
					<rect x="597.245" y="37.751" transform="matrix(0.8192 -0.5736 0.5736 0.8192 79.2757 353.8245)" fill="#1B9B05" width="7" height="26.887"/>
				<path fill="#56BA22" d="M617.961,58.744l0.002-0.002l-10.357-3.584l-0.001,0.004c-1.21-0.482-2.63-0.368-3.776,0.435
					c-1.146,0.802-1.739,2.098-1.7,3.4l-0.004,0l-0.176,10.959l0.003-0.002c0,0.794,0.229,1.595,0.719,2.295
					c1.268,1.81,3.761,2.249,5.57,0.982l10.648-7.457c1.811-1.267,2.25-3.761,0.982-5.571
					C619.382,59.503,618.707,59.015,617.961,58.744z"/>
			</g>
			<circle fill="#94CE28" cx="605.946" cy="69.955" r="1.5"/>
			<circle fill="#94CE28" cx="616.595" cy="62.498" r="1.5"/>
			<circle fill="#94CE28" cx="606.122" cy="58.874" r="1.5"/>
		</g>
		<g>
			
				<rect x="623.609" y="114.034" transform="matrix(0.9397 0.3421 -0.3421 0.9397 86.8431 -205.863)" fill="#1B9B05" width="7" height="58.525"/>
			
				<rect x="635.825" y="118.48" transform="matrix(0.9397 0.3419 -0.3419 0.9397 89.054 -209.7012)" fill="#1B9B05" width="7" height="58.526"/>
			<path fill="#56BA22" d="M653.074,106.852l-0.004,0.002c-0.299-1.268-1.206-2.366-2.521-2.845
				c-1.314-0.479-2.716-0.221-3.76,0.558l-0.002-0.004l-11.964,7.962l0.004,0.002c-0.65,0.454-1.177,1.101-1.469,1.904
				c-0.756,2.076,0.315,4.371,2.391,5.127l12.217,4.446c2.075,0.755,4.37-0.315,5.126-2.392c0.146-0.401,0.223-0.811,0.236-1.215
				C653.343,119.993,653.074,106.852,653.074,106.852z"/>
			<circle fill="#94CE28" cx="637.117" cy="115.798" r="1.5"/>
			<circle fill="#94CE28" cx="649.333" cy="120.245" r="1.5"/>
			<circle fill="#94CE28" cx="648.538" cy="108.086" r="1.5"/>
			<g>
				<path fill="#56BA22" d="M633.839,181.612c0-0.01,0.003-0.02,0.003-0.029s-0.003-0.02-0.003-0.029v-7.538l-0.019,0
					c0.061-1.687-0.94-3.294-2.611-3.903l-12.217-4.446c-2.075-0.755-4.37,0.315-5.126,2.392c-0.146,0.401-0.223,0.811-0.236,1.215
					c-0.001,0.032,0.024,0.137,0.06,0.267c0.021,0.757,0.251,1.462,0.643,2.055c0,0.001,0.004,0.012,0.004,0.012
					c0.002,0.002,0.004,0.004,0.006,0.007c0.204,0.306,0.46,0.569,0.739,0.807c3.952,4.242,11.877,11.853,11.877,11.853v-0.001
					c0.727,0.786,1.757,1.286,2.91,1.286c2.046,0,3.713-1.556,3.931-3.544l0.04,0.003V181.612z"/>
				<circle fill="#94CE28" cx="629.841" cy="173.871" r="1.5"/>
				<circle fill="#94CE28" cx="617.625" cy="169.425" r="1.5"/>
				<circle fill="#94CE28" cx="629.841" cy="181.583" r="1.5"/>
			</g>
		</g>
		<g>
			<circle fill="#D0EB51" cx="564.593" cy="58.776" r="20.768"/>
			<circle fill="#94CE28" cx="602.366" cy="27.08" r="5.194"/>
			<path fill="#56BA22" d="M590.143,54.113l10.641-8.927c5.438-4.562,6.145-12.669,1.582-18.105
				c-4.562-5.438-12.668-6.147-18.105-1.584l-10.639,8.927c-10.203-4.672-22.623-3.403-31.791,4.29l38.566,45.962
				C589.565,76.982,592.972,64.973,590.143,54.113z"/>
		</g>
	</g>
</g>
<g id="Layer_2">
	<g>
		<g>
			<path fill="#FFFFFF" d="M299.162,111.591L299.162,111.591L299.162,111.591z"/>
		</g>
		<g>
			<path fill="#FFFFFF" d="M299.162,111.591L299.162,111.591L299.162,111.591z"/>
		</g>
	</g>
	<g>
		<g>
			<polygon fill="#FFFFFF" points="290.987,103.416 290.987,103.415 290.987,103.415 			"/>
		</g>
		<g>
			<path fill="#FFFFFF" d="M290.987,103.415L290.987,103.415L290.987,103.415z"/>
		</g>
		<g>
			<g>
				<path fill="#F1FF8D" d="M199.298,194.895c0,2.71,1.1,5.162,2.873,6.938c1.438,1.437,3.325,2.42,5.431,2.744
					c0.492,0.078,0.992,0.129,1.507,0.129h74.939c5.42,0,9.81-4.393,9.81-9.811v-61.65h-94.56V194.895z"/>
			</g>
			<g>
				<path fill="#94CE28" d="M293.733,108.845c-0.326-2.104-1.308-3.992-2.746-5.429v-0.001v-0.001
					c-1.775-1.775-4.228-2.871-6.937-2.871h-74.941c-5.418,0-9.811,4.39-9.811,9.81v22.892h94.562v-22.893
					C293.86,109.837,293.808,109.337,293.733,108.845z"/>
			</g>
		</g>
	</g>
	<g>
		<path fill="#1B9B05" d="M215.649,91.262c-1.655,0-2.996,1.342-2.996,2.997v12.565c0,1.656,1.342,2.997,2.996,2.997
			c1.656,0,2.998-1.34,2.998-2.726V94.533C218.647,92.604,217.305,91.262,215.649,91.262z"/>
		<path fill="#1B9B05" d="M277.51,91.262c-1.657,0-2.998,1.342-2.998,2.997v12.565c0,1.656,1.343,2.997,2.998,2.997
			c1.656,0,2.997-1.34,2.997-2.997V94.259C280.508,92.604,279.165,91.262,277.51,91.262z"/>
	</g>
	<g>
		<g>
			<path fill="#D0EB51" d="M218.211,200.426c-0.751,0-1.36-0.609-1.36-1.359v-60.221c0-0.75,0.609-1.359,1.36-1.359
				c0.751,0,1.36,0.609,1.36,1.359v60.221C219.571,199.816,218.962,200.426,218.211,200.426z"/>
		</g>
		<g>
			<path fill="#D0EB51" d="M237.123,200.426c-0.75,0-1.359-0.609-1.359-1.359v-60.221c0-0.75,0.609-1.359,1.359-1.359
				c0.751,0,1.361,0.609,1.361,1.359v60.221C238.484,199.816,237.874,200.426,237.123,200.426z"/>
		</g>
		<g>
			<path fill="#D0EB51" d="M256.034,200.426c-0.75,0-1.359-0.609-1.359-1.359v-60.221c0-0.75,0.609-1.359,1.359-1.359
				c0.75,0,1.36,0.609,1.36,1.359v60.221C257.395,199.816,256.785,200.426,256.034,200.426z"/>
		</g>
		<g>
			<path fill="#D0EB51" d="M274.948,200.426c-0.751,0-1.36-0.609-1.36-1.359v-60.221c0-0.75,0.608-1.359,1.36-1.359
				c0.75,0,1.359,0.609,1.359,1.359v60.221C276.307,199.816,275.698,200.426,274.948,200.426z"/>
		</g>
		<g>
			<g>
				<path fill="#D0EB51" d="M284.223,147.548h-75.212c-0.75,0-1.36-0.609-1.36-1.36s0.61-1.359,1.36-1.359h75.214
					c0.75,0,1.359,0.608,1.359,1.359C285.584,146.939,284.975,147.548,284.223,147.548z"/>
			</g>
			<g>
				<path fill="#D0EB51" d="M284.223,162.727h-75.212c-0.75,0-1.36-0.608-1.36-1.36s0.61-1.36,1.36-1.36h75.214
					c0.75,0,1.359,0.608,1.359,1.36C285.584,162.118,284.975,162.727,284.223,162.727z"/>
			</g>
			<g>
				<path fill="#D0EB51" d="M284.223,177.904h-75.212c-0.75,0-1.36-0.609-1.36-1.359c0-0.75,0.61-1.36,1.36-1.36h75.214
					c0,0,1.359,0.61,1.359,1.36C285.584,177.295,284.975,177.904,284.223,177.904z"/>
			</g>
			<g>
				<path fill="#D0EB51" d="M284.223,193.083h-75.212c-0.75,0-1.36-0.608-1.36-1.359c0-0.75,0.61-1.36,1.36-1.36h75.214
					c0.75,0,1.359,0.61,1.359,1.36C285.585,192.475,284.975,193.083,284.223,193.083z"/>
			</g>
		</g>
	</g>
	<g>
		<path fill="#FFFFFF" d="M218.287,124.277c-1.818,0-3.297-1.479-3.297-3.298s1.479-3.298,3.297-3.298h56.661
			c1.82,0,3.299,1.479,3.299,3.298s-1.479,3.298-3.299,3.298H218.287z"/>
	</g>
	<path fill="#B50012" d="M248.99,157.242c-0.349,0-0.696-0.134-0.962-0.398l-4.746-4.746c-0.532-0.531-0.532-1.391,0-1.923
		c0.531-0.531,1.391-0.531,1.922,0l4.746,4.745c0.532,0.531,0.532,1.391,0,1.922C249.685,157.109,249.338,157.242,248.99,157.242z"
		/>
	<path fill="#B50012" d="M244.243,157.242c-0.348,0-0.695-0.134-0.961-0.398c-0.532-0.531-0.532-1.393,0-1.923l4.746-4.746
		c0.532-0.531,1.391-0.531,1.923,0c0.532,0.532,0.532,1.392,0,1.923l-4.746,4.746C244.939,157.109,244.592,157.242,244.243,157.242z
		"/>
	<path fill="#B50012" d="M248.99,172.707c-0.349,0-0.696-0.134-0.962-0.399l-4.746-4.745c-0.532-0.532-0.532-1.393,0-1.923
		c0.531-0.531,1.391-0.531,1.922,0l4.746,4.745c0.532,0.532,0.532,1.392,0,1.922C249.685,172.574,249.338,172.707,248.99,172.707z"
		/>
	<path fill="#B50012" d="M244.243,172.707c-0.348,0-0.695-0.134-0.961-0.399c-0.532-0.53-0.532-1.391,0-1.922l4.746-4.745
		c0.532-0.531,1.391-0.531,1.923,0c0.532,0.53,0.532,1.391,0,1.923l-4.746,4.745C244.939,172.574,244.592,172.707,244.243,172.707z"
		/>
	<path fill="#B50012" d="M229.891,172.707c-0.349,0-0.697-0.134-0.963-0.399l-4.746-4.745c-0.532-0.532-0.532-1.393,0-1.923
		c0.531-0.531,1.391-0.531,1.922,0l4.746,4.745c0.532,0.532,0.532,1.392,0,1.922C230.585,172.574,230.238,172.707,229.891,172.707z"
		/>
	<path fill="#B50012" d="M225.142,172.707c-0.347,0-0.694-0.134-0.96-0.399c-0.532-0.53-0.532-1.391,0-1.922l4.746-4.745
		c0.532-0.531,1.393-0.531,1.923,0c0.532,0.53,0.532,1.391,0,1.923l-4.746,4.745C225.839,172.574,225.491,172.707,225.142,172.707z"
		/>
	<path fill="#B50012" d="M211.382,172.707c-0.348,0-0.694-0.134-0.96-0.399l-4.746-4.745c-0.532-0.532-0.532-1.393,0-1.923
		c0.531-0.531,1.392-0.531,1.923,0l4.746,4.745c0.532,0.532,0.532,1.392,0,1.922C212.079,172.574,211.731,172.707,211.382,172.707z"
		/>
	<path fill="#B50012" d="M206.638,172.707c-0.347,0-0.696-0.134-0.961-0.399c-0.53-0.53-0.53-1.391,0-1.922l4.745-4.745
		c0.531-0.531,1.392-0.531,1.924,0c0.531,0.53,0.531,1.391,0,1.923l-4.746,4.745C207.334,172.574,206.985,172.707,206.638,172.707z"
		/>
	<path fill="#B50012" d="M267.751,157.242c-0.347,0-0.695-0.134-0.961-0.398l-4.746-4.746c-0.531-0.531-0.531-1.391,0-1.923
		c0.531-0.531,1.392-0.531,1.923,0l4.746,4.745c0.531,0.531,0.531,1.391,0,1.922C268.448,157.109,268.1,157.242,267.751,157.242z"/>
	<path fill="#B50012" d="M263.008,157.242c-0.349,0-0.696-0.134-0.963-0.398c-0.53-0.531-0.53-1.393,0-1.923l4.747-4.746
		c0.532-0.531,1.393-0.531,1.922,0c0.532,0.532,0.532,1.392,0,1.923l-4.746,4.746C263.703,157.109,263.355,157.242,263.008,157.242z
		"/>
	<path fill="#B50012" d="M286.597,157.242c-0.348,0-0.696-0.134-0.96-0.398l-4.748-4.746c-0.531-0.531-0.531-1.391,0-1.923
		c0.532-0.531,1.392-0.531,1.922,0l4.749,4.745c0.531,0.531,0.531,1.391,0,1.922C287.293,157.109,286.945,157.242,286.597,157.242z"
		/>
	<path fill="#B50012" d="M281.851,157.242c-0.348,0-0.697-0.134-0.962-0.398c-0.531-0.531-0.531-1.393,0-1.923l4.748-4.746
		c0.53-0.531,1.391-0.531,1.923,0c0.531,0.532,0.531,1.392,0,1.923l-4.749,4.746C282.546,157.109,282.198,157.242,281.851,157.242z"
		/>
</g>
</svg>
