<?xml version="1.0" encoding="utf-8"?>
<!-- Generator: Adobe Illustrator 21.0.2, SVG Export Plug-In . SVG Version: 6.00 Build 0)  -->
<svg version="1.1" id="Layer_1" xmlns="http://www.w3.org/2000/svg" xmlns:xlink="http://www.w3.org/1999/xlink" x="0px" y="0px"
	 viewBox="0 0 425.2 425.2" style="enable-background:new 0 0 425.2 425.2;" xml:space="preserve">
<style type="text/css">
	.st0{fill:#E9E2CE;}
	.st1{fill:#8EBDBF;}
	.st2{fill:#6E503A;}
	.st3{fill:#C25032;}
	.st4{fill:#FFFFFF;}
	.st5{fill:#85CBF1;}
	.st6{fill:#913926;}
	.st7{fill:#DA7927;}
	.st8{fill:#847B4E;}
</style>
<g>
	<g>
		<path class="st0" d="M421.6,212.5c0,115.3-93.4,208.7-208.7,208.7C97.7,421.2,4.2,327.8,4.2,212.5S97.7,3.8,212.9,3.8
			C328.2,3.8,421.6,97.3,421.6,212.5"/>
		<path class="st1" d="M89.3,129.5c6.4,4.5,15,4.5,21.4,0c6.1,4.8,14.8,4.4,20.4-1.1c2.6,4.3,8.2,5.7,12.6,3.1
			c4.3-2.6,5.7-8.2,3.1-12.5c-2.3-3.8-7.1-5.4-11.3-3.7c-1.1-7.5-7.6-13-15.2-13c-1.8,0-3.6,0.3-5.3,0.9c-6.2-8.2-17.8-9.8-26.1-3.7
			c-4.2,3.1-6.9,7.9-7.4,13.2c-5.6,0.1-10,4.7-9.9,10.3c0.1,5.5,4.8,9.9,10.4,9.8C84.7,132.8,87.4,131.6,89.3,129.5"/>
		<path class="st1" d="M274,110c7.7,5.4,18.1,5.5,25.8,0c7.3,5.9,17.9,5.3,24.6-1.3c3.1,5.2,9.9,6.9,15.2,3.8s6.9-9.9,3.8-15.2
			c-2.8-4.7-8.6-6.6-13.6-4.5c-1.4-9.1-9.2-15.8-18.3-15.8c-2.2,0-4.4,0.4-6.4,1.1c-7.4-9.9-21.5-12-31.4-4.5
			c-5.1,3.8-8.3,9.6-8.9,16c-6.7,0.2-12.1,5.8-11.9,12.5c0.2,6.7,5.8,12.1,12.5,11.9C268.6,114,271.8,112.6,274,110"/>
	</g>
</g>
<path class="st2" d="M112.1,193.9l-30.5-39.6L52.5,182l-27-61.4c0,0-43.5,77.3-7.3,167.1c0,0,14.9,52,67.5,90.5l32.8-172.3
	L112.1,193.9z"/>
<polygon class="st3" points="84.8,378.3 84.8,214.2 213,108 341.2,213.1 341.2,378.3 "/>
<polygon class="st4" points="333.2,206.4 341.2,213 324.9,213 324.9,206.4 "/>
<polygon class="st4" points="325.7,200.3 333.7,206.9 317.4,206.9 317.4,200.3 "/>
<polygon class="st4" points="317.8,193.7 325.8,200.3 309.4,200.3 309.4,193.7 "/>
<polygon class="st4" points="310.2,187.6 318.2,194.2 301.9,194.2 301.9,187.6 "/>
<polygon class="st4" points="303.8,182.2 311.8,188.8 295.4,188.8 295.4,182.2 "/>
<polygon class="st4" points="296.2,176 304.2,182.6 287.9,182.6 287.9,176 "/>
<polygon class="st4" points="288.3,169.5 296.3,176 280,176 280,169.5 "/>
<polygon class="st4" points="280.8,163.3 288.7,169.9 272.4,169.9 272.4,163.3 "/>
<polygon class="st4" points="273.1,156.8 281.1,163.3 264.8,163.3 264.8,156.8 "/>
<polygon class="st4" points="265.5,150.6 273.5,157.2 257.2,157.2 257.2,150.6 "/>
<polygon class="st4" points="257.6,144.1 265.6,150.6 249.3,150.6 249.3,144.1 "/>
<polygon class="st4" points="250.1,137.9 258.1,144.5 241.8,144.5 241.8,137.9 "/>
<polygon class="st4" points="243.6,132.5 251.6,139.1 235.3,139.1 235.3,132.5 "/>
<polygon class="st4" points="236.1,126.4 244.1,132.9 227.7,132.9 227.7,126.4 "/>
<polygon class="st4" points="228.1,119.8 236.1,126.4 219.8,126.4 219.8,119.8 "/>
<polygon class="st4" points="213,108 228.6,120.2 212.3,120.2 212.3,113.7 "/>
<polygon class="st4" points="93.6,206.4 85.6,213 101.9,213 101.9,206.4 "/>
<polygon class="st4" points="101.1,200.3 93.2,206.9 109.5,206.9 109.5,200.3 "/>
<polygon class="st4" points="109.1,193.7 101.1,200.3 117.4,200.3 117.4,193.7 "/>
<polygon class="st4" points="116.6,187.6 108.6,194.2 124.9,194.2 124.9,187.6 "/>
<polygon class="st4" points="123.1,182.2 115.1,188.8 131.4,188.8 131.4,182.2 "/>
<polygon class="st4" points="130.6,176 122.6,182.6 138.9,182.6 138.9,176 "/>
<polygon class="st4" points="138.6,169.5 130.6,176 146.9,176 146.9,169.5 "/>
<polygon class="st4" points="146.1,163.3 138.1,169.9 154.4,169.9 154.4,163.3 "/>
<polygon class="st4" points="153.8,156.8 145.8,163.3 162.1,163.3 162.1,156.8 "/>
<polygon class="st4" points="161.3,150.6 153.3,157.2 169.6,157.2 169.6,150.6 "/>
<polygon class="st4" points="169.2,144.1 161.3,150.6 177.6,150.6 177.6,144.1 "/>
<polygon class="st4" points="176.8,137.9 168.8,144.5 185.1,144.5 185.1,137.9 "/>
<polygon class="st4" points="183.3,132.5 175.3,139.1 191.6,139.1 191.6,132.5 "/>
<polygon class="st4" points="190.8,126.4 182.8,132.9 199.1,132.9 199.1,126.4 "/>
<polygon class="st4" points="198.7,119.8 190.7,126.4 207,126.4 207,119.8 "/>
<polygon class="st4" points="213,108 198.2,120.2 214.5,120.2 214.5,113.7 "/>
<rect x="84.8" y="213.1" class="st4" width="9" height="18.5"/>
<rect x="332.3" y="213.1" class="st4" width="9" height="18.5"/>
<rect x="138.8" y="232.3" class="st5" width="26.1" height="46.1"/>
<rect x="259.5" y="232.3" class="st5" width="26.1" height="46.1"/>
<rect x="197.7" y="172.2" class="st5" width="26.1" height="42"/>
<rect x="193.8" y="166.6" class="st4" width="34" height="5.6"/>
<rect x="134.9" y="227.8" class="st4" width="34" height="5.6"/>
<rect x="255.6" y="227.8" class="st4" width="34" height="5.6"/>
<rect x="193.8" y="213.3" class="st4" width="34" height="2.8"/>
<rect x="134.9" y="275.8" class="st4" width="34" height="2.8"/>
<rect x="255.6" y="275.8" class="st4" width="34" height="2.8"/>
<rect x="242.4" y="317" class="st4" width="42.3" height="61.8"/>
<rect x="235.5" y="310.1" class="st6" width="54.9" height="6.9"/>
<rect x="133.8" y="317" class="st4" width="42.3" height="61.8"/>
<rect x="127" y="310.1" class="st6" width="54.9" height="6.9"/>
<path class="st7" d="M414.3,267.2h-73.1l0,108C341.2,375.2,384.7,352.3,414.3,267.2z"/>
<path class="st8" d="M341.2,267.2l33.1-35.8h46.4c0,0-0.8,19.4-6.4,35.8h-69.4"/>
<rect x="357.6" y="281" class="st5" width="22.8" height="40.1"/>
<rect x="354.2" y="277.1" class="st4" width="29.6" height="4.9"/>
<rect x="354.2" y="318.9" class="st4" width="29.6" height="2.4"/>
<path class="st1" d="M159.6,70.4c6,4.2,14,4.2,20.1,0c5.7,4.6,13.9,4.1,19.1-1c2.4,4.1,7.7,5.4,11.8,2.9c4.1-2.4,5.4-7.7,2.9-11.8
	c-2.2-3.6-6.7-5.1-10.6-3.5c-1.1-7.1-7.1-12.3-14.3-12.3c-1.7,0-3.4,0.3-5,0.9c-5.8-7.7-16.7-9.3-24.4-3.5c-4,3-6.5,7.5-6.9,12.4
	c-5.2,0.1-9.4,4.5-9.3,9.7c0.1,5.2,4.5,9.4,9.7,9.3C155.3,73.5,157.8,72.3,159.6,70.4"/>
<g>
	<path class="st4" d="M212.6,138.2c0.2,0,0.5,0,0.7,0.1c0.2,0.1,0.5,0.1,0.7,0.2c0.6,0.3,1.1,0.7,1.5,1.3c0.4,0.6,0.6,1.2,0.6,2
		c0,0.7-0.1,1.4-0.5,2c-0.3,0.6-0.8,1.1-1.4,1.5c-0.6,0.4-1.2,0.6-1.9,0.8c-0.6,0.2-1.2,0.2-1.8,0.2s-1.2-0.1-1.8-0.2
		c-0.5-0.1-1-0.2-1.5-0.4s-1-0.3-1.5-0.5c-0.2,0.9-0.5,1.8-0.8,2.7s-0.6,1.8-0.9,2.7c-0.3,0.8-0.7,1.6-1.1,2.4
		c-0.4,0.8-0.8,1.6-1.3,2.3c-0.2,0.4-0.5,0.7-0.8,1c-0.3,0.3-0.6,0.6-0.9,0.9c-0.3,0.3-0.7,0.5-1.1,0.7c-0.4,0.2-0.8,0.3-1.3,0.3
		c-0.1,0-0.2,0-0.3-0.1s-0.2-0.2-0.2-0.3c0-0.1-0.1-0.2-0.1-0.3c0-0.1,0.1-0.2,0.2-0.3c0.1-0.1,0.2-0.1,0.3-0.2c0.1,0,0.2,0,0.3-0.1
		c0.1,0,0.2,0,0.3-0.1s0.2-0.1,0.3-0.1c0.5-0.3,1-0.7,1.4-1.1c0.4-0.5,0.7-1,1-1.4c0.7-1.1,1.3-2.4,1.8-3.6c0.5-1.3,0.9-2.6,1.3-3.9
		c0.2-0.6,0.4-1.2,0.5-1.8c-0.6-0.2-1.2-0.3-1.8-0.4c-0.6-0.1-1.3-0.1-1.9,0c-0.3,0-0.6,0.1-1,0.3c-0.3,0.1-0.6,0.3-0.8,0.6
		c-0.2,0.2-0.4,0.5-0.5,0.9c-0.1,0.3-0.1,0.7,0,1c0.1,0.3,0.2,0.6,0.4,0.8c0.2,0.3,0.4,0.5,0.7,0.5c0.1,0,0.1,0,0.2,0
		c0.1,0,0.2,0,0.2,0c0.1,0,0.1,0,0.2,0s0.2,0,0.2,0c0.1,0,0.2,0.1,0.3,0.2s0.2,0.2,0.2,0.3c0,0.2,0,0.3-0.1,0.4
		c-0.1,0.1-0.2,0.2-0.3,0.2s-0.2,0.1-0.4,0.1s-0.3,0-0.4,0c-0.4,0-0.7-0.1-1-0.2s-0.6-0.4-0.8-0.6c-0.5-0.5-0.7-1.1-0.8-1.9
		c-0.1-0.7,0-1.4,0.3-2c0.3-0.6,0.8-1.1,1.4-1.4c0.6-0.3,1.2-0.5,1.9-0.5c0.7,0,1.4,0,2,0.2c0.7,0.1,1.3,0.3,2,0.5l0.2,0.1h0.2
		c0.1,0,0.2,0.1,0.3,0.2c0.5,0.1,0.9,0.3,1.3,0.4s0.9,0.2,1.4,0.3c0.4,0.1,0.7,0.1,1.1,0.1s0.7-0.1,1.1-0.2c0.4-0.1,0.8-0.4,1.2-0.6
		c0.2-0.2,0.5-0.4,0.7-0.6c0.2-0.2,0.4-0.5,0.5-0.8c0.1-0.3,0.1-0.6,0-0.9c-0.1-0.3-0.2-0.6-0.4-0.9c-0.1-0.2-0.2-0.3-0.4-0.5
		c-0.1-0.1-0.3-0.3-0.4-0.5c-0.2-0.2-0.2-0.5-0.2-0.8s0.1-0.5,0.4-0.7C212.2,138.3,212.4,138.2,212.6,138.2z"/>
	<path class="st4" d="M206.8,156.1c-0.3,0-0.6,0-0.9-0.1c-0.3-0.1-0.6-0.3-0.9-0.6c-0.1-0.1-0.2-0.3-0.3-0.4s-0.2-0.3-0.2-0.5
		c-0.1-0.3-0.1-0.6-0.1-1c0-0.4,0.1-0.7,0.2-1.1c0.1-0.5,0.3-1,0.6-1.4c0.3-0.5,0.6-0.9,1-1.2c0.4-0.4,0.9-0.7,1.4-0.8
		c0.5-0.2,1-0.2,1.5-0.1c0.2,0,0.3,0.1,0.4,0.3c0.1,0.2,0.1,0.3,0.1,0.5c0,0.2-0.1,0.3-0.3,0.4c-0.1,0.1-0.3,0.1-0.5,0.1
		c-0.4-0.1-0.7-0.1-1,0.1c-0.3,0.1-0.6,0.3-0.8,0.5c-0.3,0.3-0.5,0.6-0.7,0.9c-0.2,0.4-0.4,0.7-0.5,1.1c0,0.1-0.1,0.2-0.1,0.4
		c0,0.2,0,0.4,0,0.6c0,0.2,0.1,0.4,0.2,0.6c0.1,0.2,0.3,0.3,0.5,0.4c0.5,0.1,0.9,0,1.4-0.3l0.3-0.2c-0.3-0.2-0.6-0.5-0.7-0.8
		c-0.3-0.6-0.4-1.3-0.1-1.9c0.2-0.4,0.4-0.7,0.8-1c0.2-0.1,0.3-0.2,0.5-0.2s0.4,0,0.6,0c0.4,0,0.7,0.2,0.9,0.5
		c0.2,0.3,0.4,0.6,0.4,1c0,0.5-0.1,1.1-0.3,1.7c0.1-0.1,0.3-0.1,0.4-0.3c0.1-0.1,0.2-0.3,0.3-0.5c0.1-0.2,0.2-0.3,0.4-0.3
		c0.2-0.1,0.3-0.1,0.5,0c0.2,0.1,0.3,0.2,0.3,0.4c0.1,0.2,0,0.3,0,0.5c-0.2,0.5-0.4,0.8-0.7,1c-0.3,0.2-0.5,0.4-0.7,0.5
		c-0.4,0.1-0.7,0.2-1.2,0.1c-0.1,0.1-0.2,0.3-0.3,0.4c-0.1,0.1-0.2,0.2-0.4,0.3c-0.3,0.3-0.7,0.5-1.2,0.6
		C207.2,156.1,207,156.1,206.8,156.1z M208.8,151.5c-0.1,0-0.2,0-0.2,0.1c-0.1,0-0.2,0.2-0.2,0.3c-0.1,0.3-0.1,0.5,0,0.7
		c0.1,0.2,0.2,0.4,0.4,0.6v0c0.1-0.2,0.2-0.5,0.2-0.7c0-0.2,0.1-0.4,0.1-0.6C209,151.6,208.9,151.5,208.8,151.5L208.8,151.5z"/>
	<path class="st4" d="M212.5,155.9c-0.2,0-0.4,0-0.6-0.1c-0.5-0.1-0.9-0.4-1.1-0.9c-0.2-0.5-0.3-1-0.3-1.6c0-0.3,0.1-0.5,0.1-0.8
		c0-0.3,0.1-0.6,0.2-0.8c0.4-0.9,0.8-1.7,1.2-2.5c0.4-0.7,0.8-1.4,1.2-1.9c0.4-0.5,0.7-0.9,1-1.2c0.3-0.3,0.4-0.4,0.4-0.5
		c0.1-0.1,0.3-0.2,0.4-0.2s0.3,0.1,0.5,0.2c0.1,0.1,0.2,0.3,0.2,0.5c0,0.2-0.1,0.3-0.2,0.5c-0.1,0.1-0.2,0.3-0.4,0.4
		c-0.1,0.1-0.2,0.3-0.4,0.5c-0.2,0.2-0.3,0.4-0.5,0.7c-0.3,0.5-0.7,1-1.1,1.7s-0.8,1.5-1.1,2.3c-0.2,0.4-0.2,0.8-0.3,1.2
		c0,0.4,0,0.7,0.1,1c0.1,0.1,0.1,0.2,0.2,0.2c0.1,0,0.1,0.1,0.2,0.1c0.2,0.1,0.5,0,0.8-0.1c0.3-0.1,0.6-0.3,0.9-0.6
		c-0.1-0.1-0.2-0.3-0.3-0.5c-0.3-0.6-0.4-1.2-0.3-1.9c0-0.3,0.1-0.7,0.3-1s0.3-0.6,0.5-0.9c0.5-0.7,1-1,1.7-0.9
		c0.6,0.1,1.1,0.4,1.3,0.9c0.2,0.4,0.2,0.8,0.1,1.2c-0.1,0.4-0.2,0.8-0.3,1.2c-0.2,0.5-0.4,1-0.7,1.4c0.5,0,0.9-0.3,1.2-0.9
		c0.1-0.2,0.2-0.3,0.3-0.3s0.3-0.1,0.5,0c0.2,0.1,0.3,0.2,0.3,0.3c0.1,0.2,0,0.3,0,0.5c-0.3,0.6-0.7,1.1-1.2,1.4
		c-0.5,0.3-1.1,0.4-1.8,0.3c-0.1,0-0.2-0.1-0.3-0.1c-0.2,0.2-0.4,0.4-0.7,0.6c-0.2,0.2-0.4,0.3-0.7,0.4
		C213.3,155.8,212.9,155.9,212.5,155.9z M215.6,150c-0.1,0-0.1,0-0.2,0.1s-0.2,0.2-0.3,0.3c-0.3,0.4-0.4,0.8-0.5,1.3
		c0,0.2,0,0.4,0,0.6s0.1,0.4,0.3,0.6c0.2-0.2,0.3-0.5,0.4-0.7c0.1-0.2,0.2-0.5,0.3-0.7c0.2-0.4,0.2-0.7,0.3-0.9c0-0.2,0-0.4,0-0.5
		c0,0,0-0.1-0.1-0.1C215.8,150,215.7,150,215.6,150L215.6,150z"/>
	<path class="st4" d="M224.1,156c-0.2,0-0.3,0-0.5-0.1s-0.2-0.1-0.3-0.2c-0.3-0.2-0.5-0.5-0.5-0.9c0-0.2,0-0.5,0.2-0.9
		c0.1-0.3,0.2-0.6,0.4-0.9c0.2-0.3,0.3-0.6,0.5-0.9c0.1-0.2,0.3-0.5,0.4-0.7c0.1-0.2,0.3-0.4,0.3-0.6c0.1-0.3,0.2-0.4,0.2-0.5
		c0-0.1,0-0.2,0-0.2l0,0c0,0-0.1,0-0.2,0c-0.1,0-0.2,0-0.4,0.1c-0.3,0.2-0.7,0.5-1.1,1c-0.2,0.2-0.4,0.5-0.6,0.8
		c-0.2,0.3-0.4,0.6-0.6,0.9c-0.2,0.3-0.4,0.6-0.5,0.9c-0.2,0.3-0.3,0.6-0.5,0.8c-0.1,0.2-0.3,0.4-0.4,0.6c-0.1,0.2-0.2,0.3-0.3,0.5
		l-0.1,0.1c-0.1,0.1-0.1,0.1-0.2,0.1c0,0-0.1,0-0.1,0c-0.1,0-0.2,0-0.4,0c0,0-0.1,0-0.1,0h0c-0.2-0.1-0.3-0.2-0.3-0.4
		c-0.1-0.2,0-0.3,0.1-0.5c0.1-0.2,0.2-0.3,0.3-0.5c0.1-0.2,0.3-0.4,0.4-0.6c0.2-0.3,0.4-0.7,0.7-1.1c0.2-0.4,0.4-0.7,0.6-1.1
		c0.2-0.5,0.4-0.8,0.4-1c0-0.2,0-0.4,0-0.4c0,0,0,0,0-0.1c0,0-0.1,0-0.2-0.1c-0.1,0-0.2,0-0.3,0.1c-0.1,0-0.3,0.1-0.4,0.2
		c-0.2,0.1-0.4,0.3-0.6,0.5c-0.4,0.4-0.8,0.9-1.2,1.5l-0.4,0.7l-1.3,2.5c-0.1,0.2-0.3,0.3-0.5,0.3c-0.1,0-0.2,0-0.3-0.1
		c-0.2-0.1-0.3-0.2-0.3-0.3c-0.1-0.2-0.1-0.3,0-0.5c0.1-0.3,0.3-0.7,0.6-1.2c0.2-0.5,0.5-0.9,0.8-1.4c0.4-0.8,0.7-1.4,1-1.9
		c0.3-0.5,0.4-0.7,0.4-0.8c0.1-0.2,0.2-0.3,0.4-0.3c0.2,0,0.3,0,0.5,0.1c0,0,0,0,0,0c0.4-0.3,0.7-0.5,1.1-0.6
		c0.3-0.1,0.5-0.1,0.8-0.1c0.2,0,0.5,0.1,0.7,0.2c0.3,0.2,0.5,0.5,0.6,0.8c0.3-0.3,0.6-0.5,0.9-0.7c0.4-0.2,0.8-0.3,1.1-0.3
		c0.3,0,0.5,0.1,0.7,0.2c0.3,0.2,0.5,0.5,0.6,0.8c0.1,0.2,0.1,0.5,0,0.7c0,0.2-0.1,0.5-0.2,0.8c-0.1,0.3-0.2,0.5-0.4,0.8
		c-0.1,0.3-0.3,0.5-0.5,0.8c-0.2,0.2-0.3,0.5-0.4,0.7c-0.1,0.2-0.2,0.4-0.3,0.6c-0.1,0.2-0.1,0.3-0.1,0.4s0,0.2,0,0.2
		c0,0,0.1,0,0.3-0.1c0.1,0,0.3-0.2,0.5-0.3c0.2-0.2,0.5-0.5,0.7-0.8s0.4-0.7,0.6-1c0.1-0.2,0.2-0.3,0.4-0.3c0.2-0.1,0.3,0,0.5,0
		c0.2,0.1,0.3,0.2,0.3,0.4c0.1,0.2,0,0.3,0,0.5c-0.4,0.8-0.9,1.4-1.4,2s-1,0.9-1.6,1c-0.1,0-0.1,0-0.2,0
		C224.2,156,224.2,156,224.1,156z"/>
</g>
</svg>
