<?xml version="1.0" encoding="utf-8"?>
<!-- Generator: Adobe Illustrator 13.0.0, SVG Export Plug-In . SVG Version: 6.00 Build 14948)  -->
<!DOCTYPE svg PUBLIC "-//W3C//DTD SVG 1.1//EN" "http://www.w3.org/Graphics/SVG/1.1/DTD/svg11.dtd">
<svg version="1.1" id="Layer_1" xmlns="http://www.w3.org/2000/svg" xmlns:xlink="http://www.w3.org/1999/xlink" x="0px" y="0px"
	 width="470px" height="190px" viewBox="0 0 470 190" enable-background="new 0 0 470 190" xml:space="preserve">
<g>
	<g>
		<path fill="#174A7D" d="M240.723,95.604c-1.624,0-3.19-0.682-4.297-1.87c-0.498-0.531-0.888-1.144-1.16-1.821
			c-0.12-0.301-0.215-0.613-0.285-0.931h-1.317h-11.977h-1.317c-0.07,0.317-0.165,0.63-0.285,0.931
			c-0.272,0.675-0.661,1.288-1.158,1.821c-1.108,1.188-2.677,1.87-4.3,1.87c-1.62,0-3.187-0.682-4.295-1.87
			c-0.5-0.533-0.89-1.146-1.158-1.821c-0.122-0.299-0.217-0.61-0.287-0.931h-1.317h-3.55c-0.531,0-0.962-0.43-0.962-0.96v-2.595
			c0-0.908,0.739-1.647,1.649-1.647h0.376v-4.63c0-1.071,0.871-1.942,1.944-1.942h4.523l6.973-4.055
			c0.436-0.301,0.982-0.471,1.548-0.471h12.221c0.65,0,1.286,0.229,1.788,0.646l6.439,4.517l8.593,2.739
			c0.824,0.225,1.412,0.997,1.412,1.872v3.232h0.097c0.517,0,0.938,0.422,0.938,0.939v1.227c0,0.621-0.506,1.127-1.127,1.127h-2.648
			h-1.317c-0.07,0.317-0.165,0.63-0.284,0.931c-0.273,0.678-0.663,1.29-1.16,1.821C243.895,94.939,242.369,95.604,240.723,95.604
			L240.723,95.604z M240.723,87.83c-1.044,0-1.895,0.851-1.895,1.896c0,0.204,0.033,0.406,0.098,0.601
			c0.134,0.4,0.404,0.751,0.76,0.982c0.309,0.204,0.668,0.312,1.037,0.312c0.37,0,0.728-0.107,1.035-0.31
			c0.357-0.233,0.625-0.584,0.76-0.984c0.068-0.198,0.101-0.398,0.101-0.601C242.618,88.681,241.768,87.83,240.723,87.83
			L240.723,87.83z M214.627,87.83c-1.044,0-1.895,0.851-1.895,1.896c0,0.202,0.033,0.402,0.099,0.597
			c0.136,0.404,0.405,0.755,0.76,0.986c0.312,0.204,0.669,0.312,1.036,0.312c0.37,0,0.729-0.107,1.036-0.31
			c0.357-0.233,0.625-0.584,0.76-0.984c0.068-0.198,0.101-0.398,0.101-0.601C216.524,88.681,215.674,87.83,214.627,87.83
			L214.627,87.83z M207.549,85.452h1.067h0.287c-0.006-0.085-0.022-0.18-0.056-0.276c-0.178-0.522-0.729-0.81-1.298-0.964V85.452
			L207.549,85.452z M226.036,80.886h9.105l-3.697-2.96c-0.105-0.084-0.235-0.13-0.369-0.13h-4.085L226.036,80.886L226.036,80.886z
			 M221.957,77.796c-0.561,0-1.11,0.159-1.589,0.456l-2.147,1.342c-0.262,0.165-0.386,0.487-0.301,0.787
			c0.087,0.297,0.363,0.505,0.673,0.505h3.951l0.956-3.09H221.957L221.957,77.796z"/>
		<path fill="#FFFFFF" d="M232.291,75.183c0.537,0,1.056,0.188,1.467,0.531l6.539,4.588l8.661,2.761
			c0.629,0.171,1.065,0.742,1.065,1.395v3.733h0.596c0.242,0,0.438,0.196,0.438,0.438v1.227c0,0.347-0.281,0.628-0.627,0.628h-2.648
			h-1.734c-0.062,0.434-0.175,0.852-0.333,1.245c-0.249,0.621-0.61,1.185-1.06,1.665c-0.982,1.052-2.379,1.711-3.932,1.711
			s-2.951-0.659-3.933-1.711c-0.448-0.48-0.81-1.044-1.06-1.665c-0.158-0.394-0.271-0.812-0.332-1.245h-1.734h-11.977h-1.734
			c-0.062,0.434-0.175,0.852-0.333,1.245c-0.249,0.621-0.61,1.185-1.06,1.665c-0.982,1.052-2.379,1.711-3.933,1.711
			c-1.552,0-2.949-0.659-3.931-1.711c-0.449-0.48-0.811-1.044-1.06-1.665c-0.159-0.394-0.272-0.812-0.333-1.245h-1.734h-3.551
			c-0.255,0-0.462-0.207-0.462-0.462v-2.593c0-0.635,0.515-1.149,1.15-1.149h0.875v-5.128c0-0.798,0.647-1.444,1.445-1.444h4.656
			l7.091-4.122c0.382-0.262,0.834-0.402,1.297-0.402H232.291 M225.358,81.385h10.721c0.072,0,0.136-0.046,0.16-0.114
			c0.024-0.067,0.003-0.144-0.054-0.188l-4.429-3.546c-0.193-0.155-0.435-0.239-0.683-0.239h-4.451L225.358,81.385 M218.592,81.385
			h4.318l1.266-4.088h-2.219c-0.656,0-1.299,0.185-1.854,0.532l-2.146,1.341c-0.453,0.283-0.664,0.833-0.518,1.347
			C217.588,81.03,218.058,81.385,218.592,81.385 M225.166,84.014h2.565v-0.717h-2.565V84.014 M207.049,85.952h1.566h0.742
			c0,0,0.136-0.437-0.037-0.94c-0.189-0.552-0.75-1.187-2.271-1.416V85.952 M240.723,92.12c0.483,0,0.934-0.145,1.31-0.392
			c0.446-0.292,0.788-0.729,0.96-1.245c0.08-0.238,0.125-0.493,0.125-0.758c0-1.322-1.072-2.395-2.395-2.395
			s-2.395,1.072-2.395,2.395c0,0.265,0.045,0.52,0.123,0.758c0.173,0.516,0.515,0.953,0.961,1.245
			C239.789,91.976,240.238,92.12,240.723,92.12 M214.628,92.12c0.484,0,0.934-0.145,1.311-0.392c0.446-0.292,0.788-0.729,0.96-1.245
			c0.08-0.238,0.125-0.493,0.125-0.758c0-1.322-1.072-2.395-2.396-2.395c-1.322,0-2.395,1.072-2.395,2.395
			c0,0.265,0.045,0.52,0.125,0.758c0.172,0.516,0.514,0.953,0.96,1.245C213.695,91.976,214.145,92.12,214.628,92.12 M232.291,74.183
			H220.07c-0.654,0-1.286,0.192-1.829,0.555l-6.828,3.97h-4.386c-1.349,0-2.445,1.097-2.445,2.444v4.132
			c-1.128,0.064-2.025,1.002-2.025,2.146v2.593c0,0.807,0.656,1.462,1.462,1.462h3.551h0.927c0.06,0.21,0.131,0.417,0.213,0.619
			c0.293,0.731,0.716,1.396,1.256,1.974c1.203,1.289,2.902,2.028,4.662,2.028c1.76,0,3.459-0.739,4.664-2.028
			c0.54-0.577,0.962-1.242,1.257-1.976c0.081-0.201,0.152-0.407,0.211-0.617h0.928h11.977h0.927c0.06,0.209,0.13,0.416,0.212,0.618
			c0.295,0.732,0.717,1.396,1.256,1.974c1.203,1.29,2.903,2.029,4.664,2.029c1.759,0,3.459-0.739,4.662-2.028
			c0.54-0.577,0.963-1.242,1.257-1.976c0.081-0.201,0.152-0.407,0.212-0.617h0.928h2.648c0.897,0,1.627-0.73,1.627-1.628v-1.227
			c0-0.652-0.437-1.205-1.033-1.381v-2.791c0-1.101-0.741-2.071-1.803-2.359l-8.475-2.702l-6.383-4.479
			C233.778,74.443,233.044,74.183,232.291,74.183L232.291,74.183z M227.36,78.297h3.714c0.021,0,0.041,0.007,0.056,0.019
			l2.584,2.069h-7L227.36,78.297L227.36,78.297z M218.592,80.385c-0.088,0-0.167-0.06-0.191-0.146
			c-0.023-0.082,0.012-0.175,0.086-0.222l2.146-1.341c0.397-0.248,0.855-0.38,1.324-0.38h0.862l-0.646,2.088H218.592L218.592,80.385
			z M240.723,91.12c-0.271,0-0.535-0.079-0.762-0.228c-0.264-0.172-0.462-0.43-0.562-0.728c-0.046-0.142-0.071-0.292-0.071-0.439
			c0-0.769,0.625-1.395,1.395-1.395s1.395,0.626,1.395,1.395c0,0.147-0.024,0.295-0.072,0.439c-0.1,0.298-0.299,0.556-0.561,0.727
			C241.257,91.041,240.994,91.12,240.723,91.12L240.723,91.12z M214.628,91.12c-0.271,0-0.534-0.079-0.762-0.228
			c-0.262-0.172-0.46-0.43-0.559-0.726c-0.049-0.146-0.074-0.294-0.074-0.441c0-0.769,0.625-1.395,1.395-1.395
			c0.77,0,1.396,0.626,1.396,1.395c0,0.147-0.024,0.295-0.073,0.439c-0.099,0.298-0.298,0.556-0.559,0.727
			C215.163,91.041,214.899,91.12,214.628,91.12L214.628,91.12z"/>
	</g>
</g>
<g>
	<path fill="#7DC144" d="M54.1,128.064c0.006,0,12.066-0.002,12.066-0.002h30.34h4.849v-0.408h-0.407h0.407l-0.336-0.23
		c-0.036,0.051-0.071,0.136-0.071,0.23h0.407l-0.336-0.23l0.336,0.23l-0.178-0.367c-0.031,0.018-0.082,0.037-0.158,0.137l0.336,0.23
		l-0.178-0.367l0.178,0.367l-0.083-0.398l-0.095,0.031l0.178,0.367l-0.083-0.398l0.083,0.398l-0.026-0.405l-0.057,0.007l0.083,0.398
		l-0.026-0.405l0.026,0.4l-0.006-0.402l-0.02,0.002l0.026,0.4l-0.006-0.402l0.002,0.148v-0.148h-0.002l0.002,0.148v-0.148h-0.131
		h-0.004l-0.015,0.241l0.121-0.202l-0.106-0.039l-0.015,0.241l0.121-0.202l-0.182,0.304l0.304-0.183l-0.122-0.121l-0.182,0.304
		l0.304-0.183l-0.311,0.186h0.362l-0.051-0.186l-0.311,0.186h0.362h-0.266l0.222,0.163c-0.001-0.004,0.037-0.03,0.044-0.163h-0.266
		l0.222,0.163l0.045-0.046c0.129-0.119,0.457-0.351,0.923-0.637c1.758-1.09,5.536-3.087,10.193-5.456
		c6.985-3.556,15.965-7.956,23.194-11.472c3.615-1.756,6.795-3.291,9.068-4.386c1.139-0.547,2.05-0.984,2.677-1.287
		c0.627-0.299,0.969-0.466,0.969-0.466l-0.176-0.366l-0.064,0.401l47.187,7.517l12.927-2.059l34.289-5.46l47.152-15.021
		l47.092-14.998l47.092-7.5l-0.127-0.805l-47.154,7.51l-47.15,15.019l-9.161,2.918l-37.931,12.082l-34.01,5.416l-13.018,2.073
		l-47.184-7.515l-0.115,0.056c0,0-11.815,5.655-23.631,11.476c-5.91,2.914-11.819,5.866-16.254,8.176
		c-2.218,1.156-4.067,2.151-5.37,2.901c-0.651,0.377-1.163,0.691-1.527,0.942c-0.181,0.124-0.324,0.232-0.437,0.338l-0.155,0.168
		c-0.044,0.063-0.107,0.145-0.115,0.317l0.086,0.267c0.088,0.117,0.193,0.159,0.266,0.182l0.189,0.021h0.102h0.027h0.006h0.005
		h0.005h0.008l0.02-0.001l0.034-0.007l0.068-0.016l0.1-0.054l0.097-0.101c0.035-0.05,0.073-0.136,0.071-0.23
		c0-0.106-0.043-0.212-0.12-0.287c-0.075-0.076-0.18-0.12-0.288-0.12h-4.849c-7.084,0-20.49,0.001-30.34,0.001
		c-6.908,0-12.067,0.001-12.067,0.001V128.064z"/>
</g>
<polygon fill="#174A7D" points="100.815,127.657 100.815,128.063 101.206,128.063 101.223,128.063 101.324,128.063 101.349,128.063 
	101.357,128.063 101.36,128.063 101.365,128.063 101.374,128.063 101.394,128.063 101.428,128.055 101.496,128.04 101.596,127.985 
	101.63,127.95 101.63,127.657 "/>
<polygon fill="#174A7D" points="195.1,111.145 195.1,111.5 195.468,111.559 195.916,111.486 195.916,111.145 "/>
<polygon fill="#7DC144" points="273.676,93.61 273.676,94.167 274.49,93.91 274.49,93.61 "/>
<polygon fill="#7DC144" points="289.387,88.633 289.387,89.163 289.836,89.021 290.203,88.904 290.203,88.633 "/>
<polygon fill="#7DC144" points="305.254,83.255 305.102,83.302 305.102,84.158 305.918,83.899 305.918,83.255 "/>
<polygon fill="#7DC144" points="320.816,78.757 320.816,79.152 321.631,78.895 321.631,78.757 "/>
<polygon fill="#7DC144" points="336.531,73.624 336.531,74.147 336.928,74.021 337.346,73.955 337.346,73.624 "/>
<polygon fill="#7DC144" points="352.246,71.002 352.246,71.582 353.061,71.454 353.061,71.002 "/>
<polygon fill="#7DC144" points="367.961,68.422 367.961,69.081 368.777,68.95 368.777,68.422 "/>
<polygon fill="#7DC144" points="383.676,66.119 383.676,66.577 384.02,66.521 383.955,66.119 "/>
<g>
	<path fill="#7DC144" d="M104.275,127.656c0-1.687-1.368-3.054-3.055-3.054c-1.684,0-3.05,1.367-3.05,3.054
		c0,1.686,1.366,3.053,3.05,3.053C102.908,130.709,104.275,129.342,104.275,127.656"/>
	<path fill="#7DC144" d="M151.399,103.641c0-1.685-1.368-3.053-3.054-3.053c-1.687,0-3.051,1.368-3.051,3.053
		c0,1.688,1.364,3.053,3.051,3.053C150.031,106.693,151.399,105.328,151.399,103.641"/>
	<path fill="#7DC144" d="M198.518,111.145c0-1.685-1.364-3.051-3.05-3.051c-1.687,0-3.054,1.366-3.054,3.051
		c0,1.688,1.367,3.053,3.054,3.053C197.154,114.197,198.518,112.832,198.518,111.145"/>
	<path fill="#7DC144" d="M292.764,88.631c0-1.684-1.365-3.051-3.051-3.051c-1.688,0-3.055,1.367-3.055,3.051
		c0,1.688,1.367,3.054,3.055,3.054C291.398,91.685,292.764,90.319,292.764,88.631"/>
	<path fill="#7DC144" d="M339.887,73.623c0-1.685-1.367-3.053-3.051-3.053c-1.688,0-3.055,1.368-3.055,3.053
		c0,1.686,1.367,3.053,3.055,3.053C338.52,76.676,339.887,75.309,339.887,73.623"/>
</g>
<polygon fill="#174A7D" points="524.889,37.269 524.889,37.598 525.307,37.664 525.703,37.789 525.703,37.269 "/>
<polygon fill="#174A7D" points="478.279,37.268 478.213,37.671 478.562,37.724 478.562,37.268 "/>
<g>
	<path fill="#57A1D4" d="M32.503,167.005c0-3.034,2.462-5.496,5.497-5.496c3.031,0,5.492,2.462,5.492,5.496
		c0,3.032-2.461,5.495-5.492,5.495C34.965,172.5,32.503,170.037,32.503,167.005"/>
	<path fill="none" stroke="#57A1D4" stroke-width="1.553" d="M29.208,167.005c0-4.856,3.938-8.795,8.794-8.795
		c4.851,0,8.787,3.938,8.787,8.795c0,4.853-3.936,8.794-8.787,8.794C33.146,175.799,29.208,171.857,29.208,167.005"/>
	<g>
		<path fill="#57A1D4" d="M221.269,166.739c0-3.034,2.461-5.496,5.496-5.496c3.031,0,5.492,2.462,5.492,5.496
			c0,3.032-2.461,5.495-5.492,5.495C223.73,172.234,221.269,169.771,221.269,166.739"/>
		<path fill="none" stroke="#57A1D4" stroke-width="1.553" d="M217.972,166.739c0-4.856,3.938-8.795,8.795-8.795
			c4.85,0,8.786,3.938,8.786,8.795c0,4.853-3.937,8.794-8.786,8.794C221.911,175.533,217.972,171.592,217.972,166.739"/>
	</g>
	<g>
		<path fill="#57A1D4" d="M394.27,167.031c0-3.034,2.461-5.496,5.496-5.496c3.031,0,5.492,2.462,5.492,5.496
			c0,3.032-2.461,5.495-5.492,5.495C396.73,172.526,394.27,170.063,394.27,167.031"/>
		<path fill="none" stroke="#57A1D4" stroke-width="1.553" d="M390.973,167.031c0-4.856,3.938-8.795,8.795-8.795
			c4.85,0,8.785,3.938,8.785,8.795c0,4.853-3.936,8.794-8.785,8.794C394.91,175.825,390.973,171.884,390.973,167.031"/>
	</g>
</g>
<g>
	<path fill="none" stroke="#57A1D4" stroke-width="1.553" d="M395.676,167.292h8.334 M379.961,167.292h8.336 M364.248,167.292h8.334
		 M348.533,167.292h8.336 M332.818,167.292h8.336 M317.105,167.292h8.334 M301.393,167.292h8.334 M285.678,167.292h8.336
		 M269.965,167.292h8.334 M254.25,167.292h8.336 M238.535,167.292h8.336 M222.822,167.292h8.335 M207.107,167.292h8.336
		 M191.395,167.292h8.335 M175.68,167.292h8.336 M159.966,167.292h8.336 M144.252,167.292h8.336 M128.538,167.292h8.336
		 M112.824,167.292h8.336 M97.11,167.292h8.336 M81.397,167.292h8.335 M65.683,167.292h8.336 M49.969,167.292h8.336 M34.255,167.292
		h8.336"/>
</g>
<g>
	<path fill="#174A7D" stroke="#FFFFFF" d="M60.931,128.707h-0.595v-3.733c0-0.652-0.437-1.224-1.066-1.395l-8.661-2.761
		l-6.539-4.588c-0.412-0.343-0.931-0.531-1.467-0.531H30.382c-0.463,0-0.915,0.141-1.296,0.402l-7.091,4.122h-4.656
		c-0.798,0-1.445,0.646-1.445,1.444v5.128h-0.875c-0.635,0-1.15,0.515-1.15,1.149v2.593c0,0.255,0.207,0.462,0.462,0.462h3.551
		h1.734c0.061,0.434,0.174,0.852,0.333,1.245c0.249,0.621,0.61,1.185,1.06,1.665c0.981,1.052,2.379,1.711,3.932,1.711
		c1.553,0,2.95-0.659,3.932-1.711c0.449-0.48,0.81-1.044,1.06-1.665c0.158-0.394,0.271-0.812,0.333-1.245H32h11.976h1.734
		c0.061,0.434,0.174,0.852,0.333,1.245c0.249,0.621,0.61,1.185,1.059,1.665c0.982,1.052,2.38,1.711,3.932,1.711
		c1.553,0,2.95-0.659,3.932-1.711c0.449-0.48,0.81-1.044,1.06-1.665c0.158-0.394,0.271-0.812,0.333-1.245h1.735h2.648
		c0.347,0,0.628-0.281,0.628-0.628v-1.227C61.37,128.903,61.173,128.707,60.931,128.707z M42.069,118.053l4.428,3.546
		c0.057,0.045,0.078,0.121,0.054,0.188c-0.024,0.068-0.088,0.114-0.16,0.114H35.671l1.265-4.088h4.451
		C41.635,117.813,41.876,117.897,42.069,118.053z M28.269,119.687l2.146-1.341c0.556-0.348,1.199-0.532,1.854-0.532h2.218
		l-1.265,4.088h-4.319c-0.534,0-1.004-0.354-1.152-0.868S27.816,119.97,28.269,119.687z M17.362,126.469v-2.356
		c1.522,0.229,2.083,0.864,2.271,1.416c0.173,0.504,0.037,0.94,0.037,0.94h-0.742H17.362z M26.251,132.245
		c-0.376,0.247-0.826,0.392-1.31,0.392s-0.933-0.145-1.31-0.392c-0.446-0.292-0.788-0.729-0.96-1.245
		c-0.079-0.238-0.124-0.493-0.124-0.758c0-1.322,1.072-2.395,2.395-2.395c1.323,0,2.395,1.072,2.395,2.395
		c0,0.265-0.044,0.52-0.124,0.758C27.04,131.516,26.697,131.953,26.251,132.245z M38.044,124.53h-2.565v-0.717h2.565V124.53z
		 M52.345,132.245c-0.376,0.247-0.826,0.392-1.31,0.392s-0.934-0.145-1.31-0.392c-0.446-0.292-0.788-0.729-0.96-1.245
		c-0.079-0.238-0.124-0.493-0.124-0.758c0-1.322,1.072-2.395,2.395-2.395c1.323,0,2.395,1.072,2.395,2.395
		c0,0.265-0.045,0.52-0.125,0.758C53.133,131.516,52.791,131.953,52.345,132.245z"/>
</g>
<g>
	<g>
		<path fill="#174A7D" d="M256.034,113.199c-1.62,0-3.188-0.683-4.299-1.87c-0.494-0.534-0.885-1.144-1.156-1.82
			c-0.122-0.305-0.217-0.614-0.285-0.931h-1.318H237h-1.317c-0.068,0.318-0.166,0.631-0.288,0.933
			c-0.269,0.672-0.66,1.287-1.156,1.818c-1.109,1.188-2.677,1.87-4.299,1.87c-1.622,0-3.188-0.683-4.296-1.87
			c-0.497-0.531-0.888-1.146-1.156-1.82c-0.122-0.302-0.22-0.612-0.288-0.931h-1.318h-3.55c-0.532,0-0.964-0.433-0.964-0.962v-2.595
			c0-0.908,0.74-1.648,1.65-1.648h0.375v-4.628c0-1.071,0.873-1.944,1.947-1.944h4.522l6.972-4.055c0.44-0.3,0.984-0.47,1.549-0.47
			h12.222c0.649,0,1.284,0.229,1.785,0.646l6.448,4.522l8.583,2.736c0.823,0.222,1.415,0.993,1.415,1.87v3.233h0.095
			c0.518,0,0.939,0.422,0.939,0.939v1.225c0,0.623-0.507,1.13-1.128,1.13h-2.647h-1.317c-0.07,0.322-0.168,0.635-0.288,0.933
			c-0.269,0.672-0.66,1.287-1.156,1.818C259.222,112.517,257.654,113.199,256.034,113.199L256.034,113.199z M256.034,105.425
			c-1.045,0-1.893,0.851-1.893,1.896c0,0.198,0.033,0.401,0.097,0.604c0.135,0.397,0.406,0.749,0.76,0.98
			c0.311,0.203,0.668,0.309,1.036,0.309c0.37,0,0.729-0.105,1.034-0.309c0.356-0.231,0.627-0.583,0.764-0.986
			c0.064-0.196,0.097-0.397,0.097-0.598C257.929,106.275,257.079,105.425,256.034,105.425L256.034,105.425z M229.94,105.425
			c-1.044,0-1.893,0.851-1.893,1.896c0,0.2,0.033,0.401,0.097,0.6c0.134,0.403,0.405,0.753,0.759,0.984
			c0.31,0.203,0.668,0.309,1.036,0.309c0.371,0,0.729-0.105,1.039-0.309c0.356-0.233,0.625-0.583,0.759-0.984
			c0.064-0.198,0.097-0.399,0.097-0.6C231.835,106.275,230.985,105.425,229.94,105.425L229.94,105.425z M222.863,103.046h1.065
			h0.288c-0.006-0.085-0.023-0.18-0.056-0.279c-0.178-0.521-0.73-0.807-1.297-0.964V103.046L222.863,103.046z M241.349,98.479h9.104
			l-3.697-2.958c-0.103-0.083-0.233-0.129-0.37-0.129h-4.081L241.349,98.479L241.349,98.479z M237.27,95.392
			c-0.562,0-1.113,0.157-1.589,0.456l-2.147,1.34c-0.263,0.164-0.387,0.486-0.3,0.784c0.087,0.3,0.362,0.507,0.67,0.507h3.952
			l0.953-3.087H237.27L237.27,95.392z"/>
		<path fill="#FFFFFF" d="M247.604,92.776c0.537,0,1.056,0.188,1.467,0.531l6.539,4.588l8.661,2.761
			c0.629,0.171,1.065,0.742,1.065,1.395v3.733h0.596c0.242,0,0.438,0.196,0.438,0.438v1.227c0,0.347-0.281,0.628-0.627,0.628h-2.648
			h-1.734c-0.062,0.434-0.175,0.852-0.333,1.245c-0.249,0.621-0.61,1.185-1.06,1.665c-0.982,1.052-2.379,1.711-3.932,1.711
			s-2.951-0.659-3.933-1.711c-0.448-0.48-0.81-1.044-1.06-1.665c-0.158-0.394-0.271-0.812-0.332-1.245h-1.734H237h-1.735
			c-0.061,0.434-0.174,0.852-0.333,1.245c-0.25,0.621-0.611,1.185-1.06,1.665c-0.982,1.052-2.379,1.711-3.932,1.711
			c-1.552,0-2.95-0.659-3.932-1.711c-0.449-0.48-0.811-1.044-1.06-1.665c-0.159-0.394-0.272-0.812-0.333-1.245h-1.734h-3.551
			c-0.255,0-0.462-0.207-0.462-0.462v-2.593c0-0.635,0.515-1.149,1.15-1.149h0.875v-5.128c0-0.798,0.647-1.444,1.445-1.444h4.656
			l7.091-4.122c0.381-0.262,0.833-0.402,1.296-0.402H247.604 M240.671,98.979h10.721c0.072,0,0.136-0.046,0.16-0.114
			c0.024-0.067,0.003-0.144-0.054-0.188l-4.429-3.546c-0.193-0.155-0.435-0.239-0.683-0.239h-4.451L240.671,98.979 M233.904,98.979
			h4.318l1.266-4.088h-2.219c-0.656,0-1.298,0.185-1.854,0.532l-2.146,1.341c-0.453,0.283-0.664,0.833-0.517,1.347
			S233.37,98.979,233.904,98.979 M240.479,101.607h2.565v-0.717h-2.565V101.607 M222.362,103.546h1.566h0.742
			c0,0,0.136-0.437-0.037-0.94c-0.189-0.552-0.75-1.187-2.271-1.416V103.546 M256.035,109.714c0.483,0,0.934-0.145,1.31-0.392
			c0.446-0.292,0.788-0.729,0.96-1.245c0.08-0.238,0.125-0.493,0.125-0.758c0-1.322-1.072-2.395-2.395-2.395
			s-2.395,1.072-2.395,2.395c0,0.265,0.045,0.52,0.123,0.758c0.173,0.516,0.515,0.953,0.961,1.245
			C255.102,109.569,255.551,109.714,256.035,109.714 M229.941,109.714c0.484,0,0.934-0.145,1.31-0.392
			c0.446-0.292,0.789-0.729,0.96-1.245c0.08-0.238,0.124-0.493,0.124-0.758c0-1.322-1.072-2.395-2.395-2.395
			c-1.322,0-2.395,1.072-2.395,2.395c0,0.265,0.045,0.52,0.124,0.758c0.172,0.516,0.514,0.953,0.96,1.245
			C229.008,109.569,229.457,109.714,229.941,109.714 M247.604,91.776h-12.221c-0.654,0-1.286,0.192-1.829,0.556l-6.827,3.969h-4.387
			c-1.348,0-2.445,1.097-2.445,2.444v4.132c-1.127,0.064-2.025,1.002-2.025,2.146v2.593c0,0.807,0.656,1.462,1.462,1.462h3.551
			h0.927c0.06,0.21,0.131,0.417,0.213,0.619c0.293,0.731,0.716,1.396,1.256,1.974c1.202,1.289,2.902,2.028,4.662,2.028
			c1.76,0,3.459-0.739,4.663-2.028c0.54-0.578,0.962-1.242,1.256-1.975c0.082-0.202,0.152-0.408,0.212-0.618H237h11.977h0.927
			c0.06,0.209,0.131,0.416,0.212,0.618c0.295,0.732,0.718,1.396,1.256,1.975c1.203,1.289,2.903,2.028,4.664,2.028
			c1.759,0,3.458-0.739,4.662-2.028c0.54-0.577,0.963-1.242,1.257-1.976c0.081-0.201,0.152-0.408,0.212-0.617h0.928h2.648
			c0.897,0,1.627-0.73,1.627-1.628v-1.227c0-0.652-0.437-1.205-1.033-1.381v-2.791c0-1.101-0.741-2.071-1.803-2.359l-8.475-2.702
			l-6.383-4.479C249.091,92.037,248.357,91.776,247.604,91.776L247.604,91.776z M242.673,95.891h3.714
			c0.021,0,0.041,0.007,0.057,0.019l2.584,2.069h-7L242.673,95.891L242.673,95.891z M233.904,97.979
			c-0.088,0-0.167-0.06-0.191-0.145c-0.024-0.084,0.011-0.176,0.086-0.223l2.146-1.341c0.398-0.248,0.856-0.38,1.325-0.38h0.862
			l-0.646,2.088H233.904L233.904,97.979z M256.035,108.714c-0.271,0-0.535-0.079-0.763-0.228c-0.262-0.172-0.461-0.43-0.561-0.728
			c-0.047-0.142-0.071-0.292-0.071-0.439c0-0.769,0.626-1.395,1.395-1.395s1.395,0.626,1.395,1.395c0,0.147-0.024,0.295-0.073,0.439
			c-0.1,0.298-0.298,0.556-0.56,0.727C256.569,108.636,256.307,108.714,256.035,108.714L256.035,108.714z M229.941,108.714
			c-0.271,0-0.534-0.079-0.762-0.228c-0.262-0.172-0.461-0.43-0.56-0.727c-0.048-0.144-0.072-0.293-0.072-0.44
			c0-0.769,0.625-1.395,1.395-1.395s1.395,0.626,1.395,1.395c0,0.148-0.024,0.297-0.073,0.441c-0.099,0.296-0.297,0.554-0.56,0.725
			C230.476,108.635,230.212,108.714,229.941,108.714L229.941,108.714z"/>
	</g>
</g>
<g>
	<g>
		<path fill="#174A7D" d="M271.02,130.23c-1.621,0-3.188-0.681-4.298-1.868c-0.495-0.532-0.885-1.146-1.158-1.822
			c-0.123-0.303-0.218-0.613-0.286-0.931h-1.316h-11.976h-1.316c-0.07,0.323-0.168,0.637-0.29,0.933
			c-0.27,0.674-0.659,1.288-1.157,1.82c-1.108,1.188-2.676,1.868-4.297,1.868s-3.188-0.681-4.295-1.868
			c-0.497-0.53-0.888-1.145-1.161-1.822c-0.122-0.303-0.218-0.613-0.286-0.931h-1.315h-3.552c-0.531,0-0.962-0.431-0.962-0.962
			v-2.593c0-0.908,0.74-1.648,1.65-1.648h0.375v-4.629c0-1.071,0.873-1.944,1.944-1.944h4.519l6.979-4.055
			c0.431-0.299,0.979-0.469,1.546-0.469h12.223c0.654,0,1.289,0.23,1.786,0.647l6.443,4.517l8.588,2.738
			c0.825,0.222,1.414,0.995,1.414,1.872v3.233h0.095c0.517,0,0.938,0.421,0.938,0.938v1.227c0,0.622-0.504,1.128-1.126,1.128h-2.649
			h-1.316c-0.07,0.317-0.165,0.63-0.286,0.931c-0.271,0.676-0.661,1.29-1.158,1.822C274.207,129.55,272.64,130.23,271.02,130.23
			L271.02,130.23z M271.02,122.456c-1.045,0-1.896,0.851-1.896,1.896c0,0.198,0.033,0.401,0.1,0.604
			c0.135,0.398,0.404,0.749,0.759,0.979c0.309,0.203,0.666,0.312,1.037,0.312s0.729-0.108,1.034-0.31
			c0.356-0.231,0.626-0.582,0.761-0.986c0.066-0.192,0.1-0.394,0.1-0.599C272.914,123.307,272.063,122.456,271.02,122.456
			L271.02,122.456z M244.925,122.456c-1.045,0-1.895,0.851-1.895,1.896c0,0.201,0.033,0.401,0.1,0.601
			c0.135,0.402,0.403,0.753,0.759,0.982c0.309,0.203,0.665,0.312,1.036,0.312s0.728-0.108,1.034-0.31
			c0.356-0.231,0.626-0.582,0.761-0.986c0.068-0.197,0.102-0.397,0.102-0.599C246.821,123.307,245.97,122.456,244.925,122.456
			L244.925,122.456z M237.846,120.079h1.067h0.288c-0.006-0.085-0.022-0.183-0.056-0.28c-0.179-0.521-0.729-0.807-1.3-0.964V120.079
			L237.846,120.079z M256.33,115.512h9.106l-3.696-2.96c-0.104-0.085-0.236-0.13-0.368-0.13h-4.086L256.33,115.512L256.33,115.512z
			 M252.255,112.422c-0.562,0-1.111,0.157-1.59,0.458l-2.146,1.341c-0.264,0.164-0.388,0.487-0.303,0.786
			c0.087,0.296,0.362,0.505,0.672,0.505h3.951l0.955-3.09H252.255L252.255,112.422z"/>
		<path fill="#FFFFFF" d="M262.588,109.809c0.537,0,1.056,0.188,1.467,0.531l6.539,4.588l8.661,2.761
			c0.629,0.171,1.065,0.742,1.065,1.395v3.733h0.596c0.242,0,0.438,0.196,0.438,0.438v1.227c0,0.347-0.281,0.628-0.627,0.628h-2.648
			h-1.734c-0.062,0.434-0.175,0.852-0.333,1.245c-0.249,0.621-0.61,1.185-1.06,1.665c-0.982,1.052-2.379,1.711-3.932,1.711
			s-2.951-0.659-3.933-1.711c-0.448-0.48-0.81-1.044-1.06-1.665c-0.158-0.394-0.271-0.812-0.332-1.245h-1.734h-11.977h-1.734
			c-0.062,0.434-0.175,0.852-0.333,1.245c-0.249,0.621-0.61,1.185-1.06,1.665c-0.982,1.052-2.379,1.711-3.933,1.711
			c-1.552,0-2.949-0.659-3.931-1.711c-0.449-0.48-0.811-1.044-1.061-1.665c-0.158-0.394-0.271-0.812-0.332-1.245h-1.734h-3.552
			c-0.255,0-0.462-0.207-0.462-0.462v-2.593c0-0.635,0.515-1.149,1.15-1.149h0.875v-5.128c0-0.798,0.647-1.444,1.446-1.444h4.655
			l7.091-4.122c0.382-0.262,0.834-0.402,1.297-0.402H262.588 M255.655,116.011h10.721c0.072,0,0.136-0.046,0.16-0.114
			c0.024-0.067,0.003-0.144-0.054-0.188l-4.429-3.546c-0.193-0.155-0.435-0.239-0.683-0.239h-4.451L255.655,116.011
			 M248.889,116.011h4.318l1.266-4.088h-2.219c-0.656,0-1.299,0.185-1.854,0.532l-2.146,1.341c-0.453,0.283-0.664,0.833-0.518,1.347
			C247.885,115.656,248.354,116.011,248.889,116.011 M255.463,118.64h2.565v-0.717h-2.565V118.64 M237.346,120.578h1.566h0.742
			c0,0,0.137-0.437-0.037-0.94c-0.188-0.552-0.749-1.187-2.271-1.416V120.578 M271.02,126.746c0.483,0,0.934-0.145,1.31-0.392
			c0.446-0.292,0.788-0.729,0.96-1.245c0.08-0.238,0.125-0.493,0.125-0.758c0-1.322-1.072-2.395-2.395-2.395
			s-2.395,1.072-2.395,2.395c0,0.265,0.045,0.52,0.123,0.758c0.173,0.516,0.515,0.953,0.961,1.245
			C270.086,126.602,270.535,126.746,271.02,126.746 M244.925,126.746c0.484,0,0.934-0.145,1.311-0.392
			c0.446-0.292,0.788-0.729,0.96-1.245c0.08-0.238,0.125-0.493,0.125-0.758c0-1.322-1.072-2.395-2.396-2.395
			c-1.322,0-2.395,1.072-2.395,2.395c0,0.265,0.045,0.52,0.125,0.758c0.172,0.516,0.514,0.953,0.96,1.245
			C243.992,126.602,244.441,126.746,244.925,126.746 M262.588,108.809h-12.221c-0.653,0-1.284,0.191-1.828,0.555l-6.829,3.97h-4.386
			c-1.349,0-2.446,1.097-2.446,2.444v4.132c-1.127,0.064-2.025,1.002-2.025,2.146v2.593c0,0.806,0.656,1.462,1.462,1.462h3.552
			h0.927c0.06,0.21,0.131,0.417,0.213,0.619c0.293,0.731,0.716,1.396,1.257,1.974c1.203,1.289,2.902,2.028,4.661,2.028
			c1.76,0,3.459-0.739,4.663-2.028c0.54-0.578,0.963-1.242,1.258-1.976c0.08-0.201,0.151-0.408,0.211-0.617h0.928h11.977h0.927
			c0.06,0.209,0.131,0.416,0.212,0.618c0.295,0.732,0.718,1.396,1.256,1.975c1.203,1.289,2.903,2.028,4.664,2.028
			c1.759,0,3.458-0.739,4.662-2.028c0.54-0.578,0.963-1.242,1.257-1.976c0.081-0.201,0.152-0.408,0.212-0.617h0.928h2.648
			c0.897,0,1.627-0.73,1.627-1.628v-1.227c0-0.652-0.437-1.205-1.033-1.381v-2.791c0-1.101-0.741-2.071-1.803-2.359l-8.475-2.702
			l-6.383-4.479C264.075,109.069,263.342,108.809,262.588,108.809L262.588,108.809z M257.657,112.923h3.714
			c0.021,0,0.041,0.007,0.057,0.019l2.584,2.069h-7L257.657,112.923L257.657,112.923z M248.889,115.011
			c-0.088,0-0.167-0.06-0.191-0.146c-0.023-0.082,0.012-0.175,0.087-0.222l2.146-1.341c0.397-0.248,0.855-0.38,1.324-0.38h0.862
			l-0.646,2.088H248.889L248.889,115.011z M271.02,125.746c-0.271,0-0.535-0.079-0.763-0.228c-0.262-0.172-0.461-0.43-0.561-0.727
			c-0.047-0.143-0.071-0.293-0.071-0.44c0-0.769,0.626-1.395,1.395-1.395s1.395,0.626,1.395,1.395c0,0.147-0.024,0.295-0.073,0.439
			c-0.1,0.298-0.298,0.556-0.56,0.727C271.554,125.668,271.291,125.746,271.02,125.746L271.02,125.746z M244.925,125.746
			c-0.271,0-0.534-0.079-0.761-0.228c-0.264-0.172-0.461-0.43-0.561-0.726c-0.049-0.146-0.073-0.294-0.073-0.441
			c0-0.769,0.626-1.395,1.395-1.395c0.77,0,1.396,0.626,1.396,1.395c0,0.147-0.024,0.295-0.073,0.439
			c-0.1,0.298-0.298,0.556-0.56,0.727C245.46,125.667,245.196,125.746,244.925,125.746L244.925,125.746z"/>
	</g>
</g>
<g>
	<g>
		<path fill="#174A7D" d="M382.694,56.604c-1.627,0-3.192-0.683-4.298-1.87c-0.494-0.528-0.884-1.139-1.158-1.819
			c-0.121-0.304-0.218-0.616-0.286-0.932h-1.317h-11.976h-1.316c-0.069,0.318-0.166,0.632-0.289,0.934
			c-0.271,0.676-0.659,1.29-1.158,1.817c-1.122,1.206-2.648,1.87-4.296,1.87c-1.622,0-3.19-0.683-4.298-1.87
			c-0.496-0.528-0.886-1.141-1.158-1.819c-0.121-0.302-0.218-0.614-0.286-0.932h-1.317h-3.551c-0.531,0-0.963-0.432-0.963-0.961
			v-2.594c0-0.909,0.741-1.649,1.652-1.649h0.374v-4.627c0-1.072,0.873-1.945,1.945-1.945h4.524l6.972-4.053
			c0.436-0.302,0.979-0.471,1.547-0.471h12.223c0.653,0,1.287,0.23,1.786,0.649l6.443,4.516l8.59,2.738
			c0.821,0.222,1.411,0.994,1.411,1.872v3.232h0.097c0.518,0,0.938,0.421,0.938,0.938v1.227c0,0.622-0.506,1.128-1.128,1.128h-2.648
			h-1.314c-0.069,0.318-0.166,0.632-0.289,0.934c-0.269,0.672-0.657,1.283-1.158,1.817C385.868,55.94,384.342,56.604,382.694,56.604
			L382.694,56.604z M382.694,48.833c-1.045,0-1.895,0.848-1.895,1.893c0,0.199,0.033,0.4,0.099,0.603
			c0.134,0.397,0.403,0.75,0.76,0.982c0.31,0.203,0.668,0.31,1.036,0.31s0.727-0.106,1.034-0.308
			c0.358-0.234,0.628-0.584,0.76-0.986c0.067-0.201,0.101-0.402,0.101-0.601C384.589,49.68,383.739,48.833,382.694,48.833
			L382.694,48.833z M356.6,48.833c-1.045,0-1.895,0.848-1.895,1.893c0,0.199,0.033,0.4,0.101,0.599
			c0.132,0.402,0.402,0.754,0.758,0.986c0.31,0.203,0.668,0.31,1.036,0.31c0.369,0,0.727-0.106,1.036-0.31
			c0.356-0.232,0.626-0.584,0.758-0.984c0.067-0.197,0.101-0.397,0.101-0.601C358.494,49.68,357.645,48.833,356.6,48.833
			L356.6,48.833z M349.521,46.452h1.065h0.289c-0.007-0.086-0.023-0.18-0.057-0.279c-0.178-0.519-0.729-0.806-1.298-0.963V46.452
			L349.521,46.452z M368.008,41.884h9.101l-3.692-2.958c-0.105-0.082-0.235-0.127-0.371-0.127h-4.082L368.008,41.884L368.008,41.884
			z M363.93,38.798c-0.563,0-1.114,0.157-1.589,0.454l-2.148,1.342c-0.26,0.163-0.385,0.488-0.3,0.787
			c0.086,0.295,0.36,0.502,0.67,0.502h3.951l0.955-3.086H363.93L363.93,38.798z"/>
		<path fill="#FFFFFF" d="M374.263,36.183c0.537,0,1.056,0.188,1.467,0.531l6.539,4.588l8.661,2.761
			c0.629,0.171,1.065,0.742,1.065,1.395v3.733h0.596c0.242,0,0.438,0.196,0.438,0.438v1.227c0,0.347-0.281,0.628-0.627,0.628h-2.648
			h-1.734c-0.062,0.434-0.175,0.852-0.333,1.245c-0.249,0.621-0.61,1.185-1.06,1.665c-0.982,1.052-2.379,1.711-3.932,1.711
			s-2.951-0.659-3.933-1.711c-0.448-0.48-0.81-1.044-1.06-1.665c-0.158-0.394-0.271-0.812-0.332-1.245h-1.734h-11.977h-1.734
			c-0.062,0.434-0.175,0.852-0.333,1.245c-0.249,0.621-0.61,1.185-1.06,1.665c-0.982,1.052-2.379,1.711-3.933,1.711
			c-1.552,0-2.949-0.659-3.932-1.711c-0.449-0.48-0.811-1.044-1.059-1.665c-0.159-0.394-0.272-0.812-0.334-1.245h-1.734h-3.551
			c-0.256,0-0.463-0.207-0.463-0.462v-2.593c0-0.635,0.516-1.149,1.15-1.149h0.875v-5.128c0-0.798,0.647-1.444,1.445-1.444h4.656
			l7.091-4.122c0.382-0.262,0.834-0.402,1.297-0.402H374.263 M367.33,42.385h10.721c0.072,0,0.136-0.046,0.16-0.114
			c0.024-0.067,0.003-0.144-0.054-0.188l-4.429-3.546c-0.193-0.155-0.435-0.239-0.683-0.239h-4.451L367.33,42.385 M360.563,42.385
			h4.318l1.266-4.088h-2.219c-0.656,0-1.299,0.185-1.854,0.532l-2.146,1.341c-0.453,0.283-0.664,0.833-0.518,1.347
			C359.56,42.03,360.029,42.385,360.563,42.385 M367.138,45.014h2.565v-0.717h-2.565V45.014 M349.021,46.952h1.566h0.742
			c0,0,0.135-0.437-0.037-0.94c-0.189-0.552-0.75-1.187-2.271-1.416V46.952 M382.694,53.12c0.483,0,0.934-0.145,1.31-0.392
			c0.446-0.292,0.788-0.729,0.96-1.245c0.08-0.238,0.125-0.493,0.125-0.758c0-1.322-1.072-2.395-2.395-2.395
			s-2.395,1.072-2.395,2.395c0,0.265,0.045,0.52,0.123,0.758c0.173,0.516,0.515,0.953,0.961,1.245
			C381.761,52.976,382.21,53.12,382.694,53.12 M356.6,53.12c0.484,0,0.934-0.145,1.311-0.392c0.446-0.292,0.788-0.729,0.96-1.245
			c0.08-0.238,0.125-0.493,0.125-0.758c0-1.322-1.072-2.395-2.396-2.395c-1.322,0-2.395,1.072-2.395,2.395
			c0,0.265,0.045,0.52,0.125,0.758c0.172,0.516,0.514,0.953,0.96,1.245C355.667,52.976,356.116,53.12,356.6,53.12 M374.263,35.183
			h-12.221c-0.653,0-1.284,0.191-1.828,0.554l-6.829,3.97h-4.387c-1.349,0-2.445,1.097-2.445,2.444v4.131
			c-1.128,0.065-2.025,1.003-2.025,2.146v2.593c0,0.806,0.656,1.462,1.463,1.462h3.551h0.928c0.061,0.21,0.132,0.417,0.214,0.62
			c0.291,0.729,0.714,1.394,1.255,1.973c1.203,1.289,2.903,2.028,4.662,2.028c1.76,0,3.459-0.739,4.663-2.028
			c0.54-0.578,0.963-1.242,1.257-1.976c0.081-0.202,0.152-0.408,0.212-0.617h0.928h11.977h0.927c0.06,0.209,0.131,0.416,0.212,0.618
			c0.295,0.732,0.717,1.396,1.256,1.974c1.203,1.29,2.903,2.029,4.664,2.029c1.759,0,3.458-0.739,4.662-2.028
			c0.54-0.578,0.963-1.242,1.257-1.976c0.082-0.202,0.152-0.408,0.212-0.617h0.928h2.648c0.897,0,1.627-0.73,1.627-1.628v-1.227
			c0-0.653-0.437-1.206-1.033-1.381v-2.791c0-1.101-0.741-2.071-1.804-2.359l-8.474-2.703l-6.384-4.479
			C375.75,35.443,375.016,35.183,374.263,35.183L374.263,35.183z M369.332,39.297h3.714c0.021,0,0.041,0.007,0.057,0.019
			l2.584,2.069h-7L369.332,39.297L369.332,39.297z M360.563,41.385c-0.088,0-0.167-0.06-0.191-0.146
			c-0.023-0.082,0.012-0.174,0.087-0.221l2.146-1.341c0.397-0.249,0.855-0.38,1.324-0.38h0.862l-0.646,2.088H360.563L360.563,41.385
			z M382.694,52.12c-0.271,0-0.535-0.079-0.763-0.228c-0.262-0.171-0.461-0.429-0.561-0.727c-0.047-0.142-0.071-0.292-0.071-0.44
			c0-0.769,0.626-1.395,1.395-1.395s1.395,0.625,1.395,1.395c0,0.147-0.024,0.295-0.073,0.439c-0.1,0.298-0.298,0.556-0.56,0.727
			C383.229,52.042,382.966,52.12,382.694,52.12L382.694,52.12z M356.6,52.12c-0.271,0-0.534-0.079-0.762-0.228
			c-0.262-0.171-0.46-0.429-0.56-0.725c-0.049-0.146-0.073-0.294-0.073-0.441c0-0.769,0.626-1.395,1.395-1.395
			c0.77,0,1.396,0.625,1.396,1.395c0,0.147-0.024,0.295-0.073,0.439c-0.1,0.298-0.298,0.556-0.56,0.727
			C357.135,52.041,356.871,52.12,356.6,52.12L356.6,52.12z"/>
	</g>
</g>
<g>
	<g>
		<path fill="#174A7D" d="M398.007,74.196c-1.623,0-3.188-0.679-4.297-1.866c-0.497-0.53-0.886-1.144-1.158-1.82
			c-0.121-0.303-0.218-0.615-0.287-0.934h-1.317h-11.977h-1.317c-0.068,0.316-0.163,0.629-0.285,0.931
			c-0.274,0.68-0.662,1.29-1.155,1.821c-1.111,1.189-2.677,1.868-4.3,1.868s-3.188-0.679-4.298-1.866
			c-0.497-0.53-0.885-1.144-1.157-1.82c-0.122-0.303-0.219-0.615-0.288-0.934h-1.316h-3.552c-0.53,0-0.96-0.43-0.96-0.961v-2.592
			c0-0.911,0.738-1.649,1.648-1.649h0.375v-4.629c0-1.072,0.873-1.944,1.944-1.944h4.521l6.976-4.054
			c0.437-0.302,0.981-0.47,1.548-0.47h12.222c0.65,0,1.286,0.229,1.785,0.646l6.447,4.52l8.585,2.737
			c0.824,0.224,1.414,0.996,1.414,1.871v3.234h0.097c0.518,0,0.938,0.42,0.938,0.938v1.228c0,0.62-0.506,1.126-1.127,1.126h-2.648
			h-1.317c-0.069,0.318-0.166,0.631-0.287,0.934c-0.269,0.671-0.657,1.285-1.158,1.82C401.193,73.518,399.629,74.196,398.007,74.196
			L398.007,74.196z M398.007,66.424c-1.044,0-1.896,0.852-1.896,1.896c0,0.199,0.033,0.401,0.101,0.603
			c0.132,0.4,0.402,0.751,0.757,0.981c0.309,0.203,0.667,0.311,1.038,0.311c0.372,0,0.729-0.107,1.034-0.309
			c0.356-0.232,0.628-0.583,0.762-0.985c0.065-0.195,0.099-0.396,0.099-0.601C399.901,67.275,399.052,66.424,398.007,66.424
			L398.007,66.424z M371.913,66.424c-1.045,0-1.896,0.852-1.896,1.896c0,0.206,0.034,0.405,0.099,0.594
			c0.137,0.409,0.405,0.76,0.76,0.99c0.309,0.203,0.667,0.311,1.038,0.311s0.728-0.107,1.034-0.309
			c0.358-0.234,0.629-0.585,0.764-0.985c0.062-0.195,0.096-0.396,0.096-0.601C373.807,67.275,372.958,66.424,371.913,66.424
			L371.913,66.424z M364.834,64.047h1.065h0.288c-0.007-0.085-0.023-0.182-0.057-0.281c-0.177-0.518-0.729-0.805-1.297-0.963V64.047
			L364.834,64.047z M383.321,59.479h9.104l-3.697-2.959c-0.105-0.084-0.235-0.13-0.369-0.13h-4.084L383.321,59.479L383.321,59.479z
			 M379.241,56.39c-0.562,0-1.111,0.159-1.588,0.457l-2.149,1.34c-0.263,0.164-0.384,0.486-0.3,0.787
			c0.086,0.295,0.36,0.505,0.671,0.505h3.952l0.954-3.089H379.241L379.241,56.39z"/>
		<path fill="#FFFFFF" d="M389.575,53.776c0.537,0,1.056,0.188,1.467,0.531l6.539,4.588l8.661,2.761
			c0.629,0.171,1.065,0.742,1.065,1.395v3.733h0.596c0.242,0,0.438,0.196,0.438,0.438v1.227c0,0.347-0.281,0.628-0.627,0.628h-2.648
			h-1.734c-0.062,0.434-0.175,0.852-0.333,1.245c-0.249,0.621-0.61,1.185-1.06,1.665c-0.982,1.052-2.379,1.711-3.932,1.711
			s-2.951-0.659-3.933-1.711c-0.448-0.48-0.81-1.044-1.06-1.665c-0.158-0.394-0.271-0.812-0.332-1.245h-1.734h-11.977h-1.735
			c-0.061,0.434-0.174,0.852-0.332,1.245c-0.25,0.621-0.611,1.185-1.06,1.665c-0.981,1.052-2.38,1.711-3.933,1.711
			c-1.552,0-2.949-0.659-3.932-1.711c-0.449-0.48-0.811-1.044-1.059-1.665c-0.159-0.394-0.272-0.812-0.334-1.245h-1.734h-3.551
			c-0.256,0-0.463-0.207-0.463-0.462v-2.593c0-0.635,0.516-1.149,1.15-1.149h0.875v-5.128c0-0.798,0.647-1.444,1.445-1.444h4.656
			l7.092-4.122c0.381-0.262,0.832-0.402,1.295-0.402H389.575 M382.643,59.979h10.721c0.072,0,0.136-0.046,0.16-0.114
			c0.024-0.067,0.003-0.144-0.054-0.188l-4.429-3.546c-0.193-0.155-0.435-0.239-0.683-0.239h-4.451L382.643,59.979 M375.876,59.979
			h4.319l1.264-4.088h-2.218c-0.655,0-1.298,0.185-1.854,0.532l-2.146,1.341c-0.453,0.283-0.664,0.833-0.516,1.347
			C374.871,59.624,375.342,59.979,375.876,59.979 M382.451,62.607h2.564v-0.717h-2.564V62.607 M364.334,64.546h1.566h0.742
			c0,0,0.135-0.437-0.037-0.94c-0.189-0.552-0.75-1.187-2.271-1.416V64.546 M398.007,70.714c0.483,0,0.934-0.145,1.31-0.392
			c0.446-0.292,0.788-0.729,0.96-1.245c0.08-0.238,0.125-0.493,0.125-0.758c0-1.322-1.072-2.395-2.395-2.395
			s-2.395,1.072-2.395,2.395c0,0.265,0.045,0.52,0.123,0.758c0.173,0.516,0.515,0.953,0.961,1.245
			C397.073,70.569,397.522,70.714,398.007,70.714 M371.912,70.714c0.484,0,0.934-0.145,1.311-0.392
			c0.446-0.292,0.789-0.729,0.961-1.245c0.079-0.238,0.123-0.493,0.123-0.758c0-1.322-1.071-2.395-2.395-2.395
			c-1.322,0-2.395,1.072-2.395,2.395c0,0.265,0.045,0.52,0.125,0.758c0.172,0.516,0.514,0.953,0.96,1.245
			C370.979,70.569,371.429,70.714,371.912,70.714 M389.575,52.776h-12.222c-0.653,0-1.284,0.192-1.827,0.555l-6.829,3.969h-4.387
			c-1.349,0-2.445,1.097-2.445,2.444v4.131c-1.128,0.065-2.025,1.002-2.025,2.146v2.593c0,0.806,0.656,1.462,1.463,1.462h3.551
			h0.928c0.061,0.211,0.132,0.418,0.214,0.62c0.291,0.729,0.714,1.395,1.255,1.973c1.204,1.289,2.903,2.028,4.662,2.028
			c1.761,0,3.461-0.739,4.664-2.028c0.538-0.578,0.961-1.242,1.256-1.975c0.081-0.202,0.152-0.409,0.212-0.618h0.928h11.977h0.927
			c0.06,0.209,0.13,0.416,0.212,0.618c0.295,0.732,0.718,1.396,1.256,1.974c1.203,1.29,2.903,2.029,4.664,2.029
			c1.759,0,3.458-0.739,4.662-2.028c0.54-0.577,0.963-1.242,1.257-1.976c0.082-0.201,0.152-0.407,0.212-0.617h0.928h2.648
			c0.897,0,1.627-0.73,1.627-1.628v-1.227c0-0.652-0.437-1.205-1.033-1.381v-2.791c0-1.101-0.741-2.071-1.803-2.359l-8.475-2.702
			l-6.383-4.479C391.062,53.037,390.328,52.776,389.575,52.776L389.575,52.776z M384.645,56.891h3.714
			c0.021,0,0.041,0.007,0.057,0.019l2.584,2.069h-7L384.645,56.891L384.645,56.891z M375.876,58.979
			c-0.088,0-0.166-0.059-0.189-0.143c-0.025-0.087,0.01-0.178,0.084-0.225l2.146-1.34c0.397-0.249,0.856-0.38,1.324-0.38h0.862
			l-0.646,2.088H375.876L375.876,58.979z M398.007,69.714c-0.271,0-0.535-0.079-0.762-0.228c-0.263-0.172-0.462-0.43-0.562-0.728
			c-0.047-0.142-0.071-0.292-0.071-0.439c0-0.769,0.626-1.395,1.395-1.395s1.395,0.626,1.395,1.395c0,0.147-0.024,0.295-0.073,0.438
			c-0.1,0.299-0.298,0.557-0.56,0.728C398.541,69.635,398.278,69.714,398.007,69.714L398.007,69.714z M371.912,69.714
			c-0.271,0-0.534-0.079-0.761-0.228c-0.263-0.172-0.461-0.43-0.56-0.726c-0.05-0.146-0.074-0.294-0.074-0.441
			c0-0.769,0.626-1.395,1.395-1.395s1.395,0.626,1.395,1.395c0,0.149-0.024,0.299-0.072,0.442c-0.098,0.295-0.297,0.552-0.56,0.724
			C372.447,69.635,372.184,69.714,371.912,69.714L371.912,69.714z"/>
	</g>
</g>
<g>
	<g>
		<path fill="#174A7D" d="M412.992,91.23c-1.622,0-3.189-0.681-4.299-1.87c-0.498-0.533-0.887-1.147-1.158-1.819
			c-0.122-0.301-0.219-0.613-0.288-0.931h-1.315h-11.977h-1.315c-0.069,0.319-0.166,0.632-0.29,0.933
			c-0.267,0.67-0.655,1.284-1.155,1.817c-1.109,1.189-2.675,1.87-4.297,1.87c-1.62,0-3.188-0.681-4.299-1.868
			c-0.498-0.538-0.887-1.151-1.156-1.823c-0.122-0.299-0.219-0.609-0.288-0.929h-1.317h-3.551c-0.531,0-0.962-0.431-0.962-0.963
			v-2.593c0-0.91,0.741-1.649,1.651-1.649h0.374v-4.629c0-1.071,0.872-1.943,1.945-1.943h4.52l6.977-4.056
			c0.437-0.301,0.983-0.469,1.549-0.469h12.22c0.649,0,1.284,0.229,1.786,0.647l6.444,4.518l8.588,2.738
			c0.824,0.223,1.414,0.995,1.414,1.872v3.231h0.095c0.517,0,0.939,0.422,0.939,0.939v1.227c0,0.622-0.507,1.129-1.129,1.129h-2.647
			h-1.317c-0.069,0.317-0.166,0.628-0.285,0.931c-0.271,0.672-0.66,1.286-1.158,1.819C416.161,90.566,414.636,91.23,412.992,91.23
			L412.992,91.23z M412.992,83.456c-1.044,0-1.896,0.851-1.896,1.896c0,0.201,0.034,0.405,0.099,0.601
			c0.135,0.401,0.403,0.752,0.759,0.983c0.312,0.204,0.668,0.312,1.038,0.312c0.368,0,0.725-0.107,1.034-0.312
			c0.356-0.233,0.626-0.582,0.76-0.985c0.065-0.193,0.1-0.397,0.1-0.599C414.886,84.307,414.036,83.456,412.992,83.456
			L412.992,83.456z M386.897,83.456c-1.044,0-1.896,0.851-1.896,1.896c0,0.201,0.034,0.405,0.099,0.601
			c0.135,0.401,0.403,0.75,0.759,0.983c0.311,0.204,0.67,0.312,1.038,0.312c0.367,0,0.725-0.107,1.033-0.312
			c0.357-0.231,0.627-0.582,0.761-0.985c0.067-0.197,0.102-0.401,0.102-0.599C388.793,84.307,387.941,83.456,386.897,83.456
			L386.897,83.456z M379.818,81.077h1.067h0.288c-0.007-0.086-0.023-0.181-0.057-0.277c-0.179-0.519-0.731-0.807-1.299-0.964V81.077
			L379.818,81.077z M398.303,76.512h9.108l-3.698-2.959c-0.103-0.084-0.235-0.13-0.369-0.13h-4.085L398.303,76.512L398.303,76.512z
			 M394.227,73.423c-0.562,0-1.111,0.157-1.591,0.456l-2.146,1.341c-0.263,0.163-0.387,0.487-0.301,0.783
			c0.085,0.301,0.362,0.509,0.671,0.509h3.95l0.958-3.089H394.227L394.227,73.423z"/>
		<path fill="#FFFFFF" d="M404.56,70.809c0.537,0,1.056,0.188,1.467,0.531l6.539,4.588l8.661,2.761
			c0.629,0.171,1.065,0.742,1.065,1.395v3.733h0.596c0.242,0,0.438,0.196,0.438,0.438v1.227c0,0.347-0.281,0.628-0.627,0.628h-2.648
			h-1.734c-0.062,0.434-0.175,0.852-0.333,1.245c-0.249,0.621-0.61,1.185-1.06,1.665c-0.982,1.052-2.379,1.711-3.932,1.711
			s-2.951-0.659-3.933-1.711c-0.448-0.48-0.81-1.044-1.06-1.665c-0.158-0.394-0.271-0.812-0.332-1.245h-1.734h-11.977h-1.734
			c-0.062,0.434-0.175,0.852-0.333,1.245c-0.249,0.621-0.61,1.185-1.06,1.665c-0.982,1.052-2.379,1.711-3.933,1.711
			c-1.552,0-2.949-0.659-3.932-1.711c-0.449-0.48-0.811-1.044-1.059-1.665c-0.159-0.394-0.272-0.812-0.334-1.245h-1.734h-3.551
			c-0.256,0-0.463-0.207-0.463-0.462v-2.593c0-0.635,0.516-1.149,1.15-1.149h0.875v-5.128c0-0.798,0.647-1.444,1.445-1.444h4.656
			l7.091-4.122c0.382-0.262,0.834-0.402,1.297-0.402H404.56 M397.627,77.011h10.721c0.072,0,0.136-0.046,0.16-0.114
			c0.024-0.067,0.003-0.144-0.054-0.188l-4.429-3.546c-0.193-0.155-0.435-0.239-0.683-0.239h-4.451L397.627,77.011 M390.86,77.011
			h4.318l1.266-4.088h-2.219c-0.656,0-1.299,0.185-1.854,0.532l-2.146,1.341c-0.453,0.283-0.664,0.833-0.518,1.347
			C389.856,76.656,390.326,77.011,390.86,77.011 M397.435,79.64H400v-0.717h-2.565V79.64 M379.318,81.578h1.566h0.742
			c0,0,0.135-0.437-0.037-0.94c-0.189-0.552-0.75-1.187-2.271-1.416V81.578 M412.991,87.746c0.483,0,0.934-0.145,1.31-0.392
			c0.446-0.292,0.788-0.729,0.96-1.245c0.08-0.238,0.125-0.493,0.125-0.758c0-1.322-1.072-2.395-2.395-2.395
			s-2.395,1.072-2.395,2.395c0,0.265,0.045,0.52,0.123,0.758c0.173,0.516,0.515,0.953,0.961,1.245
			C412.058,87.602,412.507,87.746,412.991,87.746 M386.896,87.746c0.484,0,0.934-0.145,1.311-0.392
			c0.446-0.292,0.788-0.729,0.96-1.245c0.08-0.238,0.125-0.493,0.125-0.758c0-1.322-1.072-2.395-2.396-2.395
			c-1.322,0-2.395,1.072-2.395,2.395c0,0.265,0.045,0.52,0.125,0.758c0.172,0.516,0.514,0.953,0.96,1.245
			C385.964,87.602,386.413,87.746,386.896,87.746 M404.56,69.809h-12.221c-0.653,0-1.285,0.191-1.829,0.555l-6.828,3.97h-4.387
			c-1.349,0-2.445,1.097-2.445,2.444v4.132c-1.128,0.064-2.025,1.002-2.025,2.146v2.593c0,0.806,0.656,1.462,1.463,1.462h3.551
			h0.928c0.061,0.211,0.132,0.418,0.214,0.62c0.291,0.729,0.714,1.395,1.255,1.973c1.204,1.289,2.903,2.028,4.662,2.028
			c1.76,0,3.459-0.739,4.663-2.028c0.54-0.577,0.963-1.242,1.257-1.976c0.081-0.201,0.152-0.408,0.212-0.617h0.928h11.977h0.927
			c0.06,0.209,0.131,0.416,0.212,0.618c0.295,0.732,0.718,1.396,1.256,1.974c1.203,1.29,2.903,2.029,4.664,2.029
			c1.759,0,3.458-0.739,4.662-2.028c0.54-0.577,0.963-1.242,1.257-1.976c0.081-0.201,0.152-0.408,0.212-0.617h0.928h2.648
			c0.897,0,1.627-0.73,1.627-1.628v-1.227c0-0.653-0.437-1.205-1.033-1.381v-2.791c0-1.101-0.741-2.071-1.804-2.359l-8.474-2.702
			l-6.383-4.478C406.047,70.069,405.313,69.809,404.56,69.809L404.56,69.809z M399.629,73.923h3.714
			c0.021,0,0.041,0.007,0.057,0.019l2.584,2.069h-7L399.629,73.923L399.629,73.923z M390.86,76.011c-0.088,0-0.167-0.06-0.191-0.146
			c-0.023-0.082,0.012-0.175,0.087-0.222l2.146-1.341c0.397-0.248,0.855-0.38,1.324-0.38h0.862l-0.646,2.088H390.86L390.86,76.011z
			 M412.991,86.746c-0.271,0-0.535-0.079-0.763-0.228c-0.262-0.172-0.461-0.43-0.561-0.727c-0.047-0.143-0.071-0.293-0.071-0.44
			c0-0.769,0.626-1.395,1.395-1.395s1.395,0.626,1.395,1.395c0,0.147-0.024,0.295-0.073,0.439c-0.1,0.298-0.298,0.556-0.56,0.727
			C413.525,86.668,413.263,86.746,412.991,86.746L412.991,86.746z M386.896,86.746c-0.271,0-0.534-0.079-0.762-0.229
			c-0.262-0.171-0.461-0.429-0.56-0.725c-0.049-0.146-0.073-0.294-0.073-0.441c0-0.769,0.626-1.395,1.395-1.395
			c0.77,0,1.396,0.626,1.396,1.395c0,0.147-0.024,0.295-0.073,0.439c-0.1,0.298-0.298,0.556-0.56,0.727
			C387.432,86.667,387.168,86.746,386.896,86.746L386.896,86.746z"/>
	</g>
</g>
<g>
	<path fill-rule="evenodd" clip-rule="evenodd" fill="#174A7D" d="M407.104,36.07c-2.018,0-3.708-1.419-4.126-3.311h-0.407h-3.329
		h-0.427c-0.197,0.485-0.674,0.828-1.23,0.828h-7.449c-0.556,0-1.032-0.342-1.229-0.828h-0.427h-0.827h-0.426
		c-0.418,1.892-2.108,3.311-4.126,3.311s-3.708-1.419-4.128-3.311h-0.426h-2.897c-0.504,0-0.913-0.409-0.913-0.913v-8.692
		c0-0.592,0.088-1.205,0.265-1.822l1.764-6.194c0.124-0.447,0.537-0.762,1.008-0.762h8.64c0.504,0,0.913,0.41,0.913,0.914V27.62
		h0.655v-0.328V10.737v-0.5h0.499h28.146h0.5v0.5v16.555v0.5h-0.5h-2.812v0.328v4.14v0.5h-0.5h-1.675h-0.407
		C410.812,34.651,409.122,36.07,407.104,36.07L407.104,36.07z M407.104,30.275c-0.865,0-1.568,0.706-1.568,1.57
		c0,0.865,0.703,1.568,1.568,1.568s1.57-0.703,1.57-1.568C408.675,30.981,407.97,30.275,407.104,30.275L407.104,30.275z
		 M383.101,30.275c-0.865,0-1.57,0.706-1.57,1.57c0,0.865,0.705,1.568,1.57,1.568s1.57-0.703,1.57-1.568
		C384.671,30.981,383.966,30.275,383.101,30.275L383.101,30.275z M388.979,27.792v0.328v0.178c0.119-0.21,0.294-0.386,0.504-0.506
		H388.979L388.979,27.792z M398.238,27.792c0.21,0.12,0.384,0.294,0.504,0.504v-0.176v-0.328H398.238L398.238,27.792z
		 M376.729,21.825h6.286v-4.795h-4.917L376.729,21.825L376.729,21.825z"/>
	<path fill="#FFFFFF" d="M416.625,10.737v16.555H388.48V10.737H416.625 M386.411,14.875c0.229,0,0.414,0.185,0.414,0.414v12.83
		h1.655v4.139h-0.827v-0.414c0-2.507-2.046-4.553-4.553-4.553c-2.508,0-4.553,2.045-4.553,4.553v0.414h-2.897
		c-0.229,0-0.414-0.185-0.414-0.414v-8.691c0-0.567,0.09-1.14,0.246-1.686l1.762-6.194c0.066-0.235,0.282-0.398,0.527-0.398H386.411
		 M376.064,22.325h7.449v-5.794h-5.794L376.064,22.325 M382.687,25.637h0.827v-1.656h-0.827V25.637 M413.314,28.12v4.139h-1.676
		c0.014-0.136,0.02-0.274,0.02-0.414c0-1.537-0.769-2.899-1.94-3.725H413.314 M407.105,28.12c2.052,0,3.726,1.673,3.726,3.725
		s-1.674,3.725-3.726,3.725s-3.725-1.673-3.725-3.725S405.054,28.12,407.105,28.12 M407.105,33.914c1.14,0,2.069-0.929,2.069-2.069
		c0-1.14-0.93-2.069-2.069-2.069s-2.069,0.93-2.069,2.069C405.036,32.985,405.966,33.914,407.105,33.914 M404.493,28.12
		c-1.172,0.826-1.94,2.188-1.94,3.725c0,0.14,0.007,0.278,0.02,0.414h-3.33V28.12H404.493 M397.586,28.12
		c0.456,0,0.828,0.373,0.828,0.828v3.311c0,0.456-0.373,0.828-0.828,0.828h-7.449c-0.455,0-0.828-0.372-0.828-0.828v-3.311
		c0-0.455,0.373-0.828,0.828-0.828H397.586 M383.101,28.12c2.052,0,3.725,1.673,3.725,3.725s-1.673,3.725-3.725,3.725
		s-3.726-1.673-3.726-3.725S381.049,28.12,383.101,28.12 M383.101,33.914c1.14,0,2.069-0.929,2.069-2.069
		c0-1.14-0.93-2.069-2.069-2.069c-1.141,0-2.069,0.93-2.069,2.069C381.031,32.985,381.96,33.914,383.101,33.914 M417.625,9.737h-1
		H388.48h-1v1v3.628c-0.26-0.3-0.643-0.49-1.069-0.49h-8.64c-0.689,0-1.302,0.463-1.489,1.125l-1.762,6.193
		c-0.188,0.658-0.284,1.318-0.284,1.959v8.691c0,0.78,0.635,1.414,1.414,1.414h2.897h0.043c0.603,1.917,2.396,3.311,4.51,3.311
		s3.906-1.394,4.509-3.311h0.044h0.827h0.127c0.326,0.498,0.891,0.828,1.529,0.828h7.449c0.639,0,1.203-0.33,1.529-0.828h0.127h3.33
		h0.024c0.603,1.917,2.396,3.311,4.509,3.311s3.907-1.394,4.51-3.311h0.023h1.676h1v-1v-3.967h2.311h1v-1V10.737V9.737
		L417.625,9.737z M378.475,17.531h4.039v3.794h-5.123L378.475,17.531L378.475,17.531z M407.105,32.914
		c-0.59,0-1.069-0.479-1.069-1.069s0.479-1.069,1.069-1.069s1.069,0.479,1.069,1.069S407.695,32.914,407.105,32.914L407.105,32.914z
		 M383.101,32.914c-0.59,0-1.069-0.479-1.069-1.069s0.479-1.069,1.069-1.069s1.069,0.479,1.069,1.069S383.69,32.914,383.101,32.914
		L383.101,32.914z"/>
</g>
<g>
	<path fill-rule="evenodd" clip-rule="evenodd" fill="#174A7D" d="M426.459,54.326c-2.015,0-3.704-1.419-4.123-3.31h-0.408h-3.332
		h-0.425c-0.198,0.484-0.674,0.827-1.23,0.827h-7.45c-0.556,0-1.032-0.343-1.229-0.827h-0.426h-0.827h-0.428
		c-0.419,1.891-2.11,3.31-4.126,3.31c-2.015,0-3.706-1.419-4.125-3.31h-0.428h-2.897c-0.503,0-0.912-0.409-0.912-0.914v-8.691
		c0-0.592,0.089-1.205,0.266-1.824l1.761-6.193c0.128-0.449,0.543-0.76,1.009-0.76h8.638c0.506,0,0.914,0.408,0.914,0.914v12.33
		h0.657v-0.329V28.994v-0.499h0.499h28.146h0.499v0.499v16.554v0.5h-0.499h-2.812v0.328v4.14v0.5h-0.499h-1.677h-0.408
		C430.166,52.906,428.475,54.326,426.459,54.326L426.459,54.326z M426.459,48.533c-0.865,0-1.568,0.703-1.568,1.569
		c0,0.865,0.703,1.571,1.568,1.571c0.866,0,1.571-0.706,1.571-1.571C428.03,49.236,427.325,48.533,426.459,48.533L426.459,48.533z
		 M402.454,48.533c-0.865,0-1.568,0.703-1.568,1.569c0,0.865,0.703,1.571,1.568,1.571c0.866,0,1.571-0.706,1.571-1.571
		C404.025,49.236,403.32,48.533,402.454,48.533L402.454,48.533z M417.592,46.048c0.21,0.12,0.385,0.294,0.505,0.507v-0.179v-0.328
		H417.592L417.592,46.048z M408.334,46.048v0.328v0.179c0.12-0.213,0.295-0.388,0.506-0.507H408.334L408.334,46.048z M396.08,40.084
		h6.288v-4.797h-4.917L396.08,40.084L396.08,40.084z"/>
	<path fill="#FFFFFF" d="M435.979,28.994v16.555h-28.145V28.994H435.979 M405.766,33.133c0.229,0,0.414,0.185,0.414,0.414v12.83
		h1.655v4.139h-0.827v-0.414c0-2.507-2.046-4.553-4.553-4.553c-2.508,0-4.553,2.045-4.553,4.553v0.414h-2.897
		c-0.229,0-0.414-0.186-0.414-0.414v-8.691c0-0.567,0.09-1.14,0.246-1.686l1.762-6.194c0.066-0.235,0.282-0.398,0.527-0.398H405.766
		 M395.419,40.583h7.449v-5.794h-5.794L395.419,40.583 M402.041,43.894h0.827v-1.656h-0.827V43.894 M432.669,46.377v4.139h-1.676
		c0.014-0.136,0.02-0.273,0.02-0.414c0-1.537-0.769-2.899-1.94-3.725H432.669 M426.46,46.377c2.052,0,3.726,1.673,3.726,3.725
		s-1.674,3.725-3.726,3.725s-3.725-1.673-3.725-3.725S424.408,46.377,426.46,46.377 M426.46,52.171c1.14,0,2.069-0.929,2.069-2.069
		c0-1.14-0.93-2.069-2.069-2.069s-2.069,0.93-2.069,2.069C424.391,51.243,425.32,52.171,426.46,52.171 M423.848,46.377
		c-1.172,0.826-1.94,2.188-1.94,3.725c0,0.141,0.007,0.278,0.02,0.414h-3.33v-4.139H423.848 M416.94,46.377
		c0.456,0,0.828,0.373,0.828,0.828v3.311c0,0.456-0.373,0.828-0.828,0.828h-7.449c-0.455,0-0.828-0.372-0.828-0.828v-3.311
		c0-0.455,0.373-0.828,0.828-0.828H416.94 M402.455,46.377c2.052,0,3.725,1.673,3.725,3.725s-1.673,3.725-3.725,3.725
		s-3.726-1.673-3.726-3.725S400.403,46.377,402.455,46.377 M402.455,52.171c1.14,0,2.069-0.929,2.069-2.069
		c0-1.14-0.93-2.069-2.069-2.069c-1.141,0-2.069,0.93-2.069,2.069C400.386,51.243,401.314,52.171,402.455,52.171 M436.979,27.994h-1
		h-28.145h-1v1v3.628c-0.26-0.3-0.643-0.49-1.069-0.49h-8.64c-0.689,0-1.302,0.463-1.489,1.125l-1.762,6.193
		c-0.188,0.659-0.284,1.318-0.284,1.959v8.691c0,0.78,0.635,1.414,1.414,1.414h2.897h0.043c0.603,1.917,2.396,3.311,4.51,3.311
		s3.906-1.394,4.509-3.311h0.044h0.827h0.127c0.326,0.499,0.89,0.828,1.529,0.828h7.449c0.64,0,1.203-0.33,1.529-0.828h0.127h3.33
		h0.024c0.603,1.917,2.396,3.311,4.509,3.311s3.907-1.394,4.51-3.311h0.023h1.676h1v-1v-3.967h2.311h1v-1V28.994V27.994
		L436.979,27.994z M397.829,35.788h4.039v3.794h-5.124L397.829,35.788L397.829,35.788z M426.46,51.171
		c-0.59,0-1.069-0.48-1.069-1.069s0.479-1.069,1.069-1.069s1.069,0.48,1.069,1.069S427.05,51.171,426.46,51.171L426.46,51.171z
		 M402.455,51.171c-0.59,0-1.069-0.48-1.069-1.069s0.479-1.069,1.069-1.069s1.069,0.48,1.069,1.069S403.045,51.171,402.455,51.171
		L402.455,51.171z"/>
</g>
<g>
	<path fill-rule="evenodd" clip-rule="evenodd" fill="#174A7D" d="M445.396,73.696c-2.015,0-3.705-1.42-4.125-3.312h-0.408h-3.329
		h-0.425c-0.198,0.485-0.676,0.828-1.231,0.828h-7.45c-0.556,0-1.033-0.343-1.231-0.828h-0.425h-0.826h-0.427
		c-0.42,1.893-2.109,3.312-4.125,3.312s-3.707-1.42-4.128-3.312h-0.427h-2.896c-0.505,0-0.915-0.41-0.915-0.915v-8.69
		c0-0.598,0.089-1.21,0.264-1.825l1.762-6.191c0.129-0.448,0.543-0.763,1.01-0.763h8.64c0.505,0,0.915,0.41,0.915,0.915v12.33h0.653
		v-0.327V48.362v-0.5h0.5h28.146h0.501v0.5v16.555v0.501h-0.501h-2.81v0.327v4.138v0.501h-0.5h-1.678h-0.405
		C449.104,72.276,447.412,73.696,445.396,73.696L445.396,73.696z M445.396,67.901c-0.864,0-1.567,0.704-1.567,1.567
		c0,0.866,0.703,1.569,1.567,1.569c0.866,0,1.569-0.703,1.569-1.569C446.966,68.605,446.263,67.901,445.396,67.901L445.396,67.901z
		 M421.394,67.901c-0.866,0-1.569,0.704-1.569,1.567c0,0.866,0.703,1.569,1.569,1.569c0.864,0,1.567-0.703,1.567-1.569
		C422.961,68.605,422.258,67.901,421.394,67.901L421.394,67.901z M436.533,65.418c0.209,0.118,0.382,0.291,0.5,0.5v-0.173v-0.327
		H436.533L436.533,65.418z M427.272,65.418v0.327v0.173c0.118-0.209,0.291-0.382,0.5-0.5H427.272L427.272,65.418z M415.021,59.45
		h6.284v-4.793h-4.915L415.021,59.45L415.021,59.45z"/>
	<path fill="#FFFFFF" d="M454.917,48.362v16.555h-28.145V48.362H454.917 M424.703,52.5c0.229,0,0.414,0.185,0.414,0.415v12.829
		h1.655v4.14h-0.827V69.47c0-2.507-2.046-4.553-4.553-4.553c-2.508,0-4.553,2.046-4.553,4.553v0.414h-2.897
		c-0.229,0-0.414-0.186-0.414-0.414v-8.691c0-0.567,0.09-1.14,0.246-1.687l1.762-6.193c0.066-0.235,0.282-0.398,0.527-0.398H424.703
		 M414.356,59.95h7.449v-5.795h-5.794L414.356,59.95 M420.979,63.262h0.827v-1.656h-0.827V63.262 M451.606,65.744v4.14h-1.676
		c0.014-0.136,0.02-0.273,0.02-0.414c0-1.537-0.769-2.899-1.94-3.726H451.606 M445.397,65.744c2.052,0,3.726,1.674,3.726,3.726
		s-1.674,3.725-3.726,3.725s-3.725-1.673-3.725-3.725S443.346,65.744,445.397,65.744 M445.397,71.539
		c1.14,0,2.069-0.929,2.069-2.069c0-1.14-0.93-2.069-2.069-2.069s-2.069,0.93-2.069,2.069
		C443.328,70.61,444.258,71.539,445.397,71.539 M442.785,65.744c-1.172,0.826-1.94,2.188-1.94,3.726c0,0.141,0.007,0.278,0.02,0.414
		h-3.33v-4.14H442.785 M435.878,65.744c0.456,0,0.828,0.373,0.828,0.828v3.312c0,0.456-0.373,0.828-0.828,0.828h-7.449
		c-0.455,0-0.828-0.372-0.828-0.828v-3.312c0-0.455,0.373-0.828,0.828-0.828H435.878 M421.393,65.744
		c2.052,0,3.725,1.674,3.725,3.726s-1.673,3.725-3.725,3.725s-3.726-1.673-3.726-3.725S419.341,65.744,421.393,65.744
		 M421.393,71.539c1.14,0,2.069-0.929,2.069-2.069c0-1.14-0.93-2.069-2.069-2.069c-1.141,0-2.069,0.93-2.069,2.069
		C419.323,70.61,420.252,71.539,421.393,71.539 M455.917,47.362h-1h-28.145h-1v1v3.629c-0.26-0.3-0.643-0.49-1.069-0.49h-8.64
		c-0.689,0-1.302,0.463-1.489,1.126l-1.762,6.192c-0.188,0.659-0.284,1.319-0.284,1.96v8.691c0,0.779,0.635,1.414,1.414,1.414h2.897
		h0.043c0.604,1.916,2.396,3.311,4.51,3.311c2.112,0,3.906-1.395,4.509-3.311h0.044h0.827h0.127c0.326,0.498,0.89,0.828,1.529,0.828
		h7.449c0.64,0,1.203-0.33,1.529-0.828h0.127h3.33h0.024c0.603,1.916,2.396,3.311,4.509,3.311c2.113,0,3.907-1.395,4.51-3.311h0.023
		h1.676h1v-1v-3.967h2.311h1v-1V48.362V47.362L455.917,47.362z M416.766,55.155h4.04v3.795h-5.124L416.766,55.155L416.766,55.155z
		 M445.397,70.539c-0.59,0-1.069-0.479-1.069-1.069s0.479-1.069,1.069-1.069s1.069,0.479,1.069,1.069S445.987,70.539,445.397,70.539
		L445.397,70.539z M421.393,70.539c-0.59,0-1.069-0.479-1.069-1.069s0.479-1.069,1.069-1.069s1.069,0.479,1.069,1.069
		S421.982,70.539,421.393,70.539L421.393,70.539z"/>
</g>
</svg>
