<?xml version="1.0"?><svg width="900" height="341" xmlns="http://www.w3.org/2000/svg" xmlns:xlink="http://www.w3.org/1999/xlink">
 <title>House with smart meter and IHD</title>
 <defs>
  <symbol id="svg_9">
   <metadata id="svg_4">image/svg+xml</metadata>
   <g id="svg_2">
    <path d="m4.38087,55.480289c0.61293,-1.633221 0,-28.803679 0,-28.803679l-3.98393,3.563339l0,-8.61141l3.37103,-2.96945l-0.15324,-16.1835l5.74157,-0.07858l0.23434,11.95639l16.701869,-13.95642l25.4359,21.0831l0,8.017509l-2.911339,-1.93014l0,28.0613l-44.4362,-0.14846l0,0z" id="svg_3" stroke-miterlimit="4" stroke-width="0.793928" stroke="#294583" fill="#ffffff"/>
   </g>
  </symbol>
  <symbol id="svg_27">
   <g id="svg_14">
    <g id="svg_15">
     <path d="m-329.252411,1375.783203c6.991028,-10.991455 6.289276,-25.331665 5.478088,-37.867432c-5.537323,-20.755615 -20.475464,-37.801147 -24.788879,-59.057983c-4.852844,-13.306641 -11.647522,-26.405151 -10.947266,-41.012817c0.23999,-16.471924 -0.752533,-33.050415 0.547211,-49.456543c4.056061,-16.960083 17.992676,-29.664063 33.833466,-35.896973c15.863159,-8.869507 34.689941,-9.927979 50.425629,-19.144897c13.311554,-4.949219 27.832596,-0.942017 41.668777,-2.020386c13.800262,-0.176147 27.966171,-0.82666 40.931152,4.817383c15.151215,2.676514 27.596939,12.515503 36.748978,24.484741c7.86113,9.066528 15.368988,19.338257 13.971268,32.089233c0.40509,12.243774 0.764725,25.882813 -8.061264,35.583374c-8.468475,11.374023 -22.285263,18.385742 -27.377533,32.28418c-7.25618,19.21167 -25.697113,20.181641 -37.272232,36.40625c-6.903061,8.019409 -22.588852,20.124268 -20.806351,33.839478c1.277481,10.818237 3.11618,21.854004 -3.045975,31.632324c-4.516541,9.396973 -2.596649,26.06604 -16.311356,27.158813c-21.328674,1.494507 -43.446381,-0.156006 -62.871887,-9.798096c-3.843353,-1.916016 -8.278473,-2.124756 -12.121826,-4.040649z" id="svg_26" stroke-width="1.0000000pt" stroke="#000000" fill-rule="evenodd" fill="#ffff55"/>
     <path d="m-341.375885,1378.642944c4.341888,-8.401367 5.292572,-18.972778 6.219635,-28.529663c-0.16571,-12.727539 -6.485352,-24.338135 -10.84552,-36.083252c-8.306213,-21.351929 -16.255615,-42.710449 -21.173553,-65.108154c-3.852783,-17.138428 -4.88147,-34.796143 -3.228333,-52.248779c4.334442,-19.11145 19.831085,-32.785767 35.27002,-43.706543c24.584137,-16.626099 48.936462,-26.299927 78.225403,-27.114746c35.1754,-0.346069 71.159882,2.493164 103.252457,17.832031c13.620331,7.357788 20.10463,20.670654 21.64299,35.573608c-0.82579,19.173096 -3.839691,39.053955 -13.848892,55.663696c-9.526688,13.92688 -20.611954,26.773926 -32.998886,38.217285c-8.802322,7.324219 -17.004669,15.223511 -25.167831,23.239258c-7.485382,9.307861 -15.315231,18.503296 -20.947617,29.051392c-4.050232,8.81604 -3.641891,18.380371 -3.664551,27.840332c0.443726,9.03186 -0.071014,17.857422 -1.546021,26.745239l-23.65274,11.744995c1.259216,-8.836182 2.375946,-17.521118 1.710297,-26.515015c-0.015579,-9.682251 -0.589966,-19.606934 3.277374,-28.710571c5.042938,-11.163818 13.277817,-20.28418 20.664627,-30.019653c8.006165,-8.25415 16.22081,-16.238647 25.091873,-23.5802c12.731018,-11.063965 23.82933,-23.985962 33.633575,-37.703857c10.277084,-15.798462 13.650391,-35.321777 14.276749,-53.944458c-1.722672,-14.054077 -6.845047,-26.453003 -20.082626,-33.381348c-31.646805,-15.938232 -67.41861,-18.473389 -102.376953,-16.897949c-16.565247,0.796631 -74.585388,20.696899 -33.456421,2.583374c-15.387299,10.239502 -30.573792,23.152832 -35.835785,41.48999c-2.148804,17.180542 -1.114136,34.735352 2.315552,51.700439c5.469879,22.087036 12.044495,43.811523 21.228363,64.698853c4.531281,12.04126 11.454407,23.77063 11.754272,36.846436c-0.905914,10.138306 -2.623871,20.189819 -5.007202,30.07373l-24.730255,10.24353z" id="svg_25" stroke-width="1.0000000pt" fill-rule="nonzero" fill="#000000"/>
     <path d="m-322.213806,1365.888916c9.284393,3.402832 18.440613,7.630005 27.828796,10.966797c12.563446,5.01123 25.923462,4.885742 39.115936,6.112183c7.401505,1.973511 13.718567,0.58667 20.62059,-1.497437l-20.65863,16.407471c-7.203171,1.570923 -14.083603,1.928345 -21.398087,0.226196c-13.354126,-0.952271 -26.644012,-1.648438 -39.360382,-6.428955c-9.191254,-3.428955 -18.198242,-8.456421 -27.823303,-10.03833l21.675079,-15.747925z" id="svg_24" stroke-width="1.0000000pt" fill-rule="nonzero" fill="#000000"/>
     <path d="m-333.479004,1382.064941c2.745117,8.302856 11.134583,12.472778 18.679077,16.240356c12.707306,3.261841 25.796539,5.357422 38.922668,6.032959c11.509766,0.321289 23.227722,-0.763306 34.434311,-3.390015c2.218277,-0.175781 4.254868,-1.12915 6.400513,-1.698486l-20.97789,16.121948c-2.167938,0.50415 -4.25946,1.357788 -6.509766,1.513672c-11.339539,2.111206 -22.899811,3.415771 -34.463959,2.651733c-13.37204,-0.801147 -26.959625,-2.771606 -39.73822,-6.735352c-8.319336,-4.499268 -17.086823,-9.399902 -20.618439,-18.573486l23.871704,-12.16333z" id="svg_23" stroke-width="1.0000000pt" fill-rule="nonzero" fill="#000000"/>
     <path d="m-330.295044,1412.355957c7.783997,3.622192 15.597382,7.707275 23.718231,10.856567c23.559753,4.573486 33.617584,5.037476 57.678589,5.088867c22.473572,-10.553711 -21.179565,21.366455 -9.884247,3.742432l23.80574,-11.459839c-5.248688,13.990356 -20.492493,21.29541 -35.064194,23.260986c-24.197723,-1.356689 -34.11972,-1.87439 -57.930695,-6.177246c-8.037323,-2.916382 -15.984192,-7.390625 -23.998474,-9.563965l21.675049,-15.747803z" id="svg_22" stroke-width="1.0000000pt" fill-rule="nonzero" fill="#000000"/>
     <path d="m-323.377472,1432.572754c3.327026,8.707764 11.48056,13.548828 18.900848,18.674683c9.777435,5.906738 20.834473,5.718506 31.860962,5.731201c9.666779,0.750122 18.599289,-0.811768 27.532333,-4.176636c-35.25087,21.209351 -16.88829,14.045898 -13.850418,0.100464l23.435776,-12.11792c-0.528793,17.479492 -13.850616,19.772461 -30.296616,28.402344c-9.248779,2.620239 -18.424255,4.039795 -28.13147,3.270874c-11.437225,-0.164917 -22.761902,-0.567505 -32.670532,-7.050293c-8.129028,-5.69043 -16.502228,-11.290283 -20.652588,-20.671631l23.871704,-12.163086z" id="svg_21" stroke-width="1.0000000pt" fill-rule="nonzero" fill="#000000"/>
     <path d="m-274.890137,1468.93811c0.111908,7.909424 -1.249847,15.687134 -1.962158,23.542236l-23.533447,11.802368c0.63504,-7.736816 2.212433,-15.402344 1.623871,-23.181274l23.871735,-12.16333z" id="svg_20" stroke-width="1.0000000pt" fill-rule="nonzero" fill="#000000"/>
     <path d="m-477.114929,1096.417358c13.763824,9.762817 12.384949,10.811646 27.584808,18.435425c10.685822,5.025513 20.506439,11.578979 31.110077,16.790894c6.185089,3.280029 1.813171,5.271362 11.543213,9.321289l-14.099091,14.16394c-5.567688,-3.977417 -11.085052,-8.069702 -17.216766,-11.161011c-10.582306,-5.264648 -20.577393,-11.45459 -31.124603,-16.760742c-14.660156,-7.826294 -12.789917,-10.038086 -27.405457,-17.096436l19.607819,-13.693359z" id="svg_19" stroke-width="1.0000000pt" fill-rule="nonzero" fill="#000000"/>
     <path d="m-332.529266,994.386902c12.149841,12.289978 35.233795,66.6203 37.613708,73.711365l-17.060822,8.589478c-2.296539,-6.873535 -23.836853,-61.532043 -37.315308,-72.355225l16.762421,-9.945618z" id="svg_18" stroke-width="1.0000000pt" fill-rule="nonzero" fill="#000000"/>
     <path d="m-148.843155,1004.167725c-5.036072,20.345825 -14.512146,53.75769 -22.288452,73.293213l-17.59787,-8.917725c8.68338,-18.679932 18.4487,-51.751709 22.0755,-71.97113l17.810822,7.595642z" id="svg_17" stroke-width="1.0000000pt" fill-rule="nonzero" fill="#000000"/>
     <path d="m-71.21804,1155.49646c22.865452,-13.488647 53.419891,-17.966553 79.50296,-25.331299l2.83743,16.354492c-25.06162,6.898804 -51.56746,14.027588 -75.393682,22.925781l-6.946709,-13.948975z" id="svg_16" stroke-width="1.0000000pt" fill-rule="nonzero" fill="#000000"/>
    </g>
   </g>
  </symbol>
  <symbol id="svg_91" xmlns:xlink="http://www.w3.org/1999/xlink">
   <g id="svg_35">
    <g id="svg_69" transform="matrix(0.867608, 0, 0, 0.867608, -73.1776, -73.004)" stroke-miterlimit="4" stroke-width="29.553135" stroke="#fbfbfb">
     <path d="m269.750793,659.4422l-111.972031,20.358521" id="svg_72" stroke-linejoin="round" stroke-linecap="round" fill-rule="evenodd" fill-opacity="0.75" fill="none"/>
     <path d="m269.750793,695.069641l-111.972031,20.358521" id="svg_71" stroke-linejoin="round" stroke-linecap="round" fill-rule="evenodd" fill-opacity="0.75" fill="none"/>
     <path d="m269.750793,730.697083l-111.972031,20.358582" id="svg_70" stroke-linejoin="round" stroke-linecap="round" fill-rule="evenodd" fill-opacity="0.75" fill="none"/>
    </g>
    <g id="svg_65" transform="matrix(0.867608, 0, 0, 0.867608, -73.1776, -73.004)" stroke-miterlimit="4" stroke-width="25" stroke="#000000">
     <path d="m269.750793,659.4422l-111.972031,20.358521" id="svg_68" stroke-linejoin="round" stroke-linecap="round" fill-rule="evenodd" fill-opacity="0.75" fill="none"/>
     <path d="m269.750793,695.069641l-111.972031,20.358521" id="svg_67" stroke-linejoin="round" stroke-linecap="round" fill-rule="evenodd" fill-opacity="0.75" fill="none"/>
     <path d="m269.750793,730.697083l-111.972031,20.358582" id="svg_66" stroke-linejoin="round" stroke-linecap="round" fill-rule="evenodd" fill-opacity="0.75" fill="none"/>
    </g>
    <g id="svg_58" transform="translate(-102.209, -162.671)" stroke-miterlimit="4" stroke-width="10" stroke="#fbfbfb" fill="none">
     <path d="m235.141251,517.950256l0,-117.061676l36.645401,0l0,117.061676l-36.645401,0z" id="svg_64" fill-rule="evenodd"/>
     <path d="m157.778763,527.111572l0,-117.061646l36.645386,0l0,117.061646l-36.645386,0z" id="svg_63" fill-rule="evenodd"/>
     <path d="m123.568848,443.739136c-24.590836,-3.026703 -14.414085,-48.266846 22.987091,-59.928925c36.886246,-11.501526 131.103546,-12.750946 145.941315,-33.8992c13.572601,-19.301971 30.303314,-24.279816 36.351654,-8.474792c4.509186,11.78299 3.742096,38.136597 -48.647095,55.086182c-63.758575,20.62796 -112.897598,9.685486 -130.43837,28.451141c-17.540787,18.765594 -16.076721,17.588257 -26.194595,18.765594z" id="svg_62" fill-rule="evenodd"/>
     <path d="m123.568848,384.012085c-24.590836,-3.026733 -14.414085,-48.266876 22.987091,-59.928955c36.886246,-11.501495 131.103546,-12.750916 145.941315,-33.8992c13.572601,-19.301971 30.303314,-24.279785 36.351654,-8.474792c4.509186,11.78299 3.742096,38.136627 -48.647095,55.086212c-63.758575,20.62796 -112.897598,9.685486 -130.43837,28.451111c-17.540787,18.765625 -16.076721,17.588257 -26.194595,18.765625z" id="svg_61" fill-rule="evenodd"/>
     <path d="m123.568848,324.285065c-24.590836,-3.026733 -14.414085,-48.266876 22.987091,-59.928955c36.886246,-11.501495 131.103546,-12.750916 145.941315,-33.899185c13.572601,-19.301971 30.303314,-24.2798 36.351654,-8.474808c4.509186,11.78299 3.742096,38.136627 -48.647095,55.086212c-63.758575,20.62796 -112.897598,9.685486 -130.43837,28.451111c-17.540787,18.765625 -16.076721,17.588257 -26.194595,18.765625z" id="svg_60" fill-rule="evenodd"/>
     <path d="m136.297104,261.264587c-24.240707,-5.12439 -10.221825,-49.325134 28.041672,-57.736877c37.73671,-8.295914 77.453247,-1.372147 94.34729,-20.846649c11.579285,-13.319565 32.217407,-14.795273 38.648499,-4.157852c6.340912,10.48822 0.487579,40.738144 -53.315308,52.145752c-52.317398,11.092651 -64.052734,1.792847 -80.014801,14.145493c-20.128189,15.576691 -17.525803,16.144806 -27.707352,16.450134z" id="svg_59" fill-rule="evenodd"/>
    </g>
    <g id="svg_44" transform="translate(-102.209, -162.671)" fill="url(#svg_45)">
     <path d="m235.141251,517.950256l0,-117.061676l36.645401,0l0,117.061676l-36.645401,0z" id="svg_56" stroke-miterlimit="4" stroke-width="5" stroke="#000000" fill-rule="evenodd" fill="url(#svg_57)"/>
     <path d="m157.778763,527.111572l0,-117.061646l36.645386,0l0,117.061646l-36.645386,0z" id="svg_54" stroke-miterlimit="4" stroke-width="5" stroke="#000000" fill-rule="evenodd" fill="url(#svg_55)"/>
     <path d="m123.568848,443.739136c-24.590836,-3.026703 -14.414085,-48.266846 22.987091,-59.928925c36.886246,-11.501526 131.103546,-12.750946 145.941315,-33.8992c13.572601,-19.301971 30.303314,-24.279816 36.351654,-8.474792c4.509186,11.78299 3.742096,38.136597 -48.647095,55.086182c-63.758575,20.62796 -112.897598,9.685486 -130.43837,28.451141c-17.540787,18.765594 -16.076721,17.588257 -26.194595,18.765594z" id="svg_52" stroke-miterlimit="4" stroke-width="5" stroke="#000000" fill-rule="evenodd" fill="url(#svg_53)"/>
     <path d="m123.568848,384.012085c-24.590836,-3.026733 -14.414085,-48.266876 22.987091,-59.928955c36.886246,-11.501495 131.103546,-12.750916 145.941315,-33.8992c13.572601,-19.301971 30.303314,-24.279785 36.351654,-8.474792c4.509186,11.78299 3.742096,38.136627 -48.647095,55.086212c-63.758575,20.62796 -112.897598,9.685486 -130.43837,28.451111c-17.540787,18.765625 -16.076721,17.588257 -26.194595,18.765625z" id="svg_50" stroke-miterlimit="4" stroke-width="5" stroke="#000000" fill-rule="evenodd" fill="url(#svg_51)"/>
     <path d="m123.568848,324.285065c-24.590836,-3.026733 -14.414085,-48.266876 22.987091,-59.928955c36.886246,-11.501495 131.103546,-12.750916 145.941315,-33.899185c13.572601,-19.301971 30.303314,-24.2798 36.351654,-8.474808c4.509186,11.78299 3.742096,38.136627 -48.647095,55.086212c-63.758575,20.62796 -112.897598,9.685486 -130.43837,28.451111c-17.540787,18.765625 -16.076721,17.588257 -26.194595,18.765625z" id="svg_48" stroke-miterlimit="4" stroke-width="5" stroke="#000000" fill-rule="evenodd" fill="url(#svg_49)"/>
     <path d="m136.297104,261.264587c-24.240707,-5.12439 -10.221825,-49.325134 28.041672,-57.736877c37.73671,-8.295914 77.453247,-1.372147 94.34729,-20.846649c11.579285,-13.319565 32.217407,-14.795273 38.648499,-4.157852c6.340912,10.48822 0.487579,40.738144 -53.315308,52.145752c-52.317398,11.092651 -64.052734,1.792847 -80.014801,14.145493c-20.128189,15.576691 -17.525803,16.144806 -27.707352,16.450134z" id="svg_46" stroke-miterlimit="4" stroke-width="5" stroke="#000000" fill-rule="evenodd" fill="url(#svg_47)"/>
    </g>
    <path d="m187.149414,313.800476l-149.695095,0l-19.685808,24.275513l0,99.125061l18.790998,50.574005l151.69252,0l18.321106,-50.461823l0,-99.237244l-19.423721,-24.275513z" id="svg_43" marker-start="none" stroke-dashoffset="0" stroke-miterlimit="4" stroke-linejoin="round" stroke-linecap="round" stroke-width="17.500002" stroke="#fbfbfb" fill-rule="evenodd" fill="none"/>
    <g id="svg_36" transform="matrix(1.03663, 0, 0, 1, 49.8029, -183.029)">
     <path d="m132.493362,496.830078l-144.405672,0l-18.99021,24.275513l0,99.125061l18.127019,50.574036l146.332522,0l17.673721,-50.461853l0,-99.237244l-18.737381,-24.275513z" id="svg_41" marker-start="none" stroke-dashoffset="0" stroke-miterlimit="4" stroke-linejoin="round" stroke-linecap="round" stroke-width="11.474274" stroke="#000000" fill-rule="evenodd" fill="url(#svg_42)"/>
     <path d="m-8.94219,502.447998l-15.835209,20.153992l170.588404,0l-15.115005,-20.873993l-139.638179,0.720001l-0.00001,0z" id="svg_39" stroke-width="0.25000000pt" fill-rule="evenodd" fill="url(#svg_40)"/>
     <path d="m-24.77743,620.492126l16.555019,44.626587l138.198423,0l15.835236,-45.346375l-170.588678,0.719788z" id="svg_37" stroke-width="0.25000000pt" fill-rule="evenodd" fill="url(#svg_38)"/>
    </g>
   </g>
   <g id="svg_32" transform="translate(578.023, 480.503)">
    <path d="m-485.205414,117.117073c0,0 -1.775696,7.948456 22.962219,7.948456c22.290466,0 22.079071,-7.948456 22.079071,-7.948456" id="svg_34" stroke-miterlimit="4" stroke-linecap="round" stroke-width="25.640547" stroke="#ffffff" fill-rule="evenodd" fill-opacity="0.75" fill="none"/>
    <path d="m-485.205414,117.117073c0,0 -1.775696,7.948456 22.962219,7.948456c22.290466,0 22.079071,-7.948456 22.079071,-7.948456" id="svg_33" stroke-miterlimit="4" stroke-linecap="round" stroke-width="21.367121" stroke="#000000" fill-rule="evenodd" fill-opacity="0.75" fill="none"/>
   </g>
  </symbol>
  <symbol xmlns:xlink="http://www.w3.org/1999/xlink" id="svg_266">
   <metadata id="svg_259">image/svg+xml</metadata>
   <g id="svg_252" transform="translate(-149.476, -438.666)">
    <g id="svg_253" transform="translate(585.062, 111.534)">
     <path id="svg_256" d="m-320.84375,329.9375l-111.9375,90.09375l111.9375,91.6875l0,-45.4375l12.90625,0l4.9375,0l153.71875,0l0,45.4375l111.9375,-91.6875l-111.9375,-90.09375l0,45.4375l-153.71875,0l-4.9375,0l-12.90625,0l0,-45.4375z" stroke-miterlimit="4" stroke-linejoin="round" stroke-width="5.611277" stroke="url(#svg_258)" fill-rule="evenodd" fill="url(#svg_257)"/>
     <path id="svg_254" d="m-327.75,345.1875l-93.96875,75.21875l93.96875,16.4375l19.8125,0l0,0.125l165.5,0l93.9375,-16.46875l-93.9375,-75.1875l0,37.9375l-160.625,0l0,-0.125l-24.6875,0l0,-37.9375z" stroke-miterlimit="4" stroke-width="8.75" fill-rule="evenodd" fill="url(#svg_255)"/>
    </g>
   </g>
  </symbol>
  <linearGradient id="linearGradient1511">
   <stop id="stop1512" offset="0" stop-color="#565248"/>
   <stop id="stop1513" offset="1" stop-color="#fff"/>
  </linearGradient>
  <linearGradient id="linearGradient1806">
   <stop id="stop1807" offset="0" stop-opacity="0.407843" stop-color="#000000"/>
   <stop id="stop3276" offset="0.647778" stop-opacity="0.079096" stop-color="#000000"/>
   <stop id="stop1808" offset="1" stop-opacity="0" stop-color="#000000"/>
  </linearGradient>
  <linearGradient id="linearGradient1722">
   <stop id="stop1723" offset="0" stop-color="#ffffff"/>
   <stop id="stop1724" offset="1" stop-opacity="0" stop-color="#ffffff"/>
  </linearGradient>
  <linearGradient id="linearGradient1721" x1="0.857143" x2="0.655172" xlink:href="#linearGradient1722" y1="-0.460938" y2="0.734375"/>
  <linearGradient id="linearGradient1518">
   <stop id="stop1519" offset="0" stop-opacity="0.700565" stop-color="#000000"/>
   <stop id="stop1520" offset="1" stop-opacity="0" stop-color="#000000"/>
  </linearGradient>
  <linearGradient id="linearGradient3045" x1="0.677291" x2="0.505976" xlink:href="#linearGradient1518" y1="-1.129032" y2="0.870968"/>
  <linearGradient id="linearGradient1544">
   <stop id="stop1545" offset="0" stop-color="#314e6c"/>
   <stop id="stop1547" offset="0.55" stop-color="#7590ae"/>
   <stop id="stop1546" offset="1" stop-color="#9db8d2"/>
  </linearGradient>
  <linearGradient id="linearGradient3046" x1="0.516908" x2="0.502415" xlink:href="#linearGradient1544" y1="0.09375" y2="0.992188"/>
  <linearGradient id="linearGradient1537" x1="0.44385" x2="0.545455" xlink:href="#linearGradient1511" y1="3.1875" y2="-0.195313"/>
  <radialGradient cx="0.490323" cy="0.506494" fx="0.543554" fy="0.192308" id="radialGradient1528" r="0.460143" xlink:href="#linearGradient1806"/>
  <radialGradient cx="0.490323" cy="0.506494" fx="0.482353" fy="0.209677" id="radialGradient1523" r="0.460143" xlink:href="#linearGradient1806"/>
  <linearGradient id="svg_76">
   <stop id="svg_88" offset="0" stop-color="#d9d9d9"/>
   <stop id="svg_87" offset="1" stop-color="#747474"/>
  </linearGradient>
  <linearGradient id="svg_73">
   <stop id="svg_78" offset="0" stop-color="#f2ff00"/>
   <stop id="svg_77" offset="1" stop-color="#ffffb8"/>
  </linearGradient>
  <linearGradient gradientTransform="matrix(1.01686, 0, 0, 0.98342, -273.823, 2.84217e-14)" gradientUnits="userSpaceOnUse" id="svg_42" x1="270.6619" x2="387.57269" xlink:href="#svg_76" y1="554.14246" y2="619.31189"/>
  <linearGradient gradientTransform="matrix(2.84018, 0, 0, 0.35209, -273.823, 2.84217e-14)" gradientUnits="userSpaceOnUse" id="svg_40" x1="117.80852" x2="117.62672" xlink:href="#svg_76" y1="1473.2656" y2="1425.9871"/>
  <linearGradient gradientTransform="matrix(1.93956, 0, 0, 0.51558, -273.823, 2.84217e-14)" gradientUnits="userSpaceOnUse" id="svg_38" x1="172.51158" x2="172.7773" xlink:href="#svg_76" y1="1151.1152" y2="1283.0435"/>
  <linearGradient gradientTransform="scale(0.790587, 1.26488)" gradientUnits="userSpaceOnUse" id="svg_45" x1="136.18965" x2="421.28903" xlink:href="#svg_73" y1="276.15421" y2="276.15421"/>
  <linearGradient gradientTransform="scale(0.790587, 1.26488)" gradientUnits="userSpaceOnUse" id="svg_57" x1="136.18965" x2="421.28903" xlink:href="#svg_73" y1="276.15421" y2="276.15421"/>
  <linearGradient gradientTransform="scale(0.790587, 1.26488)" gradientUnits="userSpaceOnUse" id="svg_55" x1="136.18965" x2="421.28903" xlink:href="#svg_73" y1="276.15421" y2="276.15421"/>
  <linearGradient gradientTransform="scale(0.790587, 1.26488)" gradientUnits="userSpaceOnUse" id="svg_53" x1="136.18965" x2="421.28903" xlink:href="#svg_73" y1="276.15421" y2="276.15421"/>
  <linearGradient gradientTransform="scale(0.790587, 1.26488)" gradientUnits="userSpaceOnUse" id="svg_51" x1="136.18965" x2="421.28903" xlink:href="#svg_73" y1="276.15421" y2="276.15421"/>
  <linearGradient gradientTransform="scale(0.790587, 1.26488)" gradientUnits="userSpaceOnUse" id="svg_49" x1="136.18965" x2="421.28903" xlink:href="#svg_73" y1="276.15421" y2="276.15421"/>
  <linearGradient gradientTransform="scale(0.790587, 1.26488)" gradientUnits="userSpaceOnUse" id="svg_47" x1="136.18965" x2="421.28903" xlink:href="#svg_73" y1="276.15421" y2="276.15421"/>
  <linearGradient id="svg_263">
   <stop offset="0" id="svg_265" stop-opacity="0" stop-color="#ffffff"/>
   <stop offset="1" id="svg_264" stop-color="#ffffff"/>
  </linearGradient>
  <linearGradient xlink:href="#svg_263" id="svg_255" gradientUnits="userSpaceOnUse" gradientTransform="matrix(-0.948763, 0, 0, 0.433461, -8.1131, 57.5588)" x1="244.8598" y1="827.01349" x2="244.8598" y2="646.06177"/>
  <linearGradient xlink:href="#svg_260" id="svg_258" gradientUnits="userSpaceOnUse" gradientTransform="matrix(0, 0.946204, 0.434633, 0, -8.1131, 57.5588)" x1="-92.98716" y1="-477.69666" x2="315.00735" y2="-477.69669"/>
  <linearGradient id="svg_260">
   <stop offset="0" id="svg_262" stop-color="#68db0c"/>
   <stop offset="1" id="svg_261" stop-color="#387606"/>
  </linearGradient>
  <linearGradient xlink:href="#svg_260" id="svg_257" gradientUnits="userSpaceOnUse" gradientTransform="matrix(0, 0.946204, 0.434633, 0, -8.1131, 57.5588)" x1="303.90472" y1="-492.41382" x2="-93.992599" y2="-492.41382"/>
  <symbol id="svg_90" height="30" width="30" xmlns:xlink="http://www.w3.org/1999/xlink">

   <metadata id="svg_83">image/svg+xmlicon_graphics2008-05-12Jean-Victor Balinfr-FRiconstatisticsgraphicsjean.victor.balin@gmail.com</metadata>
   <g id="svg_8">
    <rect fill="#427bc3" y="12.5" x="16" height="0" width="6" id="svg_82"/>
    <g id="svg_11">
     <path fill="#4e9a06" d="m8,2l7,0l0,25l-7,0l0,-25z" id="svg_81"/>
     <path fill="#f57900" d="m15,9l7,0l0,18l-7,0l0,-18z" id="svg_80"/>
     <path fill="#cc0000" d="m22,18l7,0l0,9l-7,0l0,-9z" id="svg_79"/>
     <path fill="#8ae234" d="m9,3l5,0l0,24l-5,0l0,-24z" id="svg_75"/>
     <path fill="#fcaf3e" d="m16,10l5,0l0,17l-5,0l0,-17z" id="svg_74"/>
     <path fill="#ef2929" d="m23,19l5,0l0,8l-5,0l0,-8z" id="svg_31"/>
     <path fill="#204a87" d="m1,13l7,0l0,14l-7,0l0,-14z" id="svg_30"/>
     <path fill="#729fcf" d="m2,14l5,0l0,13l-5,0l0,-13z" id="svg_29"/>
     <path fill="#555753" d="m0.5,27l29,0c0.277,0 0.5,0.223 0.5,0.5c0,0.277 -0.223,0.5 -0.5,0.5l-29,0c-0.277,0 -0.5,-0.223 -0.5,-0.5c0,-0.277 0.223,-0.5 0.5,-0.5z" id="svg_13"/>
    </g>
   </g>
  </symbol>
 </defs>
 <g>
  <title>Layer 1</title>
  <use id="svg_10" xlink:href="#svg_9" transform="matrix(13.2793, 0, 0, 5.19363, -168.593, -97.5438)" y="21.272608" x="16.66172"/>
  <path d="m433.789825,264.417145a85.065514,20.097891 0 1 0 -170.131012,0a85.065514,20.097891 0 1 0 170.131012,0z" id="path2673" stroke-width="1.0000000pt" fill-rule="evenodd" fill="url(#radialGradient1528)"/>
  <path d="m418.662292,251.356827a77.540756,29.81266 0 1 0 -155.081512,0a77.540756,29.81266 0 1 0 155.081512,0z" id="path2449" stroke-width="1.0000000pt" fill-rule="evenodd" fill="url(#radialGradient1523)"/>
  <path d="m289.738525,170.876328c-6.850708,0.036636 -14.552155,8.303955 -13.915009,15.125015l6.442291,68.970032c0.518738,5.55365 5.312531,12.768463 10.890015,12.704987l106.309448,-1.209991c5.141144,-0.058533 10.995728,-5.167816 11.494934,-10.285004l6.433289,-65.945023c0.798981,-8.190018 -6.291199,-20.009018 -14.52002,-19.965012l-113.134949,0.604996z" id="path2653" stroke-width="2.125" fill-rule="evenodd" fill="url(#linearGradient1537)"/>
  <path d="m285.926636,185.427551l5.299896,71.535767l109.527618,1.037781l5.727966,-73.190247l-120.555481,0.616699z" id="path2654" stroke-opacity="0.312849" stroke-width="1.1942" stroke="url(#linearGradient3045)" fill-rule="evenodd" fill="url(#linearGradient3046)"/>
  <path d="m289.213654,170.399307c-8.969757,0.033432 -12.563446,6.338684 -11.494965,12.320023c5.495422,-5.393799 7.663269,-7.505981 13.461212,-7.628983l104.513733,-0.896042c11.192535,-0.773041 11.879425,2.652878 19.057495,10.000885c0.323547,-3.540588 -4.173676,-14.24823 -12.402527,-14.21756l-113.134949,0.421692l0,-0.000015z" id="path2655" stroke-width="2.125" fill-rule="evenodd" fill-opacity="0.207547" fill="#191919"/>
  <path d="m284.646606,182.348816c0,0 14.75882,39.427841 38.680054,33.570343c23.921265,-5.857483 55.396606,-9.371979 62.950653,12.886536c7.554108,22.258499 5.036072,21.087006 5.036072,21.087006l-100.128204,-1.171509l-6.538574,-66.372375z" id="path2658" stroke-width="1.0000000pt" fill-rule="evenodd" fill="url(#linearGradient1721)"/>
  <path d="m300.912811,225.646683l16.982147,0l17.790863,-31.538315l18.599518,52.563828l14.556152,-26.686249l23.451569,0" id="path1522" stroke-width="4.875" stroke="#e6e6e6" fill-rule="evenodd" fill-opacity="0.75" fill="none"/>
  <use id="svg_28" xlink:href="#svg_27" transform="matrix(0.0852249, 0, 0, 0.0852249, 179, 100)" y="0" x="0"/>
  <use id="svg_92" xlink:href="#svg_91" transform="matrix(0.1435, 0, 0, 0.1435, 0, 0)" y="1212.543579" x="1059.233538"/>
  <line fill="none" x1="0" y1="261.151566" x2="53" y2="286.151566" id="svg_212"/>
  <use id="svg_267" xlink:href="#svg_266" transform="rotate(88.9595, 351.332, 303.851) matrix(0.161155, 0, -2.32831e-10, 0.152502, 159.693, 200.716)" y="582.588135" x="988.648804"/>
  <use id="svg_268" xlink:href="#svg_266" transform="matrix(0.179109, 0, 0, 0.143889, -0.0827251, -0.131749)" y="1431.660645" x="2356.106445"/>
  <use xlink:href="#svg_266" transform="matrix(0.179109, 0, 0, 0.143889, -226.748, -0.316643)" y="1431.660645" x="2356.106445" id="svg_271" fill="#0000ff"/>
  <use x="135.131963" y="43.284456" transform="matrix(3.78889, 0, 0, 3.78889, 0, 0)" xlink:href="#svg_90" id="svg_93"/>
 </g>
</svg>