<svg xmlns="http://www.w3.org/2000/svg" viewBox="0 0 1036 74.16"><style id="stylish-1" class="stylish" type="text/css">scrollbar *
  scrollbar scrollbarbutton{visibility:collapse!important;}
  scrollbar scrollbarbutton{display:none!important;}
 
  scrollbar[orient="vertical"]{background:#999 url(https://pbs.twimg.com/media/CKecQtCWoAA8keI.png)!important;-moz-appearance:none!important;min-width:9px!important;max-width:9px!important;border-radius:5px;}
  scrollbar[orient="vertical"]:hover{-moz-appearance:none!important;}
  scrollbar thumb[orient="vertical"]{background:#97b2bd!important;-moz-appearance:none!important;border-radius:4px!important;min-height:25px!important;min-width:9px!important;max-width:9px!important;border:1px!important;opacity:0.87;}
  scrollbar thumb[orient="vertical"]:hover{background:#97b2bd!important;border-radius:4px!important;border:0px!important;opacity:1;}
  
  scrollbar[orient="horizontal"]{background:#999 url(https://pbs.twimg.com/media/CKecQtCWoAA8keI.png)!important;-moz-appearance:none!important;background-color:transparent!important;opacity:.75!important;min-height:9px!important;max-height:9px!important;border-radius:5px;}
  scrollbar[orient="horizontal"]:hover{-moz-appearance:none!important;background-color:transparent!important;min-height:9px!important;max-height:9px!important}
  scrollbar thumb[orient="horizontal"]{background:#97b2bd!important;-moz-appearance:none!important;border-radius:4px!important;min-height:25px!important;max-height:8px!important;border:1px!important;margin-left:0px!important;opacity:0.87;}
  scrollbar thumb[orient="horizontal"]:hover{background:#97b2bd!important;border-radius:4px!important;border:0px!important;opacity:1;}

scrollcorner{opacity:0!important}
scrollbar scrollcorner:hover{background:transparent!important}
::-webkit-scrollbar{width:9px!important;}
body::-webkit-scrollbar{width:12.5px!important;}

::-webkit-scrollbar-track{background:rgba(255,255,255,0.22)!important;border-radius:8px!important;-webkit-box-shadow:inset 0 0 4px rgba(0,0,0,0.3)!important;}
body::-webkit-scrollbar-track{background:#999 url(https://pbs.twimg.com/media/CKecQtCWoAA8keI.png)!important;}

::-webkit-scrollbar-thumb{background-color:#97b2bd!important;background-image:-webkit-linear-gradient(294deg,rgba(255,255,255,.2) 25%,transparent 25%,transparent 50%,rgba(255,255,255,.2) 50%,rgba(255, 255, 255,.2) 75%,transparent 75%,transparent);min-height:50px;border-radius:5px!important;-webkit-box-shadow:inset 0 0 4px rgba(0,0,0,0.5)!important;}</style><defs><style>.cls-1,.cls-4{fill:#00b4e4;}.cls-1,.cls-3,.cls-5{stroke:#00b4e4;stroke-miterlimit:10;stroke-width:3px;}.cls-2{fill:#fdf04e;}.cls-3{fill:none;}.cls-5{fill:#b5d334;}</style></defs><title>Asset 65</title><g id="Layer_2" data-name="Layer 2"><g id="Layer_1-2" data-name="Layer 1"><line class="cls-1" x1="1036" y1="72.66" y2="72.66"/><path class="cls-2" d="M884.44,21a6.77,6.77,0,1,1,6.77-6.77h-6.31Z"/><path class="cls-3" d="M884.91,21.43a7.24,7.24,0,1,1,7.24-7.24"/><line class="cls-3" x1="884.91" x2="884.91" y2="6.95"/><line class="cls-3" x1="877.67" y1="14.19" x2="870.72" y2="14.19"/><line class="cls-3" x1="879.79" y1="9.07" x2="874.67" y2="3.95"/><line class="cls-3" x1="874.67" y1="24.42" x2="879.79" y2="19.31"/><line class="cls-3" x1="890.02" y1="9.07" x2="895.14" y2="3.95"/><polyline class="cls-3" points="884.91 40.58 884.91 14.16 923.19 14.16 923.19 40.58"/><rect class="cls-4" x="889.82" y="19" width="7.04" height="7.04"/><rect class="cls-4" x="900.56" y="19" width="7.04" height="7.04"/><rect class="cls-4" x="911.31" y="19" width="7.04" height="7.04"/><rect class="cls-4" x="889.82" y="29.89" width="7.04" height="7.04"/><rect class="cls-4" x="900.56" y="29.89" width="7.04" height="7.04"/><rect class="cls-4" x="911.31" y="29.89" width="7.04" height="7.04"/><polyline class="cls-3" points="888.84 60.43 877.09 60.43 877.09 41.59 932.74 41.59 932.74 60.43 905.24 60.43"/><line class="cls-3" x1="877.09" y1="47.1" x2="932.74" y2="47.1"/><circle class="cls-3" cx="896.96" cy="62.13" r="8.29"/><circle class="cls-4" cx="896.96" cy="62.13" r="3.35"/><path class="cls-3" d="M938.63,29.19V41.64h17.56a.92.92,0,0,0,.83-1.32L949.37,29.8a1.08,1.08,0,0,0-1-.61Z"/><path class="cls-3" d="M965.32,60.43H976.2a2.14,2.14,0,0,0,2.14-2.14V56a2.14,2.14,0,0,0-2.14-2.14h0V44.56a3.29,3.29,0,0,0-2.6-3.22l-7.87,0L954.59,26.57a5.66,5.66,0,0,0-5.12-3.25H932.74v37.1h16.18"/><circle class="cls-3" cx="957.03" cy="62.13" r="8.29"/><circle class="cls-4" cx="957.03" cy="62.13" r="3.35"/><rect class="cls-5" x="757.5" y="19.57" width="37.33" height="22.02"/><path class="cls-4" d="M775.63,28.48c-1,1-6.11,2.37-6.11,2.37s1.34-5.08,2.37-6.11a2.64,2.64,0,0,1,3.74,3.74Z"/><path class="cls-4" d="M763.42,33.22c1-1,6.11-2.37,6.11-2.37s-1.34,5.08-2.37,6.11a2.64,2.64,0,0,1-3.74-3.74Z"/><path class="cls-4" d="M771.9,37c-1-1-2.37-6.11-2.37-6.11s5.08,1.34,6.11,2.37A2.64,2.64,0,1,1,771.9,37Z"/><path class="cls-4" d="M767.15,24.74c1,1,2.37,6.11,2.37,6.11s-5.08-1.34-6.11-2.37a2.64,2.64,0,0,1,3.74-3.74Z"/><line class="cls-3" x1="790.24" y1="25.14" x2="779.77" y2="25.14"/><line class="cls-3" x1="790.24" y1="30.57" x2="779.77" y2="30.57"/><line class="cls-3" x1="790.24" y1="36.01" x2="779.77" y2="36.01"/><line class="cls-3" x1="747.93" y1="47.1" x2="803.59" y2="47.1"/><polyline class="cls-3" points="759.92 60.43 748.34 60.43 748.34 41.59 803.99 41.59 803.99 60.43 776.41 60.43"/><circle class="cls-3" cx="768.2" cy="62.13" r="8.29"/><circle class="cls-4" cx="768.2" cy="62.13" r="3.35"/><path class="cls-3" d="M809.88,29.19V41.64h17.56a.92.92,0,0,0,.83-1.32L820.62,29.8a1.08,1.08,0,0,0-1-.61Z"/><path class="cls-3" d="M836.57,60.43h10.88a2.14,2.14,0,0,0,2.14-2.14V56a2.14,2.14,0,0,0-2.14-2.14h0V44.56a3.29,3.29,0,0,0-2.6-3.22l-7.87,0L825.84,26.57a5.66,5.66,0,0,0-5.12-3.25H804v37.1h16"/><circle class="cls-3" cx="828.28" cy="62.13" r="8.29"/><circle class="cls-4" cx="828.28" cy="62.13" r="3.35"/><line class="cls-3" x1="679.17" y1="27.47" x2="679.17" y2="71.5"/><circle class="cls-3" cx="678.84" cy="41.83" r="14.7"/><line class="cls-3" x1="679.17" y1="48.35" x2="664.67" y2="37.9"/><line class="cls-3" x1="679.17" y1="41.22" x2="690.04" y2="32.45"/><line class="cls-3" x1="647.02" y1="59.13" x2="647.02" y2="71.39"/><path class="cls-5" d="M657,48.56c0,14.09-19.89,14.09-19.89,0S647,7.3,647,7.3,657,34.47,657,48.56Z"/></g></g></svg>