<?xml version="1.0" encoding="UTF-8"?>
<svg xmlns="http://www.w3.org/2000/svg" id="Layer_1" viewBox="0 0 401.89 370.84">
  <defs>
    <style>.cls-1,.cls-22{fill:#a7d7ea;}.cls-13,.cls-2,.cls-20,.cls-3,.cls-5,.cls-9{fill:#fff;}.cls-2,.cls-4{stroke:#3f4042;}.cls-11,.cls-15,.cls-17,.cls-18,.cls-19,.cls-2,.cls-20,.cls-22,.cls-4{stroke-miterlimit:10;}.cls-17,.cls-18,.cls-19,.cls-2,.cls-20,.cls-22{stroke-width:1.5px;}.cls-13,.cls-3,.cls-7{opacity:0.5;}.cls-3,.cls-7,.cls-9{isolation:isolate;}.cls-10,.cls-4{fill:#3f4042;}.cls-4{stroke-width:0.5px;}.cls-6,.cls-7{fill:#dedfdf;}.cls-19,.cls-8{fill:none;}.cls-9{opacity:0.3;}.cls-11,.cls-18{fill:#a6d7ea;}.cls-11{stroke:#a6d7ea;}.cls-12{fill:#26d068;}.cls-14,.cls-15{fill:#3f4041;}.cls-15,.cls-17,.cls-18,.cls-19,.cls-20,.cls-22{stroke:#3f4041;}.cls-16,.cls-17{fill:#dfe0e0;}.cls-21{fill:#e0e1e0;}</style>
  </defs>
  <title>appdirect-industrial-iot-solution</title>
  <path class="cls-1" d="M252.83,64.27h-2.5c-1.1,0-2.1,0-3.2.1l.1,1.8c1.8-.1,3.6-.1,5.4-.1v-1.8Zm-11,.4-3.9.3h-.4c-.3,0-.7.1-1,.1l.2,1.8c1.8-.2,3.6-.3,5.4-.5l-.3-1.7Zm-10.9,1.2h-.6c-1.6.2-3.1.5-4.7.8l.3,1.8c1.8-.3,3.6-.6,5.3-.9l-.3-1.7Zm-10.7,1.9c-.3.1-.6.1-1,.2h-.4l-3.8.9.4,1.8c1.7-.4,3.5-.9,5.3-1.2l-.5-1.7Zm-10.7,2.7c-1.8.5-3.5,1.1-5.2,1.6l.6,1.7c1.7-.6,3.4-1.1,5.2-1.6l-.6-1.7Zm-10.4,3.4c-1.7.6-3.4,1.3-5.1,2l.7,1.7c1.7-.7,3.4-1.4,5-2l-.6-1.7ZM189,78.07c-1.7.8-3.3,1.5-4.9,2.4l.8,1.6c1.6-.8,3.2-1.6,4.9-2.3l-.8-1.7Zm-9.8,4.9h0a.1.1,0,0,0-.1.1h0c-.6.4-1.3.7-1.9,1.1h-.6c-.6.4-1.3.7-1.9,1.1l.9,1.6c1.5-.9,3.1-1.8,4.7-2.7l-1.1-1.2Zm-9.4,5.6c-1.3.9-2.7,1.7-4,2.7h-.2a.1.1,0,0,0-.1.1h0a.1.1,0,0,0-.1.1l1,1.5,4.5-3-1.1-1.4Zm-9,6.3c-.3.2-.5.4-.8.6h0l-.1.1h0l-.1.1h0l-.1.1h0l-.1.1h0l-.1.1h0l-.1.1h0l-.1.1h0l-.1.1h0l-.1.1h0l-.1.1h0c-.7.6-1.4,1.1-2.1,1.7l1.1,1.4c1.4-1.1,2.8-2.2,4.3-3.3l-1.5-1.4Zm-8.5,6.8-.6.6h0l-.1.1h0l-.1.1h-.3l-.1.1h0l-.1.1h0l-.1.1h0l1.2,1.3c1.3-1.2,2.7-2.4,4-3.6l-3.8,1.2Zm-8.1,7.5c-1,1-2,2-2.9,3h0l-.1.1h0v.1h0a.1.1,0,0,1-.1.1h0c-.1.2-.3.3-.4.5l1.3,1.2c1.2-1.3,2.5-2.6,3.8-3.9l-1.6-1.1Zm-7.5,8c-.2.2-.4.5-.6.7h0l-.1.1h0l-.1.1h0v.1h0l-.1.1h0c-.8.9-1.6,1.9-2.4,2.8h0l-.1.1h0l1.4,1.1c1.1-1.4,2.3-2.8,3.5-4.1l-1.5-1Zm-6.8,8.5c-.6.7-1.1,1.5-1.6,2.2h0l-.1.1h0v.1h0v.1h0v.1h0l-.1.1h0c-.3.5-.7,1-1,1.5l1.5,1c1-1.5,2.1-2.9,3.2-4.4l-1.9-.8Zm-6.3,9h0l-.1.1h0v.1h0v.1h0v.1h0v.1h0v.1h0v.1h0v.1h0v.1h0a.1.1,0,0,1-.1.1h0a.1.1,0,0,1-.1.1h0l-.1.1h0l-.1.1h0l-.1.1h0l-.1.1h0c-.5.8-1,1.7-1.5,2.5l1.6.9c.9-1.5,1.9-3.1,2.9-4.6l-2.3-.3Zm-5.6,9.4a.76.76,0,0,0-.2.4h0v.1h0v.1h0v.1h0v.1h0v.1h0v.1h0l-.1.1h0c-.6,1.1-1.2,2.3-1.8,3.4l1.6.8c.8-1.6,1.7-3.2,2.5-4.8l-2-.5Zm-5,9.8c-.8,1.7-1.5,3.3-2.2,5l1.7.7c.7-1.7,1.4-3.3,2.2-5l-1.7-.7Zm-4.2,10.1c0,.1,0,.1-.1.2h0v.1h0v.1h0v.1h0v.1h0v.1h0c-.4,1.1-.8,2.2-1.2,3.4h0v.1h0v.1h0l1.7.6,1.8-5.1-2.2.2Zm-3.5,10.4c-.2.6-.3,1.1-.5,1.7h0v.1h0v.1h0v.1h0v.1h0c-.3,1-.5,1.9-.8,2.9l1.8.5c.4-1.7.9-3.5,1.4-5.2l-1.9-.3Zm-2.7,10.6-.6,2.7h0v.1h0v.1h0v.1h0v.1h0c-.1.7-.3,1.4-.4,2.1l1.8.3c.3-1.8.7-3.6,1.1-5.3l-1.9-.2Zm-2,10.8c-.1.5-.1.9-.2,1.4h0v.1h0v.1h0v.1h0v.1h0c-.1,1.1-.3,2.1-.4,3.2h0v.1h0l1.8.2c.2-1.8.4-3.6.7-5.4l-1.9.1Zm-1.2,10.9c0,.4-.1.9-.1,1.3h0v.1h0v.1h0v.1h0v.1h0v.1h0v.1h0v.1h0v.1h0v.1h0v.1h0v.1h0v.1h0v.1h0v.1h0v.1h0v.1h0v.1h0v.1h0v1.1l1.8.1.3-5.4-2,1.1Zm-.4,10.9v.1h0v.2h0v.3h0v.1h0v.1h0v.1h0v.1h0v.1h0v.1h0v.1h0v.1h0v.2h0v.1h0c0,1.3,0,2.6.1,3.9l1.8-.1c-.1-1.6-.1-3.3-.1-4.9v-.5l-1.8-.1Zm2.2,10.8-1.8.1h0c.1.8.1,1.6.2,2.4h0v.1h0v.1h0v.1h0v.1h0v.1h0v.1h0v.2h0a.75.75,0,0,0,.1.5h0v.3h0v.1h0v.1h0v.1h0v.3l1.8-.2c0-.9-.2-2.7-.3-4.5Zm1.1,10.8-1.8.3.3,1.8h0v.1h0v.1h0v.1h0v.1h0v.1h0a29.31,29.31,0,0,0,.5,2.9l1.8-.3c-.3-1.6-.5-3.4-.8-5.2Zm1.9,10.7-1.8.4c.4,1.8.8,3.6,1.2,5.3l1.8-.4c-.4-1.8-.8-3.6-1.2-5.3Zm2.6,10.5-1.8.5c.1.3.2.7.3,1h0v.1h0v.1h0v.1h0v.1h0v.1h0c.4,1.2.7,2.4,1.1,3.6l1.7-.6c-.3-1.6-.8-3.3-1.3-5Zm3.4,10.2-1.7.6c.6,1.7,1.3,3.4,2,5.1l1.7-.7c-.7-1.6-1.4-3.3-2-5Zm4.1,10.1-1.7.8a24,24,0,0,0,1.1,2.3h0v.1h0v.1h0v.1h0c0,.1.1.2.1.3h0l.6,1.2,1.6-.8a33.25,33.25,0,0,0-1.7-4.1Zm4.8,9.7-1.6.9,2.7,4.8,1.6-.9q-1.35-2.55-2.7-4.8Zm5.5,9.3-1.5,1c.7,1.1,1.4,2.1,2.1,3.2h0l.1.1h0l.1.1h0l.1.1h0l.1.1h0l.1.1h0a.1.1,0,0,0,.1.1h0a.1.1,0,0,0,.1.1h0a.1.1,0,0,0,.1.1h0c.1.1.1.2.2.2l1.5-1a35.16,35.16,0,0,1-3.1-4.2Zm6.2,8.9-1.5,1.1c.2.3.5.6.7.9h0v.1h0v.1h0v.1h0v.1h0l.1.1h0c.5.7,1,1.3,1.5,2h0l.1.1h0l.1.1h0v.1h0l.1.1h0l.1.1h0l.1.1h0v.1h0l.1.1h0l.1.1h0l.1.1h0l1.4-1.1c-.9-1.5-2-3-3-4.4Zm6.7,8.5-1.4,1.2c.3.3.6.7.9,1h0l.1.1h0l.1.1h0l.1.1h0v.1h0l.1.1h0v.1h0l.1.1h0v.1h0l.1.1h0l.1.1h0l.1.1h0l.1.1h0l.1.1h0c.6.7,1.3,1.4,1.9,2.1l1.3-1.2c-1.3-1.7-2.5-3.1-3.7-4.4Zm7.4,7.9-1.3,1.3c1.3,1.3,2.6,2.6,3.9,3.8l1.3-1.3a46.83,46.83,0,0,1-3.9-3.8Zm7.8,7.4-1.2,1.4,4.1,3.5h.1l1.2-1.4c-1.4-1.1-2.8-2.3-4.2-3.5Zm8.4,6.9-1.1,1.5,1,.7h0l.1.1h0a.1.1,0,0,1,.1.1h.8l.1.1h0a24.26,24.26,0,0,0,2,1.4h0l.1.1h0l1.1-1.5a19.24,19.24,0,0,1-4.2-2.5Zm8.9,6.2-1,1.5h0l.1.1h0c.7.5,1.5,1,2.2,1.4h0l.1.1h0l.1.1h0l.1.1h0l.1.1h0l.1.1h0c.5.3,1,.6,1.4.9l.9-1.6c-1.1-.9-2.6-1.8-4.1-2.8Zm9.3,5.6-.9,1.6c.4.2.7.4,1.1.6h.5a.1.1,0,0,1,.1.1h0c1,.5,1.9,1,2.9,1.5l.8-1.6a37.07,37.07,0,0,1-4.5-2.2Zm9.6,4.9-.8,1.7a9.74,9.74,0,0,0,1.1.5h.3a28.8,28.8,0,0,0,3.1,1.3h0c.1,0,.1,0,.2.1l.7-1.7c-1.3-.4-3-1.2-4.6-1.9Zm10,4.2-.6,1.7c1.7.6,3.4,1.3,5.2,1.9l.6-1.7c-1.8-.7-3.5-1.3-5.2-1.9Zm10.2,3.4-.5,1.7c1.7.5,3.5,1,5.3,1.5l.5-1.8a34.59,34.59,0,0,1-5.3-1.4Zm10.5,2.8-.4,1.8c.6.1,1.2.3,1.9.4h1.4a12.86,12.86,0,0,1,1.9.4l.3-1.8a35.51,35.51,0,0,1-5.1-.8Zm10.7,2-.3,1.8c1.8.3,3.6.5,5.4.7l.2-1.8c-1.8-.3-3.6-.5-5.3-.7Zm10.7,1.2-.1,1.8c.4,0,.8.1,1.2.1h.4c1.2.1,2.4.1,3.6.2l.1-1.8-5.2-.3Zm16.3.3c-1.5,0-3,.1-4.5.1h-.9v1.8h1.8c1.1,0,2.2,0,3.3-.1l.3-1.8Zm10.8-.7c-1.8.2-3.6.3-5.4.4l.1,1.8c.4,0,.8-.1,1.2-.1h.5l3.4-.3.2-1.8Zm10.7-1.4c-1.8.3-3.6.6-5.3.8l.2,1.8h.7l2.3-.3h.4l1.5-.3.2-2Zm10.6-2.2c-1.7.4-3.5.8-5.3,1.2l.4,1.8,1.3-.3h1.1l2.7-.6-.2-2.1Zm10.4-3c-1.7.6-3.4,1.1-5.2,1.6l.5,1.8c.9-.3,1.9-.5,2.8-.8h.7a6.37,6.37,0,0,1,.7-.2l.5-2.4Zm10.2-3.7c-1.7.7-3.4,1.3-5,1.9l.6,1.7c1-.4,1.9-.7,2.9-1.1h.2c.5-.2,1.1-.4,1.6-.6l-.3-1.9Zm9.8-4.5c-1.6.8-3.3,1.6-4.9,2.3l.7,1.7c.7-.3,1.3-.6,2-.9h0a.1.1,0,0,0,.1-.1h.1a25.58,25.58,0,0,1,2.4-1.1l-.4-1.9Zm9.6-5.1c-1.6.9-3.1,1.8-4.7,2.6l.9,1.6,1.2-.6h0l.1-.1H328a25.29,25.29,0,0,0,2.2-1.3l-.8-2.2Zm9.1-5.8-4.5,3,1,1.5c.2-.1.4-.3.6-.4h.4l.1-.1h0l.1-.1h0c1.1-.7,2.1-1.4,3.2-2.1l-.9-1.8Zm8.7-6.4c-1.4,1.1-2.9,2.2-4.3,3.3l1.1,1.5h.1l.1-.1h0c1.4-1,2.7-2.1,4.1-3.1l-1.1-1.6Zm8.3-7c-1.3,1.2-2.7,2.4-4.1,3.6l1.2,1.4,1.9-1.6h0l.1-.1h0a.1.1,0,0,0,.1-.1h0l.1-.1h.1l.1-.1h.1l.1-.1h0l.1-.1h0c.3-.3.7-.6,1-.9l-.8-1.9Zm7.7-7.6c-1.2,1.3-2.5,2.6-3.8,3.9l1.3,1.3.6-.6h0l.1-.1h0l.1-.1h0l.1-.1h0l.1-.1h0l.1-.1h0l.1-.1h0l.1-.1h0l.1-.1h0l.1-.1h0l.1-.1h0V326h0l.1-.1h0v-.1h0l.1-.1h0l.1-.1h0l.1-.1h0l.1-.1h0l.1-.1h0l.1-.1h0l.1-.1h0l.1-.1h0l.1-.1h0l.1-.1h0l.1-.1h0l.1-.1h0l.1-.1h0l.1-.1h0l-.6-1.9Zm7.1-8.2c-1.1,1.4-2.3,2.8-3.5,4.1l1.4,1.2c.4-.5.9-1,1.3-1.5h0l.1-.1h0l.1-.1h0l.1-.1h0l.1-.1h0l.1-.1h0l.1-.1h0l.1-.1h0l.1-.1h0l.1-.1h0l.1-.1h0l.1-.1h0l.1-.1h0l.1-.1h0l.1-.1h0v-.1h0l.1-.1h0v-.1h0v-.1h0v-.1h0v-.1h0V316h0c.1-.1.1-.2.2-.2l-.9-1.5Zm6.6-8.6c-1,1.5-2.1,2.9-3.2,4.4l1.5,1.1a17.09,17.09,0,0,1,1.1-1.4h0l.1-.1h0v-.1h0l.1-.1h0l.1-.1h0l1.5-2.1-1.2-1.6Zm5.9-9c-.9,1.5-1.9,3.1-2.9,4.6l1.5,1c.3-.5.6-1,.9-1.4h0l.1-.1h0l.1-.1h0l.1-.1h0l.1-.1h0v-.1h0v-.1h0v-.1h0v-.1h0V300h0v-.1h0v-.1h0v-.1h0v-.1h0v-.1h0v-.1h0v-.1h0v-.1h0v-.1h0V299h0v-.1h0v-.1h0v-.1h0v-.1h0v-.1h0v-.1h0v-.1h0l.1-.1h0c.1-.2.2-.3.3-.5l-.3-1Zm5.3-9.5c-.8,1.6-1.7,3.2-2.6,4.8l1.6.9v-.1h0l.1-.1h0v-.1h0v-.1h0v-.1h0l.1-.1h0c.6-1.2,1.3-2.3,1.9-3.5h0v-.1h0v-.1h0v-.1h0l-1.1-1.3Zm4.6-9.8c-.7,1.7-1.4,3.3-2.2,4.9l1.7.8,1.5-3.3h0v-.1h0v-.1h0v-.1h0c.1-.3.3-.6.4-.9l-1.4-1.2Zm3.9-10.1-1.8,5.1,1.7.7.3-.9h0v-.1h0V272h0c.4-1.1.8-2.2,1.2-3.4h0v-.1h0l-1.4-1.2Zm3.1-10.3c-.5,1.7-1,3.5-1.5,5.2l1.7.5c.5-1.7,1-3.4,1.5-5.2h0l-1.7-.5Zm2.4-10.6c-.3,1.8-.7,3.5-1.1,5.3l1.8.4c.4-1.8.8-3.6,1.1-5.4l-1.8-.3Zm1.6-10.7c-.2,1.8-.4,3.6-.7,5.4l1.8.3c.2-1.6.5-3.3.7-4.9h0v-.1h0v-.1h0v-.1h0l-1.8-.5Zm.9-10.8-.3,5.4,1.8.1c0-.4.1-.9.1-1.3h0V229h0v-.1h0v-.1h0c.1-1,.1-2.1.2-3.1h0v-.1h0v-.4l-1.8-.3Zm1.9-10.9h-1.8c0,1.3.1,2.7.1,4v1.4h1.8v-.8h0v-.1h0v-.1h0v-.1h0v-.1h0v-.1h0V218h0v-.1h0v-.1h0v-.1h0v-.1h0c-.1-1.6-.1-2.6-.1-3.6Zm-.7-10.9-1.8.2c.2,1.8.3,3.6.4,5.4l1.8-.1c0-.7-.1-1.4-.1-2.1h0v-.1h0v-.1h0v-.1h0v-.1h0V206h0v-.1h0v-.1h0v-.1h0v-.1h0v-.1h0c-.2-1.2-.2-1.8-.3-2.4Zm-1.4-10.9-1.8.3c.3,1.8.6,3.6.8,5.4l1.8-.2c-.1-.5-.1-1-.2-1.6h0V196h0v-.1h0v-.1h0v-.1h0v-.1h0v-.1h0v-.1h0v-.1h0v-.1h0v-.1h0V195h0v-.1h0a17.34,17.34,0,0,1-.6-2.7Zm-2.2-10.7-1.8.4c.4,1.7.8,3.5,1.2,5.3l1.8-.4c-.3-1.4-.6-2.8-.9-4.1h0v-.1h0a3,3,0,0,1-.3-1.1Zm-3-10.5-1.7.6c.6,1.7,1.1,3.5,1.6,5.2l1.8-.5c0-.1,0-.2-.1-.2h0V176h0c-.6-1.9-1.1-3.5-1.6-5Zm-3.8-10.3-1.7.7c.7,1.7,1.3,3.4,1.9,5.1l1.7-.6c-.2-.5-.3-1-.5-1.4h0v-.1h0v-.1h0v-.1h0v-.1h0V164h0v-.1h0v-.1h0v-.1h0v-.1h0c-.2-.5-.4-1.1-.6-1.6h0v-.1h0v-.1h0c-.7-1-.7-1.1-.8-1.1Zm-4.4-10.1-1.6.8c.8,1.6,1.6,3.3,2.3,4.9l1.7-.7c-.8-1.7-1.6-3.3-2.4-5Zm-5.2-9.6-1.6.9c.9,1.6,1.8,3.1,2.6,4.7l1.6-.9a.1.1,0,0,0-.1-.1h0v-.1h0v-.1h0v-.1h0c-.7-1.3-1.4-2.5-2.1-3.7h0l-.1-.1h0v-.1h0v-.1h0c-.2-.3-.2-.3-.3-.3Zm-5.8-9.3-1.5,1,3,4.5,1.5-1a4.05,4.05,0,0,1-.5-.9h0l-.1-.1h0l-.1-.1h0l-.1-.1h0l-.1-.1h0v-.1h0v-.1h0v-.1h0v-.1h0v-.1h0v-.1h0v-.1h0v-.1h0V134h0v-.1h0v-.1h0v-.1h0v-.1h0v-.1h0v-.1h0l-.1-.1h0l-.1-.1h0l-.1-.1h0l-.1-.1h0a.1.1,0,0,0-.1-.1h0a.1.1,0,0,0-.1-.1h0c-1.4-1-1.5-1-1.5-1.1Zm-6.5-8.8-1.4,1.1c1.1,1.4,2.2,2.9,3.3,4.3l1.5-1.1a5.5,5.5,0,0,0-.7-.9h0l-.1-.1h0v-.1h0V126h0v-.1h0l-.1-.1h0l-.1-.1h0l-.1-.1h0c-1-1.1-1.6-1.9-2.3-2.7Zm-7.1-8.4-1.3,1.2c1.2,1.3,2.4,2.7,3.6,4.1l1.4-1.2h0v-.1h0v-.1h0l-.1-.1h0v-.1h0l-.1-.1h0l-.1-.1h0l-.1-.1h0l-.1-.1h0l-.1-.1h0l-.1-.1h0l-.1-.1h0l-.1-.1h0l-.1-.1h0l-.1-.1h0l-.1-.1h0c-.1-.1-.2-.2-.2-.3h0l-.1-.1h0l-.1-.1h0l-.1-.1h0l-.1-.1h0l-.1-.1h0l-.1-.1h0l-.1-.1h0l-.1-.1-1.5-1.5c.1.1.1,0,0,0Zm-7.6-7.8-1.3,1.3c1.3,1.2,2.6,2.5,3.9,3.8l1.3-1.3h0l-.1-.1h0l-.1-.1h0l-.1-.1h0l-.1-.1h0l-.1-.1h0l-.1-.1h0l-.1-.1h0l-.1-.1h0l-.1-.1h0l-.1-.1h0l-.1-.1h0l-.1-.1h0l-.1-.1h0l-.1-.1h0l-.1-.1h0l-.1-.1h0l-.1-.1h0c-1.7-1.6-1.9-1.8-2.2-2.1Zm-8.2-7.3-1.2,1.4c1.4,1.1,2.8,2.3,4.1,3.5l1.2-1.4c-.7-.7-1.5-1.3-2.3-2h0l-.1-.1h0l-.1-.1h-.1l-.1-.1h-.6a7.93,7.93,0,0,0-.8-1.2Zm-8.7-6.6-1.1,1.5c1.5,1,2.9,2.1,4.4,3.2l1.1-1.4h-1l-.1-.1h0l-.1-.1h0a11.05,11.05,0,0,0-3.2-3.1Zm-9.2-6.1-1,1.6c1.5.9,3.1,1.9,4.6,2.9l1-1.5c-.1-.1-.2-.1-.2-.2h0l-.1-.1h0l-.1-.1h0l-.1-.1h-.7l-.1-.1h0l-.1-.1h0l-.1-.1h0l-.1-.1h0l-.1-.1h0l-.1-.1h0a.1.1,0,0,1-.1-.1h0a.1.1,0,0,1-.1-.1h-.6a9,9,0,0,0-2-1.7Zm-9.5-5.3-.8,1.6c1.6.8,3.2,1.7,4.8,2.6l.9-1.6H327a14.91,14.91,0,0,0-3.8-2.6Zm-9.9-4.7-.7,1.7c1.7.7,3.3,1.5,4.9,2.2l.8-1.7a.35.35,0,0,1-.2-.1h0l-3.3-1.5h-.1c-.9-.4-1.2-.5-1.4-.6Zm-10.2-4-.6,1.7c1.7.6,3.4,1.2,5.1,1.9l.7-1.7-1.5-.6h-.2c-1.4-.5-2.5-.9-3.5-1.3Zm-10.5-3.2-.5,1.8,5.2,1.5.5-1.7-.9-.3h0c-1.6-.5-2.9-.9-4.3-1.3Zm-10.7-2.4-.3,1.8c1.8.3,3.5.7,5.3,1.1l.4-1.8c-.9-.2-1.8-.4-2.8-.6h-1.2a6.28,6.28,0,0,0-1.4-.5Zm-10.8-1.7-.2,1.8c1.8.2,3.6.5,5.4.7l.3-1.8a7.72,7.72,0,0,0-1.5-.2h-.4a11.14,11.14,0,0,0-1.7-.2h-.2a15,15,0,0,0-1.7-.3Zm-10.9-.9-.1,1.8c1.8.1,3.6.2,5.4.4l.2-1.8c-.6,0-1.2-.1-1.8-.1h-2c-1.6-.3-1.7-.3-1.7-.3Zm-7.4-.2v1.8h1.9v-1.8h-1.9Z" transform="translate(-52.93 -17.73)"></path>
  <circle class="cls-2" cx="334.09" cy="117.25" r="45.7"></circle>
  <circle class="cls-2" cx="351.99" cy="245.86" r="45.7"></circle>
  <circle class="cls-2" cx="46.45" cy="246.95" r="45.7"></circle>
  <path class="cls-1" d="M299.61,51.56a35.85,35.85,0,0,0-65.79-17.26A16,16,0,0,0,228,33.23a16.56,16.56,0,0,0-16.55,16.55,15.58,15.58,0,0,0,.3,2.91,24.8,24.8,0,0,0,2.49,49.47H290a26.21,26.21,0,0,0,9.61-50.6Z" transform="translate(-52.93 -17.73)"></path>
  <path class="cls-3" d="M190.92,80.51a13.86,13.86,0,0,0,.24,1.54,5.55,5.55,0,0,0,.24.95c.12.42.24.89.36,1.31s.24.71.36,1,.3.77.42,1.13a8.4,8.4,0,0,0,.47,1.07c.18.36.3.65.47,1a9.6,9.6,0,0,0,.59,1.07,5.93,5.93,0,0,1,.47.83,12.7,12.7,0,0,0,.77,1.13,5.19,5.19,0,0,0,.47.59,9.24,9.24,0,0,0,.95,1.19c.12.12.18.24.3.36a24.65,24.65,0,0,0,14.71,8h0l75.81-75.81h0c-.77-.59-1.54-1.19-2.31-1.72l-.06-.06c-.77-.53-1.6-1.07-2.43-1.54a.06.06,0,0,1-.06-.06,36,36,0,0,0-5.34-2.43h-.06c-.89-.3-1.78-.59-2.67-.83-.12-.06-.24-.06-.36-.12-.89-.24-1.78-.42-2.67-.59-.12,0-.3-.06-.42-.06a20.16,20.16,0,0,0-2.73-.36h-.36c-.95-.06-2-.12-2.91-.12a35.8,35.8,0,0,0-30,16.25,16,16,0,0,0-5.81-1.07,16.56,16.56,0,0,0-16.55,16.55,15.58,15.58,0,0,0,.3,2.91A24.79,24.79,0,0,0,190.8,77.3c0,.83.06,1.6.12,2.43A3.35,3.35,0,0,0,190.92,80.51Z" transform="translate(-52.93 -17.73)"></path>
  <path class="cls-4" d="M263.84,19.11a34.87,34.87,0,0,1,34.7,32.51l.06.71.65.24a25.31,25.31,0,0,1,11.45,9.08A25.12,25.12,0,0,1,290.06,101H214.3a23.73,23.73,0,0,1-2.37-47.34l1.19-.12-.18-1.13a14.37,14.37,0,0,1-.24-2.67,15.49,15.49,0,0,1,15.48-15.48,15.86,15.86,0,0,1,5.46,1l.83.3.47-.71a34.06,34.06,0,0,1,28.89-15.78m0-1.13a35.8,35.8,0,0,0-30,16.25A16,16,0,0,0,228,33.17a16.56,16.56,0,0,0-16.55,16.55,15.58,15.58,0,0,0,.3,2.91,24.8,24.8,0,0,0,2.49,49.47H290a26.21,26.21,0,0,0,9.61-50.6A35.84,35.84,0,0,0,263.84,18Z" transform="translate(-52.93 -17.73)"></path>
  <polygon class="cls-3" points="168.65 291.84 167.25 291.84 167.25 290.44 165.84 290.44 165.84 291.84 164.34 291.84 164.34 293.24 165.84 293.24 165.84 294.74 167.25 294.74 167.25 293.24 168.65 293.24 168.65 291.84"></polygon>
  <polygon class="cls-3" points="139.25 263.44 137.84 263.44 137.84 262.04 136.34 262.04 136.34 263.44 134.94 263.44 134.94 264.84 136.34 264.84 136.34 266.24 137.84 266.24 137.84 264.84 139.25 264.84 139.25 263.44"></polygon>
  <polygon class="cls-5" points="262.94 302.74 261.55 302.74 261.55 301.34 260.05 301.34 260.05 302.74 258.64 302.74 258.64 304.14 260.05 304.14 260.05 305.64 261.55 305.64 261.55 304.14 262.94 304.14 262.94 302.74"></polygon>
  <polygon class="cls-3" points="272.64 324.24 271.64 325.24 270.64 324.24 269.64 325.24 270.64 326.24 269.64 327.24 270.64 328.24 271.64 327.24 272.64 328.24 273.64 327.24 272.64 326.24 273.64 325.24 272.64 324.24"></polygon>
  <polygon class="cls-5" points="156.94 320.04 156.94 321.44 155.54 321.44 155.54 322.84 156.94 322.84 156.94 324.24 158.34 324.24 158.34 322.84 159.75 322.84 159.75 321.44 158.34 321.44 158.34 320.04 156.94 320.04"></polygon>
  <polygon class="cls-5" points="269.25 270.94 269.25 272.34 267.75 272.34 267.75 273.74 269.25 273.74 269.25 275.14 270.64 275.14 270.64 273.74 272.05 273.74 272.05 272.34 270.64 272.34 270.64 270.94 269.25 270.94"></polygon>
  <polygon class="cls-5" points="146.25 287.44 145.34 288.44 144.34 287.44 143.34 288.44 144.34 289.44 143.34 290.44 144.34 291.44 145.34 290.44 146.25 291.44 147.25 290.44 146.25 289.44 147.25 288.44 146.25 287.44"></polygon>
  <polygon class="cls-5" points="170.75 267.54 169.34 267.54 169.34 266.14 167.94 266.14 167.94 267.54 166.54 267.54 166.54 268.94 167.94 268.94 167.94 270.34 169.34 270.34 169.34 268.94 170.75 268.94 170.75 267.54"></polygon>
  <path class="cls-6" d="M341.18,365.27v-.6h.1V252.17H164.18v113.1h-22.1v11.2l14.8,8.4h191.9l14.8-8.4v-11.2Z" transform="translate(-52.93 -17.73)"></path>
  <path class="cls-7" d="M391.28,385.87a2.69,2.69,0,0,0-2.7-2.7H117.08a2.7,2.7,0,0,0,0,5.4h271.5A2.69,2.69,0,0,0,391.28,385.87Z" transform="translate(-52.93 -17.73)"></path>
  <path class="cls-8" d="M341.28,365.27V252.17H164.18v113.1h-22.1v11.2l14.8,8.4h191.9l14.8-8.4v-11.2Z" transform="translate(-52.93 -17.73)"></path>
  <rect class="cls-1" x="121.2" y="244.24" width="157.4" height="98.4"></rect>
  <polygon class="cls-9" points="112.7 347.54 90.6 347.54 90.6 358.74 105.3 367.24 132.4 367.24 265.2 234.44 112.7 234.44 112.7 347.54"></polygon>
  <polygon class="cls-10" points="91.5 357.84 93.8 359.14 306.1 359.14 308.3 357.84 91.5 357.84"></polygon>
  <path class="cls-10" d="M329.93,263.57v95.1H175.83v-95.1h154.1m1.6-1.6H174.13v98.4h157.4V262Z" transform="translate(-52.93 -17.73)"></path>
  <path class="cls-10" d="M340,365.27H165.48V253.37H340v111.3h1.3V252.17H164.18v113.1h-22.1v11.2l14.8,8.4h191.9l14.8-8.4v-11.2Zm22.1,10.5-13.8,7.9H157.18l-13.8-7.9v-9.2h218.8v9.2Z" transform="translate(-52.93 -17.73)"></path>
  <path class="cls-10" d="M278.53,367.17h0v1.7a1.37,1.37,0,0,1-1.4,1.4h-48.6a1.37,1.37,0,0,1-1.4-1.4v-.7h0v-1h-1.3v.5h0v1.1a2.69,2.69,0,0,0,2.7,2.7h48.6a2.69,2.69,0,0,0,2.7-2.7v-1.6Z" transform="translate(-52.93 -17.73)"></path>
  <polygon class="cls-5" points="173.65 311.14 189.85 304.04 197.65 280.74 189.75 268.14 173.65 311.14"></polygon>
  <polygon class="cls-5" points="189.35 264.14 209.25 295.64 221.05 290.54 202.35 264.14 189.35 264.14"></polygon>
  <polygon class="cls-5" points="229.45 288.94 170.35 314.54 182.95 323.14 222.55 306.34 229.45 288.94"></polygon>
  <polygon class="cls-5" points="201.85 324.44 200.55 324.44 200.55 323.14 199.25 323.14 199.25 324.44 197.95 324.44 197.95 325.64 199.25 325.64 199.25 326.94 200.55 326.94 200.55 325.64 201.85 325.64 201.85 324.44"></polygon>
  <polygon class="cls-3" points="174.54 297.84 173.25 297.84 173.25 296.54 171.94 296.54 171.94 297.84 170.75 297.84 170.75 299.04 171.94 299.04 171.94 300.34 173.25 300.34 173.25 299.04 174.54 299.04 174.54 297.84"></polygon>
  <polygon class="cls-3" points="148.04 272.24 146.75 272.24 146.75 270.94 145.54 270.94 145.54 272.24 144.25 272.24 144.25 273.54 145.54 273.54 145.54 274.74 146.75 274.74 146.75 273.54 148.04 273.54 148.04 272.24"></polygon>
  <polygon class="cls-5" points="237.84 257.84 236.94 258.74 236.04 257.84 235.15 258.74 236.04 259.64 235.15 260.54 236.04 261.44 236.94 260.54 237.84 261.44 238.75 260.54 237.84 259.64 238.75 258.74 237.84 257.84"></polygon>
  <polygon class="cls-5" points="259.35 307.64 258.14 307.64 258.14 306.34 256.85 306.34 256.85 307.64 255.54 307.64 255.54 308.84 256.85 308.84 256.85 310.14 258.14 310.14 258.14 308.84 259.35 308.84 259.35 307.64"></polygon>
  <polygon class="cls-3" points="268.14 326.94 267.25 327.84 266.35 326.94 265.44 327.84 266.35 328.74 265.44 329.64 266.35 330.54 267.25 329.64 268.14 330.54 269.05 329.64 268.14 328.74 269.05 327.84 268.14 326.94"></polygon>
  <polygon class="cls-5" points="163.94 323.14 163.94 324.44 162.75 324.44 162.75 325.64 163.94 325.64 163.94 326.94 165.25 326.94 165.25 325.64 166.54 325.64 166.54 324.44 165.25 324.44 165.25 323.14 163.94 323.14"></polygon>
  <polygon class="cls-3" points="198.1 331.94 199 332.84 198.1 333.74 199 334.64 199.9 333.74 200.8 334.64 201.7 333.74 200.8 332.84 201.7 331.94 200.8 331.04 199.9 331.94 199 331.04 198.1 331.94"></polygon>
  <polygon class="cls-5" points="265.05 278.94 265.05 280.24 263.75 280.24 263.75 281.44 265.05 281.44 265.05 282.74 266.35 282.74 266.35 281.44 267.55 281.44 267.55 280.24 266.35 280.24 266.35 278.94 265.05 278.94"></polygon>
  <polygon class="cls-5" points="154.44 293.84 153.54 294.74 152.65 293.84 151.75 294.74 152.65 295.64 151.75 296.54 152.65 297.44 153.54 296.54 154.44 297.44 155.34 296.54 154.44 295.64 155.34 294.74 154.44 293.84"></polygon>
  <polygon class="cls-3" points="245.84 280.24 244.65 280.24 244.65 278.94 243.34 278.94 243.34 280.24 242.04 280.24 242.04 281.44 243.34 281.44 243.34 282.74 244.65 282.74 244.65 281.44 245.84 281.44 245.84 280.24"></polygon>
  <polygon class="cls-5" points="176.44 275.94 175.15 275.94 175.15 274.64 173.84 274.64 173.84 275.94 172.65 275.94 172.65 277.14 173.84 277.14 173.84 278.44 175.15 278.44 175.15 277.14 176.44 277.14 176.44 275.94"></polygon>
  <polygon class="cls-3" points="200.75 256.04 199.95 256.94 199.05 256.04 198.15 256.94 199.05 257.84 198.15 258.74 199.05 259.64 199.95 258.74 200.75 259.64 201.65 258.74 200.75 257.84 201.65 256.94 200.75 256.04"></polygon>
  <circle class="cls-2" cx="61.99" cy="117.03" r="45.7"></circle>
  <path class="cls-6" d="M92.14,163h45.56a34.85,34.85,0,1,0-45.56,0Z" transform="translate(-52.93 -17.73)"></path>
  <path class="cls-11" d="M93.81,157.78l6.32-6.32a20.92,20.92,0,1,1,29.58,0l6.32,6.32a29.86,29.86,0,1,0-42.22,0Z" transform="translate(-52.93 -17.73)"></path>
  <polygon class="cls-12" points="77.87 107.2 77.87 107.2 77.87 107.2 77.87 107.2"></polygon>
  <path class="cls-11" d="M130.8,124.93l-13.24,6.57a5.8,5.8,0,1,0,3.08,4.16l10.16-10.73h0Z" transform="translate(-52.93 -17.73)"></path>
  <path class="cls-5" d="M131.74,124.23a20.92,20.92,0,0,1-2,27.23l6.32,6.32a29.86,29.86,0,0,0,2.89-38.87Z" transform="translate(-52.93 -17.73)"></path>
  <path class="cls-13" d="M139.56,112A34.85,34.85,0,1,0,90.29,161.3Z" transform="translate(-52.93 -17.73)"></path>
  <polygon class="cls-14" points="77.87 107.2 77.87 107.2 77.87 107.2 77.87 107.2"></polygon>
  <polyline class="cls-14" points="77.87 107.2 77.87 107.2 77.87 107.2"></polyline>
  <path class="cls-15" d="M128.36,126.73l-8.11,8.57-.18.19,0,.26a5.26,5.26,0,0,1-5.18,6.18,5.3,5.3,0,0,1-4.24-2.14,5.27,5.27,0,0,1,4.22-8.4,5.33,5.33,0,0,1,2.4.58l.24.12.24-.12,10.57-5.25m1.36-1.27-12.16,6a5.84,5.84,0,0,0-2.64-.63,5.8,5.8,0,1,0,5.72,4.79Z" transform="translate(-52.93 -17.73)"></path>
  <path class="cls-15" d="M114.93,107.34A29.33,29.33,0,0,1,136,157l-5.57-5.57a21.45,21.45,0,1,0-31.07,0L93.82,157a29.33,29.33,0,0,1,21.11-49.69m0-.53a29.86,29.86,0,0,0-21.11,51l6.32-6.32a20.92,20.92,0,1,1,29.58,0l6.32,6.32a29.86,29.86,0,0,0-21.11-51Z" transform="translate(-52.93 -17.73)"></path>
  <path class="cls-14" d="M114.93,103.82a32.85,32.85,0,0,1,22,57.21h-44a32.85,32.85,0,0,1,22-57.21m0-2A34.85,34.85,0,0,0,92.14,163h45.56a34.85,34.85,0,0,0-22.78-61.21Z" transform="translate(-52.93 -17.73)"></path>
  <polygon class="cls-16" points="341.08 223.7 342.89 225.39 343.42 225.98 344.58 225.98 347.92 222.69 341.08 223.7"></polygon>
  <polyline class="cls-17" points="335.44 218.69 353.33 218.69 359.49 216.83 365.97 218.69 365.97 224.78 359.49 227.07 353.33 225.24 344.31 225.24"></polyline>
  <polygon class="cls-18" points="365.97 218.69 370.69 214.55 375 214.55 380.92 218.54 375.18 218.51 372.79 220.67 372.7 223.41 375.18 225.69 380.43 225.69 375.18 229.35 370.08 229.35 365.97 224.78 365.97 218.69"></polygon>
  <polygon class="cls-17" points="325.8 270.47 330.06 277.17 359.42 277.17 359.42 270.47 325.8 270.47"></polygon>
  <polygon class="cls-17" points="338.61 270.47 328.05 264.83 328.05 254.17 359.9 254.17 355.42 266.51 351.72 266.51 351.72 270.47 338.61 270.47"></polygon>
  <polygon class="cls-16" points="358.2 254.17 342.47 233.61 342.47 225.24 335.44 218.69 329.65 225.39 329.65 233.61 343.93 254.17 358.2 254.17"></polygon>
  <polygon class="cls-3" points="332.39 267.15 352.63 246.91 342.47 233.61 342.47 225.24 335.44 218.69 329.65 225.39 329.65 233.61 343.93 254.17 328.05 254.17 328.05 264.83 332.39 267.15"></polygon>
  <polygon class="cls-19" points="326.07 270.47 330.33 277.17 359.69 277.17 359.69 270.47 326.07 270.47"></polygon>
  <polyline class="cls-19" points="335.71 218.69 353.59 218.69 359.75 216.83 366.23 218.69 366.23 224.78 359.75 227.07 353.59 225.24 346.58 225.24"></polyline>
  <polygon class="cls-19" points="366.23 218.69 370.95 214.55 375.27 214.55 381.19 218.54 375.45 218.51 373.06 220.67 372.96 223.41 375.45 225.69 380.7 225.69 375.45 229.35 370.35 229.35 366.23 224.78 366.23 218.69"></polygon>
  <polygon class="cls-19" points="338.88 270.47 328.31 264.83 328.31 254.17 360.17 254.17 355.69 266.51 351.99 266.51 351.99 270.47 338.88 270.47"></polygon>
  <polygon class="cls-19" points="358.47 254.17 342.73 233.61 342.73 225.24 335.71 218.69 329.92 225.39 329.92 233.61 344.19 254.17 358.47 254.17"></polygon>
  <rect class="cls-6" x="23.38" y="223.89" width="46.13" height="46.13"></rect>
  <circle class="cls-1" cx="47.46" cy="247.2" r="14.85"></circle>
  <polygon class="cls-13" points="23.4 264.05 63.02 224.42 23.4 223.89 23.4 264.05"></polygon>
  <rect class="cls-19" x="23.4" y="223.89" width="46.13" height="46.13"></rect>
  <circle class="cls-19" cx="46.91" cy="247.2" r="14.85"></circle>
  <circle class="cls-20" cx="46.84" cy="247.42" r="4.27"></circle>
  <circle class="cls-5" cx="53.69" cy="253.49" r="1.33"></circle>
  <path class="cls-5" d="M91.3,259.34s2.82-5.49,8.55-4.08l-.15,2s-3.56-1.05-6.81,3.24A19.15,19.15,0,0,1,91.3,259.34Z" transform="translate(-52.93 -17.73)"></path>
  <path class="cls-5" d="M92.86,262c-.38.41-.38.78-.58,1.43a19.15,19.15,0,0,1-1.89-.61,3.52,3.52,0,0,1,.56-1.93Z" transform="translate(-52.93 -17.73)"></path>
  <polygon class="cls-1" points="35.29 317.8 38.02 317.91 37.99 320.69 40.72 320.8 40.79 317.93 43.61 318.1 43.68 315.23 40.91 315.21 40.98 312.34 38.2 312.32 38.09 315.05 35.31 315.02 35.29 317.8"></polygon>
  <polygon class="cls-21" points="59.63 304.08 57.43 305.88 59.23 308.08 57.03 309.88 55.23 307.68 53.13 309.48 51.33 307.28 53.43 305.48 51.63 303.38 53.83 301.48 55.63 303.68 57.83 301.88 59.63 304.08"></polygon>
  <polygon class="cls-21" points="381.59 163.07 381.24 165.9 384.07 166.24 383.72 169.06 380.9 168.72 380.62 171.47 377.8 171.12 378.08 168.37 375.32 168.09 375.6 165.2 378.42 165.55 378.77 162.73 381.59 163.07"></polygon>
  <polygon class="cls-1" points="81.86 65.38 84.59 65.49 84.56 68.27 87.29 68.38 87.36 65.52 90.18 65.68 90.25 62.82 87.48 62.79 87.55 59.93 84.77 59.9 84.66 62.63 81.88 62.6 81.86 65.38"></polygon>
  <polygon class="cls-1" points="69.53 47.58 72.25 47.69 72.23 50.47 74.95 50.58 75.03 47.72 77.84 47.88 77.92 45.02 75.14 44.99 75.22 42.13 72.44 42.1 72.33 44.83 69.55 44.8 69.53 47.58"></polygon>
  <polygon class="cls-1" points="389.3 146.54 392.03 146.65 392 149.43 394.73 149.54 394.81 146.68 397.62 146.84 397.69 143.98 394.92 143.95 394.99 141.09 392.21 141.06 392.1 143.79 389.32 143.76 389.3 146.54"></polygon>
  <polygon class="cls-1" points="393.5 168.34 396.22 168.45 396.2 171.23 398.93 171.34 399 168.47 401.82 168.64 401.89 165.77 399.11 165.75 399.19 162.88 396.41 162.86 396.3 165.59 393.52 165.56 393.5 168.34"></polygon>
  <path class="cls-1" d="M356.59,125l.53-.53a42.34,42.34,0,0,1,59.8,0l.53.53-2.65,2.65-.53-.53a38.58,38.58,0,0,0-54.5,0l-.53.53Z" transform="translate(-52.93 -17.73)"></path>
  <path class="cls-14" d="M387,112.82A41.41,41.41,0,0,1,416.39,125l-1.59,1.59a39.33,39.33,0,0,0-55.56,0L357.65,125A41.41,41.41,0,0,1,387,112.82m0-1.5a42.74,42.74,0,0,0-30.43,12.58L355.53,125l1.06,1.06,1.59,1.59,1.06,1.06,1.06-1.06a37.83,37.83,0,0,1,53.44,0l1.06,1.06,1.06-1.06,1.59-1.59,1.06-1.06-1.06-1.06A42.74,42.74,0,0,0,387,111.32Z" transform="translate(-52.93 -17.73)"></path>
  <path class="cls-1" d="M365.33,133.7l.53-.53a30,30,0,0,1,42.34,0l.53.53-2.65,2.65-.53-.53a26.27,26.27,0,0,0-37,0l-.53.53Z" transform="translate(-52.93 -17.73)"></path>
  <path class="cls-14" d="M387,125.19a29.1,29.1,0,0,1,20.64,8.51l-1.59,1.59a27,27,0,0,0-38.1,0l-1.59-1.59A29.1,29.1,0,0,1,387,125.19m0-1.5a30.47,30.47,0,0,0-21.7,9l-1.06,1.06,1.06,1.06,1.59,1.59,1.06,1.06,1.06-1.06a25.52,25.52,0,0,1,36,0l1.06,1.06,1.06-1.06,1.59-1.59,1.06-1.06-1.06-1.06a30.47,30.47,0,0,0-21.7-9Z" transform="translate(-52.93 -17.73)"></path>
  <path class="cls-1" d="M396.81,144.55a13.82,13.82,0,0,0-19.58,0l-.53.53-2.65-2.65.53-.53a17.57,17.57,0,0,1,24.87,0l.53.53-2.65,2.65Z" transform="translate(-52.93 -17.73)"></path>
  <path class="cls-14" d="M387,137.49a16.79,16.79,0,0,1,11.91,4.94L397.34,144a14.56,14.56,0,0,0-20.64,0l-1.59-1.59A16.79,16.79,0,0,1,387,137.49m0-1.5a18.22,18.22,0,0,0-13,5.38L373,142.43l1.06,1.06,1.59,1.59,1.06,1.06,1.06-1.06a13.06,13.06,0,0,1,18.52,0l1.06,1.06,1.06-1.06,1.59-1.59,1.06-1.06L400,141.37A18.22,18.22,0,0,0,387,136Z" transform="translate(-52.93 -17.73)"></path>
  <circle class="cls-22" cx="334.09" cy="137.78" r="5.64"></circle>
</svg>
