<svg xmlns="http://www.w3.org/2000/svg" xmlns:xlink="http://www.w3.org/1999/xlink" viewBox="0 0 730.06 196">
  <defs>
    <style>
      .a {
        fill: none;
      }

      .b {
        fill: #e6e5e5;
      }

      .c {
        fill: #ffd55c;
      }

      .d {
        fill: #ff6d3b;
      }

      .e {
        fill: #373538;
      }

      .f {
        fill: #fff;
      }

      .g {
        fill: #7dcecf;
      }

      .h {
        fill: #c4c3c4;
      }

      .i {
        fill: #08191e;
      }

      .j {
        fill: #d3d2d3;
      }

      .k {
        opacity: 0.5;
      }

      .l {
        fill: #232124;
      }

      .m {
        fill: #27bec4;
      }

      .n {
        fill: #21d8de;
      }

      .o {
        fill: #e2522b;
      }

      .p {
        clip-path: url(#a);
      }

      .q {
        fill: #242d3c;
      }

      .r {
        fill: #3e4959;
      }
    </style>
    <clipPath id="a" transform="translate(-11.79 -8.41)">
      <polygon class="a" points="164.44 89.13 60.52 81.91 74.41 135.29 157 129.34 164.44 89.13"/>
    </clipPath>
  </defs>
  <title>order-tracking</title>
  <g>
    <rect class="b" x="390.07" y="134.7" width="138.09" height="11.55" rx="3.16" ry="3.16" transform="translate(-28.27 197.84) rotate(-24.89)"/>
    <rect class="b" x="453.87" y="102.98" width="75.93" height="11.55" rx="3.16" ry="3.16" transform="translate(-11.88 208.67) rotate(-24.89)"/>
    <rect class="b" x="441.24" y="143.65" width="67.64" height="11.55" rx="3.16" ry="3.16" transform="translate(-30.56 205.39) rotate(-24.89)"/>
    <rect class="b" x="426.48" y="163.83" width="14.09" height="11.55" rx="3.16" ry="3.16" transform="translate(-42.91 189.78) rotate(-24.89)"/>
  </g>
  <g>
    <circle class="c" cx="598.98" cy="98.38" r="97.62"/>
    <g>
      <rect x="734.61" y="138.54" width="9.3" height="4.65" transform="translate(572.54 868.9) rotate(-88.91)"/>
      <rect x="734.79" y="129.24" width="9.3" height="4.65" transform="translate(582.01 859.96) rotate(-88.91)"/>
      <rect x="553.29" y="135.09" width="9.3" height="4.65" transform="translate(398.14 684.23) rotate(-88.91)"/>
      <polygon class="d" points="691.43 71.31 710.03 71.67 727.91 109.21 727.21 146.41 690.01 145.7 671.42 145.34 672.12 108.15 672.83 70.96 691.43 71.31"/>
      <rect class="e" x="643.77" y="57.76" width="9.3" height="181.35" transform="translate(475.87 785.51) rotate(-88.91)"/>
      <rect class="f" x="577.24" y="40.92" width="83.7" height="120.9" transform="translate(494.15 710.01) rotate(-88.91)"/>
      <rect x="676.5" y="137.43" width="9.3" height="4.65" transform="matrix(0.02, -1, 1, 0.02, 516.64, 809.71)"/>
      <polygon class="g" points="689.02 75.92 688.49 103.81 720.48 104.42 707.06 76.26 689.02 75.92 689.02 75.92"/>
      <path class="h" d="M728.53,154.62a17.44,17.44,0,0,0-34.87-.66Z" transform="translate(-11.79 -8.41)"/>
      <path class="h" d="M644.85,153a17.44,17.44,0,1,0-34.87-.66Z" transform="translate(-11.79 -8.41)"/>
      <path class="h" d="M607.66,152.31a17.44,17.44,0,0,0-34.87-.66Z" transform="translate(-11.79 -8.41)"/>
      <circle cx="711.1" cy="154.28" r="13.95" transform="translate(531.51 853.91) rotate(-88.91)"/>
      <circle class="e" cx="711.1" cy="154.28" r="6.98" transform="translate(531.51 853.91) rotate(-88.91)"/>
      <circle cx="590.22" cy="151.98" r="13.95" transform="translate(415.23 730.79) rotate(-88.91)"/>
      <circle cx="627.41" cy="152.69" r="13.95" transform="matrix(0.02, -1, 1, 0.02, 451.01, 768.67)"/>
      <circle class="e" cx="590.22" cy="151.98" r="6.98" transform="translate(415.23 730.79) rotate(-88.91)"/>
      <circle class="e" cx="627.41" cy="152.69" r="6.98" transform="translate(451.01 768.67) rotate(-88.91)"/>
      <polygon class="e" points="635.37 84.2 635.55 74.9 653.79 93.85 634.84 112.09 635.02 102.79 546.69 101.11 547.04 82.51 635.37 84.2"/>
    </g>
  </g>
  <g>
    <rect class="b" x="478.37" y="51.99" width="101.62" height="11.55" rx="3.16" ry="3.16" transform="translate(13.04 219.65) rotate(-24.89)"/>
    <rect class="b" x="391.99" y="103.79" width="51.06" height="11.55" rx="3.16" ry="3.16" transform="translate(-19.12 177.47) rotate(-24.89)"/>
    <rect class="b" x="425.43" y="65.97" width="75.93" height="11.55" rx="3.16" ry="3.16" transform="translate(1.05 193.26) rotate(-24.89)"/>
    <rect class="b" x="446.31" y="87.07" width="14.09" height="11.55" rx="3.16" ry="3.16" transform="translate(-8.76 191) rotate(-24.89)"/>
    <rect class="b" x="462.85" y="79.4" width="14.09" height="11.55" rx="3.16" ry="3.16" transform="translate(-4 197.24) rotate(-24.89)"/>
    <rect class="b" x="329.18" y="110.62" width="75.93" height="11.55" rx="3.16" ry="3.16" transform="translate(-26.68 156.9) rotate(-24.89)"/>
    <rect class="b" x="407.7" y="88.54" width="14.09" height="11.55" rx="3.16" ry="3.16" transform="translate(-12.96 174.88) rotate(-24.89)"/>
  </g>
  <g>
    <circle class="d" cx="350.3" cy="98" r="98"/>
    <g>
      <polygon class="i" points="399.33 36.75 405.45 36.75 405.45 171.5 295.14 171.5 295.14 36.75 301.27 36.75 399.33 36.75"/>
      <rect class="f" x="301.27" y="30.63" width="98.06" height="134.75"/>
      <g>
        <rect class="h" x="332.3" y="124.44" width="54.78" height="2.56"/>
        <rect class="h" x="332.3" y="109.99" width="54.78" height="2.56"/>
        <rect class="h" x="332.3" y="95.53" width="54.78" height="2.56"/>
        <rect class="h" x="332.3" y="81.07" width="54.78" height="2.56"/>
        <rect class="h" x="332.3" y="66.61" width="54.78" height="2.56"/>
      </g>
      <path class="j" d="M374.37,32.91a12.25,12.25,0,1,0-24.5,0H337.62V45.16h49V32.91ZM362.12,39a6.13,6.13,0,1,1,6.12-6.12A6.13,6.13,0,0,1,362.12,39Z" transform="translate(-11.79 -8.41)"/>
      <g class="k">
        <rect class="l" x="325.83" y="36.75" width="49" height="1.53"/>
      </g>
      <polygon class="h" points="380.95 165.38 399.33 147 380.95 147 380.95 165.38"/>
    </g>
    <g>
      <polygon class="m" points="325.79 56.49 316.74 65.54 312.56 61.36 309.78 64.14 313.96 68.32 316.74 71.1 319.52 68.32 328.57 59.27 325.79 56.49"/>
      <polygon class="m" points="325.79 71.23 316.74 80.28 312.56 76.1 309.78 78.89 313.96 83.06 316.74 85.85 319.52 83.06 328.57 74.02 325.79 71.23"/>
      <polygon class="m" points="325.79 85.98 316.74 95.03 312.56 90.85 309.78 93.63 313.96 97.81 316.74 100.59 319.52 97.81 328.57 88.76 325.79 85.98"/>
      <polygon class="m" points="325.79 100.72 316.74 109.77 312.56 105.59 309.78 108.38 313.96 112.55 316.74 115.34 319.52 112.55 328.57 103.51 325.79 100.72"/>
      <polygon class="m" points="325.79 115.47 316.74 124.51 312.56 120.34 309.78 123.12 313.96 127.3 316.74 130.08 319.52 127.3 328.57 118.25 325.79 115.47"/>
    </g>
  </g>
  <g>
    <rect class="b" x="144.9" y="115.17" width="101.62" height="11.55" rx="3.16" ry="3.16" transform="translate(-44.51 85.18) rotate(-24.89)"/>
    <rect class="b" x="96.12" y="149.52" width="51.06" height="11.55" rx="3.16" ry="3.16" transform="translate(-65.85 57.21) rotate(-24.89)"/>
    <rect class="b" x="184.8" y="126.9" width="53.55" height="11.55" rx="3.16" ry="3.16" transform="translate(-47.98 92.95) rotate(-24.89)"/>
    <rect class="b" x="237.15" y="97.43" width="75.93" height="11.55" rx="3.16" ry="3.16" transform="translate(-29.67 116.95) rotate(-24.89)"/>
    <rect class="b" x="244.43" y="89.21" width="14.09" height="11.55" rx="3.16" ry="3.16" transform="translate(-28.41 106.24) rotate(-24.89)"/>
    <rect class="b" x="260.97" y="81.53" width="14.09" height="11.55" rx="3.16" ry="3.16" transform="matrix(0.91, -0.42, 0.42, 0.91, -23.64, 112.49)"/>
    <rect class="b" x="127.3" y="112.75" width="75.93" height="11.55" rx="3.16" ry="3.16" transform="translate(-46.32 72.15) rotate(-24.89)"/>
    <rect class="b" x="114.08" y="133.23" width="14.09" height="11.55" rx="3.16" ry="3.16" transform="matrix(0.91, -0.42, 0.42, 0.91, -59.04, 55.47)"/>
    <rect class="b" x="169.79" y="143.02" width="14.09" height="11.55" rx="3.16" ry="3.16" transform="translate(-57.98 79.83) rotate(-24.89)"/>
  </g>
  <g>
    <circle class="n" cx="97.62" cy="98.38" r="97.62"/>
    <g>
      <polygon class="c" points="144.15 31.35 106.61 68.88 89.29 51.56 77.74 63.11 95.06 80.43 106.61 91.98 118.16 80.43 155.69 42.9 144.15 31.35"/>
      <polygon class="d" points="152.65 80.72 48.73 73.5 62.63 126.88 145.21 120.93 152.65 80.72"/>
      <polygon class="o" points="155.75 80.6 51.13 73.28 50.57 81.31 154.02 88.63 155.75 80.6"/>
      <polygon class="b" points="142.89 133.46 61.89 133.46 61.89 141.5 141.4 141.5 142.89 133.46"/>
      <g class="p">
        <rect class="o" x="75.91" y="88.26" width="7.2" height="7.2" transform="translate(2.67 -19.15) rotate(8.5)"/>
        <rect class="o" x="85.67" y="89.72" width="7.2" height="7.2" transform="translate(2.99 -20.58) rotate(8.5)"/>
        <rect class="o" x="95.43" y="91.18" width="7.2" height="7.2" transform="matrix(0.99, 0.15, -0.15, 0.99, 3.31, -22.01)"/>
        <rect class="o" x="105.19" y="92.64" width="7.2" height="7.2" transform="translate(3.63 -23.43) rotate(8.5)"/>
        <rect class="o" x="114.94" y="94.1" width="7.2" height="7.2" transform="translate(3.96 -24.86) rotate(8.5)"/>
        <rect class="o" x="124.7" y="95.56" width="7.2" height="7.2" transform="translate(4.28 -26.29) rotate(8.5)"/>
        <rect class="o" x="134.46" y="97.01" width="7.2" height="7.2" transform="translate(4.6 -27.71) rotate(8.5)"/>
        <rect class="o" x="144.22" y="98.47" width="7.2" height="7.2" transform="translate(4.93 -29.14) rotate(8.5)"/>
        <rect class="o" x="74.44" y="98.09" width="7.2" height="7.2" transform="translate(4.1 -18.83) rotate(8.5)"/>
        <rect class="o" x="84.2" y="99.55" width="7.2" height="7.2" transform="matrix(0.99, 0.15, -0.15, 0.99, 4.43, -20.25)"/>
        <rect class="o" x="93.96" y="101.01" width="7.2" height="7.2" transform="translate(4.75 -21.68) rotate(8.5)"/>
        <rect class="o" x="103.72" y="102.47" width="7.2" height="7.2" transform="translate(5.07 -23.11) rotate(8.5)"/>
        <rect class="o" x="113.47" y="103.93" width="7.2" height="7.2" transform="translate(5.39 -24.53) rotate(8.5)"/>
        <rect class="o" x="123.23" y="105.38" width="7.2" height="7.2" transform="translate(5.72 -25.96) rotate(8.5)"/>
        <rect class="o" x="132.99" y="106.84" width="7.2" height="7.2" transform="translate(6.04 -27.39) rotate(8.5)"/>
        <rect class="o" x="142.75" y="108.3" width="7.2" height="7.2" transform="translate(6.36 -28.81) rotate(8.5)"/>
        <rect class="o" x="72.92" y="108.26" width="7.2" height="7.2" transform="translate(5.59 -18.49) rotate(8.5)"/>
        <rect class="o" x="82.68" y="109.72" width="7.2" height="7.2" transform="translate(5.91 -19.92) rotate(8.5)"/>
        <rect class="o" x="92.44" y="111.17" width="7.2" height="7.2" transform="translate(6.23 -21.35) rotate(8.5)"/>
        <rect class="o" x="102.2" y="112.63" width="7.2" height="7.2" transform="translate(6.56 -22.77) rotate(8.5)"/>
        <rect class="o" x="111.95" y="114.09" width="7.2" height="7.2" transform="translate(6.88 -24.2) rotate(8.5)"/>
        <rect class="o" x="121.71" y="115.55" width="7.2" height="7.2" transform="translate(7.2 -25.62) rotate(8.5)"/>
        <rect class="o" x="131.47" y="117.01" width="7.2" height="7.2" transform="translate(7.53 -27.05) rotate(8.5)"/>
        <rect class="o" x="141.23" y="118.47" width="7.2" height="7.2" transform="translate(7.85 -28.48) rotate(8.5)"/>
        <rect class="o" x="71.43" y="118.25" width="7.2" height="7.2" transform="translate(7.05 -18.16) rotate(8.5)"/>
        <rect class="o" x="66.05" y="86.79" width="7.2" height="7.2" transform="translate(2.34 -17.71) rotate(8.5)"/>
        <rect class="o" x="64.58" y="96.62" width="7.2" height="7.2" transform="translate(3.78 -17.39) rotate(8.5)"/>
        <rect class="o" x="63.06" y="106.78" width="7.2" height="7.2" transform="translate(5.26 -17.05) rotate(8.5)"/>
        <rect class="o" x="61.57" y="116.78" width="7.2" height="7.2" transform="translate(6.72 -16.72) rotate(8.5)"/>
        <rect class="o" x="81.19" y="119.71" width="7.2" height="7.2" transform="translate(7.37 -19.59) rotate(8.5)"/>
        <rect class="o" x="90.94" y="121.17" width="7.2" height="7.2" transform="translate(7.7 -21.01) rotate(8.5)"/>
        <rect class="o" x="100.7" y="122.63" width="7.2" height="7.2" transform="translate(8.02 -22.44) rotate(8.5)"/>
        <rect class="o" x="110.46" y="124.09" width="7.2" height="7.2" transform="translate(8.34 -23.87) rotate(8.5)"/>
        <rect class="o" x="120.22" y="125.55" width="7.2" height="7.2" transform="translate(8.66 -25.29) rotate(8.5)"/>
        <rect class="o" x="129.98" y="127.01" width="7.2" height="7.2" transform="translate(8.99 -26.72) rotate(8.5)"/>
        <rect class="o" x="139.73" y="128.46" width="7.2" height="7.2" transform="translate(9.31 -28.15) rotate(8.5)"/>
        <rect class="o" x="153.98" y="99.93" width="7.2" height="7.2" transform="translate(5.25 -30.57) rotate(8.5)"/>
        <rect class="o" x="77.32" y="78.86" width="7.2" height="7.2" transform="translate(1.29 -19.46) rotate(8.5)"/>
        <rect class="o" x="87.08" y="80.32" width="7.2" height="7.2" transform="translate(1.61 -20.89) rotate(8.5)"/>
        <rect class="o" x="96.83" y="81.78" width="7.2" height="7.2" transform="translate(1.94 -22.32) rotate(8.5)"/>
        <rect class="o" x="106.59" y="83.24" width="7.2" height="7.2" transform="translate(2.26 -23.74) rotate(8.5)"/>
        <rect class="o" x="116.35" y="84.7" width="7.2" height="7.2" transform="translate(2.58 -25.17) rotate(8.5)"/>
        <rect class="o" x="126.11" y="86.16" width="7.2" height="7.2" transform="translate(2.91 -26.6) rotate(8.5)"/>
        <rect class="o" x="135.86" y="87.61" width="7.2" height="7.2" transform="translate(3.23 -28.02) rotate(8.5)"/>
        <rect class="o" x="145.62" y="89.07" width="7.2" height="7.2" transform="translate(3.55 -29.45) rotate(8.5)"/>
        <rect class="o" x="67.46" y="77.39" width="7.2" height="7.2" transform="translate(0.97 -18.02) rotate(8.5)"/>
        <rect class="o" x="155.38" y="90.53" width="7.2" height="7.2" transform="translate(3.87 -30.88) rotate(8.5)"/>
        <rect class="o" x="152.51" y="109.76" width="7.2" height="7.2" transform="translate(6.69 -30.24) rotate(8.5)"/>
        <rect class="o" x="150.99" y="119.93" width="7.2" height="7.2" transform="translate(8.17 -29.9) rotate(8.5)"/>
        <rect class="o" x="149.49" y="129.92" width="7.2" height="7.2" transform="translate(9.63 -29.57) rotate(8.5)"/>
        <rect class="o" x="70.07" y="127.33" width="7.2" height="7.2" transform="translate(8.38 -17.86) rotate(8.5)"/>
        <rect class="o" x="60.21" y="125.85" width="7.2" height="7.2" transform="translate(8.05 -16.42) rotate(8.5)"/>
        <rect class="o" x="79.83" y="128.78" width="7.2" height="7.2" transform="translate(8.7 -19.29) rotate(8.5)"/>
        <rect class="o" x="89.59" y="130.24" width="7.2" height="7.2" transform="translate(9.02 -20.71) rotate(8.5)"/>
        <rect class="o" x="99.35" y="131.7" width="7.2" height="7.2" transform="translate(9.35 -22.14) rotate(8.5)"/>
        <rect class="o" x="109.1" y="133.16" width="7.2" height="7.2" transform="translate(9.67 -23.57) rotate(8.5)"/>
        <rect class="o" x="118.86" y="134.62" width="7.2" height="7.2" transform="translate(9.99 -24.99) rotate(8.5)"/>
        <rect class="o" x="128.62" y="136.08" width="7.2" height="7.2" transform="translate(10.31 -26.42) rotate(8.5)"/>
        <rect class="o" x="138.38" y="137.54" width="7.2" height="7.2" transform="translate(10.64 -27.85) rotate(8.5)"/>
        <rect class="o" x="148.14" y="139" width="7.2" height="7.2" transform="translate(10.96 -29.27) rotate(8.5)"/>
      </g>
      <polygon class="f" points="67.74 133.46 50.39 59.76 42.57 61.62 61.58 141.5 67.74 133.46"/>
      <polygon class="b" points="33.18 65.53 43.84 66.95 50.39 59.76 34.2 57.55 33.18 65.53"/>
      <g>
        <circle class="q" cx="73.36" cy="155.16" r="8.54"/>
        <circle class="r" cx="73.36" cy="155.16" r="5.8"/>
      </g>
      <g>
        <circle class="q" cx="129.82" cy="155.16" r="8.54"/>
        <circle class="r" cx="129.88" cy="155.16" r="5.8"/>
      </g>
    </g>
  </g>
</svg>
