<svg width="652" height="338" viewBox="0 0 652 338" version="1.1" xmlns="http://www.w3.org/2000/svg" xmlns:xlink="http://www.w3.org/1999/xlink">
<title>Group 33</title>
<desc>Created using Figma</desc>
<g id="Canvas" transform="translate(-16838 -140)">
<g id="Group 33">
<g id="Rectangle 2">
<use xlink:href="#path0_fill" transform="translate(16838 140)" fill="#FFFFFF"/>
</g>
<g id="Group 3">
<g id="Vector" opacity="0.2">
<use xlink:href="#path1_fill" transform="matrix(0.503404 0.864051 0.867993 -0.496576 16910.9 222.239)" fill="#30C2FF"/>
</g>
<g id="Group 2">
<g id="Vector">
<use xlink:href="#path2_fill" transform="translate(17115.4 431.38)" fill="#F2F2F2"/>
</g>
<g id="Vector">
<use xlink:href="#path3_fill" transform="translate(17133 431.373)" fill="#D6D6D6"/>
</g>
<g id="Vector">
<use xlink:href="#path4_fill" transform="translate(17026.3 243.392)" fill="#879B9F"/>
</g>
<g id="Vector">
<use xlink:href="#path5_fill" transform="translate(17017.2 232.153)" fill="#34414D"/>
</g>
<g id="Vector">
<use xlink:href="#path6_fill" transform="translate(17017.2 406.389)" fill="#F2F2F2"/>
</g>
<g id="Vector">
<use xlink:href="#path7_fill" transform="translate(17026 243.501)" fill="#98E1FF"/>
</g>
<g id="Rectangle">
<use xlink:href="#path8_fill" transform="translate(17050.7 256.038)" fill="#FFFFFF"/>
</g>
<g id="Rectangle">
<use xlink:href="#path9_fill" transform="translate(17061.4 265.591)" fill="#DDDDDD"/>
</g>
<g id="Ellipse">
<use xlink:href="#path10_fill" transform="matrix(0.999965 1.62968e-08 0.00330283 1.00003 17067.1 271.088)" fill="#F0F0F0"/>
</g>
<g id="Rectangle 5.3">
<use xlink:href="#path11_fill" transform="matrix(0.999965 1.50877e-08 0.00351068 1.00003 17074.1 281.32)" fill="#A6A6A6"/>
</g>
<g id="Rectangle 5.4">
<use xlink:href="#path12_fill" transform="matrix(0.999965 1.69777e-08 0.00311644 1.00003 17061.5 287.578)" fill="#C0C2BE"/>
</g>
<g id="Rectangle">
<use xlink:href="#path13_fill" transform="translate(17125.2 265.513)" fill="#DDDDDD"/>
</g>
<g id="Ellipse">
<use xlink:href="#path14_fill" transform="matrix(0.999965 1.61754e-08 0.00332761 1.00003 17136.3 278.893)" fill="#F0F0F0"/>
</g>
<g id="Rectangle 5.2">
<use xlink:href="#path15_fill" transform="matrix(0.999965 1.49754e-08 0.00353702 1.00003 17155.8 314.575)" fill="#A6A6A6"/>
</g>
<g id="Rectangle 5.1">
<use xlink:href="#path16_fill" transform="matrix(0.999965 1.68513e-08 0.00313981 1.00003 17125.2 329.771)" fill="#C0C2BE"/>
</g>
<g id="Rectangle">
<use xlink:href="#path17_fill" transform="translate(17061.4 320.526)" fill="#DDDDDD"/>
</g>
<g id="Rectangle">
<use xlink:href="#path17_fill" transform="translate(17061.4 327.692)" fill="#DDDDDD"/>
</g>
<g id="Rectangle">
<use xlink:href="#path17_fill" transform="translate(17061.4 334.857)" fill="#DDDDDD"/>
</g>
<g id="Rectangle">
<use xlink:href="#path17_fill" transform="translate(17061.4 342.023)" fill="#DDDDDD"/>
</g>
<g id="Rectangle">
<use xlink:href="#path17_fill" transform="translate(17061.4 349.188)" fill="#DDDDDD"/>
</g>
<g id="Rectangle">
<use xlink:href="#path17_fill" transform="translate(17061.4 356.353)" fill="#DDDDDD"/>
</g>
<g id="Rectangle">
<use xlink:href="#path17_fill" transform="translate(17061.4 363.519)" fill="#DDDDDD"/>
</g>
<g id="Rectangle">
<use xlink:href="#path17_fill" transform="translate(17061.4 370.684)" fill="#DDDDDD"/>
</g>
<g id="document">
<g id="Group 2">
<g id="Rectangle 6.1">
<use xlink:href="#path18_fill" transform="matrix(1 -1.59096e-17 0.00158373 0.999999 17216.9 175.884)" fill="#F5F5F5"/>
</g>
<g id="Rectangle 6">
<use xlink:href="#path19_fill" transform="matrix(1 -1.5891e-17 0.00158559 0.999999 17228.6 186.757)" fill="#30C2FF"/>
</g>
<g id="Rectangle 5.2">
<use xlink:href="#path20_fill" transform="matrix(0.999965 1.51917e-08 0.00348665 1.00003 17273.6 237.104)" fill="#689F38"/>
</g>
<g id="Rectangle 5.1">
<use xlink:href="#path21_fill" transform="matrix(0.999965 1.70947e-08 0.0030951 1.00003 17229.7 259.201)" fill="#8BC34A"/>
</g>
<g id="Ellipse">
<use xlink:href="#path22_fill" transform="matrix(0.999965 1.6171e-08 0.00332851 1.00003 17247.2 204.118)" fill="#FFEB3B"/>
</g>
</g>
</g>
</g>
<g id="Group">
<g id="Vector">
<use xlink:href="#path23_fill" transform="matrix(1 2.78003e-17 -2.7711e-17 1 16903.5 266.026)" fill="#F5F5F5"/>
</g>
<g id="Vector">
<use xlink:href="#path24_fill" transform="matrix(1 2.79916e-17 -2.75226e-17 1 16911.8 276.572)" fill="#30C2FF"/>
</g>
<g id="Rectangle 5.2">
<use xlink:href="#path25_fill" transform="matrix(0.999866 -0.00431759 0.00474455 1.00011 16927.8 290.129)" fill="#689F38"/>
</g>
<g id="Rectangle 5.1">
<use xlink:href="#path26_fill" transform="matrix(0.999867 -0.00427014 0.00479726 1.00011 16913.8 297.544)" fill="#8BC34A"/>
</g>
<g id="Ellipse">
<use xlink:href="#path27_fill" transform="matrix(0.967804 0.251704 -0.248671 0.968588 16923.3 281.876)" fill="#FFEB3B"/>
</g>
<g id="Vector">
<use xlink:href="#path28_fill" transform="matrix(1 2.79008e-17 -2.76114e-17 1 16969.6 266.026)" fill="#E5E5E5"/>
</g>
<g id="Vector">
<use xlink:href="#path29_fill" transform="matrix(1 2.06109e-17 -3.73598e-17 1 16911.8 323.71)" fill="#C5C6C7"/>
</g>
<g id="Vector">
<use xlink:href="#path30_fill" transform="matrix(1 2.06109e-17 -3.73598e-17 1 16911.8 328.73)" fill="#C5C6C7"/>
</g>
<g id="Vector">
<use xlink:href="#path31_fill" transform="matrix(1 2.06109e-17 -3.73598e-17 1 16911.8 333.749)" fill="#C5C6C7"/>
</g>
<g id="Vector">
<use xlink:href="#path32_fill" transform="matrix(1 2.06109e-17 -3.73598e-17 1 16911.8 338.769)" fill="#C5C6C7"/>
</g>
<g id="Vector">
<use xlink:href="#path33_fill" transform="matrix(1 2.79916e-17 -2.75226e-17 1 16911.8 343.789)" fill="#C5C6C7"/>
</g>
<g id="Vector">
<use xlink:href="#path34_fill" transform="matrix(1 2.79916e-17 -2.75226e-17 1 16911.8 348.808)" fill="#C5C6C7"/>
</g>
<g id="Vector">
<use xlink:href="#path35_fill" transform="matrix(1 2.79916e-17 -2.75226e-17 1 16911.8 353.828)" fill="#C5C6C7"/>
</g>
<g id="Vector">
<use xlink:href="#path35_fill" transform="matrix(1 2.79916e-17 -2.75226e-17 1 16911.8 358.848)" fill="#C5C6C7"/>
</g>
<g id="Vector">
<use xlink:href="#path36_fill" transform="matrix(1 2.79916e-17 -2.75226e-17 1 16911.8 363.868)" fill="#C5C6C7"/>
</g>
<g id="Vector">
<use xlink:href="#path37_fill" transform="matrix(1 2.79916e-17 -2.75226e-17 1 16911.8 368.887)" fill="#C5C6C7"/>
</g>
</g>
</g>
</g>
</g>
<defs>
<path id="path0_fill" d="M 0 0L 652 0L 652 338L 0 338L 0 0Z"/>
<path id="path1_fill" d="M 133.504 78.5339C 134.4 73.1796 134.4 68.717 133.504 63.3628L 142.464 54.4385L 133.504 32.1281L 120.959 32.1281C 118.271 28.558 113.792 24.9888 110.207 21.4187L 110.207 8.92432L 87.8078 0L 78.8478 8.92432C 73.4721 8.0318 68.9917 8.0318 63.6161 8.92432L 54.6561 0L 32.2565 8.92432L 32.2565 21.4187C 28.6722 24.0963 25.0887 28.558 21.5043 32.1281L 8.96 32.1281L 0 54.4385L 8.96 63.3628C 8.06391 68.717 8.06391 73.1796 8.96 78.5339L 0 87.4582L 8.96 109.769L 21.5043 109.769C 24.1926 113.339 28.6722 116.908 32.2565 120.478L 32.2565 132.972L 54.6561 141.897L 63.6161 132.972C 68.9917 133.865 73.4721 133.865 78.8478 132.972L 87.8078 141.897L 110.207 132.972L 110.207 120.478C 113.792 117.8 117.375 113.339 120.959 109.769L 133.504 109.769L 142.464 87.4582L 133.504 78.5339ZM 60.9287 98.1667C 45.6969 91.9199 38.5291 74.9638 44.8008 60.6844C 51.0726 45.5133 68.0965 38.374 82.433 44.6208C 97.6647 50.8675 104.833 67.8237 98.5608 82.1031C 93.1843 97.2742 76.1604 104.414 60.9287 98.1667Z"/>
<path id="path2_fill" fill-rule="evenodd" d="M 3.12399e-06 34.8433L 3.12399e-06 31.2759L 11.3627 29.8885L 19.2066 -3.12171e-06L 77.3126 -3.12171e-06L 85.1501 29.8885L 96.5128 31.2759L 96.5128 34.8433L 3.12399e-06 34.8433Z"/>
<path id="path3_fill" fill-rule="evenodd" d="M -3.51449e-06 5.81787L 1.52271 -9.36514e-06L 59.6351 -9.36514e-06L 61.1578 5.81787L -3.51449e-06 5.81787Z"/>
<path id="path4_fill" d="M 270.063 -4.87768e-08L 270.063 151.546L -2.92874e-07 151.546L -2.92874e-07 -4.87768e-08L 270.063 -4.87768e-08Z"/>
<path id="path5_fill" fill-rule="evenodd" d="M 0 174.236L 0 6.48277C 0 2.90254 2.90466 0 6.4875 0L 281.419 0C 285.002 0 287.907 2.90254 287.907 6.48277L 287.907 174.236L 0 174.236Z"/>
<path id="path6_fill" fill-rule="evenodd" d="M 281.419 25.9375L 6.4875 25.9375C 2.90466 25.9375 0 23.0349 0 19.4547L 0 -7.80428e-07L 287.907 -7.80428e-07L 287.907 19.4547C 287.907 23.0349 285.002 25.9375 281.419 25.9375Z"/>
<path id="path7_fill" fill-rule="evenodd" d="M -2.68468e-07 151.546L 270.07 151.546L 270.07 0L -2.68468e-07 0L -2.68468e-07 151.546Z"/>
<path id="path8_fill" d="M 0 0L 216.229 0L 216.229 127.783L 0 127.783L 0 0Z"/>
<path id="path9_fill" d="M 0 0L 53.7586 0L 53.7586 40.604L 0 40.604L 0 0Z"/>
<path id="path10_fill" d="M 11.0873 5.50952C 11.0873 8.55234 8.60531 11.019 5.54364 11.019C 2.48197 11.019 0 8.55234 0 5.50952C 0 2.4667 2.48197 0 5.54364 0C 8.60531 0 11.0873 2.4667 11.0873 5.50952Z"/>
<path id="path11_fill" d="M 21.046 0L 39.837 24.3337L 0 24.3337L 21.046 0Z"/>
<path id="path12_fill" d="M 17.3166 1.19918e-25L 32.7778 18.0765L 0 18.0765L 17.3166 1.19918e-25Z"/>
<path id="path13_fill" d="M 0 0L 128.347 0L 128.347 109.276L 0 109.276L 0 0Z"/>
<path id="path14_fill" d="M 27.1282 13.3803C 27.1282 20.77 21.0554 26.7605 13.5641 26.7605C 6.07286 26.7605 0 20.77 0 13.3803C 0 5.99055 6.07286 0 13.5641 0C 21.0554 0 27.1282 5.99055 27.1282 13.3803Z"/>
<path id="path15_fill" d="M 51.495 0L 97.4727 59.0962L 0 59.0962L 51.495 0Z"/>
<path id="path16_fill" d="M 42.37 2.9123e-25L 80.2004 43.9L 0 43.9L 42.37 2.9123e-25Z"/>
<path id="path17_fill" d="M 0 0L 53.7586 0L 53.7586 3.58271L 0 3.58271L 0 0Z"/>
<path id="path18_fill" d="M 0 0L 207.284 0L 207.284 158.271L 0 158.271L 0 0Z"/>
<path id="path19_fill" d="M 0 0L 184.769 0L 184.769 136.237L 0 136.237L 0 0Z"/>
<path id="path20_fill" d="M 73.8144 0L 139.72 85.9338L 0 85.9338L 73.8144 0Z"/>
<path id="path21_fill" d="M 60.7344 4.23487e-25L 114.961 63.8365L 0 63.8365L 60.7344 4.23487e-25Z"/>
<path id="path22_fill" d="M 32.8052 16.1759C 32.8052 25.1096 25.4615 32.3518 16.4026 32.3518C 7.3437 32.3518 0 25.1096 0 16.1759C 0 7.24219 7.3437 0 16.4026 0C 25.4615 0 32.8052 7.24219 32.8052 16.1759Z"/>
<path id="path23_fill" fill-rule="evenodd" d="M 0 0L 66.0561 0L 85.9479 19.7388L 85.9479 117.393L 0 117.393L 0 0Z"/>
<path id="path24_fill" d="M 69.4784 42.5049L 69.4784 4.72277L 63.2346 0L 0 0L 0 42.5049L 69.4784 42.5049Z"/>
<path id="path25_fill" d="M 26.2028 0L 49.2247 28.9438L 0 28.9438L 26.2028 0Z"/>
<path id="path26_fill" d="M 19.4611 0L 36.5598 21.4969L 0 21.4969L 19.4611 0Z"/>
<path id="path27_fill" d="M 7.52693 3.78482C 7.52693 5.87512 5.84197 7.56964 3.76347 7.56964C 1.68496 7.56964 0 5.87512 0 3.78482C 0 1.69452 1.68496 0 3.76347 0C 5.84197 0 7.52693 1.69452 7.52693 3.78482Z"/>
<path id="path28_fill" fill-rule="evenodd" d="M 1.43173e-06 7.24015e-07L 19.8919 19.7388L 1.43173e-06 19.7388L 1.43173e-06 7.24015e-07Z"/>
<path id="path29_fill" d="M 69.8117 0L 0 0L 0 2.27755L 69.8117 2.27755L 69.8117 0Z"/>
<path id="path30_fill" d="M 69.8117 0L 0 0L 0 2.27755L 69.8117 2.27755L 69.8117 0Z"/>
<path id="path31_fill" d="M 69.8117 0L 0 0L 0 2.27755L 69.8117 2.27755L 69.8117 0Z"/>
<path id="path32_fill" d="M 69.8117 0L 0 0L 0 2.27756L 69.8117 2.27756L 69.8117 0Z"/>
<path id="path33_fill" d="M 69.4339 2.89606e-06L 0 2.89606e-06L 0 2.27755L 69.4339 2.27755L 69.4339 2.89606e-06Z"/>
<path id="path34_fill" d="M 69.0586 -2.89606e-06L 0 -2.89606e-06L 0 2.27755L 69.0586 2.27755L 69.0586 -2.89606e-06Z"/>
<path id="path35_fill" d="M 69.4339 0L 0 0L 0 2.27755L 69.4339 2.27755L 69.4339 0Z"/>
<path id="path36_fill" d="M 69.0586 0L 0 0L 0 2.27756L 69.0586 2.27756L 69.0586 0Z"/>
<path id="path37_fill" d="M 48.7914 2.89606e-06L 0 2.89606e-06L 0 2.27755L 48.7914 2.27755L 48.7914 2.89606e-06Z"/>
</defs>
</svg>
