<?xml version="1.0" encoding="utf-8"?>
<!-- Generator: Adobe Illustrator 13.0.2, SVG Export Plug-In . SVG Version: 6.00 Build 14948)  -->
<!DOCTYPE svg PUBLIC "-//W3C//DTD SVG 1.1 Tiny//EN" "http://www.w3.org/Graphics/SVG/1.1/DTD/svg11-tiny.dtd">
<svg version="1.1" baseProfile="tiny" id="Layer_1" xmlns="http://www.w3.org/2000/svg" xmlns:xlink="http://www.w3.org/1999/xlink"
	 x="0px" y="0px" width="299.636px" height="262.189px" viewBox="0 0 299.636 262.189" xml:space="preserve">
<g>
	<path d="M280.912,0H140.454c-10.343,0-18.723,8.388-18.723,18.73v56.183h9.362V18.73c0-5.164,4.202-9.365,9.365-9.365h140.454
		c5.164,0,9.371,4.201,9.371,9.365v93.634c0,5.163-4.207,9.365-9.371,9.365h-9.359v9.359v24.215l-30.838-30.833l-2.742-2.741h-3.871
		h-46.822v9.359h46.812l46.816,46.816V131.09c10.342,0,18.729-8.382,18.729-18.726V18.73C299.644,8.386,291.257,0,280.912,0z"/>
	<path d="M187.279,103.004v2.596c9.623-6.041,17.316-12.25,23.418-18.353c6.564,6.574,14.941,13.273,25.66,19.755
		c0.754,0.456,1.596,0.675,2.416,0.675c1.582,0,3.139-0.807,4.008-2.261c1.34-2.22,0.625-5.093-1.586-6.432
		c-10.23-6.188-18.111-12.521-24.203-18.654c13.42-16.182,16.441-30.767,17.027-38.201h9.438c2.584,0,4.674-2.099,4.674-4.683
		c0-2.585-2.09-4.678-4.674-4.678h-28.092V28.09c0-2.59-2.094-4.683-4.678-4.683s-4.684,2.099-4.684,4.683v4.684h-28.09
		c-2.584,0-4.684,2.093-4.684,4.678c0,2.59,2.1,4.683,4.684,4.683h46.734c-0.572,6.017-3.178,17.737-13.961,31.162
		c-6.6-8.21-10.137-15.78-12.012-21.802h-9.693c2.031,7.759,6.359,17.94,15.4,28.846c-4.836,4.875-10.836,9.872-18.221,14.824
		C186.88,97.662,187.279,100.282,187.279,103.004z"/>
	<path d="M159.183,84.278H18.725C8.388,84.278,0,92.666,0,103.008v93.64c0,10.333,8.388,18.72,18.725,18.72v46.822l46.818-46.822
		h93.634c10.344,0,18.73-8.387,18.73-18.72v-93.644C177.914,92.66,169.527,84.278,159.183,84.278z M168.554,196.643
		c0,5.152-4.207,9.363-9.371,9.363H65.549h-3.883l-2.739,2.737l-30.83,30.832v-24.214v-9.358h-9.372
		c-5.157,0-9.361-4.212-9.361-9.365v-93.634c0-5.164,4.204-9.364,9.361-9.364h140.454c5.164,0,9.365,4.2,9.365,9.364v93.64
		L168.554,196.643L168.554,196.643z"/>
	<path d="M93.339,110.722c-0.685-1.829-2.433-3.035-4.384-3.035c-1.951,0-3.695,1.211-4.387,3.035l-28.091,74.913
		c-0.907,2.423,0.322,5.113,2.741,6.025c2.418,0.907,5.116-0.324,6.024-2.741l5.886-15.689h35.647l5.883,15.689
		c0.707,1.886,2.486,3.04,4.387,3.04c0.545,0,1.105-0.097,1.64-0.299c2.422-0.912,3.648-3.604,2.739-6.025L93.339,110.722z
		 M74.645,163.868l14.314-38.165l14.312,38.165H74.645z"/>
</g>
</svg>
