<svg version="1.1" id="Layer_1" xmlns="http://www.w3.org/2000/svg" xmlns:xlink="http://www.w3.org/1999/xlink" x="0px" y="0px" viewBox="0 0 760 760" style="enable-background:new 0 0 760 760;" xml:space="preserve" class="attachment-large size-large wp-post-image style-svg replaced-svg svg-replaced-0">
<g>
	<path id="R_L_Leg_3_" class="svg-woman" d="M489.6,443.9l-268.5-60.6c-25.4-5.7-41.3-30.9-35.6-56.3l0,0c5.7-25.4,30.9-41.3,56.3-35.6   L510.3,352c25.4,5.7,41.3,30.9,35.6,56.3l0,0C540.2,433.7,515,449.7,489.6,443.9z"></path>
	<path id="R_U_Leg_3_" class="svg-woman" d="M526.2,434.4L303.8,596.5c-21,15.3-50.5,10.7-65.8-10.3l0,0c-15.3-21-10.7-50.5,10.3-65.8   l222.4-162.1c21-15.3,50.5-10.7,65.8,10.3l0,0C551.9,389.6,547.2,419.1,526.2,434.4z"></path>
	<path id="Torso_3_" class="svg-woman" d="M542.1,647.1l-271.9-42.7c-25.7-4-43.3-28.1-39.2-53.8l0,0c4-25.7,28.1-43.3,53.8-39.2   L556.7,554c25.7,4,43.3,28.1,39.2,53.8v0C591.9,633.6,567.8,651.1,542.1,647.1z"></path>
	<path id="L_L_Leg_2_" class="svg-man" d="M477.6,658.9H202.4c-26,0-47.1-21.1-47.1-47.1v0c0-26,21.1-47.1,47.1-47.1h275.2   c26,0,47.1,21.1,47.1,47.1v0C524.7,637.8,503.6,658.9,477.6,658.9z"></path>
	<path id="L_U_Leg_2_" class="svg-man" d="M471.8,656.8l-273.7-29.4c-25.9-2.8-44.6-26-41.8-51.9v0c2.8-25.9,26-44.6,51.9-41.8   l273.7,29.4c25.9,2.8,44.6,26,41.8,51.9v0C520.9,640.9,497.7,659.6,471.8,656.8z"></path>
	<path id="Torso_2_" class="svg-man" d="M228.5,301.2l21.7,274.4c2,25.9-17.3,48.6-43.3,50.7h0c-25.9,2-48.6-17.3-50.7-43.3l-21.7-274.4   c-2-25.9,17.3-48.6,43.3-50.7l0,0C203.8,255.9,226.5,275.3,228.5,301.2z"></path>
	<path id="L_L_Arm_2_" class="svg-man" d="M206.4,419L58.5,435.9c-25.8,3-49.2-15.6-52.2-41.4l0,0c-3-25.8,15.6-49.2,41.4-52.2   l147.9-16.9c25.8-3,49.2,15.6,52.2,41.4l0,0C250.8,392.7,232.2,416,206.4,419z"></path>
	<path id="L_U_Arm_2_" class="svg-man" d="M28.7,348.2l125-80.9c21.8-14.1,51-7.9,65.1,14l0,0c14.1,21.8,7.9,51-14,65.1l-125,80.9   c-21.8,14.1-51,7.9-65.1-14l0,0C0.6,391.5,6.8,362.3,28.7,348.2z"></path>
	<circle id="Head_2_" class="svg-man" cx="192.4" cy="174.8" r="75.7"></circle>
	<circle id="Head_1_" class="svg-woman" cx="680.3" cy="558.9" r="75.7"></circle>
</g>
</svg>