<?xml version="1.0" encoding="UTF-8" standalone="no"?>
<!-- Created with Inkscape (http://www.inkscape.org/) -->
<svg
   xmlns:dc="http://purl.org/dc/elements/1.1/"
   xmlns:cc="http://creativecommons.org/ns#"
   xmlns:rdf="http://www.w3.org/1999/02/22-rdf-syntax-ns#"
   xmlns:svg="http://www.w3.org/2000/svg"
   xmlns="http://www.w3.org/2000/svg"
   xmlns:sodipodi="http://sodipodi.sourceforge.net/DTD/sodipodi-0.dtd"
   xmlns:inkscape="http://www.inkscape.org/namespaces/inkscape"
   width="487.94"
   height="410.07999"
   id="svg2"
   sodipodi:version="0.32"
   inkscape:version="0.46+devel r20607"
   version="1.0"
   sodipodi:docname="Doggy_style_pegging.svg"
   inkscape:output_extension="org.inkscape.output.svg.inkscape">
  <defs
     id="defs4" />
  <sodipodi:namedview
     id="base"
     pagecolor="#ffffff"
     bordercolor="#666666"
     borderopacity="1.0"
     gridtolerance="10000"
     guidetolerance="10"
     objecttolerance="10"
     inkscape:pageopacity="0.0"
     inkscape:pageshadow="2"
     inkscape:zoom="1"
     inkscape:cx="375"
     inkscape:cy="151.71097"
     inkscape:document-units="px"
     inkscape:current-layer="layer1"
     width="487.94px"
     height="410.08px"
     inkscape:window-width="744"
     inkscape:window-height="573"
     inkscape:window-x="175"
     inkscape:window-y="175"
     showgrid="false" />
  <metadata
     id="metadata7">
    <rdf:RDF>
      <cc:Work
         rdf:about="">
        <dc:format>image/svg+xml</dc:format>
        <dc:type
           rdf:resource="http://purl.org/dc/dcmitype/StillImage" />
      </cc:Work>
    </rdf:RDF>
  </metadata>
  <g
     inkscape:label="Layer 1"
     inkscape:groupmode="layer"
     id="layer1"
     transform="translate(-129.07488,-322.14036)">
    <path
       style="fill:#000000;fill-opacity:1"
       d="M 177.9375 0 C 177.30312 0 176.66875 0.061735 176.1875 0.1875 C 175.225 0.43902 176.0125 0.65625 177.9375 0.65625 C 179.8625 0.65625 180.65 0.43902 179.6875 0.1875 C 179.20625 0.061735 178.57188 0 177.9375 0 z M 282.8125 0 C 282.45 -0.00183 282.07736 0.002375 281.71875 0.03125 C 281.36014 0.060125 281.02973 0.1277 280.71875 0.1875 C 280.25228 0.27719625 280.05369 0.33463057 280.125 0.40625 C 280.14877 0.43012314 280.20248 0.47937969 280.28125 0.5 C 280.43879 0.54124063 280.69923 0.56925359 281.0625 0.59375 C 281.42577 0.61824641 281.8875 0.622225 282.4375 0.625 C 284.63746 0.6361 285.67484 0.43779 284.71875 0.1875 C 284.2407 0.06234 283.5375 0.00366 282.8125 0 z M 116.90625 48.90625 C 110.60312 49.036457 107.78081 50.24712 104.28125 53.34375 C 102.17592 55.20668 98.82267 58.10248 96.84375 59.78125 C 92.40298 63.54848 87.42663 73.45098 84.34375 84.65625 C 82.05399 92.97878 79.72596 97.875 78.0625 97.875 C 77.60081 97.875 75.51376 99.225 73.4375 100.875 C 71.24185 102.61988 68.46632 103.875 66.8125 103.875 C 64.558 103.875 63.84927 104.45509 63.3125 106.59375 C 62.88512 108.29657 63.05025 109.41258 63.78125 109.65625 C 65.72588 110.30446 65.07963 111.69399 62.1875 113.09375 C 60.32313 113.99609 59.53017 115.06886 59.71875 116.4375 C 59.87883 117.5993 58.93044 119.38124 57.5 120.625 C 56.13294 121.81364 54.13933 124.50724 53.0625 126.59375 C 51.98568 128.68025 49.24604 132.175 46.96875 134.375 C 44.69145 136.575 41.41063 141.25499 39.6875 144.75 C 37.86417 148.44825 35.00307 152.36461 32.8125 154.125 C 30.74231 155.78865 27.8948 158.86107 26.5 160.96875 C 25.1052 163.07643 19.93632 169.29931 15 174.8125 C 4.5174 186.52013 0.41705 194.05984 0.6875 201.09375 C 0.95209 207.97534 3.85327 212.68506 14.46875 223.5625 C 19.68473 228.90719 24.16785 233.99418 24.4375 234.84375 C 24.70714 235.69333 26.30821 237.00114 28 237.75 C 29.6918 238.49886 33.62284 241.44119 36.75 244.28125 C 39.87716 247.12131 44.19372 250.7508 46.34375 252.34375 L 50.25 255.21875 L 43.84375 257.09375 C 40.31872 258.11619 36.3125 259.27904 34.9375 259.6875 C 32.43814 260.42996 32.43616 260.43415 31.96875 275.90625 C 31.71163 284.41809 31.65068 304.3125 31.8125 320.125 L 32.09375 348.875 L 25.625 348.875 C 17.15458 348.875 15.09904 350.4736 14.0625 357.875 C 13.63899 360.89902 12.32258 365.27816 11.125 367.59375 C 9.92742 369.90934 8.9375 372.29765 8.9375 372.90625 C 8.9375 373.51486 7.87468 375.4367 6.5625 377.1875 C 0.28293 385.56616 -1.93006 394.13607 1.875 395.34375 C 2.84541 395.65175 4.194608 395.5126 5.6875 395.03125 C 6.1851307 394.8708 6.7034769 394.66761 7.21875 394.4375 C 8.7645694 393.74717 10.346598 392.77984 11.6875 391.625 C 11.910984 391.43253 12.134798 391.23268 12.34375 391.03125 C 12.552702 390.82982 12.745606 390.61551 12.9375 390.40625 C 14.3125 388.90684 17.0125 386.83454 18.9375 385.8125 C 20.8625 384.79047 24.59013 381.93694 27.21875 379.4375 C 29.84737 376.93806 32.35945 374.875 32.78125 374.875 C 33.2031 374.875 33.35361 379.14801 33.125 384.375 C 32.60829 396.1891 33.05189 396.875 41.28125 396.875 L 47.375 396.875 L 42.65625 401.65625 C 40.06442 404.28764 37.9375 406.76264 37.9375 407.15625 C 37.9375 407.88001 38.625852 408.15375 39.53125 408.0625 C 39.833049 408.03208 40.162693 407.94515 40.5 407.84375 C 41.849226 407.43813 43.353265 406.49379 43.96875 405.34375 C 45.13068 403.17266 51.5017 398.32338 57.15625 395.28125 C 59.82258 393.84678 69.53464 380.67675 73.03125 373.75 L 76.1875 367.46875 L 75.5 346.40625 C 75.13007 334.83392 74.36468 324.15808 73.78125 322.65625 C 73.343685 321.52988 73.142207 319.89607 73.21875 318.53125 C 73.231507 318.30378 73.252314 318.08337 73.28125 317.875 C 73.310186 317.66663 73.329342 317.46316 73.375 317.28125 L 74.03125 314.625 L 76.3125 316.75 C 77.5575 317.91961 79.24409 318.875 80.0625 318.875 C 80.9551 318.875 82.29243 320.9757 83.40625 324.125 C 84.42748 327.0125 87.58555 334.325 90.4375 340.375 C 93.28945 346.425 96.45252 353.85 97.4375 356.875 C 98.42248 359.9 99.8069 363.56536 100.53125 365 C 101.74688 367.40767 101.61685 367.831 98.8125 370.5 C 97.14149 372.09036 94.19088 376.075 92.25 379.375 C 90.30911 382.675 87.43072 387.02711 85.84375 389.03125 C 84.06304 391.28007 83.312133 392.73923 83.0625 395.1875 C 83.020895 395.59555 82.986224 396.02876 82.96875 396.5 C 82.951276 396.97124 82.96735 397.48034 82.96875 398.03125 C 82.984465 404.19423 83.620114 407.11534 85.15625 407.75 C 85.375698 407.84067 85.617999 407.875 85.875 407.875 C 87.202 407.875 87.47154 407.16944 87.15625 404.46875 L 86.75 401.03125 L 90.59375 402.9375 C 94.46803 404.85376 102.87048 406.59867 112.84375 407.5625 L 118.21875 408.09375 L 117.5 405.21875 C 117.10262 403.65109 116.33849 399.675 115.8125 396.375 C 114.79701 390.00408 109.85414 375.37865 107.03125 370.375 C 106.10037 368.725 104.30373 364.45 103.03125 360.875 C 101.75876 357.3 100.10613 352.95187 99.34375 351.21875 C 98.58137 349.48563 97.9375 347.82811 97.9375 347.53125 C 97.9375 347.03725 95.56052 341.83756 86.4375 322.375 C 83.36308 315.81621 83.23395 315.02619 84.09375 309.5625 C 84.233362 308.67532 84.397726 307.78298 84.625 306.875 C 84.738637 306.42101 84.860632 305.96675 85 305.5 C 86.811789 299.4323 90.92368 292.05535 100.09375 277.875 C 106.69859 267.66144 109.41175 263.57474 111.9375 262.125 C 112.19007 261.98003 112.46681 261.87707 112.71875 261.78125 C 113.97843 261.30216 115.27125 261.39992 117.0625 261.625 C 119.91401 261.98332 120.96494 262.72441 122.15625 265.21875 C 122.98555 266.95512 125.39083 270.4 127.46875 272.875 C 129.54668 275.35 131.88305 278.95 132.6875 280.875 C 133.49195 282.8 134.79669 284.74767 135.5625 285.1875 C 136.3283 285.62733 136.9375 287.28479 136.9375 288.875 C 136.9375 290.46521 137.3875 292.03508 137.9375 292.375 C 138.4875 292.71492 138.9375 294.16063 138.9375 295.59375 C 138.9375 296.66859 139.97188 299.45829 141.40625 302.46875 C 141.88438 303.47224 142.3875 304.49787 142.9375 305.5 C 145.1375 309.50851 146.9375 313.69449 146.9375 314.8125 C 146.9375 317.37901 148.61248 324.62351 150.96875 332.375 C 153.82351 341.76638 153.83497 341.9136 155.4375 369.375 C 157.66117 407.48038 157.68763 407.875 160.125 407.875 C 160.3579 407.875 160.56937 407.8653 160.75 407.84375 C 162.01441 407.69293 162.06161 406.82962 161.59375 402.625 C 161.27244 399.7375 160.51471 388.825 159.90625 378.375 C 159.29779 367.925 158.40338 355.325 157.9375 350.375 C 157.21349 342.68239 157.35187 341.01183 158.78125 338.875 C 159.70103 337.5 160.93205 334.35 161.53125 331.875 C 162.57961 327.54476 162.64992 327.46931 163.65625 329.875 C 164.95098 332.97016 167.67935 335.4095 170.9375 336.40625 C 171.28683 336.51312 171.6952 336.71981 172.1875 337.03125 C 172.43365 337.18697 172.69685 337.36568 172.96875 337.5625 C 176.5034 340.1212 181.9375 345.88301 181.9375 347.46875 C 181.9375 350.16646 185.14841 352.0526 188.59375 351.40625 C 191.77789 350.8089 192.41235 351.29758 203.1875 362.09375 C 209.3862 368.30456 217.53075 375.62661 221.28125 378.375 L 228.09375 383.375 L 221.78125 385.15625 C 201.01758 391.02851 171.83111 405.85691 176.5625 407.6875 C 176.87793 407.80954 177.33934 407.875 177.96875 407.875 C 179.17232 407.875 182.21466 406.49233 184.75 404.78125 C 192.26176 399.71163 224.79279 386.95065 230.3125 386.90625 C 230.82559 386.90212 231.82188 386.70982 233 386.4375 C 233.58906 386.30134 234.22632 386.14731 234.875 385.96875 C 235.52368 385.79019 236.1753 385.61078 236.8125 385.40625 C 239.36131 384.58814 243.125 383.65056 245.1875 383.34375 C 248.93583 382.78615 250.39491 380.37541 247.625 379.3125 C 246.43547 378.85603 237.79655 380.76774 233.875 382.34375 C 233.80932 382.37014 233.73404 382.36471 233.65625 382.375 C 232.48943 382.5294 229.97082 380.86569 226.09375 377.40625 C 222.67832 374.35872 219.48283 371.875 219 371.875 C 218.51717 371.875 216.39013 370.00726 214.28125 367.71875 C 212.17237 365.43025 208.66147 361.94275 206.5 359.96875 C 199.78351 353.83483 190.29917 344.22016 182.03125 335.40625 C 179.96427 333.20277 177.97713 331.06982 176.125 329.03125 C 170.56862 322.91555 166.25263 317.83192 164.875 315.59375 C 161.8516 310.68175 161.49553 310.1249 162.9375 305.875 C 163.1435 305.26787 163.37868 304.59402 163.65625 303.8125 C 165.08219 299.79767 165.19233 298.24918 164.25 294.71875 C 164.09042 294.12088 163.96244 293.54443 163.875 293 C 163.83128 292.72778 163.80625 292.47964 163.78125 292.21875 C 163.50626 289.34893 164.367 287.10867 166.6875 284.625 C 167.10941 284.17342 167.5742 283.72406 168.09375 283.25 C 171.63489 280.01891 179.78457 276.25898 186.03125 274.96875 C 191.19997 273.90118 192.69572 274.06944 206.53125 277.5 C 219.3498 280.6784 223.13077 281.20905 233.4375 281.28125 C 247.81175 281.382 250.02838 280.87787 254.65625 276.25 C 258.13213 272.77412 258.33056 272.70124 263.8125 273.375 C 269.01442 274.01434 272.9375 276.01087 272.9375 278.03125 C 272.9375 278.496 272.0375 278.875 270.9375 278.875 C 270.81546 278.875 270.7068 278.88851 270.59375 278.90625 C 270.4807 278.92399 270.38467 278.96637 270.28125 279 C 269.45392 279.26906 268.92853 279.99659 268.90625 280.75 C 268.90068 280.93835 268.94218 281.13087 269 281.3125 C 269.11565 281.67576 269.34939 282.00241 269.75 282.25 C 270.08214 282.45527 271.25795 282.45484 272.625 282.25 C 273.08068 282.18172 273.5541 282.07637 274.03125 281.96875 C 277.97467 281.07936 286.46661 283.42526 290.8125 286.59375 C 294.42095 289.22459 301.5424 299.95762 302.375 304.03125 C 304.69412 315.378 304.18476 317.45447 298.15625 321.21875 C 293.35288 324.21804 274.64944 327.875 264.125 327.875 C 259.73722 327.875 258.74402 328.23792 257.34375 330.375 C 256.64869 331.43579 256.306 332.20244 256.25 333 C 256.236 333.19939 256.22611 333.38164 256.25 333.59375 C 256.32168 334.23007 256.57078 334.94547 256.96875 335.90625 C 257.70509 337.68393 258.02739 338.79395 257.9375 339.21875 C 257.91503 339.32495 257.85578 339.38503 257.78125 339.40625 C 256.96144 339.63971 252.98929 334.73351 245.75 324.5625 C 242.52222 320.02756 242.23402 319.12414 243.34375 317.375 C 245.16436 314.50537 251.01823 311.87457 257.6875 310.90625 C 260.86047 310.44556 265.23312 309.23027 267.4375 308.21875 C 273.00939 305.662 278.93747 300.71755 278.9375 298.625 C 278.93754 296.10061 275.46031 296.42756 273.28125 299.15625 C 270.12992 303.10243 264.71872 305.62244 256 307.25 C 249.58228 308.44803 246.67303 309.57622 243.8125 311.875 C 241.74524 313.5363 239.85917 314.875 239.625 314.875 C 239.39084 314.875 238.03409 313.114 236.59375 310.9375 C 233.37379 306.07181 230.1927 304.04998 229.3125 306.34375 C 229.13009 306.8191 229.25819 307.50647 229.625 308.25 C 229.7167 308.43588 229.81511 308.61723 229.9375 308.8125 C 230.30467 309.3983 230.82035 310.00785 231.4375 310.625 C 232.92689 312.1144 234.83618 314.71356 235.6875 316.375 C 236.53881 318.03643 238.30702 320.6711 239.625 322.25 C 240.94298 323.8289 242.64222 326.60892 243.40625 328.4375 C 244.17028 330.26608 245.75462 332.34498 246.9375 333.0625 C 249.93462 334.88052 261.63086 350.64474 266.4375 359.34375 C 268.6375 363.32529 271.9 368.25747 273.6875 370.28125 C 274.13437 370.78719 274.58027 371.29794 274.96875 371.78125 C 276.13418 373.23118 276.9375 374.45927 276.9375 374.8125 C 276.9375 375.28348 278.70765 377.79002 280.84375 380.375 C 281.15849 380.75587 281.45468 381.12626 281.75 381.53125 C 286.17973 387.60616 288.3495 396.17378 286.3125 400.125 C 285.53542 401.63232 283.80105 403.60657 282.4375 404.5 C 280.70189 405.63722 279.89561 406.56181 280.0625 407.15625 C 280.08104 407.2223 280.11409 407.28627 280.15625 407.34375 C 280.19841 407.40123 280.2467 407.45147 280.3125 407.5 C 280.5099 407.64558 280.80813 407.75418 281.21875 407.8125 C 281.49249 407.85138 281.81874 407.8474 282.1875 407.84375 C 282.3519 407.84213 282.5176 407.83325 282.6875 407.8125 C 282.8574 407.79175 283.04463 407.78892 283.21875 407.75 C 285.65646 407.20512 288.4245 404.9016 289.8125 402.1875 C 291.27434 399.32902 291.20363 394.32645 290.03125 389.5625 C 289.90099 389.03317 289.75021 388.5201 289.59375 388 C 288.65502 384.87942 287.25337 381.96284 285.53125 380 C 283.7779 378.00157 281.53978 375.025 280.53125 373.375 C 279.52271 371.725 277.65777 369.25 276.40625 367.875 C 274.4743 365.75244 272.6553 362.65334 267 351.875 C 266.56713 351.05 265.03577 347.9 263.59375 344.875 C 262.15174 341.85 260.24719 338.41594 259.375 337.21875 C 258.63883 336.20826 258.27845 335.60051 258.34375 335.03125 C 258.36007 334.88894 258.39859 334.77233 258.46875 334.625 C 258.60906 334.33033 258.88539 333.98673 259.25 333.59375 C 259.4323 333.39726 259.63438 333.20937 259.875 332.96875 C 261.54741 331.29634 263.19468 330.875 268.4375 330.875 C 272.01225 330.875 279.04713 330.17801 284.0625 329.3125 L 293.1875 327.71875 L 295.8125 330.25 C 297.02567 331.4039 299.14137 332.64643 301.625 333.78125 C 302.24591 334.06496 302.87079 334.3607 303.53125 334.625 C 305.51263 335.41791 307.63705 336.10655 309.6875 336.59375 C 311.31342 336.98009 311.9375 336.66819 311.9375 335.5 C 311.9375 334.61088 312.3875 333.875 312.9375 333.875 C 313.4875 333.875 313.9375 334.2901 313.9375 334.78125 C 313.9375 335.94007 315.63918 336.54458 317.28125 336.28125 C 317.82861 336.19347 318.37095 336.01401 318.84375 335.71875 C 320.60915 334.61624 321.91795 334.84479 328.34375 337.4375 C 329.94911 338.08523 330.16376 337.88373 329.6875 336.0625 C 329.59744 335.7181 329.54555 335.38724 329.53125 335.09375 C 329.5241 334.94701 329.55283 334.82011 329.5625 334.6875 C 329.68816 332.96351 331.17446 332.44871 332.46875 334.21875 C 333.9771 336.28155 337.54375 336.37832 338.3125 334.375 C 338.54491 333.76934 339.10928 333.35212 339.84375 333.125 C 339.99064 333.07958 340.15463 333.06153 340.3125 333.03125 C 341.89115 332.72842 343.93219 333.16368 344.9375 334.375 C 346.56392 336.33472 347.9282 336.26307 349.46875 334.15625 C 350.54012 332.69107 351.10224 332.62348 353.4375 333.6875 C 354.60208 334.21812 355.33924 334.46992 355.90625 334.40625 C 356.048 334.39033 356.18632 334.368 356.3125 334.3125 C 356.69104 334.14599 357.0111 333.79041 357.40625 333.25 C 358.33192 331.98407 359.47539 331.72633 361.9375 332.21875 C 362.83963 332.39918 364.0848 332.43324 365.375 332.34375 C 366.0201 332.299 366.65592 332.22913 367.28125 332.125 C 367.90658 332.02087 368.50354 331.87685 369.03125 331.71875 C 372.01133 330.82593 373.20958 330.87654 374.375 331.84375 C 375.59938 332.8599 376.35265 332.68911 378.5 331 C 379.22388 330.43059 380.25208 329.85972 381.3125 329.375 C 381.84271 329.13264 382.38789 328.89606 382.90625 328.71875 C 383.42461 328.54144 383.93248 328.42677 384.375 328.34375 C 385.4813 328.13621 387.10112 327.34599 388.65625 326.34375 C 388.96728 326.1433 389.26175 325.93474 389.5625 325.71875 C 390.16399 325.28677 390.74608 324.83665 391.25 324.375 C 394.87987 321.0496 394.90639 320.93055 394.625 313.9375 C 394.47117 310.11443 394.34384 308.34102 393.59375 306.875 C 393.51041 306.71211 393.44363 306.53199 393.34375 306.375 C 392.74445 305.43308 391.83233 304.56384 390.40625 303.25 C 385.14173 298.39981 379.18659 297.12537 360.15625 296.71875 C 352.08162 296.54622 348.25242 296.40659 346.375 296 C 346.1664 295.95482 345.97587 295.92771 345.8125 295.875 C 344.83226 295.55877 344.60901 295.07918 344.46875 294.375 C 344.24965 293.275 343.80571 291.20559 343.5 289.75 C 343.29176 288.75847 343.17222 288.10755 343.5 287.6875 C 343.55463 287.61749 343.63698 287.55969 343.71875 287.5 C 344.45466 286.96283 346.33606 286.81225 350.6875 286.46875 C 354.94619 286.13257 364.6136 285.75823 372.15625 285.625 L 385.875 285.375 L 391.15625 290.59375 C 395.3831 294.75464 399.59716 297.30952 412.21875 303.34375 C 420.90024 307.49427 428.25659 310.875 428.5625 310.875 C 430.02174 310.875 449.01998 319.63731 453.4375 322.34375 C 454.78939 323.172 455.81879 323.8075 456.8125 324.375 C 459.79362 326.0775 462.42402 327.20589 472.21875 331.40625 C 473.42584 331.9239 474.61123 332.44394 475.6875 332.9375 C 476.76377 333.43106 477.75012 333.89358 478.59375 334.3125 C 480.28101 335.15034 481.38545 335.79533 481.53125 336.03125 C 481.5677 336.09023 481.62612 336.13179 481.6875 336.1875 C 482.11717 336.57749 483.09311 336.875 484.0625 336.875 C 485.43963 336.875 485.97505 336.32142 485.75 335.125 C 485.3465 332.97995 475.70967 327.67718 466.9375 324.78125 C 458.68634 322.05733 450.26684 316.92822 452.125 315.75 C 452.21567 315.69251 452.33359 315.64827 452.46875 315.59375 C 452.60391 315.53923 452.76471 315.45663 452.9375 315.40625 C 453.97422 315.10394 455.62968 314.91225 457.15625 314.90625 C 459.19168 314.89783 463.01668 314.40631 465.65625 313.84375 C 468.61226 313.21374 472.2182 313.18348 475.0625 313.71875 C 480.70286 314.78023 485.9375 314.10872 485.9375 312.34375 C 485.9375 311.47572 483.80369 310.79794 479.5625 310.34375 C 473.74039 309.72025 470.07816 309.82114 459.875 311.1875 C 458.41741 311.38269 456.81191 311.62671 455.0625 311.875 C 444.66442 313.35078 439.58966 312.06966 422.9375 303.84375 C 419.9125 302.34945 416.2 300.85556 414.6875 300.5 C 412.35015 299.95052 411.9375 299.3418 411.9375 296.4375 L 411.9375 293 L 427.46875 292.96875 C 436.00535 292.94675 443.76785 292.5233 444.71875 292.03125 C 445.66966 291.53921 451.35727 290.82534 457.34375 290.4375 C 463.33024 290.04966 469.28723 289.30924 470.59375 288.8125 C 470.80516 288.73212 471.00575 288.67819 471.21875 288.625 C 471.43175 288.57181 471.6573 288.52559 471.875 288.5 C 473.18121 288.34644 474.60013 288.70266 476.46875 289.59375 C 480.42958 291.48253 485.18231 290.5355 485.71875 287.75 C 485.97094 286.44047 484.58997 286.00962 478.03125 285.4375 C 473.48632 285.04104 469.27561 285.15463 468.25 285.6875 C 466.14 286.78379 439.49864 288.82634 422.9375 289.15625 L 411.4375 289.375 L 411.1875 279.625 L 410.96875 269.875 L 419.1875 269.84375 C 426.62461 269.8085 466.28986 268.05097 474.9375 267.375 C 476.8625 267.22453 480.125 267.0612 482.1875 267 C 485.64 266.89753 485.9375 266.65935 485.9375 263.96875 C 485.9375 263.06758 485.86745 262.40098 485.625 261.875 C 485.54418 261.69967 485.43211 261.52334 485.3125 261.375 C 484.83406 260.78163 484.02373 260.39315 482.6875 259.9375 C 479.2254 258.75694 473.9375 254.60319 473.9375 253.0625 C 473.9375 252.55284 475.26476 251.57323 476.875 250.90625 C 477.81191 250.51817 478.61776 250.13369 479.3125 249.71875 C 479.54408 249.58044 479.76338 249.42365 479.96875 249.28125 C 482.43321 247.57242 483.01278 245.56561 482.03125 242.75 C 481.41183 240.97314 480.29353 238.79822 479.53125 237.9375 C 477.42168 235.55553 471.9375 225.01673 471.9375 223.34375 C 471.9375 221.61375 468.68742 221.39889 465.8125 222.9375 C 465.45337 223.1297 465.1182 223.28106 464.8125 223.375 C 464.65965 223.42197 464.51757 223.4464 464.375 223.46875 C 463.66214 223.58052 463.07879 223.41254 462.46875 222.90625 C 460.32138 221.12409 457.03427 223.77888 456.34375 227.875 C 456.01835 229.80527 455.34039 232.95 454.84375 234.875 C 454.3471 236.8 453.9435 239.5 453.9375 240.875 C 453.93104 242.25 453.23357 244.72839 452.375 246.375 C 450.86648 249.26812 450.90352 249.45847 453.53125 251.71875 C 453.79291 251.94382 454.03909 252.1301 454.28125 252.3125 C 455.97639 253.58933 457.27132 253.83801 459.40625 253.4375 C 459.9366 253.33801 460.4283 253.26602 460.84375 253.21875 C 463.75188 252.88787 463.85813 253.88563 461.40625 256.53125 C 459.99684 258.05202 457.75231 259.15005 455.75 259.3125 C 453.92784 259.46034 451.5036 259.87832 450.34375 260.25 C 449.29779 260.58518 448.46138 260.66391 447.78125 260.15625 C 447.68409 260.08373 447.59063 259.97183 447.5 259.875 C 445.32482 257.55115 444.97465 247.9824 444.875 218.875 C 444.80254 197.70892 444.40123 187.90277 443.4375 184.1875 C 442.69873 181.33945 441.79192 175.26395 441.40625 170.6875 C 440.68561 162.13612 439.59739 159.40445 437.3125 160.28125 C 436.59323 160.55726 435.71614 160.33323 435.375 159.78125 C 435.03386 159.22928 434.8177 151.28026 434.875 142.09375 C 434.92659 133.81899 434.81414 129.10322 434.4375 126.1875 C 434.28685 125.02121 434.09249 124.15156 433.84375 123.4375 C 433.71938 123.08047 433.58956 122.75614 433.4375 122.46875 C 432.03534 119.81871 432.04244 119.40496 433.625 117.65625 C 435.05398 116.07725 436.1995 115.87496 440.0625 116.40625 C 446.08866 117.23506 450.9375 114.97351 450.9375 111.375 C 450.9375 109.98696 450.10074 108.49535 449 107.90625 C 446.38425 106.50635 439.34268 106.59947 437 108.0625 C 435.51243 108.9915 434.19764 108.95094 430.9375 107.875 C 427.67736 106.79906 426.36257 106.7585 424.875 107.6875 C 424.21287 108.10101 423.71127 108.41732 423.3125 108.59375 C 423.11312 108.68196 422.92702 108.72653 422.78125 108.75 C 422.05239 108.86733 421.9375 108.15024 421.9375 106.375 C 421.9375 103.63784 420.22947 102.98539 419.3125 105.375 C 419.07506 105.99375 418.50472 106.52148 417.90625 106.75 C 417.80651 106.78809 417.69395 106.82368 417.59375 106.84375 C 417.49355 106.86382 417.41043 106.875 417.3125 106.875 C 416.52908 106.875 415.63958 107.51032 415.34375 108.28125 C 415.30677 108.37762 415.23516 108.46322 415.15625 108.5625 C 414.6039 109.25745 413.11311 110.01574 411.53125 110.3125 C 408.76709 110.83106 404.62286 113.1069 401.5 115.5625 C 400.87543 116.05362 400.30721 116.53921 399.78125 117.03125 C 399.25529 117.52329 398.79596 118.03257 398.40625 118.5 C 398.2114 118.73371 398.02873 118.96472 397.875 119.1875 C 397.72127 119.41028 397.57665 119.60385 397.46875 119.8125 C 395.25124 124.1007 393.00664 137.49413 392.6875 148.375 L 392.40625 158.375 L 378.9375 158.59375 C 371.52292 158.70559 358.0125 159.29678 348.9375 159.90625 C 329.08272 161.23968 248.64827 162.9711 190.4375 163.71875 C 184.61642 163.79352 179.01241 163.85293 173.71875 163.90625 C 147.25046 164.17285 128.42289 164.16962 127.5625 163.6875 C 124.94057 162.21832 118.9375 156.17183 118.9375 155 C 118.9375 154.32423 118.24056 152.4238 117.375 150.75 C 115.59944 147.31644 116.12224 145.95882 118.46875 147.90625 C 120.96726 149.97983 121.95213 147.86182 120.6875 143.15625 C 119.37792 138.28339 120.48031 136.34192 122.6875 139.625 C 122.7915 139.77969 122.90284 139.94763 123.03125 140.09375 C 123.93014 141.11658 125.352 141.875 126.4375 141.875 C 127.67807 141.875 129.25281 142.55 129.9375 143.375 C 130.62219 144.2 132.45388 144.875 134 144.875 C 134.28903 144.875 134.54427 144.86126 134.78125 144.84375 C 135.01823 144.82624 135.24687 144.82121 135.4375 144.78125 C 135.62813 144.74129 135.7875 144.69237 135.9375 144.625 C 136.0875 144.55763 136.22867 144.47473 136.34375 144.375 C 136.80407 143.97607 136.99487 143.27097 137.125 142.15625 C 137.1529 141.91722 137.20324 141.71017 137.25 141.5 C 137.29676 141.28983 137.33938 141.08906 137.40625 140.90625 C 137.80748 139.80937 138.59287 139.20599 139.875 138.90625 C 141.97763 138.4147 142.3083 137.72515 142.375 133.84375 C 142.44492 129.77447 142.68827 129.34107 145.09375 129.0625 C 145.63464 128.99986 146.1136 128.85968 146.53125 128.625 C 146.67047 128.54677 146.81285 128.4702 146.9375 128.375 C 148.43329 127.23266 148.85464 124.89359 147.84375 122.3125 C 145.76021 116.99262 147.50429 110.05452 151.59375 107.375 C 159.69142 102.0692 160.14484 83.83802 152.40625 74.65625 C 150.89201 72.85962 149.14892 70.25 148.53125 68.875 C 145.53006 62.19396 140.38181 54.52857 137.3125 52.1875 C 134.35332 49.93042 132.65526 49.51869 124.53125 49.09375 C 121.50503 48.93546 119.00729 48.862848 116.90625 48.90625 z M 118.09375 52.46875 C 119.87368 52.474716 121.93847 52.620392 124.40625 52.875 C 134.30827 53.89662 136.85587 55.31246 140.15625 61.65625 C 141.50588 64.25043 144.89851 69.91722 147.71875 74.25 C 151.98177 80.799375 154.28182 86.0469 154.625 90.78125 C 154.64788 91.096873 154.68198 91.407467 154.6875 91.71875 C 154.77588 96.699273 152.61786 101.1797 148.28125 106.0625 L 143.75 111.1875 L 144.125 118 C 144.39819 122.83482 144.1349 124.97293 143.25 125.3125 C 143.07821 125.37842 142.8981 125.42876 142.71875 125.4375 C 142.5394 125.44624 142.35429 125.41822 142.1875 125.375 C 141.85393 125.28856 141.56878 125.10674 141.40625 124.84375 C 141.08117 124.31777 140.1254 123.875 139.28125 123.875 C 138.02763 123.875 137.88673 124.74527 138.40625 128.625 C 138.47874 129.16631 138.51543 129.66332 138.5625 130.09375 C 138.89202 133.10676 138.54974 133.61013 136.65625 134.46875 C 134.56683 135.41623 134.08413 135.2067 132.65625 132.71875 C 131.41931 130.56352 129.66841 129.5531 128.6875 130.03125 C 128.59833 130.07472 128.51271 130.15081 128.4375 130.21875 C 128.28708 130.35462 128.14523 130.54479 128.0625 130.78125 C 128.02113 130.89948 127.99023 131.0122 127.96875 131.15625 C 127.94727 131.3003 127.93713 131.45468 127.9375 131.625 C 127.93776 131.74531 127.97233 131.90386 128 132.0625 C 128.02767 132.22114 128.07272 132.37253 128.125 132.5625 C 128.43867 133.70234 129.15431 135.36285 130 136.75 C 132.44324 140.75756 131.81129 141.96709 128.6875 139.28125 C 125.31099 136.37813 119.25996 133.58436 118.03125 134.34375 C 117.95665 134.38986 117.88297 134.43497 117.8125 134.53125 C 117.74203 134.62753 117.6586 134.7661 117.59375 134.90625 C 117.5289 135.0464 117.49525 135.19729 117.4375 135.375 C 117.14873 136.26354 116.9375 137.58279 116.9375 138.9375 C 116.9375 143.60161 116.18869 143.81185 112.75 140.125 C 106.09789 132.99285 106.93264 130.24535 115.625 130.625 C 117.00287 130.68518 118.0518 130.7338 118.90625 130.6875 C 119.33347 130.66435 119.70982 130.60701 120.0625 130.53125 C 121.82591 130.15246 122.87811 129.02481 125.59375 126.03125 C 127.35541 124.08929 128.59455 122.87465 129.625 122.21875 C 129.88261 122.05477 130.13605 121.94456 130.375 121.84375 C 131.09185 121.54132 131.72516 121.5141 132.46875 121.65625 C 133.17693 121.79163 133.81109 121.81449 134.375 121.75 C 134.75094 121.707 135.09247 121.63424 135.40625 121.5 C 136.1907 121.1644 136.8056 120.52076 137.21875 119.59375 C 137.38401 119.22295 137.5164 118.81256 137.625 118.34375 C 137.8422 117.40613 137.9375 116.27873 137.9375 114.9375 C 137.9375 114.40301 137.95194 113.90335 137.96875 113.46875 C 137.98556 113.03415 138.01781 112.63817 138.0625 112.28125 C 138.33066 110.13971 139.20907 109.2049 141.875 107.0625 C 146.54487 103.30969 148.34156 98.52568 147.6875 91.71875 C 147.08584 85.45716 142.29547 79.866 137.5 79.875 C 135.62734 79.87842 133.69018 80.169705 131.9375 80.625 C 131.35327 80.776765 130.78364 80.936206 130.25 81.125 C 128.11543 81.880175 126.45516 82.91595 125.875 84 C 124.25975 87.0181 122.32303 95.30366 121 104.875 C 120.72516 106.86332 120.49553 108.61429 120.28125 110.125 C 119.6384 114.65712 119.21591 117.18124 118.625 118.59375 C 118.52652 118.82917 118.42153 119.04133 118.3125 119.21875 C 117.54931 120.46066 116.4822 120.37063 114.53125 120.375 C 113.69217 120.37679 112.91686 120.46057 112.25 120.59375 C 112.02771 120.63814 111.81847 120.69382 111.625 120.75 C 110.85113 120.97472 110.3066 121.26792 110.1875 121.625 C 109.9582 122.3125 109.18466 122.875 108.46875 122.875 C 105.41303 122.875 103.5169 128.16498 103.4375 136.875 C 103.32803 148.88756 101.7112 148.7302 95.65625 136.15625 C 93.06492 130.77501 90.9335 125.45833 90.9375 124.3125 C 90.94823 121.42068 90.02282 120.76469 87.65625 122.03125 C 85.97984 122.92843 85.32081 122.71132 83.8125 120.75 C 81.16181 117.3032 81.47928 116.37624 85.9375 114.625 C 88.1375 113.76081 89.9375 112.40258 89.9375 111.625 C 89.9375 109.34522 88.73078 108.77125 87.03125 110.25 C 84.78709 112.20264 79.47014 113.68837 71.9375 114.46875 C 71.04375 114.56134 70.161188 114.67515 69.3125 114.8125 C 68.463812 114.94985 67.654581 115.11875 66.9375 115.28125 C 65.503338 115.60625 64.41972 115.94208 64.03125 116.25 C 63.61788 116.57766 63.332746 116.79217 63.15625 116.84375 C 62.86209 116.92972 62.883344 116.60657 63.125 115.875 C 63.39751 115.05 64.4372 114.22514 65.4375 114.03125 C 66.43779 113.83737 69.43541 112.31118 72.125 110.65625 C 78.6838 106.62059 84.19063 98.20395 87.5 87.09375 C 88.92673 82.30395 90.68905 77.025 91.40625 75.375 C 92.12344 73.725 92.85817 71.925 93.0625 71.375 C 94.022282 68.791542 96.751988 64.725478 98.8125 62.5 C 99.155919 62.129087 99.485766 61.81477 99.78125 61.5625 C 100.07673 61.31023 100.33738 61.10257 100.5625 61 C 101.73571 60.46545 104.28874 58.62826 106.25 56.90625 C 109.92327 53.681078 112.75395 52.450851 118.09375 52.46875 z M 118.3125 57.53125 C 117.66634 57.611691 116.82691 57.912927 115.8125 58.4375 C 113.08634 59.84725 112.19364 61.78739 113.59375 63.1875 C 114.30986 63.9036 119.9375 60.15812 119.9375 58.96875 C 119.9375 57.876094 119.38943 57.397181 118.3125 57.53125 z M 107.59375 59.875 C 105.62064 59.875 100.82847 63.88219 101.5 64.96875 C 102.27546 66.22347 102.68638 66.13212 106.03125 64.15625 C 109.04776 62.37436 109.97012 59.875 107.59375 59.875 z M 131.71875 60.0625 C 131.5133 60.088631 131.32578 60.14297 131.1875 60.28125 C 130.87027 60.59848 131.12245 61.99767 131.75 63.375 C 133.10626 66.35167 135.9375 66.70806 135.9375 63.90625 C 135.9375 62.20021 133.15692 59.87958 131.71875 60.0625 z M 119.53125 64.875 C 118.00606 64.875 111.59492 73.837719 110.5625 76.96875 C 110.45188 77.304218 110.38044 77.597978 110.40625 77.78125 C 110.41485 77.842341 110.44311 77.864767 110.46875 77.90625 C 111.47938 79.5415 112.62321 78.99842 115.1875 75.625 C 117.60208 72.44853 120.9375 66.53188 120.9375 65.4375 C 120.9375 65.13519 120.30794 64.875 119.53125 64.875 z M 126.40625 66.875 C 125.59537 66.875 124.9375 67.26717 124.9375 67.75 C 124.9375 68.96007 127.60795 75.20764 128.5 76.09375 C 128.62767 76.220568 128.76947 76.310571 128.90625 76.375 C 129.86369 76.826006 130.9375 75.837394 130.9375 74.28125 C 130.9375 71.74498 127.9592 66.875 126.40625 66.875 z M 135.8125 69.875 C 134.78787 69.875 134.64792 73.24167 135.625 74.21875 C 137.5629 76.15665 139.68255 73.48406 137.90625 71.34375 C 137.24155 70.54284 136.29515 69.875 135.8125 69.875 z M 104.6875 69.9375 C 102.04564 70.206652 95.483794 75.331876 96.4375 76.875 C 97.28812 78.25133 97.7351 78.18252 101.46875 75.875 C 104.54033 73.97665 106.5366 71.1616 105.53125 70.15625 C 105.34663 69.971626 105.06491 69.89905 104.6875 69.9375 z M 121.9375 73.9375 C 121.60789 73.970648 121.28727 74.27234 120.90625 74.875 C 120.77658 75.080102 120.67603 75.353603 120.5625 75.625 C 120.2219 76.439191 119.97475 77.462495 119.96875 78.21875 C 119.95094 80.35169 121.82671 79.99876 123.34375 77.59375 C 124.10189 76.39184 124.04229 75.57354 123.125 74.65625 C 122.61222 74.14347 122.26711 73.904352 121.9375 73.9375 z M 145.40625 75.875 C 144.75437 75.875 144.35036 75.965337 144.15625 76.1875 C 144.09155 76.261554 144.04683 76.326332 144.03125 76.4375 C 143.96893 76.882171 144.27994 77.650445 144.96875 78.9375 C 145.89674 80.67147 148.9375 81.72616 148.9375 80.3125 C 148.9375 78.70713 146.68612 75.875 145.40625 75.875 z M 98.9375 79.875 C 98.07387 79.875 89.9375 96.28861 89.9375 98.03125 C 89.9375 98.50511 90.64948 98.875 91.5 98.875 C 92.45848 98.875 94.57266 95.63891 97.0625 90.375 C 100.76807 82.54081 101.24194 79.875 98.9375 79.875 z M 115 83 C 114.66612 82.98082 114.34127 83.13872 114.0625 83.4375 C 112.91656 84.665729 109.87101 98.258963 109.125 104.75 C 109.07171 105.21365 109.02818 105.64724 109 106.03125 C 108.97182 106.41526 108.9375 106.74108 108.9375 107.03125 C 108.9375 111.46719 111.20589 112.10059 111.75 107.8125 C 111.8345 107.14654 112.20909 105.35302 112.71875 103.03125 C 113.22841 100.70948 113.87372 97.85672 114.5625 95 C 116.32961 87.67081 116.74922 84.28047 116 83.53125 C 115.66602 83.19727 115.33388 83.01918 115 83 z M 135.4375 83.875 C 145.68515 83.875 147.99687 97.7311 138.9375 104.90625 C 135.175 107.8862 134.9375 108.34924 134.9375 113.46875 C 134.9375 116.65252 134.50741 118.47094 133.65625 118.90625 C 133.56168 118.95462 133.44828 118.9861 133.34375 119 C 132.71655 119.08339 131.90938 118.54605 130.9375 117.375 C 129.14581 115.21615 126.9375 115.5245 126.9375 117.9375 C 126.9375 118.1451 126.95244 118.33468 126.9375 118.5 C 126.83289 119.65721 126.29338 119.82368 124.78125 119.34375 C 123.09341 118.80805 122.77909 118.99158 123.25 120.21875 C 123.58011 121.07902 123.15672 123.15146 122.3125 124.84375 C 121.95316 125.56407 121.65613 126.11341 121.34375 126.53125 C 121.18756 126.74017 121.01876 126.91591 120.84375 127.0625 C 120.66874 127.20909 120.49545 127.34439 120.28125 127.4375 C 119.85285 127.62371 119.30115 127.69333 118.59375 127.71875 C 117.88635 127.74417 117.02439 127.72077 115.875 127.65625 C 113.17467 127.50466 110.9395 127.14625 110.9375 126.84375 C 110.92651 125.43096 113.59798 123.875 116.0625 123.875 C 116.28389 123.875 116.49978 123.87541 116.71875 123.84375 C 116.93772 123.81209 117.15997 123.74891 117.375 123.6875 C 118.0201 123.50327 118.66776 123.19888 119.25 122.78125 C 119.44408 122.64204 119.62845 122.47382 119.8125 122.3125 C 120.73275 121.50588 121.50721 120.43511 122.0625 119.21875 C 122.17356 118.97548 122.28311 118.75393 122.375 118.5 C 122.74257 117.48426 122.9375 116.39126 122.9375 115.28125 C 122.9375 111.82597 125.24751 98.63394 127.15625 91.09375 C 128.24214 86.804089 130.39771 84.508185 133.875 84 C 134.12338 83.963701 134.36319 83.924328 134.625 83.90625 C 134.88681 83.888172 135.16208 83.875 135.4375 83.875 z M 105.90625 86.125 C 104.45459 86.383755 101.9375 91.731044 101.9375 94.84375 C 101.9375 95.037799 101.95417 95.210348 101.96875 95.375 C 102.18747 97.844784 103.9866 97.036206 105.40625 93.625 C 107.38246 88.87644 107.61598 86.65547 106.1875 86.15625 C 106.10118 86.126082 106.00303 86.10775 105.90625 86.125 z M 151.78125 93.125 C 151.1658 93.212921 150.49653 93.76039 150.1875 94.6875 C 150.13307 94.850782 150.12316 95.014306 150.15625 95.15625 C 150.17279 95.227222 150.18276 95.280548 150.21875 95.34375 C 150.39869 95.659759 150.83073 95.875 151.375 95.875 C 152.24583 95.875 152.9375 95.18333 152.9375 94.3125 C 152.9375 93.429535 152.3967 93.037079 151.78125 93.125 z M 129.875 99.15625 C 128.90596 99.105207 127.9519 99.423095 127.3125 100.0625 C 126.10879 101.26621 126.42194 101.46875 129.4375 101.46875 C 133.35169 101.46875 134.08263 100.37173 130.84375 99.34375 C 130.52293 99.241928 130.19801 99.173264 129.875 99.15625 z M 86.5625 100.875 C 85.226281 100.875 82.324402 104.49792 81.96875 106.46875 C 81.94504 106.60014 81.9375 106.72861 81.9375 106.84375 C 81.9375 108.44055 83.09188 108.09849 85.625 105.71875 C 88.20699 103.29309 88.67729 100.875 86.5625 100.875 z M 76.625 102.28125 C 76.822696 102.262 76.9375 102.35625 76.9375 102.5625 C 76.9375 103.96586 73.7351 106.6151 71.9375 106.6875 C 71.1125 106.72072 69.3125 107.02569 67.9375 107.375 L 65.4375 108 L 67.9375 106.46875 C 69.3125 105.62877 71.09331 104.92575 71.875 104.90625 C 72.070423 104.90138 72.29975 104.86953 72.5625 104.78125 C 72.82525 104.69297 73.111719 104.55944 73.40625 104.40625 C 73.700781 104.25306 73.990485 104.07462 74.28125 103.875 C 74.572015 103.67538 74.873548 103.44631 75.125 103.21875 C 75.753631 102.64985 76.295506 102.31333 76.625 102.28125 z M 129.9375 102.875 C 129.3875 102.875 128.9375 103.325 128.9375 103.875 C 128.9375 104.425 129.3875 104.875 129.9375 104.875 C 130.4875 104.875 130.9375 104.425 130.9375 103.875 C 130.9375 103.325 130.4875 102.875 129.9375 102.875 z M 104.5625 104.875 C 103.66864 104.875 102.95948 105.63134 102.5625 106.6875 C 102.46326 106.95154 102.36695 107.23775 102.3125 107.53125 C 102.14914 108.41176 102.19258 109.3987 102.53125 110.28125 C 103.52839 112.87976 105.40118 111.59456 105.75 108.0625 C 105.97612 105.77288 105.64198 104.875 104.5625 104.875 z M 96.90625 107.8125 C 96.365984 107.85818 95.913035 108.27021 95.84375 109.125 C 95.56335 112.58454 96.24236 117.51503 97.15625 118.625 C 97.652955 119.22827 98.098951 119.60476 98.46875 119.78125 C 98.5612 119.82537 98.635186 119.85657 98.71875 119.875 C 99.637954 120.07776 100.02685 118.74524 99.59375 116.125 C 99.25284 114.0625 98.97475 111.3625 98.96875 110.125 C 98.961588 108.66094 97.806694 107.73637 96.90625 107.8125 z M 70.25 109 C 70.747315 109 70.803 109.28361 70.4375 109.875 C 70.09758 110.425 68.83004 110.8512 67.625 110.8125 C 65.51264 110.74474 65.50926 110.70359 67.4375 109.875 C 68.81374 109.28361 69.752685 109 70.25 109 z M 443.21875 110.875 C 445.59798 110.875 446.07941 111.17059 445.1875 112.0625 C 443.93915 113.31085 436.9375 113.91977 436.9375 112.78125 C 436.9375 111.73934 439.76137 110.875 443.21875 110.875 z M 116.625 111.875 C 115.04314 111.875 113.67481 114.29981 114.6875 115.3125 C 115.69912 116.32412 117.4342 115.35202 117.78125 113.5625 C 117.96457 112.61729 117.45637 111.875 116.625 111.875 z M 427.375 113.03125 C 428.68266 113.0496 429.9375 114.16118 429.9375 115.78125 C 429.9375 118.5842 427.90677 119.48025 427.25 116.96875 C 426.94787 115.81341 426.22085 114.875 425.625 114.875 C 425.43781 114.875 425.31038 114.85753 425.21875 114.8125 C 424.94386 114.6774 425.10033 114.33717 425.6875 113.75 C 426.18553 113.25197 426.78061 113.02291 427.375 113.03125 z M 140.34375 113.25 C 139.41042 113.37544 138.75239 114.97785 139.3125 116.4375 C 139.61898 117.23616 140.33898 117.875 140.90625 117.875 C 142.19106 117.875 142.26716 114.22064 141 113.4375 C 140.76355 113.29137 140.55913 113.22105 140.34375 113.25 z M 411.9375 113.875 C 414.66005 113.6875 416.15261 114.65102 413.6875 116.65625 C 411.94723 118.07186 400.9375 120.74113 400.9375 119.75 C 400.9375 119.30462 402.63483 117.80108 404.6875 116.40625 C 406.96869 114.85614 409.81996 114.02084 411.9375 113.875 z M 421.75 113.9375 C 422.59355 113.85623 422.9628 114.77561 422.75 116.625 C 422.47529 119.0125 421.94318 119.41804 418.6875 119.6875 C 417.7135 119.76811 416.90105 119.72182 416.28125 119.59375 C 416.1263 119.56173 416.00549 119.54212 415.875 119.5 C 414.83105 119.16303 414.55538 118.51985 415.34375 117.875 C 415.4423 117.79439 415.5874 117.70513 415.71875 117.625 C 415.98145 117.46475 416.28802 117.30752 416.6875 117.15625 C 417.65 116.79179 419.05446 115.90578 419.78125 115.1875 C 420.57774 114.40034 421.24387 113.98626 421.75 113.9375 z M 90.8125 114.90625 C 90.311483 114.92267 89.678445 115.18805 89.09375 115.59375 C 88.859872 115.75603 88.652578 115.92277 88.4375 116.125 C 87.792267 116.73169 87.269953 117.51349 87.125 118.25 C 86.94717 119.15355 87.21366 119.875 87.71875 119.875 C 89.15416 119.875 92.35396 115.94771 91.5625 115.15625 C 91.374784 114.96853 91.11311 114.8964 90.8125 114.90625 z M 74.1875 117.0625 C 77.441988 116.95469 79.253955 118.56599 81.4375 122.875 C 84.10005 128.12929 85.45447 129.49682 86.4375 127.90625 C 87.6765 125.9015 88.61178 126.95429 89.96875 131.9375 C 90.72709 134.72235 91.68506 137.21616 92.09375 137.46875 C 92.400268 137.65818 93.565874 139.71744 94.96875 142.46875 C 95.436375 143.38585 95.942985 144.37811 96.4375 145.40625 C 98.168311 149.00474 99.947888 152.01848 100.71875 152.71875 C 100.82887 152.81879 100.90311 152.875 100.96875 152.875 C 101.10004 152.875 101.28978 152.82947 101.53125 152.71875 C 101.77272 152.60803 102.06122 152.44759 102.375 152.25 C 103.00256 151.85481 103.74791 151.28709 104.4375 150.6875 C 104.7726 150.39614 105.07836 150.09377 105.34375 149.78125 C 107.20151 147.59358 107.37184 144.79934 106.03125 140.125 C 105.45059 138.10016 105.46357 136.68266 106.0625 136.3125 C 107.29675 135.5497 114.9375 152.10353 114.9375 155.53125 C 114.9375 157.03662 116.31347 159.7324 118.1875 161.90625 C 121.61687 165.88427 124.33564 170.17531 126.03125 174.03125 C 126.27348 174.5821 126.48694 175.12457 126.6875 175.65625 C 128.29196 179.9097 128.54678 183.45515 127.03125 185.28125 C 125.11155 187.59435 118.93405 188.15734 114.0625 186.4375 C 108.54419 184.48909 106.9375 184.4845 106.9375 186.4375 C 106.9375 188.63067 113.49488 191.10084 119.6875 191.25 C 124.88875 191.37528 124.94278 191.40732 125.46875 194.875 C 125.7229 196.55062 126.01668 198.31532 126.34375 200.09375 C 127.32495 205.42905 128.60147 211.03182 129.9375 215.875 C 130.9237 219.45 132.2534 226.875 132.90625 232.375 C 133.55911 237.875 134.52588 244.25645 135.03125 246.5625 C 135.99808 250.97424 136.3552 253.05983 135.53125 254.03125 C 135.4397 254.13919 135.34019 254.23019 135.21875 254.3125 C 134.49012 254.80638 133.18819 254.87883 131.1875 254.875 C 121.90363 254.85726 98.329012 251.55851 85.9375 248.9375 C 84.904874 248.71908 83.956143 248.51938 83.09375 248.3125 C 80.506572 247.69186 78.742649 247.1223 78.21875 246.6875 C 76.53163 245.28732 76.62126 243.41226 78.53125 239.71875 C 79.90055 237.07082 79.95382 235.27525 78.96875 226.03125 C 77.71655 214.28051 75.58208 205.66547 73.5 203.9375 C 72.75459 203.31887 71.83526 201.58369 71.46875 200.09375 C 70.46139 195.99855 61.75687 175.61373 60.25 173.8125 C 57.85354 170.94792 57.70933 171.1076 72.1875 160.875 C 75.85411 158.28359 77.9375 156.09533 77.9375 154.84375 C 77.9375 152.52511 74.19479 152.09473 73.34375 154.3125 C 73.04473 155.09173 71.12322 156.82379 69.0625 158.1875 C 64.01623 161.52696 56.45316 168.29325 50.96875 174.375 C 48.48886 177.125 42.9503 182.96306 38.6875 187.34375 C 34.42471 191.72445 30.9375 195.66195 30.9375 196.09375 C 30.9375 196.52556 29.3625 196.875 27.4375 196.875 C 23.26363 196.875 22.53641 199.48964 26.4375 200.46875 C 27.91331 200.83915 28.9375 201.81019 28.9375 202.84375 C 28.9375 205.37305 34.72901 216.0614 37.28125 218.25 C 38.47578 219.27434 40.5625 221.77109 41.9375 223.8125 C 45.26864 228.75814 56.80288 243.49573 59.9375 246.8125 C 61.3125 248.2674 64.33784 250.92311 66.65625 252.71875 C 69.8572 255.19793 71.02427 256.88282 71.46875 259.6875 C 72.34078 265.19002 75.26671 270.95679 79.875 276.28125 C 80.454976 276.95136 81.009277 277.62691 81.53125 278.28125 C 82.053223 278.93559 82.544657 279.56398 83 280.1875 C 85.732056 283.92864 87.159895 286.98342 86.40625 287.71875 C 86.383101 287.74134 86.379303 287.77381 86.34375 287.78125 C 85.810456 287.89284 83.921 286.31641 81.96875 284.125 C 75.97783 277.40015 75.60686 277.97525 76.25 293.125 C 76.55938 300.4125 77.10756 307.92478 77.46875 309.8125 L 78.125 313.25 L 75.40625 310.03125 C 72.98131 307.14937 72.75559 306.25113 73.28125 301.59375 C 73.66949 298.15402 73.55926 297.05431 72.96875 298.375 C 72.47691 299.475 72.0387 301.81999 72 303.5625 C 71.85401 310.14321 69.10247 311.85092 68.78125 305.5625 C 68.68325 303.64389 68.38844 304.56806 68.03125 307.875 C 67.962405 308.51238 67.902609 309.07985 67.84375 309.53125 C 67.431737 312.69108 67.183768 311.0151 66.125 300.875 C 65.40716 294 64.92668 285.675 65.0625 282.375 C 65.392894 274.34724 64.136406 265.94906 62.125 262.28125 C 61.990906 262.03673 61.859354 261.82595 61.71875 261.625 C 61.58578 261.43496 61.38212 261.19227 61.125 260.90625 C 60.86788 260.62023 60.552685 260.27358 60.1875 259.90625 C 57.996387 257.70227 54.02367 254.19004 49.96875 250.90625 C 44.56219 246.52786 39.96919 242.56688 39.78125 242.125 C 39.68728 241.90406 38.987344 241.18788 37.90625 240.21875 C 37.365703 239.73418 36.720719 239.17764 36.03125 238.59375 C 35.341781 238.00986 34.585653 237.40598 33.8125 236.78125 C 27.01362 231.28752 8.38552 211.63113 6.53125 208 C 3.73264 202.51959 3.66684 199.17939 6.28125 193.46875 C 9.00238 187.52502 17.97844 175.74384 21.59375 173.375 C 22.84626 172.55432 25.74655 169.06385 28.0625 165.625 C 30.37845 162.18615 32.97487 158.96856 33.8125 158.46875 C 35.648244 157.37339 37.691409 155.26311 39.65625 152.4375 C 40.049218 151.87238 40.426785 151.2747 40.8125 150.65625 C 41.58393 149.41935 42.344915 148.07472 43.0625 146.65625 C 44.65566 143.50699 47.85124 139.00699 50.1875 136.65625 C 52.52377 134.30551 55.57321 130.25035 56.9375 127.65625 C 59.54618 122.69606 65.18409 118.77994 71.6875 117.40625 C 72.30353 117.27613 72.870335 117.18123 73.40625 117.125 C 73.674208 117.09688 73.937155 117.07079 74.1875 117.0625 z M 424.59375 118.96875 C 425.57572 118.6683 427.9375 121.79627 427.9375 123.5625 C 427.9375 124.28238 427.28327 124.875 426.46875 124.875 C 425.47808 124.875 424.4598 123.07814 424.125 121.4375 C 424.05804 121.10937 424.00711 120.79906 424 120.5 C 423.98579 119.90189 424.11381 119.38619 424.40625 119.09375 C 424.45817 119.04183 424.52829 118.98878 424.59375 118.96875 z M 410.65625 121.3125 C 415.45998 121.13531 422.04499 122.16748 421.75 123.6875 C 421.39629 125.51005 421.07873 125.57199 413.4375 125.15625 C 405.3978 124.71884 404.16171 124.24323 406.03125 122.375 C 406.67958 121.72713 408.47273 121.39304 410.65625 121.3125 z M 98.4375 125.375 C 97.32948 125.375 96.50071 132.30307 97.34375 134.5 C 97.63814 135.26716 98.37275 135.875 98.96875 135.875 C 99.64772 135.875 99.93938 133.91444 99.75 130.625 C 99.58376 127.7375 98.9875 125.375 98.4375 125.375 z M 398.71875 125.875 C 399.44624 125.80756 399.9375 131.66999 399.9375 142.375 C 399.9375 155.45833 399.68224 158.875 398.625 158.875 C 398.25833 158.875 397.85327 158.83035 397.53125 158.75 C 397.37024 158.70982 397.2457 158.67799 397.125 158.625 C 397.0043 158.57201 396.90471 158.49846 396.84375 158.4375 C 396.17587 157.76961 396.62867 136.9122 397.4375 131.03125 C 397.91365 127.56926 398.33769 125.91033 398.71875 125.875 z M 133.375 126.875 C 132.5175 126.875 132.12329 127.34728 132.46875 127.90625 C 132.81421 128.46522 133.488 128.66019 134 128.34375 C 135.38704 127.48652 135.13153 126.875 133.375 126.875 z M 428.71875 127 C 428.89783 127.00853 429.08947 127.03069 429.3125 127.0625 C 431.42044 127.36312 431.44632 127.61569 431.09375 145.875 C 430.86715 157.61035 430.30968 164.90165 429.59375 165.78125 C 428.97301 166.54389 426.5972 167.95816 424.3125 168.9375 C 422.0278 169.91684 419.86805 171.21698 419.5 171.8125 C 418.56896 173.31894 417.39816 173.1478 415.875 171.3125 C 415.16021 170.45124 413.22131 169.03903 411.53125 168.1875 C 409.84119 167.33598 407.2 165.50886 405.6875 164.09375 L 402.9375 161.5 L 402.9375 144.75 C 402.9375 135.53536 403.275 127.82173 403.6875 127.59375 C 404.1 127.36575 408.64172 127.39097 413.78125 127.65625 L 423.125 128.125 L 422.59375 131.25 C 422.29283 132.96774 421.75142 135.74387 421.40625 137.40625 C 420.69146 140.84885 423.4995 144.30656 426.53125 143.71875 C 427.50349 143.53025 428.31264 142.70657 428.84375 141.59375 C 428.93227 141.40828 429.02032 141.23192 429.09375 141.03125 C 429.75464 139.22522 429.76369 136.85613 428.875 135.03125 C 428.16463 133.57256 427.49055 131.10502 427.375 129.5625 C 427.22142 127.51233 427.46518 126.94032 428.71875 127 z M 125.9375 130.875 C 125.3875 130.875 124.9375 131.35504 124.9375 131.9375 C 124.9375 132.51996 125.3875 132.71492 125.9375 132.375 C 127.21888 131.58306 127.21888 130.875 125.9375 130.875 z M 113.4375 133.875 C 111.87593 133.875 111.47436 135.06812 112.625 136.21875 C 112.76883 136.36258 112.88879 136.46698 113.03125 136.5625 C 114.02846 137.23114 114.9375 136.74137 114.9375 135.375 C 114.9375 134.55 114.2625 133.875 113.4375 133.875 z M 422.59375 161.3125 C 420.85938 161.18963 418.9375 162.73255 418.9375 164.5 C 418.9375 166.19536 422.11512 166.32238 423.75 164.6875 C 425.37202 163.06548 425.24891 162.21182 423.3125 161.46875 C 423.0781 161.3788 422.84152 161.33005 422.59375 161.3125 z M 435.875 162.875 C 436.37432 162.875 437.06307 165.9125 437.40625 169.625 C 437.57784 171.48125 437.85338 173.77969 438.15625 176 C 438.30769 177.11016 438.46816 178.21855 438.625 179.21875 C 438.78184 180.21895 438.94978 181.11875 439.09375 181.875 C 439.66963 184.9 440.49445 201.84302 440.9375 219.53125 C 441.38054 237.21948 442.03915 253.48342 442.40625 255.65625 L 443.0625 259.59375 L 435.75 260.15625 C 434.74427 260.23266 433.23308 260.30994 431.375 260.375 C 427.65884 260.50512 422.53045 260.60624 417.15625 260.65625 C 414.46915 260.68126 411.72627 260.6912 409.0625 260.6875 C 402.31226 260.67814 397.7079 260.67963 394.5625 260.875 C 393.93342 260.91407 393.35961 260.9427 392.84375 261 C 387.68512 261.57296 387.92255 263.14041 388.40625 267.375 C 388.65754 269.575 389.1125 274.1875 389.4375 277.625 C 389.78018 281.24944 389.64204 283.32698 389.0625 283.84375 C 389.01792 283.8835 388.98712 283.91603 388.9375 283.9375 C 388.73904 284.02338 388.49538 283.95603 388.21875 283.75 C 388.08043 283.64699 387.93839 283.48831 387.78125 283.3125 C 387.46698 282.96088 387.10542 282.48581 386.71875 281.84375 C 386.52542 281.52272 386.30446 281.14346 386.09375 280.75 C 385.46161 279.56962 384.77987 278.08005 384 276.25 C 379.93414 266.70901 373.53464 262.95068 356.09375 259.78125 C 346.3721 258.01459 342.38391 257.87476 310.46875 258.4375 C 300.6961 258.60982 291.72662 258.8691 285.09375 259.15625 C 281.77731 259.29982 279.03462 259.47693 277.0625 259.625 C 275.09038 259.77307 273.91114 259.89484 273.65625 260.03125 C 273.34733 260.19658 273.03468 260.32986 272.75 260.40625 C 272.60766 260.44445 272.48061 260.48407 272.34375 260.5 C 271.65946 260.57967 271.04507 260.3533 270.46875 259.875 C 266.83749 256.86133 206.2604 257.38871 170.03125 260.75 C 163.36143 261.36882 160.25562 262.09991 159.4375 263.21875 C 159.17849 263.57297 158.92674 263.8226 158.59375 263.96875 C 158.5105 264.00529 158.43883 264.04006 158.34375 264.0625 C 157.29791 264.3093 155.44419 263.68399 150.875 261.90625 C 148.85043 261.11855 147.26313 260.43635 146.03125 259.78125 C 145.62062 259.56288 145.2409 259.33627 144.90625 259.125 C 144.5716 258.91373 144.26472 258.70799 144 258.5 C 143.47056 258.08402 143.09851 257.67579 142.8125 257.25 C 142.6695 257.03711 142.52872 256.81482 142.4375 256.59375 C 141.88614 255.25757 140.9234 253.55054 140.28125 252.78125 C 139.23825 251.53175 137.79155 241.86829 136.28125 225.875 C 135.99559 222.85 135.11364 218.63027 134.3125 216.5 C 132.52728 211.75307 129.90543 200.81443 129.25 195.34375 C 128.81981 191.75304 129.06813 191.1476 131.3125 190.125 C 132.00879 189.80775 132.84349 189.21579 133.625 188.5 C 134.01575 188.14211 134.37743 187.73649 134.71875 187.34375 C 135.06007 186.95101 135.38028 186.57189 135.625 186.1875 C 135.86972 185.80311 136.11201 185.40058 136.375 185.03125 C 136.63799 184.66192 136.90529 184.31612 137.15625 184 C 137.65817 183.36775 138.1029 182.878 138.375 182.6875 C 139.44548 181.93803 135.98872 174.84787 132.8125 171.3125 C 131.7924 170.17705 130.9375 168.72935 130.9375 168.09375 C 130.9375 167.66505 134.83765 167.36355 144.3125 167.125 C 146.68121 167.06536 149.40626 166.9886 152.5 166.9375 C 161.78122 166.78421 174.42456 166.69426 191.1875 166.59375 C 224.325 166.39505 270.7875 165.65129 294.4375 164.96875 C 312.175 164.45684 334.5483 163.97151 351.0625 163.71875 C 356.56723 163.6345 361.39835 163.58693 365.21875 163.5625 L 393 163.375 L 395.84375 171.375 C 399.25219 181.00795 407.40923 196.17831 413.21875 203.71875 C 417.23905 208.93691 417.44094 209.55034 417.25 215.40625 C 417.13934 218.79985 416.32186 223.54548 415.4375 225.96875 C 414.55314 228.39202 413.56203 234.2118 413.25 238.90625 L 412.6875 247.4375 L 416.40625 250.71875 C 419.37296 253.32356 420.37227 253.84147 424.03125 253.75 C 424.55396 253.73693 425.1364 253.72141 425.78125 253.6875 C 430.93879 253.41628 431.55654 253.11225 432.90625 250.375 C 433.85435 248.45223 434.39375 244.32284 434.40625 238.875 C 434.41602 234.60606 434.08175 231.24939 433.125 228.0625 C 432.98832 227.60723 432.81879 227.16893 432.65625 226.71875 C 431.35593 223.11728 429.20978 219.59341 425.8125 215.09375 C 420.50767 208.06754 419.9375 205.73242 419.9375 191.03125 C 419.9375 176.89964 421.07586 173.63326 426.6875 171.78125 C 428.80455 171.08256 430.93428 169.26151 432.5 166.78125 C 433.8566 164.63225 435.37568 162.875 435.875 162.875 z M 398.90625 162.9375 C 399.8903 162.82359 401.4718 163.80466 402.8125 165.6875 C 403.91067 167.22973 406.42692 169.37156 408.40625 170.4375 C 410.38557 171.50344 413.12271 174.07502 414.5 176.15625 C 416.8655 179.73077 416.98467 180.56685 416.71875 191.625 L 416.4375 203.34375 L 413.34375 198.375 C 406.81526 187.93551 397.9375 168.36095 397.9375 164.375 C 397.9375 163.46286 398.31582 163.00584 398.90625 162.9375 z M 126.1875 167.40625 C 126.54514 167.34367 127.2051 167.80123 128.21875 168.90625 C 130.33686 171.21528 133.9375 179.11547 133.9375 181.46875 C 133.9375 182.03274 133.27626 183.36988 132.46875 184.4375 C 131.10859 186.2358 130.99825 186.05246 130.96875 181.78125 C 130.94647 178.55061 130.1893 176.05017 128.4375 173.46875 C 126.16416 170.1188 125.4007 167.54394 126.1875 167.40625 z M 120 173.875 C 119.47819 173.875 118.99478 173.9539 118.59375 174.09375 C 118.39324 174.16367 118.22346 174.2482 118.0625 174.34375 C 117.25768 174.8215 116.97338 175.59838 117.625 176.25 C 118.86121 177.48621 121.9375 176.85825 121.9375 175.375 C 121.9375 174.55 121.06754 173.875 120 173.875 z M 56.71875 173.96875 L 61.25 184.6875 C 63.743 190.57712 66.1069 196.5 66.5 197.875 C 66.89311 199.25 68.55799 203.075 70.21875 206.375 C 73.42574 212.74746 75.905 224.04873 75.9375 232.53125 C 75.9516 236.21347 75.06142 239.54221 72.84375 244.28125 C 71.14191 247.918 69.53542 250.875 69.28125 250.875 C 68.05891 250.875 55.74579 236.02044 46.65625 223.59375 C 44.56401 220.73337 41.81777 217.25 40.5625 215.875 C 37.610354 212.64127 34.431869 207.01551 33.34375 203.40625 C 33.260049 203.12861 33.18291 202.84527 33.125 202.59375 C 33.00918 202.09071 32.9375 201.65555 32.9375 201.28125 C 32.9375 201.01578 32.970524 200.74774 33.03125 200.46875 C 33.091976 200.18976 33.181352 199.89901 33.3125 199.59375 C 34.099388 197.76221 36.237442 195.32199 40.78125 190.9375 C 45.09682 186.77324 49.41915 182.025 50.375 180.375 C 51.33085 178.725 53.14205 176.62712 54.40625 175.6875 L 56.71875 173.96875 z M 422.03125 215.71875 C 423.04807 215.92303 424.67589 218.60486 427.4375 224.125 C 430.49574 230.23806 430.9375 232.09853 430.9375 238.46875 C 430.9375 242.49398 430.41954 246.94287 429.78125 248.34375 C 428.24696 251.71116 423.54925 251.76337 419.4375 248.46875 C 416.61418 246.20655 416.46749 245.70283 416.6875 239.75 C 416.81608 236.27102 417.58779 231.38995 418.40625 228.90625 C 419.2247 226.42256 420.17058 222.21002 420.5 219.5625 C 420.83163 216.89712 421.24039 215.55986 422.03125 215.71875 z M 460.40625 226.875 L 464.46875 226.875 C 468.46147 226.875 468.62866 227.00688 472.78125 234.125 C 475.10749 238.1125 477.54806 242.20191 478.21875 243.1875 C 479.249 244.70148 479.05365 245.25832 476.96875 246.84375 C 475.61149 247.87586 473.19274 248.9927 471.59375 249.3125 C 470.79426 249.4724 469.29242 249.61336 467.5 249.71875 C 466.60379 249.77144 465.63845 249.81422 464.65625 249.84375 C 463.67405 249.87328 462.67878 249.875 461.71875 249.875 C 455.45221 249.875 454.80031 249.69568 455.46875 248.125 C 455.87836 247.1625 457.15938 241.9875 458.3125 236.625 L 460.40625 226.875 z M 74.53125 249.40625 C 75.403582 249.45102 77.128602 249.88816 78.96875 250.53125 C 83.87665 252.24647 101.34264 255.27024 112.6875 256.375 C 116.67718 256.76351 120.19472 257.47479 120.5 257.96875 C 120.52217 258.0046 120.52814 258.06013 120.53125 258.09375 C 120.54058 258.19462 120.48667 258.29423 120.34375 258.375 C 120.24847 258.42885 120.12099 258.45509 119.96875 258.5 C 119.51203 258.63473 118.81514 258.72704 118 258.78125 C 115.28286 258.96194 111.22534 258.71696 110.09375 258 C 109.34537 257.52583 107.87207 257.35608 106.84375 257.625 C 106.73793 257.65267 106.62867 257.67408 106.46875 257.6875 C 105.34933 257.78146 102.89812 257.52224 99.25 256.9375 C 98.207679 256.77043 97.081295 256.56443 95.84375 256.34375 C 92.131114 255.68172 87.5363 254.78639 82.15625 253.65625 C 76.91499 252.55526 72.965 250.535 74 249.5 C 74.073903 249.4261 74.240472 249.39133 74.53125 249.40625 z M 469.8125 252.90625 C 471.17312 252.97262 474.09072 258.06097 473.5625 259.4375 C 473.01457 260.86538 466.3559 261.33108 463.875 260.53125 C 463.68416 260.46972 463.51161 260.42061 463.375 260.34375 C 463.10179 260.19003 462.9375 259.99816 462.9375 259.78125 C 462.9375 258.76738 467.34762 254.23948 469.1875 253.15625 C 469.31892 253.07888 469.42854 253.0083 469.53125 252.96875 C 469.63396 252.9292 469.74358 252.90289 469.8125 252.90625 z M 73.5 254.375 C 73.976335 254.34632 75.03402 254.72181 77.0625 255.4375 C 79.4419 256.277 85.66592 257.61456 90.90625 258.4375 C 96.14659 259.26043 101.04432 260.14619 101.78125 260.40625 C 102.6926 260.72787 101.65316 262.52768 98.53125 266 C 96.00682 268.80778 93.9395 271.62199 93.9375 272.25 C 93.93514 272.87802 92.6495 275.3114 91.09375 277.65625 C 90.099272 279.15515 89.438062 280.16224 88.8125 280.625 C 88.687388 280.71755 88.560043 280.79743 88.4375 280.84375 C 87.212075 281.3069 86.015194 279.414 82.8125 274.375 C 77.84785 266.56381 76.95843 264.95225 75.59375 261.1875 C 74.83448 259.0929 73.87507 256.58329 73.46875 255.625 C 73.208957 255.01228 73.098297 254.63497 73.25 254.46875 C 73.275284 254.44105 73.302049 254.42185 73.34375 254.40625 C 73.385451 254.39065 73.440458 254.37858 73.5 254.375 z M 122.40625 256.90625 C 122.68226 256.90625 123.04153 257.23431 123.4375 257.875 C 123.77742 258.425 123.58246 258.875 123 258.875 C 122.41754 258.875 121.9375 258.425 121.9375 257.875 C 121.9375 257.55466 121.98375 257.31642 122.0625 257.15625 C 122.10188 257.07616 122.16334 257.00879 122.21875 256.96875 C 122.27416 256.92871 122.33725 256.90625 122.40625 256.90625 z M 52.09375 257.1875 C 52.575619 257.20841 53.09958 257.59138 54 258.40625 C 55.07588 259.3799 55.9375 260.45082 55.9375 260.78125 C 55.9375 261.11169 53.4625 261.52163 50.4375 261.6875 C 47.04846 261.87333 44.9375 261.58903 44.9375 260.9375 C 44.9375 260.71942 45.072761 260.51258 45.28125 260.34375 C 45.350746 260.28747 45.412612 260.23541 45.5 260.1875 C 45.674777 260.09168 45.894476 260.02244 46.125 259.96875 C 46.355524 259.91506 46.609822 259.875 46.875 259.875 C 47.93572 259.875 49.51783 259.13841 50.40625 258.25 C 51.149775 257.50647 51.611881 257.16659 52.09375 257.1875 z M 130.9375 257.875 C 134.27083 257.875 136.9375 258.31944 136.9375 258.875 C 136.9375 259.43056 134.27083 259.875 130.9375 259.875 C 127.60417 259.875 124.9375 259.43056 124.9375 258.875 C 124.9375 258.84028 124.9484 258.81502 124.96875 258.78125 C 125.27393 258.27466 127.8125 257.875 130.9375 257.875 z M 141.5 259.71875 C 141.76587 259.75022 141.9375 260.12696 141.9375 260.9375 C 141.9375 261.51776 144.525 263.19872 147.6875 264.65625 C 153.53698 267.35214 153.94694 267.3943 175.6875 267.78125 C 179.15006 267.84288 181.9375 268.31615 181.9375 268.875 C 181.9375 268.9545 181.90693 269.03012 181.84375 269.09375 C 181.40148 269.53919 179.45029 269.61145 176.375 269.25 C 170.36327 268.54344 158.27084 270.28923 153.75 272.53125 C 152.69684 273.05354 151.7981 273.42439 150.9375 273.59375 C 150.72235 273.63609 150.49252 273.66946 150.28125 273.6875 C 147.95731 273.88598 145.78345 272.57941 141.5625 269.1875 C 139.2008 267.28966 138.92065 266.5257 139.5 263.4375 C 139.5753 263.03611 139.6732 262.6664 139.78125 262.3125 C 139.8893 261.9586 139.99625 261.63781 140.125 261.34375 C 140.57564 260.31453 141.12778 259.67469 141.5 259.71875 z M 248.65625 261.875 C 271.35683 261.76645 269.91608 262.79968 270.25 267.53125 L 270.4375 270.375 L 263.8125 270.03125 C 261.99389 269.93667 260.37623 269.97335 258.90625 270.125 C 258.53875 270.16291 258.19118 270.19608 257.84375 270.25 C 257.49632 270.30392 257.14056 270.36734 256.8125 270.4375 C 256.15637 270.57783 255.55154 270.76196 254.96875 270.96875 C 252.6376 271.79591 250.87881 273.156 249.5 275.125 C 248.75994 276.18183 248.14755 276.73986 246.3125 277.0625 C 245.85374 277.14316 245.32409 277.22724 244.6875 277.28125 C 244.05091 277.33526 243.32693 277.3712 242.46875 277.40625 C 240.7524 277.47634 238.55273 277.52209 235.6875 277.5625 C 226.3223 277.69458 221.79731 277.27894 216.4375 275.8125 C 204.86058 272.64507 195.71235 270.87586 190.8125 270.875 C 190.34639 270.87492 189.91632 270.88834 189.53125 270.875 C 189.14618 270.86166 188.81234 270.84222 188.5 270.8125 C 186.62595 270.63419 185.99078 270.12853 185.6875 268.96875 C 185.64682 268.81319 185.57942 268.64827 185.5 268.5 C 185.42058 268.35173 185.3045 268.20317 185.1875 268.0625 C 184.8365 267.6405 184.32466 267.25401 183.65625 266.90625 C 183.43345 266.79033 183.19326 266.70078 182.9375 266.59375 C 181.91447 266.16564 180.629 265.80424 179.125 265.53125 C 178.373 265.39475 177.5771 265.28136 176.71875 265.1875 C 175.00204 264.99978 173.08658 264.87675 171 264.875 C 166.9462 264.87149 164.90293 264.53151 165.5 263.9375 C 166.05193 263.3884 187.59778 262.69288 216.9375 262.28125 C 230.82975 262.08634 241.08939 261.91118 248.65625 261.875 z M 478.3125 261.875 C 479.1375 261.875 480.09758 262.325 480.4375 262.875 C 480.77742 263.425 480.3875 263.875 479.5625 263.875 C 479.35625 263.875 479.14818 263.86328 478.9375 263.8125 C 478.72682 263.76172 478.50445 263.68437 478.3125 263.59375 C 477.92861 263.4125 477.60746 263.15 477.4375 262.875 C 477.09758 262.325 477.4875 261.875 478.3125 261.875 z M 325.53125 261.96875 C 357.32199 262.05585 372.41728 265.19855 378.71875 272.84375 C 380.43409 274.92487 383.07079 281.08546 382.5 281.65625 C 382.24702 281.90924 375.16673 282.21701 366.75 282.34375 C 360.43745 282.43881 353.76192 282.71098 349.71875 283.03125 C 349.04489 283.08463 348.45225 283.13277 347.9375 283.1875 C 347.42275 283.24223 346.98444 283.32033 346.65625 283.375 C 344.92373 283.6636 343.82419 283.80476 342.9375 283.71875 C 342.78972 283.70441 342.63664 283.6853 342.5 283.65625 C 341.27025 283.39481 340.41262 282.5141 338.65625 280.5625 C 334.51412 275.95992 328.28914 273.93809 315.96875 273.1875 L 306.34375 272.59375 L 300.28125 278.25 C 296.93163 281.35117 294.01399 283.8534 293.8125 283.8125 C 293.61101 283.77164 291.45525 282.64664 289.03125 281.3125 C 288.42525 280.97897 287.79216 280.66495 287.15625 280.375 C 285.24852 279.50516 283.35498 278.875 282.46875 278.875 C 282.33747 278.875 282.19192 278.87285 282.03125 278.84375 C 279.94248 278.46545 275.55618 275.74744 273.59375 273.6875 C 273.44279 273.52904 273.30757 273.36801 273.1875 273.21875 C 273.06743 273.06949 272.95987 272.91857 272.875 272.78125 C 272.66321 272.43856 272.59294 271.7838 272.625 270.96875 C 272.64103 270.56122 272.68552 270.12346 272.75 269.65625 C 273.07239 267.32021 273.96738 264.47012 274.875 263.5625 C 274.94397 263.49353 275.00201 263.43648 275.09375 263.375 C 275.18549 263.31352 275.30574 263.24209 275.4375 263.1875 C 275.70102 263.07831 276.06659 262.99162 276.59375 262.90625 C 277.12091 262.82088 277.78988 262.754 278.71875 262.6875 C 281.50536 262.488 286.4252 262.36861 295.3125 262.25 C 301.23737 262.17093 308.9205 262.09254 318.9375 262 C 321.20767 261.97903 323.41187 261.96294 325.53125 261.96875 z M 106.3125 262.03125 C 106.38891 262.04035 106.44675 262.07275 106.5 262.125 C 106.91694 262.53413 106.59184 263.65913 105.75 264.625 C 102.37556 268.49659 94.66177 280.25009 92.90625 284.21875 C 91.88012 286.53848 89.67766 290.34032 88 292.65625 C 86.32235 294.97218 84.92375 297.43274 84.90625 298.125 C 84.88875 298.81726 84.21375 300.24488 83.40625 301.3125 C 83.204373 301.57941 83.019246 301.89487 82.84375 302.21875 C 82.668254 302.54263 82.508056 302.87891 82.375 303.21875 C 82.108889 303.89844 81.9375 304.56506 81.9375 305.0625 C 81.9375 305.80866 81.702344 306.47443 81.34375 306.75 C 81.283984 306.79593 81.221191 306.81955 81.15625 306.84375 C 81.091309 306.86795 81.00625 306.875 80.9375 306.875 C 80.3875 306.875 79.9375 306.62355 79.9375 306.3125 C 79.9375 304.76916 86.101146 292.5521 87.5625 291.03125 C 87.659924 290.92986 87.760134 290.875 87.8125 290.875 C 88.35458 290.875 89.09552 289.48055 89.46875 287.78125 C 89.555685 287.38544 89.696016 286.93882 89.875 286.4375 C 92.470271 279.1683 104.09665 261.76735 106.3125 262.03125 z M 131.625 262.0625 C 132.19322 262.05371 132.85344 262.14304 133.625 262.3125 C 136.3587 262.91293 136.51875 263.21841 136.59375 268.40625 C 136.63722 271.4138 136.57181 273.875 136.46875 273.875 C 135.98504 273.875 132.02952 269.09785 130.4375 266.59375 C 128.65071 263.7833 129.16271 262.10057 131.625 262.0625 z M 57.09375 262.375 C 57.615534 262.23589 58.121813 262.75846 59.125 264.0625 C 60.60884 265.99135 60.9191 268.3888 60.9375 278.125 L 60.9375 289.875 L 57.6875 289.90625 C 55.9 289.91376 53.5375 290.13161 52.4375 290.40625 C 51.3375 290.68089 49.7625 290.45498 48.9375 289.90625 C 48.1125 289.35752 44.85 288.91425 41.6875 288.90625 L 35.9375 288.875 L 35.9375 276.875 L 35.9375 264.875 L 45.3125 264.875 C 47.14279 264.875 48.672281 264.86418 49.9375 264.8125 C 53.733156 264.65745 55.233267 264.23636 56 263.3125 C 56.440137 262.78216 56.780679 262.45847 57.09375 262.375 z M 451.84375 262.375 C 456.48691 262.3452 460.19445 262.4698 460.40625 262.8125 C 460.44755 262.87937 460.51612 262.94263 460.625 263 C 460.73388 263.05737 460.86275 263.10912 461.03125 263.15625 C 462.04225 263.43905 464.06462 263.52199 466.21875 263.34375 C 470.78155 262.96622 471.00806 263.02357 467.96875 263.8125 C 466.05557 264.30912 453.90557 265.01456 440.96875 265.375 C 428.03192 265.73543 414.7375 266.16155 411.4375 266.3125 C 409.22093 266.41388 406.89834 266.28743 404.78125 266 C 404.07555 265.90419 403.39994 265.78632 402.75 265.65625 C 400.15023 265.13599 398.0949 264.3582 397.28125 263.46875 C 397.21989 263.40167 397.15735 263.33414 397.125 263.28125 C 396.89855 262.91099 397.37435 262.88852 398.375 263.25 C 399.64334 263.70817 412.30721 263.98258 421.90625 263.9375 C 423.82606 263.92848 425.62744 263.909 427.1875 263.875 C 428.74756 263.841 430.06194 263.77935 431.03125 263.71875 C 431.51591 263.68845 431.92509 263.66226 432.21875 263.625 C 432.51241 263.58774 432.67621 263.54441 432.75 263.5 C 432.85057 263.43947 433.06873 263.37017 433.34375 263.3125 C 435.81889 262.79346 444.87901 262.41969 451.84375 262.375 z M 125.5 262.875 C 126.29239 262.875 126.9375 263.704 126.9375 264.71875 C 126.9375 265.60667 127.62207 266.97316 128.53125 267.96875 C 128.66113 268.11098 128.8 268.25056 128.9375 268.375 C 130.0375 269.37049 130.9375 270.56529 130.9375 271.03125 C 130.9375 271.49721 132.61666 273.4512 134.65625 275.375 C 136.18594 276.81784 137.21774 278.06088 137.375 278.59375 C 137.40121 278.68256 137.39922 278.7657 137.375 278.8125 C 137.35078 278.8593 137.29691 278.875 137.21875 278.875 C 136.00121 278.875 134.61794 277.58056 131.4375 273.4375 C 130.3375 272.00456 128.77812 270.11256 127.96875 269.21875 C 127.15938 268.32494 125.95176 266.51116 125.28125 265.21875 C 125.02921 264.73294 124.83831 264.34264 124.71875 264.03125 C 124.36006 263.09709 124.60645 262.875 125.5 262.875 z M 260.6875 264.0625 C 260.59221 264.06911 260.51449 264.09541 260.4375 264.125 C 260.36051 264.15459 260.30496 264.19504 260.25 264.25 C 259.95419 264.54584 259.95556 265.49503 260.28125 266.34375 C 260.32223 266.45055 260.38256 266.56005 260.4375 266.65625 C 260.49244 266.75245 260.55784 266.82091 260.625 266.90625 C 260.75932 267.07694 260.92087 267.24922 261.09375 267.375 C 261.26663 267.50078 261.4586 267.57736 261.65625 267.65625 C 262.64448 268.0507 263.83353 267.86418 264.40625 266.9375 C 264.96508 266.0333 262.02151 263.96995 260.6875 264.0625 z M 393.125 265.875 C 393.63326 265.875 395.26481 266.49851 396.75 267.25 C 398.23519 268.0015 401.06263 268.89419 403.03125 269.25 L 406.59375 269.90625 L 407.71875 283.625 C 408.1761 289.28257 408.52352 294.22206 408.625 296.375 C 408.65883 297.09265 408.65085 297.47565 408.625 297.5 C 408.36561 297.74426 401.01071 293.72492 397.78125 291.5625 C 396.32437 290.58698 394.68981 288.57944 394.125 287.09375 C 392.7616 283.50743 391.93078 265.875 393.125 265.875 z M 281.46875 266.9375 C 280.60442 266.97389 279.5025 267.46625 278.53125 268.4375 C 276.85398 270.11477 276.57301 271.16676 277.5625 272.15625 C 278.48588 273.07962 282.9375 269.87269 282.9375 268.28125 C 282.9375 267.35089 282.33308 266.90111 281.46875 266.9375 z M 368.9375 267.875 C 367.18598 267.875 366.6371 268.98681 367.1875 270.09375 C 367.24254 270.20444 367.32945 270.32809 367.40625 270.4375 C 367.79027 270.98453 368.43278 271.4974 369.34375 271.84375 C 369.67414 271.96937 370.0227 272.11731 370.34375 272.28125 C 371.3069 272.77307 372.13143 273.39908 372.40625 273.84375 C 372.59015 274.14131 372.85351 274.29821 373.125 274.375 C 373.26074 274.4134 373.39031 274.4476 373.53125 274.4375 C 374.23597 274.387 374.9375 273.74074 374.9375 272.8125 C 374.9375 271.12506 370.98661 267.875 368.9375 267.875 z M 173.78125 270.75 C 174.67026 270.75289 175.40141 270.83348 175.96875 271.03125 C 179.98451 272.43115 179.70984 273.36554 174.6875 275.34375 C 167.23341 278.27978 163.18803 281.53863 161.0625 286.34375 C 159.96192 288.83179 158.69343 290.83855 158.25 290.78125 C 154.86953 290.3447 147.72859 287.49058 147.3125 286.40625 C 147.03667 285.68746 147.35345 284.52761 148.0625 283.21875 C 148.20431 282.95698 148.36121 282.67734 148.53125 282.40625 C 150.23162 279.69537 153.27458 276.64823 155.75 275.625 C 163.28404 272.51075 169.92889 270.73749 173.78125 270.75 z M 139.9375 271.9375 L 143.4375 274 C 148.06959 276.73299 148.24225 277.17117 146.1875 280.78125 C 144.54165 283.67293 142.14214 284.7359 140.625 283.21875 C 140.25833 282.85209 139.9375 280.16478 139.9375 277.25 L 139.9375 271.9375 z M 367.03125 273.875 C 366.87771 273.875 366.73468 273.88678 366.59375 273.90625 C 366.45282 273.92572 366.31395 273.96249 366.1875 274 C 366.06105 274.03751 365.95382 274.07086 365.84375 274.125 C 365.73368 274.17914 365.62307 274.24316 365.53125 274.3125 C 365.16396 274.58988 364.9375 275.00493 364.9375 275.46875 C 364.9375 276.39999 365.63824 276.91013 366.625 276.71875 C 369.13377 276.2322 369.4683 273.875 367.03125 273.875 z M 312.96875 276.3125 C 315.00147 276.32702 317.42388 276.64826 320.53125 277.1875 C 334.27824 279.5731 339.84752 283.54897 338.4375 289.96875 C 337.84675 292.65845 338.15197 293.46516 340.46875 295.3125 C 343.02166 297.34812 343.13777 297.82317 342.46875 302.6875 C 342.17382 304.83191 341.72352 306.56293 341.34375 307.1875 C 341.28045 307.2916 341.21487 307.36701 341.15625 307.40625 C 341.09763 307.44549 341.05193 307.43834 341 307.40625 C 340.58457 307.1495 339.66334 308.05002 338.9375 309.40625 C 338.21167 310.76248 337.01331 311.875 336.28125 311.875 C 335.54919 311.875 334.9375 312.325 334.9375 312.875 C 334.9375 313.0125 334.89657 313.16172 334.8125 313.28125 C 334.72843 313.40078 334.61878 313.50313 334.46875 313.59375 C 334.16868 313.775 333.73653 313.875 333.28125 313.875 C 332.05176 313.875 332.35319 313.26414 334.40625 311.5 C 336.86885 309.38395 337.07765 308.69782 336.46875 305.09375 C 335.95962 302.08025 336.22629 300.38143 337.5 298.4375 C 338.44054 297.00206 339.05575 295.63928 338.84375 295.4375 C 338.63175 295.23571 335.7375 293.77102 332.4375 292.15625 C 329.1375 290.54148 323.8624 287.77253 320.6875 286.03125 C 317.5126 284.28996 313.89647 282.875 312.65625 282.875 C 309.87929 282.875 305.9375 285.51429 305.9375 287.375 C 305.9375 289.14463 302.49186 290.21978 299.375 289.4375 C 295.6572 288.50439 296.44679 285.81697 301.75 281.25 C 305.88393 277.68997 308.49678 276.28056 312.96875 276.3125 z M 313.96875 286.53125 C 314.37851 286.55286 314.85019 286.83006 315.5 287.28125 C 317.50664 288.67453 324.10684 292.06811 328.8125 294.1875 C 329.48474 294.49027 330.11146 294.75949 330.6875 295 C 334.27701 296.49871 334.35612 296.68314 333 300.25 C 332.29698 302.09908 332.42533 303.0456 333.5 303.9375 C 336.11156 306.1049 335.09891 308.60443 330.53125 311.28125 C 329.32968 311.98542 328.28219 312.49526 327.34375 312.84375 C 327.03094 312.95991 326.73131 313.04559 326.4375 313.125 C 325.55608 313.36323 324.77118 313.44268 323.96875 313.375 C 323.70127 313.35244 323.42518 313.33504 323.15625 313.28125 C 321.44227 312.93846 319.89338 313.14476 319.5 313.78125 C 319.28691 314.12603 319.04673 314.3879 318.78125 314.5625 C 318.69276 314.6207 318.5939 314.67933 318.5 314.71875 C 317.37325 315.19181 315.86503 314.29564 314.15625 312.125 L 312 309.375 L 310.09375 311.59375 L 308.1875 313.78125 L 306.90625 307.59375 C 306.20269 304.18151 304.79748 299.69684 303.78125 297.65625 C 301.51015 293.09591 301.50961 292.88335 303.6875 292.84375 C 306.06997 292.80045 308.61281 290.73411 309.21875 288.34375 C 309.62975 286.7224 309.74311 286.82274 309.84375 288.875 L 309.96875 291.375 L 311.75 288.65625 C 312.15125 288.04778 312.49045 287.58748 312.78125 287.25 C 312.92665 287.08126 313.05491 286.91895 313.1875 286.8125 C 313.45269 286.59959 313.69557 286.51684 313.96875 286.53125 z M 80.875 286.96875 C 81.432641 286.87 82.181945 287.45502 82.875 288.75 C 83.5349 289.983 83.51148 291.83167 82.84375 294.25 C 82.29055 296.25349 81.71164 297.875 81.53125 297.875 C 81.03678 297.875 79.9375 291.95265 79.9375 289.25 C 79.9375 287.83229 80.317359 287.0675 80.875 286.96875 z M 141.53125 288.125 C 142.17457 288.17553 144.26696 289.07385 146.59375 290.3125 C 149.25294 291.72809 152.08467 292.875 152.875 292.875 C 155.79545 292.875 160.80219 295.28205 161.21875 296.875 C 161.2483 296.98799 161.26818 297.12877 161.28125 297.28125 C 161.29432 297.43373 161.31497 297.59621 161.3125 297.78125 C 161.29767 298.89148 161.01997 300.52717 160.5625 301.9375 C 159.33294 305.72815 157.20674 306.70271 154.9375 304.5 C 154.11735 303.7039 151.21744 302.40433 148.5 301.625 C 143.56672 300.21021 143.56914 300.18335 142.25 294.375 C 141.52336 291.17554 141.11325 288.38676 141.34375 288.15625 C 141.37256 288.12744 141.43935 288.11778 141.53125 288.125 z M 35.21875 291.875 L 39.5 291.875 C 41.86444 291.875 45.0767 292.3999 46.625 293.03125 C 48.17331 293.66259 52.23128 294.0838 55.625 293.96875 L 61.78125 293.75 L 62.40625 299.5625 C 62.73948 302.75869 63.77939 307.85 64.71875 310.875 C 65.65811 313.9 66.56348 316.9375 66.75 317.625 C 67.12541 319.00876 65.82608 319.04232 58.46875 317.8125 C 55.73091 317.35486 49.36309 317.07766 44.3125 317.1875 L 35.125 317.375 L 34.53125 313.875 C 33.7672 309.25011 33.80841 302.26097 34.59375 296.53125 L 35.21875 291.875 z M 318.90625 297.84375 C 318.55427 297.88784 318.2913 298.04477 318.125 298.28125 C 318.06957 298.36008 318.02913 298.42948 318 298.53125 C 317.97087 298.63302 317.9375 298.74951 317.9375 298.875 C 317.9375 299.08125 318.05114 299.27783 318.25 299.4375 C 318.31629 299.49072 318.41665 299.54844 318.5 299.59375 C 318.83341 299.775 319.2754 299.875 319.78125 299.875 C 321.60727 299.875 323.9375 303.60065 323.9375 306.5 C 323.9375 307.33153 324.3875 307.71492 324.9375 307.375 C 326.56137 306.3714 326.097 303.35607 323.875 300.53125 C 322.48835 298.76841 320.19686 297.68207 318.90625 297.84375 z M 346.15625 299.21875 C 346.4461 299.20897 346.92625 299.4507 347.4375 299.875 C 348.30403 300.59416 349.66046 300.78688 350.6875 300.34375 C 352.60947 299.51448 356.84631 299.72559 358.4375 300.71875 C 358.86549 300.98588 359.62288 301.16655 360.5 301.3125 C 360.93856 301.38547 361.39367 301.45862 361.875 301.5 C 362.83766 301.58276 363.86309 301.61131 364.71875 301.5625 C 365.14658 301.53809 365.51219 301.4961 365.84375 301.4375 C 366.00953 301.4082 366.17947 301.35051 366.3125 301.3125 C 366.44553 301.27449 366.56177 301.23433 366.65625 301.1875 C 366.8452 301.09385 366.9375 301.00457 366.9375 300.875 C 366.9375 299.18258 369.77293 299.78411 371.75 301.90625 C 373.42828 303.70767 373.7794 303.76401 374.90625 302.40625 C 376.63236 300.32641 377.60484 300.50162 378.25 302.96875 C 378.70304 304.70115 379.13563 304.86618 380.8125 303.96875 C 381.36479 303.67317 381.90202 303.38231 382.34375 303.1875 C 382.78548 302.99269 383.13207 302.875 383.25 302.875 C 383.48586 302.875 383.8976 305.82593 384.1875 309.4375 C 384.821 317.32954 383.16945 321.45106 378.59375 323.375 C 376.00868 324.46194 375.17106 324.4517 373.5 323.28125 C 372.39883 322.50996 370.92138 321.875 370.21875 321.875 C 369.60145 321.875 369.22105 322.2456 369.0625 322.75 C 369.00965 322.91813 368.97032 323.12583 368.96875 323.3125 C 368.96249 324.05917 369.3669 324.86318 370.1875 325.15625 C 370.875 325.40179 371.12679 325.93749 370.75 326.34375 C 370.52968 326.58129 370.15042 326.75449 369.625 326.875 C 369.36229 326.93525 369.06647 327.00035 368.75 327.03125 C 367.16764 327.18575 364.98832 326.95903 363.1875 326.375 C 361.4811 325.82159 360.9375 326.02395 360.9375 327.25 C 360.9375 329.64234 357.4035 329.2711 353.1875 326.40625 C 350.67961 324.70209 349.20485 324.23265 348.5 324.9375 C 347.79515 325.64235 347.91539 326.28081 348.9375 326.9375 C 350.25902 327.78633 350.26607 328.00285 348.9375 328.875 C 347.99665 329.49263 347.12235 329.79847 346.28125 329.8125 C 346.14107 329.81484 345.98095 329.79563 345.84375 329.78125 C 344.60896 329.65184 343.49951 328.85276 342.53125 327.375 C 340.79867 324.73075 337.9375 323.99602 337.9375 326.1875 C 337.9375 326.9025 338.49625 328.0275 339.15625 328.6875 C 339.50625 329.0375 339.63988 329.28516 339.5 329.46875 C 339.45337 329.52995 339.35845 329.57917 339.25 329.625 C 338.81619 329.80833 337.88341 329.875 336.3125 329.875 C 332.97413 329.875 332.06637 329.44108 331.125 327.375 C 329.81112 324.49135 326.30031 323.78333 327.40625 326.625 C 327.86455 327.80257 328.12183 328.6116 328.15625 329.1875 C 328.16772 329.37947 328.16588 329.54392 328.125 329.6875 C 327.96147 330.26182 327.35639 330.4867 326.25 330.65625 C 324.76199 330.88428 323.47651 330.01556 322.78125 328.5625 C 322.6422 328.27189 322.52478 327.95661 322.4375 327.625 C 322.26295 326.96178 322.20857 326.21221 322.28125 325.4375 C 322.37675 324.41955 321.90227 323.41828 321.25 323.1875 C 320.50013 322.92218 319.94858 324.15217 319.75 326.5625 C 319.66611 327.58073 319.44381 328.43955 319.125 329.09375 C 319.0453 329.2573 318.96316 329.42496 318.875 329.5625 C 318.61052 329.97511 318.29579 330.25125 318 330.40625 C 317.9014 330.45792 317.81584 330.51082 317.71875 330.53125 C 317.13619 330.65386 316.58978 330.19743 316.375 329.03125 C 316.3392 328.83689 316.32937 328.60973 316.3125 328.375 C 316.23346 327.275 316.121 325.96 316.0625 325.4375 C 315.88423 323.84433 313.48115 326.8251 313.46875 328.65625 C 313.4654 329.15087 313.20114 329.59877 312.8125 329.9375 C 312.61818 330.10687 312.3757 330.25404 312.125 330.375 C 311.8743 330.49596 311.6242 330.58999 311.34375 330.65625 C 311.0633 330.72251 310.78357 330.74473 310.5 330.75 C 309.6493 330.7658 308.83698 330.49011 308.4375 329.84375 C 308.05052 329.2176 308.92607 327.45123 310.40625 325.90625 C 312.04009 324.2009 312.69807 322.86155 312.0625 322.46875 C 311.48671 322.1129 309.28895 323.58459 307.1875 325.75 C 303.46836 329.58232 303.285 329.65929 300.15625 328.34375 C 299.71429 328.15792 299.29046 327.93975 298.90625 327.71875 C 298.52204 327.49775 298.16629 327.25983 297.875 327.03125 C 297.29241 326.5741 296.9375 326.13445 296.9375 325.8125 C 296.9375 324.92235 297.29424 324.91554 298.375 325.8125 C 298.49849 325.91499 298.61507 325.99025 298.75 326.0625 C 299.15478 326.27925 299.60081 326.36935 300.0625 326.34375 C 300.2164 326.33522 300.37613 326.3134 300.53125 326.28125 C 301.46195 326.08835 302.40967 325.49062 303.0625 324.65625 C 303.17131 324.51719 303.2516 324.36983 303.34375 324.21875 C 303.71235 323.61442 303.9375 322.91792 303.9375 322.1875 C 303.9375 319.68387 307.37634 316.875 310.4375 316.875 C 311.56774 316.875 313.50397 317.59599 314.75 318.46875 C 316.0474 319.37749 316.69142 319.71684 317.5625 319.46875 C 317.73672 319.41913 317.92558 319.34663 318.125 319.25 C 318.52385 319.05674 319.00955 318.75778 319.59375 318.375 C 320.99907 317.4542 324.82884 316.55441 328.125 316.34375 C 328.55818 316.31607 328.97544 316.2679 329.40625 316.21875 C 333.71435 315.72727 337.84983 314.2015 340.625 312.1875 C 340.90252 311.9861 341.15702 311.77289 341.40625 311.5625 C 342.40316 310.72095 343.17499 309.81495 343.625 308.875 C 344.63414 306.76714 345.54743 302.97538 345.875 299.5 C 345.89196 299.32006 345.98234 299.22462 346.15625 299.21875 z M 352.875 300.875 C 352.29254 300.875 352.09758 301.325 352.4375 301.875 C 353.22944 303.15638 353.9375 303.15638 353.9375 301.875 C 353.9375 301.325 353.45746 300.875 352.875 300.875 z M 320.9375 303.875 C 320.525 303.875 320.18359 304.14141 320.03125 304.5 C 319.98047 304.61953 319.9375 304.7375 319.9375 304.875 C 319.9375 305.425 320.3875 305.875 320.9375 305.875 C 321.4875 305.875 321.9375 305.425 321.9375 304.875 C 321.9375 304.325 321.4875 303.875 320.9375 303.875 z M 149.5625 305.875 C 152.49996 305.875 156.93441 308.98212 158.5625 312.15625 C 159.47458 313.93444 161.04493 316.42149 162.03125 317.6875 C 163.7737 319.92408 163.74067 320.07649 161.375 323.5625 C 160.03592 325.53574 158.92575 328.1205 158.90625 329.28125 C 158.88677 330.442 158.26407 332.5 157.5 333.875 L 156.09375 336.375 L 154.90625 333.375 C 154.25867 331.725 153.07549 326.775 152.25 322.375 C 151.42451 317.975 150.14124 312.4625 149.40625 310.125 C 148.24428 306.42956 148.26782 305.875 149.5625 305.875 z M 388.5 306.875 C 390.29267 306.875 390.62487 307.80492 391.25 314.28125 C 391.68382 318.77556 391.48251 319.42132 388.625 322.03125 C 383.97212 326.281 382.67027 325.61226 385.5625 320.4375 C 387.55185 316.87811 387.95983 315.08163 387.53125 311.4375 C 387.10418 307.8062 387.29491 306.875 388.5 306.875 z M 376.375 317.875 C 375.49158 317.875 375.01189 318.53763 374.96875 319.28125 C 374.95796 319.46716 374.98687 319.65707 375.03125 319.84375 C 375.1644 320.40378 375.53874 320.94962 376.1875 321.1875 C 376.875 321.43958 377.83792 321.27708 378.3125 320.84375 C 379.45473 319.8008 378.19392 317.875 376.375 317.875 z M 35.4375 320.875 L 42.4375 320.875 C 46.2875 320.87763 54.4538 321.17922 60.5625 321.53125 L 71.65625 322.15625 L 71.53125 331.15625 L 71.40625 340.1875 L 63.4375 342.5 C 59.045 343.77499 53.4125 345.09025 50.9375 345.4375 C 48.4625 345.78475 44.21232 346.69603 41.5 347.46875 C 38.78767 348.24146 36.42517 348.875 36.25 348.875 C 36.206771 348.875 36.190075 348.88106 36.15625 348.84375 C 35.919474 348.58258 35.867786 346.6231 35.625 332.125 L 35.4375 320.875 z M 166.5625 325.03125 C 167.73324 324.81274 176.9375 332.23264 176.9375 333.46875 C 176.9375 334.24215 176.825 334.80675 176.6875 334.71875 C 176.61875 334.67474 176.17969 334.60413 175.5 334.5 C 174.82031 334.39587 173.9 334.27024 172.9375 334.15625 C 168.4068 333.61969 164.70562 330.2332 165.5625 327.4375 C 165.91093 326.30067 166.31595 325.23779 166.46875 325.0625 C 166.48919 325.03905 166.52473 325.0383 166.5625 325.03125 z M 363.5625 336.15625 C 363.36659 336.16746 363.18144 336.21968 363.03125 336.3125 C 362.54504 336.61299 362.5769 337.47394 362.96875 338.65625 C 363.09937 339.05035 363.25552 339.47765 363.46875 339.9375 C 364.32169 341.77691 365.81155 344.06561 367.6875 346.3125 C 369.03922 347.9315 370.5595 350.36452 371.0625 351.6875 C 371.56549 353.01048 374.78835 358.1256 378.21875 363.0625 C 385.03234 372.86836 387.24623 376.44968 391.875 385.09375 C 392.19015 385.68229 392.49388 386.22959 392.75 386.75 C 394.54287 390.39287 394.9375 392.64286 394.9375 397.34375 C 394.9375 403.2056 395.14173 403.875 396.9375 403.875 C 397.16418 403.875 397.38384 403.87464 397.5625 403.84375 C 397.83048 403.79742 398.04301 403.70365 398.21875 403.53125 C 398.86314 402.89912 398.9375 401.17506 398.9375 396.71875 C 398.9375 390.0941 398.59376 388.9398 394.25 380.96875 C 391.67199 376.23797 386.94699 368.68709 383.75 364.1875 C 380.55301 359.6879 377.9375 355.75445 377.9375 355.4375 C 377.9375 354.71985 367.194 338.86771 365.4375 337 C 364.90668 336.43559 364.15023 336.12264 363.5625 336.15625 z M 419.40625 337.375 C 418.47855 337.38943 417.9375 338.04071 417.9375 339.34375 C 417.9375 340.09143 419.52917 341.70752 421.46875 342.90625 C 423.40834 344.10498 425.66967 345.76342 426.5 346.59375 C 427.33033 347.42408 430.62799 349.99945 433.8125 352.34375 C 440.54747 357.30175 452.5352 372.32614 455 378.875 C 455.93151 381.35 457.01414 387.7625 457.40625 393.125 C 457.95341 400.60785 458.45883 402.875 459.5625 402.875 C 459.66137 402.875 459.77427 402.86287 459.875 402.84375 C 460.17718 402.78639 460.47997 402.66302 460.75 402.46875 C 461.11005 402.20972 461.41169 401.83051 461.5625 401.4375 C 462.5488 398.86725 460.15702 380.49639 458.28125 376.21875 C 455.07719 368.912 442.09919 353.55361 433.96875 347.46875 C 429.83417 344.37441 425.01013 340.69727 423.25 339.28125 C 421.66102 338.0029 420.33395 337.36057 419.40625 337.375 z M 179.40625 337.875 C 180.30267 337.87646 182.40059 339.90446 184.78125 343.21875 C 187.3216 346.75536 187.73799 347.875 186.53125 347.875 C 185.65477 347.875 184.9375 347.45355 184.9375 346.9375 C 184.9375 346.42144 183.5875 344.52527 181.9375 342.71875 C 180.2875 340.91223 178.9375 339.03576 178.9375 338.5625 C 178.9375 338.08847 179.10744 337.87451 179.40625 337.875 z M 316 339.875 C 314.26396 339.875 313.81646 341.87384 314.84375 345.125 C 314.9847 345.57107 315.20921 346.34074 315.46875 347.3125 C 315.72829 348.28426 316.03759 349.47631 316.375 350.8125 C 317.04982 353.48488 317.82054 356.7125 318.5625 359.875 C 319.86094 365.40938 321.61337 371.62734 322.75 374.75 C 322.91238 375.19609 323.08506 375.56563 323.21875 375.875 C 325.57876 381.33656 327.07158 385.43265 327.90625 389 C 328.01058 389.44592 328.10341 389.88083 328.1875 390.3125 C 328.77613 393.33416 328.87192 396.03968 328.625 399.03125 C 328.32311 402.6887 328.35745 405.9512 328.6875 406.28125 C 329.14939 406.74314 329.60088 406.92921 330.03125 406.84375 C 330.31816 406.78678 330.56992 406.61333 330.84375 406.3125 C 331.2545 405.86125 331.67909 405.12626 332.0625 404.125 C 332.85374 402.05872 333.15069 399.44503 333.03125 396.53125 C 333.01419 396.115 333.0039 395.67753 332.96875 395.25 C 332.68753 391.8298 331.84079 388.08272 330.4375 384.375 C 326.49878 373.96825 321.29688 356.78267 320.5 351.46875 C 319.67616 345.97499 317.31824 339.875 316 339.875 z M 71.8125 344.96875 L 72.125 353.5625 C 72.49646 363.46854 73.01751 362.92062 61.4375 364.84375 C 47.9967 367.07591 34.4621 370.09127 31.96875 371.40625 C 30.5868 372.13508 27.78946 374.30514 25.75 376.25 C 24.730265 377.22242 23.359375 378.35092 22 379.34375 C 21.320312 379.84016 20.641551 380.3071 20 380.71875 C 19.358449 381.1304 18.771383 381.48303 18.25 381.75 C 16.16446 382.81786 12.57556 385.52619 10.28125 387.78125 C 8.630845 389.40343 7.327249 390.51974 6.34375 391.15625 C 5.8520005 391.4745 5.4295739 391.67379 5.09375 391.75 C 4.3101608 391.92781 3.9375 391.45731 3.9375 390.34375 C 3.9375 388.23978 7.71409 381.00677 10.59375 377.5625 C 11.89359 376.00781 12.9375 374.10703 12.9375 373.34375 C 12.9375 372.77128 13.572266 371.12968 14.46875 369.3125 C 14.767578 368.70677 15.09375 368.08447 15.4375 367.46875 C 16.922 364.80975 17.9375 361.39917 17.9375 359.0625 C 17.9375 358.79196 17.950292 358.52087 17.96875 358.25 C 18.097953 356.35391 18.648567 354.51976 19.3125 353.96875 C 20.07129 353.33902 26.25879 352.42141 33.0625 351.90625 C 45.94284 350.93098 53.31402 349.67632 60.9375 347.1875 C 63.4125 346.37949 66.87717 345.54855 68.625 345.34375 L 71.8125 344.96875 z M 337.90625 348.875 C 335.91699 348.875 332.42997 351.76367 332 353.625 C 331.97134 353.74909 331.9375 353.88628 331.9375 354 C 331.9375 356.34504 334.65514 356.45394 337.125 354.21875 C 339.09052 352.43998 339.60768 348.875 337.90625 348.875 z M 282.6875 350.03125 C 282.53737 350.02685 282.3726 350.02742 282.1875 350.0625 C 279.97616 350.48157 279.38199 356.09826 280.9375 361.875 C 282.09087 366.15829 284.50471 366.99701 284.375 363.0625 C 284.33572 361.87083 284.2232 358.37782 284.125 355.3125 C 283.99279 351.18595 283.73838 350.06205 282.6875 350.03125 z M 307.0625 353.875 C 304.66899 353.875 303.53438 355.39082 304.34375 357.5 C 305.19915 359.72914 308.37706 358.73898 308.75 356.125 C 308.99011 354.44202 308.57323 353.875 307.0625 353.875 z M 177.40625 356.875 C 175.11597 356.875 175.69691 360.45508 178.1875 361.65625 C 181.68782 363.34439 183.9375 363.0962 183.9375 361.03125 C 183.9375 359.22166 180.25384 356.875 177.40625 356.875 z M 294.40625 361.875 C 292.6617 361.875 288.9375 369.77085 288.9375 373.46875 C 288.9375 377.78361 291.61179 376.03205 293.8125 370.28125 C 296.35164 363.64606 296.46951 361.875 294.40625 361.875 z M 346.65625 362.3125 C 344.90077 362.27549 338.93754 367.01933 338.9375 368.625 C 338.93746 370.39642 340.29406 370.18907 344.375 367.78125 C 347.87449 365.7165 348.91281 363.5765 346.96875 362.375 C 346.89214 362.32765 346.77328 362.31497 346.65625 362.3125 z M 71.25 367.1875 C 71.454936 367.18859 71.592035 367.18579 71.625 367.21875 C 73.19905 368.7928 59.97194 388.09859 54.40625 392.34375 C 52.58052 393.73631 50.9242 394.81585 50.75 394.71875 C 50.57581 394.62163 47.2875 394.28413 43.4375 393.96875 L 36.4375 393.375 L 36.59375 386.5 C 36.87098 374.7671 37.49414 373.0786 41.75 371.9375 C 46.929284 370.54881 68.175953 367.17113 71.25 367.1875 z M 187.6875 371.03125 C 187.51413 371.02752 187.37413 371.03859 187.25 371.0625 C 183.36166 371.81133 185.8121 374.17977 193.9375 377.53125 C 198.6125 379.45954 202.87687 381.45699 203.40625 381.96875 C 204.69645 383.21601 206.38312 382.57807 206.75 380.6875 C 206.94229 379.69659 205.34811 378.35922 202.25 376.90625 C 199.61122 375.66869 195.55695 373.76907 193.25 372.6875 C 191.23142 371.74112 188.9011 371.05735 187.6875 371.03125 z M 102.71875 372.09375 C 102.88497 372.0543 103.04327 372.07692 103.1875 372.125 C 104.60775 372.59842 111.79378 393.43558 112.625 399.5 C 113.04814 402.58714 113.0754 403.49712 112.125 403.75 C 111.9666 403.79215 111.77916 403.83145 111.5625 403.84375 C 111.34584 403.85605 111.12441 403.84733 110.84375 403.84375 C 109.5315 403.82703 107.7625 403.43016 106.9375 402.96875 C 106.1125 402.50733 103.01388 401.84717 100.03125 401.46875 C 87.92606 399.93289 86.15228 395.95221 92.90625 385.5 C 99.588258 375.15916 101.5552 372.36988 102.71875 372.09375 z M 368.4375 373.6875 C 359.12653 373.74993 344.31602 374.18622 342.125 374.5625 C 339.58812 374.99818 338.4032 375.94763 337.15625 378.5625 C 335.15917 382.75044 336.10762 384.73205 341 386.5 C 345.35251 388.07287 346.8674 388.09479 355.4375 386.75 C 359.2875 386.14587 365.5875 385.34748 369.4375 385 L 376.4375 384.375 L 376.75 379.125 C 377.0073 374.65591 376.78418 373.85025 375.25 373.75 C 374.04408 373.6712 371.54116 373.66669 368.4375 373.6875 z M 343.9375 376.875 L 358.9375 376.875 L 373.9375 376.875 L 373.9375 380.34375 L 373.9375 383.78125 L 359.34375 384.09375 C 351.32121 384.25951 344.57121 384.19792 344.34375 383.96875 C 344.11628 383.73959 343.9375 382.05209 343.9375 380.21875 L 343.9375 376.875 z M 362.5 378.125 C 361.96151 378.125 361.54972 378.13197 361.25 378.1875 C 361.10014 378.21526 360.97055 378.26104 360.875 378.3125 C 360.39724 378.56978 360.57686 379.15978 361.1875 380.5 C 361.63467 381.48143 362.07488 382.25995 362.3125 382.53125 C 362.3521 382.57647 362.37862 382.60968 362.40625 382.625 C 362.43388 382.64032 362.45486 382.64248 362.46875 382.625 C 362.5799 382.48517 363.17419 381.41875 363.78125 380.25 C 364.75866 378.36822 364.61636 378.125 362.5 378.125 z M 355.5 378.21875 C 354.5944 378.21875 353.9375 379.09922 353.9375 380.34375 C 353.9375 381.79643 354.62151 382.5141 356.09375 382.625 C 356.47566 382.65377 356.76784 382.64536 357 382.625 C 357.11608 382.61482 357.23302 382.61692 357.3125 382.59375 C 357.63041 382.50109 357.65163 382.28802 357.40625 381.96875 C 357.34491 381.88893 357.28265 381.8139 357.1875 381.71875 C 356.59845 381.12973 356.30681 380.10381 356.5625 379.4375 C 356.81819 378.77119 356.34867 378.21875 355.5 378.21875 z M 339.34375 379.21875 C 339.78099 379.06956 339.9375 379.67926 339.9375 381.1875 C 339.9375 384.1962 339.19668 384.69808 338.28125 382.3125 C 337.95048 381.45053 338.18947 380.24803 338.8125 379.625 C 339.02343 379.41407 339.198 379.26848 339.34375 379.21875 z M 303.0625 383.875 C 301.24293 383.875 297.9375 387.72187 297.9375 389.84375 C 297.9375 391.4433 301.0877 391.06248 303.125 389.21875 C 305.54684 387.02706 305.50735 383.875 303.0625 383.875 z M 179.78125 386.09375 C 177.64937 386.15752 175.9375 387.29044 175.9375 389 C 175.9375 390.69062 176.51306 390.95081 179.6875 390.6875 C 183.94294 390.33452 185.47086 387.50786 182 386.40625 C 181.23842 386.16453 180.49188 386.07249 179.78125 386.09375 z M 70.53125 404.875 C 68.36278 404.875 65.9375 406.00281 65.9375 407 C 65.9375 407.49115 67.2875 407.875 68.9375 407.875 C 70.9375 407.875 71.9375 407.375 71.9375 406.375 C 71.9375 405.55 71.31126 404.875 70.53125 404.875 z "
       transform="translate(129.07488,322.14036)"
       id="path2249" />
  </g>
</svg>
