<svg xmlns="http://www.w3.org/2000/svg" xmlns:xlink="http://www.w3.org/1999/xlink" viewBox="0 0 43.98 39.67">
  <defs>
    <style>
      .\32 eaf0777-f374-43c9-a8de-588626628ecd {
        fill: url(#d9e78c2e-6f29-43a1-ab61-8586e356d106);
      }

      .\35 0e2a7a1-92fc-489e-85f7-fb6ea1f60120 {
        fill: url(#06840264-58de-49cf-b67a-f4b94dae35f4);
      }

      .f2c954cc-a0ec-480d-8662-adf1d28c0c82 {
        fill: url(#a30a9aaa-3f89-43d8-9d51-f271534a3ecd);
      }

      .e4a45005-57be-4944-bd96-db48fe587fef {
        fill: url(#39887b2b-8568-4a1c-bd16-ca2d548e727d);
      }

      .e9352578-7784-4839-9179-2f4c4cb50b98 {
        fill: url(#c9ee1648-fe8e-4125-9958-7bc01a588f19);
      }

      .\39 3ee4c70-bed2-4fa3-b8e8-b00c9d0ffb0b {
        fill: url(#a09aca00-63df-4192-bd9d-231b8c31a62b);
      }

      .\30 f24374e-70fa-4b83-b754-7da8a41546ff {
        fill: url(#a79422d5-7e31-4b42-ad97-aa74cde5065f);
      }
    </style>
    <linearGradient id="d9e78c2e-6f29-43a1-ab61-8586e356d106" x1="9.91" y1="9.86" x2="29.57" y2="43.92" gradientUnits="userSpaceOnUse">
      <stop offset="0" stop-color="#e5007e"/>
      <stop offset="1" stop-color="#774cae"/>
    </linearGradient>
    <linearGradient id="06840264-58de-49cf-b67a-f4b94dae35f4" x1="5.88" y1="19.06" x2="10.47" y2="27" xlink:href="#d9e78c2e-6f29-43a1-ab61-8586e356d106"/>
    <linearGradient id="a30a9aaa-3f89-43d8-9d51-f271534a3ecd" x1="5.74" y1="31.33" x2="7.83" y2="34.95" xlink:href="#d9e78c2e-6f29-43a1-ab61-8586e356d106"/>
    <linearGradient id="39887b2b-8568-4a1c-bd16-ca2d548e727d" x1="14.38" y1="31.33" x2="16.47" y2="34.95" xlink:href="#d9e78c2e-6f29-43a1-ab61-8586e356d106"/>
    <linearGradient id="c9ee1648-fe8e-4125-9958-7bc01a588f19" x1="23.02" y1="31.33" x2="25.11" y2="34.95" xlink:href="#d9e78c2e-6f29-43a1-ab61-8586e356d106"/>
    <linearGradient id="a09aca00-63df-4192-bd9d-231b8c31a62b" x1="31.66" y1="31.33" x2="33.75" y2="34.95" xlink:href="#d9e78c2e-6f29-43a1-ab61-8586e356d106"/>
    <linearGradient id="a79422d5-7e31-4b42-ad97-aa74cde5065f" x1="15.78" y1="3.97" x2="31.01" y2="30.34" xlink:href="#d9e78c2e-6f29-43a1-ab61-8586e356d106"/>
  </defs>
  <title>bycard-gradient</title>
  <g id="909ca84a-d6f2-4089-a303-4f983b97dc07" data-name="Layer 2">
    <g id="7b1b75d7-3735-4f59-ad48-9d72ba1ffe37" data-name="1170px grid">
      <path class="2eaf0777-f374-43c9-a8de-588626628ecd" d="M36,14.11H3.48A3.49,3.49,0,0,0,0,17.6V36.18a3.49,3.49,0,0,0,3.48,3.48H36a3.49,3.49,0,0,0,3.48-3.48V17.6A3.49,3.49,0,0,0,36,14.11ZM38.2,36.18A2.19,2.19,0,0,1,36,38.37H3.48a2.2,2.2,0,0,1-2.19-2.19V17.6A2.2,2.2,0,0,1,3.48,15.4H36A2.2,2.2,0,0,1,38.2,17.6Z"/>
      <rect class="50e2a7a1-92fc-489e-85f7-fb6ea1f60120" x="3.52" y="19.66" width="9.31" height="6.75" rx="1.81" ry="1.81"/>
      <rect class="f2c954cc-a0ec-480d-8662-adf1d28c0c82" x="3.52" y="32.23" width="6.53" height="1.83" rx="0.91" ry="0.91"/>
      <rect class="e4a45005-57be-4944-bd96-db48fe587fef" x="12.16" y="32.23" width="6.53" height="1.83" rx="0.91" ry="0.91"/>
      <rect class="e9352578-7784-4839-9179-2f4c4cb50b98" x="20.8" y="32.23" width="6.53" height="1.83" rx="0.91" ry="0.91"/>
      <rect class="93ee4c70-bed2-4fa3-b8e8-b00c9d0ffb0b" x="29.44" y="32.23" width="6.53" height="1.83" rx="0.91" ry="0.91"/>
      <path class="0f24374e-70fa-4b83-b754-7da8a41546ff" d="M43.75,19.6,37.12,2.24a3.49,3.49,0,0,0-4.5-2L2.24,11.84A3.49,3.49,0,0,0,0,15.43,4.12,4.12,0,0,1,1.6,14,2.18,2.18,0,0,1,2.7,13L33.08,1.44A2.2,2.2,0,0,1,35.91,2.7l.65,1.71-23.8,9.1H27.53L38.45,9.34l4.1,10.72a2.2,2.2,0,0,1-1.27,2.83l-1.19.45v1.38l1.65-.63A3.49,3.49,0,0,0,43.75,19.6Z"/>
    </g>
  </g>
</svg>
