<?xml version="1.0" encoding="iso-8859-1"?>
<!-- Generator: Adobe Illustrator 21.1.0, SVG Export Plug-In . SVG Version: 6.00 Build 0)  -->
<svg version="1.0" xmlns="http://www.w3.org/2000/svg" xmlns:xlink="http://www.w3.org/1999/xlink" x="0px" y="0px"
	 viewBox="0 0 141.73 141.73" style="enable-background:new 0 0 141.73 141.73;" xml:space="preserve">
<g id="Star">
	<path style="fill:#E7D767;" d="M83.437,3.022l2.09,6.853l4.529-5.227l0.931,6.968l5.575-4.646l0.697,7.085l5.457-4.297
		l-0.465,7.085l6.391-3.6l-0.701,7.085l6.157-3.02l-1.74,6.851l6.85-2.322l-2.09,6.853l6.738-1.858l-3.136,6.388l7.317-0.812
		l-3.487,6.156l6.971-0.465l-4.297,5.692l7.315,0.581l-4.529,5.458l6.853,0.814l-5.342,4.76l7.085,1.977l-5.575,4.529L139.65,64
		l-6.153,3.6L140,70.853l-6.273,3.251l6.042,3.485l-6.738,2.324l5.69,4.529l-6.735,1.974l5.227,4.531l-7.088,1.044l4.764,5.575
		l-7.085,0.581l4.299,5.46l-7.088-0.35l3.487,6.388l-7.085-0.811l3.133,6.273l-6.85-1.743l2.205,6.853l-6.735-2.09l1.858,6.62
		l-6.388-3.021l0.811,7.203l-6.271-3.368l0.465,6.968l-5.577-4.297l-0.581,7.2l-5.46-4.529l-0.928,6.855l-4.644-5.228l-1.975,6.968
		l-4.532-5.46l-2.205,6.506l-3.602-6.041l-3.25,6.504l-3.253-6.388l-3.368,6.039l-2.439-6.621l-4.414,5.692l-2.09-6.851
		l-4.531,5.225l-0.928-6.968l-5.577,4.763l-0.696-7.085l-5.458,4.181l0.464-7.085l-6.388,3.6l0.697-7.085l-6.156,3.138l1.74-6.855
		l-6.851,2.207l2.09-6.851l-6.736,1.857l3.136-6.388l-7.317,0.929l3.485-6.273l-6.97,0.465l4.297-5.692L6.314,98.38l4.529-5.46
		l-6.851-0.812l5.342-4.763l-7.085-1.974l5.575-4.414L1.203,78.75l6.156-3.6l-6.503-3.367l6.271-3.255l-6.039-3.367l6.736-2.324
		l-5.692-4.529l6.736-1.975l-5.225-4.531l7.085-1.044L5.966,45.3l7.085-0.697l-4.297-5.458l7.085,0.349l-3.485-6.273l7.085,0.697
		l-3.135-6.156l6.851,1.742l-2.205-6.968l6.736,2.09l-1.86-6.62l6.389,3.018l-0.814-7.2l6.273,3.368l-0.464-6.853l5.575,4.181
		l0.581-7.2l5.458,4.529l0.929-6.853l4.646,5.227l1.975-6.968l4.529,5.575l2.205-6.62l3.6,6.039l3.253-6.388l3.253,6.271
		l3.368-6.039l2.439,6.62L83.437,3.022L83.437,3.022z"/>
	<path style="fill:#EADC72;" d="M70.428,121.375c27.528,0,50.059-22.418,50.059-50.059c0-27.412-22.531-49.944-50.059-49.944
		c-27.526,0-50.06,22.531-50.06,49.944C20.368,98.959,42.9,121.375,70.428,121.375L70.428,121.375z"/>
	<path style="fill:#EDDF7D;" d="M70.428,115.802c24.508,0,44.487-19.977,44.487-44.484c0-24.391-19.979-44.368-44.487-44.368
		c-24.506,0-44.485,19.977-44.485,44.368C25.943,95.825,45.92,115.802,70.428,115.802L70.428,115.802z"/>
	<path style="fill:#EFE18C;" d="M70.428,113.246c22.998,0,41.813-18.816,41.813-41.929c0-22.997-18.814-41.814-41.813-41.814
		c-22.997,0-41.813,18.816-41.813,41.814C28.615,94.432,47.431,113.246,70.428,113.246z"/>
	<path style="fill:#E7D767;" d="M70.428,109.414c20.906,0,37.981-17.19,37.981-38.096c0-20.791-17.074-37.864-37.981-37.864
		S32.447,50.527,32.447,71.318C32.447,92.225,49.52,109.414,70.428,109.414z"/>
	<path style="fill:#EADC72;" d="M70.428,105.929c18.931,0,34.497-15.563,34.497-34.613c0-18.933-15.565-34.497-34.497-34.497
		c-18.931,0-34.494,15.565-34.494,34.497C35.932,90.366,51.497,105.929,70.428,105.929z"/>
</g>
<g id="PayPal">
	<g>
		<g>
			<g>
				<g>
					<path style="fill:#FFFFFF;" d="M91.948,42.333h-9.11c-0.623,0-1.153,0.453-1.25,1.068l-3.684,23.359
						c-0.073,0.461,0.284,0.878,0.75,0.878h4.674c0.436,0,0.807-0.317,0.875-0.748l1.045-6.622c0.097-0.615,0.627-1.069,1.25-1.069
						h2.883c6,0,9.464-2.904,10.369-8.66c0.407-2.517,0.016-4.495-1.162-5.88C97.291,43.138,94.995,42.333,91.948,42.333z
						 M92.999,50.865c-0.498,3.27-2.995,3.27-5.411,3.27h-1.374l0.964-6.105c0.058-0.369,0.376-0.641,0.75-0.641h0.63
						c1.644,0,3.197,0,3.998,0.937C93.035,48.886,93.18,49.716,92.999,50.865z"/>
					<path style="fill:#FFFFFF;" d="M26.973,42.333h-9.11c-0.623,0-1.153,0.453-1.25,1.068l-3.684,23.359
						c-0.073,0.461,0.284,0.878,0.75,0.878h4.35c0.623,0,1.153-0.453,1.25-1.068l0.994-6.302c0.097-0.615,0.627-1.069,1.25-1.069
						h2.883c6,0,9.464-2.904,10.369-8.66c0.407-2.517,0.016-4.495-1.162-5.88C32.317,43.138,30.02,42.333,26.973,42.333z
						 M28.024,50.865c-0.498,3.27-2.995,3.27-5.411,3.27h-1.374l0.964-6.105c0.058-0.369,0.376-0.641,0.75-0.641h0.63
						c1.644,0,3.197,0,3.998,0.937C28.06,48.886,28.205,49.716,28.024,50.865z"/>
					<path style="fill:#FFFFFF;" d="M54.201,50.76h-4.362c-0.374,0-0.692,0.272-0.75,0.641l-0.192,1.22l-0.305-0.442
						c-0.945-1.371-3.05-1.829-5.153-1.829c-4.819,0-8.936,3.652-9.737,8.774c-0.417,2.555,0.175,4.997,1.624,6.702
						c1.331,1.566,3.231,2.218,5.494,2.218c3.885,0,6.039-2.496,6.039-2.496l-0.195,1.213c-0.073,0.461,0.283,0.878,0.75,0.878
						h3.928c0.623,0,1.153-0.453,1.25-1.068l2.358-14.933C55.024,51.177,54.668,50.76,54.201,50.76z M48.122,59.251
						c-0.421,2.492-2.4,4.166-4.924,4.166c-1.265,0-2.278-0.407-2.929-1.177c-0.645-0.764-0.888-1.852-0.683-3.064
						c0.393-2.47,2.403-4.197,4.889-4.197c1.239,0,2.245,0.411,2.908,1.189C48.051,56.949,48.313,58.045,48.122,59.251z"/>
					<path style="fill:#FFFFFF;" d="M119.176,50.76h-4.362c-0.374,0-0.692,0.272-0.75,0.641l-0.192,1.22l-0.305-0.442
						c-0.945-1.371-3.05-1.829-5.153-1.829c-4.819,0-8.936,3.652-9.737,8.774c-0.417,2.555,0.175,4.997,1.624,6.702
						c1.331,1.566,3.231,2.218,5.494,2.218c3.885,0,6.039-2.496,6.039-2.496l-0.195,1.213c-0.073,0.461,0.283,0.878,0.75,0.878
						h3.928c0.623,0,1.153-0.453,1.25-1.068l2.358-14.933C119.999,51.177,119.643,50.76,119.176,50.76z M113.097,59.251
						c-0.421,2.492-2.4,4.166-4.924,4.166c-1.265,0-2.278-0.407-2.929-1.177c-0.645-0.764-0.888-1.852-0.684-3.064
						c0.393-2.47,2.403-4.197,4.889-4.197c1.239,0,2.245,0.411,2.908,1.189C113.025,56.949,113.288,58.045,113.097,59.251z"/>
					<path style="fill:#FFFFFF;" d="M77.434,50.76H73.05c-0.419,0-0.812,0.208-1.047,0.555l-6.048,8.908l-2.563-8.56
						c-0.16-0.536-0.653-0.903-1.212-0.903h-4.31c-0.52,0-0.887,0.512-0.719,1.005l4.828,14.171l-4.541,6.407
						c-0.356,0.503,0.003,1.199,0.62,1.199h4.38c0.415,0,0.804-0.204,1.04-0.545l14.582-21.045
						C78.408,51.449,78.047,50.76,77.434,50.76z"/>
					<path style="fill:#FFFFFF;" d="M124.318,42.975l-3.739,23.786c-0.072,0.461,0.284,0.877,0.75,0.877h3.76
						c0.623,0,1.153-0.453,1.25-1.068l3.687-23.359c0.073-0.461-0.283-0.878-0.75-0.878h-4.208
						C124.694,42.333,124.376,42.605,124.318,42.975z"/>
				</g>
			</g>
		</g>
	</g>
	<g>
		<g>
			<g>
				<g>
					<path style="fill:#009BDE;" d="M90.948,41h-9.11c-0.623,0-1.153,0.453-1.25,1.068l-3.684,23.359
						c-0.073,0.461,0.284,0.878,0.75,0.878h4.674c0.436,0,0.807-0.317,0.875-0.748l1.045-6.622c0.097-0.615,0.627-1.069,1.25-1.069
						h2.883c6,0,9.464-2.904,10.369-8.66c0.407-2.517,0.016-4.495-1.162-5.88C96.291,41.805,93.995,41,90.948,41z M91.999,49.531
						c-0.498,3.27-2.995,3.27-5.411,3.27h-1.374l0.964-6.105c0.058-0.369,0.376-0.641,0.75-0.641h0.63c1.644,0,3.197,0,3.998,0.937
						C92.035,47.553,92.18,48.383,91.999,49.531z"/>
					<path style="fill:#002F87;" d="M25.973,41h-9.11c-0.623,0-1.153,0.453-1.25,1.068l-3.684,23.359
						c-0.073,0.461,0.284,0.878,0.75,0.878h4.35c0.623,0,1.153-0.453,1.25-1.068l0.994-6.302c0.097-0.615,0.627-1.069,1.25-1.069
						h2.883c6,0,9.464-2.904,10.369-8.66c0.407-2.517,0.016-4.495-1.162-5.88C31.317,41.805,29.02,41,25.973,41z M27.024,49.531
						c-0.498,3.27-2.995,3.27-5.411,3.27h-1.374l0.964-6.105c0.058-0.369,0.376-0.641,0.75-0.641h0.63c1.644,0,3.197,0,3.998,0.937
						C27.06,47.553,27.205,48.383,27.024,49.531z"/>
					<path style="fill:#002F87;" d="M53.201,49.427h-4.362c-0.374,0-0.692,0.272-0.75,0.641l-0.192,1.22l-0.305-0.442
						c-0.945-1.371-3.05-1.829-5.153-1.829c-4.819,0-8.936,3.652-9.737,8.774c-0.417,2.555,0.175,4.997,1.624,6.702
						c1.331,1.566,3.231,2.218,5.494,2.218c3.885,0,6.039-2.496,6.039-2.496l-0.195,1.213c-0.073,0.461,0.283,0.878,0.75,0.878
						h3.928c0.623,0,1.153-0.453,1.25-1.068l2.358-14.933C54.024,49.843,53.668,49.427,53.201,49.427z M47.122,57.917
						c-0.421,2.492-2.4,4.166-4.924,4.166c-1.265,0-2.278-0.407-2.929-1.177c-0.645-0.764-0.888-1.852-0.683-3.064
						c0.393-2.47,2.403-4.197,4.889-4.197c1.239,0,2.245,0.411,2.908,1.189C47.051,55.616,47.313,56.711,47.122,57.917z"/>
					<path style="fill:#009BDE;" d="M118.176,49.427h-4.362c-0.374,0-0.692,0.272-0.75,0.641l-0.192,1.22l-0.305-0.442
						c-0.945-1.371-3.05-1.829-5.153-1.829c-4.819,0-8.936,3.652-9.737,8.774c-0.417,2.555,0.175,4.997,1.624,6.702
						c1.331,1.566,3.231,2.218,5.494,2.218c3.885,0,6.039-2.496,6.039-2.496l-0.195,1.213c-0.073,0.461,0.283,0.878,0.75,0.878
						h3.928c0.623,0,1.153-0.453,1.25-1.068l2.358-14.933C118.999,49.843,118.643,49.427,118.176,49.427z M112.097,57.917
						c-0.421,2.492-2.4,4.166-4.924,4.166c-1.265,0-2.278-0.407-2.929-1.177c-0.645-0.764-0.888-1.852-0.684-3.064
						c0.393-2.47,2.403-4.197,4.889-4.197c1.239,0,2.245,0.411,2.908,1.189C112.025,55.616,112.288,56.711,112.097,57.917z"/>
					<path style="fill:#002F87;" d="M76.434,49.427H72.05c-0.419,0-0.812,0.208-1.047,0.555l-6.048,8.908l-2.563-8.56
						c-0.16-0.536-0.653-0.903-1.212-0.903h-4.31c-0.52,0-0.887,0.512-0.719,1.005l4.828,14.171l-4.541,6.407
						c-0.356,0.503,0.003,1.199,0.62,1.199h4.38c0.415,0,0.804-0.204,1.04-0.545l14.582-21.045
						C77.408,50.115,77.047,49.427,76.434,49.427z"/>
					<path style="fill:#009BDE;" d="M123.318,41.641l-3.739,23.786c-0.072,0.461,0.284,0.877,0.75,0.877h3.76
						c0.623,0,1.153-0.453,1.25-1.068l3.687-23.359c0.073-0.461-0.283-0.878-0.75-0.878h-4.208
						C123.694,41,123.376,41.272,123.318,41.641z"/>
				</g>
			</g>
		</g>
	</g>
</g>
<g id="Verified">
	<g>
		<path style="fill:#FFFFFF;" d="M16.499,78.292l5.095,13.628l5.145-13.628h3.414l-6.926,17.313h-3.438l-6.852-17.313H16.499z"/>
		<path style="fill:#FFFFFF;" d="M45.044,78.292v2.894h-9.375v4.279h8.41v2.894h-8.41v4.354h9.671v2.894H32.355V78.292H45.044z"/>
		<path style="fill:#FFFFFF;" d="M59.541,95.605l-2.993-5.12c-0.198,0.025-0.396,0.025-0.618,0.025h-3.908v5.095h-3.314V78.292
			h7.223c4.477,0,7.024,2.151,7.024,5.961c0,2.721-1.212,4.675-3.438,5.614l3.809,5.738H59.541z M52.021,87.592h3.908
			c2.474,0,3.858-1.063,3.858-3.24c0-2.127-1.385-3.166-3.858-3.166h-3.908V87.592z"/>
		<path style="fill:#FFFFFF;" d="M69.906,78.292v17.313h-3.314V78.292H69.906z"/>
		<path style="fill:#FFFFFF;" d="M86.108,78.292l-0.024,2.894h-8.607v4.675h7.841v2.894h-7.841v6.852h-3.314V78.292H86.108z"/>
		<path style="fill:#FFFFFF;" d="M91.897,78.292v17.313h-3.314V78.292H91.897z"/>
		<path style="fill:#FFFFFF;" d="M108.843,78.292v2.894h-9.375v4.279h8.41v2.894h-8.41v4.354h9.671v2.894H96.153V78.292H108.843z"/>
		<path style="fill:#FFFFFF;" d="M128.73,86.948c0,5.046-3.809,8.657-9.151,8.657h-7.074V78.292h7.198
			C124.946,78.292,128.73,81.878,128.73,86.948z M125.343,86.974c0-3.389-2.449-5.764-5.689-5.764h-3.834v11.478h3.958
			C122.968,92.688,125.343,90.337,125.343,86.974z"/>
		<path style="fill:#FFFFFF;" d="M23.745,103.62c0,1.904-1.138,3.363-3.018,3.834c2.3,0.42,3.685,2.077,3.685,4.378
			c0,2.968-2.449,4.773-6.406,4.773h-7.915V99.291h7.693C21.469,99.291,23.745,100.948,23.745,103.62z M20.356,104.214
			c0-1.312-1.039-2.078-2.746-2.054h-4.205v4.205h4.205C19.317,106.365,20.356,105.574,20.356,104.214z M20.975,111.411
			c0-1.41-1.261-2.275-3.364-2.251h-4.205v4.576h4.205C19.713,113.761,20.975,112.896,20.975,111.411z"/>
		<path style="fill:#FFFFFF;" d="M34.977,113.786c2.622,0,4.279-1.633,4.279-4.403V99.291h3.314v10.092
			c0,4.552-2.894,7.371-7.594,7.371c-4.724,0-7.692-2.819-7.692-7.371V99.291h3.314v10.092
			C30.599,112.129,32.355,113.786,34.977,113.786z"/>
		<path style="fill:#FFFFFF;" d="M52.169,102.16c-1.558,0-2.572,0.569-2.572,1.633c0,3.513,9.3,1.607,9.275,7.816
			c0,3.24-2.82,5.12-6.629,5.12c-2.77,0-5.466-1.113-7.321-2.771l1.385-2.795c1.781,1.583,4.13,2.548,5.986,2.548
			c1.855,0,2.968-0.693,2.968-1.905c0-3.611-9.3-1.558-9.3-7.717c0-3.018,2.597-4.947,6.48-4.947c2.3,0,4.601,0.742,6.258,1.831
			l-1.336,2.869C55.509,102.729,53.505,102.16,52.169,102.16z"/>
		<path style="fill:#FFFFFF;" d="M65.33,99.291v17.314h-3.314V99.291H65.33z"/>
		<path style="fill:#FFFFFF;" d="M72.727,99.291l8.929,11.848V99.291h3.216v17.314h-3.142l-8.904-11.823v11.823h-3.24V99.291H72.727
			z"/>
		<path style="fill:#FFFFFF;" d="M101.817,99.291v2.895h-9.375v4.278h8.41v2.895h-8.41v4.354h9.671v2.894H89.128V99.291H101.817z"/>
		<path style="fill:#FFFFFF;" d="M111.169,102.16c-1.559,0-2.572,0.569-2.572,1.633c0,3.513,9.3,1.607,9.275,7.816
			c0,3.24-2.82,5.12-6.629,5.12c-2.771,0-5.467-1.113-7.321-2.771l1.385-2.795c1.781,1.583,4.131,2.548,5.985,2.548
			c1.855,0,2.969-0.693,2.969-1.905c0-3.611-9.301-1.558-9.301-7.717c0-3.018,2.598-4.947,6.48-4.947
			c2.301,0,4.601,0.742,6.258,1.831l-1.335,2.869C114.508,102.729,112.504,102.16,111.169,102.16z"/>
		<path style="fill:#FFFFFF;" d="M126.704,102.16c-1.559,0-2.572,0.569-2.572,1.633c0,3.513,9.3,1.607,9.275,7.816
			c0,3.24-2.82,5.12-6.629,5.12c-2.771,0-5.467-1.113-7.321-2.771l1.385-2.795c1.781,1.583,4.131,2.548,5.985,2.548
			c1.855,0,2.969-0.693,2.969-1.905c0-3.611-9.301-1.558-9.301-7.717c0-3.018,2.598-4.947,6.48-4.947
			c2.301,0,4.601,0.742,6.258,1.831l-1.335,2.869C130.043,102.729,128.039,102.16,126.704,102.16z"/>
	</g>
	<g>
		<path style="fill:#002F87;" d="M15.499,77.292l5.095,13.628l5.145-13.628h3.414l-6.926,17.313h-3.438l-6.852-17.313H15.499z"/>
		<path style="fill:#002F87;" d="M44.044,77.292v2.894h-9.375v4.279h8.41v2.894h-8.41v4.354h9.671v2.894H31.355V77.292H44.044z"/>
		<path style="fill:#002F87;" d="M58.541,94.605l-2.993-5.12c-0.198,0.025-0.396,0.025-0.618,0.025h-3.908v5.095h-3.314V77.292
			h7.223c4.477,0,7.024,2.151,7.024,5.961c0,2.721-1.212,4.675-3.438,5.614l3.809,5.738H58.541z M51.021,86.592h3.908
			c2.474,0,3.858-1.063,3.858-3.24c0-2.127-1.385-3.166-3.858-3.166h-3.908V86.592z"/>
		<path style="fill:#002F87;" d="M68.906,77.292v17.313h-3.314V77.292H68.906z"/>
		<path style="fill:#002F87;" d="M85.108,77.292l-0.024,2.894h-8.607v4.675h7.841v2.894h-7.841v6.852h-3.314V77.292H85.108z"/>
		<path style="fill:#002F87;" d="M90.897,77.292v17.313h-3.314V77.292H90.897z"/>
		<path style="fill:#002F87;" d="M107.843,77.292v2.894h-9.375v4.279h8.41v2.894h-8.41v4.354h9.671v2.894H95.153V77.292H107.843z"/>
		<path style="fill:#002F87;" d="M127.73,85.948c0,5.046-3.809,8.657-9.151,8.657h-7.074V77.292h7.198
			C123.946,77.292,127.73,80.878,127.73,85.948z M124.343,85.974c0-3.389-2.449-5.764-5.689-5.764h-3.834v11.478h3.958
			C121.968,91.688,124.343,89.337,124.343,85.974z"/>
		<path style="fill:#002F87;" d="M22.745,102.62c0,1.904-1.138,3.363-3.018,3.834c2.3,0.42,3.685,2.077,3.685,4.378
			c0,2.968-2.449,4.773-6.406,4.773H9.091V98.291h7.693C20.469,98.291,22.745,99.948,22.745,102.62z M19.356,103.214
			c0-1.312-1.039-2.078-2.746-2.054h-4.205v4.205h4.205C18.317,105.365,19.356,104.574,19.356,103.214z M19.975,110.411
			c0-1.41-1.261-2.275-3.364-2.251h-4.205v4.576h4.205C18.713,112.761,19.975,111.896,19.975,110.411z"/>
		<path style="fill:#002F87;" d="M33.977,112.786c2.622,0,4.279-1.633,4.279-4.403V98.291h3.314v10.092
			c0,4.552-2.894,7.371-7.594,7.371c-4.724,0-7.692-2.819-7.692-7.371V98.291h3.314v10.092
			C29.599,111.129,31.355,112.786,33.977,112.786z"/>
		<path style="fill:#002F87;" d="M51.169,101.16c-1.558,0-2.572,0.569-2.572,1.633c0,3.513,9.3,1.607,9.275,7.816
			c0,3.24-2.82,5.12-6.629,5.12c-2.77,0-5.466-1.113-7.321-2.771l1.385-2.795c1.781,1.583,4.13,2.548,5.986,2.548
			c1.855,0,2.968-0.693,2.968-1.905c0-3.611-9.3-1.558-9.3-7.717c0-3.018,2.597-4.947,6.48-4.947c2.3,0,4.601,0.742,6.258,1.831
			l-1.336,2.869C54.509,101.729,52.505,101.16,51.169,101.16z"/>
		<path style="fill:#002F87;" d="M64.33,98.291v17.314h-3.314V98.291H64.33z"/>
		<path style="fill:#002F87;" d="M71.727,98.291l8.929,11.848V98.291h3.216v17.314h-3.142l-8.904-11.823v11.823h-3.24V98.291H71.727
			z"/>
		<path style="fill:#002F87;" d="M100.817,98.291v2.895h-9.375v4.278h8.41v2.895h-8.41v4.354h9.671v2.894H88.128V98.291H100.817z"/>
		<path style="fill:#002F87;" d="M110.169,101.16c-1.559,0-2.572,0.569-2.572,1.633c0,3.513,9.3,1.607,9.275,7.816
			c0,3.24-2.82,5.12-6.629,5.12c-2.771,0-5.467-1.113-7.321-2.771l1.385-2.795c1.781,1.583,4.131,2.548,5.985,2.548
			c1.855,0,2.969-0.693,2.969-1.905c0-3.611-9.301-1.558-9.301-7.717c0-3.018,2.598-4.947,6.48-4.947
			c2.301,0,4.601,0.742,6.258,1.831l-1.335,2.869C113.508,101.729,111.504,101.16,110.169,101.16z"/>
		<path style="fill:#002F87;" d="M125.704,101.16c-1.559,0-2.572,0.569-2.572,1.633c0,3.513,9.3,1.607,9.275,7.816
			c0,3.24-2.82,5.12-6.629,5.12c-2.771,0-5.467-1.113-7.321-2.771l1.385-2.795c1.781,1.583,4.131,2.548,5.985,2.548
			c1.855,0,2.969-0.693,2.969-1.905c0-3.611-9.301-1.558-9.301-7.717c0-3.018,2.598-4.947,6.48-4.947
			c2.301,0,4.601,0.742,6.258,1.831l-1.335,2.869C129.043,101.729,127.039,101.16,125.704,101.16z"/>
	</g>
	<g>
	</g>
	<g>
	</g>
	<g>
	</g>
	<g>
	</g>
	<g>
	</g>
</g>
</svg>
