<?xml version="1.0" encoding="UTF-8"?>
<!-- Generator: Adobe Illustrator 16.0.0, SVG Export Plug-In . SVG Version: 6.00 Build 0)  -->
<!DOCTYPE svg PUBLIC "-//W3C//DTD SVG 1.1//EN" "http://www.w3.org/Graphics/SVG/1.1/DTD/svg11.dtd">
<svg version="1.1" id="Layer_1" xmlns="http://www.w3.org/2000/svg" xmlns:xlink="http://www.w3.org/1999/xlink" x="0px" y="0px" viewBox="0 0 56.693 64.486" enable-background="new 0 0 56.693 64.486" xml:space="preserve" width="156.693px" height="164.486px">
<path d="M26.867,14.104c-3.603,0-6.521,2.919-6.521,6.521v8.869c0,3.603,2.919,6.521,6.521,6.521  c3.602,0,6.521-2.921,6.521-6.521v-8.869C33.387,17.023,30.469,14.104,26.867,14.104z M31.98,28.899  c0,3.119-2.289,5.648-5.112,5.648c-2.825,0-5.113-2.529-5.113-5.648v-7.682c0-3.118,2.289-5.646,5.113-5.646  c2.823,0,5.112,2.528,5.112,5.646V28.899z" fill="currentColor"/>
<path d="M29.826,14.104c-3.603,0-6.521,2.919-6.521,6.521v8.869c0,3.603,2.919,6.521,6.521,6.521  c3.602,0,6.521-2.921,6.521-6.521v-8.869C36.346,17.023,33.427,14.104,29.826,14.104z M34.939,28.899  c0,3.119-2.289,5.648-5.112,5.648c-2.825,0-5.113-2.529-5.113-5.648v-7.682c0-3.118,2.289-5.646,5.113-5.646  c2.823,0,5.112,2.528,5.112,5.646V28.899z" fill="currentColor"/>
<g>
	<path d="M43.577,24.663c0-0.678-0.549-1.229-1.229-1.229H14.343c-0.006,0-0.011,0.003-0.017,0.003v39.996h31.097   c0.679,0,1.229-0.552,1.229-1.229L43.577,24.663z" fill="currentColor"/>
	<polygon points="13.107,24.752 10.047,62.122 13.107,62.554  " fill="currentColor"/>
</g>
</svg>