<svg version="1.0" xmlns="http://www.w3.org/2000/svg" viewBox="0 0 1280 1023">
	<g transform="translate(0,1023) scale(0.1,-0.1)">
		<path d="M6625 10149 c-118 -159 -142 -197 -186 -298 -60 -139 -102 -194 -154 -201 -54 -8 -139 -48 -222 -105 -88 -61 -113 -85 -113 -106 0 -9 -13 -22 -30 -29 -65 -27 -178 -178 -166 -224 3 -14 1 -26 -5 -28 -6 -2 -21 -31 -33 -63 -18 -49 -20 -71 -14 -120 5 -37 14 -62 23 -68 13 -7 15 -18 9 -53 -7 -49 6 -59 23 -16 l11 27 1 -30 c1 -38 37 -165 51 -179 15 -15 13 26 -5 67 -8 20 -15 49 -14 64 l1 28 11 -25 c7 -14 23 -41 37 -60 47 -65 63 -97 126 -244 l38 -88 24 28 c21 24 23 34 18 73 -3 25 -11 60 -18 78 -12 33 -5 54 12 37 8 -8 63 -131 91 -203 17 -43 20 -15 4 34 -9 26 -15 48 -13 50 2 2 25 -38 51 -88 43 -86 48 -101 62 -224 20 -157 24 -146 -102 -253 -151 -129 -303 -282 -354 -358 -33 -50 -57 -101 -74 -160 -15 -48 -33 -98 -40 -112 -58 -100 -70 -136 -69 -205 0 -51 6 -84 23 -123 49 -109 223 -229 353 -241 l63 -6 7 -40 c4 -22 7 -83 7 -135 l1 -94 -62 -59 -61 -59 -37 41 c-52 57 -82 53 -115 -13 -11 -21 -59 -41 -129 -51 -50 -8 -90 -47 -82 -80 4 -14 -1 -36 -11 -54 -17 -29 -17 -32 1 -66 17 -31 18 -42 9 -78 -8 -27 -8 -47 -2 -60 6 -10 7 -27 4 -37 -4 -13 2 -28 20 -46 l27 -27 -35 -76 c-39 -85 -98 -273 -121 -383 -41 -202 -45 -331 -17 -669 11 -129 29 -367 40 -529 52 -759 52 -790 16 -911 -41 -136 -54 -213 -68 -410 -11 -146 -18 -191 -32 -213 -16 -24 -17 -32 -6 -60 12 -31 28 -272 35 -526 2 -74 7 -173 11 -220 4 -52 2 -124 -5 -185 -7 -55 -14 -194 -16 -310 -3 -154 -9 -239 -25 -325 -32 -182 -38 -199 -70 -215 -15 -8 -31 -20 -35 -27 -14 -23 -22 -93 -12 -111 7 -14 5 -23 -6 -36 -21 -23 -11 -49 23 -59 53 -14 205 -6 277 16 81 25 114 46 114 72 0 14 8 20 33 22 25 2 32 7 30 23 -1 11 -5 110 -9 220 l-6 200 36 75 c36 73 36 77 30 160 -8 101 -30 159 -74 190 l-33 23 7 85 c7 92 26 199 56 307 11 39 33 133 51 210 17 77 44 187 60 245 58 214 70 304 67 545 -2 219 -2 220 26 295 44 119 56 160 71 245 18 108 51 356 70 545 26 252 54 405 106 577 47 158 76 314 66 353 -3 11 1 24 9 31 17 14 33 -19 64 -137 22 -83 109 -346 179 -545 26 -72 47 -156 56 -220 8 -57 30 -216 49 -354 64 -455 111 -615 254 -868 43 -75 67 -156 112 -376 16 -82 40 -180 51 -217 12 -38 23 -79 24 -91 2 -12 10 -37 19 -54 9 -18 16 -42 16 -53 0 -12 12 -48 26 -81 48 -111 65 -170 74 -254 6 -54 18 -102 34 -135 29 -59 58 -182 80 -341 23 -164 38 -355 32 -400 -3 -22 -13 -116 -21 -209 -8 -93 -22 -195 -30 -226 -19 -75 -54 -160 -76 -185 -28 -33 -79 -130 -79 -151 0 -11 -5 -25 -12 -32 -22 -22 7 -32 158 -53 202 -27 369 -36 379 -20 4 7 11 60 17 119 5 59 23 191 39 293 16 103 34 231 38 285 8 98 8 101 -34 251 -24 84 -46 156 -49 161 -37 60 -68 499 -65 917 2 257 1 261 -29 390 -57 243 -109 387 -202 555 -74 133 -117 240 -142 355 -18 81 -21 148 -28 680 -12 844 -21 950 -99 1163 -49 132 -65 230 -58 355 4 59 12 117 18 129 14 26 6 131 -21 273 -47 242 -60 366 -59 565 0 268 11 390 39 434 15 25 22 56 25 105 2 38 7 85 10 105 5 24 3 36 -4 36 -6 0 -11 5 -11 10 0 6 7 10 15 10 9 0 16 14 20 38 19 128 41 236 60 295 30 92 8 80 -32 -19 -43 -104 -42 -70 1 59 18 56 41 135 51 175 12 50 20 69 26 60 6 -9 9 -1 10 22 6 237 14 331 34 425 22 103 18 246 -11 465 -31 234 -70 429 -129 645 -52 190 -81 366 -95 570 -8 134 -13 156 -38 205 l-28 55 -129 2 -130 3 -60 -81z m60 -546 c-4 -43 -8 -79 -10 -81 -1 -1 -26 12 -55 30 l-52 33 51 47 c29 27 57 48 63 48 7 0 8 -26 3 -77z"/>
	</g>
</svg>
