<svg version="1.0" xmlns="http://www.w3.org/2000/svg" viewBox="0 0 1280 942">
	<g transform="translate(0,942) scale(0.1,-0.1)">
		<path d="M10940 9413 c-85 -6 -165 -25 -205 -48 -40 -23 -97 -90 -131 -155 -24 -45 -27 -216 -5 -270 21 -49 75 -120 119 -153 75 -57 102 -60 515 -65 207 -2 377 -7 377 -12 0 -8 -854 -851 -936 -923 l-41 -37 -79 57 c-204 147 -527 315 -744 387 -344 114 -605 145 -1030 125 -431 -20 -685 -89 -1090 -295 -80 -40 -158 -85 -175 -98 l-30 -25 211 -208 c116 -114 229 -229 250 -256 l39 -47 125 54 c320 138 575 186 902 172 316 -14 483 -50 716 -156 331 -149 586 -350 791 -624 172 -229 304 -513 361 -774 55 -255 49 -622 -14 -897 -105 -452 -412 -885 -823 -1161 -192 -129 -486 -255 -695 -298 -194 -40 -549 -45 -755 -11 -259 43 -545 164 -758 322 -141 105 -474 447 -1067 1098 -400 439 -370 409 -396 401 -12 -4 -125 -116 -251 -249 l-229 -242 31 -35 c16 -19 224 -249 461 -510 475 -525 854 -912 988 -1011 269 -199 548 -335 849 -413 345 -90 516 -107 872 -87 431 24 678 89 1047 272 284 141 490 288 705 504 211 211 382 449 510 710 193 394 278 755 278 1185 0 286 -33 504 -120 810 -60 210 -185 468 -363 748 -14 21 0 37 460 497 l475 475 6 -282 c9 -386 24 -440 149 -532 73 -54 136 -71 240 -63 88 6 132 25 203 87 57 50 82 97 98 177 14 78 24 1345 11 1509 -11 138 -19 158 -97 242 -85 92 -89 93 -445 103 -288 7 -1213 9 -1310 2z"/>
		<path d="M2380 8319 c-573 -58 -1164 -344 -1589 -767 -433 -433 -697 -969 -773 -1572 -19 -154 -16 -543 5 -700 82 -589 334 -1097 755 -1524 397 -402 882 -659 1437 -761 l120 -22 3 -631 2 -632 -367 0 c-203 0 -394 -4 -426 -10 -115 -18 -217 -84 -260 -164 -17 -33 -22 -63 -25 -152 -6 -175 22 -242 132 -311 89 -57 89 -57 531 -63 l410 -5 5 -370 c7 -436 6 -430 119 -548 62 -65 147 -92 263 -84 135 9 222 68 285 192 23 45 27 67 34 210 4 88 8 257 8 376 l1 216 113 6 c61 4 213 7 337 7 277 1 415 12 467 39 49 25 127 108 148 157 41 98 39 229 -7 317 -29 57 -93 123 -145 148 -38 18 -71 23 -221 30 -97 4 -293 8 -435 8 l-257 1 2 631 3 631 135 28 c165 34 325 79 445 127 101 39 460 214 488 237 33 26 17 56 -63 120 -41 33 -154 139 -250 236 l-175 176 -139 -58 c-152 -64 -328 -118 -476 -145 -120 -22 -523 -25 -640 -5 -748 132 -1339 637 -1576 1348 -66 196 -74 247 -80 519 -8 293 4 440 47 589 192 672 660 1167 1303 1380 531 176 1147 107 1637 -182 219 -130 322 -233 1039 -1040 294 -331 537 -602 540 -602 10 0 490 499 490 508 0 5 -93 111 -207 238 -113 126 -307 346 -431 489 -441 509 -703 779 -869 895 -289 202 -681 374 -1013 444 -203 43 -667 67 -880 45z"/>
		<path d="M5650 8324 c-156 -11 -293 -27 -388 -45 -130 -25 -416 -119 -572 -188 -113 -51 -330 -169 -330 -180 0 -4 114 -120 254 -260 l254 -254 129 53 c353 145 472 166 906 157 291 -6 332 -12 525 -78 642 -220 1131 -739 1301 -1380 138 -517 65 -1026 -216 -1523 l-56 -99 19 -35 c51 -96 402 -421 473 -439 31 -8 68 33 148 161 283 457 427 985 410 1501 -24 721 -314 1376 -829 1870 -398 383 -926 643 -1458 720 -102 15 -460 27 -570 19z"/>
		<path d="M3612 7193 c-212 -288 -380 -689 -441 -1054 -113 -681 3 -1332 338 -1883 117 -194 231 -337 405 -511 397 -396 824 -622 1416 -747 128 -27 170 -31 357 -35 338 -8 571 17 853 94 226 60 490 172 669 283 l83 52 -253 256 c-140 141 -255 258 -256 261 -2 2 -51 -19 -110 -46 -277 -130 -496 -182 -800 -190 -211 -6 -324 4 -481 42 -683 166 -1183 603 -1436 1253 -76 194 -100 329 -111 607 -11 274 12 456 88 685 44 133 177 412 227 475 l30 38 -21 37 c-65 116 -433 450 -495 450 -6 0 -35 -30 -62 -67z"/>
		<path d="M6614 6927 c-531 -535 -2175 -2247 -2271 -2364 -33 -40 -34 -43 -20 -70 38 -75 278 -304 419 -400 l70 -48 187 190 c305 311 1818 1885 2222 2313 79 84 145 159 147 167 9 39 -366 422 -464 473 -19 10 -46 -14 -290 -261z"/>
	</g>
</svg>
