<?xml version="1.0" encoding="utf-8"?>
<!-- Generator: Adobe Illustrator 16.0.0, SVG Export Plug-In . SVG Version: 6.00 Build 0)  -->
<!DOCTYPE svg PUBLIC "-//W3C//DTD SVG 1.1//EN" "http://www.w3.org/Graphics/SVG/1.1/DTD/svg11.dtd">
<svg version="1.1" id="Layer_1" xmlns="http://www.w3.org/2000/svg" xmlns:xlink="http://www.w3.org/1999/xlink" x="0px" y="0px"
	 width="500px" height="540px" viewBox="0 0 500 540" enable-background="new 0 0 500 540" xml:space="preserve">
<g>
	<path fill-rule="evenodd" clip-rule="evenodd" fill="#F05A22" d="M204.696,11.396c-13.036,15.565-24.46,35.532-31.503,58.853
		c-6.759,22.383-9.69,54.05-4.396,81.074c7.978-33.377,22.932-59.77,42.736-81.32c-11.602,20.791-22.289,43.739-29.792,69.598
		c-7.469,25.73-11.771,58.232-6.106,88.398c9.166,48.813,38.121,78.495,74.481,100.119c4.962,2.951,10.777,5.613,14.497,9.47
		c5.021,5.207,9.473,15.755,9.487,25.569c0.009,6.363-2.09,14.146-3.712,19.591c2.789,0.062,4.744-5.892,6.588-6.767
		c-1.529,9.868-5.682,18.41-8.545,26.133c2.361-0.325,3.625-2.65,5.129-4.151c8.211-8.206,14.223-17.174,18.557-30.282
		c2.655-8.018,3.946-16.012,14.167-15.872c4.122,0.06,8.366,1.842,12.455,2.443c13.434,1.975,28.004,1.351,40.056-1.955
		c29.953-8.215,48.086-32.022,58.855-59.829c5.486-14.17,9.521-29.442,11.476-47.861c3.055,21.251,4.287,51.199-1.711,70.084
		c15.201-8.322,24.781-22.267,30.77-39.799c-5.649,26.418-20.246,46.01-35.653,63.488c16.924-8.561,31.985-18.973,44.692-31.748
		c-19.771,27.037-48.954,46.776-83.275,60.07c25.736-1.445,51.253-5.237,70.818-13.672c-31.929,17.648-73.924,27.578-118.934,32.97
		c20.04,2.052,45.903,4.197,65.454,0.243c-18.993,7.959-42.528,9.137-67.164,10.498c-19.814,1.098-29.934,15.311-36.143,30.282
		c-6.643,16.021-9.226,34.966-9.523,56.649c-4.533-9.627-9.412-20.213-8.305-34.672c-14.521,19.822-28.586,40.113-47.616,55.432
		c6.305-9.974,12.524-22.149,14.408-37.36c-5.359,2.866-10.043,7.107-14.408,11.475c-12.854,12.854-25.801,27.23-28.816,50.059
		c-4.552-9.426,1.536-21.704,5.86-29.302c3.53-6.198,7.687-11.668,11.477-16.604c8.299-10.8,18.188-19.604,24.907-31.012
		c7-11.884,11.343-28.725,7.57-45.666c-3.132-14.066-10.895-26.44-19.534-36.389c-17.424-20.051-41.565-33.484-70.332-41.757
		c-29.045-8.349-49.001-24.673-56.165-55.674c9.212,18.107,19.313,35.844,44.932,38.337c6.201,0.604,21.096,1.713,22.225-4.395
		c0.821-4.453-4.63-9.788-7.327-12.699c-22.374-24.146-47.106-46.863-70.086-69.843c-6.78-6.78-13.686-13.065-20.024-20.023
		c-18.844-20.694-33.803-46.014-44.444-75.212c14.37,29.336,32.253,54.388,55.19,74.968c22.832,20.488,47.681,38.875,69.595,60.314
		c-17.232-25.303-34.096-49.883-48.106-78.385c-4.621-9.401-9.667-19.308-10.99-31.014c5.267,11.465,10.838,23.197,17.34,33.699
		c6.416,10.369,13.227,21.009,24.664,26.374c-18.446-51.314-45.104-96.53-79.364-132.844c16.79,11.629,30.493,27.368,42.978,43.955
		c12.527,16.639,23.887,34.654,34.675,52.746c-9.889-27.139-16.073-69.097-7.324-101.83c2.032-7.601,4.725-14.854,8.058-21.488
		c1.063-2.11,2.047-4.505,3.907-5.86c-11.668,29.863-4.784,76.087,3.174,105.248C147.783,88.47,165.693,39.384,204.696,11.396"/>
	<path fill-rule="evenodd" clip-rule="evenodd" fill="#F05A22" d="M318.243,316.397c-2.323,3.771-4.802,7.597-7.323,11.232
		c-2.526,3.654-4.851,7.791-8.792,10.019c-1.773-1.835-1.957-5.299-1.955-8.058c0.016-8.099,1.975-17.635,2.442-24.426
		c-2.166,6.842-5.587,12.596-9.031,18.318c-3.133,5.195-5.182,10.935-6.837,17.092c-0.162,0.591-0.068,2.163-1.221,2.199
		c-0.664-1.057,0.146-3.36,0.239-4.882c0.923-14.823-6.912-24.069-8.057-37.366c-0.641,10.839-2.172,20.786-8.546,25.884
		c-5.868-6.989-8.772-16.947-12.699-25.884c0.917,3.68,2.186,7.863,3.421,12.21c1.211,4.271,3.26,8.874,3.175,12.699
		c-0.071,3.094-1.362,4.661-2.366,6.585c9.809,5.131,17.289,14.946,18.236,29.068c1.012,15.071-2.064,25.328-6.687,35.681
		c6.855-6.004,12.6-15.969,16.909-26.188c4.303-10.217,3.995-21.339,19.325-19.997c-2.304-6.737,1.188-13.956,3.663-20.022
		C314.261,325.373,316.475,320.566,318.243,316.397 M283.164,342.178c-1.669-0.448-2.607-1.065-2.93-2.199
		c-0.477-1.662,0.744-3.297,0.734-4.637c-0.023-2.573-2.555-3.404-1.955-5.863C281.824,332.287,283.637,336.086,283.164,342.178
		 M293.422,338.269c0.261,3.518-1.749,5.793-4.888,5.134c1.52-4.104,4.107-7.13,7.816-9.039c0.564-0.074,0.276,0.705,0.733,0.729
		C296.137,336.43,294.209,336.778,293.422,338.269"/>
</g>
</svg>
