<svg xmlns="http://www.w3.org/2000/svg" viewBox="0 0 100 100">
  <defs>
    <linearGradient id="a" x1="-1140.32" x2="-1140.32" y1="1193.6" y2="1354.88" gradientTransform="rotate(-90 -1131 43)" gradientUnits="userSpaceOnUse">
      <stop offset="0" stop-color="#fff"/>
      <stop offset=".37" stop-color="#9b9b9b"/>
      <stop offset=".81" stop-color="#2c2c2c"/>
      <stop offset="1"/>
    </linearGradient>
    <linearGradient id="c" x1="-11.57" x2="-11.57" y1="-19.59" y2="71.54" gradientTransform="rotate(180 50 45)" gradientUnits="userSpaceOnUse">
      <stop offset="0" stop-color="#24bdbd"/>
      <stop offset="1" stop-color="#24c98d"/>
    </linearGradient>
    <linearGradient id="d" x1="121.02" x2="121.02" y1="-4.76" y2="86.38" gradientUnits="userSpaceOnUse">
      <stop offset="0" stop-color="#44ccea"/>
      <stop offset=".22" stop-color="#43c9e8"/>
      <stop offset=".4" stop-color="#3fbfe2"/>
      <stop offset=".56" stop-color="#39add7"/>
      <stop offset=".72" stop-color="#3095c8"/>
      <stop offset=".87" stop-color="#2476b5"/>
      <stop offset="1" stop-color="#1855a1"/>
    </linearGradient>
    <clipPath id="b">
      <path d="M30.82 17.85h57.33v76.2H30.82z"/>
    </clipPath>
    <mask id="e" width="194.99" height="110.29" x="23.37" y="-2.82" maskUnits="userSpaceOnUse">
      <path fill="url(#a)" d="M23.37-2.82h194.5v110.3H23.37z"/>
    </mask>
  </defs>
  <g clip-path="url(#b)">
    <path fill="url(#c)" d="M23.8-2.43h175.55v109.9H23.8z"/>
    <path fill="url(#d)" d="M23.7-2.63h194.65v109.9H23.7z" mask="url(#e)"/>
  </g>
  <path fill="#ff823d" d="M13.23 59.87l5.5-42.54 27.6 3.57-5.5 42.54z"/>
  <path fill="#fff" d="M81.48 1h-63A17.52 17.52 0 0 0 1 18.52v63A17.52 17.52 0 0 0 18.52 99h63A17.52 17.52 0 0 0 99 81.48v-63A17.52 17.52 0 0 0 81.48 1zM41.15 48.95a11.76 11.76 0 0 1-1.7 3.65c-2-11.1-9.1-14.8-9.1-14.8a37.67 37.67 0 0 1 7.92 16c-1.72 1.23-3.7.36-7.55-.76l-5.57-1.87c-3.75-1.7-6.15-4.92-7.28-9.67v-.1a24.78 24.78 0 0 1-.62-5.37 18.82 18.82 0 0 1 .3-3.9 10.34 10.34 0 0 1 .77-2.53 5.26 5.26 0 0 1 1.84-2.13c2-1.34 5.5-1.77 10.74-1.44 7.16 1 10.27 4.7 11.45 10.17a19.13 19.13 0 0 1 .2 6.15 41 41 0 0 1-.78 4.1q-.48 2.03-.62 2.5zm26 2.65c-7.14 1.17-14.68 0-22.2 21.78-1.25 3.78-1 5.45-1.8 5.66-1.12.3-1.3-3.36-1.37-5.7-.2-5.94.22-34.4 10.92-42.77 9.22-7.18 28.33-6.95 30.6-3.2s4.2 20.87-16.15 24.23z"/>
  <path fill="#fff" d="M46.4 58.16s5.23-26.77 30.1-23.9c-13 1.42-24 7.96-30.1 23.9z"/>
</svg>
