<svg xmlns="http://www.w3.org/2000/svg" width="48.77" height="9.47">
  <defs>
    <style>
      .cls-1{fill:#a39161;fill-rule:evenodd;}
    </style>
  </defs>
  <g id="Layer_2" data-name="Layer 2">
    <g id="Layer_1-2" data-name="Layer 1">
      <path d="M47.39 2.63a1.22 1.22 0 0 1-1.25-1.25A1.22 1.22 0 0 1 47.39.14a1.25 1.25 0 0 1 0 2.49m0-2.63A1.37 1.37 0 0 0 46 1.38a1.37 1.37 0 0 0 1.38 1.38 1.38 1.38 0 0 0 0-2.77" class="cls-1"/>
      <path d="M47.46 1.32h-.35V.87h.35a.25.25 0 0 1 .28.24c0 .14-.1.21-.28.21m.54-.25c0-.28-.21-.45-.55-.45h-.62v1.46h.28v-.52h.28l.35.52h.35l-.38-.55a.46.46 0 0 0 .29-.46M20.06 5.35h1.27V7.6h-1.7v.12-2.28h.06zM20 1.81h1.11V2h.06v1.5h-1.32V4h-.11V1.95H20zm1-1.52h-3.25v9.14h4.71V9h.3v-.3H23V5.29h-.06V5H23h-.43v-.58h.59V.9h-2.22zm-5.52.03h-.73l-.01.03h-.11v.03h-.06l.01.02h-.03v.06h-.03v.23l-.03-.01v.03h.03v.03h-.03v.23h.03v.05h-.03v.85h.03v.56h-.03v.14h.03l-.01.34h.04l-.01.03h-.03l.01.14h-.03v.11h.03v.03h-.04l.01.34h.03l-.01.02h-.02v.37h-.03V4h.03l-.01.12h-.02v.05h.03v.12l.03-.01v.26h-.04l.01.03h.02v.36h-.03v.34h.04l-.01.09h-.03l.01.08h.02l.01.11h-.04v.23h.03v.28h-.03v.31h.03v.03h-.03v.11h.03v.22l-.03.01v.02h.03v.09h-.03v.03h.03v.05h-.03v.25h.03v.32l.03-.01v.09h.03v.06l-.03-.01v.12h-.03v.14h-.03v.06l.03-.01v.03h-.03v.34h.03v.06h-.03v.08h.03v.06h-.03v.14h-.03l.01.2h.02v.08h-.03l.01.28h.02v.06h.03v.05l.03.01v.02l.03.01-.01.02h.04v.03h.02l.01.03h.11v.02h.05v-.02h.09v.02l.06.01v-.03h.17v.02h.19v-.02h.17v-.03h.17v-.03h.03v.03h.23v.03h.34v-.03h.08v-.03h.03v-.02h.03v-.03h.03V9.3h.03v-.03h.03v-.06h.02v-.05h.03v-.03h-.02l-.01-.03h.03v-.06h-.03l.01-.02h.02v-.31h-.03l.01-.26h-.03V8.4h.02l.01-.17h.02V8.2h-.02v-.06h.02v-.2l-.02.01v-.29l-.03.01v-.03h.03l-.01-.11-.02-.01V7.5h.03l-.01-.06h-.02v-.06h.03v-.11h-.03v-.45h.03v-.08h-.03v-.25h.03v-.2l-.03-.01v-.64h-.03v-.09h-.03v-.08h.03v-.51h.03v-.02l-.03-.01v-.02h.03v-.17h-.03v-.06h.03v-.14h.03v-.05h-.03v-.48h-.03v-.03h.03v-.03h-.03v-.06h.03v-.08h.03V3.5h-.03V2.43h.03v-.06h-.03V1.14h-.02V.97h.02V.86l.03-.01V.83h-.03l.01-.2h-.03l-.01-.17h-.02V.38h-.03V.35h-.03V.32h-.11V.29h-.06v.03h-.2V.29h-.23v.03h-.08V.29h-.2v.03zM1.76.32h-.22v.02l-.03.01V.32h-.03v.02h-.03l.01-.02H1.4v.03L1.37.34V.32h-.06v.02H.94V.32H.91l.01.02H.6V.31H.57v.03H.4l.01.03H.32v.02L.2.4l.01.02H.18v.03H.15v.03H.12v.03H.09v.05H.06v.06H.03v.36H0v.03h.03v.31H0v.03h.03v.03H0v.05h.03v.37h.03L.04 3.04h.03v.14H.05l-.01.34h.03v.16l.03.01v.05h.03v.06h.02v.05l.03.01v.05h.03v.06h.03v.08H.21v.06H.18v.06H.15v.02H.12l.01.03H.09l.01.03H.07l-.01.98h.03v.03H.06v.59H.03v.09h.03v.14H.03v.31h.02v.02l-.03.01v.08h.03v.25H.02v.4h.03L.04 8.53H.01v.33h.03l-.01.34h.03v.09h.03v.02h.03v.03h.02v.03H.2v.03h.09v.03h.62V9.4l.57.01v-.03h.2v.03h.11v-.03h.06v-.03l.03.01-.01-.04h.06v-.05h.03v-.06l.03.01v-.31h-.03v-.03h-.03l.01-.06h-.03v-.06h.03v-.02l-.03-.01v-.11h.02l.01-.08h-.03v-.51h.03v-.67h-.02v-.45h.03v-.09h-.03v-.08h.03v-.03h-.03v-.09l.03.01V6.2h.03v-.08h-.03v-.03h.03v-.03h-.03l.01-.95h.03v-.06h.03v-.03h.02L2.05 5l.08-.01v.03h.03v.03h.03v.03h.02v.11h.03v.08l.03.01v.11h.03v.06h.03v.05h.02v.06h.03v.11h.03v.09h.03v.08h.03l-.01.06h.03v.08h.03v.09h.03v.08h.03v.06h.02v.05h.03v.03h.03v.06h.03v.05l.03.01-.01.08h.04l-.01.06h.03v.05h.03v.06h.03v.08h.02l.01.06h.02v.06h.03v.08h.03V7h.03v.05h.02v.09h.03v.06l.03-.01v.06h.03v.08h.03l-.01.09h.03v.08l.03.01v.05h.03v.06h.03v.03h.03v.14h.02v.08h.03v.06h.03v.05h.03v.06h.03l-.01.06h.03v.03h.03v.02h.03v.06h.03v.03h.03l-.01.06.03-.01v.06h.03v.06h.03v.06h.03v.05h.03v.06h.02v.06l.03-.01v.09h.03v.06h.03v.05h.02v.03h.03v.09l.03-.01v.09h.03v.06h.03v.03l.02-.01v.09h.03v.03H4v.05l.03.01v.02h.02l.01.03h.05v.03h.09v.03h.08v.03h.29v.03l1.56.01v-.03h.05v-.06h.03v-.05h.03v-.17h-.03v-.09h-.03v-.05h-.03l.01-.03h-.03v-.03H6.1v-.03h-.03V8.9h-.03v-.05h-.03v-.06h-.02v-.05l-.03-.01v-.05h-.03v-.03H5.9v-.06h-.03l.01-.05h-.03v-.06h-.03v-.11h-.03v-.03h-.03v-.06h-.02l-.01-.08h-.02v-.03h-.03v-.06h-.03v-.02l-.03-.01v-.05h-.03v-.06h-.02v-.02l-.03-.01v-.03h-.03v-.05h-.03V7.8h-.02v-.05h-.03v-.09H5.4v-.11h-.03v-.06h-.03v-.03h-.03l.01-.03h-.03v-.02h-.03v-.06h-.03v-.08H5.2v-.03h-.03v-.06h-.02v-.11h-.03v-.09h-.03v-.05h-.03V6.9h-.02v-.11h-.03v-.12h-.03v-.05h-.03v-.06h-.03v-.03H4.9V6.5h-.03v-.05h-.06v-.03h-.03v-.03h-.03l.01-.06h-.03v-.05H4.7v-.09h-.03v-.03l-.03.01v-.06h-.02v-.03h-.03v-.09L4.56 6v-.12h-.02l-.01-.02H4.5V5.8h-.02v-.03h-.03v-.06h-.03v-.02l-.03-.01v-.05h-.03l.01-.09h-.03v-.05h-.03v-.06h-.03v-.06h-.03v-.06l-.02.01v-.06H4.2V5.2l-.03.01v-.03h-.03v-.06h-.02l-.01-.03h-.03v-.14h-.02v-.06h-.03v-.02H4v-.06h-.03v-.06h-.03v-.02h-.02v-.06h-.03v-.03h-.03v-.06h-.03v-.05H3.8l.01-.09h-.03v-.06h.03v-.02h-.03v-.03h.03v-.14h.03v-.08l.03-.01v-.05h.02v-.03h.03v-.05h.03v-.03h.03v-.06h.03v-.03h.03v-.06l.03.01v-.06h.02v-.03h.03v-.03h.03v-.03l.03.01v-.09h.03v-.03l.03.01v-.03h.02v-.06h.03V3.4h.03v-.02h.03v-.03h.03v-.03h.03v-.06h.03v-.02h.02v-.06h.03v-.03h.03v-.02l.03-.01v-.05h.03v-.06h.03v-.06l.03.01v-.03h.03V2.9h.02l.01-.05h.02v-.06h.03v-.06h.03v-.05l.03-.01v-.02h.03v-.06h.05l.01-.05h.02v-.03h.03v-.06h.03v-.06l.03.01v-.09h.03v-.06h.03V2.2h.03l-.01-.03h.03l.01-.03.02.01v-.06h.03v-.03h.03v-.03h.03v-.05h.03v-.03h.03v-.03h.02v-.06h.03v-.02h.03v-.03h.03v-.03h.03v-.03h.03v-.08h.03v-.06h.02l.01-.06h.03l-.01-.02.03-.01v-.05h.03v-.03h.03v-.05h.03v-.03h.03V1.3h.03l-.01-.03.03.01v-.06h.03v-.09h.03v-.02h.03v-.06h.03v-.03h.03V.96l.03.01-.01-.03h.04V.88h.02l.01-.11h.02V.69h.03V.63h.03V.49h-.03V.43h-.03V.41L5.99.4V.38h-.03V.35L5.31.34v.03h-.23V.34h-.06v.03h-.03L5 .34h-.06v.03h-.03V.34h-.34V.31h-.06v.03h-.02L4.48.31h-.02v.03h-.09v.02H4.2v.03h-.06v.03h-.02v.03h-.03V.5h-.03v.03h-.03v.03H4v.03h-.03v.02h-.02l-.01.06h-.02v.09h-.03l-.01.05-.02.01v.02h-.03v.03H3.8v.05h-.03v.06h-.03v.06l-.02-.01-.01.06h-.02v.03h-.03v.06h-.03v.05H3.6v.03h-.03v.06h-.03v.05h-.03l.01.06h-.03l-.01.06h-.02v.02h-.03v.09H3.4v.05h-.03v.03h-.03v.06h-.03v.03l-.02-.01-.01.06h-.03v.06h-.02v.08H3.2v.06h-.03v.05h-.03v.03h-.03v.06h-.03v.03h-.02v.05h-.03v.03H3v.06h-.03v.05h-.03v.06h-.03v.06l-.02-.01-.01.03h-.03v.06h-.02v.08H2.8v.09h-.03v.08h-.03v.06h-.03v.02l-.03.01v.05h-.03v.05l-.02.01v.05H2.6v.06h-.03v.08l-.03.01v.05h-.03v.06l-.03-.01v.03l-.03.01v.02h-.02l-.01.03H2.4v.06h-.03v.02h-.03v.12h-.03v.03l-.03-.01v.06h-.03v.08l-.02.01-.01.02h-.03v.06h-.02v.03h-.03v.03L2 3.92V3.9h-.03v-.03h-.03v-.06h-.03v-.08h.03v-.34h.03l.01-.42H2V2.8h.03v-.17h-.02v-.17h.03v-.85l-.03.01v-.48h.03v-.09h-.03l.01-.16h.02l.01-.15h.03L2.07.72 2.05.71V.49h-.03V.43h-.03V.38h-.03V.35h-.02V.32h-.09V.29h-.09v.03zM12.39.27V.3h-.42v.03h-.11v.03h-.03v.03h-.03v.02h-.03v.06h-.03v.08l-.03.01v.08h-.02v.05h-.03v.09h-.03v.08h-.03v.11l-.03.01v.14h-.03v.08h-.02v.08h-.03v.03h.03v.06h-.03v.03h.03v.08h-.03v.17h-.03v.09h-.03v.22h-.03v.08l-.03.01v.08h-.02v.08h-.03v.15l-.03-.01v.06h-.03v.09h-.03v.31h-.03v.05h-.03l.01.06h-.03l-.01.11h-.02v.14h-.03v.14h-.03v.06h-.03v.08h.03v.03h-.03v.03h-.02v.03h.02v.11h-.02v.11h-.03v.09h-.03v.14h-.03v.08h-.03v.11h-.03v.12h-.03v.14h-.03l.01.11h-.03v.11h-.03v.06h-.03v.11h-.03v.11h-.03v.14h-.03l.01.34h-.03v.08l-.03.01v.05h-.03v.06h.03v.02l-.03.01v.03h-.03v.02h.03v.12h-.03v.22h-.03v.12l.03-.01v.03h-.05l-.01.2h-.03l.01.05h-.03v.03h-.03v.06h-.03v.03h-.14v-.03h-.03v-.03h-.03v-.06h-.03l.01-.05h-.03v-.09h-.04l.01-.11h-.03v-.5l-.03-.01v-.02h-.03v-.31h-.03l.01-.09h-.03V5.2H9.9v-.06h-.03v-.06h-.03v-.02h.03V5h-.03v-.11h-.03v-.14h-.03l.01-.26h-.03v-.11h-.03v-.06H9.7v-.03l.03.01v-.03H9.7v-.06h-.03v-.05l.03-.01v-.08h-.03v-.11h-.03v-.03h-.03l.01-.17h-.03v-.14h-.03v-.03h-.03v-.03h.03v-.05h-.03v-.03H9.5v-.14h-.03v-.09h-.02v-.11h-.03v-.02l.03-.01v-.05h-.03v-.14h-.03v-.09h-.03v-.11h-.03v-.11H9.3l.01-.09h-.03v-.11h-.03v-.28h-.03v-.06h-.03v-.08h-.03v-.2h-.02v-.08l-.03-.01v-.11h-.03v-.14h-.03v-.03l-.03.01V1.4h.03v-.03h-.03v-.2h-.03v-.08h-.02V.95h-.03V.83l-.03.01V.72h-.03V.61h-.03V.52h-.03V.47H8.8V.44h-.03V.41h-.06V.38h-.02V.36h-.43v.02h-.14v.03h-.03V.38h-.82v.03h-.06v.03h-.08v.03h-.06V.5L7.04.49v.03h-.03v.03h-.05l-.01.03h-.02v.06h-.04l.01.05h-.03v.14h-.03v.03h.03v.08l.03.01v.22h.03v.14h.02v.03h.03v.06h-.02l-.01.02h.03v.03h.03v.06h.03v.11h.03v.14h.02l.01.11h.03l-.01.12h.03v.08h.03v.08h.03v.09h.03v.17h.02v.08h.03v.11h.03v.12h.03v.17h.03v.08h.03V3h.02l.01.06h.02v.11h.03v.03l.03-.01v.06h-.03v.03h.03v.09h.03v.08h.03v.03h.02l.01.03h-.03v.08h.03l-.01.08.03.01v.08h.03v.06h.03v.08h.03v.08l.03.01-.01.17h.03v.14l.03-.01v.12h.03v.08h.03v.12h.03v.05h.02l.01.11h.02v.14h.03v.12H8v.08h.03v.2h.02l.01.08h.02l.01.06h.02v.14h.03v.11h.03v.06h.03v.08h.03l-.01.09.03-.01v.15h.03v.17h.03v.08h.03v.14h.03v.03h.02l.01.08h.02v.12h.03v.14h.03v.08h.03v.12l.03-.01v.03h-.03v.03h.03v.28h.02l.01.06h.03l-.01.05h.03v.09h.03v.06h.03v.14h.03v.03l.02-.01.01.17h.02v.06h.03v.2h.03v.17h.03v.08h.03v.08h.02l.01.06h.02v.09h.03v.19h.03v.17h.03v.09h.03l-.01.05h.03v.03h.03v.03h.03v.05h.06v.03h.03l-.01.03h.06v.03h.14v.03h.12v.03h.05v-.03h.09v-.03h.08v.03h.06v-.03h.26l-.01.03h.32v-.03h.03v.03H11v-.03h.14v-.03h.17v-.03l.03.01v-.03h.06v-.06h.03v-.06h.02v-.05h.03v-.06h.03v-.06l.03.01v-.12h.03v-.2h.03v-.02h-.03v-.06h.03V8.6h.02l.01-.08h.02v-.03h-.02l-.01-.03h.03v-.11h.03v-.17h.03V8.1h.03v-.12l.03.01v-.15h.02l.01-.02h-.03v-.03h.02v-.03h.03v-.03h-.03V7.7h.03v-.14h.03v-.05h-.03v-.03h.03v-.09h.03v-.08h.03v-.08l.03-.01v-.08h.03v-.11h.02V7h.03v-.09h.03V6.8h.03v-.08h.03v-.17h.02l.01-.06h.02v-.05h.03v-.09h.03v-.06h.03v-.14h.03v-.22h.02l.01-.09.02.01.01-.11.02-.01v-.05h-.03v-.03h.03v-.23h.03v-.05h.03v-.03h.03v-.09h.03v-.13l.03-.01v-.08h.02v-.2h.03v-.05h.03v-.09h.03v-.08h.03v-.09h.03l-.01-.05h.03v-.09h.03v-.14h.03v-.11h.03V3.9h.03v-.08h.03v-.09h.02v-.11h.03v-.08h-.02v-.03h.02v-.08h.03v-.06h.03v-.09h.03v-.05h.03v-.11h.02l.01-.12h.02v-.17h.03v-.05h.03v-.09h.03v-.08h.03V2.5h.03l-.01-.09h.03v-.08h.03v-.09h.03v-.05h.03V2.1h.03v-.02l-.03-.01v-.11h.03v-.2h.03v-.05h.02l.01-.03h.02v-.11h.03v-.11h.03V1.4h.03v-.03h-.03v-.03h.03v-.05h.02l.01-.12h.03l-.01-.08h.03V1l.03.01V.92h.03V.67h.03V.5h-.03V.44h-.03V.41h-.03V.36h-.05V.33h-.06V.3h-.62V.27h-.49zM29.28.13v.02h-.03V.13h-.03v.02l-.37.01.01-.03h-.37v.03h-.15v.03h-.05v.02l-.09.01v.02h-.02v.03h-.03l-.01.03h-.02v.06h-.03v.22h.03v.09h.03v.05h-.03v.03h.03v.17h.03v.2h-.03l.01.11h-.03v.28h.03v.51h-.03v.08h.03v.11h.03v.06h-.03v.03h.03v.73h-.03v.03h.03v.2h-.03v.02h.04v.2h-.03v.26l.03-.01v.23h.03v.28h-.03v.06h.03v.03l-.03-.01v.43h-.02l-.01.03.03-.01v.12h-.02v.62h-.03v.03h.03v.22h.03v.2h-.03l.01.73h-.03v.06h.03v.22h-.03v.2h.03v.11h.03v.17h-.03v.05l-.03.01.01.48.02-.01.01.65h-.03v.28h.03v.06h-.03v.06h.03v.11h.03v.14h.03v.03h.03v.05h.03v.03h.05l.01.03h.16v.03l.34-.01v-.03h.2v.03h.46v-.03h.19v.03h.34v-.03l.46-.01v.03h.25V9.4h.11v-.02l.15-.01v.03h.19v-.03h.03v.03h.46v-.03h.25v.03l.2-.01v-.02h.14v.02h.03v-.03l.06.01v.02h.31v.03h.03v-.03h.05v-.03h.03v-.02h.03V9.3l.03.01v-.03h.02v-.03h.04V9.2l.02-.01v-.08h.03v-.39l.03-.01v-.02h-.03l-.01-.17h.03v-.06h.03v-.11h.03v-.17h-.03v-.03h-.03v-.11h-.03V7.9h-.03v-.08h-.03v-.06h-.02v-.03h-.06V7.7h-.03v-.03h-.08v-.02h-.15v-.03h-.31v.03h-.05v.03h-.12v-.03h-.08v-.03h-.09v.03l-.56.01v.02h-.03v-.02h-.23v.03l-.03-.01v-.02h-.03v.02H31v-.02h-.03v.03h-.2v-.03h-.06v.03h-.02l-.01-.03h-.02v.02l-.06.01v-.03h-.03v.03h-.05v-.03h-.03v.03h-.03v-.03h-.14v-.03h-.06v-.02h-.08v-.03h-.03v-.03h-.03V7.5l-.03-.01v-.3l.03-.01-.01-.28h.03v-.08h-.03V6.4l.03-.01v-.08h-.03L30.1 5.3h-.02v-.28h.03l-.01-.03h-.02l-.01-.28h.03v-.4h.03v-.39h-.03l-.01-.17h.03v-.31h.03v-.25h-.03V3.1h.03v-.06l-.03.01v-.17h-.03v-.26h.03l-.01-.22h.03v-.36h-.03v-.06h.03v-.03h-.03v-.2h.03v-.17h.03v-.11h-.03V1.1l.02.01V.4h-.03V.35h-.03V.32h-.03V.26h-.02V.23h-.03V.2h-.03V.18h-.03V.15h-.11V.12l-.57.01zm13.5-.12h-.03v.03h-.14v.03h-.68V.04h-.15l.01.02h-.43V.04h-.05v.03h-.15V.04h-.05v.03h-.4V.04h-.03v.03h-.42V.1h-.2v.02h-.03V.09H40v.03h-.14v.03h-.06v.06h-.03l.01.05-.03.01v.02h-.06v.03h-.06v.06h-.03v.05h-.02v.28h-.03v.12h.03v.14h-.03v.08h.03v1.02l.03-.01v.2h-.03v.23h.03v.11h.03v.06h-.03v.76h.03v.22h-.03v.62h.03v.03h-.03v.22h.03v.14h.03v.06h-.03l-.01.03h.04v.03h-.03v.11h.03v.03h-.03v.67h-.03v.03h.03v.17h-.03v.65h.03v.78l.03.01v.08h-.03v.12l-.03-.01v.2h.03v.68l-.03-.01v.32h.03v.08h.03v.11h-.03v.4l.03-.01v.03h.03v.03h.03v.06h.05v.02l.03.01v.03l.03-.01v.03h.06v.03h.05v.03h.06v.03h.14v-.03h.23v-.03h.03v.03h-.03v.03h.48v-.03h.2v-.03h.17v.03h1.02v-.03h.54v.03h1.3V9.4l.08.01v.03l.09-.01v.03h.28v-.02l.06-.01v-.02h.06v-.03h.03v-.06h.03l-.01-.03h.03v-.02h.03v-.09h.03v-.11h.03v-.25l.02-.01v-.28l.03.01v-.32h.03v-.08h-.03V8h-.02l-.01-.06h-.02v-.05h-.03v-.03h-.03v-.03h-.03V7.8h-.03v-.03l-.05.01v-.03h-.06v-.03h-.17v-.03h-.03v.03h-.03v-.03h-.05v.03h-.29v-.03h-.08v.03h-.23v-.03h-.03v.03h-.37v-.03h-.28v.03h-.03v-.03h-.06l.01.03h-.09v-.03h-.03v.03h-.74v.03h-.22v-.03h-.06v-.03h-.05v-.03h-.06v-.02h-.03v-.03h-.03v-.06h-.03v-.09l-.03.01v-.2h-.02v-.03h.02V7.1h.04l-.01-.17h.03v-.05h-.03v-.2h.03v-.23l.03.01v-.03l-.03-.01v-.05h.03V6.2h-.03v-.65h.03V5.5h-.03v-.09h.03v-.08h.03V5.3h.05v-.03h.03v-.02l.12-.01v-.02l.9-.01v.03h.03v-.02h.03v.02h.54v-.03h.51v.03H44v-.03h.03v.03h.03v-.03h.2v-.02l.05-.01v-.02h.03v-.03h.03V5.1h.03v-.05l.03-.01-.01-.11h.04l-.01-.08h.03v-.03h.03v-.06h.03v-.03l.03.01v-.12h.03v-.2h-.03v-.08h-.03v-.03h-.03v-.05h-.03v-.14l-.03-.01v-.08h-.03v-.08h-.02v-.09h-.03v-.05h-.03v-.03h-.05l-.01-.03h-.02v-.03h-.09v-.03h-.68v.03h-.03v-.03h-.14v.03h-.11v-.03h-.03v.03h-.03V3.7l-.11-.01v.03h-.4v-.03h-.06l.01.03h-.35v-.03h-.02v-.02h-.03v-.03h-.03v.03h-.03v-.03h-.11v.03h-.09v.02l-.08.01v-.03h-.06v-.03h-.06v-.03h-.02v-.03h-.03v-.03h-.03v-.14l-.03.01v-.06h.03v-.28h.03V2.4h-.03v-.25h.02v-.31h.03v-.06h.03v-.03h.06v-.02l.31-.01V1.7h.2v-.03h.03v.03h.03l-.01-.03h.17l.01.03h.02v-.03h.03v.03h.14v.03h.03V1.7h.03v.03h.03V1.7h1.25l-.01.02h.06V1.7h.03v.02l.2.01v.02h.03v-.03h.03v.03h.02v-.03h.09V1.7h.03v-.03h.02v-.03h.06v-.09h.03V1.5h.03v-.06h.03v-.05h-.03v-.17h.03V.88h-.03V.74h.03L44.7.68h-.02l-.01-.22h-.02V.37h-.03V.34h-.03V.29h-.02l-.01-.06h-.02L44.53.2h-.02V.18l-.03-.01V.15h-.06V.12h-.08V.09h-.12V.06l-.39.01v.02h-.03V.06l-.03.01v.02h-.03V.06l-.11.01v.02h-.14V.06h-.12v.03h-.03V.07l-.08-.01v.03h-.03V.06l-.05.01-.01.02h-.02V.07l-.23-.01V.04h-.14V.01zM25.69.32h-.73v.03h-.12v.03h-.05V.4h-.03v.06h-.03v.23L24.7.68v.03h.03v.03h-.03v.23h.03v.05h-.03v.85h.03v.56h-.03v.14h.03v.34h.03v.03h-.03v.14h-.03v.11h.03v.03h-.03v.34h.03v.02h-.03v.37h-.03V4h.03v.12h-.03v.05h.03v.12l.03-.01v.26h-.03v.03h.02v.36h-.02v.34h.03v.09h-.03v.08h.03v.11h-.03v.23h.03l-.01.28h-.02v.31h.02v.03h-.03v.11h.03v.22l-.02.01v.02h.03v.09h-.03v.03h.02v.05h-.02v.25h.02l.01.32.02-.01v.09h.03v.06l-.03-.01v.12h-.03v.14h-.02v.06l.02-.01v.03h-.03l.01.34h.02v.06h-.02v.08h.02v.06h-.03v.14h-.02v.2h.03l-.01.08h-.03l.01.28h.03l-.01.06h.03v.05l.03.01v.02l.03.01v.02h.03v.03h.02l.01.03h.11v.02H25v-.02h.09v.02l.06.01v-.03h.17v.02h.19l.01-.02h.16v-.03h.17l.01-.03h.02v.03h.23v.03h.34v-.03h.08l.01-.03h.02v-.02h.03v-.03h.03V9.3h.03v-.03h.03v-.06h.02l.01-.05h.02v-.03h-.02l-.01-.03h.03v-.06h-.02v-.02h.02v-.31h-.02v-.26h-.03V8.4h.02l.01-.17h.02V8.2h-.02v-.06h.02l.01-.2-.03.01v-.29l-.03.01v-.03h.03v-.11l-.03-.01V7.5h.03v-.06h-.03v-.06h.03v-.11h-.03v-.45h.03v-.08h-.03v-.25h.03v-.2l-.03-.01v-.64h-.03v-.09h-.03v-.08h.03v-.51h.03v-.02l-.03-.01v-.02h.03v-.17h-.03v-.06h.03v-.14h.03v-.05h-.03v-.48h-.03v-.03h.03v-.03h-.03v-.06h.03v-.08h.03V3.5h-.03V2.43h.03v-.06h-.03V1.14h-.02V.97h.02V.86l.03-.01V.83h-.03l.01-.2h-.03V.46h-.03V.38h-.03V.35h-.03V.32h-.11V.29h-.06v.03h-.2V.29h-.22v.03h-.09V.29h-.2v.03zm9.46-.18v.03h-.03V.14h-.03v.03h-.37V.14l-.37.01v.03h-.14V.2h-.06l.01.03h-.09v.03h-.03v.03h-.03v.03h-.02v.05l-.04.01.01.22h.03v.08h.03l-.01.06h-.02v.03h.03v.17h.03v.19l-.03.01v.11h-.03v.28h.03v.51L34 2.03l-.01.09h.03v.11h.03v.06h-.03l.01.03h.02l.01.73h-.03v.03h.03v.19h-.03v.03h.03v.2h-.03v.25h.03v.23h.03v.28h-.02v.05l.02.01.01.02h-.03v.42h-.03v.03h.03v.12h-.03l.01.62-.03-.01v.03h.02l.01.23h.03v.19h-.03v.74h-.03l.01.05h.02v.23h-.03l.01.19h.02l.01.12.03-.01v.17l-.03.01v.05h-.03V8h.03l.01.65h-.04v.28h.04v.06h-.03v.05h.03v.11h.03l-.01.14h.03l.01.03h.02l.01.06h.02v.03h.06v.03l.17-.01v.03h.34v-.03h.2v.03h.45v-.03h.2v.02h.34v-.03h.45v.03h.26v-.03h.11v-.03h.14v.03l.2-.01v-.02h.03v.03l.45-.01v-.02l.26-.01v.03h.19l.01-.03h.13l.01.03h.03v-.03h.05v.03h.31v.03h.03v-.03h.06v-.03h.03v-.03h.03l-.01-.03h.03V9.3l.03-.01v-.02h.03v-.06h.03v-.08h.02v-.4h.03V8.7h-.03v-.16l.03-.01v-.05h.03v-.12l.03.01V8.2h-.03v-.03h-.03v-.12h-.03v-.13h-.03v-.09h-.03v-.06l-.03.01v-.03h-.06v-.03h-.02v-.03h-.09v-.02l-.14-.01v-.03l-.31.01v.03h-.06v.03l-.11-.01v-.02h-.09v-.03h-.08v.03h-.57v.03h-.03v-.03h-.22v.03h-.03v-.03h-.03v.03h-.06v-.03h-.03v.03h-.19v-.02h-.06v.02h-.03v-.03l-.03.01v.02l-.05.01v-.04l-.03.01v.03h-.06v-.03h-.03v.02l-.03.01v-.03h-.14l.01-.03h-.06v-.03h-.09v-.03h-.03v-.02h-.03v-.06h-.02l-.01-.31h.03v-.28h.03v-.09l-.03.01v-.43H36l.01-.08h-.03l-.01-1.01h-.03v-.29l.03.01v-.03L35.94 5v-.28h.03v-.39h.02v-.39h-.03v-.17h.03v-.31h.03l-.01-.26-.02.01-.01-.09h.04l-.01-.06h-.02l-.01-.16h-.03v-.26h.03v-.22h.03v-.37h-.03v-.06h.03v-.02h-.03v-.2h.03V1.6h.02v-.11h-.02L36 1.12h.03v-.7H36V.36h-.03V.33h-.03V.28h-.03V.25h-.03V.22h-.03V.2h-.02V.17h-.12V.14h-.56z" class="cls-1"/>
    </g>
  </g>
</svg>
