<?xml version="1.0" encoding="utf-8"?>
<!-- Generator: Adobe Illustrator 22.1.0, SVG Export Plug-In . SVG Version: 6.00 Build 0)  -->
<svg version="1.1" id="Layer_1" xmlns="http://www.w3.org/2000/svg" xmlns:xlink="http://www.w3.org/1999/xlink" x="0px" y="0px"
	 viewBox="0 0 25.7 32" style="enable-background:new 0 0 25.7 32;" xml:space="preserve">
<style type="text/css">
	.st0{fill:#0049FF;}
</style>
<g>
	<path class="st0" d="M9,16.2c0,1.4,0.8,2.6,2.2,2.9c1.5,0.4,3-0.2,3.8-1.5l0.9-1.5l2.3,1.8l-0.7,1.2c-1.5,2.3-4.3,3.5-6.9,2.8
		c-2.6-0.7-4.3-3-4.3-5.7H9L9,16.2z M18.2,12.4l0.1-0.2l1.7,0.2l0.7,1.3l-0.3,0.5L18.2,12.4z"/>
	<rect x="1.2" y="9.2" class="st0" width="2.9" height="13.9"/>
	<path class="st0" d="M13.2,0.7c2.4,0,4.6,1,6.1,2.5l0,0c1.6,1.6,2.5,3.7,2.5,6.1c0,0.8-0.1,1.5-0.3,2.3c-0.2,0.8-0.5,1.5-0.9,2.1
		l-2.5-1.5c0.3-0.5,0.5-0.9,0.6-1.4c0.1-0.5,0.2-1,0.2-1.5c0-1.6-0.6-3.1-1.7-4.1l0,0c-1-1-2.5-1.7-4.1-1.7V0.7z"/>
	<path class="st0" d="M13.2,3.6H5.9C4.9,3.6,4,4.4,4,5.4v3.8l-1.5,1l-1.4-1V5.4c0-2.6,2.1-4.7,4.7-4.7h7.4l0.9,1.5L13.2,3.6z"/>
	<path class="st0" d="M6.1,16.2c0-2.3,1.2-4.4,3.3-5.4c2.1-0.9,4.6-0.6,6.4,0.8l-0.1,1.9l-1.7,0.3c-1-0.8-2.4-0.9-3.5-0.4
		C9.5,13.9,9,15,9,16.2l-1.4,1.2L6.1,16.2z"/>
	<path class="st0" d="M16.3,28.8c3.2,0,5.8-2.6,5.8-5.8c0-1.8-0.8-3.5-2.3-4.6l0.1-1.9l1.7-0.3c2.1,1.6,3.4,4.2,3.4,6.9
		c0,4.8-3.9,8.7-8.7,8.7V28.8z"/>
	<path class="st0" d="M16.3,31.7H5.9c-2.6,0-4.7-2.1-4.7-4.7v-3.8l1.4-1.3L4,23.2V27c0,1,0.8,1.8,1.8,1.8h10.5l1.5,1.2L16.3,31.7z"
		/>
	<rect x="16.4" y="11.3" transform="matrix(0.6193 -0.7852 0.7852 0.6193 -4.9549 19.7221)" class="st0" width="2.9" height="7.4"/>
</g>
</svg>
