<?xml version="1.0" encoding="utf-8"?>
<!-- Generator: Adobe Illustrator 18.1.0, SVG Export Plug-In . SVG Version: 6.00 Build 0)  -->
<svg version="1.1" xmlns="http://www.w3.org/2000/svg" xmlns:xlink="http://www.w3.org/1999/xlink" x="0px" y="0px"
	 viewBox="0 0 68.4 99.4" enable-background="new 0 0 68.4 99.4" xml:space="preserve">
<g id="Clear_Space">
</g>
<g id="Artwork">
	<g>
		<polygon fill="#FFFFFF" points="38.2,9 21.1,5.4 10.9,4.4 8.2,9.9 7.4,17.9 5.4,25.4 2.1,30.5 3.2,36.4 9.9,41.3 9.1,47 9.2,54 
			18.2,69.9 26.6,80.4 34.8,79.8 42.1,41.9 		"/>
		<path fill="#6AB2E2" d="M67.9,38.2l-3.4-2.4c-0.3-0.2-0.5-0.5-0.4-0.9l1-20.8c0-0.3-0.1-0.6-0.3-0.8c-0.2-0.2-0.5-0.3-0.8-0.2
			l-45.6,10c-0.5,0.1-0.8,0.5-0.7,1l0.6,11.4c0,0.5,0.4,0.9,0.8,1l13.7,2.8c0.5,0.1,0.8,0.5,0.7,1l-1.8,17.4c0,0.3,0.1,0.6,0.2,0.8
			c0.2,0.2,0.5,0.4,0.7,0.4h6.2c0.3,0,0.7,0.2,0.8,0.5l0.7,1.3c0.1,0.2,0.1,0.3,0,0.5c-0.1,0.2-0.2,0.3-0.4,0.3l-5.7,1.8
			c-0.4,0.1-0.7,0.6-0.7,1v6.1c0,0.5,0.3,0.9,0.7,1c0.1,0,4.3,1.5,8.6,3.1c-2.7,0.3-5.8,1.2-8,3.7c-0.2,0.2-0.3,0.5-0.3,0.8
			c0,0.3,0.1,0.6,0.3,0.8l2.5,2.6c0.2,0.2,0.3,0.5,0.3,0.8c0,0.3-0.2,0.6-0.4,0.7c-0.7,0.6-1.6,1.3-2.8,2.3
			c-0.3,0.2-0.4,0.5-0.4,0.9l0,11.2c0,0.6,0.4,1.1,1,1.1l6.1,0c0.6,0,1.1-0.3,1.5-0.7l15.7-18.8c0.5-0.6,0.9-1.4,1-2.3l2.6-22.1
			c0-0.3,0.2-0.6,0.4-0.7l4.8-3.4c0.3-0.2,0.4-0.5,0.4-0.8l1-11.3C68.4,38.8,68.2,38.4,67.9,38.2z M54.9,40.8c0,0.4-0.2,0.7-0.6,0.9
			L43.8,46c-0.1,0-0.2,0.1-0.3,0.1c-0.2,0-0.3-0.1-0.5-0.2c-0.2-0.2-0.4-0.5-0.4-0.8V39c0-0.5,0.3-0.9,0.7-0.9l10.6-1.6
			c0.2,0,0.5,0,0.7,0.2c0.2,0.2,0.3,0.4,0.3,0.7L54.9,40.8z"/>
		<path fill="#1B3D6D" d="M42.6,39v6.2c0,0.3,0.1,0.6,0.4,0.8c0.1,0.1,0.3,0.2,0.5,0.2c0.1,0,0.2,0,0.3-0.1l10.6-4.3
			c0.3-0.1,0.6-0.5,0.6-0.9l0-3.5c0-0.3-0.1-0.5-0.3-0.7c-0.2-0.2-0.4-0.3-0.7-0.2L43.4,38C42.9,38.1,42.6,38.5,42.6,39z"/>
		<path fill="#1B3D6D" d="M18.3,23.2l32.3-7.1l0.3-5c0-0.5-0.3-0.9-0.7-1L4.5,0C4.2,0,3.9,0,3.7,0.2C3.5,0.4,3.4,0.7,3.4,1l1,20.8
			c0,0.4-0.2,0.7-0.4,0.9l-3.4,2.4c-0.3,0.2-0.5,0.6-0.5,1l1,11.3c0,0.3,0.2,0.6,0.4,0.8l4.8,3.4c0.2,0.2,0.4,0.4,0.4,0.7l2.6,22.1
			c0.1,0.8,0.4,1.6,1,2.3L26,85.6c0.4,0.4,0.9,0.7,1.5,0.7l6.7,0c0,0,0.1-0.1,0.1-0.1c1.2-1,2.1-1.7,2.8-2.3
			c0.2-0.2,0.4-0.5,0.4-0.7c0-0.3-0.1-0.6-0.3-0.8l-2.5-2.6c-0.2-0.2-0.3-0.5-0.3-0.8c0-0.3,0.1-0.6,0.3-0.8c2.2-2.5,5.3-3.4,8-3.7
			c-4.3-1.6-8.5-3.1-8.6-3.1c-0.4-0.1-0.7-0.6-0.7-1v-6.1c0-0.5,0.3-0.9,0.7-1l5.7-1.8c0.2-0.1,0.3-0.2,0.4-0.3
			c0.1-0.2,0.1-0.4,0-0.5l-0.7-1.3c-0.2-0.3-0.5-0.5-0.8-0.5h-6.2c-0.3,0-0.5-0.1-0.7-0.4c-0.2-0.2-0.3-0.5-0.2-0.8l1.8-17.4
			c0.1-0.5-0.3-0.9-0.7-1l-13.7-2.8c-0.4-0.1-0.8-0.5-0.8-1l-0.6-11.4C17.5,23.7,17.9,23.3,18.3,23.2z M26.6,11.3
			c1.4-0.6,2-1.2,2.6-2.6c0.1-0.2,0.2-0.3,0.4-0.3c0.2,0,0.4,0.1,0.4,0.3c0.5,1.4,1.2,2,2.6,2.6c0.1,0.1,0.2,0.2,0.2,0.3
			c0,0.1-0.1,0.3-0.2,0.3c-1.5,0.6-2.1,1.3-2.7,2.9c-0.1,0.1-0.2,0.2-0.3,0.2c-0.2,0-0.3-0.1-0.3-0.2c-0.6-1.6-1.2-2.3-2.7-2.9
			c-0.1-0.1-0.2-0.2-0.2-0.3C26.4,11.4,26.5,11.3,26.6,11.3z M8,33.9c-0.9,0.4-1.4,0.9-1.8,1.9C6.2,35.9,6.1,36,6,36
			c-0.1,0-0.3-0.1-0.3-0.2c-0.4-1-0.8-1.5-1.8-1.9c-0.1-0.1-0.2-0.2-0.2-0.3c0-0.1,0.1-0.3,0.2-0.3c0.9-0.4,1.4-0.9,1.8-1.9
			c0.1-0.1,0.2-0.2,0.3-0.2c0.1,0,0.3,0.1,0.3,0.2c0.4,1,0.8,1.5,1.8,1.9c0.1,0.1,0.2,0.2,0.2,0.3C8.2,33.7,8.2,33.9,8,33.9z
			 M30.3,69.2c0,0.1-0.1,0.2-0.2,0.3c-1.9,0.7-2.6,1.5-3.2,3.5c0,0.1-0.2,0.2-0.3,0.2s-0.3-0.1-0.3-0.2c-0.7-2-1.4-2.8-3.3-3.5
			c-0.1,0-0.2-0.2-0.2-0.3c0-0.1,0.1-0.2,0.2-0.3c1.9-0.7,2.6-1.5,3.3-3.5c0-0.1,0.2-0.2,0.3-0.2s0.3,0.1,0.3,0.2
			c0.7,2,1.4,2.8,3.2,3.5C30.2,69,30.3,69.1,30.3,69.2z M19.6,41.2c0-0.1,0.2-0.2,0.3-0.2c0.2,0,0.3,0.1,0.3,0.3
			c1.7,5.5,3.3,7.2,8.3,9.1c0.1,0.1,0.2,0.2,0.2,0.3c0,0.2-0.1,0.3-0.2,0.3c-5,1.8-6.6,3.6-8.3,9.1c0,0.2-0.2,0.3-0.3,0.3
			c-0.2,0-0.3-0.1-0.3-0.3c-1.7-5.5-3.3-7.2-8.3-9.1c-0.1-0.1-0.2-0.2-0.2-0.3c0-0.1,0.1-0.3,0.2-0.3C16.3,48.4,18,46.7,19.6,41.2z
			 M14,21.3c0,0.2-0.2,0.3-0.3,0.3c-0.2,0-0.3-0.1-0.4-0.3c-1-3-2-4-4.7-5.1c-0.1-0.1-0.2-0.2-0.2-0.3c0-0.2,0.1-0.3,0.2-0.3
			c2.7-1.1,3.7-2.1,4.7-5.1c0.1-0.2,0.2-0.3,0.4-0.3c0.2,0,0.3,0.1,0.3,0.3c1,3,2,4,4.7,5.1c0.1,0.1,0.2,0.2,0.2,0.3
			c0,0.2-0.1,0.3-0.2,0.3C16,17.3,14.9,18.4,14,21.3z"/>
	</g>
</g>
</svg>
