<?xml version="1.0" encoding="UTF-8"?>
<svg version="1.1" id="Layer_1" xmlns="http://www.w3.org/2000/svg" xmlns:xlink="http://www.w3.org/1999/xlink" x="0px" y="0px" viewBox="0 0 120 31.3" style="enable-background:new 0 0 120 31.3;" xml:space="preserve">
<style type="text/css">
	.st0{fill:#BC152A;}
</style>
<g>
	<path d="M86.6,11.1c0-4.1-3.7-7.4-8.2-7.4l0.8,0.1l0,0l-0.4-0.1h-0.4c-4.5,0-8.2,3.3-8.2,7.4v0.1c0,4.1,3.7,7.4,8.2,7.4h0.1   c1.4,0,2.6,0.8,2.6,1.8v0.1c0,1-1.2,1.8-2.6,1.8h-0.1l-0.1,0l-0.1,0l0.2,0c-1.4,0-2.6-0.8-2.6-1.8h-5.6c0,4.1,3.7,7.4,8.2,7.4h0.1   l0.1,0l0.1,0l-0.2,0c4.5,0,8.2-3.3,8.2-7.4v-0.1c0-4.1-3.7-7.4-8.2-7.4h-0.1c-1.4,0-2.6-0.8-2.6-1.8v-0.1c0-1,1.2-1.8,2.6-1.8   l-0.8-0.1l0.1,0L78,9.3h0.4c1.4,0,2.6,0.8,2.6,1.8H86.6z"/>
</g>
<g>
	<path d="M100,20.5c0,1-1.2,1.8-2.6,1.8h-0.1l-0.1,0l0,0l0.1,0c-1.4,0-2.6-0.8-2.6-1.8c0,0,0-9.2,0-9.2c0-1,1.2-1.8,2.6-1.8h0.1   l0.1,0l0,0l-0.1,0c1.4,0,2.6,0.8,2.6,1.8v0.1l0,0.1l0,0l0-0.3c0,1-1.2,1.8-2.6,1.8h-2.7v5.6h2.7c4.5,0,8.2-3.3,8.2-7.4v-0.1l0-0.1   l0,0l0,0.3c0-4.1-3.7-7.4-8.2-7.4h-0.1l-0.1,0l0,0l0.1,0c-4.5,0-8.2,3.3-8.2,7.4c0,0,0,9.2,0,9.2c0,4.1,3.7,7.4,8.2,7.4h0.1l0.1,0   l0,0l-0.1,0c4.5,0,8.2-3.3,8.2-7.4H100z"/>
</g>
<g>
	<path d="M34.9,3.6v16.8c0,4.1,3.7,7.4,8.2,7.4h0.1l0.1,0l0,0l-0.2,0c4.5,0,8.2-3.3,8.2-7.4V3.6h-5.6v16.8c0,1-1.2,1.8-2.6,1.8H43   l-0.1,0l0,0l0.2,0c-1.4,0-2.6-0.8-2.6-1.8V3.6H34.9z"/>
</g>
<g>
	<path d="M26.1,27.9V11.1c0-1,1.2-1.8,2.6-1.8h3.6V3.6h-3.6c-4.5,0-8.2,3.3-8.2,7.4v16.8H26.1z"/>
</g>
<g>
	<rect x="58.5" y="16.4" width="5.6" height="11.5"/>
</g>
<g>
	<path d="M113.8,27.9V11.1c0-1,1.2-1.8,2.6-1.8h3.6V3.6h-3.6c-4.5,0-8.2,3.3-8.2,7.4v16.8H113.8z"/>
</g>
<g>
	<g>
		<path d="M10.9,20.4c0,1-1.2,1.8-2.6,1.8H8.2l-0.1,0l0,0l0.1,0c-1.4,0-2.6-0.8-2.6-1.8c0,0,0-9.4,0-9.4c0-1,1.2-1.8,2.6-1.8h0.1    l0.1,0l0,0l-0.1,0c1.4,0,2.6,0.8,2.6,1.8C10.9,11,10.9,20.4,10.9,20.4z M16.5,11c0-4.1-3.7-7.4-8.2-7.4H8.2l-0.1,0l0,0l0.1,0    C3.7,3.6,0,6.9,0,11c0,0,0,9.4,0,9.4c0,4.1,3.7,7.4,8.2,7.4h0.1l0.1,0l0,0l-0.1,0c4.5,0,8.2-3.3,8.2-7.4    C16.5,20.5,16.5,11,16.5,11z"/>
	</g>
	<g>
		<path d="M14.1,31.3"/>
	</g>
	<g>
		<path d="M6.5,21"/>
	</g>
	<g>
		<polygon points="8.4,23.7 14.1,31.2 18.6,27.9 13,20.3   "/>
	</g>
</g>
<g>
	<g>
		<path class="st0" fill="#BC152A" d="M63.6,4.6c0.3-0.4,0.6-0.7,1.1-0.9c0.4-0.2,0.9-0.3,1.3-0.3c0.8,0,1.4,0.3,1.9,0.9c0.5,0.6,0.8,1.3,0.8,2.1    c0,0.8-0.3,1.4-0.8,1.9c-0.5,0.5-1.2,0.7-2.1,0.7c-0.2,0-0.3,0-0.4,0c-0.1,0-0.3,0-0.4-0.1l-0.8-0.2c0,0,0,0.1-0.1,0.1    c0,0,0,0.1,0,0.1l0.8,0.3c0.6,0.2,1.1,0.6,1.5,1.1c0.4,0.5,0.6,1,0.6,1.6c0,0.7-0.3,1.4-0.9,2c-0.6,0.6-1.3,0.9-2.1,0.9    c-0.7,0-1.4-0.3-1.9-0.9c-0.5-0.6-0.8-1.2-0.8-2V11H61l0,0.9c0,0.8-0.3,1.5-0.8,2.1c-0.5,0.6-1.1,0.8-1.9,0.8    c-0.8,0-1.5-0.3-2.1-0.9c-0.6-0.6-0.9-1.2-0.9-2c0-0.6,0.2-1.1,0.6-1.7c0.4-0.5,0.9-0.9,1.4-1l0.8-0.3c0,0,0-0.1,0-0.1    c0-0.1,0-0.1,0-0.1l-0.8,0.3C57.1,9,57,9,56.9,9c-0.2,0-0.3,0-0.5,0c-0.8,0-1.5-0.3-2-0.8c-0.5-0.5-0.8-1.1-0.8-1.9    c0-0.8,0.3-1.5,0.8-2.1c0.5-0.6,1.2-0.9,1.9-0.9c0.5,0,0.9,0.1,1.3,0.3C58,4,58.4,4.3,58.7,4.6l0.5,0.7c0,0,0,0,0.1,0    c0,0,0.1-0.1,0.1-0.1l-0.5-0.7c-0.2-0.3-0.3-0.5-0.4-0.8c-0.1-0.3-0.1-0.6-0.1-0.9c0-0.8,0.3-1.4,0.8-1.9c0.5-0.5,1.2-0.8,2-0.8    c0.8,0,1.5,0.3,2,0.8c0.5,0.5,0.8,1.2,0.8,1.9c0,0.3,0,0.7-0.1,1c-0.1,0.3-0.2,0.6-0.4,0.8l-0.5,0.7c0,0,0.1,0.1,0.1,0.1    c0,0,0.1,0,0.1,0.1L63.6,4.6z M63.7,7.8c0-0.7-0.2-1.3-0.7-1.8c-0.5-0.5-1.1-0.7-1.8-0.7c-0.7,0-1.3,0.2-1.8,0.7    c-0.5,0.5-0.7,1.1-0.7,1.8c0,0.7,0.2,1.3,0.7,1.8c0.5,0.5,1.1,0.7,1.8,0.7c0.7,0,1.3-0.2,1.8-0.7C63.4,9.1,63.7,8.5,63.7,7.8z"/>
	</g>
</g>
</svg>