<?xml version="1.0" encoding="utf-8"?>
<!-- Generator: Adobe Illustrator 16.0.0, SVG Export Plug-In . SVG Version: 6.00 Build 0)  -->
<!DOCTYPE svg PUBLIC "-//W3C//DTD SVG 1.1//EN" "http://www.w3.org/Graphics/SVG/1.1/DTD/svg11.dtd">
<svg version="1.1" id="Layer_1" xmlns="http://www.w3.org/2000/svg" xmlns:xlink="http://www.w3.org/1999/xlink" x="0px" y="0px"
	 width="150.62px" height="34.682px" viewBox="0 0 150.62 34.682" enable-background="new 0 0 150.62 34.682" xml:space="preserve">
<path fill="#707A79" d="M48.103,27.931c-1.778,0-3.379-0.289-4.801-0.867c-1.424-0.578-2.628-1.394-3.611-2.445l3.235-3.339
	c1.776,1.64,3.64,2.459,5.591,2.459c0.604,0,1.095-0.12,1.475-0.363c0.38-0.24,0.57-0.568,0.57-0.983
	c0-0.172-0.039-0.331-0.117-0.479c-0.078-0.146-0.229-0.293-0.453-0.439s-0.53-0.311-0.919-0.492s-0.901-0.392-1.539-0.634
	c-0.726-0.275-1.376-0.565-1.955-0.867c-0.578-0.303-1.07-0.646-1.476-1.035c-0.404-0.389-0.721-0.832-0.944-1.333
	c-0.225-0.501-0.337-1.087-0.337-1.76c0-0.897,0.195-1.726,0.584-2.484c0.387-0.76,0.922-1.411,1.604-1.955
	c0.682-0.544,1.492-0.966,2.434-1.269c0.939-0.301,1.962-0.453,3.066-0.453c1.604,0,3.023,0.242,4.258,0.724
	c1.232,0.484,2.291,1.139,3.17,1.968l-3.105,3.468c-0.689-0.604-1.428-1.087-2.213-1.45c-0.785-0.361-1.643-0.543-2.575-0.543
	c-0.604,0-1.083,0.125-1.437,0.375c-0.354,0.25-0.53,0.556-0.53,0.918c0,0.19,0.043,0.349,0.13,0.479
	c0.086,0.129,0.236,0.264,0.453,0.401c0.215,0.139,0.521,0.293,0.918,0.466s0.906,0.38,1.527,0.621
	c0.689,0.259,1.323,0.544,1.901,0.854s1.075,0.66,1.489,1.048c0.413,0.389,0.738,0.841,0.971,1.359
	c0.232,0.518,0.348,1.113,0.348,1.785c0,0.933-0.189,1.781-0.568,2.549c-0.38,0.77-0.91,1.429-1.592,1.981
	c-0.682,0.552-1.497,0.979-2.445,1.281C50.259,27.78,49.224,27.931,48.103,27.931"/>
<path fill="#707A79" d="M60.426,27.931c-1.277,0-2.273-0.375-2.989-1.126s-1.074-1.772-1.074-3.066c0-0.38,0.035-0.781,0.104-1.204
	c0.068-0.422,0.164-0.858,0.285-1.308l2.044-7.609h4.917l-1.967,7.324c-0.051,0.191-0.094,0.39-0.129,0.597
	c-0.035,0.208-0.052,0.388-0.052,0.544c0,0.466,0.134,0.828,0.401,1.087c0.268,0.258,0.66,0.388,1.178,0.388
	c0.689,0,1.242-0.22,1.656-0.659c0.414-0.44,0.725-1.065,0.932-1.877l1.993-7.403h4.917l-3.727,14.002h-4.918l0.414-1.605
	c-0.482,0.501-1.061,0.945-1.733,1.334C62.004,27.737,61.254,27.931,60.426,27.931"/>
<path fill="#707A79" d="M74.056,13.618h4.917l-0.751,2.822c0.674-1,1.433-1.781,2.278-2.342c0.845-0.561,1.838-0.798,2.977-0.711
	l-1.397,5.176h-0.415c-1.345,0-2.455,0.388-3.325,1.165c-0.871,0.776-1.531,2.002-1.979,3.675l-1.14,4.219h-4.917L74.056,13.618z"/>
<path fill="#707A79" d="M84.57,13.333c0.431-1.708,1.14-2.933,2.123-3.675c0.983-0.742,2.277-1.113,3.882-1.113
	c0.604,0,1.16,0.039,1.67,0.116c0.509,0.078,0.996,0.195,1.462,0.35l-0.905,3.442c-0.259-0.086-0.54-0.159-0.842-0.219
	c-0.303-0.061-0.573-0.091-0.815-0.091c-0.501,0-0.889,0.108-1.165,0.324c-0.275,0.216-0.475,0.548-0.595,0.997l-0.077,0.232h3.156
	l-1.035,3.883h-3.054l-2.717,10.041H80.74L84.57,13.333z"/>
<path fill="#707A79" d="M93.631,13.618l5.875-3.545l-0.958,3.545h3.792l-2.863,3.961h-1.988l-1.19,4.398
	c-0.088,0.38-0.13,0.664-0.13,0.854c0,0.587,0.37,0.88,1.113,0.88c0.517,0,1.138-0.13,1.862-0.388l-1.086,4.088
	c-0.45,0.156-0.919,0.276-1.412,0.364c-0.49,0.086-0.987,0.129-1.487,0.129c-1.432,0-2.497-0.293-3.196-0.881
	c-0.698-0.586-1.049-1.397-1.049-2.433c0-0.293,0.021-0.586,0.064-0.88c0.044-0.293,0.108-0.613,0.194-0.957L93.631,13.618z"/>
<path fill="#707A79" d="M106.775,27.957c-1.069,0-2.026-0.168-2.873-0.504c-0.845-0.337-1.565-0.794-2.161-1.372
	c-0.595-0.578-1.048-1.265-1.359-2.057c-0.31-0.795-0.465-1.658-0.465-2.589c0-1.053,0.206-2.071,0.621-3.054
	c0.415-0.983,0.992-1.851,1.734-2.602s1.614-1.35,2.614-1.799c1-0.449,2.087-0.673,3.262-0.673c1.068,0,2.031,0.168,2.885,0.505
	c0.854,0.336,1.579,0.795,2.175,1.371c0.595,0.578,1.047,1.264,1.357,2.059c0.312,0.794,0.466,1.647,0.466,2.562
	c0,1.07-0.211,2.093-0.634,3.066c-0.423,0.976-1,1.843-1.733,2.603c-0.734,0.759-1.604,1.362-2.614,1.811
	C109.039,27.733,107.949,27.957,106.775,27.957 M107.063,23.894c0.479,0,0.919-0.117,1.32-0.353c0.403-0.234,0.744-0.54,1.027-0.913
	c0.281-0.374,0.499-0.791,0.653-1.252c0.153-0.462,0.231-0.927,0.231-1.396c0-0.799-0.223-1.434-0.667-1.903
	c-0.445-0.471-1.026-0.705-1.744-0.705c-0.479,0-0.919,0.117-1.321,0.352c-0.401,0.236-0.743,0.541-1.024,0.914
	c-0.283,0.373-0.502,0.791-0.655,1.253c-0.153,0.46-0.23,0.917-0.23,1.369c0,0.817,0.222,1.461,0.667,1.93
	C105.765,23.659,106.347,23.894,107.063,23.894"/>
<polygon fill="#707A79" points="115.647,13.618 120.384,13.618 120.331,20.658 124.395,13.567 128.433,13.567 128.717,20.709 
	132.496,13.618 137.283,13.618 129.184,27.725 124.989,27.725 124.653,20.452 120.384,27.725 116.139,27.725 "/>
<path fill="#707A79" d="M138.067,13.618h4.917l-0.438,1.605c0.481-0.5,1.065-0.945,1.746-1.333c0.682-0.389,1.436-0.583,2.265-0.583
	c1.277,0,2.273,0.375,2.989,1.126c0.717,0.75,1.074,1.773,1.074,3.066c0,0.381-0.038,0.781-0.117,1.203
	c-0.077,0.424-0.177,0.859-0.297,1.308l-2.02,7.609h-4.917l1.967-7.324c0.052-0.19,0.091-0.389,0.117-0.596
	c0.025-0.206,0.039-0.388,0.039-0.543c0-0.466-0.135-0.829-0.401-1.088c-0.268-0.257-0.652-0.388-1.152-0.388
	c-0.69,0-1.242,0.221-1.656,0.66s-0.733,1.065-0.958,1.877l-1.992,7.401h-4.918L138.067,13.618z"/>
<g>
	<path fill="#373736" d="M30.823,6.438c-0.257,3.322-1.254,7.108-4.101,10.322c-0.386,0.438-0.777,0.846-1.171,1.23
		c-0.188,0.186-0.377,0.363-0.567,0.537c-4.269,3.911-8.756,5.093-10.981,5.447c0.099,0.349,0.205,0.701,0.324,1.058
		c1.451,4.346,4.521,7.19,7.442,9.077c7.432-1.958,12.913-8.723,12.913-16.77C34.682,13.209,33.234,9.417,30.823,6.438z"/>
	<path fill="#249CDC" d="M12.148,9.507c0.571,0.116,1.121,0.251,1.652,0.399c0.254,0.071,0.503,0.146,0.748,0.223
		c5.522,1.741,8.789,5.038,10.208,6.787c0.252-0.261,0.504-0.527,0.753-0.809c3.036-3.427,3.968-7.506,4.142-10.977
		C26.509,1.962,22.155,0,17.341,0C9.958,0,3.656,4.617,1.155,11.12C4.16,9.679,7.94,8.648,12.148,9.507z"/>
	<path fill="#70227E" d="M13.153,25.755c-0.185-0.553-0.343-1.097-0.48-1.631c-0.065-0.256-0.125-0.508-0.181-0.759
		c-1.253-5.652-0.032-10.129,0.773-12.233c-0.352-0.089-0.709-0.173-1.078-0.249c-4.487-0.915-8.485,0.317-11.579,1.903
		C0.214,14.239,0,15.765,0,17.34c0,9.577,7.764,17.342,17.341,17.342c0.922,0,1.828-0.074,2.711-0.212
		C17.301,32.586,14.515,29.833,13.153,25.755z"/>
</g>
</svg>
