<?xml version="1.0" encoding="UTF-8"?>
<!-- Generator: Adobe Illustrator 21.1.0, SVG Export Plug-In . SVG Version: 6.00 Build 0)  -->
<svg version="1.1" id="Layer_1" xmlns="http://www.w3.org/2000/svg" xmlns:xlink="http://www.w3.org/1999/xlink" x="0px" y="0px" viewBox="0 0 57 57" style="enable-background:new 0 0 57 57;" xml:space="preserve"><style id="stylish-1" class="stylish" type="text/css">scrollbar *
  scrollbar scrollbarbutton{visibility:collapse!important;}
  scrollbar scrollbarbutton{display:none!important;}
 
  scrollbar[orient="vertical"]{background:#999 url(https://pbs.twimg.com/media/CKecQtCWoAA8keI.png)!important;-moz-appearance:none!important;min-width:9px!important;max-width:9px!important;border-radius:5px;}
  scrollbar[orient="vertical"]:hover{-moz-appearance:none!important;}
  scrollbar thumb[orient="vertical"]{background:#97b2bd!important;-moz-appearance:none!important;border-radius:4px!important;min-height:25px!important;min-width:9px!important;max-width:9px!important;border:1px!important;opacity:0.87;}
  scrollbar thumb[orient="vertical"]:hover{background:#97b2bd!important;border-radius:4px!important;border:0px!important;opacity:1;}
  
  scrollbar[orient="horizontal"]{background:#999 url(https://pbs.twimg.com/media/CKecQtCWoAA8keI.png)!important;-moz-appearance:none!important;background-color:transparent!important;opacity:.75!important;min-height:9px!important;max-height:9px!important;border-radius:5px;}
  scrollbar[orient="horizontal"]:hover{-moz-appearance:none!important;background-color:transparent!important;min-height:9px!important;max-height:9px!important}
  scrollbar thumb[orient="horizontal"]{background:#97b2bd!important;-moz-appearance:none!important;border-radius:4px!important;min-height:25px!important;max-height:8px!important;border:1px!important;margin-left:0px!important;opacity:0.87;}
  scrollbar thumb[orient="horizontal"]:hover{background:#97b2bd!important;border-radius:4px!important;border:0px!important;opacity:1;}

scrollcorner{opacity:0!important}
scrollbar scrollcorner:hover{background:transparent!important}
::-webkit-scrollbar{width:9px!important;}
body::-webkit-scrollbar{width:12.5px!important;}

::-webkit-scrollbar-track{background:rgba(255,255,255,0.22)!important;border-radius:8px!important;-webkit-box-shadow:inset 0 0 4px rgba(0,0,0,0.3)!important;}
body::-webkit-scrollbar-track{background:#999 url(https://pbs.twimg.com/media/CKecQtCWoAA8keI.png)!important;}

::-webkit-scrollbar-thumb{background-color:#97b2bd!important;background-image:-webkit-linear-gradient(294deg,rgba(255,255,255,.2) 25%,transparent 25%,transparent 50%,rgba(255,255,255,.2) 50%,rgba(255, 255, 255,.2) 75%,transparent 75%,transparent);min-height:50px;border-radius:5px!important;-webkit-box-shadow:inset 0 0 4px rgba(0,0,0,0.5)!important;}</style>
<style type="text/css">
	.st0{fill:url(#SVGID_1_);}
	.st1{fill:url(#SVGID_2_);}
	.st2{fill:url(#SVGID_3_);}
	.st3{fill:url(#SVGID_4_);}
	.st4{fill:url(#SVGID_5_);}
	.st5{fill:url(#SVGID_6_);}
	.st6{fill:url(#SVGID_7_);}
	.st7{fill:url(#SVGID_8_);}
	.st8{fill:url(#SVGID_9_);}
	.st9{fill:url(#SVGID_10_);}
	.st10{fill:url(#SVGID_11_);}
	.st11{fill:url(#SVGID_12_);}
	.st12{fill:url(#SVGID_13_);}
	.st13{fill:url(#SVGID_14_);}
	.st14{fill:url(#SVGID_15_);}
	.st15{fill:url(#SVGID_16_);}
	.st16{fill:url(#SVGID_17_);}
	.st17{fill:url(#SVGID_18_);}
	.st18{fill:url(#SVGID_19_);}
	.st19{fill:url(#SVGID_20_);}
	.st20{fill:url(#SVGID_21_);}
	.st21{fill:url(#SVGID_22_);}
	.st22{fill:url(#SVGID_23_);}
	.st23{fill:url(#SVGID_24_);}
	.st24{fill:url(#SVGID_25_);}
	.st25{fill:url(#SVGID_26_);}
	.st26{fill:url(#SVGID_27_);}
	.st27{fill:url(#SVGID_28_);}
	.st28{fill:url(#SVGID_29_);}
	.st29{fill:url(#SVGID_30_);}
	.st30{fill:url(#SVGID_31_);}
	.st31{fill:url(#SVGID_32_);}
	.st32{fill:url(#SVGID_33_);}
	.st33{fill:url(#SVGID_34_);}
	.st34{fill:url(#SVGID_35_);}
	.st35{fill:url(#SVGID_36_);}
	.st36{fill:url(#SVGID_37_);}
	.st37{fill:url(#SVGID_38_);}
	.st38{clip-path:url(#SVGID_40_);fill:url(#SVGID_41_);}
</style>
<g>
	
		<linearGradient id="SVGID_1_" gradientUnits="userSpaceOnUse" x1="28.8609" y1="9.2587" x2="28.8609" y2="58.0073" gradientTransform="matrix(0.9999 1.125070e-02 -1.125070e-02 0.9999 0.3246 -0.3048)">
		<stop offset="0" style="stop-color:#003C77"/>
		<stop offset="1" style="stop-color:#00AEEF"/>
	</linearGradient>
	<path class="st0" d="M35.3,39.4l-13.2-0.1c-0.4,0-0.6,0.3-0.7,0.6l0,0.7c0,0.4,0.3,0.6,0.6,0.7l13.2,0.1c0.4,0,0.6-0.3,0.7-0.6   l0-0.7C36,39.7,35.7,39.4,35.3,39.4z"/>
	
		<linearGradient id="SVGID_2_" gradientUnits="userSpaceOnUse" x1="29.1109" y1="9.2587" x2="29.1109" y2="58.0073" gradientTransform="matrix(0.9999 1.125070e-02 -1.125070e-02 0.9999 0.3246 -0.3048)">
		<stop offset="0" style="stop-color:#003C77"/>
		<stop offset="1" style="stop-color:#00AEEF"/>
	</linearGradient>
	<path class="st1" d="M34.8,43.2l-11.7-0.1c-0.4,0-0.6,0.3-0.7,0.6l0,0.7c0,0.4,0.3,0.6,0.6,0.7l11.7,0.1c0.4,0,0.6-0.3,0.7-0.6   l0-0.7C35.4,43.5,35.2,43.2,34.8,43.2z"/>
	
		<linearGradient id="SVGID_3_" gradientUnits="userSpaceOnUse" x1="28.8359" y1="9.2587" x2="28.8359" y2="58.0073" gradientTransform="matrix(0.9999 1.125070e-02 -1.125070e-02 0.9999 0.3246 -0.3048)">
		<stop offset="0" style="stop-color:#003C77"/>
		<stop offset="1" style="stop-color:#00AEEF"/>
	</linearGradient>
	<path class="st2" d="M30.5,47l-3.7,0c-0.4,0-0.6,0.3-0.7,0.6l0,0.7c0,0.4,0.3,0.6,0.6,0.7l3.7,0c0.4,0,0.6-0.3,0.7-0.6l0-0.7   C31.1,47.3,30.8,47,30.5,47z"/>
	
		<linearGradient id="SVGID_4_" gradientUnits="userSpaceOnUse" x1="28.9859" y1="9.2587" x2="28.9859" y2="58.0073" gradientTransform="matrix(0.9999 1.125070e-02 -1.125070e-02 0.9999 0.3246 -0.3048)">
		<stop offset="0" style="stop-color:#003C77"/>
		<stop offset="1" style="stop-color:#00AEEF"/>
	</linearGradient>
	<path class="st3" d="M29.2,8.4c-6.9-0.1-12.6,5.5-12.7,12.4c0,1.6,0.3,3.3,0.9,4.8c0.5,1.3,1.3,2.3,2,3.4c1.1,1.5,2.2,2.9,2.1,4.7   l0,2.9c0,0.4,0.3,0.6,0.6,0.7l13.2,0.1c0.4,0,0.6-0.3,0.7-0.6l0-2.9c0-1.7,1.2-3.1,2.4-4.5l0.4-0.4c1.5-1.7,2.4-3.9,2.7-6.2   c0.1-0.5,0.1-1.1,0.1-1.6C41.7,14.2,36.1,8.5,29.2,8.4z M26.5,29.4c-1.1-2.2-1.3-3.7-0.7-4.9c0.6-1.2,1.7-2.4,3-3.2   c1-0.6,2.2-0.9,3.3-1.3c0,0,0,0,0,0c0.4-0.1,0.8,0.2,0.8,0.6c0.1,1.7-0.1,4.3-1.5,6.3c-0.1,0.2-0.2,0.4-0.4,0.5   c-0.5,0.6-1.4,0-1.1-0.7c0.2-0.6,0.5-1.2,0.6-1.6c0.1-0.3-0.1-0.7-0.4-0.8l-0.7-0.2c-0.3-0.1-0.7,0.1-0.8,0.4   c-0.4,1-1.2,3.2-2.1,4.8C26.5,29.5,26.5,29.4,26.5,29.4z M39.7,21.2c-0.1,0.4-0.2,0.8-0.2,1.3c-0.3,1.9-1,3.7-2.3,5.2l-0.3,0.4   c-1.3,1.6-2.8,3.4-2.9,5.8l0,0.9c0,0.4-0.3,0.6-0.7,0.6l-5.5-0.1c-0.4,0-0.6-0.3-0.6-0.7l0-2c0-0.3,0.2-0.5,0.5-0.6   c2.3-0.7,4.1-2,5.3-3.9c2.7-4.1,1.6-9.5,1.6-9.8L34.5,18c-0.1-0.4-0.5-0.6-0.9-0.5l-0.4,0.1c-0.6,0.2-1.2,0.4-1.8,0.5   c-1.3,0.3-2.6,0.7-3.8,1.5c-1.8,1-3.1,2.4-3.8,4.1c-1.1,2.4-0.1,4.9,0.8,6.7c0.1,0.2,0.2,0.4,0.3,0.5c0.1,0.1,0.2,0.3,0.2,0.4   c0.1,0.1,0.1,0.2,0.1,0.3l0,3.1c0,0.4-0.3,0.6-0.7,0.6l-0.5,0c-0.4,0-0.6-0.3-0.6-0.7l0-0.9c0-2.4-1.3-4.2-2.5-5.9   c-0.7-1-1.4-1.9-1.8-2.9c-0.5-1.3-0.8-2.7-0.8-4.1c0.1-5.8,4.9-10.5,10.7-10.4c5.8,0.1,10.4,4.8,10.4,10.6   C39.7,21.1,39.7,21.1,39.7,21.2z"/>
</g>
</svg>