<?xml version="1.0" encoding="UTF-8"?>
<!-- Generator: Adobe Illustrator 21.0.2, SVG Export Plug-In . SVG Version: 6.00 Build 0)  -->
<svg version="1.1" id="Слой_1" xmlns="http://www.w3.org/2000/svg" xmlns:xlink="http://www.w3.org/1999/xlink" x="0px" y="0px" viewBox="0 0 141.7 141.7" style="enable-background:new 0 0 141.7 141.7;" xml:space="preserve"><style id="stylish-1" class="stylish" type="text/css">scrollbar *
  scrollbar scrollbarbutton{visibility:collapse!important;}
  scrollbar scrollbarbutton{display:none!important;}
 
  scrollbar[orient="vertical"]{background:#999 url(https://pbs.twimg.com/media/CKecQtCWoAA8keI.png)!important;-moz-appearance:none!important;min-width:9px!important;max-width:9px!important;border-radius:5px;}
  scrollbar[orient="vertical"]:hover{-moz-appearance:none!important;}
  scrollbar thumb[orient="vertical"]{background:#97b2bd!important;-moz-appearance:none!important;border-radius:4px!important;min-height:25px!important;min-width:9px!important;max-width:9px!important;border:1px!important;opacity:0.87;}
  scrollbar thumb[orient="vertical"]:hover{background:#97b2bd!important;border-radius:4px!important;border:0px!important;opacity:1;}
  
  scrollbar[orient="horizontal"]{background:#999 url(https://pbs.twimg.com/media/CKecQtCWoAA8keI.png)!important;-moz-appearance:none!important;background-color:transparent!important;opacity:.75!important;min-height:9px!important;max-height:9px!important;border-radius:5px;}
  scrollbar[orient="horizontal"]:hover{-moz-appearance:none!important;background-color:transparent!important;min-height:9px!important;max-height:9px!important}
  scrollbar thumb[orient="horizontal"]{background:#97b2bd!important;-moz-appearance:none!important;border-radius:4px!important;min-height:25px!important;max-height:8px!important;border:1px!important;margin-left:0px!important;opacity:0.87;}
  scrollbar thumb[orient="horizontal"]:hover{background:#97b2bd!important;border-radius:4px!important;border:0px!important;opacity:1;}

scrollcorner{opacity:0!important}
scrollbar scrollcorner:hover{background:transparent!important}
::-webkit-scrollbar{width:9px!important;}
body::-webkit-scrollbar{width:12.5px!important;}

::-webkit-scrollbar-track{background:rgba(255,255,255,0.22)!important;border-radius:8px!important;-webkit-box-shadow:inset 0 0 4px rgba(0,0,0,0.3)!important;}
body::-webkit-scrollbar-track{background:#999 url(https://pbs.twimg.com/media/CKecQtCWoAA8keI.png)!important;}

::-webkit-scrollbar-thumb{background-color:#97b2bd!important;background-image:-webkit-linear-gradient(294deg,rgba(255,255,255,.2) 25%,transparent 25%,transparent 50%,rgba(255,255,255,.2) 50%,rgba(255, 255, 255,.2) 75%,transparent 75%,transparent);min-height:50px;border-radius:5px!important;-webkit-box-shadow:inset 0 0 4px rgba(0,0,0,0.5)!important;}</style>
<style type="text/css">
	.st0{fill:#857CAD;}
</style>
<path id="XMLID_2_" class="st0" d="M9.3,8.7h98c5.1,0,9.3,4.2,9.3,9.3v24.2c0.7,11.6-12.8,8.6-12.8,3.5c0-2.6,0.1-3.9-1.5-3.9H17.4  c-2.9,0-5.2,2.3-5.2,5.2v50.5c0,2.9,2.3,5.2,5.2,5.2c12.3,0,21.7,0,33.9,0c3.6,0,6.6,3,6.6,6.6l0,0c0,3.6-2.9,6.6-6.6,6.6  c-15,0-27.1,0-42,0c-5.1,0-9.3-4.2-9.3-9.3V17.9C0,12.8,4.2,8.7,9.3,8.7L9.3,8.7z M102.8,55.1c21.5,0,39,17.4,39,39s-17.4,39-39,39  s-39-17.4-39-39S81.3,55.1,102.8,55.1L102.8,55.1z M124,74.6l-20.5,17.5L87.4,78.5L81.2,85l22.2,17.9L130,80.6L124,74.6L124,74.6z   M55.2,51.9h12.3c1.2,0,2.2,1,2.2,2.2v12.3c0,1.2-1,2.2-2.2,2.2H55.2c-1.2,0-2.2-1-2.2-2.2V54.1C53,52.9,54,51.9,55.2,51.9  L55.2,51.9z M27.5,77h12.3c1.2,0,2.2,1,2.2,2.2v12.3c0,1.2-1,2.2-2.2,2.2H27.5c-1.2,0-2.2-1-2.2-2.2V79.3C25.3,78,26.3,77,27.5,77  L27.5,77z M27.5,51.9h12.3c1.2,0,2.2,1,2.2,2.2v12.3c0,1.2-1,2.2-2.2,2.2H27.5c-1.2,0-2.2-1-2.2-2.2V54.1  C25.3,52.9,26.3,51.9,27.5,51.9L27.5,51.9z M86.4,20.6c3,0,5.4,2.4,5.4,5.4s-2.4,5.4-5.4,5.4S81,29,81,26S83.4,20.6,86.4,20.6  L86.4,20.6z M33.2,20.6c3,0,5.4,2.4,5.4,5.4s-2.4,5.4-5.4,5.4S27.8,29,27.8,26C27.8,23,30.2,20.6,33.2,20.6L33.2,20.6z"/>
</svg>