<?xml version="1.0" encoding="utf-8"?>
<!-- Generator: Adobe Illustrator 21.1.0, SVG Export Plug-In . SVG Version: 6.00 Build 0)  -->
<svg version="1.1" id="Layer_1" xmlns="http://www.w3.org/2000/svg" xmlns:xlink="http://www.w3.org/1999/xlink" x="0px" y="0px"
	 viewBox="0 0 120 120" style="enable-background:new 0 0 120 120;" xml:space="preserve">
<style type="text/css">
	.st0{clip-path:url(#SVGID_2_);}
	.st1{fill:#E2E3E5;}
	.st2{fill:#5E616A;}
	.st3{fill:#231F20;}
	.st4{fill:#A1E7FF;}
	.st5{fill:#C3F0FF;}
	.st6{fill:#161515;}
	.st7{clip-path:url(#SVGID_4_);}
	.st8{fill:#EBC0A4;}
	.st9{opacity:0.2;}
	.st10{fill:#FFFFFF;}
	.st11{fill:#EF3958;}
	.st12{fill:none;stroke:#161616;stroke-width:0.4;stroke-linecap:round;stroke-linejoin:round;}
</style>
<title>4boxes-20170406-rowena</title>
<g id="Layer_8">
	<g>
		<defs>
			<circle id="SVGID_1_" cx="60" cy="60" r="60"/>
		</defs>
		<clipPath id="SVGID_2_">
			<use xlink:href="#SVGID_1_"  style="overflow:visible;"/>
		</clipPath>
		<g class="st0">
			<circle class="st1" cx="60" cy="60" r="60"/>
			<rect y="80" class="st2" width="120" height="40"/>
		</g>
	</g>
	<rect x="18.5" y="34.9" class="st3" width="83" height="46.4"/>
	<rect x="21.3" y="37.9" class="st4" width="77.5" height="40.6"/>
	<polygon class="st5" points="43.3,78.4 32.9,78.4 70.9,37.9 81.3,37.9 	"/>
	<polyline class="st5" points="57.2,78.4 95.3,37.9 98.7,37.9 60.7,78.4 	"/>
	<rect x="48.6" y="85" class="st3" width="22.8" height="2.1"/>
	<rect x="52.6" y="81.4" class="st6" width="14.8" height="3.7"/>
	<g>
		<defs>
			<circle id="SVGID_3_" cx="60" cy="60" r="60"/>
		</defs>
		<clipPath id="SVGID_4_">
			<use xlink:href="#SVGID_3_"  style="overflow:visible;"/>
		</clipPath>
		<g class="st7">
			<path class="st8" d="M99.3,97.1l7.6,11.9l-11.4,7.4l-7.6-11.6c-2,0.6-4.2-0.4-5-2.4l4.8-4.6l4.4-1.8l2.5-1.4L99.3,97.1z"/>
			<path class="st8" d="M72.8,75c0-1.3,1-2.3,2.3-2.3c0.4,0,0.8,0.1,1.2,0.3l2.7,1.3l0,0c1.1,0.7,1.4,2.1,0.8,3.2
				c-0.6,0.9-1.7,1.3-2.8,1l0,0L74.1,77l0,0C73.3,76.7,72.8,75.9,72.8,75z"/>
			<path class="st6" d="M93.1,105.6H78.4c-1.1,0-2-0.9-2-2V61c0-1.1,0.9-2,2-2h14.6c1.1,0,2,0.9,2,2v42.7
				C95.1,104.8,94.2,105.6,93.1,105.6z"/>
			<g class="st9">
				<ellipse class="st10" cx="91.3" cy="90.2" rx="1.5" ry="1.1"/>
			</g>
			<g class="st9">
				<ellipse class="st10" cx="85.8" cy="90.2" rx="1.5" ry="1.1"/>
			</g>
			<g class="st9">
				<ellipse class="st10" cx="80.2" cy="90.2" rx="1.5" ry="1.1"/>
			</g>
			<g class="st9">
				<ellipse class="st10" cx="91.3" cy="93.9" rx="1.5" ry="1.1"/>
			</g>
			<g class="st9">
				<ellipse class="st10" cx="85.8" cy="93.9" rx="1.5" ry="1.1"/>
			</g>
			<g class="st9">
				<ellipse class="st10" cx="80.2" cy="93.9" rx="1.5" ry="1.1"/>
			</g>
			<g class="st9">
				<ellipse class="st10" cx="91.3" cy="97.6" rx="1.5" ry="1.1"/>
			</g>
			<g class="st9">
				<ellipse class="st10" cx="85.8" cy="97.6" rx="1.5" ry="1.1"/>
			</g>
			<g class="st9">
				<ellipse class="st10" cx="85.8" cy="101.4" rx="1.5" ry="1.1"/>
			</g>
			<g class="st9">
				<ellipse class="st10" cx="80.2" cy="97.6" rx="1.5" ry="1.1"/>
			</g>
			<circle class="st11" cx="91.3" cy="62.7" r="1.5"/>
			<g id="_Group_" class="st9">
				<circle class="st10" cx="85.8" cy="71.7" r="2.1"/>
			</g>
			<g id="_Group_2" class="st9">
				<path class="st10" d="M89.1,76.4c-1.9,1.7-4.7,1.7-6.6,0c-0.1-0.1-0.1-0.2,0-0.3c0,0,0,0,0,0l1.6-1.6c1,1,2.5,1,3.5,0
					c0,0,0,0,0,0l1.6,1.6C89.2,76.2,89.2,76.3,89.1,76.4C89.1,76.4,89.1,76.4,89.1,76.4z"/>
			</g>
			<g id="_Group_3" class="st9">
				<path class="st10" d="M82.5,67c1.9-1.7,4.7-1.7,6.6,0c0.1,0.1,0.1,0.2,0,0.3c0,0,0,0,0,0l-1.6,1.6c-1-1-2.5-1-3.5,0c0,0,0,0,0,0
					l-1.6-1.6C82.4,67.2,82.4,67.1,82.5,67C82.5,67,82.5,67,82.5,67z"/>
			</g>
			<g id="_Group_4" class="st9">
				<path class="st10" d="M81.1,75c-1.7-1.9-1.7-4.7,0-6.6c0.1-0.1,0.2-0.1,0.3,0c0,0,0,0,0,0l1.6,1.6c-1,1-1,2.5,0,3.5c0,0,0,0,0,0
					L81.4,75C81.3,75.1,81.2,75.1,81.1,75C81.1,75,81.1,75,81.1,75z"/>
			</g>
			<g id="_Group_5" class="st9">
				<path class="st10" d="M90.5,68.4c1.7,1.9,1.7,4.7,0,6.6c-0.1,0.1-0.2,0.1-0.3,0c0,0,0,0,0,0l-1.6-1.6c1-1,1-2.5,0-3.5
					c0,0,0,0,0,0l1.6-1.6C90.3,68.3,90.4,68.3,90.5,68.4C90.5,68.4,90.5,68.4,90.5,68.4z"/>
			</g>
			<polyline id="_Path_" class="st12" points="86.4,76.2 85.8,76.7 85.2,76.2 			"/>
			<polyline id="_Path_2" class="st12" points="85.2,67.2 85.8,66.6 86.4,67.2 			"/>
			<polyline id="_Path_3" class="st12" points="81.3,72.3 80.8,71.7 81.3,71 			"/>
			<polyline id="_Path_4" class="st12" points="90.3,71 90.8,71.7 90.3,72.3 			"/>
			<g id="_Group_6" class="st9">
				<path class="st10" d="M87.3,80.2c-0.1,0-0.3,0-0.4,0.1c-0.9,0.2-1.8,0.2-2.6,0c-0.6-0.2-1.2,0-1.4,0.6c-0.1,0.1-0.1,0.3-0.1,0.4
					c0,0.6,0.5,1.1,1.1,1.1c1.1,0.1,2.3,0.1,3.4,0c0.6,0,1.1-0.5,1.1-1.1C88.4,80.7,88,80.2,87.3,80.2
					C87.4,80.2,87.4,80.2,87.3,80.2z"/>
			</g>
			<g id="_Group_7" class="st9">
				<g id="_Group_8">
					<path class="st10" d="M84.9,83.5c-0.2-0.2-0.4-0.2-0.6-0.2h-1.1c-0.2,0-0.4,0.1-0.5,0.2c-0.2,0.2-0.4,0.5-0.3,0.8
						c0,0.3,0.1,0.6,0.3,0.8c0.2,0.2,0.4,0.2,0.6,0.2h1.1c0.2,0,0.4-0.1,0.5-0.2c0.2-0.2,0.4-0.5,0.3-0.8
						C85.2,84,85.1,83.7,84.9,83.5z"/>
				</g>
				<g id="_Group_9">
					<path class="st10" d="M88.6,83.5c-0.2-0.2-0.4-0.2-0.6-0.2h-1.1c-0.2,0-0.4,0.1-0.5,0.2c-0.2,0.2-0.4,0.5-0.3,0.8
						c0,0.3,0.1,0.6,0.3,0.8c0.2,0.2,0.4,0.2,0.6,0.2H88c0.2,0,0.4-0.1,0.5-0.2c0.2-0.2,0.4-0.5,0.3-0.8
						C88.9,84,88.8,83.7,88.6,83.5z"/>
				</g>
			</g>
			<g id="_Group_10" class="st9">
				<path class="st10" d="M80.9,83.4c-0.4-0.4-0.5-0.9-0.3-1.4l0,0c0.5-0.6,0.4-1.4-0.2-1.9c-0.6-0.5-1.4-0.4-1.9,0.2
					c-0.4,0.5-0.4,1.3,0.1,1.8c0.4,0.3,0.6,0.9,0.3,1.4l0,0v0.1l0,0c-0.4,0.6-0.3,1.5,0.3,1.9c0.6,0.4,1.5,0.3,1.9-0.3
					C81.5,84.6,81.4,83.9,80.9,83.4L80.9,83.4z"/>
			</g>
			<g id="_Group_11" class="st9">
				<path class="st10" d="M90.5,83.1c0.4-0.4,0.5-1,0.3-1.5l0,0c-0.5-0.6-0.4-1.4,0.2-1.9c0.6-0.5,1.4-0.4,1.9,0.2
					c0.4,0.5,0.4,1.3-0.1,1.8c-0.4,0.3-0.6,0.9-0.3,1.4l0,0v0.1l0,0c0.4,0.6,0.3,1.5-0.3,1.9c-0.6,0.4-1.5,0.3-1.9-0.3
					C89.9,84.3,89.9,83.5,90.5,83.1L90.5,83.1z"/>
			</g>
			<path class="st8" d="M94.7,78.6c1.1-0.1,2.1,0.6,2.4,1.7l0,0l3.5,13.7l0,0c0.6,1.6-0.3,3.3-1.8,3.8c-0.3,0.1-0.5,0.1-0.8,0.2
				c-1.7,0.1-2.4,0.7-2.6-0.9l-2.9-15.9C92.5,79.8,93.4,78.7,94.7,78.6C94.7,78.6,94.7,78.6,94.7,78.6z"/>
			<path class="st8" d="M73.7,82.4c0-1.3,1-2.3,2.3-2.3c0.4,0,0.8,0.1,1.2,0.3l2.7,1.3l0,0c1.1,0.7,1.4,2.1,0.8,3.2
				c-0.6,0.9-1.7,1.3-2.8,1l0,0L75,84.5l0,0C74.2,84.1,73.7,83.3,73.7,82.4z"/>
			<path class="st8" d="M73.7,88c0-1.3,1-2.3,2.3-2.3c0.4,0,0.8,0.1,1.2,0.3l2.7,1.3l0,0c1.1,0.7,1.4,2.1,0.8,3.2
				c-0.6,0.9-1.7,1.3-2.8,1l0,0L75,90.1l0,0C74.2,89.7,73.7,88.9,73.7,88z"/>
			<path class="st8" d="M73.7,93.6c0-1.3,1-2.3,2.3-2.3c0.4,0,0.8,0.1,1.2,0.3l2.7,1.3l0,0c1.1,0.7,1.4,2.1,0.8,3.2
				c-0.6,0.9-1.7,1.3-2.8,1l0,0L75,95.7l0,0C74.2,95.3,73.7,94.5,73.7,93.6z"/>
		</g>
	</g>
</g>
</svg>
