<?xml version="1.0" encoding="UTF-8"?>
<!-- Generator: Adobe Illustrator 22.0.0, SVG Export Plug-In . SVG Version: 6.00 Build 0)  -->
<svg version="1.1" xmlns="http://www.w3.org/2000/svg" xmlns:xlink="http://www.w3.org/1999/xlink" x="0px" y="0px" viewBox="0 0 250 265" style="enable-background:new 0 0 250 265;" xml:space="preserve"><style id="stylish-1" class="stylish" type="text/css">scrollbar *
  scrollbar scrollbarbutton{visibility:collapse!important;}
  scrollbar scrollbarbutton{display:none!important;}
 
  scrollbar[orient="vertical"]{background:#999 url(https://pbs.twimg.com/media/CKecQtCWoAA8keI.png)!important;-moz-appearance:none!important;min-width:9px!important;max-width:9px!important;border-radius:5px;}
  scrollbar[orient="vertical"]:hover{-moz-appearance:none!important;}
  scrollbar thumb[orient="vertical"]{background:#97b2bd!important;-moz-appearance:none!important;border-radius:4px!important;min-height:25px!important;min-width:9px!important;max-width:9px!important;border:1px!important;opacity:0.87;}
  scrollbar thumb[orient="vertical"]:hover{background:#97b2bd!important;border-radius:4px!important;border:0px!important;opacity:1;}
  
  scrollbar[orient="horizontal"]{background:#999 url(https://pbs.twimg.com/media/CKecQtCWoAA8keI.png)!important;-moz-appearance:none!important;background-color:transparent!important;opacity:.75!important;min-height:9px!important;max-height:9px!important;border-radius:5px;}
  scrollbar[orient="horizontal"]:hover{-moz-appearance:none!important;background-color:transparent!important;min-height:9px!important;max-height:9px!important}
  scrollbar thumb[orient="horizontal"]{background:#97b2bd!important;-moz-appearance:none!important;border-radius:4px!important;min-height:25px!important;max-height:8px!important;border:1px!important;margin-left:0px!important;opacity:0.87;}
  scrollbar thumb[orient="horizontal"]:hover{background:#97b2bd!important;border-radius:4px!important;border:0px!important;opacity:1;}

scrollcorner{opacity:0!important}
scrollbar scrollcorner:hover{background:transparent!important}
::-webkit-scrollbar{width:9px!important;}
body::-webkit-scrollbar{width:12.5px!important;}

::-webkit-scrollbar-track{background:rgba(255,255,255,0.22)!important;border-radius:8px!important;-webkit-box-shadow:inset 0 0 4px rgba(0,0,0,0.3)!important;}
body::-webkit-scrollbar-track{background:#999 url(https://pbs.twimg.com/media/CKecQtCWoAA8keI.png)!important;}

::-webkit-scrollbar-thumb{background-color:#97b2bd!important;background-image:-webkit-linear-gradient(294deg,rgba(255,255,255,.2) 25%,transparent 25%,transparent 50%,rgba(255,255,255,.2) 50%,rgba(255, 255, 255,.2) 75%,transparent 75%,transparent);min-height:50px;border-radius:5px!important;-webkit-box-shadow:inset 0 0 4px rgba(0,0,0,0.5)!important;}</style>
<style type="text/css">
	.st0{fill:url(#SVGID_1_);}
	.st1{fill:url(#SVGID_2_);}
	.st2{fill:url(#SVGID_3_);}
	.st3{opacity:0.3;fill:url(#SVGID_4_);}
	.st4{fill:url(#SVGID_5_);stroke:url(#SVGID_6_);stroke-width:0.25;stroke-miterlimit:10;}
	.st5{fill:url(#SVGID_7_);stroke:url(#SVGID_8_);stroke-width:0.25;stroke-miterlimit:10;}
	.st6{fill:url(#SVGID_9_);stroke:url(#SVGID_10_);stroke-width:0.25;stroke-miterlimit:10;}
	.st7{fill:url(#SVGID_11_);stroke:url(#SVGID_12_);stroke-width:0.25;stroke-miterlimit:10;}
	.st8{fill:url(#SVGID_13_);stroke:url(#SVGID_14_);stroke-width:0.25;stroke-miterlimit:10;}
	.st9{fill:url(#SVGID_15_);stroke:url(#SVGID_16_);stroke-width:0.1;stroke-miterlimit:10;}
	.st10{opacity:0.21;}
	.st11{fill:#FFFFFF;}
	.st12{fill:url(#SVGID_17_);}
	.st13{fill:url(#SVGID_18_);stroke:url(#SVGID_19_);stroke-width:0.25;stroke-miterlimit:10;}
	.st14{opacity:0.59;fill:url(#SVGID_20_);stroke:url(#SVGID_21_);stroke-width:0.25;stroke-miterlimit:10;}
	.st15{fill:none;}
	.st16{fill:#2CD7FF;}
	.st17{font-family:'AndaleMono';}
	.st18{font-size:3.5719px;}
	.st19{font-size:16.6476px;}
	.st20{letter-spacing:-1.6;}
	.st21{fill:none;stroke:#1B71EF;stroke-miterlimit:10;}
	.st22{fill:url(#SVGID_22_);}
	.st23{fill:url(#SVGID_23_);}
	.st24{fill:url(#SVGID_24_);}
	.st25{opacity:0.3;fill:url(#SVGID_25_);}
	.st26{fill:url(#SVGID_26_);stroke:url(#SVGID_27_);stroke-width:0.25;stroke-miterlimit:10;}
	.st27{fill:url(#SVGID_28_);stroke:url(#SVGID_29_);stroke-width:0.25;stroke-miterlimit:10;}
	.st28{fill:url(#SVGID_30_);stroke:url(#SVGID_31_);stroke-width:0.25;stroke-miterlimit:10;}
	.st29{fill:url(#SVGID_32_);stroke:url(#SVGID_33_);stroke-width:0.25;stroke-miterlimit:10;}
	.st30{fill:url(#SVGID_34_);stroke:url(#SVGID_35_);stroke-width:0.25;stroke-miterlimit:10;}
	.st31{fill:url(#SVGID_36_);stroke:url(#SVGID_37_);stroke-width:0.1;stroke-miterlimit:10;}
	.st32{fill:url(#SVGID_38_);}
	.st33{fill:url(#SVGID_39_);stroke:url(#SVGID_40_);stroke-width:0.25;stroke-miterlimit:10;}
	.st34{opacity:0.59;fill:url(#SVGID_41_);stroke:url(#SVGID_42_);stroke-width:0.25;stroke-miterlimit:10;}
</style>
<g>
	<g>

			<image style="overflow:visible;" width="224" height="156" xlink:href="data:image/png;base64,iVBORw0KGgoAAAANSUhEUgAAAOAAAACcCAYAAABmzadbAAAACXBIWXMAAAsSAAALEgHS3X78AAAA GXRFWHRTb2Z0d2FyZQBBZG9iZSBJbWFnZVJlYWR5ccllPAAAG8lJREFUeNrsndmS27quhknJnXSf y1VJ7fd/vF3J9U6vtEUcSyYtEAQ4aPAIVjl2y3NHX//4AZA0RocOHTp06HjFYfVXoOMJz0lQAHXo uK/zDxRAHQrc/QzQX4gOBW6b58OjwqgA6riHc2qv8xDuHUYFUMe1zyW74evCjnCBAqjjlaDb+lyE jQADBVDHI4JnNzrvtlJAuAKsCqCOh4Pu2v7vrkBUAHXsCZ5dcWxr+OBKkCqAOq52ftTAdG0Ia0CD ewFRAdSxB3h2Iyi3ADD3MyyAd1MIFUAde4FnVwBaug8WAgg7gAgKoI57Bc8uALX1vCzBwt1eAuUu ECqACt6e4NUeY97rP/7aMZ+h8yf8f2uULwfg3uqoAOpY9H+/BLzcsYrH/BzP44Xno/UA/KoFDhog 3RVCBVDB2wo8el8BQgwcVrlWCC2kyjiO3xgkWAjk7hAqgAreVuBx1+TYDwIc2BS6pQBiEMPtEcjx 9i8K1RI4ayBUAHWs9nlrwGOOYehAAI8Dkf0MUAaQuw7K+BsKALZCuFoFFUBVva3Bs3N4SaHjbhsJ vsoeUEsgweCFCwYxUsQlMG4KoQKo4G0IHlU7FjoMHIWP+dwYTCuEfBhCelsCUVTDNYqoACp4i3ze CvB+2lntMGgRgAQ6DFxRCU/j/06X/0nJFwwhuY2v6UVUw6tCqACqz7PrwQMBPsNcJyCi1/yoTMIE +P5klE+65kD8DQKEHHQKoI5dw81G8KQwE7oCdKfLe6UCmgr1+0TQZAF0KyDcXAUVQAWv4Ouox3NW DjNL1xF0jAImANqKxAujfp9OANDNtzsnQOgWeEMFUMHbzOfR2wi8AIjrCuB1FdBZ3hNmv6Pg+6yg fhhEy9ymEPann39dVQUPej6rz5PBo+WEcBkBpAABPuZvf/f3OwQmhZBmRPHnfvO3v6RWMX8BDCFS sHcPKfaK0/3dGcLxe4wQchlXESRrNpyUqwr4GuDV+rzQJib4PCDqxoH3zihg8rON33P8+VuFBwyh 5l+iehflc3G4icPOUQ3pMetiTzjCWPSDrSoICqD6vEqflwWPwJYFr4vDUXyNgWOVUPretNzgofmL 4KMgTsAR2D4xhC5OzISQdILQLUjKNIehGoK+FniM2mGfN6wAzyHwEuj88TcEoaOKKH1+enKTy5u/ /rJneMD55zr0Oi5+CevQ53PMHwAwdZ04Fj12UViqAGqCxcMwSJnNjrnNgUfVD0H4Ro5zIaj/XNIZ eQzqBhhEpFLje4xg/fXXwMA3jtEXfoa3c+hzwPlzjO8xfqcfBs2okP4/oOG4AvgiCZYFPg9nNVl/ Vwseho48l6qh/ywHGoJyp+QA58Nwhu14AdAr2AScf503d365URHBIZGC+TEfp8sf8kcgq4JQAdki FVQAX9bnDZnMJhdyvncN4An3eQAPOBFzICc/MImXHqne8QSj94FHwArmYphGEL8wfJ1/G0gVWFLB KNSUPF0NeOJjFED1eYLaReAFQPF9EngdUbvOK51/7oEpYYhKTkPO8ZSdw87D6bscL9AQxRvHmzmX MKbPYJBqnsYH8CpoEYTj7+v3rkvTK4Dq8xjowvX3Diljh8BDcCXgUeg6r3I0FI07YUD4vVhDulwu iZNRGcf3ON0eJmFkciJB+WD+DgEwSQUBQZgNQzfxgQrgY/q8BYX0Fp/3nUJnU8BE8LpY7SBNyoDJ ZEAPl6zLdBJDCEN9wd1Ons+HnEH5RhBHNYwg9Gr3bcyQdr5Yb5FadrIKVoWhxmxQkFcAHzPcrEyw NPk8XMsj0FWAN0E3XnouVB11jKkHjpeefI+gXD06wYe57AATPCOIKNs5Pv30+MMACEKknBN8HVFE QzpwKFsewvGP2C8NQRW8lobpRT6PJliIl3sLx/oCeHEYyoLXd4ZvQ2PUZUrCeACHoHpuFjkcKY6P G0wMnPFF/6+gbCZtAJAU8PL5apMszZlQBVB9XpdJsCDwHFa+PgseGOIVMXSs/zICgCEJ4ztUeh96 Dt4dWgzhGbrDVKbo0mxnCD3p73MsSXwaWQU36/tkX0sBfHifVwSv0ucBo2BvBDyseqMSHiTwMHR4 5kRnxGlIrLcClEAJLWTncHNSQ9N53QnZTQ/pQIHLZYeRIlomBG1LqmgI+nI+zxGPJzVKcz6vmGBh ws0pq4nuS8DrkNrxxXdW/UJy05CywwW8kHgxCEKDanxzOWKsMx7p+0xhKPN/kCyJiMoRYeznAxXA 5/J5nRxyZn1eLsHSE/DmMJQFjyvQG6R+4bt0TPjZefgcM9tgqvF18+FL7GnNOSVTCGnpfMT7mIeg AD6Nz2Mbpj0Y322dzxMTLH0CK5ieAY+8ryFhZ5+ZAY9ntYd1PJ2bQ8ughjisDOFmSKzY+fi5SF8A LiRlbkejAvgcPq/jZyp87+L7anzeCGGo5fUoFMU+DzgwJfC6Gbyc98MdL5dlIzoPocmEr3Y5QJab TqQAqs9b5POYhumSz4Oer+clCZaegMeVHDoGuo7JevJdLxan8SHM5fOhqpNAu5JybeL/tBdUfR7r 8/rKBEtfCV6U6ezHeBLi7+645mbw8Fk2PIQ0bIRKHxctzEsW6Y1U0PAL+e6rkArg7X2esPLYKp9H EyENipdNsPQV4HW9/y4jeJC2nJluBhGl+f0JD1QNaYaU24yFjgFPWapUJJvZd6Ja3XQ6kvq8os/r 457NPk2+APZ9vVAnDLdZ8DpTsdpZN/eSwcK6G7MamjSD/i/3mLEXtACa1dkQr+XzuCX/anweVcSs z+vjsoL/WU6wcOBdFLb30AG/6FLud0pnG1gGoqB+zHIUwxkqW7N2CwefFdb/xCHoLwF4BfBJfV71 xNiWhmnq8/roeUlJwcQJmCizCRdVFBSvCb7OV9qZEC63a5FwsecJu0fLrIJtQNg5KQNUx32GGl+o S1I8gc9jlnJIfB5RvWqf1zMdLP0cbiY+D6neCN75fQl4XUb1JeVLkyGWQujQ+i94ycGBCz/dvBIa Xi/mL6TLFeLwU7psBpquivagPg81TAPxehU+L2qYTnweV0jvGfDsrHhn0BjFO8PX++85hO/dkV+h Y5fsQyqIocIQ0esZNhtgGx+P1U/yh9xq2lL4+Rsa4NJV0Z7P59U2TEO3wOf1dQmWCLy0r7On37Wz 56l8FxANn82cwzoX1vK0hqiUw+t9ItAGBB9SvCNWv7Du55eL1wANr/UpbNSCt7fOhr2rw89XBPAR fN6SibG9SRuma3xeX5tgMXROHwde8XfMJVM8bJaGkI7AlISXLoUSg0cvhuwPIalflPncDLRXB/CR fN6ShmlG8Rb7vOkz+QK6z2ySWex9JXjnCQuAws8EPneGj4abFLJhhm0Ybw8k9PTqRwH9ckRBK9Qv 2inJFJRvNaiHFwbvQX0eSD4vTr4AVbdqn0cTLB0P3uTxLDnVbJpEkeEzEXyJ8g1E+QYPXwg9zyCO x4+X21zoCUQNqZfMqR/spXyvAOCr+TyuYXoLn9d58NB3RuBBJtM5sPW7CwSODzsHRvkwfEME3yX0 vEBJQ08Sgn66fOazSv1gq7D0oOA9jc+TGqa38nkhq8k3VFsajjm6JVikfDZSvoGEjxc1G1DYycN3 xMesf86X4BM/IfWFdOvq37Xqt4lPPLwoeM/q80j7WNbnkQ4W0eflwUvg86o38CHnCN4QqdKA1I4q 3zCDaCMoS/AxSti5NPS0zC655mrq9ywAPqnPo4pX7fNIIb6qkF72ebXg1cGHwKNJFlb10GOOZ+CO 2Aey8A2x7/vjUi+YbEkG11S/RwfwDjau3N3n9ek0oc19XtcMXgrffHtIvd4JPBiibGQUcpJkC1Y9 Go4Og892omMBtC+chCEKyPo+lwk9W9Xv5ZIw6vMafJ5XvJpCejnBslz1fPsYp3oXwFwGPhRy0oTL 1yAnYT6lmiBRv2zoWVI/eBUAb7ShyeP7vFUJlhi8tKwwiOARxbNccoQDj4acAT4C5Zcjxyrh6xyT 9SyFni3AwRYn9KslWASfBwt9nllZzzMFn1dqmDbb+LwIPherwmCSraGtLy0MfLjpGK8nqd45HD1S JaSZzvB6HXreCNgfpg6I4aveD96Ytj3hmwA8PDB4rQmWBT5vzYYmd1XP64qF9KzqseBxZQUY4tIC COWFAB4prF86W4LqMfB9CYoXfv6XtqSBDJ+9KXz3roA32rjS3dDnmUf3eZAqXtKzOUTHLuWFyOtR yPztLwRiLuQ0kAKIs54Bvl8VE3mz0MEa+O4VwBv6PFjg82ADn2fuzedB0jhd9HkGJVnEPs6c13Oo vODaVG8KOSFtvK4qN2wF38MDqD7vVj5PTrCYdT6vKtyk4A0xYMchVdFI9VA7myVN17aUcLkpfPcE 4FrVs23Kdw2fZ1b4PFPweSY3P68j4FWq3hqfJ81eQFOErFB2SMJNg0oLHHQYNinkpJnOaWclh0JO cw/w3QOA12qYfnCfd95pqNHntYSbAnhLfR7qZDlPtG0IN61LM5ytqkf93u9atatJtDwNgHaHcLNQ SG/1ee/MGps38XmX+Xmmbn6enGTZx+dxZQWiekl2kwk3v1xe9f5l5vZFM91bQk5TyHbuDt+tANwz 3HwWn4fm5zX5PF71bLLMX66QTnxe0jRd6/PSBMwxmeNHCurGCYkUn+GMVE5QvRBuXrKcZqMSwy5z A+2dqt7GfZtP6fMMG25i+NIVxozg8y4qEqYJMQkWWOzzpvVajNC1IoWb4f0vdT0GOs7rsapnVsC3 6eyHWwG4RPUevZ7XuA5L5PPaywrLwMslWKBiDZZWn+fkThZLFl76F0/W5ZQPMrW9miTLzeG7FoBr VG/DcPOZfJ4An7wchDHNfZt4jRaapdzN50Eh3BRCzsWqJx27Cnx7A7il6uXCzR193lu8YYk4P88U 1mExfaPPy7WPlcBLM5t1Pi+TYGG6WHjFa/B51ONF2U0h3LQ1jdS1oeaSjha4JiT3pHoN4WbN/nmL fV7j/Lyb+rwK8JoK6bSDhannGaFVrMXnrQ43zQ6qtwt8ewFoN1I9JrFSpXoV++eVNq58aJ+HO1i4 BEutzxvitTZNTRcLmRBb8nlsMR3k7GZVuLnE611V9fYEsAa+1hkLrdnNTt4/D7r78nkNZQXR55UT LAWfJxXSZ9gsBfMSbjJZzS18XlV20zyq6u0F4Fr4Fqqe68rhpqR21OdV1PPEfRVW+zw53BRPjNYE S3MhvUHxJPCSel6Fz6PN08Vws7aT5S5Ubw8A7cZ+T1C9oVuQ3cztn9ffuJ5XDje3SbAsLaTHYIo+ 74tR0DU+rznc3CrJclX4tgJwC/gyAP6oSLJks5sr9s+7is9bEm4G8Iypn6lQLqSn8/PmzGe9z0MN 2rl6XpPPW1pIb+leuSp4WwG4Br4KAH8IXo9VPWnXWC7c7PP7593Q57Enhphg2buQvqPPk+p50UTZ pT7vrlXvmgDWwseUF2i4Sb0ehvCdqeMlqkfCTQ/VgfZl7ubzTDbczIPHJFiaCunSxNiaQvoan8eo nVTPu7rPuyl4WwC4NXyFkHOp6h36TFkBqx6dJlTp84xtmCZkktkKyxIsexbSpfl5GZ8XICz1bd6N z7sL+NYAeAX4orCTyWR+hMdIqtcLq0znNq7sTbpPOlU9G+Bb7fN41WsAT1K9xMc1NkxXzc/DPo+b JrRngmWpz7sb8LYGcCV8Ym2vy4ScguoF8Az1en1luNnX7ZO+on2s7PNCgmVNIZ1ZAKm6rLCFz1uS YHlKn7c1gLXqV1NiEOBzTLh5Kai3ql5fMSv9OmWFhQkWs2xGem0hvaVhGup9HldIf02flxuH28Jn SvAhAD+6OOR0PZPh7Hn4emZ59wBsLtxMlv3barvmNMFSnCZU5fOGukK6dfmGaRpiLvV5Ud+meVWf t6UC2oqfG+D7UYLPH7/A17NdKxf4orDzBF+keoLXE7ObUVlho3BzQYJlbcP0qkK6+rw7UsCWVapt QTGFbKdhMprvSPno1KCi6vUF1evz4SZw4C0JNwN41OfVggcV+yoIPq+mkM6FmLRhejOft3ZG+lOA tzQEbQGuUOtzXGcLAx8F7xJy9uRYP2c5e6p6PfF6wlos3QVCcbFbfhGk2nCztpAOhQ1NYsXbtmEa 5HVYmnzeyydY9gawFkwu9DRktyGmxxOXGShoUUcLUr5LXa9P4ev7gtdrbJpe4PMyhXRfz8PggVnV MG0LhXR764bpl/F5WwBYM7vdViRrKmp9NOECpGeThp045ERKB9gT9sQjLlC9+iTLXgmWQsN0UDxb KKTbe2qYfgmft4cC2gXqR0JP2td5uTR4vgm+4On6y7E50SKFnD1WvXM3S7Qey6x64bP3RdXbIMFi hXVYahqmbaGQbu+1Yfplws2lAG6pfiT0NIz3ew8JGZoc6Uk4igrrHHw9UTysfF30+qdTaYqhZOXr comlWvAyhXS7tmF62KGQrg3Td6qAC9Uvu2KZv7wzU4ugi0sNGMpL2MnB1/N+r+tRAX2CLx9ydgZ5 P+ZESMAz9YV0W7PyGC0roIZpyyhes8+794bpp4VvjyRMRv2m3yO+tmnoCUJj9Rudu+cTLkglU+Xr 0rCzi+ft1cBnzt2TfjbDIvAafV5Fw7Qd+Lpdzudpw/QjAtgafi5VPxx6kj34mAL5FHqibCfQxEo2 7LQBvq6YbOHCTRefHHJms+DzxIZpeeWxyOdxK0xbLaS/qAJWgJpVP7KoUhJ6EkXs+SUD0+MWwcck V1j4iMqNiRcXFG7CXQBvSSFdG6ZfFLylAJZAE5TEIfgk9ePW8vxmE2APyQJJUc8mAozcRrAB3UMv N5J980wGvNYES0Uh3RYapq02TL9wGaKil3QKP02a+aTqB52cGQUcetqMh2Q8XRerHBiqxJnMJhtK sZlNppBOZ6SvLKRrw/SrAWg3UkUUfka/99DxEhSSXL5lQGPVryasjIBz/sX8SWAL4Jk8eBsV0qP2 saoEi/q8F1HA1r0eCuFneBz+Odk+bP75YMLaK5kMarK+ZuYPQPUJEqAzONREmU2ubxM2KKRrw7QC 2ByWEsX5ef6DnwJQKE2AkKBBzwXheF147OvuMJ6d0IkniAVUTgCieKW+zT1XHtOGaQWwZmDwgAH0 w/vD6vCTgaqXFFjydijUnE5S6wsLGMTLSUiSK5XgLSqkZxqml+4k1LyhCQVQfd4dAtiQgCn5v8rX OYR/gFNELgzGJ5c9n3gQb2oC6cnh/xSAr7nDQDKdKLNJwUPdLEmChSuka8O0jt0V0KbAReCRx2b8 3wxd419Z508+44UOvd686jRNvnjwLDpZWfDArCqkFxumK3eMVZ/3jABusGT9z5rIZM37QL5MwJ1Q 1v8sva9FzxvICR6tUObqEyzaMK3jZh5wo3E8/ccepjAShYTggRnVqSf1OUAnmHMoI+rBs0Ldb4DY Q132U4C0rscuBZErpK9pmG7YMVYbphXA5VGrhweHfwCBQtQRDVMICfhkigB1IYdiLqU+5/1gZ+LQ E/d2WravM4YwC16pkL6mYfoedxJS8B4bwKBk9HbyHyxdvLpNKuiQneuQ5wPD1iXFEzGazRDvq1cE b6dC+iY7xmqC5bUAHNuafnD+KiibkT3c39PlDaJywfGkbofj6efDrJLjAhJwAc0hYQMPIU3gCKGn ZeDGRXYEohUXwV1aSF/h87RhWgHM/0dZpG6WSXgIf50tASEomUWqZ4LiWR8a+tfvg8eDubRnOQCl 9w1qF2cdbabW1z5TAYzuJKQjAyBskwmV4Avjz+m+74Z4OAIhzCfYeKIfjqfXOswebwQjlMynG4NX v94iyFG3jQU+xB1S9bMmVr9m8KTkypKJsb1XePV5r66AuJvEluGLVJA5eSwKSTF0Uxjq1c7669Oh o7XnT335COeEzNScbT184/MHH37iThn8cQfq++bPZaNyA0TgHY20FTMGDwqFdG2Y1rF5CIr/s+zs A//JqSAwYCLorA81g8ebVM6ZyxoRl6SL94QTpDB1brLN4Dj0tQYBVyg9FMGDcoJl84Zp9XkKoBiy otCv82pkgU92jGHoO/Z2SAVHRTlY1K55fsiUixn8gR6p3pR4CSAS32drky/+s5ze5MjO6SMJlCUJ Fp0Yq6MdQCnkzIWipBeTDUOxCgoJFvwWMGdFpy2mB//cQ1BLnHgp7USLQTxDN7029WYSeIYDD3Zo mFafpwAuHWMI9Q+BUFRBmMsJIez8Ol29GRbCKTEDZ9U7BM8HXjXZibjkBD3O4evRMK1nliZhKsC7 SSFdfd4TAliTCZVCTxOf/DgMnR6WU0FcbvB3f/nrNxw2dqhrxp5A9BN3R+UbUPgZvuIxPVGP1hi5 +I6uv4ify4IH2jCto7pG0Hj/wr3fR1j+oftBdOVNOKPV0PzrvHXz6maQ7lJ7+Rxgkz8vR5yEkbpf AjBfTlZDemwMH//k1E4bpnVsEoIu8YH+/i5YPKKCNizNMoaizq8RQ18yKJ45ZxxHIL/B/DwGvilZ w/5NyRT+v0iIiMsRFvLgWQa8zRIs6vNUAVer4OnyTxdvyBnt/45u463JDPMYugDTG/c5TFz6sMLJ /MWUIGgnjiXHS4onbeEVPLH6PB11CtjSEVPyg94LOk6JfPYylBv+2FkJo0I+UjyffDlLHar1fcPP YT7jX/LeNi3ExxlQ9PMn5+cE8HZJsGi4+WIKuIMK0n3how06seJ5f/fObGMGjO+D3E5NzAlsgQ9D OaA+mfsWgac+T8euAFaCWAUhuv0hLd5bAlA4Ma3U+M1Al0BWCZ5OjNWxTRKGC0OTopxwTDghwjxZ wPeFZIxDD/C3/3jQPkBYYdvMMx6yy00wSlMDnXRdDV5tuKngqQLupoJEEX+GZAxVQqKC3PU4Piy/ ulotgOFnETpzRfA0waIA7uYFjeEXzSUQ0j3jRQCNYSfZflQC+CejgNIxi47vBp76PAVwcxWsgBB7 Qm73JNbrCb4vt8qapIAsdIZXu/A4BU/H9QFcC2EhJA0QBpA4ELPQ1XwXKMNoBcUbx2Lw1OfpuCqA NRBSVSS76XIgSsBBaZXsCiWk0GG1G8fvLUsJ6vN0LAJwCwgrFPGnmb0hBhHDBjkAS2GoAB6FLtkz z5j1NTwNN3WsApB7Xm3TdqMy/kRwuZ0BZKGrBU7B03FTALeAsHDNwbgGwAQ4Y+rrdHuBp/ApgFeD sAa8DIyt8GEAf7X4tJZEioKn42oAroGwFsTcbfTzfwof87+mEoylgEEBJA03dVwNwKWJmiUA1n6P GijWqpqCp+PqAJZeY0myplL1Vo0SLLDwPgVPR9PorwDymjB1r9GqiDVqpz5Px80ArAGnFcQ9YYSN oKyFSsHTsVsIulYNa+Hc8vPCSjAVPB13C+BSNVwC6R4QbuHhFDwdNwVwCxBbP59dCYFCp+PpAGx5 D3vFz7slUAqejrsGcAs1u4YCKnQ6nhrArQG7hgoqeDqeEsCt3t9eARqFTsfTAniPn0WB0/GSAN7q sylwOhTAK31ehU2HDh06dOjQoePm4/8FGACXqSc+RgU/VgAAAABJRU5ErkJggg==" transform="matrix(1 0 0 1 6 114.5)">
		</image>
	</g>
	<g>
		<linearGradient id="SVGID_1_" gradientUnits="userSpaceOnUse" x1="39.885" y1="123.2892" x2="193.408" y2="123.2892">
			<stop offset="0" style="stop-color:#10276C"/>
			<stop offset="1" style="stop-color:#2A91FF"/>
		</linearGradient>
		<path class="st0" d="M193.4,22.1L187,18c-0.8-0.5-1.8-0.7-2.7-0.1L42.7,102.4c-1.8,1-2.9,2.9-2.9,4.9v115.8c0,0.9,0.5,1.6,1.2,1.8    l6.2,4.1l3.3-3.4L50,223l137.4-82.1c1.8-1,2.9-2.9,2.9-5l-0.8-111.4l2.9,0.2L193.4,22.1z"/>
		<linearGradient id="SVGID_2_" gradientUnits="userSpaceOnUse" x1="86.7824" y1="130.5818" x2="91.2084" y2="120.7463">
			<stop offset="0" style="stop-color:#3A478F;stop-opacity:0"/>
			<stop offset="1" style="stop-color:#2AA1FF"/>
		</linearGradient>
		<path class="st1" d="M193.4,22.1L187,18c-0.8-0.5-1.8-0.7-2.7-0.1L42.7,102.4c-1.8,1-2.9,2.9-2.9,4.9l6.8,2.6l140.7-78.9    c1.8-1,2.9-2.9,2.9-5l-0.8-1.5l2.9,0.2L193.4,22.1z"/>
		<linearGradient id="SVGID_3_" gradientUnits="userSpaceOnUse" x1="101.2013" y1="84.223" x2="209.0069" y2="-52.279">
			<stop offset="0" style="stop-color:#FFFFFF;stop-opacity:0"/>
			<stop offset="1" style="stop-color:#5FC1FF"/>
		</linearGradient>
		<path class="st2" d="M193.4,22.1L187,18c-0.8-0.5-1.8-0.7-2.7-0.1L42.7,102.4c-1.8,1-2.9,2.9-2.9,4.9l6.8,2.6l140.7-78.9    c1.8-1,2.9-2.9,2.9-5l-0.8-1.5l2.9,0.2L193.4,22.1z"/>
		<linearGradient id="SVGID_4_" gradientUnits="userSpaceOnUse" x1="79.09" y1="157.5931" x2="44.5553" y2="192.1277">
			<stop offset="0" style="stop-color:#3A478F;stop-opacity:0"/>
			<stop offset="1" style="stop-color:#000023"/>
		</linearGradient>
		<path class="st3" d="M193.4,22.1L187,18c-0.8-0.5-1.8-0.7-2.7-0.1L42.7,102.4c-1.8,1-2.9,2.9-2.9,4.9v115.8c0,0.9,0.5,1.6,1.2,1.8    l6.2,4.1l3.3-3.4L50,223l137.4-82.1c1.8-1,2.9-2.9,2.9-5l-0.8-111.4l2.9,0.2L193.4,22.1z"/>
		<linearGradient id="SVGID_5_" gradientUnits="userSpaceOnUse" x1="82.6207" y1="189.0352" x2="182.2792" y2="22.4631">
			<stop offset="0" style="stop-color:#3A478F"/>
			<stop offset="1" style="stop-color:#2A9CFF"/>
		</linearGradient>
		<linearGradient id="SVGID_6_" gradientUnits="userSpaceOnUse" x1="46.2315" y1="125.539" x2="195.4583" y2="125.539">
			<stop offset="0" style="stop-color:#FFFFFF;stop-opacity:0"/>
			<stop offset="1" style="stop-color:#1579FF"/>
		</linearGradient>
		<path class="st4" d="M192.5,143.7L49.4,229.1c-1.3,0.8-3-0.2-3-1.7V111.6c0-2,1.1-3.9,2.9-4.9l141.5-84.6c1.7-1,3.7,0.2,3.8,2.1    l0.8,114.5C195.4,140.7,194.3,142.6,192.5,143.7z"/>
		<linearGradient id="SVGID_7_" gradientUnits="userSpaceOnUse" x1="-15.3433" y1="261.3344" x2="147.4142" y2="98.5769">
			<stop offset="0" style="stop-color:#10276C"/>
			<stop offset="1" style="stop-color:#2A91FF"/>
		</linearGradient>
		<linearGradient id="SVGID_8_" gradientUnits="userSpaceOnUse" x1="46.2315" y1="125.539" x2="195.4583" y2="125.539">
			<stop offset="0" style="stop-color:#FFFFFF;stop-opacity:0"/>
			<stop offset="1" style="stop-color:#6ACBFF"/>
		</linearGradient>
		<path class="st5" d="M192.5,143.7L49.4,229.1c-1.3,0.8-3-0.2-3-1.7V111.6c0-2,1.1-3.9,2.9-4.9l141.5-84.6c1.7-1,3.7,0.2,3.8,2.1    l0.8,114.5C195.4,140.7,194.3,142.6,192.5,143.7z"/>
		<g>

				<linearGradient id="SVGID_9_" gradientUnits="userSpaceOnUse" x1="1563.8293" y1="-2359.8169" x2="1561.5863" y2="-2353.387" gradientTransform="matrix(0.9156 -0.3442 0.549 0.2632 -85.1698 1258.3673)">
				<stop offset="0.2065" style="stop-color:#05074C"/>
				<stop offset="1" style="stop-color:#0087FF"/>
			</linearGradient>

				<linearGradient id="SVGID_10_" gradientUnits="userSpaceOnUse" x1="-934.0555" y1="-2355.4924" x2="-928.4013" y2="-2355.4924" gradientTransform="matrix(-0.9156 0.3442 0.549 0.2632 492.6893 1041.123)">
				<stop offset="0" style="stop-color:#FFFFFF;stop-opacity:0"/>
				<stop offset="1" style="stop-color:#63CBFF"/>
			</linearGradient>
			<path class="st6" d="M49.5,101.4c-0.3-0.6,0.7-1.4,2.1-1.8c1.4-0.4,2.8-0.2,3.1,0.5c0.3,0.6-0.7,1.4-2.1,1.8     C51.2,102.2,49.8,102,49.5,101.4z"/>

				<linearGradient id="SVGID_11_" gradientUnits="userSpaceOnUse" x1="1572.1549" y1="-2362.2268" x2="1569.9117" y2="-2355.7966" gradientTransform="matrix(0.9156 -0.3442 0.549 0.2632 -85.1698 1258.3673)">
				<stop offset="0.2065" style="stop-color:#05074C"/>
				<stop offset="1" style="stop-color:#0087FF"/>
			</linearGradient>

				<linearGradient id="SVGID_12_" gradientUnits="userSpaceOnUse" x1="-942.381" y1="-2357.9023" x2="-936.7268" y2="-2357.9023" gradientTransform="matrix(-0.9156 0.3442 0.549 0.2632 492.6893 1041.123)">
				<stop offset="0" style="stop-color:#FFFFFF;stop-opacity:0"/>
				<stop offset="1" style="stop-color:#63CBFF"/>
			</linearGradient>
			<path class="st7" d="M55.8,97.9c-0.3-0.6,0.7-1.4,2.1-1.8c1.4-0.4,2.8-0.2,3.1,0.5s-0.7,1.4-2.1,1.8     C57.5,98.7,56.1,98.5,55.8,97.9z"/>

				<linearGradient id="SVGID_13_" gradientUnits="userSpaceOnUse" x1="1580.4803" y1="-2364.6365" x2="1578.2373" y2="-2358.2065" gradientTransform="matrix(0.9156 -0.3442 0.549 0.2632 -85.1698 1258.3673)">
				<stop offset="0.2065" style="stop-color:#05074C"/>
				<stop offset="1" style="stop-color:#0087FF"/>
			</linearGradient>

				<linearGradient id="SVGID_14_" gradientUnits="userSpaceOnUse" x1="-950.7065" y1="-2360.3123" x2="-945.0523" y2="-2360.3123" gradientTransform="matrix(-0.9156 0.3442 0.549 0.2632 492.6893 1041.123)">
				<stop offset="0" style="stop-color:#FFFFFF;stop-opacity:0"/>
				<stop offset="1" style="stop-color:#63CBFF"/>
			</linearGradient>
			<path class="st8" d="M62.1,94.4c-0.3-0.6,0.7-1.4,2.1-1.8s2.8-0.2,3.1,0.5c0.3,0.6-0.7,1.4-2.1,1.8C63.8,95.2,62.4,95,62.1,94.4z     "/>
		</g>
		<g>
			<linearGradient id="SVGID_15_" gradientUnits="userSpaceOnUse" x1="197.3014" y1="82.3555" x2="-45.1437" y2="66.7783">
				<stop offset="0.2065" style="stop-color:#05074C"/>
				<stop offset="1" style="stop-color:#0087FF"/>
			</linearGradient>
			<linearGradient id="SVGID_16_" gradientUnits="userSpaceOnUse" x1="57.196" y1="77.4242" x2="183.9677" y2="77.4242">
				<stop offset="0" style="stop-color:#FFFFFF;stop-opacity:0"/>
				<stop offset="1" style="stop-color:#63CBFF;stop-opacity:0.5"/>
			</linearGradient>
			<path class="st9" d="M182.6,45L58.7,118.9c-0.7,0.4-1.5-0.1-1.5-0.8v-6.7c0-0.5,0.3-1,0.7-1.3l124.3-74.2     c0.7-0.4,1.6,0.1,1.6,0.9v5.9C183.9,43.7,183.4,44.5,182.6,45z"/>
			<g class="st10">

					<ellipse transform="matrix(0.6378 -0.7702 0.7702 0.6378 -63.2344 89.1233)" class="st11" cx="63.1" cy="111.8" rx="2" ry="1.5"/>
				<ellipse transform="matrix(0.6378 -0.7702 0.7702 0.6378 -59.3032 91.8832)" class="st11" cx="68" cy="109" rx="2" ry="1.5"/>
				<ellipse transform="matrix(0.6378 -0.7702 0.7702 0.6378 -55.372 94.643)" class="st11" cx="72.9" cy="106.2" rx="2" ry="1.5"/>
			</g>
		</g>
	</g>
	<linearGradient id="SVGID_17_" gradientUnits="userSpaceOnUse" x1="48.8713" y1="125.0963" x2="192.7597" y2="125.0963">
		<stop offset="0" style="stop-color:#007BFF"/>
		<stop offset="1" style="stop-color:#6ADBFF"/>
	</linearGradient>
	<path class="st12" d="M190.5,141.5L51.6,224.3c-0.9,0.5-2-0.1-2.1-1.2L48.9,113c0-2,1-3.8,2.7-4.8l138-82.3   c1.1-0.6,2.5,0.1,2.5,1.4l0.7,110.1C192.8,139.1,191.9,140.7,190.5,141.5z"/>
	<linearGradient id="SVGID_18_" gradientUnits="userSpaceOnUse" x1="120.8155" y1="227.6669" x2="120.8155" y2="47.5193">
		<stop offset="0" style="stop-color:#10276C"/>
		<stop offset="1" style="stop-color:#2A91FF"/>
	</linearGradient>
	<linearGradient id="SVGID_19_" gradientUnits="userSpaceOnUse" x1="48.7463" y1="125.0963" x2="192.8847" y2="125.0963">
		<stop offset="0" style="stop-color:#FFFFFF;stop-opacity:0"/>
		<stop offset="1" style="stop-color:#6ACBFF"/>
	</linearGradient>
	<path class="st13" d="M190.5,141.5L51.6,224.3c-0.9,0.5-2-0.1-2.1-1.2L48.9,113c0-2,1-3.8,2.7-4.8l138-82.3   c1.1-0.6,2.5,0.1,2.5,1.4l0.7,110.1C192.8,139.1,191.9,140.7,190.5,141.5z"/>
	<linearGradient id="SVGID_20_" gradientUnits="userSpaceOnUse" x1="221.4688" y1="125.0963" x2="186.7416" y2="125.0963">
		<stop offset="0" style="stop-color:#000000"/>
		<stop offset="1" style="stop-color:#000000;stop-opacity:0"/>
	</linearGradient>
	<linearGradient id="SVGID_21_" gradientUnits="userSpaceOnUse" x1="48.7463" y1="125.0963" x2="192.8847" y2="125.0963">
		<stop offset="0" style="stop-color:#FFFFFF;stop-opacity:0"/>
		<stop offset="1" style="stop-color:#6ACBFF"/>
	</linearGradient>
	<path class="st14" d="M190.5,141.5L51.6,224.3c-0.9,0.5-2-0.1-2.1-1.2L48.9,113c0-2,1-3.8,2.7-4.8l138-82.3   c1.1-0.6,2.5,0.1,2.5,1.4l0.7,110.1C192.8,139.1,191.9,140.7,190.5,141.5z"/>
	<g>
		<polygon class="st15" points="179.9,137.5 74.4,198.9 73.9,175.5 180.7,113.6   "/>
		<text transform="matrix(0.9165 -0.5429 0 1 74.0637 183.6201)"><tspan x="0" y="0" class="st16 st17 st18">    "phone": "+1 (974) 496-3489",</tspan><tspan x="0.1" y="5.8" class="st16 st17 st18">    "address": "445 Ingraham Street, Cutter, New Mexico, </tspan><tspan x="0.2" y="11.5" class="st16 st17 st18">2825",</tspan></text>
	</g>
	<text transform="matrix(1.1041 -0.6562 0 1 64.966 141.6238)" class="st16 st17 st19 st20">SECUTIRY PIN</text>
	<g>

			<ellipse transform="matrix(0.5085 -0.861 0.861 0.5085 -77.9328 153.3157)" class="st21" cx="95.3" cy="144.9" rx="10.5" ry="6.1"/>
		<g>
			<path class="st16" d="M94.7,145.4l-1.5,0.5l0.6-1.8l1.2,0.1l-0.3-1.5l1.5-0.9l-0.3,1.9l1.2-1.5l0.6,1.2l-1.5,1.2l1.2,0.7     l-1.2,1.6l-0.8-1.1l-0.8,2l-1.2-0.3L94.7,145.4z"/>
		</g>

			<ellipse transform="matrix(0.5085 -0.861 0.861 0.5085 -57.9745 165.2987)" class="st21" cx="115.8" cy="133.4" rx="10.5" ry="6.1"/>
		<g>
			<path class="st16" d="M115.2,133.9l-1.5,0.5l0.6-1.8l1.2,0.1l-0.3-1.5l1.5-0.9l-0.3,1.9l1.2-1.5l0.6,1.2l-1.5,1.2l1.2,0.7     l-1.2,1.6l-0.8-1.1l-0.8,2L114,136L115.2,133.9z"/>
		</g>

			<ellipse transform="matrix(0.5085 -0.861 0.861 0.5085 -38.0161 177.2818)" class="st21" cx="136.3" cy="121.9" rx="10.5" ry="6.1"/>
		<g>
			<path class="st16" d="M135.7,122.4l-1.5,0.5l0.6-1.8l1.2,0.1l-0.3-1.5l1.5-0.9l-0.3,1.9l1.2-1.5l0.6,1.2l-1.5,1.2l1.2,0.7     l-1.2,1.6l-0.8-1.1l-0.8,2l-1.2-0.3L135.7,122.4z"/>
		</g>

			<ellipse transform="matrix(0.5085 -0.861 0.861 0.5085 -18.0578 189.2648)" class="st21" cx="156.8" cy="110.5" rx="10.5" ry="6.1"/>
		<g>
			<path class="st16" d="M156.2,110.9l-1.5,0.5l0.6-1.8l1.2,0.1l-0.3-1.5l1.5-0.9l-0.3,1.9l1.2-1.5l0.6,1.2l-1.5,1.2l1.2,0.7     l-1.2,1.6l-0.8-1.1l-0.8,2L155,113L156.2,110.9z"/>
		</g>
	</g>
</g>
<g>

		<image style="overflow:visible;" width="220" height="249" xlink:href="data:image/png;base64,iVBORw0KGgoAAAANSUhEUgAAANwAAAD5CAYAAABMO1sEAAAACXBIWXMAAAsSAAALEgHS3X78AAAA GXRFWHRTb2Z0d2FyZQBBZG9iZSBJbWFnZVJlYWR5ccllPAAAH7lJREFUeNrsnWtz4ziPhQlKtrv3 y77TNVP7/3/e1kz17Lfp2BKxvIAiRFOyk0l8kQ+62JJlxXEcPTkHICQZg0AgEAgEAoFAIBAIBAKB QCAQCAQCgUAgEAgEAoFAIBAIBAKBQCAQCAQCgUAgEAgEAoFAIBCI+wThI0Bs8PhlAIdA3O9YZQCH QHze8UnvgIoBHAKxflz+2+OUHwU8AId4Fsjok2Dje4IH4BCPDBpdOFbpnUrG9wYPwCEeAbRL69dC eAmupeXNoOvxe0c8iKJ9dGmuhKy1L1X70FdDB+AQ91a11pIajxv7/iHLP1uwcbV+CTxYSsTLgtYa Pn73Syfr3Dh2SaD5yRVoa+MaqwngEE+fp10CzablD0pw6dECLsMWlnn8Hba5CjC3Ah2AQ2xW1S6A 9ptNUDlZGqqW5jwHI4EmAufS0roKPHcFeF8GHYBDPCBoTkaEy8qooAvju7zsPwqSCTYBKiytjL+d gHYNdAAOsRn7aNdB42oYWX6rgKuLJAG2XwKZEejsWADs/Hrnl3/V4F3K7QAc4iFhW1K3BTULyzPQ OgWbXz8o4NhWKmfmypYhC+MtLEc1BL4mdO5WKodpAcSt7aMA9EPys6GrQOsKaGHpurnK7axpTnif MnAC1z4s/b5HATTA5qqvMS211Mr26dMFAA5xY/v4Q9RsEIBcVyCLoAlkox9GtvVdAW4qouhvy0m1 AmgnrWqDB8/vS368UXor7Pd1fvzw46cG78sKJQAOcQvQKkXLeVpWNKcVrVeg9WXbrisqZ2T/PgGX j9whwDYodesFtGFI39MJcAf/8I3n+V5ct8o+UkPdPlXlABziBvbxN61q3VzVImi9gCaw9bLu0uO+ K8CxVC8zAp1XLLJJ3YZBYCO/b/iaYCkHpWzhq5iLyv2W5+qoAuzL1A7AIT4DNHPBPio1y2q1F7gm 0HoBbZdA63oT/rHfzvlrOlU4mcL55z1wPHrGRi9mJzOMYkHzIT4KYHs/jgE4J+/HNf5IoJcSsQn7 2BWruBdVy6B1O1G0XVzvI2Q7f+j7bbaX47RTc3NUcrdoDyVnGwf/VOe5PHnwyAy5SNKL7Yyg+eEk 3wuv98Mvfy5Bh6IJ4qnto9jEDFsvoAVVswG0XQItArgrahfB6/yhrxRUYKOQuzkPG3sraYdkI/33 D8+GdG9wom4ZtIMfx7FMM0SI3cLP/OngATjEZ4BGl+2jztP6WtECaHsBbZ+2ewCNEZUzfZk2sFTe kgeI47zbEAe5U3o/1kaGIiIs82yhmDKO6g/AWHozQ1P0X+YWthLAId5rH+25qv1nqcxf2ccAUoCt Bi3AZQNo+wgaG4HOA2coW8o8F6feH0ll0oWK5CnayWAlU/GRI5C9z+uG0QlgooBhju+oWsZcay4O wCEeQtUaXSJjnav1pfroxDKGgggl2Ppun6xjgMxk0PYFtLg920rJ3zxMlkrBxAWqgpU0uTLZT1aS SKqS1u/F0l3ipCjj87xpIt3oMxBuUjwBcADtA3laq0vEVaDN7ONusolZ1YqiJejYHQpoTpYeUBsy MVHMkLFFSxm6tIJ8eYVzAbbJSpJYSb8nC4xe1XozmEFPrnND5f4wciIrFA7xKPZxrUtkL4BNZX5R tck+eqhYVI1l0KHAF2amxVIGAC3vbNw/HKPUKUuZqpMc5Wz0q4Mj/7wjec6KfQwFlFhICVMLkktO VVQ7VzZu9WfWzdGfonoADrBdso+qzD+qDpGWfcwWsCuq1nc5T1PqZQ/JPrKHjAp8ETS399mX/5pg P42aDA/vg/LJp/nUmlgs8WDakLI5R1L293kde9iITwlW/xph8nwI77mXn6O2lK7+HGApEfewj3WZ P8LWt7tEelXO94Bdto8HgS2AdrAc87ikcCl3C7ay46JO+S0HGEaKChahCgyGSQNvMYONNKd0bNu+ 5IDcUDizdEIrLCXiXvZxVGo2lfm7uX2clfn3qswvoAlUM9CcqBrtLXml46x0HHM3jgWWrKCTuony xFL/6PfpSGgLEAaL6WIBJQKfulQovF/rn5qdYyevFc6vO2bXiCol4p72sdkloubUpjJ/Yz7NzlWN +VBso1hK/0LWZtAmW7kX0MROUq9yLzUZTbkgYkMdhTKE7C2m9ermTFesKHdTDth7OzkE6xjOIBga uVu4CtifAA5xL/t4qUuESp5mmmX+mZLlnM16+2g4Pz+BJuqm595ysYMUFEndpJ3LJC9JwV7G4kqo aLoZqNauX6bB1BclIgCHuFX18VKT8U41GIuquTSnZrJ9TOoludtB8rEEnCWfp2VVcxq0Mg2Q5t8E OLL+HdopfwsaRiTAxUlsKZ5EUIf4Nezfsw3ZHNu5apsGbEy3tJMADvbxo/ZxP7ePEcAEFauKoyk5 W2UfDwk2s5vyuwJaLJSk3CuOAoZNxRKPmJXJbek0YTklJ9lHm85GzeomP2+3ANvi5/kllUoAB/v4 fvtYyvxVlwjPrGMCzSXQWIM25WzyuspKUp4KyO+TKLeOiJp5/ZLHbETtTKxkkq5CZpULtUuqPwNt H2+rcgAO9vFK+/iuMv9hJU8TUGeg7RRoqcjBWd1mnfs+PYuKli+Fl+fnbJWvXXEV59ZnyF/eUwng YB+vtI+8r7pE2mX+kKeF55kOel8uoKk+yQyawMazqmR9ommyk6nnI50BEPK7WO4ndaGhNIIMurM+ Sb50Nx4oHOIh7aMq8085W8jTBLTSPVKqjxo0v6SpkyTlbDPYMjyz09Kc+nGlfYt0nramZiufY7iY 7BHAIR7SPh4a1cdgHwOUuV1Lg5arj6Xkz6khOcFNWtVUNwhV6kbSyzj1UZbqZZzvzk3NvFDm18/1 Ri6Xd5drsgI42Mdr7GMFmpP5tLBdd4mYBmgz++iHlPwLaH0Fmm2ok1NSJ8/T0qUejAB2N6gAHOzj v7WPYhMvlvlV9dHslX2Ucj+3QOsUaLZhB1VpnlxDySn+49XPa+3zfe/vhQEc7ONX28dW9XGpzN+y jzuxjwKambdcLcOmgRN1Y61u1KwwSr8XFA7xrPbRg0b7Yh/dYaHMXzpGQvWRZCK7CVpUta4N2yRu fP7zN+3iO8BiAnAA7RHsY3WOWrSPdZOxmlMz+6pLpORp8zJ/DVqtauqSDSRAsCqWzK4daVZOFI33 qaKkgA+pbgAO9vFa+9iYvCY9eb2PcNncnqWrj9PpNRm0bg6Z/tnq9ChfoISXyvxPd/cnAAf7uGYf D6rJ+DDBNe/sz/Zx164+nlnHStWa3R86b2tDFfO0xRpGC0wCcADtSexj2G+hzJ8nr+d5Wur0n6ua +lmIqkuWL90ySl/vf21C+zqY+P7QATjYxzX7eKi6RPZSBLnGPnbLisZrvY2NG2qsVuOfylYCONjH Jft43iUys4/0b+zjUhNxTZfASZuADcC9sn203j6a99rHxTxNT16vFEUW77pTW0mzkINd6pMEcADt ge2jWbSP+0aTsdhHU1/+wLbtI6mTP8+guaRQN7sjKYCDfXwk+9jI0661j6t52rUXXH1aJQNwL2wf rZVtn2sfuw/kaXc7Dw3AwT6+kn28FrQvvwMpgIN9fAb72LKO1eXCL6oavSJgAA728RHsI70qdAAO 9vE99tGq3salTpFrQVtTus1CCOBgH/+tfVz7bK6BbQm+TUIH4GAfb2kfXz4AHOzjre0jgEPAPt7J Pn727+3hz5kDcLCPW7aPuKYJ7CPs4+MEX3NjDwAH+/jy9vEjv1s6B62Gz+GWw7CPsI/XKRVd+3un dx4nDOBgH2Ef19/PZzZJf+qpQv2Lwwb7uA37+DTvtwdosI8PomofsW9rV+e64GAYN/OAfYR9/ITf r6lguvDz8U2VsX8h2GAfn9c+vudnWLqdcPXzhI96bIFHX1Uw2SJwsI8v1fvIS+/90s+3UK1kTAvA PsI+fuB3vvBzc8N6Mm45DPuI6mMDmku//wUlz3fbmXWV0K2VbQvAwT6+7Kkz9R1yrLoRyNntrBYs JF97yb6XBw728eVPnbGmXeSYgdj+49P7MfDKZ/M/fvwvgIN9fInJ6w8eA/qz4Gs/C7rwOb00cLCP L33mNb/nsnsrtyDuFnI4/X3cl158tn9C0GAfX8o+vqu40vgjzHQFmDcrnPRPBhvs42vZx2uPjwWr aM2Fz+7m0W8ANNjH11I1WlA2mlcrr7ko7W3V7dGAg32EffxMe5k+QXcJNvOSE9+wj7CP/6aIYtYf X9UCtgTupk5AvaRqsI9QtesVrXqcBG7xtBz1Nf/lx5vZei/lNf1vtYVU9nFUigb7+KJwtZRPwlZ9 kvbK45E3Ny3wL1Utgwb7+HqsVQWRNL92TfWxeq6nqH1NULelcO/J1eyFokgP+/hSqkbv3L+xzne/ UGz/ALDpddtWtVZRZC+AjQo02MeXzuSe4NYf/QPAdo2qaQvp3/MhK5zYuW4H+wjSZp/V1M519XG5 GeDeA9tCrub6UhRxLVXbL9hH/ziq1sw++u+wt7CPWyTv5RXuGtjUwfm7KNqsAtnP87SgZDtZZlXz gME+vjJoVIQtfPhnF4b9TOfwr8zrrS3liqr9kDm1sZsXRYKqjWLlYql/lx53JU9L9nECyG87wD6+ TLAaJvV20cNmc/2NILsCtrGbW8hDLvEr0AIoofooSnZefZyUTOxjVDJrYR+3zduHduKtAbdU2l2D ra8s5E6p2l5UbR+LIsk+HpR9VKrGh5l9ZNjHrSjY1WDRlwHFjwjcpbNs6QJskp9NqhaKIlnVlFUM qpbgSjmZS8UR62HjrGppG+zjZpSsAEgzGLl6fgWOQX59t1e5W1nKhrqtwrYvsHlIeqsKIAowdt/E Jk7bvH3cpzwN9nGD3pDXnwm5W97F5Y9aNjieP9bxj/yanxO4a9q1ZI5tETZRNd4XFQuwBcAmVfsm lca4XtnHrGr7qZAC+/iM4Ml6BEmp1vR4TeFYAahfZ+F7PLfCtQ62ap5tUEWSFmzBCnY5N/uWYCNR tfC4QCdFEQVaztnMHvbxKdVtyRZegGNSMTP/eg3ofaHrvxC0BXX7IZPauSeSVYFEbGSBLcP1LcLF sszwWf5mA2hsvuXqJKfukkPqp8yqBvv43LaSKwAjWE58ox6s113ar1V04XU1/ToAb9Vp0rCS07lr qk1LcrZz2L4X2Pi7sd5Chu2TqplvYh+lo2RStX2Ey2pVg318AnVbqk4qlTKiWn6dOW9zs69z1eMz u6kVcILtaRTuijO1f5CcMFp1kkzqlubYphL/DLbvFWwZxgMb3b41qdo+XfYzrsM+Pg9oS9DVKsbn ChdUj2WZ153zf1PlNUb/2LoGdC3YvkTpbjEtUKlbhs00zmHrBLYul/O/VbB9F9i+F9hyhVIVSFJR JKlaAk1giyoH+/gcqlbDllUtwUQCGNegtSCcwVrZTG0hn0vhLuRzWt2m/K0rTchB3XL3yASbFEY8 XEHZ2EMXH9N3/8l8m00RJNhCrrYXsHZF1biHfXwKVWtBtgAQjwJaWIYbvY0Ub/gW1tlLGY0zlUvK 5koB5eSHbRRn/nyqHG5lojvfGojloN93Rd3kFBuOnSUyFeAybAexkQo2nuxkgs0EVStzbJzL/pOq LYAG+3jHYgivqxuJmk2wjRquOJwfZMrj/HzY5kgex+fK6wyDspXhe7xl8J5K4a64epLT6qYUTi6F EBuRpZsk5mG5IVkULhVIvomyfZtgTLnaflK4yUJO9jGD1sE+PkuudgZbVqcEEGWwePBLP/TSDEnd nMCZAQ2iZ1V+R265iPK8llIXS6jAdshTA6JAXS/qFs7WljO1ZQ7N8t4KbPOukgm2YidTBXInRZG+ DVpQO9jHBwLNzC3kDLasUMM0KCzp5Pc8+ccn2X6iuC7QOZLtfp0ycDTZzWJLSX1PUkpnvsxW3qho wtq22VKS36WJ7z4UNzopoJgEXVY6LqV+LpXIFmzZRoqyma6tarCPD2AfzXJxpLaREZwxwRTXM1in CF61dOTB47jvqSifwDqMY7KTJ7GVVEH319p7/BT1u1HRhJfULQ2mbjrfLYGToLMuqFvM63gq+UvZ n6hMak9fk/O2GjbKuSPs4+PYR9OwkKxyLqVuAhCZk6jbUdQtjKOoWxhH/5X+OefXrYDmhrhOrHK9 rG6/RNWoqlY+dtHkwsH7OyXFNzQHb5eal/vOA+dEmazkXrn4YaRbhErD8bQ0vbKR/TJsq6oG0O5j H1uqtgDbZCUjXAk2Pka4DL+p5Zsj55+3aT/j18kek/KNCbpoKYegcuM8lyPX6Eh5CkvZyImctpTa 2lmVY6XBYWmTtbTU21gA4Z4NaQUrbVpnBRIN3FmuRlf8gQBst7OPjZL/rBqpcjZWypbgykvKj8lD 6MJ250cALSsdJSUcNHR6bm6Wvz31PJw6cJnO10XpONhKmyfDlVpJK9ZsfdrWFcC4UYkk27CQULXH s48LZX8ai6rFPOyYiiRZ0cJ1yekX+eHXf0V1i8sMo4eOJuiC0mXLOZTXf9N5XMjfWmcePB1wZn5V 229q8tuDEboc2ZzPkVnqLE+T1arvMd6huZMOkto+du+wkADtfvaxAdrZHFvIuRIgoeJI2UJO9lFg 4wDbP474H7/frwSif56U0hEFdZOcbtAqp2zl1O619Mfi0yzmFxdN/qBkwetK5U5u7dpJu1eAxKqG ZsrgdFwmrVWnSF6yLfvO5teuUTfA9hj2UebXsoVkyduk9J/AE7XKNjJaygibf/5Xgi0+/uV/m7+K EroMaqVwb+Nc3X6u5W/PdvccXmhmjpcyq84CTwDZZAu70pVCCUSSbUwLHSPNuTWo2n3tIy+DZjJo o+RqqSLpMmhGYAkAhWpkzt0iVL9cgCvB9k+EL0H3lpRObOWQ87hJ3SqFs60zCp42h6ug4+UzCcIV KuJNz509L64sAUbWLJ9VvgQXQLuvfdT9j1nVxkmB5qp2koqkV7VJ4byKsU/A/NIFwML1EUThaILO r9s3byWlgDIKdAG4YwXb31Vjs+GvspNfBdzCjRc0dDrH6sReSiHF5oIKWVVp9H/cshrS2l12ltQN sN3fPirQzlQt2EepRhqBjY+iaqr8L7C5yVKKlTQBNmUrY/4msFk1L0cyrEwNXFS3pzk9Z6Focs0Z 4VYBWF+aYdbhXxVHiMq1QAHZg9rHUZX6B1UUGQpok6odlapNxRAF25uo2q9iMxVswyiwDSp/e8tz cOOCun1ZseRGRRNeu9Gimedxad2u3yjdXCh60IrKArz728dxoShymoOWFY6SsmVV4wxaUC/3K1Uj xWamnE3D5tfHo7KSksNlZbNLVvLL1O2GOdxVuVQ9Z7dkEfWtY2kBbkD2uPZxkDm1bB8FtLieczWB jY+OA2hlontSswhXto65QDIqGznB5kenKpQBuM6Pn40TU78euhsC913+6NVAcLaR6jmrf+eXbjtE 7wQdcS/7GGHToE1whd6/t9Ky5SHy1tCrmrKUGawJOoErbgvVyGOBbVDKFmD7VanbzxZoX5q73Uvh qm89tuHgFYXj1Wok4pHto6ntY2iyJQVaatFyzsPEEbCjUjWxjHlb6CAJoE1qJtXICJ4o2jEXSYai bP1ozq/09TSWkj7x6+jj34Poq2+GDvv46fbxOFe1qShybCiY7DdtO4qFlOZkXRyxomxvqqtEw/bn pWmALczDfQRE9r6FCJbwJezjUYoib9O2CJrJ67JvztUCVKMo2SBAa9C0qmUb+fdo2lf+4gVV3xpw /F5Fo0rJYCu3Yx8TTEYp2WQfzXGuak4VQwaBTFvICJgoW1fnbNfA9uWJ1BYDED6vfczbFGhGqVp4 3VEAm6naOLeQAbRgIf86uyLzBdg2byk/e84MNnQb9lGKIiSFEK1qpPois6pNoNWT2kuqdnPY7g8c Q4leyT4GJXOuaR9lW20fx1MDtKxqY2nTyr2RXavsf7cCyStZStjHTdhHK13+fJormu6HjE3IS6qm gTP3VDYAB/v4DPZRKVp4L0eVq1nV8X+Vqpl7wwbgYB8f3T4O86IIqebjyT6uFUQuTWjDUiJgHyv7 OM6LIjlX+/u9edpdQQNwsI/PYh8vFUVq4MyjqRqAg318Mvto3UpR5OFVDcDBPj6jfbyUqz00aAAO 9hH2EcAhYB+3Yx8BHOwj7COAQ8A+btM+AjjYR9hHAAfQYB+3aR8BHOwj7COAA2iwj9tWNQAH+wj7 COBgH2Eft2UfARzsI+wjgIN9hH3cPmgADvYR9hHAwT7CPgI4BOwj7COAg32EfQRwAA32EaoG4GAf YR8BHOwj7COAQ8A+wj4CONhH2EcAB/sI+wjYABzsI+wjgLsxPKSWsI+wjwDuRtCtPTawj7CPAO62 xRDYR9hHAHcHCGEfARqA+wJrCfsI+wjg7mQrYR+hagDuX8KkFU1XK9egg30EaADuE1SMGgAa2EfY RwD3cTVr3cP5ko1sWUjYR4AG4FZAa8SkUEuWciVXg30ECgDuo8XI2lI2QIN9BGwA7r0VxqW/3rRs I0msI+wjQANwV8DG18jc0sHlFlQN9hHxIsCR/+XzRTVb+xp1gHG2inVeZ9RBCfuIeHmFWyyEkEhS 44DRcGnoQnmf1MvWB+V4rmqwj4jXtpRc1Kl5APF6HscLZX+tarCPCAB3TcGkspDxALSyNGY+JVDB xqJusI8IADc/SEqelqxjTM/WJq0Xbaqr8rQR9hHxosARXyiULEwDREvoCky00LrFTilaDRrsIwIK Vw4cl91hWJcCiTroyO/ARsDLhROSKYFclSRXQIu5mxzwBvYR8XLAVQeIq6uP5+1X7BWLKEOmgKJ8 cFL5elUkIZ2nwT4iXlbhBrGVZ+V9U/2Fd+eVRmM9Xlb2dmfFkqRoYiUjaEPDPjZUDfYRsRng/vFj v3IAJdvovNrZ83wtHajsIaKoFGEXSooXq5Q6d8vVyAzaoOzjKcNFxUrCPiKeBrhrLkXXspJ6rq3R vU9161UpfnDMyUiUsZurm1jOBNoooA1z0OhY20cXlAz2EbExS3nFxLWHyHm4bCnne5pGTjYyHMhd VDaWPC2qnTorgKf5tlIgmVcfM2wJKthHxEaBW1G2MYEW595cPCD9f85mG5lasIakZsFKRr6kkKKn BFhat3K7VsnZ5qB5gGAfERsEjktRRAdduI6IP1idG42lMVlDf7j74XdI6haBm3K3yk7m8v8E2knZ x2O0j84rGU9QwT4itmopqZpPoypnc6obhAbvF0c7zZ3FUj6phuRO5t3IzCa5k5WkyUrSSaqPR+ft o4F9RGwQuEb3P1X2KcM2ihoY1eco4DmvTta/PzaxMJI6u4hTPsepSlmpG0X7mefZBLZkH4+wj4gX ULg//fitkb8dg0N0Xoecfwc+F4vgpY4QpkHmynZe5U425W5Z3VxSL7KzYklSOF0oOQWgvH30oFlR sFydjPZRQIN9RGwqh6vPX3vzY1fK92moQocT2MwuwhDqlTaIG2cV682Uy02dJXkaIc25kTl5RTv5 XY4FKnqbFAz2EbHtHG4pd8tFjnEsdi2rVMy/gm20zkW22FoORZReKpX5JNOkbiR5nwuT3dESns6g gn1EvABw/sCyulpZKpFeiJKt9CD1wUoGSKj3T3WeM5vyNMonfTsPU1Q3/4zqLCG/PVhSl8/clgql PU3qRvYI+4jYOnDVX3dS6jYDT128h7Od7KRPUmCb7GJ4r17xAnDxnFOlLDZbUpl782MO2gn2EbEV 4FqXplMVxL84FU5I4HnzYyewnfzoh6g2vfXKFua7rfRJBrdopSDCkrtZKZawKeC6XOVMdpBmljLB FbbBPiJeoGiiCiakFEIrW2jXCiNAEoAKSVt0jS44xggS216mAqpGZZNsXszh3DCpWwItwTfIOuwj YuOWUpXtf/rx36qiGFRuLwd3UJrOeqys6WW6LV2qJB/oKa+LFFrVKO2y0shkebaFM9CGuaLBPiK2 rXDqgLRi//LpNXEMCSSZVxsiaBynu6dCiO1zxVJNdpuimqMAE6YE/OvNQRsSaHkd9hGx7SqlOkBJ oMun2hw9QHubrGDoxuqLcg2hWOIB6DlcDqETK2ljGhdjlNdlmTD3rzeM6ipcE2hDUbRoH0fYR8QW gLt0Hzaxlf9RtjKeBUBp2CRmcVI8W0UP4hBg6zpvNVWxxCQVDA+GUV+mXFlUUmo2gTYU2wj7iNiG wtUnpFZnA4QcLNpCOY/tzY8DlctLDnKaTT/KyaVdPFNnMNR+3alTxaWKJ6lJ9JZ1nIBzsI+IewR9 wWtpOHLPoy3jNw/RGEDqElTOQ3/oUunfyZKlSLLLlUk6z98CHCcuwBkF1Zva1szTLikaVA3x8Ap3 6WaIMjpX4MnK9ibP7SXHy3nbILCG/ffyUkdTJtJt1ZP5phQvq1kzT2PYR8SzK9wllVNK93uAKdnF pGq2QBaWB1tAq9XNmHk/Zp5mMK5qinYLeRrsI2IzwNWwUTWUxQzQjbaCTo2w3zdSZwaogz8A90s3 QddnIIj6/d81lUeoGuLpgTPXQRfGDxLo1FzbLG+jtn2dqRzPQfubr7COAA2xCeCWrGULOrX+W4ZN AMxfx433WDdDZ9B+8oJlZNhHxKsAt6Z2NXyUFI9V3tbM30wB7SdfsItragbQEJsA7r3QNZ77Y0Hd QvzVuraluULNABpi88CtQXdpfSmWLir7XsAAG2IzwC1BZy4ARhfeH18AD6AhXha41vegKxTwvcB9 ZB2B2CRwl9TuGlUzF8C79BigIR4iugeA/KPQ8wcgRCBeRuGu+d70CdABNASAu8F7AGQIAPeF7weA IRBfACDhY0AgEAgEAoFAIBAIBAKBQCAQCAQCgUAgEAgEAoFAIBAIBAKBQCAQCAQCgUAgEAgEAoFA IBCbjP8XYAAC3zy0wwJJlQAAAABJRU5ErkJggg==" transform="matrix(1 0 0 1 14 -5.5)">
	</image>
</g>
<g>

		<image style="overflow:visible;" width="224" height="155" xlink:href="data:image/png;base64,iVBORw0KGgoAAAANSUhEUgAAAOAAAACbCAYAAAB7yJfjAAAACXBIWXMAAAsSAAALEgHS3X78AAAA GXRFWHRTb2Z0d2FyZQBBZG9iZSBJbWFnZVJlYWR5ccllPAAAG3JJREFUeNrsndly67gORUnJOcPr rT7V//95Xen3092xiGvJpASCAAdNthOwyuUpsZ2EKxsbAEljdOjQ8bBh9Veg4xPNUVAAdeh4vrkI CqAOHc8z70B/EToUuPWvBZ8FRgVQx7PNLftAqEAB1PFVoDt77sEzwqgA6jhzHtmD5yUc8LWgAOr4 rNCdNf9gI2CgAOp4JfC2QGcPhC33/ENAVAB17DVXWqE7Qhlb4IKdAVYAdTwVePZkCGuBgmcCUQHU sSd4dkcI7cnwrQERFEAdzwaePRDKVghhBXxwJoQKoI4jwKsF0u48J9dAtgeIoADqeFbwJAAblPFP 8tRfa1SPu70GxF0hVAAVvD3B2/LYbfzaMB/f18AGK+BcE6YqgDqq/+5bwKt5Dl3/CnMXfZ9bMSc7 NPmtv/2eAw1ft4K5K4QKoIK3J3iV0AXgAmwYQFgxJwN0FlIox8feawCER0CoACp4R4GXgQ4IeHsD iK8jEDnoWmDckqhRABW84vNbwCO3c9CJAJLPI8FoBSXC4HG3O2AUERqVcVcIFUBVvYPA46CLgBPg a1FACzyABngIsSL+DQKArYq4CUIFUMHbAbxfNlU7CToMnAhfzbyEDIQQX0sgzmqYU8Q13lABVPCq fd4O4DlG6Wb4OOgKIP60Zfh+Z5RPuqaXGUIKH+yQoKmCUAFUn8c91gAeCPCZiuvwej9aFZDxd7+h DGAOxL+hAUIFUMeh4WYleMAB2BWg88DlFLAWwAQwD+UIo3UZAN0GCLeWKRRABa8qzCT3/7C8v8up XIAxgo7AKCZl8OcEOfliESRU5VgQ3XK7cwyErhK+XVTwonNZfV5G+Tx4OLniOhk8qn7j5bt/zKHH pFAUSo3ajPoAgXC6uPvjP26XfxAwI3zTZ/S3x59lhDB6/dz7Wub2pm0SVQG/ns+rBI+WEwABmAWv I2rHhaQdCTvRZ3gr/KwfTMYyUsGgcETpIjV0KBRFKjh+XTEUbVVBUAA13LQVCRZ/X/J5AbQieJ0A X0dCT//4txYPSELP/xj4pGsWQhd7whCSzhA60+4Fm8JQDUE1wUJ83iD4PAyTBJ5DoM1fg3xguP2G IHTMPwXqAy1VGH95Qwr44fz3Of86/noKO/3dMSQdn/rHoc/j0vd1reFowbOqB1SfV/R5ToDPIFUr gtcRtUMQvpHX4pIx6Gd446LOXFh4sR7E8XUxhJiJUeHCz2G8GiIQA4Dj64y/k7/NHpApgOrz1oJH lKwKPPT13xgljMBcPsuF/EwQpuY1zNI7aNf5Ng0PPXATiNYrIsPM+G0/x3A0vHeHQPQQTyF4jQrW JmPE5xRA9Xkku2kyIeePrg68t5D57Bg1vN++YB94YVQ8zNc+9leXwQN3e59rSLTMiodCzlFCP0wG QuO7aVzqSyMVhMLfZpMSKoDq87gES8eAh4HKgUceQwBesBe8YNhzCRiSeOk9gNcbjFM4OaoiAg9z EUHoVcpy4S8BMKhgVtlWKZ4C+HV8nlBIH2oTLB6e70TJoMuDF55Hr3FJoOuEYrwwgUOmM/i4yfN5 OAY3vf4VPFyzguHoFPznMwgue+85HUPRhHkP4fj7+jX2ipbC0NWKqACqzxMSLN+7+DmiZiJ4CXSM h/TvDUICJpnoXsHspIJ+koews797v8swiWJaK/82JmY6X7APCkfCTaqGAdJICUt/t1VfowB+GZ/H dbDkEixAVA4DlgWvW9SOvsaEEE3A+M/e05/VT9ZhCUHBA7GA6Bagbt+/QAhLx4sJ8HWzd1wAM5Vh 6GFDAfwyPs91lQkWAl0FeBN046XnPSIYWojvvHJVqF+/ZEDHcHOC2DoPIvJ+FhCEvt431wu7O5k4 TLVe+UphaPhn9g4r/u6gAKrPE9Qum2AhPvANPQ59HjzkDwF7xQg6rgbITVrSaubDzennu4E327vp 2zB0Qe3skniZQ0/DZz25MPT4oQB+TZ/nr793mQQLAs+RMDNAyIAHhnjFvhMSLzaz/o+sbgfcambu mdDBIODsAt3t/cZSxRV7PeNb3j5wiGnr/mbj77Vfmw1VANXncT7veybMxOGmSx+/e7z+nlxhweuQ 2jEdMeLPxZQdQvkg9G8Cgm6CcAxHuxunTILFCEuecPhp/O2xJvjPQyaMAvh1fB5JsFT5PBJuhqzm +DhI4JHwNQGPgNHhnxnm7rGoy2UGMQieWxTPh7p2pvOeGb3cfjdXHOraWgugAKrPO8Tn0Q6W2gRL j8BbwGTBY7KeM4QG9WD2Vv7ddSj7afGqA7+Wb/Z79v6eAyyKZnNHnfkm8A9m60Pb8vcGBVB93gE+ T0yw9AmUEKAUwSPwAcl6Qib0DMmP3veMOYNey8n/mMJtWuezeyrb7okZBVB9Hn28v8PXL/cjnwcc mBg8BjrgFuAKk3tOuPj4dFyj55jfEZvVTGf3tfjnhKPgUgDV563xeTTB0hPwuJIDBS8qtvf+5xkg W/fznS6YR4t83QwoCRl7i3xjPK7US37QhbV+/M78ebtDj6pWANXnUZ/HJVj6RvC6AN1NzyySs+ln cLwCcYt/PHidDNnsAcMrJJs0lZSvFqJW0LQZW33eGp8nJlj6Eng9ynbC3HKGSwBz3nMCyy3PLRAt EBZWnrOr5JH0WfR1trBTNv06S+B9P8w/KoDq8zif1zMJFgJfCh6CLtfpQjOKHjlc40smLhTAS5Xv Sr/vP/qngzTxc74/VADV53E+ry+AN4e5fR68rOfrltaWwgR3BLa5N/QOmzWlXcyEy7x3KAezycPJ qhsogJ/a5wXVO83n9XFJAWZV7JNQc+54MTXwCaEld0gKB46Tgbre1M8ye4VSb2ilU3IJeO9G+Eyq gF/P5wFZo8eFm6t9Xi8kWJDqjeDRcBO3mo1Jydv1gH/uDitZMnFDcW+e8JYC49D+Lxi84b6toDV+ e0HjL/T2ePlw8TaEJnNOBD1PUFQ22CNhc1HwPovPS55f6/P6NMEygTd9HkjX83X3FUPoZ+27+/WA W8ymCW0RhLWhIrfXJ760qp8j4Sfw4WeV/6sFTfcFfZzPC+C9nM/DCZYRvHRz3Z72dnaF32+igOAw IJaqmHMIQnRZrX7cztiM8kWb85bCz02JmouCtxm8gs8rbnT7LD6PUb0o1OyawevNfdUQn9XEiuNh Qvfv8Ln7KwSw7MDAN/jHB79LmnChJyNJ6lfjD/cJP78KgK+w0e2z+LzpfUfVG8EDbiVDL4AH6Pdl ubMSXBJauhi+4M8GBr4YQhugC8DdoLwGQMPjxqtfoo5w3xm7Wv2MoH6bw8/PDuCZB1cyPg97vKN9 Hla9XX2epHrezxHw2MmXlBBiT8eHnRx8I5gBPqSIE3ADCT+HNPGCz3+QMqis+uUOW9lcJ7yo6r20 zxvBY1RvF5/XEfBCVjMPnkWTcnBiGcHNISdSsUi9ZoUb5udsBKW/XG/qFz0WoBv4UPR3Ifsper8a VfvydcAX8Xm7rs/rU5+HVa9cz6v0eWjbeOb3jMHjC+fzsWHWYvCC6lkGvCnhMnjPN8TPzfANBD6s foMQenLekLSslTpyzC5Z0ssXBO8JfF6ub7PF593uA+3RjHxgSz2va/J5LHxI8Qa+eO6ikHNwaeiI kyuz8rk41JwSLlQNMXxDDHg4noxTY3xK7qh+71KJZLXKfWYAH3xw5Rf3eZLqDbzqDaLqRRlNr3qG wudIthOrIQNfN8Tw/eayo9IZ8SU1qz2e+lMD+KCG6afzeajksKqe123yeTx4s+LdwHND6vWY7CQJ OafsKBOOzspHAfxA4WYRPogP5Owdc8y1dDBn7fi0y5Ge9eDKR/u8zlfejvN5UrhZhA+DJ6recjtR vdnrIf8XXueKYMOPZ+FjShDvUBl67qZ+NSGc+jz+qObKet5Wn2cKPq/Ut2mO8nkt4SYIqodgQRnQ VPUc8XtY9fBjxPP9SzpipOOoR/V7rz0HXlJCWKN+rwLgAxumofHgyhafZ1p8nle3noaYouIdUlao CDfH6yEONyFNsszPL+qV1Peu9+srVjda4zNCyeEfV3cWfBN8Ler3aQB8hYMr1xxokvF52X1Yet7n TXthdo19m+vKCkJ204ebfmJTxaMZyRbwDKntfTCvx8HHAojgm5IuLgPe4fA9M4AP8nluzcGV5Miu tT7P1Po8oX1MyGy2hpu5et6Q9nCm2c0B6sNNWnrwYF4N9XOc6uVCTkgbr3G5gVW+Vvg2hZ7PCuCT +Tzx4MoKn1e7D4vo86R9WPz7zeFmjc8rh5tR/6aLJ+IgF9PTJIu0MiFSPQLe9Q7blT4eeb2C6nHh pmHAExMupbBzd/V7NgC3qt5BCZaH+zxO8SSfF8AjK9NrVc/FE7DO54EQbuLsJq7puUyShfi9KtWD 8lKjEcIOng2+ZwHwmX3e2oMre+ZAE+rzmB2mq33eumVCkGz6h8NNAbzVPi8OPfPhJlW+VtVjQs7E 75Xqe6fD92gAjwo3n8XnUcU7y+cZ07RUKOvzmHoet1CW83nZJAsXbjJ1PYPhol6PgY6GnEX4WhMt uzVhPxrAJwo3RZ83hpvE22EIDanlsSfGPsLn7QEe8XnZel7O5yEwk+xmS7gJstfLqV4Ucppng+8R AJ4Zbq4ppCOfJ4WZks/zID2Dz8Pw5cELCRa8Gj34PC7BwtT0bEbx0HKiK76PQaPgseEm7KR65png OxvANfC1hpuP9nm15yoc7/Nk8PZIsKSKx/q8nOqJPg/4JAvr91pVL9fRUltq2A2+MwG0B4abz+Tz iOJt9XkN4WaArwm8Ut/mvGh2SFUql92MfB4ppq8KN4Uky6Gqdzh8ZwC4p+q9gM9rOleh5PNo+5gc booTROzbzCRY2EI62RRJrOcJipcrpkeeDoebjMerDjdNo+o9BL6jAdxb9dbuw5Kp563weRcMWM36 vE0+rxxuWm7iZMFbW0inqxW4et4Knxfen81uAr9qPanrmVdSvTMAtI9TvZb1eTmfR1Wrxefhrf42 +zyD+jZrw80AniEJFgk8qCikkzV6Uj2v2efh7SlAzm5+HtU7EsDakHOL6jWGm3S/zSaf15NC+uN9 Hjs5jkiw0MWxbFkhU8/b5PME+BLwTENZYQ14h8K3N4BHhJwVSRbXZcLN1r7Nhsxm9fq8A33eLgmW lkI67dusrOe1+jzL7NWyOtzMZTgfonpnArg15KxRPSm7yYSba3xeH4eTeZ/Xsj5vrc+rSbAcUEg3 ZANcCmCpnje+f6mLhSre3DxdU0TfK9w8Db49AVwD38qQMznUpKvMbq6t5/WkkJ52uAjn553k81oS LGD4hbHlQnrq84ZC3+aKet4qn/cy4eZRAO4JXybkjDKc3fpV6W/xuQlNO49V77d5pM+TlgidWUg/ s55nzPHh5kPg2wPAI+CryXB2aZLlR5fZfaxnws2+oW+zr0iw2PN93nJeXmalAlG9QwvpsK2eV/R5 Lx1uPgLAFeFmLuRM4KI1vZrsJl4cm1mV3r7DtNntGC8GvGJ2s6qQXloY21JIh+0+L6rnra3lvSR4 ewB4MHzFkLOLVa+42a0EHg43+9Pree0dLFsK6YzibWqYfqTPe7lwc08Aa+GrLKhHB5x0FSEnl+Hs i0mWS6Rq/YZwc9v6vDqf1wIeCD5vSAvpmxqmIV2VbmFnn7d1pcJLgLc3gK1Lh1rhqw05+7iThU2y 9I3h5pn1PJpgkQrptSvS6QZIDQtjq3xepnul6PO2JFheHrwtAG4NPQvwOSHcLIWcIzBU9XBNj2ua xuDllgmtPq65EG7WF9IXn8euzUv7Mpt93qpCesHnscuEahMse/i8p4ZvHJfHwme2wEdDzp5kOPtM Ta+vXK3Qur37QT6vupCeaZgOimcLhXRb2TCtPu8RALZAWgEf291Sgq+PQ86kjaxfEi19rIZpuNkz ZyuQcBO4cBMfalIbbu6QYLHlFeliw7QtFNLt0Q3TX9bn7QVga+JF8opCttORonUOvADR26J2UaJl Vr1eCDkl8OZwM3i9A8oKeKVCZSHdtuw8xjVMDwcU0jMN0+rzHqWAuQQMus81VBumb5O9eFguPQKz J+WFRQ0BQch7vd60H2oSMpsV4eaWQrpdU0hHDdOWUTzDhJunNUwfUUh/Wfi2AmgrbzNtZk5ayVAK OxF8hoGvjx/nVa9PG6j7ubDeS2fo3eFrCDdPK6QzimcHvm6X83lrG6Yf1rf50uC1Amg3AElgTM7a 69IVDj8KyhfB55Mtvb+fJFr6JAPKJFnM1DwtlBYi5cuq3h4+L0z6obmQHvk8bqNbq4X0T6KAa9TP FJYUMWv2aLaTVT4JvhBycso3Ch16r9sduMdQSUE9PU1oC3iZI7zsV2yY/hI+7wwPWKl+0+8QXzMX aa+WtzQZM4edLHy97Pe6qMul4xItUVdLRyeBLYBnGn2etCK9omHaFhqmrTZMvziA9mD1o6En2ZWM Tc70seeLejm5ZAv6uhg+w/s9Eynf4NEtKZ4xqIslBi8upJsddh6zhYZp+xkapj81fEdnQVvVr0sb r7mjvkx66tA94dKjMoKwRUQKX5eFL5tgEcCLEiz7N0xH7WNVCRb1eZ88C5qp9TWpH1nlHr7/LQVv 8n0XDBJTUqDZzqLyCT+Pu3/Z4NWul0LNmoZpW9kwTRMwNQ3TVhumPyGAdoPykeda1C9TE7zkdh/r bZzImeFDbW/TJg/x/TrFw0qXA6+1kF7RMG23LIzVhulPpIArjxRzCL4W9ftmZWCjLSPsUsvDC2Yj wDtenasnhATe7PHuqicW0lc0TFf5PKaI3tIw3bTRLQVQfd4TlCFqwk8Tb6TENWQnGy3l1E8CkoG4 i8NLckilW4xfyG7mvEoBvKpCemXDdJPP04bpL5qEsXXPg/B1UFgnWLhAgLfPbOpkbMVnLcEXoDM4 1Fwym4YpK4gJFm7nMalhWvJ53MGV2jCtWdAcnOwZfYaEn+j2W3z/Qj0bMCoaPW5Q8Vz6iDDOhXF2 duIEsoDKCUAUD4SVCmsapk/eYVp93rMDaBvCTuGxX+bedlajkJD5ugDVRQpjc3XJ9Fx0wF9zB8nd XrdbgIsmHkmuVIK3qmGaWRhrNy6M1Ybpr6CAhU4YyIADTAEfGpIlfeafg/OTbg4vLYEQdbVY8NW9 u4FcoIt8XwY8yCRYdmqYfpjPU/BeIAStySyS8dPPYfp93+K/20Xyf8U/vEUe7i504futPKFcNCln jwcMeFCXYNmtYfrIk4Q0wfLJPKDJh5WsckoX/1GBCSWnPjE0SSZfhybblOeE5S2AKB+dNDgEHYiq ZMFbU0h/1ElC6vO+BoA7jev4Sa/gQRPqUDN4jLdxbilHWM4bYuiMSQ6HNER5JPDEcPPAhumn8XkK 3nMB+KdXp3bZFC7S15m7UvUYlM7DGELOzjdOWz4zOqBs5/S0M4ZduV4Cr5BgSQrpoAtjFcCDxl+3 yx9r4JPKBRCHmPO186EuDj+dDzctScBY1EiN6n6WAX8OMxEARfAWiK5NO49pw7QC+JAhTIKP2+US T6br7foyxGHo3QeGDhSfEbUhkel8uGmZgr8w8SxSUQzhAHnwjEsTLNmdx0AXxuo4AUALzIRHk+L3 7fJd+O9s0dcCs2HtCNV87b9mhKAPiona0aypAJApN0S7lmXAY89I15OEdDyTAk5QWD55QsM/4EPC K4wq6HzrmfM4+SMsA3SDh6xHYWcuG2uxl0y9nzVkAW0reHaHHaZ1YawC2PbHsQX4SNofmP/aOAyd fV5IqrjI2k0IjisjgpcDv/GT8X2iNrPUaDBswsVGq9ZhBXigDdM6zgCQq6n5P9r7uAsa3GGwwKvd FIZmQkuD4LtdXW+3L5HfWyC3cP8sYFENcciEnhaiBIyVsp4+JL0a4Qz0CTyoSLBow7SO1QBKxeuK 7xEVkPg9IIX0UU3eEDzTy1kzlgQnCMf7QSXH8NN7TosTL9awXTNW8psYwLlRGmTwLBRWKmjDtI5V AK4BLpOIsUyXiiGlhUQFbw/9N66McPFGZN4PjteXwdf8LhBnPO2S+bTZiUaSL1dYoOMW1VLw2LPz 4OSGafV5XzQEBSGriLzgmDAohqG3yw+sgh4+40G0Jt0N0IeOU2JmLLwPXmUvTBM3Vl+62uEaA3i1 ceYzgqYWPLGQrj5Pxy4ASr5P8II4DK1SQVSPG68+/N03ExfNfdh59d7vYonn621q/64EwvH7DfO+ FMQPAUoWPFCfp6MqPlzx/IozAMfL/8jpt/Tk2/H6Z7c8Z5iDOKNd0vBRZmRLQfALeIVxlUoglnjA DwamavDU5+nYrIA1PrAUhnooOlj2hqGeb4JnDEXdskQpeWuveB/+e7+RFrNQooC7/7sm/zSEBu5E /QBlNBk1pOCN/u13BrynKqQrfC+mgNzXrDgDXlRBvAGvXU5FMpYooU1VLzz+jduqIvfzCfD9l8mG 0jCyFjzxqGZjtJCuY6UHzKylo2cmSCqYJEOc93Nj1tCr5LxYF+LwMtyfkjW3+x8IvG8WNWHnsrIG AWf48FO6/y/XnymApwkWHdsVcGcVxLtkO2Y7eoPu/xQ27BU3aCKf7c3f/shMZi4MtUQFp52lIe/x qsHTBIuOwwCsBJEeT81CiG7/xKfoFnZCq95wV1DASO3oyohG8DTBomP/EJQLN8VCHT8h5qSl82D5 26Yz0SLacPu3f30MIgbc1ng/6v8IBBF0BEYOuCrwahMs6vNUAQ9XQaKIv0IYSpWQCTOB2S3tB4au IflCAZzDSyOHopvAU5+n4xAAa70gDUUNDyEQELMAmhjGnyTxwiVhLJqkLHAmD114jUPB03BTAdwF QLMeQuDOiqAlhgr1++nv/q5QwMQHGl7tMIQKno5zAdwKYSEkxdnRoGIsiIZRwYzysSoIFSAyijeO h4Kn8CmA1d6wBCFVRXvfyh5KIFIAW38WkGG05DmsduP4e2tGEwogqeopgLup4AZF/AOdKwjM+REg nbpk6yYvBU0CMOlcWQueJlh07AbgnhAWYPyDOeAzCyDzmAU5FKUAdujxd1MIJ9eEmOrzdJwC4BoI M1D+QmC5gudrAbAjABahMyeAp/ApgKdAuBLMXxn4HPNYl9ns970UJq7xcwqejlMA3AJhK4iZ238K 4HEQ/pWb8HvCpj5Px8MA3OoRpcdq7teM0hnwLY8reDoeCuAWCGtA23JK7xoIYKfnFDwdpwFYep0W NWx5bo8BO99Xn6ejafQnwVyrXPZA2FrD0RboFDwdD1XAI0E8Gsg1ELZApeDpOBXAmte1Oz1+JoQK no6XAXAriC2fze4IAxz8Gjp0nArgXiCdGX4qdDo+FYBr3mvvr4UdoVTwdLwkgGvf8xH+T6HT8WkB 3Ov97YngKHQ6PiWAz/pZFDodX3LSP/JzKXA6FMCTPqvCpkPHAYBa/TXo0KFDh46q8X8BBgCx0vyA WKUG7gAAAABJRU5ErkJggg==" transform="matrix(1 0 0 1 21 124.5)">
	</image>
</g>
<g>
	<linearGradient id="SVGID_22_" gradientUnits="userSpaceOnUse" x1="55.2184" y1="132.6225" x2="208.7413" y2="132.6225">
		<stop offset="0" style="stop-color:#10276C"/>
		<stop offset="1" style="stop-color:#2A91FF"/>
	</linearGradient>
	<path class="st22" d="M208.7,31.5l-6.4-4.2c-0.8-0.5-1.8-0.7-2.7-0.1L58.1,111.7c-1.8,1-2.9,2.9-2.9,4.9v115.8   c0,0.9,0.5,1.6,1.2,1.8l6.2,4.1l3.3-3.4l-0.6-2.8l137.4-82.1c1.8-1,2.9-2.9,2.9-5l-0.8-111.4l2.9,0.2L208.7,31.5z"/>
	<linearGradient id="SVGID_23_" gradientUnits="userSpaceOnUse" x1="102.1158" y1="139.9151" x2="106.5418" y2="130.0796">
		<stop offset="0" style="stop-color:#3A478F;stop-opacity:0"/>
		<stop offset="1" style="stop-color:#2AA1FF"/>
	</linearGradient>
	<path class="st23" d="M208.7,31.5l-6.4-4.2c-0.8-0.5-1.8-0.7-2.7-0.1L58.1,111.7c-1.8,1-2.9,2.9-2.9,4.9l6.8,2.6l140.7-78.9   c1.8-1,2.9-2.9,2.9-5l-0.8-1.5l2.9,0.2L208.7,31.5z"/>
	<linearGradient id="SVGID_24_" gradientUnits="userSpaceOnUse" x1="116.5346" y1="93.5563" x2="224.3402" y2="-42.9457">
		<stop offset="0" style="stop-color:#FFFFFF;stop-opacity:0"/>
		<stop offset="1" style="stop-color:#5FC1FF"/>
	</linearGradient>
	<path class="st24" d="M208.7,31.5l-6.4-4.2c-0.8-0.5-1.8-0.7-2.7-0.1L58.1,111.7c-1.8,1-2.9,2.9-2.9,4.9l6.8,2.6l140.7-78.9   c1.8-1,2.9-2.9,2.9-5l-0.8-1.5l2.9,0.2L208.7,31.5z"/>
	<linearGradient id="SVGID_25_" gradientUnits="userSpaceOnUse" x1="94.4233" y1="166.9264" x2="59.8887" y2="201.4611">
		<stop offset="0" style="stop-color:#3A478F;stop-opacity:0"/>
		<stop offset="1" style="stop-color:#000023"/>
	</linearGradient>
	<path class="st25" d="M208.7,31.5l-6.4-4.2c-0.8-0.5-1.8-0.7-2.7-0.1L58.1,111.7c-1.8,1-2.9,2.9-2.9,4.9v115.8   c0,0.9,0.5,1.6,1.2,1.8l6.2,4.1l3.3-3.4l-0.6-2.8l137.4-82.1c1.8-1,2.9-2.9,2.9-5l-0.8-111.4l2.9,0.2L208.7,31.5z"/>
	<linearGradient id="SVGID_26_" gradientUnits="userSpaceOnUse" x1="97.954" y1="198.3685" x2="197.6125" y2="31.7964">
		<stop offset="0" style="stop-color:#3A478F"/>
		<stop offset="1" style="stop-color:#2A9CFF"/>
	</linearGradient>
	<linearGradient id="SVGID_27_" gradientUnits="userSpaceOnUse" x1="61.5648" y1="134.8723" x2="210.7917" y2="134.8723">
		<stop offset="0" style="stop-color:#FFFFFF;stop-opacity:0"/>
		<stop offset="1" style="stop-color:#1579FF"/>
	</linearGradient>
	<path class="st26" d="M207.8,153L64.7,238.4c-1.3,0.8-3-0.2-3-1.7V120.9c0-2,1.1-3.9,2.9-4.9l141.5-84.6c1.7-1,3.7,0.2,3.8,2.1   l0.8,114.5C210.7,150.1,209.6,152,207.8,153z"/>
	<linearGradient id="SVGID_28_" gradientUnits="userSpaceOnUse" x1="-9.956490e-03" y1="270.6677" x2="162.7475" y2="107.9103">
		<stop offset="0" style="stop-color:#10276C"/>
		<stop offset="1" style="stop-color:#2A91FF"/>
	</linearGradient>
	<linearGradient id="SVGID_29_" gradientUnits="userSpaceOnUse" x1="61.5648" y1="134.8723" x2="210.7917" y2="134.8723">
		<stop offset="0" style="stop-color:#FFFFFF;stop-opacity:0"/>
		<stop offset="1" style="stop-color:#6ACBFF"/>
	</linearGradient>
	<path class="st27" d="M207.8,153L64.7,238.4c-1.3,0.8-3-0.2-3-1.7V120.9c0-2,1.1-3.9,2.9-4.9l141.5-84.6c1.7-1,3.7,0.2,3.8,2.1   l0.8,114.5C210.7,150.1,209.6,152,207.8,153z"/>
	<g>

			<linearGradient id="SVGID_30_" gradientUnits="userSpaceOnUse" x1="1561.2961" y1="-2327.6641" x2="1559.0531" y2="-2321.2341" gradientTransform="matrix(0.9156 -0.3442 0.549 0.2632 -85.1698 1258.3673)">
			<stop offset="0.2065" style="stop-color:#05074C"/>
			<stop offset="1" style="stop-color:#0087FF"/>
		</linearGradient>

			<linearGradient id="SVGID_31_" gradientUnits="userSpaceOnUse" x1="-931.5223" y1="-2323.3398" x2="-925.8681" y2="-2323.3398" gradientTransform="matrix(-0.9156 0.3442 0.549 0.2632 492.6893 1041.123)">
			<stop offset="0" style="stop-color:#FFFFFF;stop-opacity:0"/>
			<stop offset="1" style="stop-color:#63CBFF"/>
		</linearGradient>
		<path class="st28" d="M64.8,110.7c-0.3-0.6,0.7-1.4,2.1-1.8s2.8-0.2,3.1,0.5s-0.7,1.4-2.1,1.8C66.5,111.5,65.1,111.3,64.8,110.7z"/>

			<linearGradient id="SVGID_32_" gradientUnits="userSpaceOnUse" x1="1569.6216" y1="-2330.074" x2="1567.3785" y2="-2323.6438" gradientTransform="matrix(0.9156 -0.3442 0.549 0.2632 -85.1698 1258.3673)">
			<stop offset="0.2065" style="stop-color:#05074C"/>
			<stop offset="1" style="stop-color:#0087FF"/>
		</linearGradient>

			<linearGradient id="SVGID_33_" gradientUnits="userSpaceOnUse" x1="-939.8478" y1="-2325.7495" x2="-934.1935" y2="-2325.7495" gradientTransform="matrix(-0.9156 0.3442 0.549 0.2632 492.6893 1041.123)">
			<stop offset="0" style="stop-color:#FFFFFF;stop-opacity:0"/>
			<stop offset="1" style="stop-color:#63CBFF"/>
		</linearGradient>
		<path class="st29" d="M71.1,107.2c-0.3-0.6,0.7-1.4,2.1-1.8c1.4-0.4,2.8-0.2,3.1,0.5c0.3,0.6-0.7,1.4-2.1,1.8    C72.8,108,71.4,107.8,71.1,107.2z"/>

			<linearGradient id="SVGID_34_" gradientUnits="userSpaceOnUse" x1="1577.9471" y1="-2332.4836" x2="1575.7041" y2="-2326.0537" gradientTransform="matrix(0.9156 -0.3442 0.549 0.2632 -85.1698 1258.3673)">
			<stop offset="0.2065" style="stop-color:#05074C"/>
			<stop offset="1" style="stop-color:#0087FF"/>
		</linearGradient>

			<linearGradient id="SVGID_35_" gradientUnits="userSpaceOnUse" x1="-948.1732" y1="-2328.1594" x2="-942.519" y2="-2328.1594" gradientTransform="matrix(-0.9156 0.3442 0.549 0.2632 492.6893 1041.123)">
			<stop offset="0" style="stop-color:#FFFFFF;stop-opacity:0"/>
			<stop offset="1" style="stop-color:#63CBFF"/>
		</linearGradient>
		<path class="st30" d="M77.4,103.7c-0.3-0.6,0.7-1.4,2.1-1.8c1.4-0.4,2.8-0.2,3.1,0.5s-0.7,1.4-2.1,1.8    C79.1,104.5,77.7,104.3,77.4,103.7z"/>
	</g>
	<g>
		<linearGradient id="SVGID_36_" gradientUnits="userSpaceOnUse" x1="212.6348" y1="91.6889" x2="-29.8103" y2="76.1117">
			<stop offset="0.2065" style="stop-color:#05074C"/>
			<stop offset="1" style="stop-color:#0087FF"/>
		</linearGradient>
		<linearGradient id="SVGID_37_" gradientUnits="userSpaceOnUse" x1="72.5293" y1="86.7575" x2="199.3011" y2="86.7575">
			<stop offset="0" style="stop-color:#FFFFFF;stop-opacity:0"/>
			<stop offset="1" style="stop-color:#63CBFF;stop-opacity:0.5"/>
		</linearGradient>
		<path class="st31" d="M198,54.3L74.1,128.3c-0.7,0.4-1.5-0.1-1.5-0.8v-6.7c0-0.5,0.3-1,0.7-1.3l124.3-74.2    c0.7-0.4,1.6,0.1,1.6,0.9v5.9C199.3,53,198.8,53.9,198,54.3z"/>
		<g class="st10">

				<ellipse transform="matrix(0.6378 -0.7702 0.7702 0.6378 -64.8695 104.3129)" class="st11" cx="78.5" cy="121.1" rx="2" ry="1.5"/>

				<ellipse transform="matrix(0.6378 -0.7702 0.7702 0.6378 -60.9383 107.0727)" class="st11" cx="83.4" cy="118.3" rx="2" ry="1.5"/>

				<ellipse transform="matrix(0.6378 -0.7702 0.7702 0.6378 -57.0071 109.8326)" class="st11" cx="88.3" cy="115.5" rx="2" ry="1.5"/>
		</g>
	</g>
</g>
<linearGradient id="SVGID_38_" gradientUnits="userSpaceOnUse" x1="64.2047" y1="134.4297" x2="208.093" y2="134.4297">
	<stop offset="0" style="stop-color:#007BFF"/>
	<stop offset="1" style="stop-color:#6ADBFF"/>
</linearGradient>
<path class="st32" d="M205.8,150.9L66.9,233.6c-0.9,0.5-2-0.1-2.1-1.2l-0.7-110.1c0-2,1-3.8,2.7-4.8l138-82.3  c1.1-0.6,2.5,0.1,2.5,1.4l0.7,110.1C208.1,148.5,207.2,150,205.8,150.9z"/>
<linearGradient id="SVGID_39_" gradientUnits="userSpaceOnUse" x1="136.1489" y1="237.0002" x2="136.1489" y2="56.8527">
	<stop offset="0" style="stop-color:#10276C"/>
	<stop offset="1" style="stop-color:#2A91FF"/>
</linearGradient>
<linearGradient id="SVGID_40_" gradientUnits="userSpaceOnUse" x1="64.0797" y1="134.4297" x2="208.218" y2="134.4297">
	<stop offset="0" style="stop-color:#FFFFFF;stop-opacity:0"/>
	<stop offset="1" style="stop-color:#6ACBFF"/>
</linearGradient>
<path class="st33" d="M205.8,150.9L66.9,233.6c-0.9,0.5-2-0.1-2.1-1.2l-0.7-110.1c0-2,1-3.8,2.7-4.8l138-82.3  c1.1-0.6,2.5,0.1,2.5,1.4l0.7,110.1C208.1,148.5,207.2,150,205.8,150.9z"/>
<linearGradient id="SVGID_41_" gradientUnits="userSpaceOnUse" x1="236.8022" y1="134.4297" x2="202.0749" y2="134.4297">
	<stop offset="0" style="stop-color:#000000"/>
	<stop offset="1" style="stop-color:#000000;stop-opacity:0"/>
</linearGradient>
<linearGradient id="SVGID_42_" gradientUnits="userSpaceOnUse" x1="64.0797" y1="134.4297" x2="208.218" y2="134.4297">
	<stop offset="0" style="stop-color:#FFFFFF;stop-opacity:0"/>
	<stop offset="1" style="stop-color:#6ACBFF"/>
</linearGradient>
<path class="st34" d="M205.8,150.9L66.9,233.6c-0.9,0.5-2-0.1-2.1-1.2l-0.7-110.1c0-2,1-3.8,2.7-4.8l138-82.3  c1.1-0.6,2.5,0.1,2.5,1.4l0.7,110.1C208.1,148.5,207.2,150,205.8,150.9z"/>
<g>
	<path class="st16" d="M101.8,128.6c-0.9,0.3-1.8,0.7-2.6,1.2c-0.9,0.6-1.7,1.2-2.3,2c-0.6,0.7-0.9,1.5-0.9,2.2   c0,0.8,0.8,1.1,2.3,0.8c1.1-0.2,1.9-0.4,2.2-0.4c0.4,0,0.7,0,1.1,0.1c0.4,0.1,0.7,0.3,0.9,0.6c0.2,0.3,0.3,0.7,0.3,1.3   c0,1.3-0.5,2.7-1.5,4.1c-1,1.4-2.2,2.5-3.5,3.3c-1.3,0.8-2.5,1.3-3.5,1.4l0.4-1.6c1.2-0.2,2.2-0.6,3-1.2c1-0.6,1.8-1.4,2.4-2.2   c0.6-0.9,0.9-1.7,0.9-2.5c0-0.6-0.2-1-0.6-1.2c-0.4-0.2-1.1-0.2-2.2,0.1c-1.1,0.2-1.8,0.3-2.1,0.4c-0.3,0-0.6,0-1-0.1   c-0.3-0.1-0.6-0.3-0.7-0.5c-0.2-0.3-0.3-0.6-0.3-1c0-1.1,0.5-2.3,1.4-3.5c0.9-1.2,2.1-2.2,3.5-3.1c1-0.6,2-1.1,3-1.5L101.8,128.6z"/>
	<path class="st16" d="M113.3,133.8l-8,4.9v-13.8l7.9-4.9v1.4l-6.1,3.8v4.3l5.9-3.7v1.4l-5.9,3.7v5.3l6.2-3.8V133.8z"/>
	<path class="st16" d="M124.7,125.8c-1.2,1.5-2.6,2.7-4.2,3.7c-2,1.2-3.5,1.5-4.5,1c-1-0.6-1.5-2.1-1.5-4.4c0-2.2,0.5-4.3,1.5-6.2   c1-1.9,2.5-3.5,4.6-4.7c0.7-0.5,1.5-0.8,2.2-1.1c0.7-0.3,1.3-0.4,1.7-0.4l-0.6,1.6c-1,0.1-2.1,0.5-3.3,1.3c-1.4,0.9-2.5,2-3.1,3.3   c-0.7,1.3-1,3-1,5c0,3.8,1.4,4.9,4.2,3.2c1.2-0.7,2.4-1.8,3.6-3.2L124.7,125.8z"/>
	<path class="st16" d="M134.8,116c0,1.6-0.4,3-1.1,4.2s-1.8,2.2-3.3,3.1c-3,1.8-4.4,1.2-4.4-1.8V112l1.8-1.1v9.4   c0,2.2,0.9,2.8,2.7,1.7c0.9-0.5,1.5-1.2,2-2c0.4-0.8,0.6-1.8,0.6-2.9v-9.3l1.8-1.1V116z"/>
	<path class="st16" d="M147.1,112.8l-2.2,1.4l-4.5-3.5l-2,1.2v6.3l-1.8,1.1v-13.8l4.3-2.7c1.5-0.9,2.6-1.3,3.4-1.2   c0.8,0.1,1.3,0.7,1.3,1.9c0,0.8-0.3,1.8-0.9,2.8c-0.6,1-1.5,2-2.5,2.9L147.1,112.8z M138.5,110.5l2.2-1.4c0.9-0.6,1.7-1.3,2.3-2.1   c0.6-0.8,0.9-1.6,0.9-2.3c0-1.5-1-1.7-3.1-0.4l-2.3,1.4V110.5z"/>
	<path class="st16" d="M155.1,107.8l-6.9,4.3v-1.4l2.6-1.6v-11l-2.6,1.6v-1.4l6.9-4.3v1.4l-2.5,1.6v11l2.5-1.6V107.8z"/>
	<path class="st16" d="M168,87.3l-4.7,2.9v12.5l-1.8,1.1V91.4l-4.7,2.9V93L168,86V87.3z"/>
	<path class="st16" d="M178.7,79.4l-4.8,10.9v5.9l-1.8,1.1v-5.9l-4.8-5l2-1.2l3.6,4l3.7-8.5L178.7,79.4z"/>
	<path class="st16" d="M121.2,134.9l3.9-2.4c1.5-0.9,2.6-1.3,3.5-1.2c0.9,0.1,1.3,0.8,1.3,1.9c0,1.2-0.4,2.4-1.3,3.6s-2,2.3-3.4,3.2   l-2.2,1.3v6.2l-1.8,1.1V134.9z M123,140l1.9-1.2c2.1-1.3,3.1-2.7,3.1-4.3c0-0.7-0.3-1.1-0.9-1.2c-0.6-0.1-1.3,0.1-2.2,0.7l-2,1.2   V140z"/>
	<path class="st16" d="M139.2,137.6l-6.9,4.3v-1.4l2.6-1.6v-11l-2.6,1.6v-1.4l6.9-4.3v1.4l-2.5,1.6v11l2.5-1.6V137.6z"/>
	<path class="st16" d="M151,130.3l-2,1.2l-5.5-7.5v10.9l-1.8,1.1v-13.8l2-1.2l5.5,7.4v-10.8l1.7-1.1V130.3z"/>
</g>
<g>
	<g>

			<ellipse transform="matrix(0.423 -0.9061 0.9061 0.423 -103.1795 195.3184)" class="st21" cx="101.8" cy="178.7" rx="8.2" ry="4.8"/>
		<g>
			<path class="st16" d="M101.3,179l-1.1,0.3l0.4-1.5l0.9,0.2l-0.2-1.3l1.1-0.6l-0.2,1.5l0.9-1.2l0.4,1l-1.1,0.9l0.9,0.6l-0.9,1.3     l-0.6-0.9l-0.6,1.6l-0.9-0.3L101.3,179z"/>
		</g>
	</g>
	<g>

			<ellipse transform="matrix(0.423 -0.9061 0.9061 0.423 -87.1786 204.0891)" class="st21" cx="116.7" cy="170.5" rx="8.2" ry="4.8"/>
		<g>
			<path class="st16" d="M116.2,170.9l-1.1,0.3l0.4-1.5l0.9,0.2l-0.2-1.3l1.1-0.6l-0.2,1.5l0.9-1.2l0.4,1l-1.1,0.9l0.9,0.6l-0.9,1.3     l-0.6-0.9l-0.6,1.6l-0.9-0.3L116.2,170.9z"/>
		</g>
	</g>
	<g>

			<ellipse transform="matrix(0.423 -0.9061 0.9061 0.423 -71.1778 212.8597)" class="st21" cx="131.6" cy="162.3" rx="8.2" ry="4.8"/>
		<g>
			<path class="st16" d="M131.1,162.7L130,163l0.4-1.5l0.9,0.2l-0.2-1.3l1.1-0.6l-0.2,1.5l0.9-1.2l0.4,1l-1.1,0.9l0.9,0.6l-0.9,1.3     l-0.6-0.9l-0.6,1.6l-0.9-0.3L131.1,162.7z"/>
		</g>
	</g>
	<g>

			<ellipse transform="matrix(0.423 -0.9061 0.9061 0.423 -55.177 221.6304)" class="st21" cx="146.4" cy="154.1" rx="8.2" ry="4.8"/>
		<g>
			<path class="st16" d="M146,154.5l-1.1,0.3l0.4-1.5l0.9,0.2l-0.2-1.3l1.1-0.6l-0.2,1.5l0.9-1.2l0.4,1l-1.1,0.9l0.9,0.6l-0.9,1.3     l-0.6-0.9l-0.6,1.6l-0.9-0.3L146,154.5z"/>
		</g>
	</g>
	<g>
		<ellipse transform="matrix(0.423 -0.9061 0.9061 0.423 -39.1762 230.4011)" class="st21" cx="161.3" cy="146" rx="8.2" ry="4.8"/>
		<g>
			<path class="st16" d="M160.9,146.3l-1.1,0.3l0.4-1.5l0.9,0.2l-0.2-1.3l1.1-0.6l-0.2,1.5l0.9-1.2l0.4,1l-1.1,0.9l0.9,0.6l-0.9,1.3     l-0.6-0.9l-0.6,1.6l-0.9-0.3L160.9,146.3z"/>
		</g>
	</g>
	<g>

			<ellipse transform="matrix(0.423 -0.9061 0.9061 0.423 -23.1754 239.1718)" class="st21" cx="176.2" cy="137.8" rx="8.2" ry="4.8"/>
		<g>
			<path class="st16" d="M175.8,138.1l-1.1,0.3l0.4-1.5l0.9,0.2l-0.2-1.3l1.1-0.6l-0.2,1.5l0.9-1.2l0.4,1l-1.1,0.9l0.9,0.6l-0.9,1.3     l-0.6-0.9l-0.6,1.6l-0.9-0.3L175.8,138.1z"/>
		</g>
	</g>
</g>
</svg>