<svg xmlns="http://www.w3.org/2000/svg" data-name="Layer 1" viewBox="0 0 250 250">
  <title>
    Smart-Industry_Icons
  </title>
  <circle cx="125" cy="125" r="122" fill="#eee"/>
  <path fill="#0082fc" fill-rule="evenodd" d="M50.19,184.3a1.42,1.42,0,0,1-1.42-1.41v-9.37a1.42,1.42,0,0,1,1.42-1.41H54.5V60.81a1.41,1.41,0,0,1,1.41-1.41h24.4a1.41,1.41,0,0,1,1.41,1.41v67.7h9.44V71.62a1.41,1.41,0,0,1,1.42-1.4H117a1.41,1.41,0,0,1,1.42,1.4v56.89h9.44v-45a1.41,1.41,0,0,1,1.4-1.42h24.4a1.42,1.42,0,0,1,1.42,1.42v45h33.37a9.87,9.87,0,0,1,9.85,9.86v33.74h4.31a1.41,1.41,0,0,1,1.41,1.41v9.37a1.41,1.41,0,0,1-1.41,1.41Zm151-2.82v-6.55H51.6v6.55Zm-5.72-9.37V138.37a7,7,0,0,0-2.05-5l-.08-.06a6.9,6.9,0,0,0-4.9-2H81.72v40.78Zm-116.56,0V62.23H57.32V172.11Zm73.34-43.6V84.93H130.66v43.58Zm-36.68,0V73H94v55.47ZM159,153.13a1.41,1.41,0,0,1,0-2.82h25.39a1.41,1.41,0,1,1,0,2.82Zm-33.13,0a1.41,1.41,0,0,1,0-2.82h25.38a1.41,1.41,0,0,1,0,2.82Zm-33.13,0a1.41,1.41,0,1,1,0-2.82h25.38a1.41,1.41,0,0,1,0,2.82Zm41.28-74.42a3.1,3.1,0,0,1-3-2.18,10.94,10.94,0,0,1-.36-1.69,9.71,9.71,0,0,1,1.19-6.11,11.88,11.88,0,0,1,4.24-4.27,11.09,11.09,0,0,1,5.64-1.6h.25a9.23,9.23,0,0,1,3.49.76l.14.06.13-.09a11.14,11.14,0,0,1,4.3-1.77,12,12,0,0,1,2.06-.19,10.78,10.78,0,0,1,2.22.23l.2,0,.1-.17a12.56,12.56,0,0,1,11.22-6.79,13.81,13.81,0,0,1,3.31.4,14.82,14.82,0,0,1,6.2,3.19,13.19,13.19,0,0,1,4.65,10.41,14,14,0,0,1-.93,4.65,13.78,13.78,0,0,1-2.47,4.06l-.09.09a3,3,0,0,1-1,.69,3,3,0,0,1-1.28.28Zm7.77-13a8.28,8.28,0,0,0-4.22,1.22,9,9,0,0,0-3.24,3.24,6.83,6.83,0,0,0-.91,3.11,7.55,7.55,0,0,0,.07,1.24,7.86,7.86,0,0,0,.25,1.19.26.26,0,0,0,.26.21h40a1.42,1.42,0,0,0,.6-.16,11.35,11.35,0,0,0,1.85-3.15,10.56,10.56,0,0,0,.74-3.7,10.34,10.34,0,0,0-3.68-8.21,11.77,11.77,0,0,0-5-2.58,10.85,10.85,0,0,0-2.64-.33,10,10,0,0,0-2.86.41,10.17,10.17,0,0,0-6.45,6,1.42,1.42,0,0,1-1.28.83,1.37,1.37,0,0,1-.49-.09,7.82,7.82,0,0,0-2.7-.46,8.78,8.78,0,0,0-1.53.13,8,8,0,0,0-3.82,1.81,1.48,1.48,0,0,1-.94.35,1.39,1.39,0,0,1-.69-.18,6.77,6.77,0,0,0-3.18-.89Z"/>
</svg>
