<?xml version="1.0" encoding="iso-8859-1"?>
<!-- Generator: Adobe Illustrator 19.1.0, SVG Export Plug-In . SVG Version: 6.00 Build 0)  -->
<svg version="1.1" id="Capa_1" xmlns="http://www.w3.org/2000/svg" xmlns:xlink="http://www.w3.org/1999/xlink" x="0px" y="0px"
	 viewBox="0 0 470.667 470.667" style="enable-background:new 0 0 470.667 470.667;" xml:space="preserve">
<g>
	<path style="fill:#CC521B;" d="M237.333,46c0,0,22.667-40,95.333-46c-21.333,15.333-40,28.667-46.667,47.333
		c18-12.667,60.667-26,94,2c-18-0.667-26.667,5.333-26.667,5.333S414,74,413.333,146c-8-9.333-19.333-9.333-19.333-9.333
		s75.333,143.333,6,254c-4.667-16.667-18-32-18-32s-8.667,66-40.667,93.333c2-40-10.667-55.333-10.667-55.333
		s-37.333,53.333-95.333,74c-58-20.667-95.333-74-95.333-74S127.333,412,129.333,452c-32-27.333-40.667-93.333-40.667-93.333
		s-13.333,15.333-18,32c-69.333-110.667,6-254,6-254s-11.333,0-19.333,9.333c-0.667-72,60-91.333,60-91.333s-8.667-6-26.667-5.333
		c33.333-28,76-14.667,94-2C178,28.667,159.333,15.333,138,0c72.667,6,95.333,46,95.333,46H237.333z"/>
	<path style="fill:#E86B2D;" d="M265.619,65.069c11.02-9.552,31.301-21.596,65.182-24.394c-17.051,12.256-31.971,22.913-37.3,37.833
		c14.387-10.124,48.49-20.781,75.133,1.599c-14.387-0.533-21.314,4.263-21.314,4.263s34.028,14.486,44.599,41.851
		c-6.394-7.46-20.57,0-20.57,0s75.645,131.298,20.228,219.752c-3.73-13.322-14.387-25.577-14.387-25.577
		s-9.061,53.435-34.638,75.282c0.016-0.324,0.03-0.646,0.042-0.963c0.641-17.698-21.928-25.612-32.458-11.373
		c-9.92,13.414-25.353,31.058-44.894,43.125c-9.864,6.091-21.305,9.138-32.897,9.138l0,0c-11.593,0-23.034-3.047-32.898-9.138
		c-19.542-12.067-34.974-29.711-44.894-43.125c-10.53-14.239-33.099-6.325-32.458,11.373c0.012,0.318,0.025,0.639,0.042,0.963
		c-25.577-21.847-34.639-75.282-34.639-75.282s-10.657,12.256-14.387,25.577c-55.417-88.454,20.228-219.752,20.228-219.752
		s-14.176-7.46-20.57,0c10.57-27.366,44.599-41.851,44.599-41.851s-6.927-4.796-21.314-4.263
		c26.643-22.38,60.746-11.723,75.133-1.599c-5.329-14.92-20.249-25.577-37.3-37.833c33.881,2.797,54.163,14.842,65.182,24.394
		c9.092,7.881,20.628,12.373,32.66,12.373h1.234C244.991,77.442,256.528,72.95,265.619,65.069z"/>
	<path style="fill:#EDA507;" d="M279.003,349.32v3.01c0,20.8-16.87,37.67-37.68,37.67h-11.98c-20.81,0-37.68-16.87-37.68-37.67
		v-3.01c6.79,2.71,14.77,2.47,21.84-1.72l21.83-12.93l21.83,12.93C264.233,351.79,272.213,352.03,279.003,349.32z"/>
	<path style="fill:#EDA507;" d="M317.083,170.47c12.33,18.18,15.42,41.09,8.33,61.87l-29.41,86.33c0-23.88-2.01-42.88-4.79-57.76
		c-5.01-26.8-28.39-46.24-55.66-46.24c-13.34,0-25.8,4.65-35.61,12.57c-9.81,7.92-16.97,19.1-19.74,32.16
		c-3.2,15.09-5.54,34.57-5.54,59.27l-29.41-86.33c-7.09-20.78-4-43.69,8.33-61.87l20.98-30.92c11.38-16.77,35.68-17.92,48.59-2.29
		l12.18,14.74l12.18-14.74c12.91-15.63,37.21-14.48,48.59,2.29L317.083,170.47z"/>
	<path style="fill:#FFB600;" d="M296.003,318.67l-1.53,10.96c-1.31,9.46-7.58,16.56-15.47,19.69c-6.79,2.71-14.77,2.47-21.84-1.72
		l-21.83-12.93l-21.83,12.93c-7.07,4.19-15.05,4.43-21.84,1.72c-7.89-3.13-14.16-10.23-15.47-19.69l-1.53-10.96
		c0-24.7,2.34-44.18,5.54-59.27c2.77-13.06,9.93-24.24,19.74-32.16c9.81-7.92,22.27-12.57,35.61-12.57
		c27.27,0,50.65,19.44,55.66,46.24C293.993,275.79,296.003,294.79,296.003,318.67z"/>
	<path style="fill:#4D4D4D;" d="M235.333,334.667c0-17.137,16.005-31.226,23.814-37.08c2.474-1.855,3.51-5.061,2.579-8.01h0
		c-1.286-4.071-5.787-6.163-9.728-4.521L235.333,292l-16.665-6.944c-3.941-1.642-8.442,0.45-9.728,4.521l0,0
		c-0.931,2.949,0.105,6.155,2.579,8.01C219.328,303.441,235.333,317.53,235.333,334.667z"/>
	<g>
		<path style="fill:#4D4D4D;" d="M197.034,214.667l-0.48-10.789c-0.458-10.306-10.795-17.234-20.484-13.692
			c-5.461,1.996-10.571,4.435-13.037,7.147C171.701,202,195.035,204.667,197.034,214.667z"/>
		<path style="fill:#4D4D4D;" d="M273.633,214.668l0.479-10.789c0.458-10.306,10.795-17.234,20.484-13.692
			c5.461,1.996,10.571,4.435,13.037,7.147C298.966,202,275.631,204.667,273.633,214.668z"/>
	</g>
</g>
<g>
</g>
<g>
</g>
<g>
</g>
<g>
</g>
<g>
</g>
<g>
</g>
<g>
</g>
<g>
</g>
<g>
</g>
<g>
</g>
<g>
</g>
<g>
</g>
<g>
</g>
<g>
</g>
<g>
</g>
</svg>
