<?xml version="1.0" standalone="no"?>
<!DOCTYPE svg PUBLIC "-//W3C//DTD SVG 20010904//EN"
 "http://www.w3.org/TR/2001/REC-SVG-20010904/DTD/svg10.dtd">
<svg version="1.0" xmlns="http://www.w3.org/2000/svg"
 width="1280.000000pt" height="802.000000pt" viewBox="0 0 1280.000000 802.000000"
 preserveAspectRatio="xMidYMid meet">
<metadata>
Created by potrace 1.15, written by Peter Selinger 2001-2017
</metadata>
<g transform="translate(0.000000,802.000000) scale(0.100000,-0.100000)"
fill="#000000" stroke="none">
<path d="M5580 8010 c-30 -5 -85 -8 -121 -9 -113 -2 -324 -71 -534 -177 -60
-30 -115 -55 -121 -54 -7 0 -43 -24 -80 -54 -38 -29 -95 -68 -126 -85 -31 -18
-84 -57 -118 -87 -33 -30 -83 -65 -109 -79 -31 -15 -77 -55 -123 -105 -40 -45
-106 -109 -146 -142 -108 -89 -253 -255 -436 -498 -192 -255 -182 -241 -235
-360 -23 -52 -64 -133 -91 -180 -26 -47 -63 -121 -80 -165 -17 -44 -47 -107
-65 -140 -18 -33 -41 -85 -50 -115 -10 -30 -35 -94 -56 -142 -21 -48 -63 -171
-94 -275 -50 -168 -58 -209 -78 -391 l-22 -203 -34 25 c-49 36 -65 21 -58 -54
5 -51 -5 -186 -16 -196 -2 -2 -30 7 -63 22 -76 34 -146 41 -204 20 -25 -8 -48
-12 -51 -8 -4 4 -21 46 -38 94 -35 100 -44 119 -116 243 -29 50 -74 127 -100
171 -49 84 -89 119 -106 92 -14 -22 -11 -36 41 -151 37 -84 53 -137 65 -212 9
-55 25 -133 36 -174 24 -94 24 -91 -9 -91 -41 0 -130 -28 -171 -55 -36 -23
-211 -196 -211 -209 0 -16 31 -66 41 -66 6 0 52 41 103 91 100 101 148 128
236 136 l57 6 38 -137 38 -136 40 -11 c51 -13 118 -4 150 21 26 21 52 99 42
130 -3 10 -27 49 -52 87 l-45 68 43 13 c24 7 60 11 80 8 32 -5 129 -42 129
-50 0 -2 -9 -29 -21 -62 -29 -86 -28 -144 6 -243 21 -61 41 -97 73 -132 24
-27 47 -49 51 -49 3 0 14 12 22 27 16 25 15 27 -19 72 -85 111 -93 179 -42
341 18 58 38 137 45 175 22 124 30 44 10 -102 -21 -157 -15 -244 20 -318 35
-75 58 -99 83 -90 31 9 28 35 -14 120 l-36 74 11 101 c6 55 11 124 11 153 0
45 2 49 15 37 28 -29 106 -176 126 -240 26 -81 29 -202 7 -245 -9 -16 -28 -41
-43 -55 -41 -38 -46 -54 -35 -104 5 -25 14 -96 20 -159 5 -63 23 -187 39 -275
21 -110 27 -170 22 -189 -19 -64 -54 -138 -103 -222 -29 -50 -68 -117 -87
-150 -19 -34 -63 -88 -97 -121 l-62 -60 -82 0 c-151 0 -254 32 -415 128 -132
79 -192 130 -239 204 l-46 72 1 120 c0 70 7 161 17 216 17 90 19 95 45 98 l26
3 -16 -46 c-22 -65 -14 -152 17 -177 30 -24 81 -23 114 3 21 16 26 29 26 63 0
67 -17 103 -61 129 l-39 24 20 25 c11 15 20 31 20 36 0 24 -38 37 -120 43 -91
6 -117 17 -178 73 -35 32 -68 89 -83 139 -8 27 -6 29 14 23 12 -4 45 -9 74
-13 45 -5 58 -2 106 26 51 29 55 34 61 77 3 26 1 64 -4 86 -13 48 -73 94 -280
215 -80 47 -204 121 -276 164 -72 43 -157 91 -188 105 -55 25 -58 25 -71 8 -8
-11 -15 -22 -15 -25 0 -11 54 -74 104 -119 27 -25 95 -99 151 -165 57 -66 126
-142 155 -170 92 -88 110 -119 110 -190 0 -96 21 -150 82 -212 l53 -54 -59 26
c-32 14 -86 32 -120 40 -33 8 -82 21 -107 29 -25 8 -84 17 -131 21 l-86 7 -7
-31 c-9 -40 -2 -50 75 -107 51 -39 72 -63 99 -114 77 -150 173 -300 213 -334
39 -33 117 -66 158 -66 13 0 19 -12 23 -45 18 -125 132 -263 280 -335 77 -38
86 -45 74 -59 -105 -123 -174 -214 -202 -269 -52 -101 -47 -97 -90 -67 -48 32
-79 28 -153 -22 l-52 -36 -38 26 c-61 43 -386 402 -512 567 -32 41 -67 83 -78
93 -17 15 -19 24 -11 44 15 41 10 158 -11 256 -29 127 -99 267 -209 414 l-24
32 27 31 c17 21 26 43 26 66 0 33 -3 35 -92 79 -51 24 -109 54 -128 65 -48 28
-94 23 -98 -10 -4 -35 52 -264 72 -295 19 -28 48 -32 86 -10 14 8 28 14 32 15
11 0 121 -166 157 -238 33 -66 71 -225 71 -296 0 -41 -29 -118 -48 -130 -5 -3
-25 18 -43 46 -19 29 -55 78 -80 108 -80 96 -102 136 -90 159 20 36 12 59 -37
101 -78 70 -144 110 -179 110 -36 0 -66 -24 -59 -49 3 -9 13 -54 22 -101 27
-138 50 -166 128 -155 l42 7 74 -94 c70 -88 140 -193 140 -210 0 -17 -89 -30
-170 -25 -96 5 -208 39 -274 84 -54 37 -137 123 -161 166 -17 32 -17 37 -2 80
l15 46 -51 39 c-29 22 -73 53 -99 69 -25 15 -61 40 -80 55 -18 14 -42 28 -53
30 -27 4 -31 -41 -11 -120 9 -33 16 -91 16 -129 0 -87 16 -113 68 -113 20 0
51 9 67 20 17 11 33 20 36 20 4 0 37 -40 73 -89 86 -115 132 -156 223 -198
135 -62 335 -85 432 -49 24 9 47 16 52 16 4 0 49 -51 100 -112 52 -62 154
-174 229 -248 74 -74 173 -182 219 -238 l83 -104 -36 -30 c-66 -54 -108 -156
-87 -211 8 -19 23 -29 64 -41 70 -20 89 -43 95 -111 3 -41 -2 -71 -22 -127
-14 -40 -35 -127 -47 -193 -39 -220 -14 -365 76 -444 l35 -30 -113 -113 c-182
-184 -247 -261 -240 -286 11 -45 38 -26 148 104 92 108 359 360 430 406 39 25
149 104 245 176 161 120 180 132 260 155 135 40 153 41 247 16 83 -22 91 -22
239 -10 84 7 170 17 191 23 90 24 400 213 486 296 54 52 196 231 219 277 27
53 76 218 83 282 4 34 12 69 19 78 9 13 11 1 8 -58 -3 -46 2 -103 13 -150 l17
-76 -36 -100 c-74 -209 -130 -293 -328 -487 -152 -149 -301 -280 -347 -303
-22 -12 -117 -41 -253 -76 -74 -19 -111 -45 -64 -45 66 0 226 23 273 40 103
36 265 161 466 359 103 102 201 206 217 231 15 25 45 86 66 135 21 50 40 92
42 95 5 7 20 -19 38 -66 l16 -41 -47 -99 c-59 -122 -91 -170 -174 -258 -69
-72 -228 -205 -296 -248 -22 -14 -47 -33 -55 -43 -14 -17 -13 -17 10 -10 47
14 102 46 228 133 162 110 244 192 302 300 69 126 65 123 86 77 25 -57 21
-109 -15 -194 -105 -249 -245 -409 -519 -594 -171 -115 -239 -145 -353 -157
-96 -10 -199 -27 -207 -34 -2 -3 7 -10 19 -17 14 -7 69 -12 139 -13 l117 -1
104 52 c155 77 399 243 503 343 100 96 148 160 230 308 31 56 59 102 60 102 2
0 11 -12 20 -26 17 -25 16 -29 -37 -152 -30 -70 -60 -142 -67 -161 -8 -18 -34
-61 -58 -95 -113 -154 -226 -259 -341 -320 -97 -51 -303 -131 -417 -161 -54
-15 -101 -29 -104 -32 -11 -12 115 12 260 48 246 62 386 141 545 311 105 111
161 194 226 332 29 64 59 116 64 116 6 0 30 -19 53 -43 l41 -42 -29 -103 c-51
-176 -78 -221 -220 -362 -69 -69 -145 -142 -170 -163 l-45 -37 55 26 c72 35
169 114 277 228 99 104 157 194 174 273 7 29 15 53 18 53 3 -1 24 -18 47 -38
l41 -37 -36 -91 c-21 -52 -63 -127 -97 -175 -81 -113 -108 -159 -99 -167 11
-12 167 168 242 280 l52 78 31 -26 c45 -39 60 -75 60 -146 -1 -138 -60 -281
-163 -394 -59 -65 -187 -176 -257 -224 -64 -44 -181 -142 -176 -147 5 -5 144
81 278 171 78 52 218 178 263 236 53 68 92 144 120 234 l23 69 32 -44 c44 -61
132 -229 166 -317 29 -76 41 -85 82 -56 59 41 -1 201 -210 550 -35 60 -72 104
-140 165 -135 123 -370 404 -427 509 -16 30 -45 100 -64 155 -19 55 -53 143
-74 195 -22 52 -43 109 -47 125 l-7 30 20 -25 c11 -13 31 -49 44 -80 82 -181
101 -219 124 -253 25 -36 79 -74 90 -64 2 3 7 23 10 44 4 29 -1 51 -17 84 -13
24 -36 82 -52 129 -15 47 -50 121 -77 165 -27 44 -79 143 -115 221 l-66 140 0
134 c0 113 10 242 36 447 7 56 20 62 38 19 18 -44 23 -82 36 -271 13 -188 39
-308 86 -394 43 -80 65 -104 169 -186 88 -70 115 -102 133 -154 24 -70 72 -91
112 -51 31 31 25 78 -20 171 -22 46 -40 88 -40 95 0 6 -14 56 -31 110 -34 108
-35 152 -9 364 13 99 9 197 -11 315 -9 55 -9 86 0 143 7 39 17 70 22 66 24
-14 41 -76 54 -192 38 -337 90 -590 146 -707 63 -132 160 -234 198 -210 17 10
13 297 -4 375 -8 36 -26 135 -40 220 -46 276 -64 373 -81 455 -11 50 -15 91
-10 110 l8 30 20 -25 c31 -39 64 -109 86 -185 51 -176 113 -405 122 -454 18
-97 109 -269 201 -381 20 -25 46 -64 57 -86 26 -51 81 -101 258 -234 192 -145
262 -207 338 -301 69 -87 103 -150 143 -264 38 -108 39 -186 9 -355 -31 -167
-43 -342 -27 -382 5 -15 23 -34 40 -42 29 -15 29 -15 40 16 6 17 11 62 11 99
0 43 8 91 20 126 11 32 31 129 45 216 29 178 28 195 -24 365 -32 104 -105 239
-179 336 -31 40 -39 57 -26 51 130 -57 311 -92 418 -81 98 10 344 71 446 111
221 85 333 125 337 121 2 -2 -12 -35 -31 -72 -45 -87 -67 -187 -73 -340 -9
-196 19 -285 161 -518 48 -80 75 -138 100 -220 20 -61 42 -120 49 -131 13 -17
17 -18 32 -5 15 12 17 26 12 80 -7 90 -34 164 -132 370 -45 96 -88 191 -95
210 -21 59 -25 305 -6 378 42 165 151 339 315 502 125 124 293 324 350 415 75
121 104 426 81 860 -24 437 -23 398 -2 426 11 13 22 22 25 19 8 -9 76 -400 92
-530 25 -206 36 -268 60 -339 42 -125 63 -149 143 -164 79 -15 103 35 109 224
4 148 10 117 -107 557 -34 129 -78 462 -60 462 12 0 148 -361 228 -605 27 -82
68 -189 90 -237 34 -74 48 -92 91 -124 29 -20 61 -54 71 -74 11 -21 33 -48 49
-59 l29 -21 31 36 c36 45 55 118 46 176 -4 24 -25 82 -47 130 -164 367 -326
804 -304 825 21 21 165 -185 223 -318 11 -25 36 -69 56 -97 19 -29 41 -68 48
-89 6 -20 26 -69 45 -109 18 -39 42 -103 53 -140 28 -90 47 -114 98 -121 40
-5 41 -4 53 31 11 33 9 43 -23 119 -19 45 -38 96 -41 112 -6 29 -5 28 41 -20
60 -64 119 -192 134 -287 24 -154 -5 -267 -143 -558 -60 -125 -227 -431 -287
-525 -14 -22 -73 -127 -132 -233 -113 -203 -152 -306 -199 -513 -18 -84 -21
-117 -16 -250 5 -166 27 -342 52 -428 19 -65 66 -162 88 -180 17 -14 126 -32
126 -20 0 4 -20 25 -45 46 -52 43 -67 77 -95 217 -29 144 -26 152 24 66 102
-173 228 -300 445 -448 141 -97 188 -114 331 -120 63 -2 131 0 150 5 34 10 33
10 -40 22 -124 21 -261 60 -308 87 -56 33 -217 154 -313 237 -154 132 -331
454 -328 596 1 35 2 34 34 -36 63 -134 161 -271 274 -384 124 -124 150 -142
293 -197 164 -64 170 -49 13 30 -163 82 -290 197 -397 358 -76 116 -112 191
-154 322 -29 89 -35 121 -31 160 4 27 9 53 12 59 4 5 34 -34 67 -88 82 -135
157 -233 220 -286 399 -338 502 -400 723 -438 39 -6 94 -20 124 -30 66 -23
104 -24 121 -4 11 13 8 15 -20 15 -38 0 -384 112 -452 146 -54 27 -148 97
-273 203 -222 189 -318 299 -399 462 -60 119 -65 148 -36 210 13 27 26 49 29
49 3 0 27 -42 53 -93 135 -264 324 -460 476 -492 31 -6 33 -6 23 13 -6 11 -23
23 -37 26 -15 4 -46 20 -68 36 -138 98 -254 254 -326 436 -17 43 -41 99 -53
123 l-22 43 31 56 c16 31 34 57 40 59 5 2 22 -25 37 -60 79 -182 270 -404 432
-504 126 -78 183 -103 258 -110 l65 -6 -24 -35 c-51 -75 -38 -115 40 -126 l43
-7 6 -50 c3 -27 9 -54 12 -59 3 -6 28 -10 55 -10 47 0 50 -2 64 -34 14 -34 59
-66 92 -66 10 0 40 13 68 28 46 26 54 28 81 16 17 -7 48 -13 71 -14 37 0 46 5
98 60 32 34 68 84 83 117 38 86 99 163 127 163 33 0 83 19 140 53 60 34 83 32
185 -19 80 -40 137 -97 253 -256 40 -55 110 -143 155 -195 100 -116 174 -253
249 -463 35 -98 57 -146 68 -148 24 -5 21 48 -10 187 -18 83 -41 148 -78 227
-64 133 -102 191 -191 291 -38 41 -85 101 -105 132 -84 130 -224 277 -298 315
-29 14 -52 31 -52 37 0 6 28 41 61 77 65 69 116 165 161 302 l23 70 40 0 c115
1 386 70 511 130 92 44 214 150 252 219 l24 42 -31 12 c-17 6 -31 14 -31 17 0
3 22 13 49 23 65 23 184 102 252 168 39 38 69 81 102 148 26 51 47 99 47 105
0 7 -12 18 -27 25 l-28 13 45 36 c149 120 237 253 228 345 -4 43 -30 46 -117
12 -38 -15 -74 -26 -81 -23 -6 2 10 19 37 38 160 115 249 198 389 363 124 147
153 189 204 290 40 78 60 131 60 154 0 33 -2 35 -27 28 -14 -3 -74 -33 -132
-65 -94 -52 -196 -96 -583 -252 -54 -21 -160 -54 -236 -73 -75 -18 -175 -48
-222 -65 -47 -17 -128 -47 -180 -66 -52 -19 -106 -42 -120 -52 -53 -38 -53
-38 -47 7 9 72 -18 131 -62 131 -6 0 -16 -20 -22 -44 -13 -52 -33 -73 -77 -82
-24 -5 -32 -3 -32 7 1 25 57 90 125 144 151 120 224 273 212 445 -11 158 -46
276 -119 401 -51 88 -74 108 -208 181 l-115 63 -107 2 -108 2 -42 45 c-52 53
-107 72 -261 88 -190 20 -279 -6 -457 -136 -184 -134 -203 -154 -263 -275 -44
-86 -57 -125 -67 -193 -13 -83 -12 -89 14 -171 14 -47 26 -104 26 -126 0 -40
-23 -101 -38 -101 -16 1 -31 17 -37 43 -9 35 -41 57 -82 57 -29 0 -33 -4 -45
-42 -12 -42 -13 -42 -19 67 -4 61 -7 182 -8 270 -1 181 -39 465 -91 685 -17
69 -39 172 -50 230 -60 311 -176 784 -245 998 -25 79 -68 187 -95 240 -26 53
-69 140 -94 192 -24 52 -60 118 -78 145 -173 256 -242 351 -307 420 -42 44
-99 112 -126 152 -28 40 -98 121 -157 182 -83 84 -137 129 -240 197 -196 129
-279 164 -485 208 -303 64 -411 79 -572 77 -214 -1 -295 -14 -483 -73 -212
-67 -234 -67 -362 -5 -168 81 -331 109 -496 87z m1550 -150 c140 -11 359 -54
486 -96 234 -76 527 -292 657 -484 28 -41 84 -108 123 -147 40 -40 85 -94 100
-120 15 -27 69 -106 119 -178 160 -226 254 -401 319 -598 79 -236 97 -299 126
-427 17 -74 39 -164 50 -200 18 -62 70 -298 105 -479 9 -46 28 -120 41 -165
14 -44 39 -173 56 -286 27 -177 32 -245 39 -500 10 -396 -15 -682 -71 -807
l-22 -48 -43 91 c-60 130 -117 213 -227 334 l-96 106 39 79 c68 140 72 173 64
565 -6 327 -8 356 -41 556 -35 222 -53 300 -128 579 -54 203 -66 239 -140 415
-94 222 -156 325 -307 505 -36 44 -99 123 -138 175 -83 109 -131 161 -208 227
-53 45 -56 46 -69 28 -8 -10 -14 -25 -14 -33 0 -7 35 -48 78 -90 42 -42 115
-126 162 -187 46 -60 114 -146 150 -190 107 -128 159 -204 205 -295 144 -287
280 -758 339 -1170 21 -149 26 -227 31 -525 l5 -350 -27 -125 c-15 -69 -28
-127 -30 -129 -2 -3 -9 2 -16 11 -6 9 -52 67 -101 129 -49 63 -116 143 -147
178 l-59 63 34 40 c70 82 119 291 97 413 -14 76 -72 196 -112 229 -60 50 -135
55 -210 14 -68 -38 -77 -103 -19 -133 28 -14 33 -14 70 5 52 27 65 25 90 -9
68 -97 68 -252 0 -434 l-21 -57 -50 0 c-27 0 -49 4 -49 10 0 5 12 39 27 75 25
62 26 67 12 112 -14 45 -17 48 -51 51 -51 4 -78 -24 -78 -80 -1 -24 -7 -70
-15 -103 -8 -33 -15 -77 -15 -97 0 -44 -4 -45 -45 -18 -56 37 -119 20 -150
-40 -22 -43 -20 -103 16 -393 6 -49 9 -90 7 -93 -3 -2 -13 35 -22 83 -24 124
-47 170 -92 189 -72 30 -135 -5 -159 -91 -22 -77 -35 -251 -24 -320 12 -80 12
-564 0 -690 -14 -132 -44 -238 -88 -305 -95 -145 -300 -368 -385 -418 -24 -14
-69 -45 -101 -68 -32 -24 -82 -52 -113 -63 -30 -12 -84 -41 -119 -65 -70 -48
-263 -124 -398 -156 -45 -11 -107 -27 -137 -35 -69 -19 -164 -19 -273 0 -108
19 -178 45 -256 95 -90 58 -127 75 -216 99 -67 18 -95 33 -175 92 -127 95
-132 99 -216 212 -87 115 -148 235 -170 332 -9 39 -40 163 -70 278 -45 174
-62 225 -109 317 -42 82 -69 121 -107 155 -54 48 -73 53 -117 30 -38 -19 -44
-35 -50 -129 l-6 -78 -49 71 c-52 76 -69 86 -149 82 -37 -1 -63 -45 -77 -133
l-12 -69 -54 108 c-54 108 -54 108 -39 146 8 20 15 53 15 72 l0 34 -63 -6 -63
-6 -47 49 c-47 49 -79 107 -132 236 -15 37 -51 98 -80 137 -73 96 -95 160
-108 307 l-10 122 31 66 c17 36 36 66 43 66 6 0 33 -8 58 -17 54 -19 76 -14
93 21 9 20 8 30 -6 50 -23 36 -87 66 -140 66 -40 0 -50 -5 -86 -42 -100 -103
-132 -259 -95 -454 19 -98 61 -189 130 -279 38 -51 61 -93 80 -152 42 -132
121 -234 247 -320 78 -53 158 -228 214 -466 41 -177 43 -194 28 -287 -15 -94
-18 -232 -5 -297 5 -24 5 -43 1 -43 -14 0 -79 78 -100 121 -29 55 -55 197 -75
408 -22 236 -63 344 -142 377 -64 27 -105 -17 -134 -144 -20 -93 -51 -474 -44
-559 4 -46 3 -83 -2 -83 -23 1 -31 22 -38 95 -12 137 -64 364 -100 435 -13 25
-40 99 -61 165 -20 66 -48 146 -61 179 -13 32 -44 136 -69 230 -25 94 -52 191
-60 215 -36 106 -65 329 -67 509 l-2 177 43 165 c60 232 86 307 157 455 100
208 214 344 334 397 35 16 55 19 111 13 107 -11 147 19 195 144 14 38 35 77
47 87 11 11 47 57 79 104 103 151 238 267 449 387 58 33 141 83 185 110 44 28
134 82 200 121 155 91 453 294 592 401 136 106 276 250 308 316 33 68 48 198
34 282 -6 35 -13 63 -16 63 -2 0 -17 -7 -33 -15 -30 -15 -30 -16 -30 -101 0
-47 -7 -116 -16 -154 -14 -64 -22 -77 -95 -159 -58 -66 -125 -125 -253 -220
-95 -71 -191 -140 -212 -153 -21 -12 -60 -38 -85 -58 -25 -20 -93 -62 -150
-94 -171 -96 -290 -168 -351 -213 -31 -23 -83 -55 -115 -71 -93 -47 -273 -170
-331 -226 -67 -64 -109 -120 -161 -216 -22 -41 -41 -70 -41 -63 0 36 -47 129
-100 199 -33 43 -60 86 -60 94 0 33 43 81 155 175 150 126 223 197 208 202 -7
3 -32 -9 -55 -25 -24 -16 -86 -55 -138 -85 -67 -39 -116 -76 -161 -124 l-65
-70 -51 47 c-27 25 -65 50 -84 56 -36 11 -103 2 -125 -17 -27 -22 -26 -85 2
-219 l28 -131 -61 -62 c-108 -111 -410 -572 -459 -700 -15 -39 -46 -121 -69
-182 -44 -115 -60 -175 -46 -175 19 0 44 46 101 185 85 208 120 270 285 509
157 229 275 363 275 315 0 -6 23 -52 52 -102 48 -83 51 -91 34 -101 -75 -46
-137 -90 -168 -120 -42 -41 -180 -231 -210 -290 -67 -130 -162 -428 -214 -666
-18 -87 -20 -246 -4 -407 14 -134 33 -231 70 -348 16 -49 40 -140 53 -201 30
-132 127 -390 198 -528 49 -93 113 -258 145 -371 8 -28 14 -94 14 -150 0 -85
-6 -123 -35 -231 -49 -178 -104 -284 -212 -411 -101 -118 -164 -173 -243 -213
-78 -39 -239 -102 -251 -98 -5 2 27 30 72 63 132 97 216 207 250 330 29 107
42 316 31 515 -8 158 -12 184 -42 265 -75 210 -101 296 -121 390 -29 143 -49
297 -49 392 0 115 -17 228 -46 299 -13 33 -24 81 -24 107 0 25 -5 58 -10 72
-8 20 -5 43 12 98 25 83 29 204 10 282 -7 28 -47 111 -88 185 l-75 135 6 170
c9 214 35 351 114 585 101 300 228 571 401 860 31 52 87 153 124 225 37 71 82
145 100 165 17 19 60 78 96 130 35 52 105 136 154 185 50 50 116 120 146 155
87 103 313 325 361 355 24 16 94 61 154 100 217 143 436 243 660 301 98 26
125 29 245 27 200 -3 346 -27 454 -75 49 -22 120 -44 161 -50 68 -10 77 -10
146 15 81 29 266 79 399 108 90 20 127 20 390 -1z m-3043 -2008 c89 -132 103
-171 83 -233 -17 -50 -22 -53 -62 -36 -26 11 -44 33 -86 109 -44 80 -56 115
-82 231 -17 76 -30 141 -30 145 1 18 103 -106 177 -216z m6412 -1042 c105 -12
165 -44 191 -102 l18 -40 98 -2 99 -1 95 -53 c128 -71 188 -134 228 -241 63
-163 84 -372 47 -455 -20 -47 -82 -139 -119 -179 -22 -24 -31 -27 -59 -22 -17
4 -34 9 -36 11 -2 1 6 31 18 65 24 70 29 204 10 258 -12 35 -41 55 -68 46 -12
-4 -33 9 -68 42 -27 27 -70 66 -94 88 -57 51 -75 106 -66 203 4 37 4 91 0 120
-5 49 -8 52 -33 52 -37 0 -50 -18 -60 -87 -11 -79 -17 -91 -54 -110 -42 -22
-141 -19 -295 7 -145 25 -189 22 -256 -21 -87 -55 -217 -172 -264 -236 l-46
-63 -16 37 c-26 63 -29 100 -15 176 29 150 82 232 226 346 208 166 281 189
519 161z m-8184 -64 c14 -23 50 -110 80 -192 31 -81 71 -176 90 -210 41 -73
43 -90 13 -98 -59 -15 -62 -12 -95 92 -18 53 -37 124 -44 157 -6 33 -24 94
-39 137 -28 76 -47 158 -36 158 3 0 17 -20 31 -44z m8079 -427 c108 -10 228
-8 281 6 17 5 23 -3 38 -53 10 -33 27 -73 37 -89 25 -42 129 -93 189 -93 l46
0 14 -52 c18 -69 26 -167 13 -180 -13 -13 -60 12 -127 67 -61 49 -91 58 -155
47 -35 -6 -46 -12 -48 -29 -4 -28 30 -47 69 -39 40 8 36 0 -11 -24 -36 -18
-40 -24 -40 -59 0 -35 3 -39 31 -45 51 -10 58 -8 75 27 9 17 18 33 19 35 2 2
24 -13 50 -32 25 -20 53 -36 61 -36 20 0 17 -20 -6 -55 -29 -44 -60 -149 -60
-206 0 -113 -63 -175 -279 -275 -194 -90 -231 -94 -346 -34 -114 60 -146 95
-219 240 -99 195 -128 310 -106 430 7 40 23 82 41 109 37 57 40 117 7 130 -29
11 -45 -1 -53 -40 -8 -35 -25 -29 -25 8 0 28 69 103 94 103 15 0 26 21 26 49
0 21 33 52 78 75 35 18 134 36 167 31 11 -2 74 -9 139 -16z m-8612 -175 c86
-57 159 -108 163 -113 8 -14 -11 -48 -35 -61 -25 -14 -90 3 -136 34 -33 22
-294 304 -294 318 0 12 134 -67 302 -178z m6532 24 c8 -37 13 -88 9 -88 -4 0
-27 53 -37 88 -6 16 -3 22 8 22 9 0 18 -10 20 -22z m1516 -220 c18 -41 18 -43
-1 -92 -14 -38 -19 -77 -19 -153 0 -57 -3 -103 -6 -103 -3 0 -22 13 -42 29
-20 17 -49 33 -65 36 -37 10 -79 61 -75 93 2 20 17 34 67 62 66 37 91 70 106
138 3 17 9 32 11 32 3 0 13 -19 24 -42z m2807 -80 c-20 -35 -68 -100 -107
-143 -40 -44 -99 -115 -132 -158 -102 -133 -275 -269 -415 -327 -91 -37 -110
-53 -119 -97 -6 -29 -3 -34 20 -43 43 -16 103 -12 211 14 55 14 102 23 104 20
7 -7 -46 -80 -104 -143 -32 -34 -94 -86 -139 -115 -73 -49 -112 -68 -213 -106
-17 -6 -39 -20 -49 -31 -15 -17 -16 -20 0 -44 20 -30 36 -31 161 -10 50 8 94
15 98 15 21 0 -45 -89 -110 -150 -79 -73 -156 -116 -318 -175 -100 -37 -135
-61 -135 -95 0 -12 14 -21 48 -30 26 -7 55 -14 66 -17 16 -4 15 -8 -13 -37
-51 -52 -130 -93 -251 -129 -156 -47 -257 -63 -303 -48 -19 7 -37 18 -40 24
-3 7 3 62 14 123 10 60 18 148 19 195 l0 86 108 7 c179 11 233 18 229 30 -6
18 -85 35 -221 46 -98 9 -134 15 -143 27 -13 17 -28 94 -21 114 2 7 51 23 109
35 57 13 165 41 239 63 74 22 162 45 195 51 114 23 95 31 -60 27 -126 -4 -170
-10 -275 -36 -68 -17 -151 -31 -183 -31 -57 0 -58 1 -73 35 -7 19 -14 36 -14
39 0 2 19 7 43 11 23 3 58 11 77 17 43 13 234 117 314 171 63 42 136 111 136
127 0 23 -54 7 -117 -34 -37 -24 -135 -80 -218 -124 -124 -66 -161 -81 -211
-86 l-60 -7 -56 94 c-31 51 -60 105 -63 119 -6 22 -1 27 41 45 l48 21 54 -21
c50 -19 61 -20 133 -9 109 16 169 44 225 106 25 28 59 65 74 82 15 17 52 45
82 62 72 42 308 123 498 171 85 22 209 60 275 86 185 71 464 192 520 225 27
16 51 27 53 25 3 -2 -12 -32 -31 -67z m-11874 -63 c20 -10 37 -22 37 -26 0 -4
-12 -22 -26 -39 -24 -28 -29 -30 -42 -17 -16 16 -31 112 -16 106 5 -3 26 -13
47 -24z m7738 -173 c15 -39 23 -75 18 -78 -5 -3 -12 3 -16 13 -3 10 -16 44
-29 75 -12 31 -25 72 -28 90 l-7 33 17 -30 c10 -16 30 -63 45 -103z m995 66
c11 -29 35 -68 54 -88 47 -46 204 -127 274 -142 61 -12 69 -25 36 -58 -23 -23
-49 -25 -180 -9 -81 10 -107 10 -174 -4 -44 -9 -81 -15 -83 -14 -1 2 4 35 12
73 8 38 18 122 21 186 4 65 10 115 14 113 5 -3 16 -28 26 -57z m-1325 -283
c26 -102 34 -154 36 -240 2 -98 1 -107 -11 -80 -20 45 -52 210 -75 390 -12 88
-21 165 -20 170 2 13 29 -81 70 -240z m2824 188 c-21 -32 -30 -19 -15 22 8 21
14 25 22 17 8 -8 6 -18 -7 -39z m-9382 -39 c60 -38 115 -93 139 -139 27 -53
66 -105 80 -105 19 0 3 112 -25 173 -31 68 -17 66 51 -7 l42 -46 0 -108 c0
-124 -11 -152 -61 -152 -39 0 -89 22 -116 51 -20 23 -163 328 -163 349 0 15 6
13 53 -16z m318 3 c-1 -4 -1 -12 -1 -19 0 -6 -9 -3 -20 7 -26 23 -26 36 1 27
11 -5 20 -11 20 -15z m6679 -200 c23 -55 39 -101 36 -104 -8 -8 -26 7 -26 22
0 7 -20 51 -44 97 -24 45 -46 97 -50 113 l-6 30 25 -30 c13 -16 43 -74 65
-128z m2467 57 l73 6 -15 -36 c-25 -61 -54 -92 -110 -119 -30 -14 -81 -28
-114 -32 -52 -5 -61 -3 -67 12 -5 13 4 27 33 51 24 20 49 54 62 84 20 46 23
49 43 39 14 -8 47 -9 95 -5z m-8947 -4 c0 -5 -4 -10 -10 -10 -5 0 -10 5 -10
10 0 6 5 10 10 10 6 0 10 -4 10 -10z m-1495 -75 c17 -14 18 -17 3 -31 -14 -14
-16 -13 -26 15 -12 34 -7 38 23 16z m9330 -62 c36 -54 263 -263 284 -263 10 0
62 13 115 29 53 15 96 24 96 19 0 -22 -107 -111 -202 -169 -82 -50 -113 -63
-154 -67 -50 -4 -54 -2 -97 37 -25 23 -54 63 -65 89 -48 113 -69 322 -34 348
25 19 29 18 57 -23z m-261 13 c77 -23 86 -37 86 -126 0 -148 64 -319 145 -385
84 -69 131 -71 258 -10 146 70 274 160 334 235 28 35 55 66 60 67 9 3 67 -99
143 -252 125 -249 141 -636 39 -939 -32 -95 -114 -257 -152 -302 -20 -22 -96
-82 -170 -132 -114 -78 -140 -91 -164 -86 -26 5 -37 -3 -106 -75 -52 -55 -85
-81 -100 -81 -34 0 -88 -31 -153 -87 -59 -50 -102 -78 -110 -71 -2 3 22 35 54
72 125 148 131 161 86 207 l-26 27 -72 -48 c-40 -27 -99 -77 -130 -112 -46
-50 -54 -56 -41 -29 21 42 88 115 129 141 18 10 47 40 65 65 51 71 32 77 -83
27 -52 -23 -98 -42 -102 -42 -13 0 55 66 129 127 89 73 88 92 -3 109 -58 11
-180 43 -180 47 0 1 55 3 122 5 113 2 125 0 169 -23 l48 -25 28 24 c15 12 57
42 93 66 98 66 135 97 169 145 17 24 51 67 76 96 67 78 93 181 64 255 -10 27
-11 25 -49 -60 -42 -95 -62 -125 -154 -230 -80 -92 -122 -131 -172 -161 l-41
-25 -179 9 c-184 10 -226 19 -335 70 -123 58 -310 307 -399 531 -28 70 -45
291 -25 329 11 21 13 14 17 -65 3 -49 16 -127 27 -174 41 -159 194 -431 282
-502 21 -17 54 -32 77 -35 35 -5 41 -3 47 18 5 15 3 25 -4 27 -102 34 -297
357 -335 552 -6 30 -5 33 7 20 8 -8 47 -69 87 -135 60 -98 95 -141 189 -236
105 -104 124 -119 196 -149 115 -48 175 -51 256 -11 35 17 75 40 89 52 l25 21
-40 -6 c-90 -14 -203 -18 -220 -9 -13 8 -3 11 44 16 45 4 74 13 110 36 26 17
52 31 57 31 20 0 104 60 104 74 0 8 -13 19 -30 24 -25 9 -40 6 -95 -19 -107
-48 -202 -36 -335 43 -143 86 -241 327 -256 624 -5 117 -3 159 15 269 28 167
30 171 83 183 66 15 199 14 252 -2z m-9524 -67 c0 -4 -15 -16 -32 -27 -38 -25
-48 -16 -48 41 l0 38 40 -22 c22 -13 40 -26 40 -30z m9090 1 c0 -5 -4 -10 -10
-10 -5 0 -10 5 -10 10 0 6 5 10 10 10 6 0 10 -4 10 -10z m-4571 -84 c6 -22 6
-35 1 -30 -10 10 -27 83 -17 74 2 -3 10 -23 16 -44z m4537 -213 c-5 -127 -3
-185 12 -293 11 -74 18 -137 16 -139 -7 -8 -74 146 -89 204 -20 79 -19 139 4
211 11 32 27 85 36 117 8 31 18 57 21 57 3 0 3 -71 0 -157z m-4515 70 c5 -26
23 -141 39 -254 17 -114 33 -223 36 -241 5 -31 5 -32 -10 -13 -24 29 -36 82
-47 208 -5 61 -16 161 -24 220 -8 59 -15 115 -15 124 0 30 12 5 21 -44z
m-1481 -231 c60 -182 82 -265 90 -334 27 -240 5 -509 -51 -626 -34 -70 -139
-183 -215 -231 -26 -17 -90 -45 -143 -63 -82 -28 -110 -33 -193 -33 -114 0
-130 8 -193 99 l-40 57 -14 -31 c-14 -28 -13 -38 0 -88 9 -31 19 -64 23 -73 5
-12 -3 -19 -32 -28 -22 -7 -49 -10 -61 -6 -33 10 -154 137 -207 216 l-46 70
27 60 c33 74 26 109 -23 124 -24 7 -31 14 -26 25 31 75 23 130 -19 130 -33 0
-36 5 -24 49 9 33 7 42 -12 70 -13 17 -21 37 -18 44 7 19 164 245 205 296 40
49 144 105 196 105 17 0 88 -6 157 -13 103 -11 134 -11 165 -1 57 19 176 147
279 299 48 72 89 130 91 128 2 -2 39 -112 84 -245z m-2066 -2 c54 -61 123
-143 153 -181 30 -39 71 -88 91 -108 20 -20 90 -93 154 -163 112 -120 116
-126 99 -142 -17 -16 -21 -13 -61 41 -24 32 -130 146 -235 253 -105 107 -213
224 -240 260 -26 36 -59 77 -73 92 -21 23 -23 30 -12 43 7 8 15 15 19 15 3 0
50 -50 105 -110z m7900 -567 c91 -178 241 -364 346 -429 57 -35 58 -36 53 -75
-9 -63 10 -93 78 -124 33 -14 89 -32 126 -39 l66 -12 -44 -38 c-73 -63 -160
-116 -188 -116 -31 0 -150 38 -202 65 -58 30 -171 111 -231 165 -134 120 -269
330 -299 465 -12 53 -11 55 22 110 l33 55 28 -56 c88 -176 272 -364 399 -409
23 -8 44 -15 47 -15 14 0 -37 43 -82 69 -62 35 -189 165 -250 258 -33 49 -52
92 -67 151 l-21 83 37 77 37 77 27 -75 c16 -42 54 -126 85 -187z m-7164 32 c0
-49 -301 -357 -325 -333 -2 2 10 31 26 65 50 104 224 273 281 273 10 0 18 -2
18 -5z m110 -152 c0 -49 -251 -282 -302 -283 -20 0 -28 5 -28 17 0 24 229 244
270 259 41 15 60 17 60 7z m31 -176 c-21 -34 -65 -68 -131 -102 -34 -17 -34
-16 15 35 54 56 125 113 133 106 2 -3 -5 -20 -17 -39z m67 -138 c-23 -37 -192
-148 -206 -135 -17 18 163 151 211 155 4 1 2 -8 -5 -20z m0 -127 c9 -9 43 -51
75 -92 32 -41 76 -97 97 -125 22 -27 40 -54 40 -58 0 -12 -42 2 -64 22 -16 14
-168 221 -190 259 -11 19 21 15 42 -6z m-342 -61 c25 -22 57 -44 73 -49 34
-12 86 4 135 41 l33 26 21 -22 c35 -39 192 -249 192 -258 0 -5 -4 -9 -9 -9 -6
0 -66 -42 -134 -92 -212 -158 -301 -221 -319 -226 -30 -7 -84 57 -104 124 -23
76 -23 204 0 314 18 85 53 190 63 190 3 0 25 -18 49 -39z m7846 -282 c-24 -23
-46 -38 -50 -34 -8 8 66 75 82 75 6 0 -8 -19 -32 -41z"/>
<path d="M5810 7643 c-214 -32 -265 -44 -564 -136 -116 -35 -463 -240 -570
-337 -43 -38 -161 -180 -151 -180 4 0 48 35 99 78 117 100 137 114 270 184
341 180 469 228 786 295 109 24 145 27 284 25 l158 -2 -7 27 c-4 16 -7 29 -9
30 -1 1 -31 7 -66 12 -62 10 -177 12 -230 4z"/>
<path d="M6237 7563 c-65 -46 -61 -88 27 -242 34 -58 60 -118 66 -150 11 -62
0 -155 -29 -230 -42 -112 -157 -240 -293 -328 -70 -45 -289 -144 -473 -213
-129 -48 -441 -207 -527 -268 -237 -167 -352 -259 -402 -321 -64 -79 -153
-215 -194 -298 -17 -33 -52 -84 -77 -114 -55 -64 -105 -164 -175 -349 -79
-209 -90 -261 -90 -424 0 -163 6 -181 105 -330 54 -81 152 -192 162 -183 2 3
-13 33 -33 68 -21 34 -65 119 -98 188 l-61 126 1 125 c2 138 8 170 62 312 35
93 51 108 52 47 0 -41 37 -175 66 -239 17 -39 46 -78 83 -113 54 -51 115 -86
128 -74 3 4 -19 50 -50 104 -127 226 -156 349 -122 529 22 118 37 150 151 314
169 245 357 396 611 491 58 22 132 51 163 64 32 13 104 36 161 50 154 38 253
76 474 185 329 162 492 283 575 429 60 105 50 99 111 71 147 -69 251 -155 357
-297 105 -143 134 -196 178 -333 61 -191 102 -254 91 -139 -16 162 -69 294
-195 484 -112 168 -207 255 -394 359 l-68 38 0 103 c0 132 -20 200 -108 364
-73 136 -141 221 -176 221 -11 0 -38 -12 -59 -27z m58 -91 c0 -18 -20 -15 -23
4 -3 10 1 15 10 12 7 -3 13 -10 13 -16z m64 -106 c119 -172 158 -355 111 -510
-24 -77 -101 -196 -165 -255 -161 -148 -630 -374 -882 -426 -89 -17 -142 -37
-300 -108 -112 -51 -160 -67 -149 -49 14 23 96 72 186 112 51 23 123 59 159
80 65 38 172 86 361 160 195 77 308 128 351 158 183 127 295 269 356 452 13
40 18 85 18 165 0 115 -1 119 -59 218 -35 59 -27 61 13 3z"/>
<path d="M6602 7570 c-31 -13 -36 -34 -16 -65 17 -26 18 -26 98 -20 94 8 224
-7 311 -37 80 -26 286 -125 358 -171 32 -21 78 -56 104 -79 50 -47 261 -313
316 -399 72 -114 155 -310 197 -464 25 -94 57 -184 84 -240 55 -109 234 -431
281 -501 91 -138 171 -358 185 -507 5 -49 11 -91 13 -94 3 -2 15 11 28 29 21
29 24 44 24 123 -1 137 -57 294 -160 454 -71 109 -254 427 -301 521 -24 48
-56 137 -74 205 -40 151 -64 211 -162 407 -78 157 -161 274 -327 467 -131 151
-413 308 -644 357 -90 19 -284 28 -315 14z"/>
<path d="M6040 7473 c-14 -9 -44 -34 -68 -54 -49 -42 -185 -115 -306 -164
-375 -151 -426 -177 -556 -280 -191 -151 -307 -270 -325 -335 -5 -19 8 -10 57
40 56 58 288 239 421 329 26 18 141 70 255 116 114 46 251 104 306 129 166 77
276 169 261 216 -8 24 -14 25 -45 3z"/>
<path d="M6955 7269 c-4 -11 -5 -22 -3 -23 1 -2 39 -27 83 -56 44 -30 111 -83
148 -119 64 -62 259 -309 323 -411 102 -163 205 -406 293 -692 98 -320 162
-439 331 -609 123 -124 165 -149 253 -149 35 0 38 2 26 16 -7 8 -41 28 -76 44
-164 75 -358 361 -453 670 -90 293 -136 413 -235 610 -163 326 -530 739 -657
740 -18 0 -29 -7 -33 -21z"/>
<path d="M6806 6968 c-19 -27 -8 -49 41 -79 53 -32 260 -200 304 -246 103
-109 208 -281 272 -448 39 -101 101 -230 116 -239 43 -27 -113 398 -201 548
-68 115 -186 250 -283 325 -33 25 -91 72 -129 103 -75 63 -97 70 -120 36z"/>
<path d="M7090 5756 c-114 -11 -131 -16 -200 -52 -81 -43 -98 -69 -78 -125 17
-50 54 -61 176 -54 59 4 141 13 182 21 103 19 135 18 312 -12 101 -17 176 -36
220 -55 37 -16 87 -32 112 -35 l46 -7 0 37 c0 33 -5 39 -57 73 -32 20 -80 56
-108 80 -136 119 -318 158 -605 129z m323 -71 c32 -8 79 -26 105 -40 l47 -25
-165 6 c-154 6 -174 4 -299 -21 -177 -35 -240 -24 -178 32 45 41 141 60 317
62 74 1 136 -4 173 -14z"/>
<path d="M6680 5709 c-36 -50 -55 -108 -47 -141 10 -38 46 -88 62 -88 13 0 15
10 9 63 -6 59 -4 66 26 115 35 57 36 85 3 90 -16 2 -30 -8 -53 -39z"/>
<path d="M5305 5699 c-159 -7 -331 -35 -418 -67 -28 -11 -89 -38 -134 -60 -44
-21 -90 -41 -101 -44 -14 -4 -21 -18 -26 -53 -4 -26 -5 -49 -3 -52 3 -2 40 7
84 20 124 39 313 60 504 55 164 -4 164 -4 248 -41 84 -37 231 -71 305 -71 32
0 45 7 72 37 50 54 46 85 -16 151 -59 63 -109 89 -205 110 -100 21 -141 23
-310 15z m226 -85 c46 -9 97 -21 115 -29 36 -15 100 -69 115 -97 10 -19 8 -20
-68 -13 -55 5 -100 17 -153 40 -108 48 -158 55 -383 56 l-202 1 70 19 c142 39
368 49 506 23z"/>
<path d="M7100 5358 c0 -7 -3 -22 -6 -33 -9 -35 135 -113 348 -186 52 -18 73
-21 95 -13 15 5 28 14 28 19 0 13 -414 223 -442 224 -13 1 -23 -5 -23 -11z"/>
<path d="M5340 5289 c-14 -6 -59 -32 -101 -60 -93 -61 -270 -128 -381 -144
-41 -6 -51 -31 -23 -55 28 -24 185 12 307 70 117 54 163 89 209 157 31 45 30
48 -11 32z"/>
<path d="M6972 5163 c-33 -6 -37 -27 -13 -73 11 -22 18 -40 16 -40 -3 0 -27
11 -53 24 -58 29 -119 47 -138 39 -8 -3 -14 -18 -14 -33 0 -34 24 -51 111 -81
64 -21 141 -22 247 -3 l34 7 -60 -59 c-76 -75 -93 -121 -70 -194 l16 -49 -53
-16 c-39 -11 -54 -21 -58 -37 -11 -42 14 -44 223 -18 41 5 137 9 213 10 125 0
137 2 137 18 0 36 -23 49 -93 55 -37 4 -72 9 -77 12 -5 3 -3 23 6 47 35 99 8
174 -73 203 -91 32 -91 34 -17 34 112 1 211 -34 307 -111 28 -21 64 -46 80
-55 35 -18 47 -7 47 45 0 36 -27 67 -106 122 -89 62 -133 73 -326 79 l-177 6
-38 38 c-22 20 -41 36 -43 36 -3 -1 -15 -4 -28 -6z m293 -294 c4 -17 1 -51 -5
-75 -13 -44 -13 -44 -58 -44 -71 0 -98 40 -73 105 8 19 107 58 123 49 3 -2 10
-18 13 -35z"/>
<path d="M5080 5029 c-80 -15 -188 -31 -240 -35 -89 -6 -99 -4 -150 20 -30 14
-61 26 -67 26 -21 0 -15 -45 12 -84 28 -41 27 -41 -22 -21 -36 15 -95 20 -106
9 -15 -15 27 -67 70 -86 84 -37 202 -21 333 47 17 9 34 14 37 12 2 -3 -12 -26
-31 -52 -20 -26 -39 -58 -42 -71 -7 -26 0 -126 11 -159 5 -17 -2 -23 -45 -38
-55 -20 -58 -30 -19 -59 22 -17 32 -18 90 -9 35 6 132 11 214 11 218 0 246 8
212 54 -10 14 -32 20 -85 24 -40 2 -72 7 -72 11 0 3 11 28 25 55 18 36 25 65
25 110 0 59 -1 61 -50 107 -27 26 -50 49 -50 52 0 3 22 10 48 17 93 22 222
-28 312 -123 51 -53 58 -57 82 -48 39 15 50 41 32 77 -36 70 -105 119 -224
159 -90 31 -117 30 -300 -6z m44 -188 c26 -27 28 -35 24 -81 -9 -90 -59 -128
-129 -99 -42 17 -59 46 -59 99 0 36 5 51 23 67 57 52 101 56 141 14z"/>
<path d="M5948 4607 l-26 -33 21 -39 c16 -32 20 -59 20 -135 0 -88 -3 -104
-42 -205 -23 -60 -45 -117 -47 -126 -5 -14 2 -15 49 -8 30 4 64 12 76 19 18 9
203 39 249 40 7 0 12 14 12 35 0 35 -1 35 -42 35 -24 0 -72 -5 -108 -10 -35
-5 -66 -7 -68 -5 -2 2 6 34 18 70 19 56 22 83 18 173 -4 122 -23 175 -73 204
l-31 17 -26 -32z"/>
<path d="M3968 4279 c-54 -31 -38 -87 33 -115 22 -9 45 -26 51 -38 7 -12 15
-87 19 -171 7 -173 19 -214 68 -235 28 -11 37 -11 67 3 37 18 37 24 -1 96 -11
22 -14 61 -14 158 2 144 -9 183 -64 242 -32 33 -99 71 -127 70 -8 0 -23 -4
-32 -10z"/>
<path d="M6701 3998 c-6 -18 -1 -29 31 -58 37 -36 38 -39 38 -103 0 -54 3 -68
19 -76 14 -8 24 -4 47 20 25 26 29 38 28 87 -1 95 -47 152 -124 152 -22 0 -33
-6 -39 -22z"/>
<path d="M5774 3959 c-27 -30 -33 -163 -9 -209 21 -41 61 -79 99 -95 25 -11
34 -10 60 6 24 14 50 19 112 19 65 0 87 4 105 19 l23 18 -33 42 c-32 40 -35
41 -91 41 -53 0 -61 -3 -85 -32 l-27 -32 -29 32 c-27 30 -29 38 -29 112 0 68
-3 81 -19 90 -30 16 -56 12 -77 -11z"/>
<path d="M6454 3800 c-11 -4 -29 -21 -39 -36 -18 -27 -18 -28 10 -52 28 -23
31 -24 139 -17 61 4 112 9 114 10 9 9 -21 86 -38 95 -22 12 -156 12 -186 0z"/>
<path d="M6020 3277 c-82 -28 -193 -93 -256 -151 -46 -42 -48 -46 -32 -62 16
-16 21 -15 90 26 40 24 100 61 132 82 67 43 94 46 166 18 57 -22 105 -25 147
-9 15 6 52 17 82 24 71 19 105 5 191 -80 61 -60 134 -104 201 -120 48 -12 44
20 -8 68 -26 23 -83 79 -128 124 -115 117 -134 120 -340 61 -36 -10 -48 -8
-107 15 -37 15 -68 27 -70 27 -2 0 -32 -11 -68 -23z"/>
<path d="M6039 3111 c-84 -16 -149 -58 -149 -98 l0 -23 203 0 c164 0 218 -4
287 -20 114 -26 180 -26 214 1 32 25 33 54 4 73 -13 8 -75 27 -138 41 -124 29
-333 42 -421 26z"/>
<path d="M5937 2833 c-18 -18 -5 -54 25 -73 45 -27 106 -37 297 -51 192 -14
252 -5 307 43 44 39 43 49 -3 36 -60 -16 -448 10 -543 36 -60 18 -74 19 -83 9z"/>
<path d="M10123 4249 c-29 -11 -53 -25 -53 -30 0 -5 10 -25 23 -44 26 -40 61
-55 128 -55 l48 0 -15 -35 c-37 -90 -5 -140 76 -116 43 13 45 18 31 69 -11 39
-8 39 31 7 38 -32 73 -32 94 0 16 24 15 26 -20 70 -43 51 -104 90 -159 100
-21 4 -53 18 -73 31 -42 29 -44 29 -111 3z m197 -139 c0 -5 -5 -10 -11 -10 -5
0 -7 5 -4 10 3 6 8 10 11 10 2 0 4 -4 4 -10z"/>
<path d="M10383 3730 c-22 -9 -43 -39 -43 -60 0 -15 103 -59 155 -67 37 -5 45
-2 54 16 15 28 8 39 -43 61 -22 9 -50 27 -60 39 -21 23 -30 24 -63 11z"/>
<path d="M10098 3693 c-13 -3 -18 -14 -18 -37 0 -42 4 -45 46 -36 l36 8 -6
-33 c-13 -68 46 -154 139 -203 74 -39 158 -37 250 7 52 24 81 32 115 30 40 -3
45 -1 42 17 -5 33 -45 144 -53 144 -4 0 -33 -26 -65 -58 -76 -74 -122 -90
-197 -68 -30 9 -64 27 -79 43 -32 34 -78 119 -78 144 0 41 -62 61 -132 42z"/>
<path d="M9999 1587 c-13 -7 -25 -22 -27 -33 -2 -17 6 -25 43 -38 25 -10 64
-33 86 -52 31 -26 50 -34 80 -34 21 0 39 3 39 6 0 3 -16 30 -36 59 -53 80
-130 119 -185 92z"/>
<path d="M10501 5591 c-48 -13 -82 -41 -108 -91 -35 -65 -31 -118 16 -214 50
-103 88 -147 203 -234 219 -166 384 -245 594 -283 104 -19 126 -20 177 -10
106 23 167 101 175 228 4 65 2 78 -27 140 -18 37 -43 82 -57 100 -26 34 -219
169 -307 215 -127 66 -248 118 -307 133 -75 18 -309 28 -359 16z m262 -81 c88
-10 106 -16 273 -87 324 -137 495 -346 412 -502 -38 -70 -66 -86 -151 -84
-142 3 -301 61 -477 173 -58 36 -122 77 -142 89 -50 30 -142 134 -173 195 -31
62 -33 128 -5 173 20 34 36 41 110 46 25 2 50 4 55 5 6 1 49 -3 98 -8z"/>
<path d="M10615 5476 c-72 -23 -85 -33 -85 -72 0 -39 28 -100 56 -125 51 -44
294 -191 338 -204 27 -8 95 -36 150 -62 92 -44 109 -48 189 -51 81 -4 91 -2
113 19 30 28 32 88 5 139 -27 49 -156 156 -219 180 -29 11 -99 44 -155 74
-164 87 -315 126 -392 102z m243 -100 c56 -19 127 -48 159 -65 32 -16 83 -41
113 -54 93 -40 218 -192 180 -218 -26 -17 -91 -1 -240 58 -142 57 -356 175
-413 227 -29 27 -35 54 -15 74 22 22 110 13 216 -22z"/>
<path d="M2571 3993 c-29 -32 -73 -92 -99 -133 -25 -41 -66 -103 -89 -138 -44
-65 -56 -118 -29 -128 26 -10 73 25 106 78 99 159 119 188 169 241 l55 58 -22
37 c-11 20 -25 38 -30 40 -5 1 -33 -23 -61 -55z"/>
<path d="M2592 3740 c-87 -35 -27 -220 72 -220 41 0 54 20 63 96 6 49 -13 84
-62 114 -36 22 -40 23 -73 10z m68 -105 c0 -8 -7 -15 -15 -15 -8 0 -15 7 -15
15 0 8 7 15 15 15 8 0 15 -7 15 -15z"/>
<path d="M2177 3644 c-4 -4 -7 -20 -7 -35 0 -20 11 -36 40 -59 48 -38 49 -50
23 -244 l-17 -129 25 -46 c32 -57 58 -71 136 -71 85 0 93 4 82 43 -12 42 -31
55 -95 63 -60 7 -65 15 -52 94 11 69 9 241 -3 283 -5 21 -22 51 -37 68 -27 29
-80 48 -95 33z"/>
<path d="M2693 3420 c-12 -5 -24 -19 -28 -31 -9 -27 12 -46 61 -55 49 -9 57
-25 52 -99 -10 -115 -94 -245 -180 -280 -35 -14 -59 -16 -127 -10 l-84 7 5
-46 c3 -26 9 -50 13 -54 4 -4 50 -7 103 -7 85 1 103 4 147 27 129 67 205 203
205 365 l0 62 43 12 c51 13 67 25 67 50 0 35 -222 83 -277 59z"/>
<path d="M8807 2824 c-21 -14 -37 -26 -37 -28 0 -2 9 -23 20 -47 29 -65 26
-92 -17 -137 -21 -21 -47 -44 -57 -49 -14 -8 -17 -17 -12 -37 16 -66 139 2
190 106 41 83 33 157 -22 196 l-29 21 -36 -25z"/>
<path d="M8292 2564 c-6 -11 -6 -29 -1 -48 21 -74 -3 -142 -63 -174 -17 -9
-45 -29 -62 -45 -30 -26 -30 -28 -12 -42 42 -32 104 -8 181 68 60 61 71 94 60
182 -7 61 -7 61 -57 70 -29 5 -38 3 -46 -11z"/>
<path d="M3760 1763 c-36 -56 -93 -121 -165 -191 -144 -140 -268 -215 -468
-283 -168 -58 -274 -75 -366 -60 -36 6 -66 9 -67 8 -1 -1 -5 -17 -9 -35 -6
-30 -4 -33 31 -48 68 -29 204 -15 364 35 158 50 198 67 304 128 97 57 175 128
264 241 106 135 187 271 170 287 -2 2 -28 -35 -58 -82z"/>
<path d="M4809 1744 c-21 -22 -24 -35 -23 -93 1 -82 22 -124 79 -151 66 -32
175 -25 175 11 0 29 -33 55 -77 62 -57 9 -67 26 -60 95 5 44 3 64 -9 80 -20
29 -55 28 -85 -4z"/>
<path d="M4474 1569 l-41 -10 -6 -57 c-7 -69 3 -128 29 -172 25 -42 108 -89
172 -97 49 -5 51 -5 67 27 9 17 15 34 13 36 -2 2 -34 17 -70 34 -78 35 -98 59
-98 116 0 55 -11 134 -19 133 -3 -1 -24 -5 -47 -10z"/>
</g>
</svg>
