<?xml version="1.0" encoding="UTF-8"?>
<svg xmlns="http://www.w3.org/2000/svg" id="Chromiedge" viewBox="0 0 224.8 224.2">
	<style>
		.st0{fill:#BBD4EB;}
		.st1{fill:#699DD3;}
		.st2{fill:#CADEF0;}
		.st3{fill:#2E5C91;}
		.st4{fill:#527FAB;}
		.st5{fill:#89B7E1;}
		.st6{fill:#6899CE;}
	</style>
	<path fill="#BBD4EB" class="st0" id="TopRight" d="M213.6 63.1C203.5 61 177 42.7 157.1 42.7c-19.8 0-36.8 7.4-43.8 17.8 24.4.6 44.5 18.5 48.7 41.9 2.6.3 5.2.4 7.8.4 26.1 0 45.8-19.3 45.8-34.9-.7-1.9-1.3-3.1-2-4.8z"/>
	<path fill="#699DD3" class="st1" id="Bottom" d="M100.4 168c-14.2 20.5-11.9 46.6.2 55.8 1.2.2 1.9.2 3.2.2 7.7-6.8 31.2-7.8 43.2-23.7 6.9-9.1 11.7-19.9 13.9-30-19.3 4.8-41.3 6-60.5-2.3z"/>
	<path fill="#CADEF0" class="st2" id="Right2" d="M204.3 152.6c-12.8 8.3-42.7 21.5-72.6 21.4-14.2 25.1-25.6 46.1-27.9 50 58.7 2.7 87.5-27.3 100.4-46.6v-24.8z"/>
	<path fill="#CADEF0" class="st2" id="Right1" d="M161.8 122.1h62.5c1.3-15.3-.3-33.9-8.7-54.1-5.1.9-50.7 11.2-61.9 14.4a50.97 50.97 0 0 1 8.1 39.7z"/>
	<path fill="#2E5C91" class="st3" id="TopLeft2" d="M64.7 92.6c-7.7 7.2-14.8 14.9-20.5 23.7 6.6 5.6 13.3 9.8 19.5 11.6-1.7-5.1-2.6-10.5-2.6-16.2-.1-6.8 1.2-13.2 3.6-19.1z"/>
	<path fill="#2E5C91" class="st3" id="TopLeft1" d="M26.3 96.1a151.9 151.9 0 0 1 49.5-27.9c-.7-1-1.4-2.1-2.2-3.1-16-20.6-38.9-28.9-51.3-19.3-.8 1.3-1.5 2.6-2.2 3.7 4.3 8.5-2.3 30.9 6.2 46.6z"/>
	<path fill="#527FAB" class="st4" id="Top" d="M105.2.3c-8.4 0-51.5 3.9-82.9 45.6 2.4 2.7 18.2 19.6 30.4 32.4 13.5-7.2 29.4-13.1 48-16.5 3.6-.8 7.4-1.3 11.3-1.3 5.7 0 11.3 1 16.4 2.7 40.1.1 79.3-.2 85.2-.1C175.9-8.3 113.6.3 105.2.3z"/>
	<path fill="#89B7E1" class="st5" id="Left2" d="M65.8 133.3c-1.7-3.7-2.9-7.5-3.8-11.5l-9.5-16.6c-16.8 19.7-27.2 44.3-21.7 83.6 12.4 13.2 35 30.7 69.9 35 1.4-4 10.4-33.7 15.3-51.2-19.8-3.6-38.4-14.8-50.2-39.3z"/>
	<path fill="#89B7E1" class="st5" id="Left1" d="M40.9 85.2C30.2 66.7 22 52.6 20.2 49.5 1.5 79.2-1.8 105.3.8 126c6.3-11.4 19.6-27.3 40.1-40.8z"/>
	<path fill="#6899CE" class="st6" id="Circle" d="M73.9 97.5a40.89 40.89 0 0 0 38.3 55.2 40.89 40.89 0 0 0 38.3-55.2H73.9z"/>
</svg>
