<?xml version="1.0" encoding="utf-8"?>
<!-- Generator: Adobe Illustrator 22.1.0, SVG Export Plug-In . SVG Version: 6.00 Build 0)  -->
<svg version="1.1" id="Layer_1" xmlns="http://www.w3.org/2000/svg" xmlns:xlink="http://www.w3.org/1999/xlink" x="0px" y="0px"
	 viewBox="0 0 77 72.2" style="enable-background:new 0 0 77 72.2;" xml:space="preserve">
<style type="text/css">
	.st0{fill:#D3E9CA;}
	.st1{fill:#FFFFFF;stroke:#044376;stroke-width:3;stroke-miterlimit:10;}
	.st2{fill:none;stroke:#B8C8E6;stroke-width:3;stroke-linecap:round;stroke-miterlimit:10;}
	.st3{fill:none;stroke:#F08926;stroke-width:4;stroke-linecap:round;stroke-miterlimit:10;}
	.st4{fill:none;stroke:#044376;stroke-width:4;stroke-miterlimit:10;}
</style>
<title>Asset 2</title>
<g id="Layer_1-2">
	<ellipse class="st0" cx="38.2" cy="62.8" rx="26.9" ry="6"/>
	<circle class="st1" cx="38.5" cy="33.3" r="28.5"/>
	<line class="st2" x1="39" y1="6.8" x2="39" y2="11.8"/>
	<line class="st2" x1="52.2" y1="10.6" x2="50.6" y2="13.3"/>
	<line class="st2" x1="61.7" y1="20.5" x2="59" y2="22.1"/>
	<line class="st2" x1="65" y1="33.8" x2="61.9" y2="33.8"/>
	<line class="st2" x1="61.2" y1="47" x2="58.5" y2="45.5"/>
	<line class="st2" x1="51.3" y1="56.5" x2="49.8" y2="53.9"/>
	<line class="st2" x1="38" y1="59.8" x2="38" y2="56.8"/>
	<line class="st2" x1="24.8" y1="56" x2="26.4" y2="53.4"/>
	<line class="st2" x1="15.3" y1="46.2" x2="18" y2="44.6"/>
	<line class="st2" x1="12" y1="32.8" x2="15.1" y2="32.8"/>
	<line class="st2" x1="15.8" y1="19.7" x2="18.5" y2="21.2"/>
	<line class="st2" x1="25.7" y1="10.1" x2="27.2" y2="12.8"/>
	<line class="st2" x1="12" y1="32.8" x2="17" y2="32.8"/>
	<line class="st2" x1="38" y1="59.8" x2="38" y2="54.8"/>
	<line class="st2" x1="65" y1="33.8" x2="60" y2="33.8"/>
	<line class="st3" x1="42" y1="35.8" x2="27.5" y2="22.3"/>
	<line class="st3" x1="35" y1="34.8" x2="50.5" y2="27.3"/>
	<circle class="st4" cx="38.5" cy="33.3" r="28.5"/>
</g>
</svg>
