<?xml version="1.0" encoding="UTF-8"?>
<!-- Generator: Adobe Illustrator 20.1.0, SVG Export Plug-In . SVG Version: 6.00 Build 0)  -->
<svg version="1.1" id="Layer_1" xmlns="http://www.w3.org/2000/svg" xmlns:xlink="http://www.w3.org/1999/xlink" x="0px" y="0px" viewBox="0 0 24 24" style="enable-background:new 0 0 24 24;" xml:space="preserve">
<g>
	<path d="M12.8,5.2L4.8,5.1c-2,0-3.7,1.6-3.7,3.5L1,15.2c0,2,1.6,3.6,3.6,3.6l8.1,0.1c2,0,3.7-1.6,3.7-3.5l0.1-6.6   C16.5,6.8,14.9,5.2,12.8,5.2z M12.5,12.5l-5.1,2.8c-1,0.5-1-0.4-1-0.4l0-5.7c0-1,1-0.5,1-0.5l5.1,3C13.1,12.1,12.5,12.5,12.5,12.5z   "/>
	<path d="M21.4,7.1L17,9.6L17,15.3l4.3,2.5c1.6,0.8,1.7-0.7,1.7-0.7L23,7.9C23,6.2,21.4,7.1,21.4,7.1z"/>
</g>
</svg>