<?xml version="1.0" encoding="utf-8"?>
<!-- Generator: Adobe Illustrator 18.1.1, SVG Export Plug-In . SVG Version: 6.00 Build 0)  -->
<svg version="1.1" id="Layer_1" xmlns="http://www.w3.org/2000/svg" xmlns:xlink="http://www.w3.org/1999/xlink" x="0px" y="0px"
	 viewBox="0 0 360 360" enable-background="new 0 0 360 360" xml:space="preserve">
<path fill="#FFFFFF" d="M342.7,276H18.1C10.3,276,4,282.3,4,290.1V360h352.8v-69.9C356.8,282.3,350.5,276,342.7,276z M115.1,336.6
	H26.9v-16.1h88.3V336.6z M215,336.6h-17.1v-8.9H215V336.6z M245,336.6h-17.1v-8.9H245V336.6z M273.6,336.6h-17.1v-8.9h17.1V336.6z
	 M303.6,336.6h-17.1v-8.9h17.1V336.6z M322.3,341.1c-4.9,0-8.9-4-8.9-8.9c0-4.9,4-8.9,8.9-8.9c4.9,0,8.9,4,8.9,8.9
	C331.3,337.1,327.3,341.1,322.3,341.1z M331.3,308H26.9v-12.4h304.4V308z"/>
<path fill="#FFFFFF" d="M312.6,2.3H47.9c-13.9,0-25.3,11.3-25.3,25.3v7.7v151.6v7.7c0,13.9,11.3,25.3,25.3,25.3h264.7
	c13.9,0,25.3-11.3,25.3-25.3v-7.7V35.3v-7.7C337.9,13.6,326.5,2.3,312.6,2.3z"/>
<path fill="#FFFFFF" d="M292.5,247.2h-96v-19h-32v19H68.2c-7.3,0-13.3,6-13.3,13.3v5.8h250.8v-5.8
	C305.8,253.2,299.8,247.2,292.5,247.2z"/>
</svg>
