<?xml version="1.0" encoding="utf-8"?>
<!-- Generator: Adobe Illustrator 21.1.0, SVG Export Plug-In . SVG Version: 6.00 Build 0)  -->
<svg version="1.1" id="Layer_1" xmlns="http://www.w3.org/2000/svg" xmlns:xlink="http://www.w3.org/1999/xlink" x="0px" y="0px"
	 viewBox="0 0 380 122" height="128" width="400" style="enable-background:new 0 0 380 122;" xml:space="preserve">
<style type="text/css">
	.st0{fill:#F8C600;}
	.st1{fill:#4B69FF;}
	.st2{font-family:'Avenir-Black';}
	.st3{font-size:23.3067px;}
</style>
<g>
	<title>Layer 1</title>
	<g id="layer1">
		<path id="path3397" class="st0" d="M182.8,1.4l-1.8,6h-6.1l5,3.7l-1.8,6.1l5-3.7l5,3.7l-1.8-6.1l4.9-3.7h-6L182.8,1.4z M157.8,8.4
			l-1.8,6.1h-6.1l5,3.7l-1.8,6l4.9-3.7l5,3.7l-1.8-6l5-3.7h-6L157.8,8.4z M207.8,8.4l-1.8,6.1h-6.1l5,3.7l-1.8,6l5-3.7l5,3.7l-1.8-6
			l5-3.7h-6.1L207.8,8.4z M139.4,27.6l-1.8,6h-6l4.9,3.7l-1.8,6l5-3.7l5,3.7l-1.8-6l5-3.7h-6.1L139.4,27.6z M226.2,27.6l-1.8,6h-6
			l4.9,3.7l-1.8,6.1l5-3.7l5,3.7l-1.8-6l5-3.7h-6.1L226.2,27.6z M139.4,79.7l-1.8,6h-6l4.9,3.7l-1.8,6.1l5-3.7l5,3.7l-1.8-6.1l5-3.7
			h-6.1L139.4,79.7z M226.2,79.7l-1.8,6h-6l4.9,3.7l-1.8,6.1l5-3.7l5,3.7l-1.8-6.1l5-3.7h-6.1L226.2,79.7z M157.8,98.9l-1.8,6.1
			h-6.1l5,3.7l-1.8,6l5-3.7l4.9,3.7l-1.8-6l5-3.7h-6L157.8,98.9z M207.8,98.9L206,105h-6.1l5,3.7l-1.8,6.1l5-3.7l5,3.7l-1.8-6.1
			l5-3.7h-6.1L207.8,98.9z M182.8,105.9l-1.8,6.1h-6.1l5,3.7l-1.8,6.1l5-3.7l5,3.7l-1.8-6.1l4.9-3.7h-6L182.8,105.9z"/>
	</g>
</g>
<text transform="matrix(0.9592 0 0 1 3.3521 69.001)" class="st1 st2 st3">General Data Protection Regulation</text>
</svg>
