<?xml version="1.0" encoding="utf-8"?>
<!-- Generator: Adobe Illustrator 22.0.1, SVG Export Plug-In . SVG Version: 6.00 Build 0)  -->
<svg version="1.1" id="Layer_1" xmlns="http://www.w3.org/2000/svg" xmlns:xlink="http://www.w3.org/1999/xlink" x="0px" y="0px"
	 viewBox="0 0 103 103" style="enable-background:new 0 0 103 103;" xml:space="preserve">
<style type="text/css">
	.st0{opacity:0.47;fill:url(#SVGID_1_);enable-background:new    ;}
	.st1{fill:#FFFFFF;}
	.st2{fill:#EFEFEF;}
	.st3{fill:#DCDCDC;}
	.st4{fill:#324D5B;}
	.st5{fill:#EBEBEB;}
	.st6{fill:#F47373;}
	.st7{fill:#F4D373;}
	.st8{fill:#53E053;}
</style>
<g>
	<g>
		
			<radialGradient id="SVGID_1_" cx="51.5" cy="-438.5" r="50.7744" gradientTransform="matrix(1 0 0 1 0 490)" gradientUnits="userSpaceOnUse">
			<stop  offset="0" style="stop-color:#2E3192"/>
			<stop  offset="1" style="stop-color:#F8F8F8;stop-opacity:0"/>
		</radialGradient>
		<circle class="st0" cx="51.5" cy="51.5" r="51.5"/>
		<circle class="st1" cx="51.5" cy="51.5" r="26.7"/>
	</g>
	<g>
		<path class="st2" d="M37.5,36h28.1c0.8,0,1.5,0.7,1.5,1.5v28.1c0,0.8-0.7,1.5-1.5,1.5H37.5c-0.8,0-1.5-0.7-1.5-1.5V37.4
			C36,36.6,36.7,36,37.5,36z"/>
		<path class="st1" d="M38.9,42.3h25.2c0.5,0,1,0.4,1,1v20.8c0,0.5-0.4,1-1,1H38.9c-0.5,0-1-0.4-1-1V43.3
			C37.9,42.7,38.4,42.3,38.9,42.3z"/>
		<path class="st3" d="M48.6,38.2h15.5c0.5,0,1,0.4,1,1c0,0.5-0.4,1-1,1H48.6c-0.5,0-1-0.4-1-1C47.6,38.6,48.1,38.2,48.6,38.2z"/>
		<path class="st4" d="M41.3,44.7h20.3c0.5,0,1,0.4,1,1v5.8c0,0.5-0.4,1-1,1H41.3c-0.5,0-1-0.4-1-1v-5.8
			C40.4,45.1,40.8,44.7,41.3,44.7z"/>
		<path class="st5" d="M41.3,55.1h8c0.5,0,1,0.4,1,1v5.3c0,0.5-0.4,1-1,1h-8c-0.5,0-1-0.4-1-1v-5.3C40.4,55.5,40.8,55.1,41.3,55.1z
			 M61.9,55.1h-9c-0.4,0-0.7,0.3-0.7,0.7s0.3,0.7,0.7,0.7h9c0.4,0,0.7-0.3,0.7-0.7C62.6,55.5,62.3,55.1,61.9,55.1z M61.9,58h-9
			c-0.4,0-0.7,0.3-0.7,0.7s0.3,0.7,0.7,0.7h9c0.4,0,0.7-0.3,0.7-0.7C62.6,58.4,62.3,58,61.9,58z M61.9,60.9h-9
			c-0.4,0-0.7,0.3-0.7,0.7s0.3,0.7,0.7,0.7h9c0.4,0,0.7-0.3,0.7-0.7C62.6,61.3,62.3,60.9,61.9,60.9z"/>
		<path class="st6" d="M39,38.2c-0.5,0-1,0.4-1,1c0,0.5,0.4,1,1,1c0.5,0,1-0.4,1-1C40,38.6,39.6,38.2,39,38.2z"/>
		<path class="st7" d="M41.6,38.2c-0.5,0-1,0.4-1,1c0,0.5,0.4,1,1,1s1-0.4,1-1C42.6,38.6,42.2,38.2,41.6,38.2z"/>
		<path class="st8" d="M44.2,38.2c-0.5,0-1,0.4-1,1c0,0.5,0.4,1,1,1c0.5,0,1-0.4,1-1C45.2,38.6,44.7,38.2,44.2,38.2z"/>
	</g>
</g>
</svg>
