<?xml version="1.0" encoding="utf-8"?>
<!-- Generator: Adobe Illustrator 22.1.0, SVG Export Plug-In . SVG Version: 6.00 Build 0)  -->
<svg version="1.1" id="Layer_1" xmlns="http://www.w3.org/2000/svg" xmlns:xlink="http://www.w3.org/1999/xlink" x="0px" y="0px"
	 viewBox="0 0 107.7 107.7" style="enable-background:new 0 0 107.7 107.7;" xml:space="preserve">
<style type="text/css">
	.st0{fill:none;stroke:#393F3F;stroke-width:0.75;stroke-miterlimit:10;}
	.st1{fill:#FFFFFF;stroke:#505265;stroke-linecap:round;stroke-linejoin:round;stroke-miterlimit:10;}
	.st2{fill:none;}
	.st3{fill:#393F3F;}
	.st4{fill:#FFFFFF;}
	.st5{fill:#505265;}
	.st6{fill:none;stroke:#505265;stroke-width:6;stroke-miterlimit:10;}
	.st7{fill:none;stroke:#505265;stroke-linecap:round;stroke-linejoin:round;stroke-miterlimit:10;}
	.st8{fill:#FFFFFF;stroke:#505265;stroke-miterlimit:10;}
	.st9{opacity:0.26;}
	.st10{fill:#9296CA;}
	.st11{fill:#C8E9EF;}
	.st12{fill:#FFFFFF;stroke:#383F3F;stroke-miterlimit:10;}
	.st13{fill:#FFFFFF;stroke:#383F3F;stroke-linecap:round;stroke-linejoin:round;stroke-miterlimit:10;}
	.st14{fill:#48C2C5;}
	.st15{opacity:0.26;fill:#9296CA;}
	.st16{fill:#505266;}
	.st17{fill:#F05A28;}
	.st18{fill:#034EA2;}
	.st19{fill:#FFFFFF;stroke:#FFFFFF;stroke-linecap:round;stroke-linejoin:round;stroke-miterlimit:10;}
	.st20{fill:#FFFFFF;stroke:#FFFFFF;stroke-miterlimit:10;}
	.st21{fill:#0072FF;stroke:#FFFFFF;stroke-miterlimit:10;}
	.st22{fill:#FFFFFF;stroke:#0072FF;stroke-linecap:round;stroke-linejoin:round;stroke-miterlimit:10;}
	.st23{fill:#F05323;}
	.st24{fill:#383F3F;}
	.st25{fill:none;stroke:#0072FF;stroke-width:0.75;stroke-linecap:round;stroke-linejoin:round;stroke-miterlimit:10;}
	.st26{fill:#2D2F32;}
	.st27{fill:#EEE007;}
	.st28{fill:#2D2F32;stroke:#2D2F32;stroke-miterlimit:10;}
	.st29{fill:#0072FF;}
	.st30{fill:none;stroke:#000000;stroke-miterlimit:10;}
	.st31{fill:#FFF100;}
	.st32{opacity:0.48;}
	.st33{fill:#034EA2;stroke:#FFFFFF;stroke-width:3;stroke-miterlimit:10;}
</style>
<g>
	<path class="st5" d="M34,88h39c2,0,3.6-1.6,3.6-3.6V17.6c0-2-1.6-3.6-3.6-3.6H28.2c-2,0-3.6,1.6-3.6,3.6V87
		C27.7,89.5,30.8,85.4,34,88z"/>
	<path class="st8" d="M74.6,19.5l-38.8-4.3c-2-0.2-3.8,1.2-4,3.2l-7.3,66.4c-0.2,2,1.2,3.8,3.2,4l44.5,4.9c2,0.2,3.8-1.2,4-3.2
		l6.9-62.4C80.3,25.3,77.5,22.4,74.6,19.5z"/>
	<path class="st1" d="M74.1,24.9c-0.2,1.7,1.1,3.3,2.8,3.5l6.2-0.3c-2.8-2.9-5.7-5.8-8.5-8.6L74.1,24.9z"/>
	<g>
		<path class="st2" d="M55.9,30.9c-1.8-0.2-3.5,1.1-3.7,2.9L52,36l6.6,0.7l0.2-2.2C59,32.8,57.7,31.1,55.9,30.9z"/>
		<path class="st5" d="M50.8,35.9L52,36l0.2-2.2c0.2-1.8,1.9-3.1,3.7-2.9c1.8,0.2,3.1,1.9,2.9,3.7l-0.2,2.2l1.2,0.1
			c0.2,0,0.5,0.1,0.7,0.2l0.2-2.3c0.3-2.8-1.8-5.4-4.6-5.7c-2.8-0.3-5.4,1.8-5.7,4.6l-0.2,2.3C50.3,35.9,50.6,35.9,50.8,35.9z"/>
		<path class="st5" d="M60.4,37.1c-0.2-0.1-0.4-0.2-0.7-0.2l-1.2-0.1L52,36l-1.2-0.1c-0.2,0-0.5,0-0.7,0.1c-0.8,0.2-1.4,0.8-1.5,1.7
			l-0.9,7.8c-0.1,1.1,0.7,2,1.7,2.1l9,1c1.1,0.1,2-0.7,2.1-1.7l0.9-7.8C61.6,38.2,61.2,37.4,60.4,37.1z"/>
		<circle class="st4" cx="54.8" cy="41.2" r="1.3"/>
		<path class="st4" d="M54.4,44.1L54.4,44.1c-0.3,0-0.5-0.3-0.5-0.6l0.1-1.3c0-0.3,0.3-0.5,0.6-0.5l0,0c0.3,0,0.5,0.3,0.5,0.6
			L55,43.7C55,44,54.7,44.2,54.4,44.1z"/>
	</g>
	<g transform="translate(0,-952.36218)" class="st9">
		<path class="st10" d="M29.4,995.7c2.9,2.7,11.3,10.4,19.6,9.9c1.4-0.1,2.4,0.5,3.4,1.2l-7,6.7c-0.2,0.2-0.3,0.5-0.2,0.8
			c0.3,1.4,1.2,2.3,2.1,2.8c0.9,0.5,1.8,0.5,2.4,0.5c0.7,0,1.3-0.3,2-0.6s1.5-0.8,2.3-1.2c1.2-0.7,1.8-1.1,2.2-1.4l13.6,12.6
			c0,0,0,0,0,0c0.6,0.5,1.1,1.5,1.1,2c0,0,0,0,0,0c-0.1,0.8-0.4,1.3-0.7,1.6c-0.4,0.3-0.9,0.5-1.6,0.4c-0.4,0-0.9-0.2-1.2-0.4
			c0.1,0.1-0.2-0.2-0.5-0.4c-0.3-0.3-0.7-0.7-1.2-1.1c-0.9-0.9-2.1-2-3.3-3.1c-2.4-2.2-4.7-4.4-4.7-4.4c-0.3-0.3-0.8-0.3-1.1,0
			c-0.3,0.3-0.3,0.8,0,1.1l0,0c0,0,2.3,2.2,4.7,4.4c1.2,1.1,2.4,2.2,3.3,3.1c0.1,0.2,0.1,0.2,0.2,0.3c0.1,0.2,0.1,0.3,0,0.5
			c-0.1,1.1-1.2,1.9-2.3,1.8c-0.4,0-0.8-0.2-1.1-0.5c0,0-0.1-0.1-0.3-0.3s-0.5-0.5-0.8-0.8c-0.6-0.6-1.4-1.4-2.3-2.2
			c-1.6-1.6-3.2-3.1-3.2-3.1c-0.1-0.2-0.3-0.2-0.6-0.2c-0.4,0-0.8,0.4-0.8,0.8c0,0.2,0.1,0.4,0.3,0.6c0,0,1.6,1.5,3.2,3.1
			c0.8,0.8,1.6,1.6,2.3,2.2c0.2,0.2,0.5,0.6,0.5,0.9c-0.2,1.2-1,1.5-2.1,1.5c-0.4,0-0.8-0.2-1.1-0.5c-0.1-0.1-3.3-2.8-5.2-4.6
			c-0.2-0.2-0.4-0.2-0.6-0.2c-0.4,0-0.8,0.4-0.8,0.8c0,0.2,0.1,0.4,0.3,0.6c1.4,1.4,2.7,2.8,3.8,3.8l0.3,0.7c0,0.5-0.4,1.1-0.9,1.5
			c-0.5,0.4-1.2,0.7-1.7,0.6c-0.9-0.1-1.1-0.2-1.7-0.7c0.1-0.3,0.3-0.7,0.3-1c0.1-1.7-1.2-3.3-2.9-3.4c-0.6,0-1.2,0.1-1.7,0.3
			c0-1.6-1.3-2.9-2.9-3.1c-0.3,0-0.6,0-0.8,0.1c0,0,0-0.1,0-0.1c0.1-1.7-1.2-3.3-2.9-3.4c-0.3,0-0.5,0-0.8,0.1c0,0,0-0.1,0-0.1
			c0.1-1.7-0.8-3.2-2.3-3.9c0,0,0-0.1-0.1-0.1l-9-9L29.4,995.7z M80.1,999.9l-1.4,17.4L69,1024l-12.2-11.3c-0.3-0.2-0.7-0.3-1-0.1
			c0,0-1.2,0.8-2.7,1.7c-0.7,0.4-1.5,0.8-2.1,1.1s-1.3,0.5-1.4,0.5c-0.5,0-1.1-0.1-1.7-0.4c-0.5-0.2-0.8-0.7-1.1-1.3l7.2-6.8
			c0,0,0,0,0,0c1.5-0.9,2.7-1.2,4.3-1.1C64.6,1007,75.5,1004.3,80.1,999.9z M34.9,1023.5c1.3,0.1,2.3,1.2,2.2,2.6
			c-0.1,1.3-1.2,2.3-2.6,2.2c-1.3-0.1-2.3-1.2-2.2-2.6C32.4,1024.4,33.5,1023.4,34.9,1023.5z M39.3,1027.8c0.9,0.1,1.5,0.8,1.5,1.7
			c-0.1,0.9-0.8,1.5-1.7,1.5c-0.9-0.1-1.5-0.8-1.5-1.7C37.6,1028.4,38.4,1027.8,39.3,1027.8z M43,1031.3c0.9,0.1,1.5,0.8,1.5,1.7
			c-0.1,0.9-0.8,1.5-1.7,1.5c-0.9-0.1-1.5-0.8-1.5-1.7C41.3,1031.9,42.1,1031.2,43,1031.3z M47.5,1034c0.9,0.1,1.5,0.8,1.5,1.7
			c-0.1,0.9-0.8,1.5-1.7,1.5c-0.9-0.1-1.5-0.8-1.5-1.7S46.6,1034,47.5,1034z"/>
	</g>
</g>
</svg>
