<?xml version="1.0" encoding="utf-8"?>
<!-- Generator: Adobe Illustrator 22.1.0, SVG Export Plug-In . SVG Version: 6.00 Build 0)  -->
<svg version="1.1" id="Layer_1" xmlns="http://www.w3.org/2000/svg" xmlns:xlink="http://www.w3.org/1999/xlink" x="0px" y="0px"
	 viewBox="0 0 107.7 107.7" style="enable-background:new 0 0 107.7 107.7;" xml:space="preserve">
<style type="text/css">
	.st0{fill:none;stroke:#393F3F;stroke-width:0.75;stroke-miterlimit:10;}
	.st1{fill:#FFFFFF;stroke:#505265;stroke-linecap:round;stroke-linejoin:round;stroke-miterlimit:10;}
	.st2{fill:none;}
	.st3{fill:#393F3F;}
	.st4{fill:#FFFFFF;}
	.st5{fill:#505265;}
	.st6{fill:none;stroke:#505265;stroke-width:6;stroke-miterlimit:10;}
	.st7{fill:none;stroke:#505265;stroke-linecap:round;stroke-linejoin:round;stroke-miterlimit:10;}
	.st8{fill:#FFFFFF;stroke:#505265;stroke-miterlimit:10;}
	.st9{opacity:0.26;}
	.st10{fill:#9296CA;}
	.st11{fill:#C8E9EF;}
	.st12{fill:#FFFFFF;stroke:#383F3F;stroke-miterlimit:10;}
	.st13{fill:#FFFFFF;stroke:#383F3F;stroke-linecap:round;stroke-linejoin:round;stroke-miterlimit:10;}
	.st14{fill:#48C2C5;}
	.st15{opacity:0.26;fill:#9296CA;}
	.st16{fill:#505266;}
	.st17{fill:#F05A28;}
	.st18{fill:#034EA2;}
	.st19{fill:#FFFFFF;stroke:#FFFFFF;stroke-linecap:round;stroke-linejoin:round;stroke-miterlimit:10;}
	.st20{fill:#FFFFFF;stroke:#FFFFFF;stroke-miterlimit:10;}
	.st21{fill:#0072FF;stroke:#FFFFFF;stroke-miterlimit:10;}
	.st22{fill:#FFFFFF;stroke:#0072FF;stroke-linecap:round;stroke-linejoin:round;stroke-miterlimit:10;}
	.st23{fill:#F05323;}
	.st24{fill:#383F3F;}
	.st25{fill:none;stroke:#0072FF;stroke-width:0.75;stroke-linecap:round;stroke-linejoin:round;stroke-miterlimit:10;}
	.st26{fill:#2D2F32;}
	.st27{fill:#EEE007;}
	.st28{fill:#2D2F32;stroke:#2D2F32;stroke-miterlimit:10;}
	.st29{fill:#0072FF;}
	.st30{fill:none;stroke:#000000;stroke-miterlimit:10;}
	.st31{fill:#FFF100;}
	.st32{opacity:0.48;}
	.st33{fill:#034EA2;stroke:#FFFFFF;stroke-width:3;stroke-miterlimit:10;}
</style>
<g>
	<path class="st1" d="M90.2,78.5H31.9c-1.2,0-2.2-1-2.2-2.2V20.8c0-1.6,1.3-3,3-3h57.6c1.2,0,2.2,1,2.2,2.2v56.2
		C92.4,77.5,91.4,78.5,90.2,78.5z"/>
	<g>
		<g>
			<rect x="30.1" y="44.1" class="st15" width="61.9" height="8"/>
			<circle class="st16" cx="36.4" cy="48.2" r="3.2"/>
		</g>
		<g>
			<rect x="30.1" y="23" class="st15" width="61.9" height="8"/>
			<circle class="st16" cx="36.4" cy="27" r="3.2"/>
		</g>
		<g>
			<rect x="30.1" y="33.6" class="st15" width="61.9" height="8"/>
			<circle class="st16" cx="36.4" cy="37.6" r="3.2"/>
		</g>
		<g>
			<rect x="30.1" y="65.3" class="st15" width="61.9" height="8"/>
			<circle class="st16" cx="36.4" cy="69.3" r="3.2"/>
		</g>
		<g>
			<rect x="30.1" y="54.7" class="st15" width="61.9" height="8"/>
			<circle class="st16" cx="36.4" cy="58.7" r="3.2"/>
		</g>
	</g>
	<path class="st1" d="M83.4,84.3H25.1c-1.2,0-2.2-1-2.2-2.2V26.6c0-1.6,1.3-3,3-3h57.6c1.2,0,2.2,1,2.2,2.2v56.2
		C85.6,83.3,84.6,84.3,83.4,84.3z"/>
	<g>
		<g>
			<rect x="23.3" y="50" class="st15" width="61.9" height="8"/>
			<circle class="st16" cx="29.6" cy="54" r="3.2"/>
		</g>
		<g>
			<rect x="23.3" y="28.8" class="st15" width="61.9" height="8"/>
			<circle class="st16" cx="29.6" cy="32.8" r="3.2"/>
		</g>
		<g>
			<rect x="23.3" y="39.4" class="st15" width="61.9" height="8"/>
			<circle class="st16" cx="29.6" cy="43.4" r="3.2"/>
		</g>
		<g>
			<rect x="23.3" y="71.1" class="st15" width="61.9" height="8"/>
			<circle class="st16" cx="29.6" cy="75.1" r="3.2"/>
		</g>
		<g>
			<rect x="23.3" y="60.5" class="st15" width="61.9" height="8"/>
			<circle class="st16" cx="29.6" cy="64.5" r="3.2"/>
		</g>
	</g>
	<path class="st1" d="M75.8,89.9H17.5c-1.2,0-2.2-1-2.2-2.2V32.2c0-1.6,1.3-3,3-3h57.6c1.2,0,2.2,1,2.2,2.2v56.2
		C78,88.9,77,89.9,75.8,89.9z"/>
	<g>
		<g>
			<rect x="15.7" y="55.5" class="st15" width="61.9" height="8"/>
			<circle class="st16" cx="22" cy="59.6" r="3.2"/>
		</g>
		<g>
			<rect x="15.7" y="34.4" class="st15" width="61.9" height="8"/>
			<circle class="st16" cx="22" cy="38.4" r="3.2"/>
		</g>
		<g>
			<rect x="15.7" y="45" class="st15" width="61.9" height="8"/>
			<circle class="st16" cx="22" cy="49" r="3.2"/>
		</g>
		<g>
			<rect x="15.7" y="76.7" class="st15" width="61.9" height="8"/>
			<circle class="st16" cx="22" cy="80.7" r="3.2"/>
		</g>
		<g>
			<rect x="15.7" y="66.1" class="st15" width="61.9" height="8"/>
			<circle class="st16" cx="22" cy="70.1" r="3.2"/>
		</g>
	</g>
	<g>
		<g>
			<path class="st5" d="M49.8,70.8L49.8,70.8c-4,0-7.3-3.3-7.3-7.3V53.2c0-4,3.3-7.3,7.3-7.3h0c4,0,7.3,3.3,7.3,7.3v10.3
				C57.1,67.5,53.8,70.8,49.8,70.8z"/>
			<path class="st4" d="M49.8,64.4L49.8,64.4c-2.6,0-4.7-2.1-4.7-4.7v-6.6c0-2.6,2.1-4.7,4.7-4.7h0c2.6,0,4.7,2.1,4.7,4.7v6.6
				C54.5,62.3,52.4,64.4,49.8,64.4z"/>
			<path class="st5" d="M56.2,72.5H43.5c-1.5,0-2.7-1.2-2.7-2.7V58.9c0-1.5,1.2-2.7,2.7-2.7h12.6c1.5,0,2.7,1.2,2.7,2.7v10.9
				C58.9,71.3,57.7,72.5,56.2,72.5z"/>
		</g>
		<circle class="st4" cx="49.8" cy="62.9" r="1.8"/>
		<path class="st4" d="M49.8,67.1L49.8,67.1c-0.4,0-0.7-0.3-0.7-0.7v-1.8c0-0.4,0.3-0.7,0.7-0.7h0c0.4,0,0.7,0.3,0.7,0.7v1.8
			C50.6,66.8,50.3,67.1,49.8,67.1z"/>
	</g>
</g>
</svg>
