<?xml version="1.0" encoding="utf-8"?>
<!-- Generator: Adobe Illustrator 19.0.0, SVG Export Plug-In . SVG Version: 6.00 Build 0)  -->
<svg version="1.1" id="STROKE_1" xmlns="http://www.w3.org/2000/svg" xmlns:xlink="http://www.w3.org/1999/xlink" x="0px" y="0px"
	 viewBox="-1651.8 830 128.5 128" style="enable-background:new -1651.8 830 128.5 128;" xml:space="preserve">
<style type="text/css">
	.st0{opacity:0.1;fill:#4280C2;enable-background:new    ;}
	.st1{opacity:0.65;}
	.st2{fill:#647FA1;}
	.st3{fill:#6E85A1;}
	.st4{fill:#FFFFFF;}
	.st5{fill:#99ADBF;}
	.st6{fill:#DAE5F0;}
	.st7{opacity:0.5;fill:#FFFFFF;enable-background:new    ;}
	.st8{fill:#EEF6FF;}
	.st9{fill:#B3E1E8;}
	.st10{fill:#CEE2EE;}
	.st11{fill:#F2F8FF;}
	.st12{opacity:0.2;fill:#2C4B75;enable-background:new    ;}
	.st13{opacity:0.75;}
	.st14{opacity:0.3;fill:#7595B5;enable-background:new    ;}
	.st15{fill:#7FD4E3;}
	.st16{fill:#AFC7D6;}
	.st17{fill:#FF8585;}
</style>
<circle class="st0" cx="-1589.2" cy="900.2" r="55.6"/>
<title></title>
<g class="st1">
	<path class="st2" d="M-1529.7,895.2c-0.6,0-1-0.4-1-1v-1c0-0.6,0.4-1,1-1c0.6,0,1,0.4,1,1v1
		C-1528.7,894.8-1529.1,895.2-1529.7,895.2z"/>
	<path class="st2" d="M-1529.7,900.2c-0.6,0-1-0.4-1-1v-1c0-0.6,0.4-1,1-1c0.6,0,1,0.4,1,1v1
		C-1528.7,899.8-1529.1,900.2-1529.7,900.2z"/>
	<path class="st2" d="M-1531.7,897.2h-1c-0.6,0-1-0.4-1-1s0.4-1,1-1h1c0.6,0,1,0.4,1,1S-1531.1,897.2-1531.7,897.2z"/>
	<path class="st2" d="M-1526.7,897.2h-1c-0.6,0-1-0.4-1-1s0.4-1,1-1h1c0.6,0,1,0.4,1,1S-1526.1,897.2-1526.7,897.2z"/>
	<path class="st2" d="M-1578.4,837.7c-0.6,0-1-0.4-1-1c0-0.3,0.1-0.5,0.3-0.7l0.7-0.7c0.4-0.4,1-0.4,1.4,0c0.4,0.4,0.4,1,0,1.4
		l-0.7,0.7C-1577.9,837.6-1578.1,837.7-1578.4,837.7z"/>
	<path class="st2" d="M-1581.9,841.2c-0.6,0-1-0.4-1-1c0-0.3,0.1-0.5,0.3-0.7l0.7-0.7c0.4-0.4,1-0.4,1.4,0c0.4,0.4,0.4,1,0,1.4
		l-0.7,0.7C-1581.4,841.1-1581.7,841.2-1581.9,841.2z"/>
	<path class="st2" d="M-1581.2,837.7c-0.3,0-0.5-0.1-0.7-0.3l-0.7-0.7c-0.4-0.4-0.4-1,0-1.4c0.4-0.4,1-0.4,1.4,0l0,0l0.7,0.7
		c0.4,0.4,0.4,1,0,1.4C-1580.7,837.6-1581,837.7-1581.2,837.7L-1581.2,837.7z"/>
	<path class="st2" d="M-1577.7,841.2c-0.3,0-0.5-0.1-0.7-0.3l-0.7-0.7c-0.4-0.4-0.4-1,0-1.4c0.4-0.4,1-0.4,1.4,0l0.7,0.7
		c0.4,0.4,0.4,1,0,1.4C-1577.2,841.1-1577.4,841.2-1577.7,841.2z"/>
	<path class="st2" d="M-1557.7,954.2c-2.2,0-4-1.8-4-4s1.8-4,4-4s4,1.8,4,4S-1555.5,954.2-1557.7,954.2z M-1557.7,948.2
		c-1.1,0-2,0.9-2,2s0.9,2,2,2c1.1,0,2-0.9,2-2S-1556.6,948.2-1557.7,948.2z"/>
	<path class="st3" d="M-1643.7,930.2c-0.6,0-1-0.4-1-1v-6c0-0.6,0.4-1,1-1c0.6,0,1,0.4,1,1v6
		C-1642.7,929.8-1643.1,930.2-1643.7,930.2z"/>
	<path class="st3" d="M-1640.7,927.2h-6c-0.6,0-1-0.4-1-1s0.4-1,1-1h6c0.6,0,1,0.4,1,1S-1640.1,927.2-1640.7,927.2z"/>
</g>
<circle class="st4" cx="-1598.2" cy="857.6" r="7"/>
<path class="st5" d="M-1598.1,865.7L-1598.1,865.7c-2.1,0-4.2-0.8-5.6-2.3c-0.8-0.8-1.4-1.7-1.8-2.8c-0.1-0.2-0.1-0.5,0-0.8
	c0.1-0.2,0.3-0.4,0.6-0.5c0.5-0.2,1.1,0.1,1.3,0.6c1.1,2.8,4,4.4,6.9,3.7c0.5-0.1,1.1,0.2,1.2,0.8c0.1,0.5-0.2,1.1-0.8,1.2l0,0
	C-1596.9,865.6-1597.5,865.7-1598.1,865.7z M-1593.1,863.6c-0.3,0-0.5-0.1-0.7-0.3s-0.3-0.4-0.3-0.7s0.1-0.5,0.3-0.7
	c1.1-1.1,1.7-2.6,1.7-4.2c0-1.3-0.4-2.6-1.2-3.6c-0.3-0.4-0.2-1.1,0.2-1.4s1.1-0.2,1.4,0.2c2.4,3.2,2.1,7.6-0.6,10.5
	C-1592.6,863.5-1592.9,863.6-1593.1,863.6L-1593.1,863.6z M-1595.8,852.1c-0.1,0-0.2,0-0.3-0.1l0,0c-0.5-0.2-1-0.3-1.5-0.3
	c-0.3,0-0.5-0.2-0.7-0.4s-0.3-0.5-0.2-0.7c0-0.5,0.5-0.9,1.1-0.9l0,0c0.7,0.1,1.3,0.2,2,0.4c0.4,0.1,0.7,0.5,0.7,0.9
	c0,0.1,0,0.2-0.1,0.4C-1595,851.8-1595.3,852.1-1595.8,852.1z"/>
<path class="st6" d="M-1613.3,864v-8.5l-7.1-7.1c-3.5-3.4-3.7-8.8-0.6-12.5c3.3-3.7,9-4.1,12.7-0.8c0.2,0.1,0.3,0.3,0.4,0.4l7.4,7.4
	h8.5c1.8,0,3.5,0.7,4.8,2l1.5,1.5l-24,24l-1.5-1.5C-1612.6,867.5-1613.3,865.8-1613.3,864z"/>
<path class="st7" d="M-1605,847.3l-7.4-7.4c-2.5-2.5-6.4-3.3-9.7-2c0.2-0.5,0.4-0.9,0.7-1.3c3.5-2.2,8.1-1.6,11,1.3l7.4,7.4
	L-1605,847.3L-1605,847.3z"/>
<path class="st7" d="M-1605,847.3l2-2l7.5,1c1.8,0,3.5,0.7,4.8,2l1.5,1.5l-3,3C-1593.4,849.3-1598,847.7-1605,847.3z"/>
<path class="st5" d="M-1592.8,854.4c-0.6,0-1-0.4-1-1c0-0.3,0.1-0.5,0.3-0.7l2.8-2.8c0.4-0.4,1-0.4,1.4,0c0.4,0.4,0.4,1,0,1.4
	l-2.8,2.8C-1592.3,854.3-1592.6,854.4-1592.8,854.4z M-1587.2,848.8c-0.6,0-1-0.4-1-1c0-0.3,0.1-0.5,0.3-0.7l0.8-0.8l-0.8-0.8
	c-1.1-1.1-2.6-1.7-4.1-1.7h-8.5c-0.3,0-0.5-0.1-0.7-0.3l-1.3-1.3c-0.4-0.4-0.4-1,0-1.4c0.4-0.4,1-0.4,1.4,0l1,1h8.1
	c2.1,0,4.1,0.8,5.5,2.3l1.5,1.5c0.4,0.4,0.4,1,0,1.4l0,0l-1.5,1.5C-1586.7,848.6-1586.9,848.8-1587.2,848.8L-1587.2,848.8z"/>
<path class="st5" d="M-1613.3,865c-0.6,0-1-0.4-1-1v-8.1l-6.9-6.9c-2-2-3.1-4.6-3.1-7.4c0-2.4,0.8-4.7,2.4-6.5
	c1.9-2.2,4.6-3.4,7.5-3.4l0,0c0.6,0,1,0.4,1,1s-0.4,1-1,1c-2.3,0-4.5,1-6,2.7c-1.2,1.4-1.9,3.3-1.9,5.1c0,2.2,0.9,4.4,2.5,6l7.1,7.1
	c0.2,0.2,0.3,0.4,0.3,0.7v8.5C-1612.3,864.5-1612.7,865-1613.3,865L-1613.3,865z M-1602.7,839.2c-0.5,0-1-0.1-1.5-0.2
	c-0.5-0.1-0.9-0.7-0.7-1.2c0.1-0.5,0.7-0.9,1.2-0.7c0.3,0.1,0.7,0.1,1.1,0.1c0.6,0,1,0.4,1,1
	C-1601.6,838.8-1602.1,839.2-1602.7,839.2z M-1607.3,837c-0.3,0-0.5-0.1-0.7-0.3l-0.6-0.6c-0.7-0.7-1.4-1.2-2.3-1.6
	c-0.5-0.2-0.7-0.8-0.5-1.3s0.8-0.7,1.3-0.5c1,0.5,2,1.2,2.8,2l0.6,0.6c0.4,0.4,0.4,1,0,1.4C-1606.8,836.9-1607,837-1607.3,837
	L-1607.3,837z"/>
<path class="st5" d="M-1604.6,866.2c-0.6,0-1-0.4-1-1c0-0.3,0.1-0.5,0.3-0.7l6-6c0.4-0.4,1-0.4,1.4,0c0.4,0.4,0.4,1,0,1.4l-6,6
	C-1604.1,866.1-1604.4,866.2-1604.6,866.2z"/>
<path class="st5" d="M-1613.3,856.7c-0.6,0-1-0.4-1-1c0-0.3,0.1-0.5,0.3-0.7l2.5-2.5c0.4-0.4,1-0.4,1.4,0c0.4,0.4,0.4,1,0,1.4
	l-2.5,2.5C-1612.8,856.6-1613,856.7-1613.3,856.7z"/>
<path class="st5" d="M-1606.8,850.2c-0.6,0-1-0.4-1-1c0-0.3,0.1-0.5,0.3-0.7l6.5-6.5c0.4-0.4,1-0.4,1.4,0c0.4,0.4,0.4,1,0,1.4l0,0
	l-6.5,6.5C-1606.3,850.1-1606.5,850.2-1606.8,850.2z"/>
<path class="st5" d="M-1623.2,854.7c-0.6,0-1-0.4-1-1c0-0.3,0.1-0.5,0.3-0.7l4-4c0.4-0.4,1-0.4,1.4,0c0.4,0.4,0.4,1,0,1.4l-4,4
	C-1622.7,854.6-1623,854.7-1623.2,854.7z"/>
<path class="st5" d="M-1642.7,893.2c-0.4,0-0.8-0.2-0.9-0.6l-5.6-13.9c-0.2-0.5,0-1.1,0.6-1.3l0,0l4.3-1.6c0.5-0.2,1.1,0.1,1.3,0.6
	l0,0l2.3,6.5c0.2,0.5-0.1,1.1-0.6,1.3s-1.1-0.1-1.3-0.6l0,0l-1.9-5.5l-2.4,0.9l5.2,12.9c0.2,0.5,0,1.1-0.6,1.3
	C-1642.5,893.2-1642.6,893.2-1642.7,893.2L-1642.7,893.2z"/>
<path class="st5" d="M-1647.4,877c-0.6,0-1-0.4-1-1c0-0.3,0.1-0.5,0.3-0.7l14.6-13.7c0.4-0.4,1-0.4,1.4,0c0.4,0.4,0.4,1,0,1.4l0,0
	l-14.6,13.7C-1646.9,876.9-1647.2,877-1647.4,877z M-1629.7,866.2c-0.6,0-1-0.4-1-1c0-0.2,0-0.3,0.1-0.5l2-3.5
	c0.3-0.5,0.9-0.7,1.4-0.4s0.7,0.9,0.4,1.4l0,0l-2,3.5C-1629,866-1629.3,866.2-1629.7,866.2z M-1629.9,860.6c-0.6,0-1-0.4-1-1
	c0-0.3,0.1-0.5,0.3-0.7l2.1-1.9c0.4-0.3,0.9-0.4,1.3-0.1l0.9,0.7c0.4,0.3,0.5,1,0.2,1.4s-1,0.5-1.4,0.2l-0.3-0.2l-1.4,1.3
	C-1629.4,860.5-1629.7,860.6-1629.9,860.6L-1629.9,860.6z"/>
<circle class="st8" cx="-1645.7" cy="878.2" r="4"/>
<path class="st5" d="M-1645.7,883.2c-1.6,0-3.1-0.7-4-2c-0.3-0.4-0.2-1.1,0.2-1.4s1.1-0.2,1.4,0.2c1,1.3,2.9,1.6,4.2,0.6
	s1.6-2.9,0.6-4.2c-0.1-0.1-0.2-0.2-0.3-0.3c-0.4-0.4-0.4-1,0-1.4c0.4-0.4,1-0.4,1.4,0c2,2,2,5.1,0,7.1
	C-1643.1,882.7-1644.4,883.2-1645.7,883.2z M-1649.4,877.8c-0.6,0-1-0.4-1-1c0-0.1,0-0.2,0.1-0.3c0.6-1.6,2-2.8,3.6-3.1
	c0.5-0.1,1.1,0.2,1.2,0.8c0.1,0.6-0.2,1.1-0.8,1.2c-1,0.2-1.8,0.9-2.2,1.9C-1648.7,877.5-1649,877.8-1649.4,877.8z"/>
<path class="st5" d="M-1629.4,854.9c-0.2,0-0.5-0.1-0.7-0.3l-3.7-3.4c-0.4-0.4-0.4-1-0.1-1.4c0.4-0.4,1-0.4,1.4-0.1l3.7,3.4
	c0.4,0.4,0.4,1,0.1,1.4C-1628.8,854.8-1629.1,854.9-1629.4,854.9z"/>
<circle class="st8" cx="-1626.2" cy="856.7" r="4"/>
<path class="st5" d="M-1626.2,861.7c-1.6,0-3.1-0.7-4-2c-0.3-0.4-0.2-1.1,0.2-1.4s1.1-0.2,1.4,0.2c1,1.3,2.9,1.6,4.2,0.6
	s1.6-2.9,0.6-4.2c-0.1-0.1-0.2-0.2-0.3-0.3c-0.4-0.4-0.4-1,0-1.4c0.4-0.4,1-0.4,1.4,0c2,2,2,5.1,0,7.1
	C-1623.6,861.2-1624.9,861.7-1626.2,861.7z M-1630,856.3c-0.6,0-1-0.4-1-1c0-0.1,0-0.2,0.1-0.3c0.6-1.6,2-2.8,3.6-3.1
	c0.5-0.1,1.1,0.2,1.2,0.8c0.1,0.5-0.2,1.1-0.8,1.2c-1,0.2-1.8,0.9-2.2,1.9C-1629.2,856-1629.6,856.3-1630,856.3z"/>
<path class="st9" d="M-1559,858.2c0.9-2.7,1.3-5.5,1.3-8.3c0-5.3-2.9-8.7-6.5-8.7c-3.6,0-6.5,3.5-6.5,8.7c0,2.8,0.4,5.6,1.3,8.3
	H-1559z"/>
<path class="st7" d="M-1562.2,841.6c-0.6-0.3-1.3-0.4-2-0.4c-3.6,0-6.5,3.5-6.5,8.7c0,2.8,0.4,5.6,1.3,8.3h4
	c-0.9-2.7-1.3-5.5-1.3-8.3C-1566.7,845.7-1564.8,842.6-1562.2,841.6z"/>
<path class="st5" d="M-1559,859.2h-10.5c-0.4,0-0.8-0.3-0.9-0.7c-0.9-2.8-1.3-5.7-1.3-8.6c0-5.6,3.2-9.7,7.5-9.7s7.5,4.1,7.5,9.7
	c0,2.9-0.4,5.8-1.3,8.6C-1558.2,858.9-1558.5,859.2-1559,859.2z M-1568.7,857.2h9c0.7-2.4,1-4.8,1-7.3c0-4.5-2.3-7.7-5.5-7.7
	s-5.5,3.3-5.5,7.7C-1569.7,852.4-1569.4,854.8-1568.7,857.2z"/>
<path class="st5" d="M-1569.2,846.7c-0.2,0-0.4-0.1-0.6-0.2l-1.5-1c-0.5-0.3-0.6-0.9-0.3-1.4c0.3-0.4,0.9-0.6,1.4-0.3l1.5,1
	c0.5,0.3,0.6,0.9,0.3,1.4C-1568.6,846.5-1568.9,846.7-1569.2,846.7z"/>
<path class="st5" d="M-1566.5,843.5c-0.3,0-0.5-0.1-0.7-0.3l-1.2-1.3c-0.4-0.4-0.4-1,0-1.4c0.4-0.4,1-0.4,1.4,0l0,0l1.2,1.3
	c0.4,0.4,0.4,1,0,1.4C-1565.9,843.4-1566.2,843.5-1566.5,843.5L-1566.5,843.5z"/>
<path class="st5" d="M-1562,843.5c-0.6,0-1-0.4-1-1c0-0.3,0.1-0.5,0.3-0.7l1.3-1.2c0.4-0.4,1-0.3,1.4,0.1c0.4,0.4,0.3,1-0.1,1.4
	l-1.3,1.2C-1561.5,843.4-1561.7,843.5-1562,843.5z"/>
<path class="st5" d="M-1570.2,852.2c-0.1,0-0.2,0-0.3-0.1l-1.5-0.5c-0.5-0.2-0.8-0.7-0.6-1.3c0.2-0.6,0.7-0.8,1.3-0.6l1.5,0.5
	c0.5,0.2,0.8,0.7,0.6,1.3C-1569.4,851.9-1569.8,852.2-1570.2,852.2z"/>
<path class="st5" d="M-1570.7,857.2c-0.6,0-1-0.4-1-1c0-0.4,0.3-0.8,0.7-0.9l1.5-0.5c0.5-0.2,1.1,0.1,1.3,0.6s-0.1,1.1-0.6,1.3l0,0
	l-1.5,0.5C-1570.5,857.2-1570.6,857.2-1570.7,857.2z"/>
<path class="st5" d="M-1558.7,848.2c-0.6,0-1-0.4-1-1c0-0.3,0.2-0.6,0.4-0.8l1.5-1c0.5-0.3,1.1-0.2,1.4,0.3s0.2,1.1-0.3,1.4l-1.5,1
	C-1558.3,848.1-1558.5,848.2-1558.7,848.2z"/>
<path class="st5" d="M-1557.2,851.2h-1c-0.6,0-1-0.4-1-1s0.4-1,1-1h1c0.6,0,1,0.4,1,1S-1556.6,851.2-1557.2,851.2z"/>
<path class="st5" d="M-1566.2,854.7c-0.3,0-0.5-0.1-0.7-0.3l-0.5-0.5c-0.4-0.4-0.4-1,0-1.4c0.4-0.4,1-0.4,1.4,0l0.5,0.5
	c0.4,0.4,0.4,1,0,1.4C-1565.7,854.6-1565.9,854.7-1566.2,854.7L-1566.2,854.7z"/>
<path class="st5" d="M-1566.2,848.7c-0.3,0-0.5-0.1-0.7-0.3l-0.5-0.5c-0.4-0.4-0.4-1,0-1.4c0.4-0.4,1-0.4,1.4,0l0,0l0.5,0.5
	c0.4,0.4,0.4,1,0,1.4C-1565.7,848.6-1565.9,848.7-1566.2,848.7L-1566.2,848.7z"/>
<path class="st5" d="M-1562.2,851.7c-0.6,0-1-0.4-1-1c0-0.3,0.1-0.5,0.3-0.7l0.5-0.5c0.4-0.4,1-0.4,1.4,0c0.4,0.4,0.4,1,0,1.4
	l-0.5,0.5C-1561.7,851.6-1561.9,851.7-1562.2,851.7z"/>
<path class="st5" d="M-1562.2,846.7c-0.6,0-1-0.4-1-1c0-0.3,0.1-0.5,0.3-0.7l0.5-0.5c0.4-0.4,1-0.4,1.4,0c0.4,0.4,0.4,1,0,1.4l0,0
	l-0.5,0.5C-1561.7,846.6-1561.9,846.7-1562.2,846.7z"/>
<path class="st5" d="M-1562.2,856.7c-0.6,0-1-0.4-1-1c0-0.3,0.1-0.5,0.3-0.7l0.5-0.5c0.4-0.4,1-0.4,1.4,0c0.4,0.4,0.4,1,0,1.4
	l-0.5,0.5C-1561.7,856.6-1561.9,856.7-1562.2,856.7z"/>
<path class="st5" d="M-1557.2,855.7c-0.1,0-0.2,0-0.3-0.1l-1.5-0.5c-0.5-0.2-0.8-0.7-0.6-1.3c0.2-0.6,0.7-0.8,1.3-0.6l1.5,0.5
	c0.5,0.2,0.8,0.7,0.6,1.3C-1556.4,855.4-1556.8,855.7-1557.2,855.7z"/>
<polygon class="st10" points="-1558.2,870.2 -1570.2,870.2 -1571.7,861.2 -1556.7,861.2 "/>
<polygon class="st7" points="-1565.7,870.2 -1567.7,870.2 -1568.7,861.2 -1566.7,861.2 "/>
<path class="st5" d="M-1571.2,865.2c-0.5,0-0.9-0.4-1-0.8l-0.5-3c-0.1-0.5,0.3-1.1,0.8-1.1c0.5-0.1,1,0.3,1.1,0.8l0.5,3
	C-1570.2,864.6-1570.6,865.2-1571.2,865.2C-1571.1,865.2-1571.1,865.2-1571.2,865.2z"/>
<path class="st5" d="M-1557.4,866.2c-0.6,0-1-0.4-1-1c0-0.1,0-0.1,0-0.2l0.7-4c0.1-0.5,0.6-0.9,1.2-0.8c0.5,0.1,0.9,0.6,0.8,1.1
	l-0.7,4C-1556.5,865.8-1556.9,866.2-1557.4,866.2z"/>
<rect x="-1572.7" y="858.2" class="st10" width="17" height="3"/>
<rect x="-1569.7" y="858.2" class="st7" width="2" height="3"/>
<path class="st5" d="M-1555.7,863.2h-6c-0.6,0-1-0.4-1-1s0.4-1,1-1h5v-2h-15v2h2c0.6,0,1,0.4,1,1s-0.4,1-1,1h-3c-0.6,0-1-0.4-1-1v-4
	c0-0.6,0.4-1,1-1h17c0.6,0,1,0.4,1,1v4C-1554.7,862.8-1555.1,863.2-1555.7,863.2z"/>
<polygon class="st8" points="-1574.7,876.2 -1574.7,870.2 -1530.7,870.2 -1530.7,876.2 -1563.7,876.2 "/>
<rect x="-1549.7" y="858.2" class="st8" width="15" height="11"/>
<path class="st8" d="M-1542.7,853.2h9v5h-17v-5h1.8c1.4,0,2.6-0.8,3.2-2l0,0"/>
<path class="st5" d="M-1533.7,859.2h-17c-0.6,0-1-0.4-1-1v-5c0-0.6,0.4-1,1-1h1.8c1,0,1.9-0.6,2.3-1.4c0.2-0.5,0.8-0.7,1.3-0.4
	c0.5,0.2,0.7,0.8,0.4,1.3c-0.8,1.6-2.4,2.6-4.1,2.6h-0.8v3h15v-3h-8c-0.6,0-1-0.4-1-1s0.4-1,1-1h9c0.6,0,1,0.4,1,1v5
	C-1532.7,858.8-1533.1,859.2-1533.7,859.2z"/>
<path class="st5" d="M-1539.7,863.2h-5c-0.6,0-1-0.4-1-1s0.4-1,1-1h5c0.6,0,1,0.4,1,1S-1539.1,863.2-1539.7,863.2z"/>
<path class="st5" d="M-1534.7,868.2c-0.6,0-1-0.4-1-1v-8h-13v6c0,0.6-0.4,1-1,1c-0.6,0-1-0.4-1-1v-7c0-0.6,0.4-1,1-1h15
	c0.6,0,1,0.4,1,1v9C-1533.7,867.8-1534.1,868.2-1534.7,868.2z"/>
<path class="st5" d="M-1534.7,879.2c-0.6,0-1-0.4-1-1c0-0.1,0-0.3,0.1-0.4l0.1-0.2c0.7-1.4,2.1-2.3,3.7-2.3h0.1v-4h-3
	c-0.6,0-1-0.4-1-1s0.4-1,1-1h4c0.6,0,1,0.4,1,1v6c0,0.6-0.4,1-1,1h-1.1c-0.8,0-1.5,0.5-1.9,1.2l-0.1,0.2
	C-1534,879-1534.3,879.2-1534.7,879.2z"/>
<path class="st11" d="M-1632.7,870.2h90c2.2,0,4,1.8,4,4v58l0,0h-98l0,0v-58C-1636.7,872-1634.9,870.2-1632.7,870.2z"/>
<path class="st12" d="M-1542.7,870.2h-90c-2.2,0-4,1.8-4,4v3c0-2.2,1.8-4,4-4h90c2.2,0,4,1.8,4,4l0,0v-3
	C-1538.7,872-1540.5,870.2-1542.7,870.2L-1542.7,870.2z"/>
<g class="st13">
	<path class="st4" d="M-1542.7,870.2h-10.5l-62,62h76.5v-58C-1538.7,872-1540.5,870.2-1542.7,870.2L-1542.7,870.2z"/>
	<polygon class="st4" points="-1557.5,870.2 -1561.7,870.2 -1623.7,932.2 -1619.5,932.2 	"/>
</g>
<rect x="-1601.7" y="942.2" class="st8" width="26" height="12"/>
<path class="st2" d="M-1601.7,955.2c-0.6,0-1-0.4-1-1v-8c0-0.6,0.4-1,1-1c0.6,0,1,0.4,1,1v8
	C-1600.7,954.8-1601.1,955.2-1601.7,955.2z"/>
<path class="st2" d="M-1575.7,952.2c-0.6,0-1-0.4-1-1v-4c0-0.6,0.4-1,1-1c0.6,0,1,0.4,1,1v4
	C-1574.7,951.8-1575.1,952.2-1575.7,952.2z"/>
<rect x="-1601.7" y="942.2" class="st14" width="26" height="4"/>
<path class="st2" d="M-1571.7,955.2h-34c-0.6,0-1-0.4-1-1s0.4-1,1-1h34c0.6,0,1,0.4,1,1S-1571.1,955.2-1571.7,955.2z"/>
<path class="st2" d="M-1538.7,933.2c-0.6,0-1-0.4-1-1v-21c0-0.6,0.4-1,1-1c0.6,0,1,0.4,1,1v21
	C-1537.7,932.8-1538.1,933.2-1538.7,933.2z"/>
<path class="st2" d="M-1636.7,933.2c-0.6,0-1-0.4-1-1v-30c0-0.6,0.4-1,1-1c0.6,0,1,0.4,1,1v30
	C-1635.7,932.8-1636.1,933.2-1636.7,933.2z M-1535.7,909.2c-0.1,0-0.2,0-0.3-0.1c-2.2-0.7-3.7-2.8-3.7-5.1v-6.4c0-0.6,0.4-1,1-1
	c0.6,0,1,0.4,1,1v6.4c0,1.5,0.9,2.7,2.3,3.2c0.5,0.2,0.8,0.7,0.6,1.3C-1534.9,908.9-1535.3,909.2-1535.7,909.2z M-1636.7,899.2
	c-0.6,0-1-0.4-1-1v-4c0-0.6,0.4-1,1-1c0.6,0,1,0.4,1,1v4C-1635.7,898.8-1636.1,899.2-1636.7,899.2z M-1538.7,894.6c-0.6,0-1-0.4-1-1
	v-19.4c0-1.7-1.3-3-3-3h-14.3c-0.6,0-1-0.4-1-1s0.4-1,1-1h14.3c2.8,0,5,2.2,5,5v19.4C-1537.7,894.2-1538.1,894.6-1538.7,894.6
	L-1538.7,894.6z M-1636.7,885.2c-0.6,0-1-0.4-1-1v-10c0-2.8,2.2-5,5-5h23.7c0.6,0,1,0.4,1,1s-0.4,1-1,1h-23.7c-1.7,0-3,1.3-3,3v10
	C-1635.7,884.8-1636.1,885.2-1636.7,885.2z M-1567,871.2h-4c-0.6,0-1-0.4-1-1s0.4-1,1-1h4c0.6,0,1,0.4,1,1S-1566.4,871.2-1567,871.2
	z M-1575,871.2h-30c-0.6,0-1-0.4-1-1s0.4-1,1-1h30c0.6,0,1,0.4,1,1S-1574.4,871.2-1575,871.2z"/>
<path class="st10" d="M-1636.7,932.2h98l0,0v6c0,2.2-1.8,4-4,4h-90c-2.2,0-4-1.8-4-4V932.2L-1636.7,932.2z"/>
<path class="st14" d="M-1542.7,939.2h-90c-2.2,0-4-1.8-4-4v3c0,2.2,1.8,4,4,4h90c2.2,0,4-1.8,4-4l0,0v-3
	C-1538.7,937.4-1540.5,939.2-1542.7,939.2z"/>
<path class="st2" d="M-1623.7,943.2h-9c-2.8,0-5-2.2-5-5v-6c0-0.6,0.4-1,1-1c0.6,0,1,0.4,1,1v6c0,1.7,1.3,3,3,3h9c0.6,0,1,0.4,1,1
	S-1623.1,943.2-1623.7,943.2z"/>
<path class="st2" d="M-1620.7,946.2c-0.6,0-1-0.4-1-1c0-0.2,0.1-0.4,0.2-0.6c1.4-2.2,3.8-3.4,6.4-3.4h26.7c0.6,0,1,0.4,1,1
	s-0.4,1-1,1h-26.7c-1.9,0-3.7,1-4.8,2.6C-1620.1,946-1620.4,946.2-1620.7,946.2z M-1542.7,943.2h-27.7c-0.6,0-1-0.4-1-1s0.4-1,1-1
	h27.7c1.7,0,3-1.3,3-3v-6c0-0.6,0.4-1,1-1c0.6,0,1,0.4,1,1v6C-1537.7,941-1539.9,943.2-1542.7,943.2L-1542.7,943.2z M-1574.4,943.2
	h-4c-0.6,0-1-0.4-1-1s0.4-1,1-1h4c0.6,0,1,0.4,1,1S-1573.9,943.2-1574.4,943.2z"/>
<path class="st3" d="M-1614.7,886.2c0,1.8-0.8,3.5-2.2,4.6c-1,0.9-2.3,0.4-3.8,0.4c-1.4,0-2.8,0.5-3.8-0.3c-2.6-2.1-3-5.8-0.9-8.4
	c2.1-2.6,5.8-3,8.4-0.9C-1615.5,882.6-1614.7,884.4-1614.7,886.2z"/>
<path class="st4" d="M-1619.6,883.5c-0.7-0.1-1.4-0.4-2.1-0.8c-0.2-0.2-0.1,0.8-0.2,0.8c-0.8,0.3-1.2,1.1-1,1.9
	c0,0.2,0.1,0.5,0.1,0.7c-0.1,0.1-0.1,0.2-0.1,0.4c0,0.3,0.1,0.7,0.3,1c0,0.6,0.5,1.1,0.5,1.5c0,0.2,0,0.4,0,0.5
	c0,0.2-0.1,0.3-0.3,0.3c-0.8,0.1-1.6,0.4-2.3,0.9c2.2,1.9,5.5,1.9,7.7,0c-0.7-0.5-1.4-0.8-2.3-0.9c-0.2,0-0.3-0.2-0.3-0.3
	c0-0.2,0-0.3,0-0.5c0-0.4,0.5-0.9,0.5-1.5c0.2-0.3,0.2-0.6,0.3-1c0-0.1,0-0.3-0.1-0.4c0-0.2,0.1-0.5,0.1-0.7
	C-1618.3,884.7-1618.8,883.8-1619.6,883.5z"/>
<rect x="-1608.7" y="880.2" class="st15" width="26" height="18"/>
<rect x="-1576.7" y="880.2" class="st3" width="26" height="18"/>
<rect x="-1608.7" y="904.2" class="st16" width="26" height="18"/>
<rect x="-1576.7" y="904.2" class="st17" width="26" height="18"/>
<path class="st4" d="M-1605.7,896.2c-0.6,0-1-0.4-1-1c0-0.1,0-0.2,0.1-0.4c1.7-4.3,3.6-5.3,4.8-5.4c1-0.1,1.9,0.4,2.4,1.3
	c0.4,0.4,0.9,0.6,1.5,0.5c0.4,0,0.8-0.1,0.9-0.4c0.8-2,2.3-4.6,5.7-4.6c1.3,0,2.5,0.6,3.4,1.5c0.8,0.7,1.2,1,2,0.8
	c0.5-0.1,1.1,0.2,1.2,0.7c0.1,0.5-0.2,1.1-0.7,1.2c-1.4,0.4-2.9-0.1-3.8-1.2c-0.5-0.6-1.3-1-2.1-1c-1.8,0-2.9,1-3.9,3.4
	c-0.5,1-1.5,1.7-2.6,1.7c-1.3,0.1-2.6-0.5-3.3-1.5c-0.1-0.2-0.3-0.3-0.5-0.3c-0.7,0.1-1.9,1.2-3.1,4.1
	C-1604.9,895.9-1605.3,896.2-1605.7,896.2z"/>
<path class="st4" d="M-1602.6,919.2c-1.7-0.1-3.2-1.1-4-2.7c-0.2-0.5,0-1.1,0.5-1.3s1.1,0,1.3,0.5c0.4,0.9,1.2,1.4,2.2,1.5
	c0.1,0,0.1,0,0.2,0c0.1-0.2,0.1-0.5,0.2-0.7c0.2-1.1,0.6-3.1,3.5-3.1h0.1c1.8-0.1,3.4,0.9,4.3,2.4c0.5,0.8,0.7,0.9,1.1,0.9
	c0.5,0,0.7-1,1-2.3c0.2-1.4,0.7-2.7,1.5-3.8c2.1-2.5,5.4-1.3,5.5-1.3c0.5,0.2,0.8,0.8,0.6,1.3c-0.2,0.5-0.8,0.8-1.3,0.6
	c-1.1-0.4-2.4-0.1-3.3,0.7c-0.6,0.9-0.9,1.9-1,2.9c-0.4,1.7-0.8,3.9-2.9,3.9c-1.2-0.1-2.2-0.7-2.8-1.8c-0.5-1-1.6-1.6-2.7-1.6
	c-1.3,0-1.4,0.4-1.5,1.5C-1600.5,917.6-1600.8,919.2-1602.6,919.2z"/>
<path class="st4" d="M-1570.7,919.7c-2.1,0-2.7-1.5-3.4-3c-0.2-0.4-0.3-0.8-0.5-1.2c-0.2-0.5,0-1.1,0.5-1.3s1.1,0,1.3,0.5
	c0.2,0.5,0.4,0.9,0.6,1.3c0.6,1.5,0.8,1.8,1.4,1.8c0.2-0.6,0.4-1.3,0.4-1.9c0.3-2,0.8-4.7,3.2-4.7c1.9,0,2.8,1.4,3.4,2.4
	c0.1,0.2,0.2,0.4,0.4,0.5c0.1-0.1,0.3-0.3,0.4-0.4c0.4-0.6,1-0.9,1.7-1c1.3-0.1,2.4,1,3.3,1.9c0.4,0.4,0.8,0.7,1.2,1
	c0.1-0.2,0.2-0.5,0.3-0.7c0.4-1.5,0.5-3.1,0.4-4.7c0-1.2-0.1-2.2,0.6-2.8c0.5-0.4,1.2-0.6,1.8-0.6s1,0.5,1,1s-0.5,1-1,1
	c-0.1,0-0.2,0-0.3,0c0,0.4,0,0.9,0,1.3c0.1,1.8,0,3.6-0.5,5.3c-0.1,0.5-0.5,1.9-1.7,2.2s-2.2-0.6-3.2-1.6c-0.5-0.5-1.4-1.3-1.8-1.3
	c-0.1,0-0.2,0.1-0.3,0.2c-0.4,0.7-1.2,1.2-2.1,1.3c-1,0-1.5-0.9-1.9-1.6c-0.6-0.9-1-1.4-1.7-1.4s-1,1.4-1.3,3
	C-1568.7,917.8-1569,919.7-1570.7,919.7z"/>
<path class="st4" d="M-1573.7,895.2c-0.6,0-1-0.4-1-1v-0.1c0.6-6,1-7.1,3.7-7.3h0.1c1.7-0.2,2.2,1.6,2.5,3c0.4,1.8,0.8,2.6,1.6,2.7
	c0.8,0.1,1.3-0.7,2-2c0.8-1.4,2-3.6,4.3-2.5c1.4,0.6,2.3,2,2.4,3.5c0.2,1,0.2,1,0.8,0.9c0.8-0.1,1.1-1.6,1.3-3.5
	c0.2-1.5,0.3-2.7,1.2-3.3c0.4-0.3,0.8-0.3,1.3-0.2s0.9,0.7,0.7,1.2c-0.1,0.4-0.5,0.7-0.9,0.8c-0.1,0.6-0.2,1.2-0.3,1.8
	c-0.3,2.1-0.6,4.9-3.1,5.2s-2.8-1.6-3-2.5c-0.2-1-0.3-1.6-1.3-2c-0.5-0.2-0.8-0.2-1.8,1.7c-0.8,1.4-1.8,3.3-3.9,3.1
	c-2.4-0.2-3-2.6-3.4-4.2c-0.1-0.5-0.2-1-0.4-1.4l0,0c-1.1,0.1-1.3,0.1-1.9,5.6C-1572.8,894.8-1573.2,895.2-1573.7,895.2z"/>
<path class="st2" d="M-1622.7,923.2h-4c-0.6,0-1-0.4-1-1s0.4-1,1-1h4c0.6,0,1,0.4,1,1S-1622.1,923.2-1622.7,923.2z"/>
<path class="st2" d="M-1614.7,899.2h-12c-0.6,0-1-0.4-1-1s0.4-1,1-1h12c0.6,0,1,0.4,1,1C-1613.7,898.7-1614.1,899.2-1614.7,899.2z"
	/>
<path class="st2" d="M-1614.7,905.2h-12c-0.6,0-1-0.4-1-1s0.4-1,1-1h12c0.6,0,1,0.4,1,1S-1614.1,905.2-1614.7,905.2z"/>
<path class="st2" d="M-1614.7,911.2h-12c-0.6,0-1-0.4-1-1s0.4-1,1-1h12c0.6,0,1,0.4,1,1S-1614.1,911.2-1614.7,911.2z"/>
<path class="st2" d="M-1614.7,923.2h-4c-0.6,0-1-0.4-1-1s0.4-1,1-1h4c0.6,0,1,0.4,1,1S-1614.1,923.2-1614.7,923.2z"/>
</svg>
