<?xml version="1.0" encoding="utf-8"?>
<!-- Generator: Adobe Illustrator 19.0.0, SVG Export Plug-In . SVG Version: 6.00 Build 0)  -->
<svg version="1.1" id="STROKE_1" xmlns="http://www.w3.org/2000/svg" xmlns:xlink="http://www.w3.org/1999/xlink" x="0px" y="0px"
	 viewBox="-415 217 128 128" style="enable-background:new -415 217 128 128;" xml:space="preserve">
<style type="text/css">
	.st0{opacity:0.3;fill:#ABDBF5;enable-background:new    ;}
	.st1{fill:#FFFFFF;}
	.st2{fill:#DEEEF7;}
	.st3{fill:#CEE2EE;}
	.st4{fill:#99ADBF;}
	.st5{fill:#FF8585;}
	.st6{fill:#FFD180;}
	.st7{fill:#89DBD7;}
	.st8{opacity:0.3;}
	.st9{fill:#EEF6FF;}
	.st10{fill:#DFEBF2;}
	.st11{fill:#D3DFE6;}
	.st12{fill:#F5FAFF;}
	.st13{fill:#7FD4E3;}
	.st14{opacity:0.5;fill:#FFFFFF;enable-background:new    ;}
	.st15{opacity:0.15;fill:#2C4B75;enable-background:new    ;}
	.st16{fill:#647FA1;}
	.st17{opacity:0.3;fill:#7690A8;enable-background:new    ;}
	.st18{fill:#B8D2E3;}
	.st19{opacity:0.5;fill:#647FA1;enable-background:new    ;}
	.st20{opacity:0.65;}
	.st21{fill:#6E85A1;}
</style>
<circle class="st0" cx="-349.4" cy="281.5" r="55"/>
<title></title>
<rect x="-340" y="236" class="st1" width="46" height="52"/>
<path class="st2" d="M-294,232v4h-46v-4c0-1.1,0.9-2,2-2h42C-294.9,230-294,230.9-294,232z"/>
<rect x="-336" y="240" class="st3" width="38" height="12"/>
<polyline class="st3" points="-336,288 -336,284 -298,284 -298,288 "/>
<rect x="-336" y="258" class="st3" width="10" height="6"/>
<rect x="-322" y="258" class="st3" width="10" height="6"/>
<rect x="-308" y="258" class="st3" width="10" height="6"/>
<path class="st4" d="M-294,289h-20c-0.6,0-1-0.4-1-1s0.4-1,1-1h19v-15c0-0.6,0.4-1,1-1s1,0.4,1,1v16C-293,288.6-293.4,289-294,289z"
	/>
<path class="st4" d="M-292,260c-0.3,0-0.5-0.1-0.7-0.3c-1.5-1.5-2.3-3.5-2.3-5.5v-16.5c0-0.6,0.4-1,1-1s1,0.4,1,1v16.5
	c0,1.5,0.6,3,1.7,4.1c0.4,0.4,0.4,1,0,1.4C-291.5,259.9-291.7,260-292,260z M-340,241c-0.6,0-1-0.4-1-1v-8c0-1.7,1.3-3,3-3h38.9
	c0.6,0,1,0.4,1,1s-0.4,1-1,1H-338c-0.6,0-1,0.4-1,1v8C-339,240.6-339.4,241-340,241z M-294,234.7c-0.6,0-1-0.4-1-1V232
	c0-0.4-0.2-0.7-0.6-0.9c-0.5-0.2-0.7-0.8-0.5-1.3s0.8-0.7,1.3-0.5c1.1,0.5,1.7,1.6,1.7,2.7v1.7C-293,234.3-293.4,234.7-294,234.7z"
	/>
<path class="st5" d="M-337,234c-0.6,0-1-0.5-1-1c0-0.3,0.1-0.5,0.3-0.7c0.3-0.3,0.7-0.4,1.1-0.2c0.1,0.1,0.2,0.1,0.3,0.2
	c0.4,0.4,0.4,1,0,1.4c-0.1,0.1-0.2,0.2-0.3,0.2C-336.7,234-336.9,234-337,234z"/>
<path class="st6" d="M-334,234c-0.1,0-0.3,0-0.4-0.1c-0.1-0.1-0.2-0.1-0.3-0.2c-0.4-0.4-0.4-1,0-1.4c0.1-0.1,0.2-0.2,0.3-0.2
	c0.2-0.1,0.5-0.1,0.8,0c0.1,0.1,0.2,0.1,0.3,0.2c0.4,0.4,0.4,1,0,1.4C-333.5,233.9-333.7,234-334,234z"/>
<path class="st7" d="M-331,234c-0.5,0-1-0.5-1-1c0-0.5,0.5-1,1-1s1,0.5,1,1c0,0.3-0.1,0.5-0.3,0.7C-330.5,233.9-330.7,234-331,234z"
	/>
<g class="st8">
	<path class="st4" d="M-299,269h-8c-0.6,0-1-0.4-1-1s0.4-1,1-1h8c0.6,0,1,0.4,1,1S-298.4,269-299,269z"/>
	<path class="st4" d="M-313,269h-8c-0.6,0-1-0.4-1-1s0.4-1,1-1h8c0.6,0,1,0.4,1,1S-312.4,269-313,269z"/>
	<path class="st4" d="M-327,269h-8c-0.6,0-1-0.4-1-1s0.4-1,1-1h8c0.6,0,1,0.4,1,1S-326.4,269-327,269z"/>
	<path class="st4" d="M-299,273h-8c-0.6,0-1-0.4-1-1s0.4-1,1-1h8c0.6,0,1,0.4,1,1S-298.4,273-299,273z"/>
	<path class="st4" d="M-313,273h-8c-0.6,0-1-0.4-1-1s0.4-1,1-1h8c0.6,0,1,0.4,1,1S-312.4,273-313,273z"/>
	<path class="st4" d="M-327,273h-8c-0.6,0-1-0.4-1-1s0.4-1,1-1h8c0.6,0,1,0.4,1,1S-326.4,273-327,273z"/>
	<path class="st4" d="M-299,277h-8c-0.6,0-1-0.4-1-1s0.4-1,1-1h8c0.6,0,1,0.4,1,1S-298.4,277-299,277z"/>
	<path class="st4" d="M-313,277h-8c-0.6,0-1-0.4-1-1s0.4-1,1-1h8c0.6,0,1,0.4,1,1S-312.4,277-313,277z"/>
	<path class="st4" d="M-327,277h-8c-0.6,0-1-0.4-1-1s0.4-1,1-1h8c0.6,0,1,0.4,1,1S-326.4,277-327,277z"/>
	<path class="st4" d="M-299,281h-8c-0.6,0-1-0.4-1-1s0.4-1,1-1h8c0.6,0,1,0.4,1,1S-298.4,281-299,281z"/>
	<path class="st4" d="M-313,281h-8c-0.6,0-1-0.4-1-1s0.4-1,1-1h8c0.6,0,1,0.4,1,1S-312.4,281-313,281z"/>
	<path class="st4" d="M-327,281h-8c-0.6,0-1-0.4-1-1s0.4-1,1-1h8c0.6,0,1,0.4,1,1S-326.4,281-327,281z"/>
	<path class="st4" d="M-320,256c-0.1,0-0.3,0-0.4-0.1c-0.1-0.1-0.2-0.1-0.3-0.2c-0.2-0.2-0.3-0.4-0.3-0.7c0-0.1,0-0.3,0.1-0.4
		c0-0.1,0.1-0.2,0.2-0.3c0.1-0.1,0.2-0.2,0.3-0.2c0.4-0.2,0.8-0.1,1.1,0.2c0.1,0.1,0.2,0.2,0.2,0.3c0.1,0.1,0.1,0.2,0.1,0.4
		C-319,255.5-319.4,256-320,256C-320,256-320,256-320,256z"/>
	<path class="st4" d="M-317,256c-0.1,0-0.3,0-0.4-0.1c-0.1,0-0.2-0.1-0.3-0.2c-0.2-0.2-0.3-0.4-0.3-0.7c0-0.1,0-0.3,0.1-0.4
		c0.1-0.3,0.3-0.4,0.5-0.5c0.4-0.2,0.8-0.1,1.1,0.2c0.1,0.1,0.2,0.2,0.2,0.3c0.1,0.1,0.1,0.2,0.1,0.4C-316,255.5-316.4,256-317,256
		C-317,256-317,256-317,256z"/>
	<path class="st4" d="M-314,256c-0.1,0-0.3,0-0.4-0.1c-0.1,0-0.2-0.1-0.3-0.2c-0.2-0.2-0.3-0.4-0.3-0.7c0-0.1,0-0.3,0.1-0.4
		c0.1-0.3,0.3-0.4,0.5-0.5c0.2-0.1,0.5-0.1,0.8,0c0.1,0.1,0.2,0.1,0.3,0.2c0.1,0.1,0.2,0.2,0.2,0.3c0.1,0.1,0.1,0.2,0.1,0.4
		c0,0.3-0.1,0.5-0.3,0.7c-0.1,0.1-0.2,0.2-0.3,0.2C-313.7,256-313.9,256-314,256z"/>
</g>
<polygon class="st1" points="-369,278 -403,278 -403,232 -377,232 -369,240 "/>
<polygon class="st9" points="-377,232 -377,240 -369,240 "/>
<path class="st4" d="M-369,241h-8c-0.6,0-1-0.4-1-1v-8c0-0.6,0.4-1,1-1c0.3,0,0.5,0.1,0.7,0.3l8,8c0.4,0.4,0.4,1,0,1.4
	C-368.5,240.9-368.7,241-369,241z M-376,239h4.6l-4.6-4.6V239z"/>
<g class="st8">
	<path class="st4" d="M-382,241h-1c-0.6,0-1-0.4-1-1s0.4-1,1-1h1c0.6,0,1,0.4,1,1S-381.4,241-382,241z"/>
	<path class="st4" d="M-387,241h-4c-0.6,0-1-0.4-1-1s0.4-1,1-1h4c0.6,0,1,0.4,1,1S-386.4,241-387,241z"/>
	<path class="st4" d="M-382,245h-3c-0.6,0-1-0.4-1-1s0.4-1,1-1h3c0.6,0,1,0.4,1,1S-381.4,245-382,245z"/>
	<path class="st4" d="M-389,245h-2c-0.6,0-1-0.4-1-1s0.4-1,1-1h2c0.6,0,1,0.4,1,1S-388.4,245-389,245z"/>
	<path class="st4" d="M-395,245h-2c-0.6,0-1-0.4-1-1s0.4-1,1-1h2c0.6,0,1,0.4,1,1S-394.4,245-395,245z"/>
	<path class="st4" d="M-392,257h-5c-0.6,0-1-0.4-1-1s0.4-1,1-1h5c0.6,0,1,0.4,1,1S-391.4,257-392,257z"/>
	<path class="st4" d="M-386,257h-2c-0.6,0-1-0.4-1-1s0.4-1,1-1h2c0.6,0,1,0.4,1,1S-385.4,257-386,257z"/>
	<path class="st4" d="M-382,257h-2c-0.6,0-1-0.4-1-1s0.4-1,1-1h2c0.6,0,1,0.4,1,1S-381.4,257-382,257z"/>
	<path class="st4" d="M-390,261h-7c-0.6,0-1-0.4-1-1s0.4-1,1-1h7c0.6,0,1,0.4,1,1S-389.4,261-390,261z"/>
	<path class="st4" d="M-382,261h-4c-0.6,0-1-0.4-1-1s0.4-1,1-1h4c0.6,0,1,0.4,1,1S-381.4,261-382,261z"/>
	<path class="st4" d="M-382,249h-5c-0.6,0-1-0.4-1-1s0.4-1,1-1h5c0.6,0,1,0.4,1,1S-381.4,249-382,249z"/>
	<path class="st4" d="M-391,249h-6c-0.6,0-1-0.4-1-1s0.4-1,1-1h6c0.6,0,1,0.4,1,1S-390.4,249-391,249z"/>
	<path class="st4" d="M-382,265h-1c-0.6,0-1-0.4-1-1s0.4-1,1-1h1c0.6,0,1,0.4,1,1S-381.4,265-382,265z"/>
	<path class="st4" d="M-385,265h-6c-0.6,0-1-0.4-1-1s0.4-1,1-1h6c0.6,0,1,0.4,1,1S-384.4,265-385,265z"/>
	<path class="st4" d="M-395,265h-2c-0.6,0-1-0.4-1-1s0.4-1,1-1h2c0.6,0,1,0.4,1,1S-394.4,265-395,265z"/>
	<path class="st4" d="M-382,269h-7c-0.6,0-1-0.4-1-1s0.4-1,1-1h7c0.6,0,1,0.4,1,1S-381.4,269-382,269z"/>
	<path class="st4" d="M-393,269h-4c-0.6,0-1-0.4-1-1s0.4-1,1-1h4c0.6,0,1,0.4,1,1S-392.4,269-393,269z"/>
	<path class="st4" d="M-382,253h-1c-0.6,0-1-0.4-1-1s0.4-1,1-1h1c0.6,0,1,0.4,1,1S-381.4,253-382,253z"/>
	<path class="st4" d="M-387,253h-10c-0.6,0-1-0.4-1-1s0.4-1,1-1h10c0.6,0,1,0.4,1,1S-386.4,253-387,253z"/>
	<path class="st4" d="M-377,245h-1c-0.6,0-1-0.4-1-1s0.4-1,1-1h1c0.6,0,1,0.4,1,1S-376.4,245-377,245z"/>
	<path class="st4" d="M-377,249h-1c-0.6,0-1-0.4-1-1s0.4-1,1-1h1c0.6,0,1,0.4,1,1S-376.4,249-377,249z"/>
	<path class="st4" d="M-377,253h-1c-0.6,0-1-0.4-1-1s0.4-1,1-1h1c0.6,0,1,0.4,1,1S-376.4,253-377,253z"/>
	<path class="st4" d="M-377,257h-1c-0.6,0-1-0.4-1-1s0.4-1,1-1h1c0.6,0,1,0.4,1,1S-376.4,257-377,257z"/>
	<path class="st4" d="M-377,261h-1c-0.6,0-1-0.4-1-1s0.4-1,1-1h1c0.6,0,1,0.4,1,1S-376.4,261-377,261z"/>
	<path class="st4" d="M-377,265h-1c-0.6,0-1-0.4-1-1s0.4-1,1-1h1c0.6,0,1,0.4,1,1S-376.4,265-377,265z"/>
	<path class="st4" d="M-377,269h-1c-0.6,0-1-0.4-1-1s0.4-1,1-1h1c0.6,0,1,0.4,1,1S-376.4,269-377,269z"/>
</g>
<path class="st4" d="M-403,264c-0.6,0-1-0.4-1-1v-20c0-0.6,0.4-1,1-1s1,0.4,1,1v20C-402,263.6-402.4,264-403,264z M-403,240
	c-0.6,0-1-0.4-1-1v-4c0-0.6,0.4-1,1-1s1,0.4,1,1v4C-402,239.6-402.4,240-403,240z M-389,233h-13c-0.6,0-1-0.4-1-1s0.4-1,1-1h13
	c0.6,0,1,0.4,1,1S-388.4,233-389,233z"/>
<path class="st1" d="M-410,272h50c1.1,0,2,0.9,2,2v42c0,1.1-0.9,2-2,2h-50c-1.1,0-2-0.9-2-2v-42C-412,272.9-411.1,272-410,272z"/>
<path class="st4" d="M-401,322c-0.3,0-0.5-0.1-0.7-0.3l0,0c-1.7-1.7-4.1-2.7-6.5-2.7h-1.8c-1.7,0-3-1.3-3-3v-7.1c0-0.6,0.4-1,1-1
	s1,0.4,1,1v7.1c0,0.6,0.4,1,1,1h1.8c3,0,5.8,1.2,7.9,3.3c0.4,0.4,0.4,1,0,1.4C-400.5,321.9-400.7,322-401,322z M-412,305.9
	c-0.6,0-1-0.4-1-1v-4c0-0.6,0.4-1,1-1s1,0.4,1,1v4C-411,305.5-411.4,305.9-412,305.9z M-412,291.9c-0.6,0-1-0.4-1-1V274
	c0-1.7,1.3-3,3-3h19c0.6,0,1,0.4,1,1s-0.4,1-1,1h-19c-0.6,0-1,0.4-1,1v16.9C-411,291.5-411.4,291.9-412,291.9z"/>
<path class="st4" d="M-390,319h-6c-0.6,0-1-0.4-1-1s0.4-1,1-1h6c0.6,0,1,0.4,1,1S-389.4,319-390,319z"/>
<rect x="-408" y="276" class="st3" width="46" height="38"/>
<polygon class="st1" points="-361,314 -407,314 -395,300 -387,308 -375,292 "/>
<circle class="st1" cx="-400" cy="284" r="4"/>
<path class="st10" d="M-331.6,294h32.5c0.8,0,1.4,0.6,1.4,1.4v21.2c0,0.8-0.6,1.4-1.4,1.4h-32.5c-0.8,0-1.4-0.6-1.4-1.4v-21.2
	C-333,294.6-332.4,294-331.6,294z"/>
<polygon class="st11" points="-298.1,318 -310.2,306.4 -320.5,306.4 -332.6,318 "/>
<path class="st12" d="M-332.6,294l14.3,13.7c1.6,1.6,4.2,1.6,5.9,0l14.3-13.7L-332.6,294z"/>
<path class="st4" d="M-299.1,319h-16.6c-0.6,0-1-0.4-1-1s0.4-1,1-1h16.6c0.2,0,0.4-0.2,0.4-0.4v-2.3c0-0.6,0.4-1,1-1
	c0.6,0,1,0.4,1,1v2.3C-296.7,317.9-297.8,319-299.1,319z M-297.7,311.3c-0.6,0-1-0.4-1-1v-4c0-0.6,0.4-1,1-1c0.6,0,1,0.4,1,1v4
	C-296.7,310.9-297.2,311.3-297.7,311.3L-297.7,311.3z M-297.7,303.3c-0.6,0-1-0.4-1-1v-6.9c0-0.2-0.2-0.4-0.4-0.4H-310
	c-0.6,0-1-0.4-1-1s0.4-1,1-1h10.9c1.3,0,2.4,1.1,2.4,2.4v6.9C-296.7,302.9-297.2,303.3-297.7,303.3L-297.7,303.3z"/>
<polygon class="st13" points="-368,252 -384,252 -384,330 -320,330 -320,252 -335,252 "/>
<polygon class="st14" points="-368,252 -384,252 -384,255 -320,255 -320,252 -335,252 "/>
<rect x="-384" y="327" class="st15" width="64" height="3"/>
<polygon class="st15" points="-378,260 -378,325 -334,325 -326,325 -326,260 "/>
<polygon class="st1" points="-378,258 -378,323 -334,323 -326,315 -326,258 "/>
<path class="st9" d="M-359,247v2h14v-2c0-3.9-3.1-7-7-7l0,0C-355.9,240-359,243.1-359,247C-359,247-359,247-359,247z"/>
<path class="st1" d="M-352,240c-3.9,0-7,3.1-7,7v2h0.1c0.5-3.8,4.1-6.5,7.9-5.9c3.1,0.4,5.5,2.9,5.9,5.9h0.1v-2
	C-345,243.1-348.1,240-352,240z"/>
<path class="st16" d="M-345,250c-0.6,0-1-0.4-1-1v-2c0-3.3-2.7-6-6-6c-2,0-3.9,1-5,2.8c-0.3,0.5-0.9,0.6-1.4,0.3
	c-0.5-0.3-0.6-0.9-0.3-1.4c2.4-3.7,7.3-4.8,11.1-2.4c2.3,1.5,3.7,4,3.7,6.7v2C-344,249.6-344.4,250-345,250z M-359,250
	c-0.6,0-1-0.4-1-1v-2c0-0.6,0.4-1,1-1s1,0.4,1,1v2C-358,249.6-358.4,250-359,250z"/>
<path class="st16" d="M-343.2,332.2c-0.2,0-0.3,0-0.5-0.1c-1.3-0.7-2.9-1.1-4.4-1.1H-383c-0.6,0-1-0.4-1-1s0.4-1,1-1h34.9
	c1.9,0,3.7,0.5,5.3,1.4c0.5,0.3,0.7,0.9,0.4,1.4C-342.5,332-342.8,332.2-343.2,332.2L-343.2,332.2z M-384,328c-0.6,0-1-0.4-1-1v-4
	c0-0.6,0.4-1,1-1c0.6,0,1,0.4,1,1v4C-383,327.6-383.4,328-384,328z M-384,320c-0.6,0-1-0.4-1-1v-20c0-0.6,0.4-1,1-1c0.6,0,1,0.4,1,1
	v20C-383,319.6-383.4,320-384,320z"/>
<path class="st16" d="M-387,287c-0.6,0-1-0.4-1-1c0-0.2,0.1-0.5,0.2-0.6l0.9-1.2c1.2-1.4,1.8-3.3,1.8-5.1V252c0-0.6,0.4-1,1-1h12
	c0.6,0,1,0.4,1,1s-0.4,1-1,1h-11v26.1c0,2.3-0.8,4.6-2.3,6.4l-0.9,1.2C-386.4,286.9-386.7,287-387,287z"/>
<path class="st16" d="M-320,276c-0.6,0-1-0.4-1-1v-22h-9c-0.6,0-1-0.4-1-1s0.4-1,1-1h10c0.6,0,1,0.4,1,1v23
	C-319,275.6-319.4,276-320,276z"/>
<path class="st16" d="M-320,331h-12c-0.6,0-1-0.4-1-1s0.4-1,1-1h11v-41.6c0-2,0.7-4,2.1-5.5l0.1-0.1c0.4-0.4,1-0.4,1.4-0.1
	c0.4,0.4,0.4,1,0.1,1.4c0,0,0,0,0,0l-0.1,0.1c-1,1.1-1.6,2.6-1.6,4.2V330C-319,330.6-319.4,331-320,331z"/>
<path class="st17" d="M-338,251h-28c-2.2,0-4,1.8-4,4v8c0,0.6,0.4,1,1,1h34c0.6,0,1-0.4,1-1v-8C-334,252.8-335.8,251-338,251z"/>
<path class="st3" d="M-335,252c0-1.7-1.3-3-3-3h-28c-1.7,0-3,1.3-3,3c0,0,0,0,0,0v9h34V252z"/>
<rect x="-369" y="258" class="st15" width="34" height="3"/>
<path class="st9" d="M-338,249h-28c-1.7,0-3,1.3-3,3c0,0,0,0,0,0v3c0-1.7,1.3-3,3-3c0,0,0,0,0,0h28c1.7,0,3,1.3,3,3c0,0,0,0,0,0v-3
	C-335,250.3-336.3,249-338,249C-338,249-338,249-338,249z"/>
<path class="st16" d="M-362,256h-7c-0.6,0-1-0.4-1-1s0.4-1,1-1h7c0.6,0,1,0.4,1,1S-361.4,256-362,256z"/>
<path class="st16" d="M-335,256h-7c-0.6,0-1-0.4-1-1s0.4-1,1-1h7c0.6,0,1,0.4,1,1S-334.4,256-335,256z"/>
<path class="st16" d="M-335,262h-8.4c-0.6,0-1-0.4-1-1s0.4-1,1-1h7.4v-8c0-1.1-0.9-2-2-2h-28c-1.1,0-2,0.9-2,2v8h12.6
	c0.6,0,1,0.4,1,1s-0.4,1-1,1H-369c-0.6,0-1-0.4-1-1v-9c0-2.2,1.8-4,4-4h28c2.2,0,4,1.8,4,4v9C-334,261.6-334.4,262-335,262z
	 M-347.4,262h-4c-0.6,0-1-0.4-1-1s0.4-1,1-1h4c0.6,0,1,0.4,1,1S-346.9,262-347.4,262z"/>
<path class="st16" d="M-352,246c-0.1,0-0.3,0-0.4-0.1c-0.3-0.1-0.4-0.3-0.5-0.5c-0.1-0.1-0.1-0.2-0.1-0.4c0-0.3,0.1-0.5,0.3-0.7
	c0.1-0.1,0.2-0.2,0.3-0.2c0.2-0.1,0.5-0.1,0.8,0c0.1,0,0.2,0.1,0.3,0.2c0.2,0.2,0.3,0.4,0.3,0.7c0,0.1,0,0.3-0.1,0.4
	c0,0.1-0.1,0.2-0.2,0.3c-0.1,0.1-0.2,0.2-0.3,0.2C-351.7,246-351.9,246-352,246z"/>
<polygon class="st18" points="-334,323 -334,315 -326,315 "/>
<path class="st13" d="M-367,280c-0.3,0-0.5-0.1-0.7-0.3l-3-3c-0.4-0.4-0.4-1,0-1.4c0.4-0.4,1-0.4,1.4,0l2.1,2.1l3.8-6.4
	c0.3-0.5,0.9-0.6,1.4-0.3s0.6,0.9,0.3,1.4l0,0l-4.5,7.5c-0.2,0.3-0.4,0.4-0.7,0.5C-366.9,280-367,280-367,280z"/>
<path class="st19" d="M-334,278h-22c-0.6,0-1-0.4-1-1s0.4-1,1-1h22c0.6,0,1,0.4,1,1S-333.4,278-334,278z"/>
<path class="st19" d="M-346,274h-10c-0.6,0-1-0.4-1-1s0.4-1,1-1h10c0.6,0,1,0.4,1,1S-345.4,274-346,274z"/>
<path class="st19" d="M-340,289h-16c-0.6,0-1-0.4-1-1s0.4-1,1-1h16c0.6,0,1,0.4,1,1S-339.4,289-340,289z"/>
<path class="st19" d="M-343,304h-13c-0.6,0-1-0.4-1-1s0.4-1,1-1h13c0.6,0,1,0.4,1,1S-342.4,304-343,304z"/>
<path class="st13" d="M-367,295c-0.3,0-0.5-0.1-0.7-0.3l-3-3c-0.4-0.4-0.4-1,0-1.4c0.4-0.4,1-0.4,1.4,0l2.1,2.1l3.8-6.4
	c0.3-0.5,0.9-0.6,1.4-0.3c0.5,0.3,0.6,0.9,0.3,1.4l0,0l-4.5,7.5c-0.2,0.3-0.4,0.4-0.7,0.5C-366.9,295-367,295-367,295z"/>
<path class="st19" d="M-334,293h-22c-0.6,0-1-0.4-1-1s0.4-1,1-1h22c0.6,0,1,0.4,1,1S-333.4,293-334,293z"/>
<path class="st13" d="M-367,310c-0.3,0-0.5-0.1-0.7-0.3l-3-3c-0.4-0.4-0.4-1,0-1.4c0.4-0.4,1-0.4,1.4,0l2.1,2.1l3.8-6.4
	c0.3-0.5,0.9-0.6,1.4-0.3c0.5,0.3,0.6,0.9,0.3,1.4l-4.5,7.5c-0.2,0.3-0.4,0.4-0.7,0.5C-366.9,310-367,310-367,310z"/>
<path class="st19" d="M-334,308h-22c-0.6,0-1-0.4-1-1s0.4-1,1-1h22c0.6,0,1,0.4,1,1S-333.4,308-334,308z"/>
<g class="st20">
	<path class="st16" d="M-301,326c-0.6,0-1-0.4-1-1v-1c0-0.6,0.4-1,1-1s1,0.4,1,1v1C-300,325.6-300.4,326-301,326z"/>
	<path class="st16" d="M-301,331c-0.6,0-1-0.4-1-1v-1c0-0.6,0.4-1,1-1s1,0.4,1,1v1C-300,330.6-300.4,331-301,331z"/>
	<path class="st16" d="M-303,328h-1c-0.6,0-1-0.4-1-1s0.4-1,1-1h1c0.6,0,1,0.4,1,1S-302.4,328-303,328z"/>
	<path class="st16" d="M-298,328h-1c-0.6,0-1-0.4-1-1s0.4-1,1-1h1c0.6,0,1,0.4,1,1S-297.4,328-298,328z"/>
	<path class="st16" d="M-359,226c-0.6,0-1-0.4-1-1v-1c0-0.6,0.4-1,1-1s1,0.4,1,1v1C-358,225.6-358.4,226-359,226z"/>
	<path class="st16" d="M-359,231c-0.6,0-1-0.4-1-1v-1c0-0.6,0.4-1,1-1s1,0.4,1,1v1C-358,230.6-358.4,231-359,231z"/>
	<path class="st16" d="M-361,228h-1c-0.6,0-1-0.4-1-1s0.4-1,1-1h1c0.6,0,1,0.4,1,1S-360.4,228-361,228z"/>
	<path class="st16" d="M-356,228h-1c-0.6,0-1-0.4-1-1s0.4-1,1-1h1c0.6,0,1,0.4,1,1S-355.4,228-356,228z"/>
	<path class="st21" d="M-337.8,344c-0.6,0-1-0.4-1-1v-4c0-0.6,0.4-1,1-1c0.6,0,1,0.4,1,1v4C-336.8,343.6-337.3,344-337.8,344z"/>
	<path class="st21" d="M-335.8,342h-4c-0.6,0-1-0.4-1-1s0.4-1,1-1h4c0.6,0,1,0.4,1,1S-335.3,342-335.8,342z"/>
	<path class="st21" d="M-399,333c-1.7,0-3-1.3-3-3c0-0.6,0.4-1,1-1s1,0.4,1,1s0.4,1,1,1s1-0.4,1-1s-0.4-1-1-1s-1-0.4-1-1s0.4-1,1-1
		c1.7,0,3,1.3,3,3S-397.3,333-399,333z"/>
</g>
</svg>
