<?xml version="1.0" encoding="windows-1252"?>
<!-- Generator: Adobe Illustrator 14.0.0, SVG Export Plug-In . SVG Version: 6.00 Build 43363)  -->
<!DOCTYPE svg PUBLIC "-//W3C//DTD SVG 1.1//EN" "http://www.w3.org/Graphics/SVG/1.1/DTD/svg11.dtd">
<svg version="1.1" id="Layer_3" xmlns="http://www.w3.org/2000/svg" xmlns:xlink="http://www.w3.org/1999/xlink" x="0px" y="0px" width="215.447px" height="95.396px" viewBox="0 0 215.447 95.396" style="enable-background:new 0 0 215.447 95.396;" xml:space="preserve">
<g>
	<g>
		<path style="fill:#BCE6FB;" d="M84.028,83.428c0,0-3.394-0.437-4.548-4.68s-4.83-9.783-9.423-9.123s-2.153-6.004-25.092,3.084    c0,0-8.774,3.99-3.295,9.985c0,0-0.777,1.165-5.618-0.093c0,0-2.219-1.392-5.339-0.046c0,0-1.077,5.451,2.748,9.285    c0,0,3.188-0.901,4.6-2.395c1.409-1.493,3.852-3.1,5.863-2.178c0,0-4.26-0.438-5.825,4.495c0,0,0.662,3.726,11.227,2.786    c0,0,3.843-0.501,6.064,0.022c0,0-4.896,0.755,3.512,0.601c0,0,7.934,0.923,9.416-0.991c0,0,7.757-1.42,11.688-6.675    c0,0,1.628-2.755,3.83-2.956C83.837,84.551,85.264,83.836,84.028,83.428z"/>
	</g>
	<g>
		<path style="fill:#8BBBBE;" d="M73.629,76.146c-3.175-0.599-6.406-0.81-9.636-0.796c-3.335,0.015-6.7,0.107-9.989,0.705    c-3.111,0.569-6.146,1.46-9.202,2.264c-1.673,0.439-3.32,0.479-4.961,0.32c0.125-3.674,5.092-5.936,5.092-5.936    c22.938-9.088,20.5-2.423,25.091-3.084c4.201-0.604,7.635,3.979,9.073,8.014C77.314,77.002,75.488,76.498,73.629,76.146z"/>
	</g>
	<g>
		<path style="fill:#8BBBBE;" d="M32.527,84.829c1.397,0.229,2.677,0.813,4.125,0.633c0.94-0.119,1.856-0.3,2.808-0.37    c0.882-0.064,1.765-0.104,2.647-0.145c1.989-0.097,3.948-0.084,5.932,0.134c3.224,0.356,6.408,1.008,9.648,1.222    c2.758,0.182,5.536,0.118,8.262-0.365c1.342-0.238,2.668-0.561,3.966-0.971c0.734-0.231,1.463-0.484,2.181-0.763    c0.686-0.268,1.293-0.11,1.946,0.206c1.973,0.953,3.356,2.803,4.57,4.63c-4.124,3.995-10.326,5.136-10.326,5.136    c-1.483,1.914-9.418,0.991-9.418,0.991c-8.406,0.154-3.511-0.601-3.511-0.601c-2.222-0.522-6.063-0.021-6.063-0.021    c-10.564,0.938-11.228-2.787-11.228-2.787c1.563-4.933,5.825-4.494,5.825-4.494c-2.011-0.923-4.453,0.685-5.863,2.177    c-1.411,1.494-4.599,2.395-4.599,2.395c-2.335-2.341-2.843-5.279-2.885-7.217C31.216,84.647,31.885,84.722,32.527,84.829z"/>
	</g>
	<g>
		<path style="fill:#59967C;" d="M55.391,94.572c-1.23-0.289-2.955-0.265-4.252-0.185c-0.403-0.775-1.118-1.431-1.847-1.961    c-1.711-1.249-3.683-2.104-5.373-3.382c-0.534-0.401-1.124-0.878-1.41-1.501l-0.063-0.142c0.324-0.074,0.614-0.112,0.849-0.131    l0.07,0.016c0.542,0.139,1.042,0.42,1.501,0.736c0.871,0.605,1.633,1.351,2.49,1.974c1.129,0.823,2.296,1.637,3.532,2.291    c1.331,0.703,2.775,1.252,4.282,1.417c1.581,0.173,3.164,0.024,4.748-0.042c1.261-0.052,2.523-0.153,3.783-0.199    c1.187-0.043,2.571-0.067,3.62,0.582c-3.516,0.869-7.287-0.079-10.685,1.147C51.488,95.176,55.391,94.572,55.391,94.572z"/>
	</g>
	<g>
		<path style="fill:#70A989;" d="M61.952,71.026c-1.04,0.204-2.099,0.279-3.148,0.424c-0.976,0.136-1.996,0.306-2.889,0.747    c-0.9,0.444-1.749,0.994-2.604,1.515c-1.747,1.063-3.503,1.941-5.526,2.291l-0.121-0.146c-1.633,0.806-3.562,0.564-5.3,0.306    c-0.485-0.072-0.979-0.158-1.473-0.239c1.487-2.035,4.075-3.214,4.075-3.214c22.938-9.088,20.499-2.424,25.092-3.084l0.268-0.03    c-1.541,0.231-3.084,0.465-4.621,0.727C64.448,70.536,63.202,70.778,61.952,71.026z"/>
	</g>
	<g>
		<path style="fill:#54A17F;" d="M30.714,82.556c2.879-1.242,4.991-0.153,5.297,0.022c-0.562-0.047-1.124-0.073-1.691-0.049    c-0.871,0.036-2.47,0.168-2.386,1.383l0.111,0.097c0.173-0.009,0.341-0.012,0.507-0.017c-0.44,0.2-0.854,0.438-1.194,0.821    l0.034,0.166c0.464,0.238,0.968,0.267,1.465,0.193c-0.441,0.221-0.854,0.486-1.171,0.89l0.088,0.175    c0.709,0.002,1.365-0.272,2.044-0.437c-0.493,0.292-0.999,0.577-1.308,1.08l0.075,0.148c0.642,0.1,1.302,0.066,1.956-0.026    c-0.579,0.277-1.136,0.594-1.648,0.978l0.014,0.184c0.455,0.212,0.92,0.204,1.382,0.099c-0.387,0.229-0.734,0.507-0.978,0.92    l0.074,0.151c0.381,0.094,0.759,0.053,1.118-0.069c-0.324,0.229-0.624,0.48-0.811,0.852l0.049,0.141    c0.673,0.38,1.34,0.041,1.958-0.479c-0.457,0.519-0.843,1.063-0.928,1.611c-0.752,0.293-1.31,0.452-1.31,0.452    C29.637,88.007,30.714,82.556,30.714,82.556z"/>
	</g>
	<g>
		<path style="fill:#4F8137;" d="M68.425,93.592c0.082-0.37,0.262-0.71,0.448-1.039c0.411-0.715,0.905-1.389,1.23-2.148    c0.235-0.552,0.623-1.602-0.147-1.954c-0.645-0.296-1.348,0.094-1.846,0.543c0.315-1.44,2.062-2.126,2.447-3.575    c0.29-1.082,0.302-2.238,0.289-3.352c-0.013-1.09,0.008-2.174,0.027-3.262c0.035-1.907-0.096-4.174,0.893-5.888    c0.586-1.015,1.479-1.669,2.467-2.195c2.562,1.751,4.474,5.179,5.247,8.026c1.154,4.243,4.548,4.68,4.548,4.68    c1.235,0.408-0.191,1.123-0.191,1.123c-2.202,0.201-3.83,2.956-3.83,2.956c-3.554,4.749-10.231,6.366-11.481,6.632    C68.42,94.005,68.375,93.829,68.425,93.592z"/>
	</g>
	<g>
		<path style="fill:#27501B;" d="M70.435,87.591c0.846,0.061,1.734,0.126,2.551-0.156c1.484-0.516,2.208-1.746,3.092-2.951    c0.422-0.574,0.879-1.199,1.5-1.571c0.312-0.185,0.663-0.322,1.031-0.319c0.479,0.003,0.874,0.276,1.259,0.534    c0.638,0.429,1.244,0.876,2.05,0.812c0.546-0.043,1.08-0.179,1.63-0.084c0.314,0.057,0.636,0.108,0.944,0.197    c-0.146,0.292-0.654,0.546-0.654,0.546c-2.202,0.201-3.829,2.958-3.829,2.958c-3.555,4.749-10.231,6.366-11.482,6.63    c-0.104-0.132-0.15-0.309-0.1-0.545c0.081-0.372,0.261-0.712,0.447-1.038c0.41-0.716,0.906-1.39,1.23-2.151    c0.235-0.551,0.623-1.6-0.147-1.952c-0.645-0.298-1.347,0.091-1.845,0.542c0.125-0.581,0.486-1.036,0.895-1.47    C69.473,87.542,69.946,87.556,70.435,87.591z"/>
	</g>
	<g>
		<path style="fill:#063000;" d="M80.909,84.829c0.494-0.622,1.232-0.856,2.009-0.809c0.375,0.022,0.748,0.063,1.116,0.131    l0.309,0.044c-0.205,0.203-0.506,0.355-0.506,0.355c-1.636,0.148-2.952,1.705-3.522,2.498    C80.29,86.23,80.436,85.431,80.909,84.829z"/>
	</g>
	<g>
		<path style="fill:#063000;" d="M69.238,93.738c0.556-0.725,1.165-1.416,1.821-2.052c0.333-0.319,0.637-0.628,1.088-0.774    c0.342-0.112,0.703-0.168,1.041-0.294c0.648-0.237,1.065-0.762,1.134-1.466c0.054-0.551-0.386-0.576-0.72-0.905    c-0.658-0.65-1.089-1.615-1.35-2.491c-0.548-1.833-0.515-3.979,0.819-5.446c-0.149,0.909-0.11,1.796,0.327,2.642    c0.251,0.487,0.559,0.941,0.859,1.401c0.344,0.528,0.554,1.088,0.771,1.677c0.342,0.939,0.812,2.115,1.886,2.404    c0.853,0.229,1.716,0.025,2.543-0.249c-3.287,3.802-8.546,5.379-10.434,5.84L69.238,93.738z"/>
	</g>
	<g>
		<path style="fill:#325C23;" d="M76.568,79.217c0.481-0.332,1-0.662,1.114-1.174c0.222-1.002-0.242-1.972-0.702-2.839    c-0.521-0.98-1.177-1.917-1.526-2.981c-0.072-0.217-0.124-0.434-0.165-0.651c2.027,1.872,3.528,4.737,4.191,7.177    c0.055,0.201,0.116,0.393,0.18,0.579C78.684,78.889,77.59,78.809,76.568,79.217z"/>
	</g>
	<g>
		<path style="fill:#9FCC3B;" d="M41.605,87.664c0.928,3.899,5.034,5.605,8.635,6.79c-0.557,0.05-0.914,0.096-0.914,0.096    C38.762,95.489,38.1,91.764,38.1,91.764C38.885,89.292,40.345,88.17,41.605,87.664z"/>
	</g>
	<g>
		<path style="fill:#F9ED32;" d="M40.913,87.909c0.086,0.144-0.219,0.437-0.323,0.523l0.04,0.191l0.306,0.013l-0.243,0.193    c-0.231,0.227-0.443,0.469-0.636,0.725l0.06,0.174l0.48,0.082c-0.325,0.154-0.63,0.345-0.957,0.502l0.044,0.206    c0.39-0.01,0.768,0.085,1.15,0.135c-0.429,0.201-0.83,0.443-1.188,0.762l0.069,0.191c0.745-0.074,1.495-0.365,2.236-0.188    c-0.747,0.399-1.638,0.48-2.361,0.962l0.039,0.193c0.718,0.092,1.483-0.154,2.186,0.005c-0.472,0.182-0.974,0.284-1.45,0.459    l0.019,0.205c1.147,0.253,2.271-0.299,3.407-0.174c-0.462,0.231-0.974,0.342-1.461,0.522l0.046,0.205    c1.136-0.025,2.322-0.259,3.44,0.014c-0.239,0.107-0.467,0.239-0.684,0.384l0.041,0.191c1.065,0.065,2.13,0.017,3.183,0.212    c-9.761,0.673-10.391-2.852-10.391-2.852C38.636,89.632,39.801,88.507,40.913,87.909z"/>
	</g>
	<g>
		<path style="fill:#9FCC3B;" d="M71.436,77.994c-0.153,1.494-0.121,2.99-0.224,4.488c-0.095,1.369-0.123,2.827-0.565,4.14    c-0.186,0.556-0.704,1.549-1.393,0.863c-0.692-0.694-0.626-2.023-0.709-2.929c-0.097-1.067-0.448-2.054-0.964-2.994    c-0.396-0.724-0.856-1.412-1.175-2.174c-0.275-0.659-0.531-1.331-0.851-1.971c-0.659-1.326-1.63-2.437-2.514-3.613    c-0.491-0.652-0.935-1.321-1.333-2.035c-0.218-0.387-0.441-0.823-0.778-1.126c-0.585-0.521-1.353-0.342-2.061-0.232    c-1.603,0.242-3.214,0.362-4.821,0.565l-0.091,0.089c-0.251,1.404-0.999,2.756-1.72,3.968c-0.999,1.678-2.172,3.269-3.531,4.675    c-1.801,1.86-4.642,4.023-7.162,3.101l0.126-0.114c-5.479-5.995,3.295-9.985,3.295-9.985c22.938-9.088,20.499-2.424,25.092-3.084    c1.639-0.235,3.161,0.32,4.492,1.324C72.346,72.34,71.69,75.529,71.436,77.994z"/>
	</g>
	<g>
		<path style="fill:#F9ED32;" d="M66.446,69.396c-0.979-0.1-1.944-0.292-2.912-0.469c-0.858-0.157-1.733-0.326-2.605-0.329    c-1.165-0.004-2.356,0.265-3.479,0.546c-1.249,0.311-2.474,0.695-3.704,1.062c-1.245,0.374-2.511,0.658-3.754,1.031    c-1.159,0.35-2.243,0.782-3.256,1.451c-0.96,0.638-1.896,1.287-3.071,1.427l-0.057,0.188c0.186,0.171,0.385,0.282,0.592,0.347    c-0.537,0.19-1.05,0.443-1.525,0.769l0.041,0.192c0.607,0.094,1.219,0.114,1.832,0.11c-0.765,0.34-1.577,0.567-2.347,0.899    l-0.009,0.197c0.658,0.21,1.315,0.267,1.984,0.226c-0.841,0.325-1.766,0.531-2.305,1.294l0.032,0.165    c0.397,0.203,0.808,0.339,1.237,0.409c-0.544,0.164-1.072,0.376-1.584,0.634l-0.031,0.182c0.534,0.538,1.251,0.599,1.962,0.535    c-0.334,0.196-0.648,0.427-1,0.598l0.046,0.207c0.497-0.014,0.978,0.115,1.473,0.143c-0.149,0.113-0.362,0.193-0.491,0.275    l-0.038,0.126c0.04,0.142,0.198,0.213,0.356,0.252c-0.699,0.443-1.475,0.764-2.277,0.95l-0.011-0.003l0.126-0.116    c-5.48-5.993,3.295-9.985,3.295-9.985c18.727-7.419,20.539-4.34,23.072-3.318C67.515,69.484,66.949,69.447,66.446,69.396z"/>
	</g>
	<g>
		<path style="fill:#72AB3C;" d="M69.487,85.639c-0.039-0.664-0.188-1.309-0.41-1.934c-0.444-1.243-1.095-2.448-1.109-3.795    c2.819,0.184,2.858-3.599,3.228-5.566c0.2-1.081,0.856-2.366,0.568-3.485c-0.137-0.528-0.506-0.94-0.95-1.284    c1.353,0.001,2.611,0.528,3.736,1.375c-2.204,1.391-2.859,4.581-3.114,7.045c-0.153,1.495-0.121,2.99-0.224,4.488    c-0.096,1.37-0.123,2.827-0.565,4.143c-0.186,0.551-0.702,1.536-1.384,0.868C69.387,86.881,69.525,86.253,69.487,85.639z"/>
	</g>
	<g>
		
			<ellipse transform="matrix(-0.9858 -0.1681 0.1681 -0.9858 141.5339 177.0182)" style="fill:#1D4412;" cx="78.261" cy="82.517" rx="2.349" ry="1.977"/>
	</g>
	<g>
		
			<ellipse transform="matrix(-0.9857 -0.1685 0.1685 -0.9857 140.9604 177.3979)" style="fill:#94B6C8;" cx="78.007" cy="82.718" rx="1.66" ry="1.543"/>
	</g>
	<g>
		<path style="fill:#698390;" d="M78,83.251c0.502,0.1,1.036,0.077,1.543-0.055c-0.237,0.713-0.979,1.164-1.762,1.031    c-0.861-0.147-1.442-0.949-1.3-1.786l0.104-0.345C76.806,82.673,77.271,83.107,78,83.251z"/>
	</g>
	<g>
		<circle style="fill:#002020;" cx="78.644" cy="82.827" r="1.014"/>
	</g>
	<g>
		<path style="fill:#BCE6FB;" d="M215.138,9.555c0,0-2.084-0.267-2.794-2.875c-0.709-2.606-2.97-6.012-5.791-5.604    c-2.822,0.404-1.324-3.692-15.42,1.892c0,0-5.393,2.454-2.025,6.139c0,0-0.478,0.719-3.453-0.058c0,0-1.364-0.854-3.28-0.028    c0,0-0.662,3.351,1.688,5.706c0,0,1.959-0.553,2.826-1.472c0.867-0.916,2.369-1.904,3.603-1.337c0,0-2.617-0.27-3.579,2.762    c0,0,0.407,2.29,6.899,1.712c0,0,2.362-0.307,3.728,0.014c0,0-3.009,0.464,2.158,0.369c0,0,4.876,0.567,5.787-0.61    c0,0,4.767-0.871,7.184-4.101c0,0,1-1.693,2.353-1.817C215.021,10.246,215.896,9.809,215.138,9.555z"/>
	</g>
	<g>
		<path style="fill:#8BBBBE;" d="M208.748,5.081c-1.952-0.367-3.938-0.497-5.921-0.488c-2.051,0.008-4.119,0.065-6.141,0.434    c-1.912,0.349-3.776,0.896-5.654,1.391c-1.028,0.27-2.04,0.293-3.05,0.197c0.076-2.259,3.129-3.649,3.129-3.649    c14.098-5.585,12.599-1.488,15.422-1.894c2.58-0.373,4.69,2.444,5.574,4.923C211.013,5.608,209.89,5.298,208.748,5.081z"/>
	</g>
	<g>
		<path style="fill:#8BBBBE;" d="M183.488,10.418c0.858,0.141,1.646,0.5,2.535,0.389c0.577-0.073,1.142-0.186,1.725-0.228    c0.543-0.038,1.085-0.062,1.628-0.088c1.222-0.061,2.426-0.052,3.645,0.083c1.981,0.218,3.938,0.618,5.931,0.749    c1.694,0.112,3.402,0.074,5.076-0.224c0.824-0.148,1.641-0.344,2.438-0.597c0.451-0.143,0.898-0.299,1.34-0.469    c0.42-0.165,0.795-0.067,1.196,0.127c1.212,0.586,2.063,1.723,2.809,2.843c-2.534,2.458-6.347,3.158-6.347,3.158    c-0.911,1.176-5.787,0.608-5.787,0.608c-5.166,0.097-2.157-0.369-2.157-0.369c-1.367-0.319-3.727-0.013-3.727-0.013    c-6.494,0.577-6.901-1.713-6.901-1.713c0.962-3.03,3.58-2.762,3.58-2.762c-1.234-0.566-2.736,0.421-3.603,1.337    c-0.867,0.918-2.827,1.472-2.827,1.472c-1.435-1.438-1.746-3.242-1.772-4.435C182.683,10.307,183.093,10.353,183.488,10.418z"/>
	</g>
	<g>
		<path style="fill:#59967C;" d="M197.539,16.405c-0.756-0.176-1.816-0.161-2.613-0.114c-0.247-0.475-0.687-0.878-1.134-1.205    c-1.052-0.767-2.265-1.291-3.304-2.077c-0.328-0.247-0.688-0.539-0.865-0.923l-0.039-0.088c0.199-0.044,0.376-0.067,0.521-0.077    l0.042,0.008c0.334,0.086,0.641,0.258,0.923,0.455c0.536,0.368,1.004,0.828,1.53,1.21c0.695,0.505,1.411,1.007,2.171,1.407    c0.817,0.434,1.707,0.771,2.633,0.872c0.971,0.105,1.944,0.016,2.916-0.025c0.775-0.033,1.552-0.095,2.327-0.124    c0.729-0.024,1.579-0.038,2.224,0.358c-2.16,0.534-4.479-0.049-6.566,0.705C195.141,16.775,197.539,16.405,197.539,16.405z"/>
	</g>
	<g>
		<path style="fill:#70A989;" d="M201.571,1.935c-0.639,0.126-1.289,0.173-1.935,0.261c-0.6,0.084-1.228,0.188-1.775,0.46    c-0.553,0.272-1.074,0.611-1.6,0.931c-1.075,0.654-2.153,1.192-3.397,1.409l-0.074-0.092c-1.003,0.496-2.189,0.348-3.257,0.188    c-0.299-0.043-0.601-0.098-0.905-0.146c0.913-1.253,2.505-1.978,2.505-1.978c14.096-5.584,12.598-1.487,15.42-1.892l0.166-0.022    c-0.949,0.144-1.896,0.286-2.841,0.449C203.106,1.635,202.339,1.783,201.571,1.935z"/>
	</g>
	<g>
		<path style="fill:#54A17F;" d="M182.374,9.021c1.77-0.763,3.067-0.094,3.256,0.014c-0.346-0.028-0.692-0.045-1.039-0.03    c-0.537,0.022-1.519,0.105-1.468,0.852l0.069,0.058l0.311-0.008c-0.271,0.121-0.524,0.269-0.734,0.504l0.022,0.102    c0.285,0.147,0.593,0.164,0.899,0.12c-0.271,0.133-0.522,0.297-0.719,0.546l0.053,0.106c0.437,0.001,0.839-0.167,1.257-0.268    c-0.305,0.178-0.613,0.354-0.803,0.663l0.046,0.092c0.393,0.061,0.801,0.04,1.201-0.015c-0.356,0.168-0.697,0.363-1.014,0.599    l0.009,0.114c0.28,0.13,0.566,0.124,0.85,0.06c-0.237,0.139-0.451,0.311-0.601,0.565l0.046,0.093    c0.232,0.059,0.466,0.034,0.686-0.043c-0.198,0.141-0.383,0.295-0.497,0.524l0.03,0.087c0.412,0.234,0.823,0.024,1.203-0.295    c-0.281,0.316-0.519,0.653-0.571,0.99c-0.46,0.181-0.804,0.276-0.804,0.276C181.712,12.371,182.374,9.021,182.374,9.021z"/>
	</g>
	<g>
		<path style="fill:#4F8137;" d="M205.551,15.804c0.049-0.229,0.159-0.438,0.274-0.639c0.251-0.44,0.557-0.854,0.755-1.32    c0.146-0.341,0.383-0.985-0.091-1.202c-0.395-0.18-0.827,0.059-1.134,0.334c0.194-0.885,1.268-1.305,1.505-2.196    c0.177-0.666,0.186-1.377,0.178-2.06c-0.008-0.671,0.004-1.336,0.017-2.005c0.021-1.173-0.06-2.563,0.548-3.618    c0.359-0.624,0.91-1.025,1.517-1.349c1.575,1.074,2.748,3.183,3.225,4.931c0.71,2.608,2.794,2.875,2.794,2.875    c0.759,0.254-0.117,0.691-0.117,0.691c-1.353,0.124-2.353,1.817-2.353,1.817c-2.185,2.918-6.288,3.911-7.057,4.076    C205.547,16.057,205.519,15.949,205.551,15.804z"/>
	</g>
	<g>
		<path style="fill:#27501B;" d="M206.785,12.116c0.52,0.037,1.064,0.076,1.566-0.097c0.912-0.316,1.358-1.073,1.901-1.814    c0.259-0.353,0.54-0.735,0.922-0.964c0.189-0.115,0.406-0.2,0.633-0.198c0.294,0.003,0.538,0.172,0.773,0.33    c0.392,0.262,0.765,0.537,1.26,0.499c0.336-0.025,0.665-0.11,1.002-0.053c0.194,0.034,0.39,0.067,0.58,0.121    c-0.089,0.18-0.402,0.336-0.402,0.336c-1.353,0.124-2.353,1.817-2.353,1.817c-2.185,2.92-6.288,3.912-7.057,4.076    c-0.063-0.083-0.093-0.19-0.061-0.336c0.049-0.229,0.159-0.438,0.275-0.639c0.251-0.439,0.555-0.853,0.755-1.322    c0.146-0.337,0.383-0.981-0.092-1.199c-0.395-0.183-0.826,0.057-1.134,0.335c0.079-0.358,0.301-0.64,0.552-0.906    C206.192,12.083,206.485,12.094,206.785,12.116z"/>
	</g>
	<g>
		<path style="fill:#063000;" d="M213.223,10.418c0.303-0.384,0.758-0.527,1.234-0.497c0.229,0.015,0.459,0.039,0.685,0.08    l0.191,0.027c-0.128,0.124-0.312,0.218-0.312,0.218c-1.004,0.093-1.813,1.048-2.163,1.535    C212.842,11.279,212.931,10.787,213.223,10.418z"/>
	</g>
	<g>
		<path style="fill:#063000;" d="M206.049,15.892c0.343-0.443,0.716-0.868,1.12-1.26c0.204-0.197,0.391-0.386,0.669-0.477    c0.21-0.067,0.431-0.104,0.64-0.178c0.397-0.148,0.655-0.471,0.697-0.903c0.032-0.337-0.238-0.354-0.443-0.556    c-0.405-0.399-0.668-0.994-0.829-1.531c-0.337-1.127-0.315-2.445,0.503-3.348c-0.091,0.561-0.068,1.104,0.2,1.624    c0.156,0.3,0.345,0.581,0.53,0.861c0.21,0.325,0.339,0.669,0.473,1.03c0.21,0.578,0.499,1.3,1.158,1.479    c0.523,0.141,1.055,0.014,1.563-0.152c-2.021,2.335-5.253,3.305-6.412,3.588L206.049,15.892z"/>
	</g>
	<g>
		<path style="fill:#325C23;" d="M210.555,6.967c0.296-0.203,0.615-0.404,0.684-0.719c0.137-0.616-0.148-1.212-0.431-1.745    c-0.32-0.604-0.724-1.177-0.938-1.833c-0.045-0.132-0.075-0.267-0.101-0.398c1.245,1.149,2.168,2.909,2.575,4.408l0.111,0.357    C211.854,6.769,211.181,6.716,210.555,6.967z"/>
	</g>
	<g>
		<path style="fill:#9FCC3B;" d="M189.067,12.16c0.569,2.396,3.094,3.445,5.305,4.172c-0.34,0.03-0.561,0.06-0.561,0.06    c-6.492,0.578-6.899-1.712-6.899-1.712C187.395,13.161,188.292,12.472,189.067,12.16z"/>
	</g>
	<g>
		<path style="fill:#F9ED32;" d="M188.641,12.312l-0.197,0.319l0.024,0.12l0.188,0.007l-0.148,0.118    c-0.142,0.14-0.271,0.289-0.392,0.448l0.037,0.105l0.294,0.05c-0.198,0.094-0.387,0.212-0.588,0.309l0.027,0.126    c0.238-0.005,0.472,0.053,0.707,0.083c-0.263,0.124-0.511,0.272-0.729,0.468l0.043,0.117c0.458-0.045,0.92-0.224,1.373-0.114    c-0.458,0.245-1.006,0.295-1.45,0.59l0.024,0.119c0.44,0.057,0.912-0.095,1.344,0.003c-0.292,0.111-0.6,0.177-0.891,0.282    l0.009,0.127c0.707,0.154,1.398-0.185,2.096-0.106c-0.284,0.143-0.6,0.21-0.898,0.32l0.028,0.126    c0.698-0.015,1.427-0.159,2.113,0.01c-0.146,0.066-0.286,0.146-0.419,0.235l0.025,0.117c0.655,0.039,1.31,0.011,1.956,0.13    c-6,0.416-6.386-1.752-6.386-1.752C187.242,13.369,187.958,12.68,188.641,12.312z"/>
	</g>
	<g>
		<path style="fill:#9FCC3B;" d="M207.399,6.216c-0.094,0.92-0.073,1.84-0.138,2.76c-0.058,0.841-0.075,1.736-0.348,2.544    c-0.113,0.341-0.434,0.952-0.854,0.53c-0.426-0.424-0.385-1.241-0.437-1.801c-0.061-0.655-0.275-1.26-0.593-1.84    c-0.242-0.443-0.526-0.866-0.721-1.335c-0.171-0.405-0.327-0.818-0.523-1.212c-0.405-0.815-1.001-1.498-1.545-2.22    c-0.303-0.399-0.574-0.812-0.819-1.25c-0.134-0.237-0.271-0.507-0.479-0.691c-0.358-0.319-0.83-0.211-1.266-0.144    c-0.985,0.148-1.976,0.224-2.964,0.347l-0.055,0.056c-0.155,0.862-0.614,1.692-1.058,2.438c-0.613,1.029-1.335,2.01-2.17,2.873    c-1.106,1.145-2.853,2.474-4.402,1.907l0.078-0.071c-3.367-3.685,2.025-6.139,2.025-6.139c14.096-5.584,12.598-1.487,15.42-1.892    c1.008-0.147,1.942,0.195,2.762,0.812C207.959,2.742,207.557,4.703,207.399,6.216z"/>
	</g>
	<g>
		<path style="fill:#F9ED32;" d="M204.334,0.936c-0.602-0.061-1.196-0.182-1.791-0.289c-0.526-0.097-1.064-0.203-1.601-0.204    c-0.717-0.001-1.448,0.162-2.138,0.337c-0.768,0.19-1.521,0.426-2.276,0.651c-0.766,0.23-1.545,0.405-2.308,0.634    c-0.713,0.215-1.378,0.48-2,0.893c-0.591,0.391-1.166,0.79-1.888,0.878l-0.035,0.113c0.113,0.107,0.236,0.175,0.364,0.215    c-0.331,0.115-0.646,0.271-0.939,0.471l0.025,0.118c0.374,0.06,0.75,0.072,1.128,0.069c-0.471,0.209-0.971,0.349-1.442,0.554    l-0.006,0.121c0.404,0.128,0.808,0.162,1.22,0.138c-0.518,0.198-1.086,0.327-1.418,0.796l0.021,0.101    c0.243,0.125,0.497,0.209,0.761,0.252c-0.336,0.099-0.66,0.231-0.975,0.388l-0.02,0.113c0.329,0.33,0.771,0.366,1.207,0.328    c-0.205,0.121-0.398,0.264-0.615,0.368l0.027,0.124c0.306-0.005,0.602,0.073,0.905,0.091l-0.301,0.17l-0.023,0.077l0.219,0.155    c-0.43,0.271-0.906,0.468-1.4,0.584l-0.007-0.003l0.077-0.071c-3.366-3.685,2.026-6.136,2.026-6.136    c11.508-4.561,12.623-2.669,14.18-2.039C204.989,0.987,204.643,0.966,204.334,0.936z"/>
	</g>
	<g>
		<path style="fill:#72AB3C;" d="M206.202,10.916c-0.023-0.409-0.114-0.805-0.251-1.188c-0.273-0.766-0.674-1.506-0.683-2.332    c1.731,0.111,1.756-2.215,1.982-3.424c0.125-0.663,0.527-1.452,0.351-2.14c-0.083-0.325-0.311-0.578-0.585-0.79    c0.831,0,1.605,0.325,2.298,0.846c-1.355,0.854-1.758,2.814-1.915,4.327c-0.094,0.92-0.073,1.84-0.138,2.76    c-0.058,0.841-0.075,1.736-0.348,2.546c-0.113,0.339-0.431,0.944-0.85,0.534C206.141,11.679,206.226,11.291,206.202,10.916z"/>
	</g>
	<g>
		
			<ellipse transform="matrix(-0.9857 -0.1687 0.1687 -0.9857 418.6401 53.5565)" style="fill:#1D4412;" cx="211.595" cy="8.998" rx="1.445" ry="1.214"/>
	</g>
	<g>
		
			<ellipse transform="matrix(-0.9858 -0.168 0.168 -0.9858 418.341 53.6264)" style="fill:#94B6C8;" cx="211.438" cy="9.121" rx="1.02" ry="0.948"/>
	</g>
	<g>
		<path style="fill:#698390;" d="M211.435,9.447c0.309,0.061,0.637,0.047,0.947-0.032c-0.146,0.438-0.603,0.716-1.083,0.633    c-0.529-0.091-0.887-0.582-0.798-1.099l0.063-0.209C210.699,9.093,210.986,9.359,211.435,9.447z"/>
	</g>
	<g>
		<circle style="fill:#002020;" cx="211.83" cy="9.187" r="0.624"/>
	</g>
	<g>
		<path style="fill:#BCE6FB;" d="M32.871,47.406c0,0-2.086-0.268-2.796-2.877c-0.709-2.606-2.97-6.013-5.791-5.605    c-2.822,0.405-1.324-3.689-15.42,1.895c0,0-5.394,2.453-2.024,6.138c0,0-0.479,0.717-3.454-0.058c0,0-1.365-0.855-3.281-0.026    c0,0-0.662,3.349,1.689,5.703c0,0,1.959-0.552,2.825-1.471c0.868-0.917,2.369-1.905,3.604-1.338c0,0-2.617-0.268-3.58,2.764    c0,0,0.41,2.289,6.902,1.711c0,0,2.361-0.306,3.726,0.014c0,0-3.01,0.463,2.158,0.369c0,0,4.876,0.567,5.786-0.608    c0,0,4.768-0.873,7.184-4.101c0,0,0.999-1.695,2.354-1.817C32.753,48.098,33.628,47.657,32.871,47.406z"/>
	</g>
	<g>
		<path style="fill:#8BBBBE;" d="M26.479,42.931c-1.951-0.367-3.937-0.497-5.92-0.487c-2.052,0.009-4.119,0.063-6.141,0.433    c-1.912,0.349-3.777,0.896-5.655,1.391c-1.028,0.27-2.041,0.295-3.05,0.198c0.077-2.261,3.13-3.65,3.13-3.65    c14.097-5.583,12.599-1.488,15.422-1.894c2.58-0.371,4.69,2.444,5.574,4.923C28.744,43.457,27.62,43.148,26.479,42.931z"/>
	</g>
	<g>
		<path style="fill:#8BBBBE;" d="M1.22,48.267c0.859,0.144,1.645,0.503,2.534,0.39c0.578-0.073,1.143-0.185,1.726-0.227    c0.541-0.04,1.084-0.062,1.628-0.089c1.223-0.059,2.426-0.052,3.645,0.081c1.981,0.221,3.938,0.62,5.93,0.752    c1.695,0.112,3.403,0.072,5.077-0.226c0.824-0.147,1.64-0.343,2.438-0.595c0.451-0.144,0.899-0.3,1.34-0.47    c0.423-0.164,0.796-0.067,1.197,0.125c1.211,0.587,2.063,1.725,2.809,2.846c-2.534,2.457-6.347,3.157-6.347,3.157    c-0.911,1.177-5.787,0.609-5.787,0.609c-5.166,0.094-2.158-0.369-2.158-0.369c-1.366-0.322-3.726-0.015-3.726-0.015    c-6.494,0.578-6.901-1.712-6.901-1.712c0.962-3.03,3.58-2.762,3.58-2.762c-1.234-0.567-2.736,0.421-3.603,1.338    c-0.868,0.917-2.827,1.471-2.827,1.471C0.34,51.135,0.026,49.328,0,48.139C0.414,48.155,0.823,48.202,1.22,48.267z"/>
	</g>
	<g>
		<path style="fill:#59967C;" d="M15.271,54.255c-0.757-0.178-1.817-0.162-2.614-0.112c-0.246-0.477-0.687-0.879-1.134-1.207    c-1.052-0.765-2.265-1.291-3.302-2.076c-0.329-0.248-0.689-0.54-0.866-0.923l-0.04-0.088c0.198-0.045,0.377-0.068,0.522-0.08    l0.043,0.009c0.333,0.087,0.639,0.259,0.922,0.454c0.535,0.372,1.004,0.829,1.53,1.212c0.695,0.504,1.411,1.005,2.171,1.407    c0.817,0.434,1.707,0.77,2.632,0.87c0.971,0.107,1.945,0.017,2.917-0.023c0.775-0.031,1.55-0.095,2.327-0.122    c0.729-0.026,1.579-0.042,2.222,0.354c-2.159,0.536-4.476-0.046-6.564,0.708C12.871,54.626,15.271,54.255,15.271,54.255z"/>
	</g>
	<g>
		<path style="fill:#70A989;" d="M19.303,39.786c-0.641,0.124-1.29,0.171-1.935,0.259c-0.6,0.084-1.228,0.188-1.776,0.46    c-0.552,0.272-1.073,0.611-1.599,0.931c-1.076,0.652-2.154,1.192-3.398,1.407l-0.073-0.088c-1.004,0.494-2.189,0.344-3.257,0.186    c-0.299-0.044-0.602-0.098-0.905-0.146c0.913-1.252,2.505-1.977,2.505-1.977c14.096-5.584,12.598-1.489,15.42-1.895l0.165-0.019    c-0.948,0.142-1.896,0.286-2.841,0.447C20.836,39.483,20.07,39.633,19.303,39.786z"/>
	</g>
	<g>
		<path style="fill:#54A17F;" d="M0.104,46.872c1.771-0.765,3.066-0.097,3.256,0.013c-0.346-0.029-0.691-0.046-1.041-0.03    c-0.534,0.021-1.517,0.104-1.465,0.851l0.069,0.06l0.311-0.012c-0.271,0.124-0.525,0.271-0.734,0.506l0.022,0.102    c0.285,0.147,0.593,0.162,0.899,0.12c-0.271,0.135-0.524,0.297-0.72,0.545l0.054,0.107c0.437,0.003,0.839-0.168,1.257-0.267    c-0.305,0.177-0.613,0.354-0.804,0.662l0.046,0.092c0.394,0.061,0.801,0.04,1.201-0.017c-0.355,0.168-0.696,0.365-1.014,0.601    l0.009,0.114c0.281,0.128,0.567,0.125,0.851,0.06c-0.239,0.141-0.452,0.311-0.601,0.567l0.045,0.091    c0.233,0.058,0.467,0.033,0.687-0.042c-0.198,0.14-0.383,0.295-0.497,0.523l0.029,0.086c0.415,0.233,0.823,0.025,1.203-0.295    c-0.281,0.319-0.517,0.655-0.57,0.991c-0.462,0.179-0.804,0.275-0.804,0.275C-0.558,50.221,0.104,46.872,0.104,46.872z"/>
	</g>
	<g>
		<path style="fill:#4F8137;" d="M23.281,53.653c0.05-0.228,0.159-0.437,0.275-0.639c0.251-0.439,0.555-0.854,0.755-1.32    c0.146-0.339,0.383-0.983-0.091-1.202c-0.396-0.181-0.827,0.059-1.135,0.334c0.195-0.884,1.269-1.307,1.506-2.196    c0.177-0.667,0.185-1.375,0.176-2.061c-0.006-0.67,0.006-1.335,0.019-2.005c0.021-1.171-0.06-2.562,0.548-3.617    c0.359-0.624,0.91-1.026,1.516-1.349c1.575,1.074,2.749,3.181,3.226,4.931c0.71,2.609,2.796,2.877,2.796,2.877    c0.757,0.251-0.118,0.691-0.118,0.691c-1.355,0.122-2.354,1.817-2.354,1.817c-2.185,2.916-6.288,3.91-7.056,4.074    C23.278,53.908,23.249,53.798,23.281,53.653z"/>
	</g>
	<g>
		<path style="fill:#27501B;" d="M24.516,49.968c0.519,0.035,1.065,0.074,1.569-0.1c0.91-0.316,1.355-1.072,1.898-1.812    c0.259-0.354,0.541-0.737,0.921-0.966c0.193-0.114,0.408-0.198,0.635-0.197c0.294,0.003,0.537,0.172,0.773,0.329    c0.391,0.262,0.766,0.538,1.26,0.498c0.335-0.024,0.664-0.109,1.002-0.051c0.194,0.034,0.39,0.067,0.58,0.123    c-0.091,0.178-0.402,0.333-0.402,0.333c-1.353,0.124-2.353,1.819-2.353,1.819c-2.185,2.917-6.288,3.911-7.057,4.075    c-0.065-0.081-0.094-0.189-0.061-0.336c0.049-0.229,0.159-0.438,0.274-0.639c0.251-0.439,0.557-0.853,0.757-1.32    c0.145-0.341,0.383-0.983-0.093-1.201c-0.396-0.182-0.827,0.057-1.134,0.333c0.077-0.354,0.3-0.637,0.552-0.904    C23.924,49.935,24.217,49.944,24.516,49.968z"/>
	</g>
	<g>
		<path style="fill:#063000;" d="M30.953,48.269c0.305-0.383,0.757-0.527,1.234-0.497c0.23,0.014,0.46,0.039,0.686,0.078l0.19,0.029    c-0.127,0.123-0.311,0.219-0.311,0.219c-1.005,0.091-1.814,1.046-2.166,1.533C30.572,49.13,30.661,48.637,30.953,48.269z"/>
	</g>
	<g>
		<path style="fill:#063000;" d="M23.78,53.743c0.343-0.446,0.717-0.87,1.12-1.262c0.204-0.195,0.39-0.386,0.668-0.477    c0.211-0.068,0.432-0.103,0.641-0.179c0.398-0.147,0.655-0.468,0.696-0.9c0.033-0.34-0.238-0.355-0.442-0.558    c-0.405-0.399-0.669-0.993-0.829-1.53c-0.338-1.126-0.316-2.445,0.503-3.349c-0.092,0.561-0.068,1.104,0.2,1.625    c0.155,0.3,0.344,0.578,0.529,0.862c0.211,0.324,0.34,0.668,0.472,1.029c0.213,0.577,0.5,1.3,1.16,1.478    c0.523,0.142,1.055,0.014,1.563-0.152c-2.021,2.335-5.253,3.305-6.412,3.588L23.78,53.743z"/>
	</g>
	<g>
		<path style="fill:#325C23;" d="M28.285,44.817c0.298-0.204,0.614-0.406,0.685-0.719c0.138-0.617-0.149-1.215-0.431-1.746    c-0.32-0.604-0.725-1.179-0.938-1.832c-0.043-0.134-0.076-0.268-0.102-0.401c1.247,1.151,2.168,2.911,2.576,4.41l0.111,0.357    C29.586,44.616,28.912,44.566,28.285,44.817z"/>
	</g>
	<g>
		<path style="fill:#9FCC3B;" d="M6.798,50.012c0.572,2.396,3.095,3.442,5.306,4.172c-0.342,0.03-0.559,0.058-0.559,0.058    c-6.492,0.578-6.902-1.711-6.902-1.711C5.126,51.011,6.023,50.319,6.798,50.012z"/>
	</g>
	<g>
		<path style="fill:#F9ED32;" d="M6.371,50.161l-0.196,0.321L6.2,50.601l0.186,0.009l-0.148,0.118    c-0.142,0.138-0.272,0.286-0.391,0.444l0.036,0.107l0.295,0.051c-0.199,0.094-0.387,0.211-0.588,0.306l0.027,0.13    c0.24-0.006,0.472,0.053,0.707,0.083c-0.264,0.123-0.511,0.271-0.73,0.467l0.044,0.116c0.457-0.044,0.919-0.223,1.373-0.112    c-0.458,0.243-1.006,0.295-1.45,0.589l0.024,0.119c0.44,0.056,0.911-0.096,1.343,0.002c-0.29,0.113-0.599,0.177-0.891,0.284    l0.011,0.127c0.706,0.153,1.396-0.187,2.095-0.107c-0.285,0.142-0.6,0.209-0.898,0.319l0.026,0.126    c0.7-0.015,1.429-0.159,2.115,0.009C9.24,53.854,9.1,53.933,8.967,54.023l0.025,0.116c0.655,0.04,1.309,0.013,1.955,0.131    c-5.997,0.414-6.386-1.753-6.386-1.753C4.974,51.221,5.688,50.527,6.371,50.161z"/>
	</g>
	<g>
		<path style="fill:#9FCC3B;" d="M25.131,44.065c-0.094,0.92-0.073,1.84-0.139,2.76c-0.059,0.843-0.074,1.737-0.345,2.545    c-0.116,0.341-0.435,0.952-0.856,0.531c-0.426-0.427-0.386-1.243-0.436-1.801c-0.062-0.656-0.276-1.262-0.594-1.84    c-0.244-0.445-0.527-0.868-0.722-1.336c-0.17-0.404-0.327-0.819-0.522-1.213c-0.406-0.813-1.001-1.497-1.545-2.22    c-0.301-0.4-0.574-0.812-0.818-1.25c-0.135-0.238-0.272-0.506-0.479-0.69c-0.359-0.322-0.831-0.212-1.267-0.145    c-0.983,0.147-1.975,0.222-2.963,0.348l-0.056,0.054c-0.154,0.863-0.613,1.693-1.058,2.439c-0.613,1.03-1.334,2.011-2.168,2.872    c-1.108,1.145-2.854,2.474-4.403,1.907l0.079-0.071c-3.369-3.685,2.024-6.138,2.024-6.138c14.096-5.584,12.598-1.489,15.42-1.895    c1.007-0.146,1.943,0.198,2.761,0.814C25.69,40.592,25.287,42.553,25.131,44.065z"/>
	</g>
	<g>
		<path style="fill:#F9ED32;" d="M22.066,38.783c-0.603-0.061-1.197-0.18-1.79-0.287c-0.529-0.095-1.065-0.201-1.604-0.204    c-0.716-0.001-1.448,0.164-2.137,0.336c-0.768,0.191-1.521,0.429-2.278,0.654c-0.764,0.229-1.543,0.402-2.306,0.634    c-0.713,0.213-1.378,0.479-2.001,0.892c-0.591,0.392-1.165,0.791-1.887,0.876l-0.035,0.115c0.113,0.106,0.235,0.174,0.364,0.215    c-0.33,0.113-0.646,0.271-0.939,0.472l0.025,0.118c0.373,0.057,0.749,0.071,1.127,0.066c-0.47,0.209-0.971,0.35-1.442,0.555    l-0.005,0.119c0.404,0.13,0.808,0.164,1.219,0.14c-0.517,0.199-1.085,0.326-1.418,0.796l0.022,0.101    c0.243,0.124,0.496,0.209,0.759,0.252c-0.334,0.101-0.658,0.231-0.974,0.39l-0.019,0.111c0.329,0.332,0.77,0.367,1.207,0.329    c-0.206,0.121-0.399,0.262-0.615,0.366l0.027,0.127c0.306-0.009,0.603,0.071,0.905,0.088l-0.302,0.171l-0.022,0.077l0.219,0.154    c-0.43,0.272-0.906,0.468-1.4,0.584l-0.007-0.002l0.079-0.071c-3.369-3.684,2.024-6.136,2.024-6.136    c11.509-4.561,12.623-2.667,14.179-2.039C22.721,38.839,22.374,38.814,22.066,38.783z"/>
	</g>
	<g>
		<path style="fill:#72AB3C;" d="M23.935,48.764c-0.025-0.407-0.116-0.801-0.253-1.187c-0.273-0.763-0.673-1.504-0.683-2.333    c1.732,0.113,1.757-2.211,1.983-3.422c0.124-0.662,0.527-1.452,0.351-2.141c-0.084-0.322-0.312-0.577-0.586-0.789    c0.833,0.001,1.606,0.325,2.298,0.846c-1.354,0.854-1.758,2.814-1.914,4.327c-0.094,0.92-0.073,1.84-0.139,2.76    c-0.059,0.843-0.074,1.737-0.345,2.545c-0.116,0.34-0.432,0.947-0.853,0.535C23.872,49.529,23.956,49.142,23.935,48.764z"/>
	</g>
	<g>
		
			<ellipse transform="matrix(-0.9857 -0.1683 0.1683 -0.9857 50.3473 97.9636)" style="fill:#1D4412;" cx="29.326" cy="46.848" rx="1.444" ry="1.214"/>
	</g>
	<g>
		
			<ellipse transform="matrix(-0.9858 -0.168 0.168 -0.9858 50.0359 98.1727)" style="fill:#94B6C8;" cx="29.17" cy="46.97" rx="1.02" ry="0.95"/>
	</g>
	<g>
		<path style="fill:#698390;" d="M29.165,47.299c0.309,0.06,0.638,0.047,0.948-0.033c-0.146,0.437-0.601,0.715-1.083,0.632    c-0.529-0.089-0.887-0.582-0.799-1.099l0.064-0.209C28.43,46.942,28.718,47.211,29.165,47.299z"/>
	</g>
	<g>
		<circle style="fill:#002020;" cx="29.561" cy="47.037" r="0.624"/>
	</g>
</g>
</svg>