<?xml version="1.0" encoding="UTF-8"?>
<svg xmlns="http://www.w3.org/2000/svg" xmlns:xlink="http://www.w3.org/1999/xlink" width="832px" height="900px" viewBox="0 0 832 900">
  <!-- Generator: Sketch 51.2 (57519) - http://www.bohemiancoding.com/sketch -->
  <title>Illustration guy with rainbow megaphone</title>
  <desc>Created with Sketch.</desc>
  <defs></defs>
  <g id="Illustration-guy-with-rainbow-megaphone" stroke="none" stroke-width="1" fill="none" fill-rule="evenodd">
    <g id="Shout-it-out-loud-0.2-AM" transform="translate(0.000000, 45.000000)">
      <polyline id="Fill-1" fill="#238647" points="619.523656 36.5532824 647.864527 107.195827 197.392221 340.962646 195.70394 336.756743 619.523656 36.5532824"></polyline>
      <polyline id="Fill-3" fill="#2F9B47" points="690.395537 16.6310433 699.813305 40.0983206 197.392221 340.962646 196.548081 338.857506 690.395537 16.6310433"></polyline>
      <polyline id="Fill-4" fill="#62B64F" points="662.790223 62.2701272 691.122338 132.886412 199.080939 345.172926 197.392221 340.962646 662.790223 62.2701272"></polyline>
      <polyline id="Fill-5" fill="#89CC53" points="685.461169 76.6297201 713.797662 147.250382 199.924642 347.27369 198.236361 343.067786 685.461169 76.6297201"></polyline>
      <polyline id="Fill-6" fill="#3DB8AD" points="756.4644 68.3448346 766.538916 93.4533333 199.924642 347.27369 199.080502 345.172926 756.4644 68.3448346"></polyline>
      <polyline id="Fill-7" fill="#3394D7" points="713.797662 117.078168 723.084081 139.985242 201.61336 351.483969 199.924642 347.27369 713.797662 117.078168"></polyline>
      <polyline id="Fill-8" fill="#2872BC" points="742.655175 132.116132 770.98729 202.736794 202.457501 353.589109 200.76922 349.37883 742.655175 132.116132"></polyline>
      <polyline id="Fill-9" fill="#1D5C84" points="787.042593 143.486514 797.103974 168.568753 202.457501 353.589109 201.612922 351.483969 787.042593 143.486514"></polyline>
      <polyline id="Fill-10" fill="#993233" points="783.846419 172.695878 793.448077 197.344835 203.301641 355.689873 202.457501 353.589109 783.846419 172.695878"></polyline>
      <polyline id="Fill-11" fill="#E13030" points="203.301641 355.689873 765.256068 204.894453 773.679957 228.637455 204.145343 357.795013"></polyline>
      <polyline id="Fill-12" fill="#F28825" points="813.899214 219.516641 823.649734 244.533232 204.989921 359.900153 204.145343 357.795013 813.899214 219.516641"></polyline>
      <polyline id="Fill-13" fill="#F5C836" points="748.618448 258.21883 757.63779 280.692621 205.833624 362.000916 204.989921 359.900153 748.618448 258.21883"></polyline>
      <path d="M172.978266,348.254046 L344.310721,230.444987 C344.310721,230.444987 339.587826,244.480712 337.130712,256.174962 C334.673598,267.864835 332.679273,285.791349 332.679273,285.791349 C332.679273,285.791349 344.42806,315.263308 373.397658,338.161628 C355.054682,341.991145 179.665275,367.909313 179.665275,367.909313 C179.665275,367.909313 174.685811,368.290076 171.91302,359.536896 C169.14023,350.783715 172.978266,348.254046 172.978266,348.254046" id="Fill-14" fill="#FFFFFF"></path>
      <path d="M333.500208,287.677659 C333.500208,287.677659 332.275154,304.243053 332.606593,316.208651 C332.937594,328.169873 334.583405,344.55145 334.583405,344.55145 L333.405637,344.735267 C333.405637,344.735267 332.314559,331.014656 331.803609,316.64631 C331.293097,302.273588 332.679273,285.791349 332.679273,285.791349 L333.500208,287.677659" id="Fill-15" fill="#3E004C"></path>
      <path d="M96.0310266,685.374046 C96.0310266,685.374046 74.577254,654.737913 71.2935133,634.605598 C68.0097726,614.473282 56.6261382,590.839695 46.1181679,572.458015 C35.6101977,554.076336 15.1227205,514.687023 10.0425547,488.427481 C4.96195112,462.167939 0,448.16285 0,440.284987 C0,432.407125 2.33495855,388.641221 2.33495855,388.641221 L15.4699214,383.389313 L66.3670266,386.452926 C66.3670266,386.452926 69.761101,403.959288 71.2935133,408.773537 C72.8259256,413.587786 83.3124421,428.65201 86.9819129,432.822901 C90.6518215,436.989415 114.857807,442.096896 114.857807,442.096896 L137.625075,445.536896 L137.625075,432.223308 C137.625075,432.223308 142.742457,428.494453 147.120778,429.369771 C147.719732,429.487939 150.914155,430.507684 151.891396,430.765903 C158.054321,432.389618 169.70153,434.971807 174.719524,434.59542 C180.532621,434.157761 196.618134,445.974555 201.710121,452.101781 C206.802546,458.229008 221.70854,466.10687 221.70854,466.10687 L215.962869,525.628499 C215.962869,525.628499 226.048332,568.956743 230.216931,575.083969 C234.385968,581.211196 239.501598,615.348601 244.47143,634.605598 C249.4417,653.862595 249.4417,675.745547 249.4417,675.745547 C249.4417,675.745547 180.727456,695.002545 174.719524,695.877863 C168.711154,696.753181 96.0310266,685.374046 96.0310266,685.374046" id="Fill-16" fill="#FFFFFF"></path>
      <path d="M59.6585632,860 C59.6585632,860 68.4476047,814.045802 71.2935133,800.916031 C74.1394219,787.78626 66.6962763,779.033079 71.2935133,769.40458 C75.8907503,759.776081 96.0310266,685.374046 96.0310266,685.374046 C96.0310266,685.374046 117.922631,678.371501 123.614448,678.371501 C129.306266,678.371501 174.199379,679.246819 181.087792,678.371501 C187.975766,677.496183 228.37935,673.119593 234.009433,672.244275 C239.639953,671.368957 249.4417,675.745547 249.4417,675.745547 L263.560034,726.513995 C263.560034,726.513995 272.165624,737.017812 272.97824,738.768448 C273.790857,740.519084 341.653955,800.916031 369.456731,826.300254 C397.259507,851.684478 404.26482,860 404.26482,860 L258.724179,860 L201.710121,826.300254 L192.391741,860 L59.6585632,860" id="Fill-17" fill="#3E004C"></path>
      <path d="M153.862954,662.642036 C153.862954,662.642036 128.25109,567.455573 113.803507,524.127328 C99.3559235,480.803461 71.2935133,408.773537 71.2935133,408.773537 C71.2935133,408.773537 74.6512476,412.502392 77.0584485,414.3143 C77.93061,414.970789 81.5948268,417.609873 84.355796,422.629822 C86.0020446,425.62341 87.9613433,432.625954 89.5322848,436.31542 C92.5979851,443.506158 95.0380234,447.694555 96.7608927,452.246209 C100.84718,463.043257 123.030818,524.459949 132.079494,549.699746 C141.127732,574.935165 164.916901,662.642036 164.916901,662.642036 L153.862954,662.642036" id="Fill-18" fill="#3E004C"></path>
      <path d="M235.332561,656.48855 C235.332561,656.48855 210.028931,565.941272 201.710121,539.655471 C193.391311,513.374046 171.630181,464.356234 164.916901,453.414758 C160.363885,445.992061 157.369114,438.429313 155.028901,434.192774 C153.918559,432.183919 151.891396,430.765903 151.891396,430.765903 L159.006168,432.223308 C159.006168,432.223308 162.751384,433.803257 164.916901,437.365802 C173.610057,451.672875 196.541513,493.289873 213.199711,547.949109 C225.312774,587.692926 242.266946,656.48855 242.266946,656.48855 L235.332561,656.48855" id="Fill-19" fill="#3E004C"></path>
      <path d="M117.563171,227.945954 C117.544782,227.945954 117.527269,227.950331 117.50888,227.954707 C116.918244,227.608957 116.338117,227.2457 115.771562,226.86056 C116.37796,227.140662 116.97779,227.512672 117.563171,227.945954 Z M123.295269,240.121628 C123.116196,239.964071 122.931868,239.810891 122.741411,239.666463 C122.883269,239.662087 123.027316,239.65771 123.170487,239.648957 C123.216021,239.806514 123.258053,239.964071 123.295269,240.121628 Z M134.854036,246.161323 C134.844842,246.047532 134.838274,245.93374 134.825139,245.819949 C135.157892,245.631756 135.453428,245.356031 135.675409,244.988397 C135.773046,244.83084 135.858861,244.660153 135.934606,244.489466 C135.943362,244.502595 135.952119,244.515725 135.961313,244.528855 C135.652204,245.119695 135.265598,245.649262 134.854036,246.161323 Z M167.668676,296.864122 C166.056578,296.855369 164.634937,295.419847 163.773284,294.13313 C163.391494,293.564173 163.130546,292.99084 162.947532,292.395623 C163.106028,292.4 163.265399,292.4 163.426959,292.391247 C165.540374,292.246819 166.076281,291.095776 166.900281,289.485191 C167.169109,288.955623 166.528561,288.447939 166.083724,288.854962 C165.287745,289.577099 163.487379,288.868092 162.464604,288.128448 C162.430891,286.758575 162.435707,285.362443 162.391923,283.970687 C164.127928,283.174148 165.734334,282.08 167.064905,280.767023 C169.689271,278.184835 169.934895,275.510738 170.568,272.079491 C170.631048,271.738117 170.147243,271.471145 169.967732,271.825649 C168.87359,273.992061 166.137577,275.659542 164.110414,276.941883 C163.30743,277.449567 162.489998,277.874097 161.648485,278.206718 C161.607328,278.057913 161.567486,277.913486 161.521951,277.764682 C161.482546,277.637761 161.438763,277.51084 161.395418,277.383919 C165.379252,274.714198 167.77682,269.948092 166.613938,265.076947 C166.473832,264.490483 165.684421,264.573639 165.505785,265.076947 C164.476004,267.978626 162.471609,270.814656 159.78945,272.473384 C159.75705,270.928448 159.273683,269.427277 158.465007,268.118677 C159.146274,267.195216 159.724213,266.197354 160.179996,265.160102 C161.350321,262.490382 162.652434,259.698117 161.827558,256.800814 C161.7343,256.47257 161.325802,256.28 161.023698,256.476947 C160.471592,256.827074 160.022376,257.21659 159.631392,257.64112 C159.679991,257.295369 159.72071,256.962748 159.751796,256.643257 C159.940939,254.704427 159.890151,252.739338 159.633581,250.800509 C159.651532,250.796132 159.66817,250.787379 159.686121,250.783003 C160.921683,250.476641 163.180897,250.485394 164.067945,251.474504 C164.314006,251.750229 164.743957,251.456997 164.662521,251.128753 C164.076264,248.774148 163.264961,247.054148 160.711962,246.362646 C159.996106,246.1657 159.28638,246.082545 158.591979,246.091298 C158.482083,245.736794 158.371749,245.38229 158.248718,245.032163 C157.586278,243.145852 156.802121,241.263919 155.770151,239.548295 C155.281092,238.734249 154.752629,237.854555 154.112081,237.1543 C153.849382,236.869822 153.535018,236.637863 153.211898,236.414656 C153.163736,236.313995 153.121267,236.208957 153.071354,236.108295 C152.321348,234.589618 151.373441,232.992163 150.193921,231.762341 C148.932965,230.449364 147.346699,230.125496 145.930312,229.11888 C145.442567,228.77313 144.887834,229.53028 145.300272,229.937303 C146.249054,230.869517 146.789339,232.733944 147.426823,233.898117 C148.117284,235.158575 148.81475,236.331501 149.277977,237.705751 C150.140068,240.266056 150.461437,243.080204 149.897947,245.736794 C149.110287,244.913995 148.238125,244.222494 147.221041,243.653537 C147.008255,243.535369 146.791528,243.417201 146.572612,243.299033 C146.209649,241.478372 145.559906,239.718982 144.645275,238.108397 C143.927668,236.847939 142.995086,235.788804 141.890874,234.847837 C140.800672,233.915623 139.572115,233.491094 138.386465,232.733944 C138.196446,232.611399 137.995919,232.637659 137.840051,232.742697 C137.447316,232.340051 137.030062,231.963664 136.600548,231.600407 C136.517798,229.14514 137.034002,226.339746 138.379898,224.57598 C138.688132,224.173333 138.178495,223.591247 137.731031,223.735674 C136.218759,224.221476 135.060693,224.597863 133.948599,225.814555 C133.213041,226.615471 132.712599,227.643969 132.359269,228.703104 C131.391222,228.243562 130.382019,227.945954 129.370627,227.954707 C129.323341,227.954707 129.277807,227.963461 129.234461,227.97659 C128.825088,227.622087 128.404769,227.285089 127.970878,226.965598 C127.684098,226.160305 127.599158,225.284987 127.819388,224.330891 C128.070266,223.245496 130.09699,220.978422 129.09742,219.928041 C127.2756,218.015471 124.448519,220.654555 123.680999,222.300153 C123.383711,222.939135 123.178368,223.595623 123.055337,224.260865 C119.784731,222.926005 116.610448,221.451094 115.548268,217.752875 C115.410351,217.27145 114.696684,217.140153 114.447996,217.608448 C112.545615,221.184122 114.731711,223.941374 117.633662,226.116539 C117.02814,225.976489 116.407732,225.836438 115.764119,225.670127 C115.240472,225.53883 114.982589,226.046514 115.149841,226.422901 C114.653339,226.059644 114.167345,225.683257 113.70587,225.271858 C111.828446,223.6 110.276332,221.678677 109.934385,219.109618 C109.704523,217.380865 110.197084,214.207837 111.376166,212.820458 C111.652438,212.49659 111.503137,211.844478 110.989122,211.888244 C109.619583,212.006412 108.737352,211.967023 107.535503,212.833588 C106.260098,213.748295 105.500459,214.908092 104.966742,216.374249 C103.750444,219.709211 104.331885,223.223613 106.120867,226.230331 C106.552132,226.956845 107.043379,227.635216 107.577535,228.274198 C105.338023,228.344224 103.117777,228.865038 101.422053,229.639695 C100.059957,230.26117 95.5209522,233.35542 94.7170925,230.628804 C94.2184017,228.93944 95.4583422,227.315725 96.5770032,225.823308 C96.9421552,225.630738 97.305118,225.438168 97.6536323,225.236845 C97.9995197,225.035522 98.1877875,224.501578 97.9382232,224.15145 C97.8940021,224.090178 97.8454028,224.037659 97.7994304,223.980763 C97.813441,223.950127 97.8313921,223.919491 97.8445271,223.893232 C98.0349841,223.481832 97.816068,222.930382 97.3011775,222.943511 C97.0735048,222.952265 96.8497726,222.974148 96.6291052,223.000407 C94.9846079,222.146972 92.8339766,222.66341 91.169339,223.656896 C88.6356047,225.171196 87.2485526,228.247939 87.3422487,231.132112 C87.3606376,231.692316 87.4276259,232.248142 87.5357705,232.786463 C87.3772752,232.768957 87.2179044,232.747074 87.0585335,232.725191 C85.7327779,230.580662 85.3965228,227.849669 86.5602806,225.446921 C86.762559,225.026768 86.4144825,224.352774 85.8803273,224.56285 C84.9061509,224.94799 84.097475,225.51257 83.4538618,226.217201 C83.4000085,225.67888 83.2183082,225.219338 82.7861679,224.943613 C80.0808034,223.21486 77.8951456,227.950331 77.6718512,229.88916 C77.3570499,232.620153 78.3417343,235.053537 80.0961275,236.935471 C78.7134538,236.703511 77.3504825,236.57659 76.1039745,236.510941 C75.096085,235.543715 73.8403826,234.89598 72.0435197,234.843461 C70.4296706,234.799695 68.9244038,235.727532 68.0640638,237.053639 C64.8985377,237.780153 62.0075324,239.276947 60.2487609,242.112977 C58.9072434,244.270636 60.7084846,246.53771 62.918661,246.760916 C63.8748863,246.857201 64.8197279,246.830941 65.7588778,246.74341 C65.6542359,247.754402 65.7282295,248.796031 65.9563401,249.780763 C66.024204,250.073995 66.10783,250.36285 66.2006504,250.647328 C66.1419809,250.809262 66.0890032,250.975573 66.0404038,251.141883 C65.7772667,251.772112 65.641101,252.463613 65.6791923,253.194504 C65.6831328,253.268906 65.6927651,253.347684 65.6980191,253.422087 C65.5907503,257.452926 67.8337641,261.868906 70.3035749,264.68743 C70.5973603,265.024427 70.9121615,265.343919 71.2361573,265.659033 C70.678797,266.017913 70.1976196,266.490585 69.8591753,267.042036 C68.7146823,268.902087 68.8617938,270.919695 69.2024272,272.950433 C66.5684293,276.762443 64.9712179,281.432265 64.3674474,285.848244 C64.214644,286.973028 64.1209479,288.097812 64.0762891,289.222595 C63.403779,289.437048 62.7956302,289.861578 62.4287269,290.448041 C60.5000765,293.546667 61.1914134,298.606005 61.2229373,302.120407 C61.2597152,306.256285 61.5714516,310.37028 62.0049054,314.488651 C62.2006164,316.344326 62.4169054,318.204377 62.6616536,320.060051 C61.330644,322.712265 62.4037705,325.198168 63.8858321,327.618422 C64.4090414,329.933639 65.1647396,332.161323 65.92,334.397761 C64.4147333,335.246819 63.2155112,336.446005 62.2881828,337.87715 C60.1975345,339.448346 58.7062784,341.903613 58.1738746,344.420153 C57.7018916,346.647837 57.898916,348.748601 58.4295685,350.792468 C55.4002083,350.945649 53.1887184,353.339644 53.8669203,356.687735 C54.3016876,358.836641 56.1265717,360.280916 57.4102954,361.926514 C58.399796,363.195725 59.2684548,364.561221 60.0460446,365.97486 C60.811813,367.366616 61.4361615,368.789008 61.7610329,370.347074 C61.9309118,371.16112 62.0613858,371.953282 62.342474,372.736692 C62.6419511,373.572621 63.2483486,373.944631 63.6248842,374.684275 C63.8459894,375.117557 64.376204,375.073791 64.6993241,374.824326 C65.3341807,374.329771 65.9725399,374.268499 66.4970627,373.555115 C67.1170329,372.710433 67.4576663,371.673181 67.6560043,370.657812 C67.8753581,369.533028 68.0439235,368.373232 68.1236089,367.213435 C69.142882,367.918066 70.2549756,368.364478 71.2112009,368.027481 C71.4217981,368.128142 71.6372115,368.224427 71.8596302,368.325089 C72.7011435,368.688346 73.8044803,368.828397 74.5658704,369.314198 C75.3145632,369.791247 76.1998597,368.854656 75.763779,368.115013 C75.0755069,366.95084 74.9559787,365.173944 74.413067,363.89598 C73.8933603,362.670534 73.2703252,361.488855 72.6901977,360.294046 C72.1871286,358.346463 71.4730244,356.468906 71.1021807,355.177812 C70.8005143,354.123053 70.4537513,353.081425 70.1266908,352.03542 C75.0925824,349.418219 78.7230861,343.754911 79.2975218,338.397964 C79.8500659,333.246718 77.0982912,327.053842 72.0049904,325.67084 C71.1345802,324.484784 70.3101424,323.241832 70.5872901,322.016387 C70.8793241,320.725293 70.6433326,319.644275 70.094729,318.830229 C70.2006844,317.63542 70.2759915,316.427481 70.4222274,315.241425 C70.6783592,314.764377 71.030814,314.313588 71.4244251,313.867176 C71.701135,313.871552 71.9778448,313.661476 71.9949203,313.328855 C71.9966716,313.298219 72.0023634,313.267583 72.0045526,313.236947 C72.5838045,312.624224 73.1704995,312.011501 73.5829373,311.355013 C74.4209479,310.020153 75.2033539,308.63715 75.8881233,307.219135 C77.3277152,304.238677 78.6937513,301.231959 79.8303634,298.120204 C80.4936791,296.303919 81.1377301,294.330076 81.6443018,292.290585 C82.1985972,291.756641 82.7515792,291.213944 83.297118,290.66687 C83.8540404,290.601221 84.4083358,290.504936 84.9551881,290.369262 C91.3212667,288.824326 94.2661254,283.734351 96.400119,278.232977 C97.6137896,278.307379 98.8274601,278.381781 100.041131,278.456183 C102.737739,278.622494 105.351596,276.289771 105.830584,273.65944 C106.081024,273.725089 106.334091,273.768855 106.585407,273.781985 C107.202312,273.821374 107.820531,273.773232 108.437437,273.67257 C108.786827,274.158372 109.197513,274.600407 109.615205,275.003053 C111.676519,276.981272 114.40465,278.114809 117.279456,278.040407 C120.325016,277.961628 123.187562,276.644275 125.313237,274.469109 C125.537407,274.241527 125.751945,274.005191 125.958164,273.760102 C128.178848,274.477863 130.524315,274.959288 132.85183,274.740458 C135.67322,274.473486 138.440757,273.523766 140.749007,271.943817 C141.234125,272.683461 141.887809,273.318066 142.62074,273.751349 C142.707868,273.803868 142.794121,273.847634 142.880374,273.895776 C142.654891,274.083969 142.443855,274.298422 142.255588,274.547888 C141.183337,275.98341 141.055052,278.386158 142.559443,279.646616 C145.133896,281.808651 147.939086,283.467379 150.054691,286.150229 C151.942623,288.548601 153.350253,291.380254 154.189139,294.303817 C155.126976,297.57313 155.436085,301.673995 157.696174,304.383104 C158.524115,305.37659 159.624387,306.374453 160.750929,307.030941 C161.97861,307.748702 163.40857,307.529873 164.782925,307.630534 C165.438359,307.6743 165.550006,306.667684 164.93529,306.501374 C163.530287,306.120611 162.333692,303.901679 161.945773,302.571196 C161.464595,300.925598 161.178691,299.231858 161.025012,297.524987 C161.020633,297.476845 161.015379,297.433079 161.010563,297.384936 C163.066623,298.750433 165.257535,298.978015 167.821479,297.988906 C168.398104,297.770076 168.357386,296.864122 167.668676,296.864122 Z" id="Fill-20" fill="#3E004C"></path>
      <path d="M151.891396,661.631043 L166.303078,661.631043 C166.303078,661.631043 168.236982,665.46056 165.719447,665.679389 C163.201913,665.898219 159.334542,666.541578 154.627847,665.968244 C151.022738,665.530585 151.891396,661.631043 151.891396,661.631043 Z M232.926674,655.32 L244.018274,655.32 C244.018274,655.32 245.283171,658.287328 244.407507,659.600305 C243.531843,660.913282 235.635541,659.972316 233.592179,659.096997 C231.549254,658.221679 232.926674,655.32 232.926674,655.32 Z" id="Stroke-21" stroke="#3E004C" stroke-width="1.75063613"></path>
      <polyline id="Fill-22" fill="#3E004C" points="157.911588 681.872774 155.795107 679.246819 155.065679 665.311756 156.385305 664.020662 164.710682 664.020662 166.084162 681.872774 157.911588 681.872774"></polyline>
      <path d="M236.137296,672.607532 L235.115834,659.114504 L236.42933,657.78402 L242.851014,658.164784 L243.726678,660.790738 C243.65356,663.197863 244.091392,675.377913 244.091392,675.377913 L236.137296,672.607532" id="Fill-23" fill="#3E004C"></path>
      <path d="M10.0425547,411.83715 C10.0425547,411.83715 16.2812242,353.759796 18.2514687,339.317048 C20.2212752,324.8743 25.1468863,298.308397 26.4603826,290.430534 C27.7738789,282.552672 30.4004336,266.796947 30.4004336,266.796947 L30.4004336,224.129567 L54.6988013,126.31715 L67.8333262,73.8024427 L59.2960383,23.909313 L57.3560043,14.7316031 L65.2369819,5.49262087 L71.0198682,1.03725191 L74.9056281,3.99145038 L77.4962806,6.12722646 C77.4962806,6.12722646 81.1784485,5.58452926 83.0225972,5.78147583 C84.8663082,5.97842239 87.0554687,8.82320611 87.0554687,8.82320611 C87.0554687,8.82320611 89.7332497,8.45557252 91.7647906,8.84071247 C95.8852285,9.62849873 95.5537896,12.595827 96.2499426,12.5826972 C97.3554687,12.5564377 102.231167,12.6570992 103.150176,13.1166412 C105.776731,14.4296183 106.503532,17.2700254 108.01668,18.8193384 C109.206708,20.0360305 108.706266,29.7608142 108.920366,34.1374046 C109.134465,38.5139949 100.409348,42.5973537 100.409348,42.5973537 C100.409348,42.5973537 98.6580191,47.2671756 98.366423,49.8931298 C98.0743889,52.519084 96.0310266,63.8982188 95.1553624,68.2748092 C94.2796982,72.6513995 89.3177471,88.9892112 88.1500489,92.783715 C86.9827885,96.5738422 83.4801318,157.846107 83.4801318,168.061069 C83.4801318,178.271654 78.2261467,215.617099 77.0584485,227.871552 C75.8907503,240.126005 66.5202678,281.896183 67.1765781,288.461069 C67.8333262,295.025954 66.5202678,365.265852 65.8635197,371.830738 C65.2067715,378.395623 69.8714346,394.729059 59.6585632,411.83715 C49.445254,428.945242 40.2512179,442.727125 34.3409224,442.070636 C28.4301892,441.414148 10.0425547,411.83715 10.0425547,411.83715" id="Fill-24" fill="#B84702"></path>
      <path d="M221.099078,468.951654 L224.788251,505.093537 L244.489819,524.783817 C244.489819,524.783817 258.281092,530.035725 262.877892,530.692214 C267.475129,531.348702 273.385424,532.661679 276.668727,525.440305 C279.952468,518.218931 285.206015,503.78056 281.922712,482.116438 C278.638971,460.452316 265.504884,413.846005 264.191388,405.311654 C262.877892,396.777303 252.233318,372.487226 252.233318,372.487226 L252.233318,356.950331 L221.70854,361.642036 C221.70854,361.642036 205.270572,364.569975 202.643579,364.569975 C200.017024,364.569975 196.732408,364.42117 196.732408,364.42117 C196.732408,364.42117 197.316476,358.587176 196.732408,356.254453 C196.148778,353.917354 190.894793,351.584631 190.602759,353.042036 C190.311163,354.503817 185.057177,365.882952 185.057177,367.922443 C185.057177,369.96631 187.100102,372.299033 188.85143,373.174351 C190.602759,374.049669 199.239872,376.968855 200.115537,377.262087 C200.991201,377.550941 214.245692,382.80285 214.245692,382.80285 L225.33773,381.052214 L241.391282,389.805394 L244.893938,418.690891 C244.893938,418.690891 240.807651,456.622799 240.224021,461.874707 C239.639953,467.126616 240.293637,475.906056 240.293637,475.906056 L229.424017,472.085293 L221.099078,468.951654" id="Fill-25" fill="#B84702"></path>
      <path d="M92.0178576,435.396336 C92.0178576,435.396336 97.6116004,440.670127 105.38925,445.978931 C115.478652,452.867684 128.884633,460.60112 134.818572,465.047735 C145.325666,472.925598 165.027235,491.963766 165.027235,491.963766 C165.027235,491.963766 168.967724,473.582087 165.027235,463.734758 C161.086746,453.88743 147.295911,432.223308 147.295911,432.223308 L134.161824,432.223308 C134.161824,432.223308 134.852285,418.690891 135.727949,414.900763 C136.603613,411.10626 138.062908,400.020356 138.062908,400.020356 C138.062908,400.020356 149.446542,399.727125 155.868225,397.394402 C162.289909,395.057303 167.764561,388.641221 166.778563,386.015267 C165.792565,383.389313 164.332833,375.51145 164.916901,367.633588 C165.500531,359.755725 167.543894,340.498728 165.500531,332.620865 C163.457169,324.743003 159.078848,314.821272 159.078848,314.821272 C159.078848,314.821272 159.954512,306.361323 159.370882,301.39827 C158.787252,296.439593 144.192557,270.473282 144.192557,270.473282 L115.295639,272.512774 L97.1987248,280.390636 L91.6527056,296.146361 L75.3071201,315.114504 L75.3071201,342.249364 L68.5938406,351.002545 L76.4748183,375.800305 L79.977475,381.218524 L80.2690712,392.72458 L78.5177428,414.025445 L92.0178576,435.396336" id="Fill-26" fill="#B84702"></path>
      <path d="M194.251651,344.288855 C190.019129,344.288855 186.66227,334.80916 186.370674,333.347379 C186.07864,331.889975 188.85143,326.782494 191.040591,325.762748 C193.229751,324.743003 196.732408,326.344835 196.732408,326.344835 C196.732408,326.344835 194.835282,320.449567 196.732408,319.022799 C198.629972,317.591654 202.424225,316.134249 204.613386,316.64631 C206.802546,317.153995 206.940901,315.880407 208.039422,314.256692 C209.137943,312.632977 211.424302,311.853944 213.199711,311.149313 C214.975558,310.444682 216.617428,310.444682 216.617428,310.444682 C216.617428,310.444682 219.957211,304.173028 221.70854,303.29771 C223.459868,302.422392 230.937603,308.400814 230.937603,308.400814 L218.50536,317.219644 C218.50536,317.219644 219.029883,325.08 216.617428,327.075725 C215.578015,327.933537 213.542533,329.382188 211.764935,328.53313 C209.417279,327.417099 208.039422,324.642341 208.039422,324.642341 C208.039422,324.642341 209.867371,329.994911 207.240378,333.058524 C204.613386,336.122137 200.580077,335.907684 200.115537,335.868295 C199.651435,335.828906 198.337938,331.452316 198.337938,331.452316 C198.337938,331.452316 198.629972,336.122137 198.483736,338.161628 C198.337938,340.205496 198.483736,344.288855 194.251651,344.288855" id="Fill-27" fill="#B84702"></path>
      <polyline id="Fill-28" fill="#FFFFFF" points="136.694682 359.26117 138.062908 364.24173 157.491707 360.819237 157.765352 354.149313 154.673382 353.707277 136.694682 359.26117"></polyline>
      <path d="M10.0425547,411.83715 C7.56179809,406.773435 4.81615303,399.871552 4.37832094,395.932621 C3.94048884,391.99369 4.37832094,382.513995 5.69181722,377.988601 C7.0053135,373.467583 12.5513326,352.02229 12.4050967,341.225242 C12.2592986,330.43257 19.8482423,295.857506 21.0159405,290.019135 C22.1836387,284.18514 23.131983,271.78626 23.350899,268.722646 C23.5698151,265.659033 25.5400595,257.562341 25.9778916,254.936387 C26.4157237,252.310433 24.6643953,236.117048 28.3859681,216.641221 C32.1075409,197.165394 52.4667333,115.979644 54.8748098,107.664122 C57.2828863,99.3486005 62.7557875,75.7150127 62.0990393,71.7760814 C61.4422912,67.8371501 52.2478172,26.9160305 51.372153,23.8524173 C50.4964888,20.7888041 55.3126419,16.1933842 57.7207184,11.8167939 C60.1287949,7.44020356 62.7369607,3.58442748 64.7991498,1.45740458 C67.0246504,-0.840305344 71.0198682,1.03725191 71.0198682,1.03725191 C71.0198682,1.03725191 63.4672646,8.0573028 61.0044591,13.56743 C58.5416536,19.0775573 60.3494623,21.9267176 60.7872944,22.5832061 C61.6629586,23.8961832 68.4476047,23.1959288 71.2935133,23.6335878 C74.1394219,24.0712468 79.6123231,28.2290076 83.7717279,29.5419847 C87.9311328,30.8549618 86.3987205,64.3358779 84.4284761,66.086514 C82.4582317,67.8371501 71.2935133,66.7430025 69.5421849,74.6208651 C67.7908565,82.4987277 60.50139,136.111959 59.6585632,152.743003 C58.8152986,169.374046 34.9534495,248.590331 33.4210372,253.40458 C31.8886249,258.21883 36.2669458,279.226463 35.3912816,286.666667 C34.5156174,294.10687 21.142474,332.940356 22.913067,358.442748 C24.6836599,383.940763 36.837441,421.513791 41.07478,422.800509 C45.3125569,424.091603 56.9352476,416.353791 56.9352476,416.353791 C56.9352476,416.353791 39.9565569,444.727226 34.3409224,442.070636 C26.8535558,438.534351 26.6171265,435.654555 21.5724251,429.177201 C16.3714176,422.502901 11.3017598,414.406209 10.0425547,411.83715" id="Fill-29" fill="#982000"></path>
      <path d="M105.38925,445.978931 C105.38925,445.978931 102.719787,440.258728 114.857807,442.092519 C126.995826,443.930687 116.828051,440.941476 107.414661,434.157761 C98.001271,427.374046 102.082742,417.307888 104.709734,414.025445 C107.336727,410.743003 138.062908,400.020356 138.062908,400.020356 C138.062908,400.020356 108.431307,395.131705 104.709734,392.72458 C100.988162,390.317455 92.9662019,380.10687 91.4337896,376.605598 C89.9013773,373.104326 86.8365526,366.701374 86.8365526,366.701374 C86.8365526,366.701374 82.4503507,368.867786 79.9017301,368.255064 C76.4380404,367.419135 74.3465165,365.554707 72.3635749,362.863104 C69.1043528,358.442748 74.79617,376.386768 74.79617,376.386768 L79.6123231,387.547074 C79.6123231,387.547074 79.1377131,397.923969 77.7515367,406.147583 C77.3426015,408.572214 75.4288374,412.944427 75.4288374,412.944427 C75.4288374,412.944427 76.4323486,413.605293 77.7953199,415.132723 C84.3190181,422.450382 89.5327226,436.31542 89.5327226,436.31542 L105.38925,445.978931" id="Fill-30" fill="#982000"></path>
      <path d="M135.435915,339.23827 C135.435915,339.23827 135.144319,341.439695 137.041445,341.991145 C138.938572,342.538219 141.273968,342.315013 143.608927,341.991145 C145.943885,341.662901 151.572217,341.212112 152.406725,340.77883 C153.241233,340.349924 158.093726,338.161628 158.093726,338.161628 L152.406725,344.582087 L139.096629,345.943206 C139.096629,345.943206 134.83302,344.437659 134.477938,342.83145 C134.122419,341.225242 135.435915,339.23827 135.435915,339.23827" id="Fill-31" fill="#982000"></path>
      <path d="M134.477938,360.63542 L136.858869,360.136489 C136.858869,360.136489 141.018274,358.661578 143.316893,358.114504 C145.615511,357.56743 149.556,356.910941 150.869496,356.582697 C152.182993,356.254453 158.093726,354.026768 158.093726,354.026768 L158.093726,352.429313 L148.789794,349.908397 L134.998083,357.78626 L134.477938,360.63542" id="Fill-32" fill="#982000"></path>
      <path d="M146.819549,385.796438 C145.341866,385.796438 147.353705,383.980153 146.819549,383.389313 C146.285832,382.794097 145.013492,381.218524 144.630389,380.597048 C142.697798,377.472163 150.978954,383.047939 156.451855,381.218524 C158.887953,380.404478 159.51668,379.704224 159.954512,381.218524 C160.392344,382.732824 148.297233,385.796438 146.819549,385.796438" id="Fill-33" fill="#982000"></path>
      <path d="M185.057177,368.215674 C185.057177,368.215674 185.173203,369.931298 186.34922,371.900763 C187.647392,374.071552 191.116774,375.848448 193.393938,376.767532 C197.735044,378.518168 214.464608,387.109415 217.748349,387.765903 C221.032089,388.422392 228.02777,388.531807 227.818487,389.407125 C227.609203,390.282443 239.202121,438.534351 238.983205,444.223919 C238.764289,449.913486 237.67759,471.139949 238.987146,476.829517 C240.296701,482.519084 247.083099,497.399491 245.988519,494.117048 C244.893938,490.834606 245.569951,452.75827 246.107609,448.381679 C246.645267,444.005089 248.177679,394.330789 248.177679,389.516539 C248.177679,384.70229 244.893938,382.470229 242.266946,382.710941 C239.639953,382.951654 230.445479,378.706361 225.191494,379.625445 C219.937509,380.544529 207.240378,379.012723 204.39447,377.262087 C201.548561,375.51145 185.057177,368.215674 185.057177,368.215674" id="Fill-34" fill="#982000"></path>
      <path d="M196.732408,364.42117 C197.830929,364.464936 206.802546,364.950738 211.399783,367.576692 C215.99702,370.202646 220.594257,368.578931 229.131983,368.215674 C237.669709,367.852417 252.233756,363.839084 252.233756,363.839084 L252.233756,356.950331 L203.735095,364.403664 L196.732408,364.42117" id="Fill-35" fill="#982000"></path>
      <path d="M221.099078,468.951654 L216.617428,520.157761 C216.617428,520.157761 224.206372,522.783715 235.37109,526.066158 C246.535809,529.348601 264.924757,531.230534 264.924757,531.230534 C264.924757,531.230534 253.10329,528.363868 250.147923,525.19084 C247.192557,522.017812 233.619762,508.472265 231.211685,500.091094 C228.803609,491.709924 221.099078,468.951654 221.099078,468.951654" id="Fill-36" fill="#982000"></path>
      <path d="M139.376404,368.561425 C139.376404,368.561425 142.59841,372.592265 144.344047,373.905242 C146.090121,375.218219 151.416786,375.31888 153.897981,375.012519 C156.379175,374.706158 157.546436,374.124071 157.546436,374.124071 L157.765352,370.110738 L149.738576,366.101781 L142.29543,366.101781 L139.376404,368.561425" id="Fill-37" fill="#982000"></path>
      <path d="M100.409348,42.5973537 C100.409348,42.5973537 101.94176,35.778626 101.832302,33.1526718 C101.722844,30.5267176 99.9772072,26.697201 101.123889,27.5725191 C102.270134,28.4478372 105.006584,25.7124682 105.772791,23.4147583 C106.538997,21.1170483 104.568752,27.6819338 104.67821,30.0890585 C104.787668,32.4961832 107.852493,35.8880407 106.538997,35.5597964 C105.225501,35.2315522 102.160676,38.1857506 102.051218,38.7328244 C101.94176,39.2798982 100.409348,42.5973537 100.409348,42.5973537" id="Fill-38" fill="#982000"></path>
      <path d="M77.4962806,6.12722646 C77.4962806,6.12722646 73.9936238,6.49048346 72.6070096,6.63491094 C71.2208332,6.78371501 69.998406,6.94564885 69.998406,8.47745547 C69.998406,10.0092621 69.0316727,10.5738422 71.8775813,8.97201018 C74.7234899,7.36580153 77.4962806,6.12722646 77.4962806,6.12722646" id="Fill-39" fill="#982000"></path>
      <path d="M128.430601,362.232875 C129.452502,362.670534 131.349628,363.401425 132.808922,362.232875 C134.268655,361.068702 137.041445,357.56743 138.646976,357.274198 C140.252068,356.980967 143.463129,355.66799 145.214457,355.085903 C146.965785,354.503817 150.03061,351.584631 150.03061,351.584631 C150.03061,351.584631 152.657603,352.284885 154.116897,352.591247 C155.576191,352.897608 158.34942,352.136081 159.662916,352.591247 C160.976412,353.042036 163.165573,355.961221 163.895001,355.523562 C164.624867,355.085903 163.165573,351.002545 162.873539,349.978422 C162.581505,348.958677 158.787252,344 157.765352,343.706768 C156.743889,343.413537 151.19787,341.991145 151.19787,341.991145 C151.19787,341.991145 142.29543,343.706768 141.419766,344.288855 C140.544102,344.875318 134.122419,349.540763 133.246755,350.271654 C132.37109,351.002545 130.036132,355.523562 129.744098,357.129771 C129.452502,358.731603 128.430601,362.232875 128.430601,362.232875" id="Fill-40" fill="#3E004C"></path>
      <path d="M134.477938,360.63542 C134.477938,360.63542 136.202121,360.355318 136.858869,360.136489 C137.515617,359.917659 137.95345,361.961527 138.664927,362.16285 C140.830006,362.766819 145.497296,362.272265 147.312111,361.94402 C150.998657,361.274402 155.376978,359.50626 157.218062,358.661578 C157.530236,358.51715 157.438291,354.271858 157.438291,354.271858 L158.093726,354.026768 L157.765352,370.110738 C157.765352,370.110738 151.344106,366.75827 148.133046,367.047125 C144.922423,367.340356 139.376404,368.561425 139.376404,368.561425 L134.477938,360.63542" id="Fill-41" fill="#3E004C"></path>
      <path d="M106.976829,313.945954 C106.976829,313.945954 109.750057,313.945954 111.939218,313.945954 C114.128378,313.945954 116.755371,312.48855 119.382363,312.48855 C122.009356,312.48855 127.992769,314.090382 131.057594,313.945954 C134.122419,313.801527 133.830823,311.32 133.246755,309.862595 C132.663124,308.400814 125.074181,308.694046 123.614448,308.694046 C122.155154,308.694046 120.337713,307.915013 117.743996,308.672163 C115.149841,309.424936 106.976829,313.945954 106.976829,313.945954" id="Fill-42" fill="#3E004C"></path>
      <path d="M148.133046,311.149313 C148.133046,311.149313 147.111583,307.087837 147.549416,306.212519 C147.987248,305.337201 152.803401,302.273588 155.284595,301.691501 C157.765352,301.109415 159.127447,299.932112 159.267554,300.842443 C159.408098,301.748397 161.37484,305.297812 159.570096,305.827379 C157.765352,306.361323 154.116897,306.650178 152.365569,307.381069 C150.61424,308.111959 148.133046,311.149313 148.133046,311.149313" id="Fill-43" fill="#3E004C"></path>
      <path d="M113.398512,322.117048 C113.398512,322.117048 118.944531,319.574249 122.155154,319.022799 C125.365777,318.466972 128.868434,317.884885 129.744098,318.322545 C130.619762,318.760204 127.992769,318.75145 125.803609,320.143206 C123.614448,321.530585 119.309245,321.24173 118.105207,321.679389 C116.901169,322.117048 113.398512,322.117048 113.398512,322.117048" id="Fill-44" fill="#3E004C"></path>
      <path d="M148.717114,316.64631 C148.717114,316.64631 150.468442,314.821272 151.927736,314.458015 C153.387031,314.090382 157.473756,314.309211 158.495218,314.458015 C159.51668,314.602443 159.006168,314.913181 157.32752,315.451501 C155.649309,315.989822 152.803401,316.64631 151.563022,316.64631 C150.322206,316.64631 148.717114,316.64631 148.717114,316.64631" id="Fill-45" fill="#3E004C"></path>
      <path d="M90.6417513,284.902901 C90.6421892,284.889771 90.6421892,284.881018 90.642627,284.867888 C90.6448162,284.881018 90.6456918,284.894148 90.647881,284.907277 C90.6456918,284.907277 90.6435027,284.902901 90.6417513,284.902901 Z M147.402742,264.648041 C146.107634,263.32631 144.309458,263.615165 142.991146,264.648041 C140.776153,266.385547 138.409671,267.96112 135.701679,268.814555 C134.871112,269.07715 134.053241,269.247837 133.237122,269.370382 C134.033101,268.626361 134.642563,267.733537 134.856663,266.494962 C135.018661,265.558372 134.615418,264.271654 133.499821,264.105344 C131.137717,263.746463 129.867129,264.525496 128.026482,265.930382 C126.545734,267.059542 125.038278,268.144936 123.530385,269.234707 C122.081598,270.285089 121.168718,269.072774 119.528162,269.816794 C118.657313,270.20631 117.254937,268.88458 116.390219,269.230331 C115.86701,269.173435 111.806993,269.25659 111.28247,269.230331 C109.051277,269.129669 110.328871,273.033588 108.195753,273.532519 C108.213705,273.374962 108.237785,273.195522 108.239537,273.160509 C108.327103,271.716234 106.845041,270.136285 105.359039,270.280712 C103.009632,270.512672 101.274942,272.237048 101.274942,274.692316 C101.274942,275.309415 101.387464,275.887125 101.585365,276.421069 C101.493858,276.486718 101.401037,276.543613 101.310406,276.609262 C100.556897,277.151959 99.9023379,277.707786 99.3134538,278.303003 C99.1256238,277.69028 98.7276344,277.143206 98.1313071,276.797455 C94.0371392,274.41659 91.0406164,278.80631 90.5835197,282.552672 C90.5804548,282.522036 90.580017,282.487023 90.5760765,282.45201 C90.3694198,280.456285 89.0870096,279.39715 87.6732497,279.156438 C87.5011817,278.784427 87.3063464,278.429924 87.0734198,278.101679 C85.3260319,275.628906 80.91356,276.281018 81.005067,279.742901 C81.0580446,281.738626 81.7270521,283.541781 81.5593624,285.572519 C81.4205696,287.261883 80.9463974,288.942494 80.334746,290.518066 C78.9796557,294.006209 76.8763103,297.20112 74.9739299,300.400407 C73.088187,303.577812 71.2724973,306.842748 70.4196004,310.466565 C70.045254,312.055267 69.7160043,313.696489 70.0124166,315.320204 C70.0942912,315.766616 70.1984952,316.221781 70.3302827,316.663817 C69.2392051,317.403461 68.7383252,318.633282 68.9353496,319.959389 C69.0391158,320.655267 69.3477875,321.298626 69.7786142,321.902595 C68.9007609,323.810789 68.8928799,326.095369 69.508034,328.130483 C70.3823847,331.032163 72.4292497,333.076031 73.9616621,335.583817 C76.558882,339.842239 74.026899,344.253842 71.1284506,347.492519 C70.0850967,348.661069 71.0798512,351.142595 72.8324931,350.420458 C77.1797279,348.630433 79.4792221,344.148804 80.2020829,339.684682 C80.2506823,340.612519 80.2410499,341.544733 80.15217,342.47257 C79.8592604,345.518677 79.2392901,349.448855 77.1131775,351.781578 C76.5514389,352.3943 77.2572242,353.352774 78.0085441,352.941374 C80.2677577,351.702799 82.501577,350.280407 83.9096451,348.035216 C85.4311116,345.606209 86.0414495,342.713282 86.2914516,339.899135 C86.7914559,334.262087 85.1513369,327.924784 81.8146185,323.33374 C80.6118937,321.675013 79.2204633,319.968142 77.6193114,318.580763 C78.2926971,315.438372 80.1412242,312.274097 81.9323953,309.709415 C81.8960553,309.897608 81.8527099,310.085802 81.8229373,310.278372 C81.734933,310.847328 81.2449989,315.687837 83.1762763,314.764377 C84.467881,314.147277 84.4740106,312.348499 84.9438045,311.14056 C85.6097471,309.429313 86.6338363,307.814351 87.6202721,306.273791 C89.2012837,303.801018 90.8637322,301.39827 92.0034091,298.711043 C91.7262614,301.450789 91.0257301,304.151145 89.7542657,306.588906 C88.8873581,308.247634 87.8352476,309.788193 86.6876897,311.263104 C85.5488884,312.729262 84.1697173,314.466768 82.7712816,315.670331 C82.4726801,315.92855 82.7909841,316.510636 83.1705845,316.357455 C84.8299681,315.670331 86.1863719,315.258931 87.6811307,314.19542 C89.0344697,313.228193 90.2704697,312.151552 91.3773092,310.908601 C93.7674346,308.225751 95.8449479,305.008957 97.2438215,301.700254 C98.6996132,298.255878 99.3729989,294.601425 99.1085484,290.863817 C98.9977768,289.296997 98.7560935,287.756438 98.3983847,286.237761 C99.1365696,285.625038 99.9540021,285.077964 100.825726,284.539644 C102.751311,283.357964 104.596774,281.983715 106.640574,280.994606 C107.80871,281.72112 108.782011,282.587684 109.316604,284.045089 C110.078869,286.123969 108.41248,289.388906 106.355545,290.255471 C105.62743,290.561832 105.874806,291.647226 106.690049,291.467786 C108.892782,290.986361 110.352077,290.710636 111.923894,288.911858 C113.418652,287.204987 114.293879,284.96855 114.359554,282.701476 C114.40071,281.270331 114.097292,279.896081 113.499214,278.65313 C115.504047,278.543715 117.370087,278.937608 119.388055,279.213333 C121.911719,279.554707 124.366644,279.086412 126.037849,277.033791 C126.825947,276.062188 126.884179,275.55888 128.146448,275.466972 C129.522993,275.370687 130.896034,275.462595 132.275643,275.313791 C137.733658,274.718575 143.220132,272.665954 147.402742,269.059644 C148.688655,267.952366 148.519214,265.790331 147.402742,264.648041 Z" id="Fill-46" fill="#3E004C"></path>
      <path d="M80.2322933,375.795929 C80.1841318,375.038779 79.9266865,374.299135 79.9310648,373.528855 C79.9371945,372.509109 79.9017301,368.255064 79.9017301,368.255064 L78.4393709,367.50229 C78.4393709,367.50229 75.27078,365.335878 73.4099936,363.401425 C71.9222402,361.856489 71.2935133,359.790738 71.2935133,359.790738 C71.2935133,359.790738 70.4305462,361.291908 69.6056706,360.022697 C68.8854368,358.911043 68.3307035,357.729364 67.7076684,356.560814 C67.4725526,356.123155 66.7742104,356.42514 66.9077492,356.902188 C67.5798215,359.291807 68.9703762,362.009669 70.5290584,364.084173 C70.107864,363.957252 69.6652157,363.904733 69.1984867,363.944122 C67.7190521,364.066667 66.9489054,365.182697 67.1669458,366.609466 C67.4116939,368.211298 68.7974325,368.920305 69.6927991,370.145751 C70.527745,371.288041 71.1043698,372.627277 71.3416748,374.02341 C71.5921148,375.498321 71.5308183,377.161425 71.1687311,378.614453 C71.0027928,379.284071 70.6805484,379.909924 70.519864,380.570789 C70.3705632,381.187888 70.5255558,382.360814 70.1170584,382.868499 C69.7028693,383.376183 70.3521743,384.067684 70.8526164,383.599389 C71.4327439,383.061069 72.4003528,383.021679 73.0531605,382.518372 C73.3513241,382.290789 73.6122721,382.010687 73.8465122,381.708702 C74.0067588,381.975674 74.3539596,382.102595 74.6928417,381.940662 C75.5023932,381.564275 76.1792816,381.065344 76.7458363,380.487634 C76.5996004,382.457099 76.1591413,384.395929 75.445475,386.045903 C75.2852285,386.417913 75.7195579,386.851196 76.0474942,386.509822 C77.7633581,384.741679 79.0409522,383.236132 79.7244081,380.776489 C79.9284378,380.041221 80.0667928,379.305954 80.1561105,378.561934 C80.3102274,377.634097 80.3378108,376.719389 80.2322933,375.795929" id="Fill-47" fill="#3E004C"></path>
    </g>
  </g>
</svg>
