<?xml version="1.0" encoding="utf-8"?>
<!-- Generator: Adobe Illustrator 22.1.0, SVG Export Plug-In . SVG Version: 6.00 Build 0)  -->
<svg version="1.1" id="Capa_1" xmlns="http://www.w3.org/2000/svg" xmlns:xlink="http://www.w3.org/1999/xlink" x="0px" y="0px"
	 viewBox="0 0 800 800" style="enable-background:new 0 0 800 800;" xml:space="preserve">
<style type="text/css">
	.st0{fill:#F7EBE6;}
	.st1{fill:#E08988;}
	.st2{fill:#CDCAC7;}
	.st3{fill:#AE6069;}
	.st4{fill:#005D80;}
	.st5{fill:#9B7761;}
	.st6{fill:#0075A1;}
	.st7{fill:#CCA78C;}
	.st8{fill:#D49D8A;}
	.st9{fill:#FFACAA;}
	.st10{fill:#578087;}
	.st11{fill:#FFC8AE;}
	.st12{fill:#504D5A;}
	.st13{fill:#6F6A77;}
	.st14{fill:#918F98;}
	.st15{fill:#00A7B5;}
	.st16{fill:#008D99;}
</style>
<g>
	<g>
		<g>
			<path class="st0" d="M350.3,400.6c-13.3,4.6-26.6,9.3-39.9,14c16.2,2.2,32.4,4.3,48.6,6.5c15.3-5,30.6-10,45.9-15.1
				C386.7,404.2,368.5,402.4,350.3,400.6z"/>
			<path class="st1" d="M420.3,400.9c-18.7-1.7-37.4-2.9-56.1-2.5c-1.4-1.1-3.3-1.5-5.3-0.8c-2.9,1-5.7,2-8.6,3
				c18.2,1.8,36.4,3.6,54.5,5.4C410,404.3,415.1,402.6,420.3,400.9z"/>
			<path class="st1" d="M243.6,438c16.8,1.4,33.5,2.9,50.1,4.6c21.7-7.3,43.4-14.4,65.2-21.6c-16.2-2.2-32.4-4.3-48.6-6.5
				C288.2,422.4,265.9,430.2,243.6,438z"/>
			<path class="st0" d="M199.4,453.4c13.1,2.7,26.2,5.4,39.3,8.1c18.3-6.4,36.7-12.6,55.1-18.8c-16.7-1.7-33.4-3.2-50.1-4.6
				C228.9,443.1,214.1,448.3,199.4,453.4z"/>
			<path class="st1" d="M199.4,453.4c-3.7,1.3-7.4,2.6-11.1,3.9c-13.5,4.7-27,9.3-40.6,13.8c12.7,3,25.5,6.1,38.2,9.3
				c17.5-6.5,35.1-12.7,52.8-18.9C225.6,458.8,212.5,456.1,199.4,453.4z"/>
			<path class="st0" d="M101.4,486.5c-11.5,3.8-23.1,7.5-34.7,11.2c14.5,4.1,29,8.1,43.5,12c25-10.3,50.2-20,75.6-29.4
				c-12.7-3.1-25.5-6.2-38.2-9.3C132.3,476.3,116.9,481.4,101.4,486.5z"/>
			<path class="st1" d="M59,500.2c-7.1,2.2-32.3,4.1-34.4,13.1c-2.5,11.1,21.5,17.3,30.6,20c18.2-8.2,36.5-16,55-23.6
				c-14.5-3.9-29-7.9-43.5-12C64.2,498.5,61.6,499.3,59,500.2z"/>
			<path class="st0" d="M467.8,405.4c-1.9-0.2-3.8-0.4-5.7-0.5c-13.9-1.3-27.9-2.8-41.8-4c-5.2,1.7-10.3,3.4-15.5,5.1
				c16.5,1.6,32.9,3.2,49.3,4.8C458.7,409,463.3,407.2,467.8,405.4z"/>
			<path class="st1" d="M404.8,406c-15.3,5-30.6,10.1-45.9,15.1c17.2,2.3,34.3,4.6,51.5,6.9c14.6-5.7,29.1-11.4,43.7-17.2
				C437.7,409.2,421.3,407.6,404.8,406z"/>
			<path class="st0" d="M293.8,442.6c20.4,2.1,40.8,4.4,61.1,6.8c18.5-7.1,37-14.3,55.5-21.5c-17.2-2.3-34.3-4.6-51.5-6.9
				C337.2,428.2,315.5,435.3,293.8,442.6z"/>
			<path class="st1" d="M238.7,461.4c18.7,3.8,37.4,7.5,56.1,11.2c20.1-7.7,40.1-15.4,60.2-23.1c-20.3-2.5-40.7-4.8-61.1-6.8
				C275.4,448.8,257,455,238.7,461.4z"/>
			<path class="st0" d="M185.9,480.3c18,4.4,36,8.9,54,13.4c18.3-7.1,36.6-14.1,54.9-21.2c-18.7-3.7-37.4-7.4-56.1-11.2
				C221,467.6,203.4,473.9,185.9,480.3z"/>
			<path class="st1" d="M110.3,509.7c17.8,4.8,35.6,9.4,53.5,13.9c25.4-10.1,50.8-20,76.2-29.9c-18-4.5-36-9-54-13.4
				C160.5,489.7,135.3,499.4,110.3,509.7z"/>
			<path class="st0" d="M55.3,533.3c0.8,0.2,1.4,0.4,2,0.6c14.9,5,30,9.8,45,14.5c20.5-8.4,41-16.6,61.5-24.8
				c-17.8-4.5-35.7-9.1-53.5-13.9C91.8,517.3,73.5,525.1,55.3,533.3z"/>
			<path class="st1" d="M354.9,449.5c24.6,3,49.1,6.2,73.6,9.6c17.5-7.3,35-14.4,52.5-21.5c-23.5-3.2-47-6.4-70.5-9.6
				C392,435.2,373.5,442.3,354.9,449.5z"/>
			<path class="st1" d="M545.1,412.6c-25.8-2.4-51.5-4.8-77.3-7.2c-4.5,1.8-9.1,3.6-13.7,5.4c25.4,2.5,50.8,5,76.1,7.5
				C535.2,416.4,540.1,414.4,545.1,412.6z"/>
			<path class="st0" d="M454.2,410.8c-14.6,5.8-29.1,11.5-43.7,17.2c23.5,3.2,47,6.4,70.5,9.6c16.4-6.6,32.8-13,49.3-19.3
				C504.9,415.8,479.6,413.3,454.2,410.8z"/>
			<path class="st1" d="M239.9,493.8c22.3,5.6,44.5,11.2,66.8,16.8c19.2-8.2,38.4-16.3,57.6-24.5c-23.2-4.5-46.4-8.9-69.6-13.5
				C276.5,479.6,258.2,486.7,239.9,493.8z"/>
			<path class="st0" d="M294.8,472.6c23.2,4.5,46.4,9,69.6,13.5c21.4-9.1,42.7-18.1,64.1-27c-24.5-3.4-49-6.6-73.6-9.6
				C334.9,457.2,314.8,464.9,294.8,472.6z"/>
			<path class="st0" d="M163.7,523.6c23.5,5.9,47,11.7,70.5,17.3c24.2-10,48.4-20.2,72.5-30.4c-22.3-5.6-44.6-11.2-66.8-16.8
				C214.5,503.6,189.1,513.5,163.7,523.6z"/>
			<path class="st1" d="M102.2,548.4c7.2,2.3,14.5,4.5,21.7,6.8c14.3,4.3,28.6,8.6,42.9,12.8c22.5-8.8,44.9-17.8,67.3-27
				c-23.5-5.6-47-11.4-70.5-17.3C143.2,531.8,122.7,540,102.2,548.4z"/>
			<path class="st1" d="M234.2,540.9c25.1,6,50.3,11.9,75.5,17.7c22.8-9.9,45.3-20.2,67.7-30.7c-23.6-5.7-47.1-11.5-70.6-17.4
				C282.6,520.8,258.4,531,234.2,540.9z"/>
			<path class="st1" d="M364.4,486.1c23.9,4.6,47.7,9.1,71.6,13.7c20.8-10.2,41.6-20.4,62.4-30.6c-23.2-3.5-46.5-6.9-69.8-10.1
				C407.1,468,385.7,477,364.4,486.1z"/>
			<path class="st0" d="M306.7,510.6c23.5,5.9,47.1,11.7,70.6,17.4c19.6-9.2,39.1-18.7,58.6-28.2c-23.8-4.6-47.7-9.2-71.6-13.7
				C345.1,494.2,325.9,502.4,306.7,510.6z"/>
			<path class="st1" d="M530.3,418.3c-16.5,6.3-32.9,12.7-49.3,19.3c21.3,2.9,42.7,5.9,64,8.9c15.5-7.5,31.1-14.8,46.8-22.1
				C571.3,422.3,550.8,420.3,530.3,418.3z"/>
			<path class="st0" d="M605.1,418.2c-14.1-1.3-28.3-2.7-42.4-4c-5.9-0.5-11.7-1.1-17.6-1.6c-4.9,1.9-9.9,3.8-14.8,5.7
				c20.5,2,41,4.1,61.5,6.1C596.2,422.3,600.7,420.2,605.1,418.2z"/>
			<path class="st0" d="M428.5,459c23.3,3.2,46.5,6.6,69.8,10.1c15.5-7.6,31.1-15.2,46.7-22.7c-21.3-3-42.6-6-64-8.9
				C463.4,444.6,445.9,451.8,428.5,459z"/>
			<path class="st0" d="M166.9,568c23.4,6.9,46.9,13.7,70.4,20.1c24.4-9.2,48.5-19.1,72.3-29.4c-25.2-5.8-50.4-11.7-75.5-17.7
				C211.8,550.2,189.4,559.2,166.9,568z"/>
			<path class="st1" d="M498.3,469.2c18.8,2.8,37.6,5.7,56.3,8.6c15-7.9,29.9-15.8,44.9-23.6c-18.2-2.6-36.4-5.2-54.6-7.8
				C529.4,454,513.8,461.5,498.3,469.2z"/>
			<path class="st1" d="M660,423.3c-18.3-1.7-36.6-3.4-54.9-5.1c-4.5,2-8.9,4.1-13.4,6.2c18.3,1.9,36.7,3.7,55,5.6
				C651.2,427.8,655.6,425.5,660,423.3z"/>
			<path class="st0" d="M591.7,424.4c-15.6,7.2-31.2,14.6-46.8,22.1c18.2,2.6,36.4,5.1,54.6,7.8c15.7-8.2,31.4-16.2,47.2-24.2
				C628.4,428.1,610.1,426.2,591.7,424.4z"/>
			<path class="st1" d="M377.4,528c18.9,4.5,37.7,9,56.6,13.3c19.5-10,39-20.2,58.4-30.5c-18.8-3.7-37.6-7.4-56.5-11
				C416.5,509.3,397,518.7,377.4,528z"/>
			<path class="st0" d="M435.9,499.8c18.8,3.6,37.7,7.3,56.5,11c20.7-11,41.5-22,62.2-33c-18.8-2.9-37.5-5.8-56.3-8.6
				C477.5,479.4,456.7,489.6,435.9,499.8z"/>
			<path class="st0" d="M309.7,558.7c20.4,4.7,40.8,9.4,61.2,14.2c21.1-10.2,42.1-20.8,63.1-31.6c-18.9-4.3-37.8-8.8-56.6-13.3
				C355,538.5,332.5,548.8,309.7,558.7z"/>
			<path class="st1" d="M237.4,588.1c21.3,5.9,42.6,11.5,64,16.9c23.4-10.2,46.6-21,69.6-32.1c-20.4-4.7-40.8-9.4-61.2-14.2
				C285.9,569,261.8,578.9,237.4,588.1z"/>
			<path class="st0" d="M431.1,587c24.1,5.7,48.2,11.5,72.3,17.5c22.4-11.4,44.6-23.3,66.6-35.6c-25.7-4.5-51.3-9.4-76.9-14.8
				C472.4,565,451.8,575.9,431.1,587z"/>
			<path class="st1" d="M763.8,433c-9.6-0.9-19.2-1.8-28.7-2.7c-5,2.5-9.9,5-14.9,7.5c16.2,1.8,32.4,3.6,48.6,5.4
				C772,439.6,768.4,433.5,763.8,433z"/>
			<path class="st0" d="M720.2,437.9c-17.5,8.8-35,17.6-52.4,26.4c19.2,2.9,38.5,5.8,57.7,8.7c14.2-9.5,28.3-19.1,42.3-28.8
				c0.4-0.3,0.7-0.6,1-0.9C752.6,441.4,736.4,439.6,720.2,437.9z"/>
			<path class="st1" d="M620.6,488.2c22,3.5,43.9,6.9,65.9,10.4c13.1-8.4,26-17,39-25.6c-19.2-3-38.4-5.9-57.7-8.7
				C652,472.2,636.3,480.2,620.6,488.2z"/>
			<path class="st1" d="M553,523c-20,10.3-40,20.7-59.9,31.2c25.6,5.3,51.2,10.3,76.9,14.8c5.4-3,10.8-6.1,16.2-9.2
				c12.5-7.2,24.9-14.5,37.2-21.9C600,532.7,576.5,527.8,553,523z"/>
			<path class="st0" d="M553,523c23.5,4.8,47,9.8,70.4,14.9c21.2-12.8,42.2-25.9,63.1-39.3c-22-3.4-44-6.9-65.9-10.4
				C598,499.7,575.5,511.3,553,523z"/>
			<path class="st1" d="M368.3,620.8c14.2,3.1,28.5,6.2,42.7,9c32.9,6.5,52.8-5.4,81.5-19.7c3.7-1.8,7.3-3.7,10.9-5.6
				c-24.1-6-48.2-11.8-72.3-17.5C410.2,598.2,389.2,609.4,368.3,620.8z"/>
			<path class="st1" d="M370.9,572.9c20.1,4.7,40.1,9.3,60.2,14.1c20.7-11,41.3-21.9,62-32.8c-19.7-4.1-39.4-8.4-59.1-12.9
				C413.1,552,392.1,562.6,370.9,572.9z"/>
			<path class="st0" d="M735.1,430.3c-25-2.3-50.1-4.7-75.1-7c-4.4,2.2-8.8,4.5-13.3,6.7c24.5,2.5,49,5.2,73.4,7.8
				C725.2,435.4,730.1,432.8,735.1,430.3z"/>
			<path class="st1" d="M646.7,430c-15.8,8-31.5,16-47.2,24.2c22.8,3.3,45.5,6.6,68.3,10c17.4-8.8,34.9-17.6,52.4-26.4
				C695.7,435.2,671.2,432.6,646.7,430z"/>
			<path class="st0" d="M554.6,477.8c22,3.4,44,6.9,66,10.4c15.7-8,31.5-16,47.2-24c-22.7-3.4-45.5-6.7-68.3-10
				C584.5,462,569.5,469.9,554.6,477.8z"/>
			<path class="st1" d="M492.4,510.8c20.2,4,40.4,8,60.6,12.2c22.5-11.6,45-23.2,67.5-34.7c-22-3.5-44-7-66-10.4
				C533.8,488.8,513.1,499.8,492.4,510.8z"/>
			<path class="st0" d="M434,541.3c19.7,4.5,39.4,8.8,59.1,12.9c20-10.5,39.9-20.9,59.9-31.2c-20.2-4.1-40.4-8.2-60.6-12.2
				C473,521,453.5,531.2,434,541.3z"/>
			<path class="st0" d="M301.3,605c22.3,5.6,44.6,10.9,67,15.8c20.9-11.4,41.9-22.6,62.8-33.8c-20.1-4.8-40.1-9.4-60.2-14.1
				C347.9,584,324.7,594.8,301.3,605z"/>
		</g>
		<g>
			<path class="st2" d="M350.3,400.6c-13.3,4.6-26.6,9.3-39.9,14c16.2,2.2,32.4,4.3,48.6,6.5c15.3-5,30.6-10,45.9-15.1
				C386.7,404.2,368.5,402.4,350.3,400.6z"/>
			<path class="st3" d="M420.3,400.9c-18.7-1.7-37.4-2.9-56.1-2.5c-1.4-1.1-3.3-1.5-5.3-0.8c-2.9,1-5.7,2-8.6,3
				c18.2,1.8,36.4,3.6,54.5,5.4C410,404.3,415.1,402.6,420.3,400.9z"/>
			<path class="st3" d="M243.6,438c16.8,1.4,33.5,2.9,50.1,4.6c21.7-7.3,43.4-14.4,65.2-21.6c-16.2-2.2-32.4-4.3-48.6-6.5
				C288.2,422.4,265.9,430.2,243.6,438z"/>
			<path class="st2" d="M199.4,453.4c13.1,2.7,26.2,5.4,39.3,8.1c18.3-6.4,36.7-12.6,55.1-18.8c-16.7-1.7-33.4-3.2-50.1-4.6
				C228.9,443.1,214.1,448.3,199.4,453.4z"/>
			<path class="st3" d="M199.4,453.4c-3.7,1.3-7.4,2.6-11.1,3.9c-9.3,3.2-18.5,6.3-27.8,9.5c0.3,0.8,0.5,1.7,0.6,2.6
				c6.1-2,12.8-2.7,20.6-1.4c3.3,0.5,2.3,5.6-0.8,5.7c-4.4,0.1-8.4,1.1-12.1,2.7c5.7,1.4,11.4,2.7,17,4.1
				c17.5-6.5,35.1-12.7,52.8-18.9C225.6,458.8,212.5,456.1,199.4,453.4z"/>
			<path class="st2" d="M145.9,494.1c-0.8,0.8-1.8,1.6-3,2.5c14.2-5.6,28.5-11,42.9-16.3c-5.7-1.4-11.4-2.8-17-4.1
				C160,480,153,487.3,145.9,494.1z"/>
			<path class="st2" d="M467.8,405.4c-1.9-0.2-3.8-0.4-5.7-0.5c-13.9-1.3-27.9-2.8-41.8-4c-5.2,1.7-10.3,3.4-15.5,5.1
				c16.5,1.6,32.9,3.2,49.3,4.8C458.7,409,463.3,407.2,467.8,405.4z"/>
			<path class="st3" d="M404.8,406c-15.3,5-30.6,10.1-45.9,15.1c17.2,2.3,34.3,4.6,51.5,6.9c14.6-5.7,29.1-11.4,43.7-17.2
				C437.7,409.2,421.3,407.6,404.8,406z"/>
			<path class="st2" d="M293.8,442.6c20.4,2.1,40.8,4.4,61.1,6.8c18.5-7.1,37-14.3,55.5-21.5c-17.2-2.3-34.3-4.6-51.5-6.9
				C337.2,428.2,315.5,435.3,293.8,442.6z"/>
			<path class="st3" d="M238.7,461.4c18.7,3.8,37.4,7.5,56.1,11.2c20.1-7.7,40.1-15.4,60.2-23.1c-20.3-2.5-40.7-4.8-61.1-6.8
				C275.4,448.8,257,455,238.7,461.4z"/>
			<path class="st2" d="M185.9,480.3c18,4.4,36,8.9,54,13.4c18.3-7.1,36.6-14.1,54.9-21.2c-18.7-3.7-37.4-7.4-56.1-11.2
				C221,467.6,203.4,473.9,185.9,480.3z"/>
			<path class="st3" d="M142.7,510.4c2.2,0.8,4.5,1.3,6.8,1.8c8.3-0.1,17,0.8,25.5,2.6c2.2,0.2,4.5,0.3,6.6,0.6
				c0.7,0.1,1.4,0.2,2.2,0.2c18.7-7.4,37.4-14.7,56-21.9c-18-4.5-36-9-54-13.4c-14.4,5.3-28.7,10.7-42.9,16.3
				c-2.1,1.8-4.5,3.7-5.6,5.5C134,507.6,136,508,142.7,510.4z"/>
			<path class="st3" d="M354.9,449.5c24.6,3,49.1,6.2,73.6,9.6c17.5-7.3,35-14.4,52.5-21.5c-23.5-3.2-47-6.4-70.5-9.6
				C392,435.2,373.5,442.3,354.9,449.5z"/>
			<path class="st3" d="M545.1,412.6c-25.8-2.4-51.5-4.8-77.3-7.2c-4.5,1.8-9.1,3.6-13.7,5.4c25.4,2.5,50.8,5,76.1,7.5
				C535.2,416.4,540.1,414.4,545.1,412.6z"/>
			<path class="st2" d="M454.2,410.8c-14.6,5.8-29.1,11.5-43.7,17.2c23.5,3.2,47,6.4,70.5,9.6c16.4-6.6,32.8-13,49.3-19.3
				C504.9,415.8,479.6,413.3,454.2,410.8z"/>
			<path class="st3" d="M239.9,493.8c22.3,5.6,44.5,11.2,66.8,16.8c19.2-8.2,38.4-16.3,57.6-24.5c-23.2-4.5-46.4-8.9-69.6-13.5
				C276.5,479.6,258.2,486.7,239.9,493.8z"/>
			<path class="st2" d="M294.8,472.6c23.2,4.5,46.4,9,69.6,13.5c21.4-9.1,42.7-18.1,64.1-27c-24.5-3.4-49-6.6-73.6-9.6
				C334.9,457.2,314.8,464.9,294.8,472.6z"/>
			<path class="st2" d="M232,537.9c0,0.9-0.2,1.7-0.4,2.4c0.9,0.2,1.7,0.4,2.6,0.6c24.2-10,48.4-20.2,72.5-30.4
				c-22.3-5.6-44.6-11.2-66.8-16.8c-18.7,7.2-37.4,14.6-56,21.9C198.4,517.1,231.7,519.1,232,537.9z"/>
			<path class="st3" d="M318.3,554.3c0.5,0,1-0.1,1.5-0.1c19.3-8.5,38.5-17.3,57.6-26.2c-23.6-5.7-47.1-11.5-70.6-17.4
				c-24.1,10.2-48.3,20.4-72.5,30.4c20.2,4.8,40.5,9.6,60.8,14.3C302.7,555.1,310.5,554.8,318.3,554.3z"/>
			<path class="st3" d="M364.4,486.1c23.9,4.6,47.7,9.1,71.6,13.7c20.8-10.2,41.6-20.4,62.4-30.6c-23.2-3.5-46.5-6.9-69.8-10.1
				C407.1,468,385.7,477,364.4,486.1z"/>
			<path class="st2" d="M306.7,510.6c23.5,5.9,47.1,11.7,70.6,17.4c19.6-9.2,39.1-18.7,58.6-28.2c-23.8-4.6-47.7-9.2-71.6-13.7
				C345.1,494.2,325.9,502.4,306.7,510.6z"/>
			<path class="st3" d="M530.3,418.3c-16.5,6.3-32.9,12.7-49.3,19.3c21.3,2.9,42.7,5.9,64,8.9c15.5-7.5,31.1-14.8,46.8-22.1
				C571.3,422.3,550.8,420.3,530.3,418.3z"/>
			<path class="st2" d="M605.1,418.2c-14.1-1.3-28.3-2.7-42.4-4c-5.9-0.5-11.7-1.1-17.6-1.6c-4.9,1.9-9.9,3.8-14.8,5.7
				c20.5,2,41,4.1,61.5,6.1C596.2,422.3,600.7,420.2,605.1,418.2z"/>
			<path class="st2" d="M428.5,459c23.3,3.2,46.5,6.6,69.8,10.1c15.5-7.6,31.1-15.2,46.7-22.7c-21.3-3-42.6-6-64-8.9
				C463.4,444.6,445.9,451.8,428.5,459z"/>
			<path class="st2" d="M225.4,550.5c-0.5,4.9,1.3,3.9,7.1,4.2c4.6,0.2,9.2,0.1,13.7,0.2c16.2,0.5,32.4,0.7,48.7,0.3
				c-20.3-4.7-40.5-9.5-60.8-14.3c-1.2,0.5-2.4,1-3.6,1.5C228.8,545.4,225.7,547.6,225.4,550.5z"/>
			<path class="st3" d="M498.3,469.2c18.8,2.8,37.6,5.7,56.3,8.6c15-7.9,29.9-15.8,44.9-23.6c-18.2-2.6-36.4-5.2-54.6-7.8
				C529.4,454,513.8,461.5,498.3,469.2z"/>
			<path class="st3" d="M660,423.3c-18.3-1.7-36.6-3.4-54.9-5.1c-4.5,2-8.9,4.1-13.4,6.2c18.3,1.9,36.7,3.7,55,5.6
				C651.2,427.8,655.6,425.5,660,423.3z"/>
			<path class="st2" d="M591.7,424.4c-15.6,7.2-31.2,14.6-46.8,22.1c18.2,2.6,36.4,5.1,54.6,7.8c15.7-8.2,31.4-16.2,47.2-24.2
				C628.4,428.1,610.1,426.2,591.7,424.4z"/>
			<path class="st3" d="M410.9,530.6c10.2-7.2,20-14.8,32.5-18.1c10.7-2.8,15,13.2,4.6,16.5c-7.9,2.5-14.9,6.3-21.7,10.4
				c2.6,0.6,5.1,1.2,7.7,1.8c19.5-10,39-20.2,58.4-30.5c-18.8-3.7-37.6-7.4-56.5-11c-19.4,9.5-38.9,18.9-58.6,28.2
				c9,2.2,18.1,4.3,27.1,6.5C405.3,531.7,408.2,529.7,410.9,530.6z"/>
			<path class="st2" d="M435.9,499.8c18.8,3.6,37.7,7.3,56.5,11c20.7-11,41.5-22,62.2-33c-18.8-2.9-37.5-5.8-56.3-8.6
				C477.5,479.4,456.7,489.6,435.9,499.8z"/>
			<path class="st2" d="M427.7,544.5c2.1-1.1,4.2-2.1,6.3-3.2c-2.6-0.6-5.1-1.2-7.7-1.8c-0.8,0.5-1.6,1-2.4,1.5
				C425.2,542.1,426.5,543.3,427.7,544.5z"/>
			<path class="st2" d="M404.4,534.4c-9-2.1-18.1-4.3-27.1-6.5c-19.1,9-38.2,17.7-57.6,26.2c22.8-1.5,48-3.7,69.5-11.4
				c5.4-1.9,10.3-4.6,15-7.6C404.3,534.9,404.4,534.6,404.4,534.4z"/>
			<path class="st2" d="M493.8,602.2c3.2,0.8,6.4,1.6,9.6,2.4c22.4-11.4,44.6-23.3,66.6-35.6c-25.7-4.5-51.3-9.4-76.9-14.8
				c-11.7,6.1-23.3,12.3-35,18.5C469.8,582.7,481.9,592.3,493.8,602.2z"/>
			<path class="st3" d="M763.8,433c-9.6-0.9-19.2-1.8-28.7-2.7c-5,2.5-9.9,5-14.9,7.5c16.2,1.8,32.4,3.6,48.6,5.4
				C772,439.6,768.4,433.5,763.8,433z"/>
			<path class="st2" d="M720.2,437.9c-17.5,8.8-35,17.6-52.4,26.4c19.2,2.9,38.5,5.8,57.7,8.7c14.2-9.5,28.3-19.1,42.3-28.8
				c0.4-0.3,0.7-0.6,1-0.9C752.6,441.4,736.4,439.6,720.2,437.9z"/>
			<path class="st3" d="M620.6,488.2c22,3.5,43.9,6.9,65.9,10.4c13.1-8.4,26-17,39-25.6c-19.2-3-38.4-5.9-57.7-8.7
				C652,472.2,636.3,480.2,620.6,488.2z"/>
			<path class="st3" d="M553,523c-20,10.3-40,20.7-59.9,31.2c25.6,5.3,51.2,10.3,76.9,14.8c5.4-3,10.8-6.1,16.2-9.2
				c12.5-7.2,24.9-14.5,37.2-21.9C600,532.7,576.5,527.8,553,523z"/>
			<path class="st2" d="M553,523c23.5,4.8,47,9.8,70.4,14.9c21.2-12.8,42.2-25.9,63.1-39.3c-22-3.4-44-6.9-65.9-10.4
				C598,499.7,575.5,511.3,553,523z"/>
			<path class="st3" d="M495.3,603.4c1.3,1.1,2.6,2.2,3.9,3.2c1.4-0.7,2.8-1.4,4.2-2.1c-3.2-0.8-6.4-1.6-9.6-2.4
				C494.3,602.6,494.8,603,495.3,603.4z"/>
			<path class="st3" d="M453.6,568.9c1.5,1.3,3,2.6,4.5,3.8c11.7-6.2,23.3-12.4,35-18.5c-19.7-4.1-39.4-8.4-59.1-12.9
				c-2.1,1.1-4.2,2.1-6.3,3.2C436.4,552.5,444.7,561,453.6,568.9z"/>
			<path class="st2" d="M735.1,430.3c-25-2.3-50.1-4.7-75.1-7c-4.4,2.2-8.8,4.5-13.3,6.7c24.5,2.5,49,5.2,73.4,7.8
				C725.2,435.4,730.1,432.8,735.1,430.3z"/>
			<path class="st3" d="M646.7,430c-15.8,8-31.5,16-47.2,24.2c22.8,3.3,45.5,6.6,68.3,10c17.4-8.8,34.9-17.6,52.4-26.4
				C695.7,435.2,671.2,432.6,646.7,430z"/>
			<path class="st2" d="M554.6,477.8c22,3.4,44,6.9,66,10.4c15.7-8,31.5-16,47.2-24c-22.7-3.4-45.5-6.7-68.3-10
				C584.5,462,569.5,469.9,554.6,477.8z"/>
			<path class="st3" d="M492.4,510.8c20.2,4,40.4,8,60.6,12.2c22.5-11.6,45-23.2,67.5-34.7c-22-3.5-44-7-66-10.4
				C533.8,488.8,513.1,499.8,492.4,510.8z"/>
			<path class="st2" d="M434,541.3c19.7,4.5,39.4,8.8,59.1,12.9c20-10.5,39.9-20.9,59.9-31.2c-20.2-4.1-40.4-8.2-60.6-12.2
				C473,521,453.5,531.2,434,541.3z"/>
		</g>
	</g>
	<g>
		<path class="st4" d="M601.5,424.7c-1.7-28.5-6.6-56.6-12-84.6c-3.5-18.1-7.4-41.2-27-48.7c-17.8-6.8-37.1,3.2-46.2,18.9
			c-12.5,21.4-5.5,46.4-6.5,69.7c-0.6,14.6-5,29.9-20.3,34.8c-8.8,2.8-18.1,2.5-26,8.1c-17.4,12.5-11.7,39.9-4.4,56.5
			c3.2,7.3,8.1,15.5,14.3,22.7c-1.5,1.5-1.6,4.3,0.5,5.9c36,26.1,92.3,27.2,117.6-15.2C603.7,472.7,602.8,447.4,601.5,424.7z"/>
		<path class="st5" d="M563.9,494.4c-3.7-3.2-8.9-1.4-10.4,2.3c-8.3-5-16.9-6.5-24.1-0.6c-4.3,3.5-6.6,7.8-7.3,12.3
			c-4.1,3.1-6.3,8.8-2.9,13.3c14.4,18.7,41.6,51.8,69.5,39C621.3,545.8,577,505.9,563.9,494.4z"/>
		<path class="st6" d="M621.3,621.4c-0.9-8.2-1.5-16.4-2.2-24.6c-0.4-4.7-0.2-9.7-2.3-13.8c0.9-1.3,0.7-3.5-1.3-4.3
			c-31.3-12.4-55.5-35.2-76.4-60.6c-2.2-8.5-7.4-16.8-13-21.4c-2.9-2.4-9.2-5.9-15.8-7.9c-11.4-9.9-22.8-17.9-30.8-31.6
			c-8.8-15-12.1-32.4-10.7-49.6c0.3-3.4-2.5-6-5.4-7.1c-27.6-10.6-56.5-9.7-84.5-1.4c-1.9,0.6-3.2,1.6-4,2.8
			c-26.5,14-3.5,77.4,6.8,94.8c10.2,17.3,23.9,32.5,40.6,43.8c15.2,10.3,32.9,14.6,48.2,24.1c5.5,12.2,14.6,20.4,27.6,25.3
			c18.8,7,38.9,10.2,57.9,17c20.5,7.3,41.2,14.5,61.9,21.4c1.3,0.4,2.4-1.4,1.4-2.3c0,0-0.1,0-0.1-0.1
			C620.5,624.9,621.6,623.5,621.3,621.4z"/>
		<path class="st4" d="M462.1,400c-27.2-10.1-55.7-9.1-83.2-0.9c-1.9,0.6-3.2,1.6-4,2.8c-26.5,14-3.5,77.4,6.8,94.8
			c8.5,14.4,19.4,27.3,32.5,37.7c5.1-11.7,10.4-22.8,12.7-35.7c2.4-13.6-0.2-25.5-1.5-39c-1.1-11.7,2.6-19.5,9.4-28.8
			c6.4-8.8,11.6-20.1,21.6-24.5C458.1,404.1,460,402,462.1,400z"/>
		<path class="st7" d="M614.9,520.9c-27.5,3.5-29.2,42.8-31.9,64.6c-4,32.7,16.1,53.3,41.2,48.4c2.6-0.5,3.4-3.9,0.9-5.1
			c-8.3-4.2-16.2-6.9-21.8-14.9c-5.8-8.2-7.4-19.7-7.7-29.6c-0.6-22,3.9-41.9,22.4-55.2C621.6,526.5,619.4,520.3,614.9,520.9z"/>
		<path class="st8" d="M602.1,245.9c-27.1-12.7-64.5-17.1-91.8-2.3c-11.3,6.1-20.8,18.4-17,32c3.1,10.8,12.6,15.8,22.2,12.5
			c20.7,1.7,41.5,5,61.8,8.6c14.7,2.6,37,12,51.9,5.5C664.2,286.8,617.9,253.3,602.1,245.9z"/>
		<path class="st9" d="M488.1,338.1c10-15.4,15.3-33.4,25.7-48.8c7.7-11.3,26.6-25.5,26.5-40.6c0-12.8-11.9-16.7-22.1-19.4
			c-19.7-5.1-39.6-9.3-60.1-6.4c-37.4,5.2-54.2,32-67.4,64.5c-16.8,41.3-30.5,83.7-41.6,126.8c-0.3,1-0.3,2-0.3,2.9
			c-1.9,1.6-1.7,5.4,1.2,6c0.7,0.1,1.4,0.3,2,0.4c2.6,2.1,6.4,2.9,9.6,1.9c24.9,4.4,49,5.5,74.7,2.1c24.5-3.2,56.5-7.9,75.9-24.4
			c2.1-1.7,2.8-6,1.1-8.3C501.4,378.9,495.8,356.6,488.1,338.1z"/>
		<path class="st1" d="M440.9,273.8c-0.4-2.1-0.7-4.3-1.1-6.4c-2.5-12.9-5.3-24.8-5.1-37.3c-21.7,11.1-33.8,32.5-43.8,57.2
			c-16.8,41.3-30.5,83.7-41.6,126.8c-0.3,1-0.3,2-0.3,2.9c-1.9,1.6-1.7,5.4,1.2,6c0.7,0.1,1.4,0.3,2,0.4c2.6,2.1,6.4,2.9,9.6,1.9
			c24.9,4.4,49,5.5,74.7,2.1c2.2-0.3,4.4-0.6,6.7-0.9c0-12.3-0.5-24.6-0.8-36.9C441.3,351.3,444.7,312.1,440.9,273.8z"/>
		<path class="st9" d="M565.6,230.9c-22.9-3.3-101-16.6-118,4.5c-12.8,15.9,15.1,57.6,35.1,74c2.1,1.7,4.7,1.5,6.3,0.1
			c17.2,1.1,35.4,0.2,52.4-2.2c12.5-1.8,20.9-6.1,26.4-17.9c5.7-12.3,14-31.5,14.2-45C582.2,234,574.2,232.1,565.6,230.9z"/>
		<path class="st1" d="M499.2,231.3c-4-15.8-28.3-9.1-24.4,6.7c3.9,15.9-8.5,31.9-25.8,27.8c-11.9-2.8-16-16-26.6-19.9
			c-1.8-0.6-4.2,0.1-5.4,1.4c-7.8,8.4-2.3,21.7,4.1,29.5c8.6,10.4,22.6,15.7,36,15C488.1,290.1,506.4,260.1,499.2,231.3z"/>
		<path class="st6" d="M568.5,484.2c-1.7-1.5-3.4-3-5.2-4.4c1.4-3.2,2.2-6.6,1.9-10c-0.5-5.5-3.6-10.7-4.7-16.1
			c-1.7-8.2-1.4-16.4,0.2-24.5c3.6-11.3,7.9-22.3,11.9-33c10-26.3,26.6-61.4,9.8-88.2c-13.2-21.2-42.1-22.5-59.5-5.3
			c-16.9,16.8-20.6,50.2-10.6,71.9c-0.7,5.4-1.2,10.7-1.6,15.3c-2.2,25.3,0.5,50.7,4.9,75.6c0.3,1.5,0.5,3.3,0.8,5.3
			c-0.3,3.5-0.5,7.1-0.6,10.7c-0.3,6.8-2,15.4,0,21.9c1.6,5.2,6.3,7.6,11.7,8.3c2,2.7,4.5,4.7,7.5,5.7c5.5,1.9,13-0.7,15.5-5.4
			c4.1-0.6,7.8-2.6,10.5-5.5c7.7-1.1,17.4-3.8,15.9-11.6C576.2,490.1,571.8,487.1,568.5,484.2z"/>
		<path class="st10" d="M526.1,496.7c5.5,4.6,10.7,12.7,12.9,21.1c4.7,0,9.7-2.3,11.7-6c1.5-0.2,2.9-0.7,4.3-1.3
			c-3.1-2.1-5.9-4-8.2-5.6c-7.9-5.4-16.5-9.9-24.7-14.8c-1.8-1.1-4.1-2.3-6.4-3.6c-0.1,1.3-0.2,2.7-0.3,4
			C519.9,492.5,523.9,494.9,526.1,496.7z"/>
		<path class="st11" d="M646.8,277.8c-10.7-22.9-40.1-26.6-62-20.7c-17.2,4.7-33.7,14-48.6,25.2c-5.7,3.4-10.8,7-14.7,9.8
			c-7.6,5.5-15.8,12.6-22.6,20.6c-11.2,10.4-25.1,22.7-18.2,38.5c4.2,9.7,13,17.7,19,26.3c4.6,6.6,9,15.3,17.2,18
			c10,3.4,14-1.9,12-10.2c-1.2-4.9-7.5-10-9.9-14.9c-4.8-9.6-6.8-17.8-3.2-28.2c3.5-9.8,7.9-15.8,4.1-26.5c-0.3-0.8-0.7-1.5-1.1-2.1
			c31.4-22.6,64.2-5.2,98.7-1C638.7,315.4,657,299.7,646.8,277.8z"/>
		<path class="st11" d="M505.1,209.9c-4.2-27.6-29.8-76.4-62.8-47.4c-17.9,15.8-22.7,45.3-14.2,68.2c0.6,16.5,6.7,31.4,23.8,37
			C487.4,279.3,509.8,240.6,505.1,209.9z"/>
		<path class="st12" d="M511.2,178.6c-0.3-0.9-0.7-1.7-1.2-2.4c0,0,0,0,0.1,0c3.4-2.6,3.8-6.8,2.1-10.5c-1.1-2.4-3.5-4.2-6.3-5
			c1-3.1-0.2-6.3-3-8.1c-1.5-1-3.2-1.5-4.9-1.5c-0.5-1.7-1.6-3.3-3.3-4.6c-3.2-2.5-7.6-2.6-11-0.8c-3.5-3.8-10.2-3.6-14.6-1.6
			c-0.1,0-0.1,0.1-0.2,0.1c-0.9-0.6-1.9-1-3-1.3c-2.6-0.5-5.2,0.2-7.2,1.7c-0.7-0.5-1.4-0.9-2.1-1.2c-3-1.3-5.5-0.8-8.4,0.6
			c-1.7,0.8-2.9,2.5-3.4,4.4c-1.7,0.1-3.4,0.5-4.8,1.4c-2.7,1.5-3.8,4.2-3.6,6.9c-1,0-2.1,0.1-3,0.4c-2.8,0.8-5.2,3.7-5.1,6.7
			c0.1,1.5,0.6,2.7,1.3,3.7c-0.3,0.1-0.5,0.3-0.8,0.4c-2.9,0.9-5.4,3.3-5.5,6.3c-3.2,7-3,17.1-0.2,22.4c0.8,1.5,2.9,0.9,3.4-0.4
			c1.7-4.6,2.8-8.8,5.4-13c1.5-2.4,3.2-4.5,4.4-6.8c0.6,0.3,1.1,0.6,1.7,0.7c0.1,0,0.2,0,0.3,0c2.4,2.4,4.8,5.2,6.3,5.9
			c4.5,2.1,9.7,1.6,14.2-0.2c5.3-2.1,9.4-6.3,14.7-8.4c7.2-2.8,11.4-2.2,16.2,1.5c-0.1,0.5-0.2,0.9-0.1,1.4c1.2,7.9,4,15.4,4.8,23.3
			c0.7,7.6-0.8,21.2-2.5,25.7c-1.6,4.4-3.5,6.4-3.6,11.4c-0.1,6,2.9,11.1,2.7,17.3c-1.2,7.3,11.2,9.4,12.2,0.6c0.2-2,0.1-4-0.1-6
			c1.3-7.7,2.2-16.2,2.5-25c0.5-1.8,0.8-3.8,0.8-5.9c0-2.5-0.2-5.1-0.4-7.7c0.2-0.2,0.4-0.3,0.5-0.5c0.3-0.5,0.5-1,0.6-1.6
			c0.2-0.9,0-1.7-0.4-2.4c0.9-0.5,1.7-1.2,2.2-2.1c0.1-0.1,0.1-0.2,0.2-0.3c1.5-2.5,1.1-5.3-0.5-7.4c0,0,0,0,0,0
			c2.4-2.6,2-6.1,0-8.7c1.8-1.4,3.2-3.6,3-5.8c-0.3,2-0.3,1.7,0.1-0.8C511.6,180.3,511.4,179.4,511.2,178.6z"/>
		<path class="st8" d="M471.5,254.5c-0.6-8.8-3.1-17.7-6.2-25.9c-6.7-18.2-19.9-35.2-39.8-35.9c-2.7,12.6-1.9,26.2,2.5,38
			c0.6,16.5,6.7,31.4,23.8,37c7,2.3,13.5,2.6,19.3,1.4C471.2,264.3,471.8,259.4,471.5,254.5z"/>
		<path class="st13" d="M640.2,577.6c0-1.4,0.1-2.8,0.2-4.1c1.1-9.7,9.7-16.5,10.9-26c2.4-18.1-19-32.3-35.7-29.1
			c-18.6,3.5-21.6,27.3-22.3,42.7c-0.8,17.5-1.3,36.2,3.9,53.1c3.2,10.5,12.8,24.8,25.5,23.4c15.7-1.8,20.2-19.2,20.5-32.5
			C643.4,595.9,640.2,586.7,640.2,577.6z"/>
		<path class="st11" d="M517.8,203.4c-3.1-2.4-7-3-10.5-2c-0.6,0.1-1.2,0.1-1.9,0.3c-4.6,1.1-8.2,4.9-9.3,9.4
			c-2.6,9.8,7.2,18.7,16.7,15.8C522.6,223.9,526.3,210,517.8,203.4z"/>
		<path class="st8" d="M511.5,208.4c-6.4-1.9-11.5,8.1-9.7,13.2c1.3,3.6,6.1,3.7,7.4,0c0.6-1.7,0.6-3.4,1.5-4.9
			c0.9-1.6,2.4-3,2.7-4.9C513.7,210.4,513,208.9,511.5,208.4z"/>
	</g>
	<g>
		<path class="st11" d="M406.5,306.4c2.5-10.5-3.2-19.4-11.8-24.9c-4-2.6-8.4-5.1-12.9-7.2c-24.6-21.7-64.2-48.6-68.7-28.4
			c-1.1,4.8,1.9,8.8,4.7,12.2c8.1,9.9,17.9,20.5,27.5,29.3c7.6,7,16.5,16.6,26.4,22.2c3,4.9,7.4,8.7,13.3,10.2
			C394.8,322.3,404.2,316.3,406.5,306.4z"/>
		<path class="st8" d="M394.6,281.5c-4-2.6-8.4-5.1-12.9-7.2c-11.5-10.1-26.2-21.3-39.1-28.4c0.9,2.3,1.7,4.6,2.3,6.6
			c3.7,12,4.9,25,3,37.4c7,6.6,14.9,14.7,23.6,19.6c3,4.9,7.4,8.7,13.3,10.2c9.9,2.5,19.3-3.5,21.6-13.4
			C408.9,295.9,403.3,287,394.6,281.5z"/>
		<path class="st12" d="M382.9,263.2c-2.3-0.6-4.2-1.2-5.9-2.1c0.5-3.5-1-7.1-5.1-7.7c-2.7-0.4-5.1-0.5-7.8-0.5
			c-2.6,0-4.8,1.3-6.3,3.1c-1.9-4.5-2.8-9.8-3.3-13.9c-0.2-2-3.2-2.8-3.7-0.5c-2.9,12.1-2.5,22.1,4.9,32.5
			c7.3,10.4,21.6,9.3,30.7,2.2C391.2,272.7,388.2,264.5,382.9,263.2z"/>
		<path class="st11" d="M324.9,254c-2.1-2-4.3-4.1-6.4-6.1c5.4-2.1,9.4-8.1,6.3-13.8c-7.8-14.5-22.3-20.5-34.9-30.3
			c-5.8-4.6-11.9-8.6-18-12.4c-1.5-1.2-3.2-2.2-4.7-3.2c-3.6-2.7-7.2-5.4-10.7-8.2c-0.5-3-0.9-5.9-1.2-8.9c1.7-6,2-12.4,0.9-18.3
			c-1.5,2.2-2.9,4.4-4.4,6.7c-5.2,8.2-10.4,13.1-16.9,19c0.7,1.1,0.8,2.3,0.8,3.7c0,1.9,0.1,3.7,0.2,5.6c0,0.5-0.1,0.8-0.2,1.2
			c0.7,0.7,1.3,1.1,1.5,1.2c4.9,2.1,8.4,4.1,12.4,7.6c7.3,6.5,14.5,13.3,21.7,19.9c5.3,4.9,10.8,9.7,16.3,14.3
			c10.9,9.3,22.2,18.2,33.6,27C324.3,261.3,327.6,256.7,324.9,254z"/>
		<path class="st8" d="M258.3,205.5c2.7,0.8,5.4,1.6,8.2,2.3c-3.2-14.6-13.5-28.4-18.7-42.7c-3.9,5.1-8.1,8.9-12.9,13.3
			c0.7,1.1,0.8,2.3,0.8,3.7c0,1.9,0.1,3.7,0.2,5.6c0,0.5-0.1,0.8-0.2,1.2c0.7,0.7,1.3,1.1,1.5,1.2c4.9,2.1,8.4,4.1,12.4,7.6
			C252.5,200.2,255.4,202.9,258.3,205.5z"/>
		<path class="st11" d="M256,180.1c2.1-3,4.9-5.6,4.1-9.9c-0.4-2.1-1.8-4-2.9-6c-2.3-0.3-4.8,0.4-6.6,2.1c-1.9,1.8-2.6,4.2-2.4,6.5
			c-0.2,0.1-0.3,0.3-0.5,0.4c-1.2,1.2-1.6,2.5-2.5,3.8c-1.6,2.5-3.2,4.3-4,7.2c-0.4,1.3,1.1,2.7,2.4,1.9c2-1.2,4.1-3.3,6.2-4.1
			c1.2-0.4,2.4-0.5,3.5-1.1c0.6-0.3,1.3-0.6,1.9-0.9C255.5,180.1,255.7,180.1,256,180.1z"/>
		<path class="st11" d="M235.1,183.2c0,0,0-0.1,0-0.1c0.2,0,0.3-0.1,0.5-0.1c0.3-0.1,0.6-0.3,1-0.4c0.7-0.6,1.4-1.2,2.2-1.7
			c0.3-0.3,0.6-0.5,0.9-0.8c0.4-0.1,0.7-0.2,1.1-0.3c1.4-0.7,2.9-1.2,4.4-1.5c4.8-7.7,10.2-15.2,15.2-22.2c-2.9-5-8.5-8.3-13.5-3.6
			c-3.1,2.9-5.3,7.2-7.7,10.6c-0.9,1.4-1.9,2.7-2.8,4.1c-3.6,5.1-5.3,11.5-4.2,17.7c0,0,0,0.1,0,0.1c0.6-0.4,1.2,2.4,1.8,2.1
			C234.2,186.9,234.7,183.4,235.1,183.2z"/>
		<path class="st14" d="M265.4,140.4c-0.6-2-2.5-2.6-4.2-1.8c-8.2,3.3-11.4,15.7-15.5,23.1c-5,8.9-10.1,17.9-14.2,27.2
			c-1.2,2.7,2.8,4.8,4.7,2.9c7.7-7.6,14-16.7,19.5-26C259.8,158.7,267.9,149,265.4,140.4z"/>
		<path class="st11" d="M431.2,201.4c-21.6-13.4-47.4,16-55.1,33.3c-2.8,6.3-2.3,12.1-4.3,22.2c-2.7,13.4,7.1,14.8,7,35.1
			c0,17.5,36.1-6.5,44.3-21.7c1.1,0,2.3-0.4,2.9-1.5C434.6,254,451.4,214,431.2,201.4z"/>
		<path class="st8" d="M411,266.4c-11.7-9.7-24,0.6-34.5,10.9c1.3,2.8,2.3,9.6,2.2,14.7c0,15.3,27.5-1.1,39.9-15.6
			C416.6,272.6,414.2,269,411,266.4z"/>
		<path class="st12" d="M376.9,253c0.1-2.8-4-2.8-4.3-0.2c-1.4-0.7-3.3-0.3-3.9,1.3c-1.3,0.4-2.3,1.5-2.2,2.8
			c0.6,7.1,2.2,14,4.9,20.6c1.2,3,2.6,3.4,6.2,3.4C377.5,272.9,376.6,261,376.9,253z"/>
		<path class="st12" d="M441,274.2c-0.1,0.1-0.2,0.2-0.3,0.3c-5.2,4.2-7.1-1.9-5.8-5.9c6.2-19.4,16.3-44.5,6.1-64.2
			c-5.5-10.6-19.8-19.8-30.3-11c-1.5,1.3-0.8,4.5,1.3,4.8c3.6,0.5,12.4,1.5,14.1,2.7c5.8,4.2,9.4,12.3,9.6,19.2
			c0.5,13.9-3.4,30.1-11.5,41.5c-4,5.6-8.1,12-4.2,18.9c5.3,9.6,25.3,8,21.3-5.6C441.3,274.7,441.2,274.5,441,274.2z"/>
		<path class="st15" d="M302.3,415.6c18.6,2.8,41.5,4.6,56.3,12.5c1.3,0.7,2.6,1.5,3.9,2.2c1.4-2.4,2.7-4.8,4.1-7.1
			c1.3,3.9,2.6,7.8,3.9,11.7c4.8,2.9,9.4,6,13.9,9.3c-1.9-10-3.3-20.2-4.1-30.6c-0.3-4.2-0.4-8.6-0.7-12.9
			c6.3-11.2,12.5-22.4,18-34.2c12.2-25.9,23.4-52.3,32.4-79.5c3.1-9.5-7-12.4-14.4-13.1c-25-2.1-41.7,21.6-62,31.8
			c-12.5,6.3-20.4,6.4-30.8,15.9c-8.3,7.6-14.2,18-14.1,29.5c0.1,10.4,5.3,19.7,9.1,29.4C313.7,389.7,305.9,406.3,302.3,415.6z"/>
		<path class="st16" d="M427.4,294.7c-3.4-0.2-6.9-0.3-10.2-0.1c-17.1,1.1-33.4,11.8-45.1,25.5c-0.5,3.4-0.9,6.6-1.1,9.3
			c-1.2,12.6,0.1,24.4,7.9,34c4.5,2.2,7.7,7.5,4.6,13.2c-9.1,16.7-16.7,34.6-22.7,52.8c0.6,0.3,1.1,0.7,1.7,1
			c1.4-2.4,2.7-4.8,4.1-7.1c1.3,3.9,2.6,7.8,3.9,11.7c4.8,2.9,9.4,6,13.9,9.3c-1.9-10-3.3-20.2-4.1-30.6c-0.3-4.2-0.4-8.6-0.7-12.9
			c6.3-11.2,12.5-22.4,18-34.2C408.7,343.1,418.8,319.2,427.4,294.7z"/>
		<path class="st16" d="M328.4,380.4c3.2-1.4,6.3-2.7,9.5-4c1.8-0.7,6.7-1.6,7.6-3.2c3.5-5.8-3.4-8.9-6.9-10.9
			c-7-4.1-20.1-9-29.7-16c-0.2,1.6-0.4,3.2-0.3,4.8c0.1,10.4,5.3,19.7,9.1,29.4c-0.8,1.8-1.8,3.9-2.8,6.1
			C319.6,384.7,324.1,382.3,328.4,380.4z"/>
		<path class="st11" d="M371.9,445.1c-13.4-16.4-39.9-24.6-59.2-31.8c-17-6.3-35-12.6-53-12.6c-13.8-4.6-27.9-8.5-42.8-11.2
			c-14-2.6-29.4,0.6-23.1,18.8c14,40.6,61.9,64.4,100.7,72.9c19.4,4.3,48.6,11.6,67.6,3.4C378.6,477.7,383.4,459.1,371.9,445.1z"/>
		<path class="st8" d="M356.7,470.6c-28.4,6.1-59.7-38.4-80.4-56.2c-12-10.3-16,7-30.3-0.1c-11.4-5.7-31.6-13.3-42.2-2.7
			c-2.2,2.2-4,4.8-5.3,7.6c18,34.1,60.8,54.4,96,62.1c19.4,4.3,48.6,11.6,67.6,3.4c11-4.7,16.7-14.5,16-24.7
			C373.3,465.2,365.5,468.7,356.7,470.6z"/>
		<path class="st15" d="M379.8,429.8c-17.6-14-41.2-14.1-62.3-18c-26.5-4.9-52.6-12-78.9-18c-0.5-0.1-0.9,0.2-1,0.5
			c-1.1-0.2-2.2-0.5-3.3-0.7c-1.3-0.2-2.2,1.5-0.9,2.2c16.4,9.3,31.2,19,44.1,32.9c12.5,13.6,19.9,28.3,28.5,44.3
			c7.6,14.1,17.9,22.5,34.1,24.2c13,1.4,29-1.2,41-7.4c7.8-0.4,14.7-7.2,16.7-16.6C401.5,457.3,392,439.6,379.8,429.8z"/>
		<path class="st16" d="M379.8,429.8c-4.9-3.9-10.2-6.7-15.8-8.8c2.2,3.2,4.1,6.7,5.4,10.4c1.7,3.1,3.2,6.3,4.2,9.7
			c0.7,1.9,1.2,3.8,1.6,5.7c0.9,4.5,0.8,9.2-0.3,13.7c-0.3,1.4-0.6,2.7-1.1,4c-4.6,13.4-17.5,19.9-31,19.9
			c-11.1-0.1-24.2-3.9-36.2-10.2c7.6,13.5,17.7,21.6,33.5,23.2c13,1.4,29-1.2,41-7.4c7.8-0.4,14.7-7.2,16.7-16.6
			C401.5,457.3,392,439.6,379.8,429.8z"/>
		<path class="st11" d="M333,514c0.1-1-0.1-2.1-0.6-3c-6.7-10.7,1.5-25.2-7.2-35.2c-4.2-4.9-10-5.9-16.2-6.2
			c-11.5-0.5-21-1-31.7-6.1c-18.6-8.8-32.9-21.8-53.6-26.4c-18.6-4.1-40.4-4.5-58.3,2.9c-13.1,5.5-23.5,17.2-20.4,32.1
			c3.2,15.6,19,22.5,33.5,23.2c37.2,1.9,74.1,0,110.8,4.9c2.9,1.7,5.5,3.7,7.9,6.5c7.8,9.1,11,20.6,16.9,30.8
			c2.7,4.6,7.5,5.2,11.2,3.3c0.2,0.1,0.3,0.1,0.5,0.1c7.5-0.8,10.1-10.3,10.4-16.9C336.5,520.5,335,517.1,333,514z"/>
		<path class="st8" d="M305.9,497.2c-0.2-0.8-0.3-1.6-0.4-2.4c-1.7-3.8-3-7.9-4.6-11.5c-3.2-7.4-7.1-12.6-13.7-16.1
			c-3.2-0.8-6.5-2-9.9-3.5c-18.6-8.8-32.9-21.8-53.6-26.4c-6.2-1.4-12.7-2.3-19.3-2.7c-0.9,11.1,4.6,25,8.5,33.7
			c6.2,13.8,14.8,21.2,25.9,28.8c16.9,0.4,33.8,1.2,50.5,3.4c2.9,1.7,5.5,3.7,7.9,6.5c7.8,9.1,11,20.6,16.9,30.8
			c2.7,4.6,7.5,5.2,11.2,3.3c0.2,0.1,0.3,0.1,0.5,0.1c3.7-0.4,6.2-2.9,7.8-6.1C318.6,527.2,309.4,515,305.9,497.2z"/>
		<path class="st15" d="M170.6,452.7c7.7-1.7,15.3,1,23,0.2c8-0.8,44.8,2.9,49.8-3.4c0.1-0.2,2.7,0.2,2.8,0
			c0.7-2.2-30.2-13.3-30.7-15.7c-0.1-0.5-0.3-0.9-0.6-1.3c0.9-2.9,0.8-6.1-0.6-9c-0.8-1.6-3.7-1.3-4,0.5c0,0.3-0.1,0.6-0.2,0.9
			c-0.5-0.3-1-0.6-1.6-0.7c2.7-3,5.1-6.3,6.9-10.2c1.9-4.3-3.6-7.6-6.3-3.7c-13.1,18.6-40.2,19.8-60,26.9
			c-11.2,4-23.4,9.8-29.9,20.1c-15.8,25.1,32.5,46.7,52.1,35.8C152.1,485.5,144.6,458.5,170.6,452.7z"/>
		<path class="st16" d="M159.5,484.5c-15.5-6.1-29.7-14.7-39.9-27.6c-0.1,0.2-0.3,0.4-0.4,0.6c-15.8,25.1,32.5,46.7,52.1,35.8
			C166.5,491.3,162.5,488.2,159.5,484.5z"/>
		<path class="st16" d="M166,443.4c17.8,3,35.5,2.9,53.5,2.3c6.4-0.2,12.7-0.4,19-0.7c-9-4.1-22.8-9.6-23.1-11.2
			c-0.1-0.5-0.3-0.9-0.6-1.3c0.9-2.9,0.8-6.1-0.6-9c-0.8-1.6-3.7-1.3-4,0.5c0,0.3-0.1,0.6-0.2,0.9c-0.5-0.3-1-0.6-1.6-0.7
			c2.7-3,5.1-6.3,6.9-10.2c1.9-4.3-3.6-7.6-6.3-3.7c-13.1,18.6-40.2,19.8-60,26.9c-1.9,0.7-3.7,1.4-5.6,2.2
			C151,441.2,158.8,442.1,166,443.4z"/>
		<path class="st11" d="M301.8,562.4c0.3-0.3,0.4-0.8,0.4-1.2c8.4,3.7,18.4-0.3,20.8-10.7c4-17-21-25.3-45.7-86.9
			c-7.5-18.6-4.5-30-14.4-47.9c-9.6-17.3-7-14.2-25.3-21.3c-16.4-6.3-27.5-11.8-42.4-0.7c-15.1,11.3,3.4,37.2,13.9,48.9
			c32.9,36.3,65.3,75.6,88.4,119.1C298.9,561.9,300.4,562.1,301.8,562.4z"/>
		<path class="st8" d="M252.4,409.5c3.9,2.7,8.1,5.7,12.1,9c-0.5-0.9-1-1.9-1.5-2.9c-9.6-17.3-7-14.2-25.3-21.3
			c-14.3-5.5-24.5-10.3-36.7-4.3C219,386.1,238.2,399.9,252.4,409.5z"/>
		<path class="st11" d="M230.6,563.6c0,0.8,0.5,1.5,1.4,1.9c4.6,1.9,9.9,4,15.2,5.5c0.9-0.1,1.9-0.2,2.8-0.3
			c10.8-1.3,19.1-7,29.6-9.4c11.2-2.5,23.6,2.2,35,2.8c4.8-1.6,8.8-4.7,10.7-10.6c6.3-19.1-13.7-22.6-36.4-19.6
			c6.8-5.3,12.7-12.3,11.4-20.4c-0.6-3.9-4.9-8.3-9.3-6.1c-7.3,3.6-9.8,10.5-15.9,15.7c-7.1,6.1-15.6,10.9-23.8,15.3
			c-9.2,5-25.9,11.4-21.6,24.8C229.9,563.5,230.3,563.7,230.6,563.6z"/>
		<path class="st8" d="M250,570.7c10.8-1.3,19.1-7,29.6-9.4c11.2-2.5,23.6,2.2,35,2.8c4.8-1.6,8.8-4.7,10.7-10.6
			c1.9-5.7,1.4-10-0.8-13.2c-10.4-3.4-19.1-1.5-27.8,7.9c-5.1,5.5-11.6,2.4-19,4.3c-10.6,2.7-18.6,4.3-29,6.2
			c-5.6,1-9.7,4.5-13.7,8.1c3.8,1.5,7.9,3.1,12,4.2C248.1,570.9,249,570.8,250,570.7z"/>
		<path class="st11" d="M419.1,279.9c-8.8-6.2-19.2-4.3-27.6,1.6c-3.9,2.8-7.9,5.8-11.5,9.2c-29.3,14.7-69.2,41.3-52.2,53
			c4,2.8,8.9,1.5,13.1,0.2c12.2-3.8,25.8-8.9,37.5-14.5c9.3-4.4,21.6-9.1,30.5-16.1c5.6-1,10.8-3.6,14.4-8.5
			C429.5,296.7,427.4,285.7,419.1,279.9z"/>
		<path class="st11" d="M340,335.8c-2.7,1.2-5.4,2.4-8.1,3.6c0.1-5.8-3.9-11.7-10.4-11c-16.3,1.8-27.4,13-41.2,21
			c-15.8,9.1-29.1,20.7-44.2,30.8c-2.1,1.5-0.9,5.5,1.9,4.5c7.1-2.7,14.3-4.9,21.5-7.2c-3.4,2.2-6.8,4.5-10.1,6.8
			c-1.1,0.8-0.5,2.9,1,2.4c31.5-11,63.9-28.7,92.7-45.6C346.5,339.1,343.5,334.3,340,335.8z"/>
		<path class="st11" d="M265.7,368.8c-7.8-0.3-14.9,3.7-22.4,5.6c-3,0.7-6.1,1.4-9.2,1.9c-14.5-2.9-31,1.6-36.5,15.6
			c-0.6,1.5,1.1,2.8,2.5,2.5c7.6-2,13.9-5.6,22.1-5c8.1,0.6,14.1,4.9,20.9,9c4.8,3,12.6-0.8,12-6.9c-0.4-4.1,1.7-7.2,4-10.3
			c3.4-1.5,6.2-3.7,7.2-7.2c0.5-0.6,1-1.1,1.5-1.7C268.7,370.8,267.3,368.9,265.7,368.8z"/>
		<path class="st13" d="M434.3,197.3c-0.9-1.4-2.1-2.1-3.5-2.3c-0.3-0.4-0.5-0.7-0.9-1c-10.5-9.9-26.4-8.2-37,0.9
			c-4.7,4.1-8,9.1-10.7,14.4c-2.1,3.2-3.9,6.6-5.6,10c-1.8,3.8-7.7,22.3-14.8,25c-2.3-0.8-3.4-3.1-4.3-5.9c0.9-1.9-1.6-4-3.5-2.4
			c-13.5,11.7,4.5,26,17.7,20.9c9.1-3.5,14-12.2,16.9-21c2.6-8,5.4-15.1,9.7-21c7.9-0.9,15.8-4.2,22.2-8.9c0.7,0.3,1.4,0.5,2.1,0.7
			c0,0.1-0.1,0.2-0.1,0.4c-1.2,3.3-3.1,5.3-6.3,6.9c-1.8,0.9-1,3.9,1,3.8c4.7-0.3,9.2-2.3,12.8-5.3
			C433.8,209.3,437.1,201.8,434.3,197.3z"/>
		<path class="st8" d="M419.1,225.7c0.2-1.5-2.1-2-2.8-0.8c-2.2,3.7-4.5,8.3-4.1,12.7c0.4,4.9,7.9,5,7.7,0
			C419.8,233.6,418.7,229.9,419.1,225.7z"/>
		<g>
			<path class="st11" d="M386.3,233.7C386.3,233.7,386.3,233.7,386.3,233.7C385.7,233.2,385.2,232.9,386.3,233.7z"/>
			<path class="st11" d="M390.8,244c-0.1-0.4-0.3-0.7-0.4-1.1c0-0.1,0-0.1,0-0.1c0-0.1,0-0.2,0-0.2c-0.1-0.8-0.2-1.7-0.3-2.5
				c0.3,1.7,0.3,1.8,0,0.1c-0.3-2.5-1.5-4.7-3.5-6.2c-0.1-0.1-0.2-0.2-0.3-0.2c-1.4-1.1-2.9-1.6-4.6-1.6c-9-0.4-11.4,10.2-9.3,17
				c1.5,4.8,6.8,8.3,11.8,6.7C388.7,254.3,392.8,249,390.8,244z"/>
			<path class="st11" d="M386.3,233.7C386.3,233.7,386.3,233.7,386.3,233.7C386.9,234.2,387.7,234.8,386.3,233.7z"/>
		</g>
	</g>
	<path class="st11" d="M329.7,380c-3.7-4.6-13-8.2-17.2-10c-0.9-0.4-1.9-0.8-2.8-0.5c-1.3,0.4-2,2-1.8,3.4c0.2,1.4,1.1,2.6,1.9,3.7
		c-2.5,0.8-4.5,3-5.1,5.5c-0.6,2.6,0.3,5.4,2.3,7.2c-1.4-2.4-5.1-3-7.2-1.3c-2.1,1.8-2.2,5.5-0.1,7.3c-2.8-2.5-4.2,3.4-4.3,5.2
		c-0.4,6.1,6.6,15,13.4,12.7c2.2-0.8,3.8-3.5,2.8-5.6c1.8,0.6,4-0.1,5.2-1.5c1.2-1.5,1.4-3.7,0.5-5.4c1.9,1.3,4.7,0.4,6-1.4
		c1.3-1.9,1.3-4.4,0.6-6.5c-0.7-2.2-2.1-4-3.4-5.9c2.1,1.4,4.8,2.2,7.2,1.4c2.4-0.8,4.2-3.5,3.5-5.9
		C330.8,381.6,330.3,380.8,329.7,380z"/>
</g>
</svg>
