<?xml version="1.0" encoding="utf-8"?>
<!-- Generator: Adobe Illustrator 22.0.1, SVG Export Plug-In . SVG Version: 6.00 Build 0)  -->
<svg version="1.1" id="Layer_1" xmlns="http://www.w3.org/2000/svg" xmlns:xlink="http://www.w3.org/1999/xlink" x="0px" y="0px"
	 viewBox="0 0 100 100" style="enable-background:new 0 0 100 100;" xml:space="preserve">
<style type="text/css">
	.st0{fill:#F6B836;}
	.st1{fill:#4D4D4D;}
	.st2{fill:#B3D45E;}
	.st3{fill:#F15B4C;}
</style>
<title>Agriculture</title>
<path class="st0" d="M30.1,24.5c-2.2,8.3-3.3,16.8-3.3,25.3c-0.1,8.6,1,17.1,3.3,25.3c6.6,1.1,13.2,1.7,19.9,1.7s13.3-0.5,19.9-1.7
	c2.2-8.3,3.3-16.8,3.3-25.3c0.1-8.6-1-17.1-3.3-25.3C56.7,22.3,43.3,22.3,30.1,24.5z"/>
<ellipse transform="matrix(0.7071 -0.7071 0.7071 0.7071 5.762 58.165)" class="st0" cx="73.1" cy="22.1" rx="6.9" ry="3.1"/>
<ellipse transform="matrix(0.7071 -0.7071 0.7071 0.7071 -7.7375 25.5079)" class="st0" cx="26.9" cy="22.1" rx="3.1" ry="6.9"/>
<ellipse transform="matrix(0.7071 -0.7071 0.7071 0.7071 -33.6843 74.4904)" class="st0" cx="73.1" cy="77.9" rx="3.1" ry="6.9"/>
<ellipse transform="matrix(0.7071 -0.7071 0.7071 0.7071 -47.1837 41.8333)" class="st0" cx="26.9" cy="77.9" rx="6.9" ry="3.1"/>
<circle class="st1" cx="50" cy="49.5" r="14.9"/>
<rect x="49.2" y="48.7" class="st2" width="1.5" height="10.8"/>
<rect x="45.8" y="47.9" transform="matrix(0.7071 -0.7071 0.7071 0.7071 -24.0538 48.5366)" class="st2" width="1.5" height="10.8"/>
<rect x="48.3" y="52.5" transform="matrix(0.7071 -0.7071 0.7071 0.7071 -21.9404 53.5474)" class="st2" width="10.8" height="1.5"/>
<path class="st2" d="M53.2,45.2c0,3-3.2,5.5-3.2,5.5s-3.2-2.5-3.2-5.5s3.2-5.5,3.2-5.5S53.2,42.1,53.2,45.2z"/>
<path class="st2" d="M45.7,47.8c2.2,2.2,1.7,6.2,1.7,6.2s-4,0.5-6.2-1.7s-1.7-6.2-1.7-6.2S43.5,45.7,45.7,47.8z"/>
<path class="st2" d="M54.3,47.8C52.2,50,52.7,54,52.7,54s4,0.5,6.2-1.7s1.7-6.2,1.7-6.2S56.5,45.7,54.3,47.8z"/>
<path class="st3" d="M50,6c24.3,0,44,19.7,44,44S74.3,94,50,94S6,74.3,6,50S25.7,6,50,6 M50,0C22.4,0,0,22.4,0,50s22.4,50,50,50
	s50-22.4,50-50S77.6,0,50,0z"/>
<rect x="1.1" y="47" transform="matrix(0.7071 -0.7071 0.7071 0.7071 -20.7109 49.9991)" class="st3" width="97.8" height="6"/>
</svg>
