<?xml version="1.0" encoding="UTF-8"?>
<svg width="30px" height="30px" viewBox="0 0 30 30" version="1.1" xmlns="http://www.w3.org/2000/svg" xmlns:xlink="http://www.w3.org/1999/xlink">
    <!-- Generator: Sketch 45.1 (43504) - http://www.bohemiancoding.com/sketch -->
    <title>Y combinator</title>
    <desc>Created with Sketch.</desc>
    <defs></defs>
    <g id="Artboards" stroke="none" stroke-width="1" fill="none" fill-rule="evenodd">
        <g id="About-Us" transform="translate(-1704.000000, -3504.000000)" fill="#4E4E4E">
            <g id="Y-combinator" transform="translate(1704.000000, 3504.000000)">
                <path d="M0,0.56138605 L29.4059406,0.56138605 L29.4059406,30 L0,30 L0,0.56138605 Z M8.4980198,7.7079207 C8.4940396,7.93076427 8.56752772,8.14808011 8.70594059,8.32277219 C10.1910891,11.0940593 11.6524752,13.8683167 13.1435644,16.6396039 C13.3771871,17.0586088 13.4950842,17.5322464 13.4851485,18.0118811 C13.4643564,19.630693 13.4851485,21.2524752 13.4851485,22.871287 C13.4330228,23.1174563 13.4845931,23.3742326 13.6277228,23.5811851 C14.2512535,23.6222583 14.877098,23.6123286 15.4990099,23.551488 C15.5975851,23.3140662 15.6304158,23.054486 15.5940564,22.7999999 C15.5940594,21.2198019 15.5940594,19.6366336 15.5940594,18.0475247 C15.5818158,17.6099761 15.6842139,17.1768326 15.8910891,16.791089 C17.4039594,13.9732662 18.9069327,11.150495 20.4,8.32277219 C20.5502317,8.15469199 20.6148535,7.92687912 20.5752475,7.70495041 L18.4188119,7.70495041 L14.6019802,15.2643563 L10.8653465,7.7079207 L8.48910891,7.7079207 L8.4980198,7.7079207 Z" id="Page-1"></path>
            </g>
        </g>
    </g>
</svg>