<?xml version="1.0" encoding="UTF-8" standalone="no"?>
<svg xmlns:rdf="http://www.w3.org/1999/02/22-rdf-syntax-ns#" xmlns="http://www.w3.org/2000/svg" height="300" width="300" viewBox="0 0 24 24" version="1.1" xmlns:cc="http://creativecommons.org/ns#" xmlns:dc="http://purl.org/dc/elements/1.1/">
	<title>Week Calendar with Clock</title>
	<g transform="translate(0 -1028.4)">
		<g id="weekSheet">
			<path id="bottomShadow" d="m5 1032.4c-1.1046 0-2 0.9-2 2v14c0 1.1 0.8954 2 2 2h6 2 6c1.105 0 2-0.9 2-2v-14c0-1.1-0.895-2-2-2h-6-2-6z" fill="#bdc3c7"/>
			<path id="weekBkgrd" d="m5 3c-1.1046 0-2 0.8954-2 2v14c0 1.105 0.8954 2 2 2h6 2 6c1.105 0 2-0.895 2-2v-14c0-1.1046-0.895-2-2-2h-6-2-6z" transform="translate(0 1028.4)" fill="#ecf0f1"/>
			<path id="weekHead" d="m5 3c-1.1046 0-2 0.8954-2 2v3 1h18v-1-3c0-1.1046-0.895-2-2-2h-6-2-6z" transform="translate(0 1028.4)" fill="#e74c3c"/>
			<path id="holeLeft" d="m7 5.5a1.5 1.5 0 1 1 -3 0 1.5 1.5 0 1 1 3 0z" transform="translate(.5 1028.4)" fill="#c0392b"/>
			<path id="holeRight" d="m7 5.5a1.5 1.5 0 1 1 -3 0 1.5 1.5 0 1 1 3 0z" transform="translate(12.5 1028.4)" fill="#c0392b"/>
		</g>
		<g id="weekDays" fill="#bdc3c7">
			<path id="rowTop" d="m5 1039.4v2h2v-2h-2zm3 0v2h2v-2h-2zm3 0v2h2v-2h-2zm3 0v2h2v-2h-2zm3 0v2h2v-2h-2z"/>
			<path id="rowMiddle" d="m5 1042.4v2h2v-2h-2zm3 0v2h2v-2h-2zm3 0v2h2v-2h-2zm3 0v2h2v-2h-2zm3 0v2h2v-2h-2z"/>
			<path id="rowBottom" d="m5 1045.4v2h2v-2h-2zm3 0v2h2v-2h-2zm3 0v2h2v-2h-2zm3 0v2h2v-2h-2zm3 0v2h2v-2h-2z"/>
		</g>
		<g id="watch">
			<path id="watchBkgrd" d="m24 12a12 12 0 1 1 -24 0 12 12 0 1 1 24 0z" transform="matrix(.42014 0 0 .42014 13.458 1041.8)" fill="#34495e"/>
			<path id="watchBkgrdTop" d="m18.5 1041.8c-3.038 0-5.5 2.5-5.5 5.5h0.917c0-2.5 2.052-4.6 4.583-4.6s4.583 2.1 4.583 4.6h0.917c0-3-2.462-5.5-5.5-5.5z" fill="#2c3e50"/>
			<path id="handBig" d="m18.958 1046.4v0.9h0.459 2.75c0.253 0 0.458-0.2 0.458-0.4 0-0.3-0.205-0.5-0.458-0.5h-2.75-0.459z" fill="#bdc3c7"/>
			<path id="handSmall" d="m18.5 1043.7c-0.253 0-0.458 0.2-0.458 0.4v1.8 0.5h0.916v-0.5-1.8c0-0.2-0.205-0.4-0.458-0.4z" fill="#bdc3c7"/>
			<rect id="handSeconds" transform="rotate(-45)" height=".45833" width="3.2083" y="753.12" x="-730.83" fill="#c0392b"/>
			<path id="handsCircle" d="m18.5 1045.9c-0.506 0-0.917 0.5-0.917 1s0.411 0.9 0.917 0.9 0.917-0.4 0.917-0.9-0.411-1-0.917-1zm0 0.5c0.253 0 0.458 0.2 0.458 0.5 0 0.2-0.205 0.4-0.458 0.4s-0.458-0.2-0.458-0.4c0-0.3 0.205-0.5 0.458-0.5z" fill="#bdc3c7"/>
			<path id="outherCircle" d="m18.5 1041.4c-3.038 0-5.5 2.4-5.5 5.5 0 3 2.462 5.5 5.5 5.5s5.5-2.5 5.5-5.5c0-3.1-2.462-5.5-5.5-5.5zm0 0.9c2.531 0 4.583 2 4.583 4.6 0 2.5-2.052 4.5-4.583 4.5s-4.583-2-4.583-4.5c0-2.6 2.052-4.6 4.583-4.6z" fill="#95a5a6"/>
			<path id="handsCircleMiddle" d="m13 12a1 1 0 1 1 -2 0 1 1 0 1 1 2 0z" transform="matrix(.45833 0 0 .45833 13 1041.4)" fill="#2c3e50"/>
			<path id="handBigShadow" d="m19.293 1046.4c0.078 0.1 0.129 0.3 0.129 0.5 0 0.1-0.051 0.3-0.129 0.4h0.129 0.372c0.052-0.1 0.086-0.3 0.086-0.4 0-0.2-0.034-0.4-0.086-0.5h-0.372-0.129z" fill="#95a5a6"/>
		</g>
		<g id="binders">
			<path id="binderBottom" d="m6 1c-0.5523 0-1 0.4477-1 1v3c0 0.5523 0.4477 1 1 1s1-0.4477 1-1v-3c0-0.5523-0.4477-1-1-1zm12 0c-0.552 0-1 0.4477-1 1v3c0 0.5523 0.448 1 1 1s1-0.4477 1-1v-3c0-0.5523-0.448-1-1-1z" transform="translate(0 1028.4)" fill="#95a5a6"/>
			<path id="binderTop" d="m6 1029.4c-0.5523 0-1 0.4-1 1v2h2v-2c0-0.6-0.4477-1-1-1zm12 0c-0.552 0-1 0.4-1 1v2h2v-2c0-0.6-0.448-1-1-1z" fill="#bdc3c7"/>
		</g>
	</g>
</svg>
