<?xml version="1.0" encoding="UTF-8" standalone="no"?>
<!DOCTYPE svg PUBLIC "-//W3C//DTD SVG 1.0//EN" "http://www.w3.org/TR/2001/REC-SVG-20010904/DTD/svg10.dtd">
<!-- Generated by Microsoft Visio 11.0, SVG Export, v1.0 Sable_Crane.svg Page-1 -->
<svg xmlns="http://www.w3.org/2000/svg" xmlns:xlink="http://www.w3.org/1999/xlink" xmlns:ev="http://www.w3.org/2001/xml-events"
		xmlns:v="http://schemas.microsoft.com/visio/2003/SVGExtensions/" width="8.10521in" height="8.10521in"
		viewBox="0 0 583.575 583.575" xml:space="preserve" color-interpolation-filters="sRGB" class="st14">
	<title>Anetrorran Honors</title>
	<v:documentProperties v:langID="1033" v:viewMarkup="false"/>

	<style type="text/css">
	<![CDATA[
		.st1 {fill:#ffffff;stroke:none;stroke-linecap:round;stroke-linejoin:round;stroke-width:3}
		.st2 {fill:#ffcc00;stroke:#000000;stroke-linecap:round;stroke-linejoin:round;stroke-width:6}
		.st3 {fill:#000000;stroke:#000000;stroke-linecap:round;stroke-linejoin:round;stroke-width:0.24}
		.st4 {fill:#ffcc00;stroke:#000000;stroke-linecap:round;stroke-linejoin:round;stroke-width:1.5}
		.st5 {fill:#ff0000;stroke:#000000;stroke-linecap:round;stroke-linejoin:round;stroke-width:1.5}
		.st6 {fill:#000000;stroke:#000000;stroke-linecap:round;stroke-linejoin:round;stroke-width:1.5}
		.st7 {fill:#000000;stroke:#ffcc00;stroke-linecap:round;stroke-linejoin:round;stroke-width:0.75}
		.st8 {fill:#000000;stroke:#ffcc00;stroke-linecap:round;stroke-linejoin:round;stroke-width:3}
		.st9 {fill:#ffcc00;stroke:#000000;stroke-linecap:round;stroke-linejoin:round;stroke-width:3}
		.st10 {stroke:#ffcc00;stroke-linecap:round;stroke-linejoin:round;stroke-width:0.75}
		.st11 {fill:#ffcc00;stroke:none;stroke-linecap:round;stroke-linejoin:round;stroke-width:1.5}
		.st12 {fill:#000000;stroke:none;stroke-linecap:round;stroke-linejoin:round;stroke-width:1.5}
		.st13 {fill:#ffffff;stroke:none;stroke-linecap:round;stroke-linejoin:round;stroke-width:1.5}
		.st14 {fill:none;fill-rule:evenodd;font-size:12px;overflow:visible;stroke-linecap:square;stroke-miterlimit:3}
	]]>
	</style>

	<g v:mID="0" v:index="1" v:groupContext="foregroundPage">
		<title>Page-1</title>
		<v:pageProperties v:drawingScale="1" v:pageScale="1" v:drawingUnits="19" v:shadowOffsetX="9" v:shadowOffsetY="-9"/>
		<g id="group6-1" transform="translate(3,-3)" v:mID="6" v:groupContext="group">
			<title>Sheet.6</title>
			<g id="shape62-2" v:mID="62" v:groupContext="shape">
				<title>Circle.62</title>
				<v:userDefs>
					<v:ud v:nameU="visVersion" v:val="VT0(14):26"/>
				</v:userDefs>
				<path d="M0 294.79 A288.787 288.787 0 0 1 577.57 294.79 A288.788 288.788 0 1 1 -0 294.79 Z" class="st1"/>
			</g>
			<g id="shape2-4" v:mID="2" v:groupContext="shape" transform="translate(18.9,-18.9)">
				<title>Circle.109</title>
				<v:userDefs>
					<v:ud v:nameU="visVersion" v:val="VT0(14):26"/>
				</v:userDefs>
				<path d="M0 313.69 A269.887 269.887 0 0 1 539.77 313.69 A269.888 269.888 0 1 1 -0 313.69 Z" class="st2"/>
			</g>
			<g id="shape3-6" v:mID="3" v:groupContext="shape" transform="translate(108.338,-227.7)">
				<title>Black Star</title>
				<path d="M32.66 523.86 L0 523.86 L26.71 543.27 L13.01 553.22 L29.26 553.22 L19.4 583.58 L45.83 564.38 L51.22 580.98
							 L56.24 564.73 L82.19 583.58 L72.32 553.22 L89.43 553.22 L75.3 542.96 L101.59 523.86 L69.78 523.86 L74.83
							 508.31 L60.59 518.66 L50.79 486.96 L40.75 517.86 L27.61 508.31 L32.66 523.86 Z" class="st3"/>
			</g>
			<g id="group9-8" transform="translate(179.269,-216.525)" v:mID="9" v:groupContext="group">
				<title>Sheet.9</title>
				<g id="shape10-9" v:mID="10" v:groupContext="shape" transform="translate(590.362,517.089) rotate(93)">
					<title>Sheet.10</title>
					<path d="M50.8 466.28 A54.351 54.351 17.8 0 1 64.5 470.63 A179.573 179.573 0 0 1 53.97 529.22 A27.9061 27.9061
								 -180 0 0 40.75 547.22 A24.0649 24.0649 0 0 1 14.88 543.28 A7.57294 7.57294 -180 0 0 0.25 547.22
								 A8.80564 8.80564 -180 0 0 12.35 553.4 L26.69 556.22 L9.82 555.09 A7.65364 7.65364 -180 1 0 12.35
								 569.72 A18.6381 18.6381 0 0 1 23.32 565.22 A36.4855 36.4855 -90.96 0 0 39.63 560.72 A22.9088 22.9088
								 0 0 1 25.57 569.72 A6.80433 6.80433 -180 1 0 25 583.22 A4.79781 4.79781 -180 0 0 31.47 577.59 A6.38413
								 6.38413 0 0 1 37.94 572.53 A35.9673 35.9673 -180 0 0 58.47 555.65 A21.851 21.851 -180 0 0 75.35
								 555.65 A7.32609 7.32609 -180 1 0 72.82 543.84 A5.61246 5.61246 0 0 1 62.69 543.28 L64.38 527.53
								 A236.042 236.042 0.36 0 1 79.64 468.43 A11.8554 11.8554 -4.89 0 0 66.26 449.7 L49.43 450.86 A7.79743
								 7.79743 -177.55 0 0 50.8 466.28 Z" class="st4"/>
				</g>
				<g id="group18-11" transform="translate(579.536,501.229) rotate(93)" v:mID="18" v:groupContext="group">
					<title>Sheet.18</title>
					<g id="shape51-12" v:mID="51" v:groupContext="shape" transform="translate(411.344,125.661) rotate(45)">
						<title>Claw</title>
						<path d="M9.76 560.88 A12.4601 12.4601 -180 0 0 5.79 583.58 A9.75099 9.75099 0 0 1 12.32 568.26 A3.90794
									 3.90794 -180 0 0 9.76 560.88 Z" class="st5"/>
					</g>
					<g id="shape52-14" v:mID="52" v:groupContext="shape" transform="translate(127.063,-2.15878) rotate(12)">
						<title>Claw.45</title>
						<path d="M9.85 560.7 A12.5628 12.5628 -180 0 0 5.84 583.58 A9.83141 9.83141 0 0 1 12.42 568.13 A3.94018 3.94018
									 -180 0 0 9.85 560.7 Z" class="st5"/>
					</g>
					<g id="shape53-16" v:mID="53" v:groupContext="shape" transform="translate(142.162,13.9793) rotate(12)">
						<title>Claw.46</title>
						<path d="M10.9 558.25 A13.9083 13.9083 -180 0 0 6.47 583.58 A10.8844 10.8844 0 0 1 13.75 566.48 A4.36217
									 4.36217 -180 0 0 10.9 558.25 Z" class="st5"/>
					</g>
					<g id="shape54-18" v:mID="54" v:groupContext="shape"
							transform="translate(226.783,-5.7679) rotate(12) scale(-1,1)">
						<title>Claw.47</title>
						<path d="M11.32 557.27 A14.4439 14.4439 -180 0 0 6.72 583.58 A11.3035 11.3035 0 0 1 14.28 565.82 A4.53016
									 4.53016 -180 0 0 11.32 557.27 Z" class="st5"/>
					</g>
				</g>
			</g>
			<g id="shape33-20" v:mID="33" v:groupContext="shape" transform="translate(551.981,-167.444) rotate(30)">
				<title>Sheet.33</title>
				<path d="M0 487.95 A105.417 105.417 -180 0 0 28.69 555.45 A24.6023 24.6023 0 0 1 29.25 583.58 A18.3844 18.3844 -180
							 0 0 39.94 566.7 A19.5827 19.5827 -180 0 0 63 577.95 A18.9073 18.9073 0 0 1 48.09 564.45 A20.1734 20.1734
							 -180 0 0 66.66 570.08 A35.7302 35.7302 0 0 1 48.94 552.07 A15.4916 15.4916 -180 0 0 61.59 553.76 A30.3929
							 30.3929 0 0 1 49.5 537.45 A13.0506 13.0506 -180 0 0 64.41 541.95 A14.3154 14.3154 0 0 1 54 519.45 A33.8042
							 33.8042 -77.63 0 0 0 487.95 Z" class="st6"/>
			</g>
			<g id="group43-22" transform="translate(378.675,-192.45)" v:mID="43" v:groupContext="group">
				<title>Sheet.43</title>
				<g id="shape34-23" v:mID="34" v:groupContext="shape" transform="translate(29.3488,-97.7387)">
					<title>Sheet.34</title>
					<path d="M0.14 556.09 A47.7055 47.7055 5.67 0 1 58.46 583.58 A51.8717 51.8717 -179.61 0 0 4.5 566.15 A10.0126
								 10.0126 0 0 1 0.14 556.09 Z" class="st7"/>
				</g>
				<g id="shape42-25" v:mID="42" v:groupContext="shape" transform="translate(484.916,193.394) rotate(60)">
					<title>Sheet.42</title>
					<path d="M0.21 552.21 A69.1455 54.4534 0 0 1 84.73 583.58 A75.1841 59.2089 -180 0 0 6.52 563.68 A14.5125 11.4289
								 0 0 1 0.21 552.21 Z" class="st7"/>
				</g>
				<g id="shape41-27" v:mID="41" v:groupContext="shape" transform="translate(495.305,205.795) rotate(60)">
					<title>Sheet.41</title>
					<path d="M0.21 552.21 A69.1455 54.4534 0 0 1 84.73 583.58 A75.1841 59.2089 -180 0 0 6.52 563.68 A14.5125 11.4289
								 0 0 1 0.21 552.21 Z" class="st7"/>
				</g>
				<g id="shape40-29" v:mID="40" v:groupContext="shape" transform="translate(526.566,240.194) rotate(64)">
					<title>Sheet.40</title>
					<path d="M0.24 552.21 A79.4951 54.4534 0 0 1 97.42 583.58 A86.4375 59.2089 -180 0 0 7.5 563.68 A16.6847 11.4289
								 0 0 1 0.24 552.21 Z" class="st7"/>
				</g>
				<g id="shape39-31" v:mID="39" v:groupContext="shape" transform="translate(489.597,166.091) rotate(55)">
					<title>Sheet.39</title>
					<path d="M0.21 552.21 A69.1455 54.4534 0 0 1 84.73 583.57 A75.1841 59.2089 -180 0 0 6.52 563.68 A14.5125 11.4289
								 0 0 1 0.21 552.21 Z" class="st7"/>
				</g>
				<g id="shape38-33" v:mID="38" v:groupContext="shape" transform="translate(463.711,122.436) rotate(50)">
					<title>Sheet.38</title>
					<path d="M0.21 552.21 A69.1455 54.4534 0 0 1 84.73 583.57 A75.1841 59.2089 -180 0 0 6.52 563.68 A14.5125 11.4289
								 0 0 1 0.21 552.21 Z" class="st7"/>
				</g>
				<g id="shape37-35" v:mID="37" v:groupContext="shape" transform="translate(400.148,55.9052) rotate(40)">
					<title>Sheet.37</title>
					<path d="M0.19 552.21 A62.3768 54.4534 0 0 1 76.44 583.58 A67.8242 59.2089 -180 0 0 5.89 563.68 A13.0919 11.4289
								 0 0 1 0.19 552.21 Z" class="st7"/>
				</g>
				<g id="shape36-37" v:mID="36" v:groupContext="shape" transform="translate(315.966,-11.1883) rotate(30)">
					<title>Sheet.36</title>
					<path d="M0.19 552.21 A62.3768 54.4534 0 0 1 76.44 583.58 A67.8242 59.2089 -180 0 0 5.89 563.68 A13.0919 11.4289
								 0 0 1 0.19 552.21 Z" class="st7"/>
				</g>
				<g id="shape35-39" v:mID="35" v:groupContext="shape" transform="translate(81.8325,-86.5368) rotate(5)">
					<title>Sheet.35</title>
					<path d="M0.14 556.09 A47.7055 47.7055 5.45 0 1 58.46 583.58 A51.8717 51.8717 -179.61 0 0 4.5 566.15 A10.0126
								 10.0126 0 0 1 0.14 556.09 Z" class="st7"/>
				</g>
			</g>
			<g id="shape31-41" v:mID="31" v:groupContext="shape" transform="translate(252.23,-301.312)">
				<title>Sheet.31</title>
				<path d="M12.82 540.11 A22.9005 22.9005 -180 0 0 28.57 582.86 L12.82 540.11 Z" class="st6"/>
			</g>
			<g id="group15-43" transform="translate(261.874,-255.812)" v:mID="15" v:groupContext="group">
				<title>Sheet.15</title>
				<g id="shape60-44" v:mID="60" v:groupContext="shape">
					<title>Sheet.60</title>
					<path d="M12.99 450.53 A91.9462 91.9462 -180 0 0 2.61 474.36 A87.9339 87.9339 -180 0 0 154.49 553.11 A179.779
								 179.779 -180 0 0 55.49 477.74 A18.058 18.058 0 0 1 57.74 454.11 L85.86 427.11 A66.1368 66.1368 -89.24
								 0 0 109.49 356.24 A19.5713 19.5713 -82.58 0 0 77.8 351.8 A47.3887 47.3887 0 0 1 76.86 414.74 A193.572
								 193.572 0 0 1 12.99 450.53 Z" class="st8"/>
				</g>
				<g id="shape61-46" v:mID="61" v:groupContext="shape" transform="translate(14.4261,-131.432)">
					<title>Sheet.61</title>
					<path d="M0 583.58 A199.145 199.145 -180 0 0 65.42 546.24 A47.3887 47.3887 -180 0 0 66.35 483.3 A16.8737 16.8737
								 -67.8 0 0 58.22 494.98 A31.4161 31.4161 175.48 0 1 45.17 545.11 A92.3714 92.3714 -179.53 0 0 -0
								 583.58 Z" class="st9"/>
				</g>
			</g>
			<g id="group17-48" transform="translate(281.963,-278.4)" v:mID="17" v:groupContext="group">
				<title>Sheet.17</title>
				<g id="shape19-49" v:mID="19" v:groupContext="shape" transform="translate(-5.9952E-015,-77.0626)">
					<title>Sheet.19</title>
					<path d="M25.56 547.58 A14.5024 14.5024 45 0 1 24.85 562.48 A10.3889 10.3889 45 0 1 19.79 556.58 A14.6748 14.6748
								 45 0 1 18.24 571.2 A7.59293 7.59293 0 0 1 13.6 565.58 A23.2673 23.2673 177.33 0 1 11.49 578.51 A18.5897
								 18.5897 0 0 1 7.42 571.76 A16.4744 16.4744 0 0 1 4.6 583.58 A7.1298 7.1298 0 0 1 0.1 575.7"
							class="st10"/>
				</g>
				<g id="shape20-52" v:mID="20" v:groupContext="shape" transform="translate(10.6499,0)">
					<title>Sheet.20</title>
					<path d="M0.28 546.45 A24.4799 24.4799 85.35 0 1 16.03 561.07 A19.5094 19.5094 88.69 0 1 3.94 559.95 A30.5904
								 30.5904 96.28 0 1 18.56 572.32 A20.2987 20.2987 92.86 0 1 6.47 570.64 A14.511 14.511 0 0 1 14.06
								 583.57 A14.7534 14.7534 0 0 1 0 573.45" class="st10"/>
				</g>
			</g>
			<g id="group5-55" transform="translate(253.237,-458.681)" v:mID="5" v:groupContext="group">
				<title>Sheet.5</title>
				<g id="shape59-56" v:mID="59" v:groupContext="shape" transform="translate(61.8053,0)">
					<title>Sheet.59</title>
					<path d="M50.75 559.74 A89.0436 67.6932 143.13 0 1 42.96 539.98 A16.291 16.291 -180 0 0 34.84 526.57 A42.6017
								 42.6017 -180 0 0 33.52 525.16 A109.07 109.07 1.96 0 1 30.44 522.82 A20.9331 20.9331 -180 0 0 2.04
								 529.86 A29.5566 29.5566 -180 0 0 18.63 568.11 A9.21312 9.21312 -180 0 0 29.88 568.95 A13.7927 13.7927
								 -180 0 0 34.38 583.58 A19.3078 19.3078 -180 0 0 36.49 569.79 A24.0267 24.0267 -180 0 0 43.24 578.23
								 A14.5856 14.5856 -180 0 0 41.14 562.08 A10.0626 10.0626 88.49 0 1 40.99 561.92 A14.5856 14.5856
								 0 0 1 41.14 562.08 A10.0626 10.0626 -91.51 0 0 49.71 565.29 A18.4419 18.4419 -92.94 0 0 46.48 555.73
								 A38.0357 38.0357 -96.01 0 0 50.75 559.74 Z" class="st7"/>
				</g>
				<g id="group14-58" transform="translate(0,-5.20313)" v:mID="14" v:groupContext="group">
					<title>Sheet.14</title>
					<g id="shape13-59" v:mID="13" v:groupContext="shape" transform="translate(-15.525,-4.34473)">
						<title>Sheet.13</title>
						<path d="M95.7 560.91 A82.9817 82.9817 -93.81 0 0 24.47 571.88 A26.3254 26.3254 95.15 0 1 -0 574.13 A21.2507
									 21.2507 -98.65 0 0 27.77 581.02 A77.8044 77.8044 90.78 0 1 95.4 576.71 A24.1311 24.1311 -90.46
									 0 0 95.7 560.91 Z" class="st5"/>
					</g>
					<g id="shape11-61" v:mID="11" v:groupContext="shape" transform="translate(1.82813,0)">
						<title>Sheet.11</title>
						<path d="M63.65 534.63 A13.8938 13.8938 -85.15 0 0 69.75 553.2 A19.6925 19.6925 0 0 1 84.94 568.39 A8.70537
									 8.70537 69.97 0 1 75.46 579.91 A60.4565 60.4565 -86.11 0 0 33.83 580.47 L16.31 583.58 A33.093
									 33.093 91.29 0 1 30.66 571.2 A54.0026 54.0026 90.23 0 1 76.22 568.39 A11.2578 11.2578 -180 0
									 0 68.62 559.39 L9.56 557.14 A16.3452 16.3452 -180 0 0 -0 559.39 A9.98139 9.98139 0 0 1 9.56
									 550.39 A140.478 140.478 0 0 1 41.91 545.89 A20.1011 20.1011 -180 0 0 54 538.01 A13.5575 13.5575
									 0 0 1 63.65 534.63 Z" class="st4"/>
					</g>
					<g id="shape12-63" v:mID="12" v:groupContext="shape" transform="translate(-105.947,-11.2899) rotate(-15)">
						<title>Sheet.12</title>
						<path d="M0 583.56 L10.69 583.56 A1.70316 1.70316 -180 1 0 10.69 580.18 A1.73879 1.73879 -180 0 0 10.65 583.56
									 L0 583.56 Z" class="st6"/>
					</g>
				</g>
				<g id="shape16-65" v:mID="16" v:groupContext="shape" transform="translate(91.793,-16.5938)">
					<title>Sheet.16</title>
					<path d="M17.69 575.21 A38.0357 38.0357 -95.48 0 0 48.01 583.01 A113.616 113.616 14.77 0 1 23.78 566.13 A23.1215
								 23.1215 -16.57 0 0 55.04 559.95 A33.7406 33.7406 6.99 0 1 23.26 556.57 A20.3613 20.3613 -97.63 0
								 0 44.64 533.51 A28.4518 28.4518 90.72 0 1 8.35 545.89 A107.56 107.56 173.92 0 1 0 541.67 A23.0321
								 23.0321 135 0 1 9.9 555.45 A89.0436 67.6932 -36.87 0 0 17.69 575.21 Z" class="st4"/>
				</g>
				<g id="group1-67" transform="translate(75.3188,-38.9625)" v:mID="1" v:groupContext="group">
					<title>Sheet.1</title>
					<g id="shape66-68" v:mID="66" v:groupContext="shape" transform="translate(-566.278,583.575) rotate(-90)">
						<title>Circle.7</title>
						<v:userDefs>
							<v:ud v:nameU="visVersion" v:val="VT0(14):26"/>
						</v:userDefs>
						<path d="M0 574.93 A8.64844 8.64844 0 0 1 17.3 574.93 A8.64844 8.64844 0 1 1 0 574.93 Z" class="st11"/>
					</g>
					<g id="shape7-70" v:mID="7" v:groupContext="shape" transform="translate(-570.428,579.425) rotate(-90)">
						<title>Circle.109.7</title>
						<v:userDefs>
							<v:ud v:nameU="visVersion" v:val="VT0(14):26"/>
						</v:userDefs>
						<path d="M0 579.08 A4.49845 4.49845 0 1 1 9 579.08 A4.49845 4.49845 0 1 1 -0 579.08 Z" class="st12"/>
					</g>
					<g id="shape8-72" v:mID="8" v:groupContext="shape" transform="translate(-573.899,576.041) rotate(-90)">
						<title>Circle.8</title>
						<v:userDefs>
							<v:ud v:nameU="visVersion" v:val="VT0(14):26"/>
						</v:userDefs>
						<path d="M0 581.47 A2.10345 2.10345 0 1 1 4.21 581.47 A2.10345 2.10345 0 0 1 -0 581.47 Z" class="st13"/>
					</g>
				</g>
			</g>
			<g id="group44-74" transform="translate(280.613,-59.4)" v:mID="44" v:groupContext="group">
				<title>Sheet.44</title>
				<g id="shape45-75" v:mID="45" v:groupContext="shape" transform="translate(15.272,-11.6415)">
					<title>Sheet.45</title>
					<path d="M58.75 423.47 A179.573 179.573 0 0 1 53.97 529.22 A27.9061 27.9061 -180 0 0 40.75 547.22 A24.0649 24.0649
								 0 0 1 14.88 543.28 A7.57294 7.57294 -180 0 0 0.25 547.22 A8.80564 8.80564 -180 0 0 12.35 553.4 L26.69
								 556.22 L9.82 555.09 A7.65364 7.65364 -180 1 0 12.35 569.72 A18.6381 18.6381 0 0 1 23.32 565.22 A36.4855
								 36.4855 -90.65 0 0 39.63 560.72 A22.9088 22.9088 0 0 1 25.57 569.72 A6.80433 6.80433 -180 1 0 25
								 583.22 A4.79781 4.79781 -180 0 0 31.47 577.59 A6.38413 6.38413 0 0 1 37.94 572.53 A35.9673 35.9673
								 -180 0 0 58.47 555.65 A21.851 21.851 -180 0 0 75.35 555.65 A7.32609 7.32609 -180 1 0 72.82 543.84
								 A5.61246 5.61246 0 0 1 62.69 543.28 L64.38 527.53 A262.347 262.347 0 0 1 82.94 462.28 A19.7757 19.7757
								 -180 0 0 77.6 442.03 L69.44 416.72 A6.36763 6.36763 -180 0 0 58.75 423.47 Z" class="st4"/>
				</g>
				<g id="group46-77" v:mID="46" v:groupContext="group">
					<title>Sheet.46</title>
					<g id="shape47-78" v:mID="47" v:groupContext="shape" transform="translate(407.314,123.742) rotate(45)">
						<title>Claw</title>
						<path d="M10.4 559.4 A13.2742 13.2742 -180 0 0 6.17 583.58 A10.3881 10.3881 0 0 1 13.12 567.26 A4.16329 4.16329
									 -180 0 0 10.4 559.4 Z" class="st5"/>
					</g>
					<g id="shape48-80" v:mID="48" v:groupContext="shape" transform="translate(294.75,56.0632) rotate(30)">
						<title>Claw.45</title>
						<path d="M9.19 562.22 A11.7261 11.7261 -180 0 0 5.45 583.58 A9.17663 9.17663 0 0 1 11.59 569.16 A3.67776
									 3.67776 -180 0 0 9.19 562.22 Z" class="st5"/>
					</g>
					<g id="shape49-82" v:mID="49" v:groupContext="shape" transform="translate(175.949,16.8172) rotate(15)">
						<title>Claw.46</title>
						<path d="M8.98 562.7 A11.4612 11.4612 -180 0 0 5.33 583.58 A8.96928 8.96928 0 0 1 11.33 569.49 A3.59466 3.59466
									 -180 0 0 8.98 562.7 Z" class="st5"/>
					</g>
					<g id="shape50-84" v:mID="50" v:groupContext="shape"
							transform="translate(-178.206,40.7152) rotate(-30) scale(-1,1)">
						<title>Claw.47</title>
						<path d="M9.31 561.94 A11.8811 11.8811 -180 0 0 5.52 583.58 A9.29789 9.29789 0 0 1 11.75 568.97 A3.72635
									 3.72635 -180 0 0 9.31 561.94 Z" class="st5"/>
					</g>
				</g>
			</g>
			<g id="shape32-86" v:mID="32" v:groupContext="shape" transform="translate(321.863,-203.025)">
				<title>Sheet.32</title>
				<path d="M0 487.95 A105.417 105.417 -180 0 0 28.69 555.45 A24.6023 24.6023 0 0 1 29.25 583.58 A18.3844 18.3844 -180
							 0 0 39.94 566.7 A19.5827 19.5827 -180 0 0 63 577.95 A18.9073 18.9073 0 0 1 48.09 564.45 A20.1734 20.1734
							 -180 0 0 66.66 570.08 A35.7302 35.7302 0 0 1 48.94 552.07 A15.4916 15.4916 -180 0 0 61.59 553.76 A30.3929
							 30.3929 0 0 1 49.5 537.45 A13.0506 13.0506 -180 0 0 64.41 541.95 A14.3154 14.3154 0 0 1 54 519.45 A33.8042
							 33.8042 -77.63 0 0 0 487.95 Z" class="st6"/>
			</g>
			<g id="group74-88" transform="translate(300.421,-279.203)" v:mID="74" v:groupContext="group">
				<title>Sheet.74</title>
				<g id="group29-89" v:mID="29" v:groupContext="group">
					<title>Sheet.29</title>
					<g id="shape28-90" v:mID="28" v:groupContext="shape" transform="translate(26.5983,-8.66715)">
						<title>Sheet.28</title>
						<path d="M28.59 513.73 A131.812 131.812 0 0 1 104.81 583.48 A124.728 124.728 0 0 1 0.47 533.98 A18.8175 18.8175
									 0 0 1 28.59 513.73 Z" class="st8"/>
					</g>
					<g id="shape22-92" v:mID="22" v:groupContext="shape" transform="translate(16.4043,-44.702)">
						<title>Sheet.22</title>
						<path d="M0.82 561.02 A16.2292 16.2292 0 0 1 13.19 546.39 A33.198 33.198 0 0 1 42.72 550.33 A4.08371 4.08371
									 0 0 1 39.07 557.08 A3.7073 3.7073 0 0 1 36.54 563.83 A4.60111 4.60111 0 0 1 30.35 569.46 A4.54373
									 4.54373 178.33 0 1 24.44 571.71 A5.62068 5.62068 6.13 0 1 17.97 579.02 A4.06166 4.06166 92.1
									 0 1 11.79 582.96 A17.6242 17.6242 0 0 1 0.82 561.02 Z" class="st8"/>
					</g>
					<g id="shape23-94" v:mID="23" v:groupContext="shape" transform="translate(46.7539,0)">
						<title>Sheet.23</title>
						<path d="M15.47 581 A127.991 127.991 -180 0 0 86.06 575.38 A32.325 32.325 -180 0 0 58.22 570.88 A164.938
									 164.938 0 0 1 -0 565.82 A23.5776 23.5776 -180 0 0 15.47 581 Z" class="st8"/>
					</g>
					<g id="shape24-96" v:mID="24" v:groupContext="shape" transform="translate(32.1289,-9.88402)">
						<title>Sheet.24</title>
						<path d="M15.47 581 A127.991 127.991 -180 0 0 86.06 575.38 A32.325 32.325 -180 0 0 58.22 570.88 A164.938
									 164.938 0 0 1 -0 565.82 A23.5776 23.5776 -180 0 0 15.47 581 Z" class="st8"/>
					</g>
					<g id="shape25-98" v:mID="25" v:groupContext="shape" transform="translate(16.9414,-19.7278)">
						<title>Sheet.25</title>
						<path d="M15.47 581 A127.991 127.991 -180 0 0 86.06 575.38 A32.325 32.325 -180 0 0 58.22 570.88 A164.938
									 164.938 0 0 1 -0 565.82 A23.5776 23.5776 -180 0 0 15.47 581 Z" class="st8"/>
					</g>
					<g id="shape26-100" v:mID="26" v:groupContext="shape" transform="translate(2.78514,-29.5715)">
						<title>Sheet.26</title>
						<path d="M15.47 581 A127.991 127.991 -180 0 0 86.06 575.38 A32.325 32.325 -180 0 0 58.22 570.88 A164.938
									 164.938 0 0 1 -0 565.82 A23.5776 23.5776 -180 0 0 15.47 581 Z" class="st8"/>
					</g>
					<g id="shape27-102" v:mID="27" v:groupContext="shape" transform="translate(8.00177,-38.5557)">
						<title>Sheet.27</title>
						<path d="M3.6 582.43 A102.023 102.023 -2.9 0 0 59.56 575.08 A32.325 32.325 -180 0 0 31.72 570.58 A88.9225
									 88.9225 174.3 0 1 0.22 571.18 A12.7745 12.7745 -163.61 0 0 3.6 582.43 Z" class="st8"/>
					</g>
					<g id="shape21-104" v:mID="21" v:groupContext="shape" transform="translate(1.59872E-014,-1.44652)">
						<title>Sheet.21</title>
						<path d="M14.41 518.33 A5.99469 5.99469 0 0 1 9.07 527.33 A13.4384 13.4384 -180 0 0 2.32 547.58 A97.4056
									 97.4056 -180 0 0 64.47 583.58 A6.66369 6.66369 -180 0 0 57.16 575.7 A7.56915 7.56915 -180 0
									 0 50.13 567.83 A7.66637 7.66637 -180 0 0 41.69 560.51 A4.83011 4.83011 -180 0 0 36.91 553.2
									 A5.34203 5.34203 -180 0 0 30.44 546.45 A4.79447 4.79447 -180 0 0 24.54 539.7 A4.69909 4.69909
									 -180 0 0 20.04 531.83 A11.4401 11.4401 -180 0 0 14.41 518.33 Z" class="st8"/>
					</g>
				</g>
				<g id="group64-106" v:mID="64" v:groupContext="group">
					<title>Sheet.64</title>
					<g id="shape65-107" v:mID="65" v:groupContext="shape" transform="translate(26.5983,-8.66715)">
						<title>Sheet.65</title>
						<path d="M28.59 513.73 A131.812 131.812 0 0 1 104.81 583.48 A124.728 124.728 0 0 1 0.47 533.98 A18.8175 18.8175
									 0 0 1 28.59 513.73 Z" class="st7"/>
					</g>
					<g id="shape67-109" v:mID="67" v:groupContext="shape" transform="translate(16.4043,-44.702)">
						<title>Sheet.67</title>
						<path d="M0.82 561.02 A16.2292 16.2292 0 0 1 13.19 546.39 A33.198 33.198 0 0 1 42.72 550.33 A4.08371 4.08371
									 0 0 1 39.07 557.08 A3.7073 3.7073 0 0 1 36.54 563.83 A4.60111 4.60111 0 0 1 30.35 569.46 A4.54373
									 4.54373 178.33 0 1 24.44 571.71 A5.62068 5.62068 6.13 0 1 17.97 579.02 A4.06166 4.06166 92.1
									 0 1 11.79 582.96 A17.6242 17.6242 0 0 1 0.82 561.02 Z" class="st7"/>
					</g>
					<g id="shape68-111" v:mID="68" v:groupContext="shape" transform="translate(46.7539,0)">
						<title>Sheet.68</title>
						<path d="M15.47 581 A127.991 127.991 -180 0 0 86.06 575.38 A32.325 32.325 -180 0 0 58.22 570.88 A164.938
									 164.938 0 0 1 -0 565.82 A23.5776 23.5776 -180 0 0 15.47 581 Z" class="st7"/>
					</g>
					<g id="shape69-113" v:mID="69" v:groupContext="shape" transform="translate(32.1289,-9.88402)">
						<title>Sheet.69</title>
						<path d="M15.47 581 A127.991 127.991 -180 0 0 86.06 575.38 A32.325 32.325 -180 0 0 58.22 570.88 A164.938
									 164.938 0 0 1 -0 565.82 A23.5776 23.5776 -180 0 0 15.47 581 Z" class="st7"/>
					</g>
					<g id="shape70-115" v:mID="70" v:groupContext="shape" transform="translate(16.9414,-19.7278)">
						<title>Sheet.70</title>
						<path d="M15.47 581 A127.991 127.991 -180 0 0 86.06 575.38 A32.325 32.325 -180 0 0 58.22 570.88 A164.938
									 164.938 0 0 1 -0 565.82 A23.5776 23.5776 -180 0 0 15.47 581 Z" class="st7"/>
					</g>
					<g id="shape71-117" v:mID="71" v:groupContext="shape" transform="translate(2.78514,-29.5715)">
						<title>Sheet.71</title>
						<path d="M15.47 581 A127.991 127.991 -180 0 0 86.06 575.38 A32.325 32.325 -180 0 0 58.22 570.88 A164.938
									 164.938 0 0 1 -0 565.82 A23.5776 23.5776 -180 0 0 15.47 581 Z" class="st7"/>
					</g>
					<g id="shape72-119" v:mID="72" v:groupContext="shape" transform="translate(8.00177,-38.5557)">
						<title>Sheet.72</title>
						<path d="M3.6 582.43 A102.023 102.023 -2.9 0 0 59.56 575.08 A32.325 32.325 -180 0 0 31.72 570.58 A88.9225
									 88.9225 174.3 0 1 0.22 571.18 A12.7745 12.7745 -163.61 0 0 3.6 582.43 Z" class="st7"/>
					</g>
					<g id="shape73-121" v:mID="73" v:groupContext="shape" transform="translate(1.59872E-014,-1.44652)">
						<title>Sheet.73</title>
						<path d="M14.41 518.33 A5.99469 5.99469 0 0 1 9.07 527.33 A13.4384 13.4384 -180 0 0 2.32 547.58 A97.4056
									 97.4056 -180 0 0 64.47 583.58 A6.66369 6.66369 -180 0 0 57.16 575.7 A7.56915 7.56915 -180 0
									 0 50.13 567.83 A7.66637 7.66637 -180 0 0 41.69 560.51 A4.83011 4.83011 -180 0 0 36.91 553.2
									 A5.34203 5.34203 -180 0 0 30.44 546.45 A4.79447 4.79447 -180 0 0 24.54 539.7 A4.69909 4.69909
									 -180 0 0 20.04 531.83 A11.4401 11.4401 -180 0 0 14.41 518.33 Z" class="st7"/>
					</g>
				</g>
			</g>
		</g>
	</g>
</svg>
