<?xml version="1.0" encoding="UTF-8" standalone="no"?>
<!DOCTYPE svg PUBLIC "-//W3C//DTD SVG 1.0//EN" "http://www.w3.org/TR/2001/REC-SVG-20010904/DTD/svg10.dtd">
<!-- Generated by Microsoft Visio 11.0, SVG Export, v1.0 Sable_Flur.svg Page-1 -->
<svg xmlns="http://www.w3.org/2000/svg" xmlns:xlink="http://www.w3.org/1999/xlink" xmlns:ev="http://www.w3.org/2001/xml-events"
		xmlns:v="http://schemas.microsoft.com/visio/2003/SVGExtensions/" width="8.10521in" height="8.10521in"
		viewBox="0 0 583.575 583.575" xml:space="preserve" color-interpolation-filters="sRGB" class="st8">
	<title>Anetrorran Honors</title>
	<v:documentProperties v:langID="1033" v:viewMarkup="false"/>

	<style type="text/css">
	<![CDATA[
		.st1 {fill:#ffffff;stroke:none;stroke-linecap:round;stroke-linejoin:round;stroke-width:3}
		.st2 {fill:#ffffff;stroke:#000000;stroke-linecap:round;stroke-linejoin:round;stroke-width:6}
		.st3 {fill:#ffffff;stroke:#000000;stroke-linecap:round;stroke-linejoin:round;stroke-width:3}
		.st4 {fill:#c4d0db;stroke:#000000;stroke-linecap:round;stroke-linejoin:round;stroke-width:3}
		.st5 {stroke:#000000;stroke-linecap:round;stroke-linejoin:round;stroke-width:1.5}
		.st6 {stroke:#ffffff;stroke-linecap:round;stroke-linejoin:round;stroke-width:4.5}
		.st7 {fill:#008000;stroke:#000000;stroke-linecap:round;stroke-linejoin:round;stroke-width:3}
		.st8 {fill:none;fill-rule:evenodd;font-size:12px;overflow:visible;stroke-linecap:square;stroke-miterlimit:3}
	]]>
	</style>

	<g v:mID="0" v:index="1" v:groupContext="foregroundPage">
		<title>Page-1</title>
		<v:pageProperties v:drawingScale="1" v:pageScale="1" v:drawingUnits="19" v:shadowOffsetX="9" v:shadowOffsetY="-9"/>
		<g id="group2-1" transform="translate(3,-3)" v:mID="2" v:groupContext="group">
			<title>Sheet.2</title>
			<g id="shape3-2" v:mID="3" v:groupContext="shape">
				<title>Circle.109</title>
				<v:userDefs>
					<v:ud v:nameU="visVersion" v:val="VT0(14):26"/>
				</v:userDefs>
				<path d="M0 294.79 A288.787 288.787 0 0 1 577.57 294.79 A288.788 288.788 0 1 1 -0 294.79 Z" class="st1"/>
			</g>
			<g id="shape4-4" v:mID="4" v:groupContext="shape" transform="translate(18.9,-18.9)">
				<title>Circle.6</title>
				<v:userDefs>
					<v:ud v:nameU="visVersion" v:val="VT0(14):26"/>
				</v:userDefs>
				<path d="M0 313.69 A269.887 269.887 0 0 1 539.77 313.69 A269.888 269.888 0 1 1 -0 313.69 Z" class="st2"/>
			</g>
			<g id="group5-6" transform="translate(64.5043,-79.0661)" v:mID="5" v:groupContext="group">
				<title>Sheet.5</title>
				<g id="shape6-7" v:mID="6" v:groupContext="shape" transform="translate(186.248,-7.68165)">
					<title>Sheet.6</title>
					<path d="M0.25 508.21 A76.146 76.146 -2.88 0 0 40.96 581.9 A27.5091 27.5091 -177.41 0 0 69.09 576.27 A86.8585
								 86.8585 0 0 1 38.99 556.59 A70.4494 70.4494 0 0 1 20.15 509.9 L0.25 508.21 Z" class="st3"/>
				</g>
				<g id="shape7-9" v:mID="7" v:groupContext="shape" transform="translate(208.646,-35.7964)">
					<title>Sheet.7</title>
					<path d="M0 556.58 L16.03 538.58 L28.69 538.58 A23.354 23.354 0 0 1 35.16 557.7 A443.44 443.44 -135 0 0 16.03
								 583.58 A56.7158 56.7158 45 0 1 -0 556.58 Z" class="st3"/>
				</g>
				<g id="shape8-11" v:mID="8" v:groupContext="shape" transform="translate(230.583,0)">
					<title>Sheet.8</title>
					<path d="M-0 576.47 A66.0794 66.0794 -5.74 0 0 86.34 551.72 L56.25 549.47 L19.12 572.53 A51.08 51.08 0 0 1 -0
								 576.47 Z" class="st3"/>
				</g>
				<g id="shape9-13" v:mID="9" v:groupContext="shape" transform="translate(257.583,-34.6714)">
					<title>Sheet.9</title>
					<path d="M0 571.2 A69.3244 69.3244 91.56 0 1 57.94 528.45 A82.0749 82.0749 -31.3 0 0 46.69 557.14 A35.8313 35.8313
								 -100.33 0 0 21.66 583.58 A1307.05 1307.05 0 0 1 -0 571.2 Z" class="st3"/>
				</g>
				<g id="shape10-15" v:mID="10" v:groupContext="shape" transform="translate(156.196,-30.6443) rotate(-15)">
					<title>Sheet.10</title>
					<path d="M0 571.2 A69.3244 69.3244 91.56 0 1 57.94 528.45 A82.0749 82.0749 -31.3 0 0 46.69 557.14 A43.0704 43.0704
								 -100.33 0 0 21.66 583.58 A1307.05 1307.05 0 0 1 -0 571.2 Z" class="st3"/>
				</g>
				<g id="shape11-17" v:mID="11" v:groupContext="shape" transform="translate(179.65,-33.6424) rotate(-15)">
					<title>Sheet.11</title>
					<path d="M-0 580.38 A123.386 123.386 -1.5 0 0 37.32 583.21 A136.213 136.213 -180 0 0 58.69 557.9 L22.41 553.96
								 A36.2408 36.2408 -2.69 0 0 -0 580.38 Z" class="st3"/>
				</g>
				<g id="shape12-19" v:mID="12" v:groupContext="shape" transform="translate(56.5622,11.8649) rotate(-33)">
					<title>Sheet.12</title>
					<path d="M0 574.62 A114.062 114.062 -135 0 0 33.42 583.58 A100.02 100.02 -135 0 0 60.59 551.91 L24.3 547.98 A37.7187
								 37.7187 -45 0 0 0 574.62 Z" class="st3"/>
				</g>
				<g id="shape13-21" v:mID="13" v:groupContext="shape" transform="translate(84.3064,12.5491) rotate(-33)">
					<title>Sheet.13</title>
					<path d="M-0 583.56 A66.3005 66.3005 -2.2 0 0 63.85 539.61 A61.1253 61.1253 -180 0 0 36.57 536.23 A78.3485 78.3485
								 88.51 0 1 10.22 568.36 A44.125 44.125 86.51 0 1 0 583.56 Z" class="st3"/>
				</g>
				<g id="shape14-23" v:mID="14" v:groupContext="shape" transform="translate(-32.1367,93.0745) rotate(-53)">
					<title>Sheet.14</title>
					<path d="M-0 583.57 A66.4564 66.4564 -3.26 0 0 63.14 538.29 A61.1253 61.1253 -180 0 0 35.86 534.92 A88.0162 88.0162
								 89.48 0 1 5.65 570.51 A34.2958 34.2958 77.76 0 1 -0 583.57 Z" class="st3"/>
				</g>
				<g id="shape15-25" v:mID="15" v:groupContext="shape" transform="translate(-133.768,189.877) rotate(-67.1)">
					<title>Sheet.15</title>
					<path d="M0 571.38 A70.2988 70.2988 90.1 0 1 58.18 527.27 A82.0749 82.0749 -86.18 0 0 46.93 555.95 A38.979 38.979
								 -92.4 0 0 28.96 583.58 A1646.72 1646.72 88.69 0 1 0 571.38 Z" class="st3"/>
				</g>
				<g id="shape16-27" v:mID="16" v:groupContext="shape" transform="translate(-173.242,312.302) rotate(-84.9)">
					<title>Sheet.16</title>
					<path d="M0 571.2 A69.3244 69.3244 91.56 0 1 57.94 528.45 A82.0749 82.0749 -31.3 0 0 46.69 557.14 A43.0704 43.0704
								 -100.33 0 0 21.66 583.58 A1307.05 1307.05 0 0 1 -0 571.2 Z" class="st3"/>
				</g>
				<g id="shape17-29" v:mID="17" v:groupContext="shape" transform="translate(-157.952,292.042) rotate(-84.9)">
					<title>Sheet.17</title>
					<path d="M-0 570.35 A108.732 108.732 -175.27 0 0 30.21 583.58 A112.792 112.792 -180 0 0 60.59 547.65 L24.3 543.71
								 A37.7187 37.7187 -180 0 0 0 570.35 Z" class="st3"/>
				</g>
				<g id="shape18-31" v:mID="18" v:groupContext="shape" transform="translate(-167.612,395.554) rotate(-100.6)">
					<title>Sheet.18</title>
					<path d="M0 569.92 A105.106 105.106 -176.45 0 0 28.81 583.58 A112.792 112.792 -180 0 0 59.18 547.65 L22.9 543.71
								 A36.4073 36.4073 -0.7 0 0 -0 569.92 Z" class="st3"/>
				</g>
				<g id="shape19-33" v:mID="19" v:groupContext="shape" transform="translate(-157.92,376.681) rotate(-100.6)">
					<title>Sheet.19</title>
					<path d="M-0 583.52 A70.3887 70.3887 -1.17 0 0 68.57 538.02 A61.1253 61.1253 -180 0 0 41.29 534.65 A88.0162 88.0162
								 89.48 0 1 11.09 570.24 A41.6861 41.6861 94.13 0 1 -0 583.52 Z" class="st3"/>
				</g>
				<g id="shape20-35" v:mID="20" v:groupContext="shape" transform="translate(-144.042,479.648) rotate(-117)">
					<title>Sheet.20</title>
					<path d="M-0 583.57 A66.4564 66.4564 -3.26 0 0 63.14 538.29 A61.1253 61.1253 -180 0 0 35.86 534.92 A88.0162 88.0162
								 89.48 0 1 5.65 570.51 A34.2958 34.2958 77.76 0 1 -0 583.57 Z" class="st3"/>
				</g>
				<g id="shape21-37" v:mID="21" v:groupContext="shape" transform="translate(-77.468,640.474) rotate(-134.8)">
					<title>Sheet.21</title>
					<path d="M0 571.2 A69.3244 69.3244 91.56 0 1 57.94 528.45 A82.0749 82.0749 -31.3 0 0 46.69 557.14 A43.0704 43.0704
								 -100.33 0 0 21.66 583.58 A1307.05 1307.05 0 0 1 -0 571.2 Z" class="st3"/>
				</g>
				<g id="shape22-39" v:mID="22" v:groupContext="shape" transform="translate(3.19502,712.777) rotate(-150.5)">
					<title>Sheet.22</title>
					<path d="M0 571.2 A69.3244 69.3244 91.56 0 1 57.94 528.45 A82.0749 82.0749 -31.3 0 0 46.69 557.14 A43.0704 43.0704
								 -100.33 0 0 21.66 583.58 A1307.05 1307.05 0 0 1 -0 571.2 Z" class="st3"/>
				</g>
				<g id="shape23-41" v:mID="23" v:groupContext="shape" transform="translate(-8.9394,690.483) rotate(-150.5)">
					<title>Sheet.23</title>
					<path d="M0 570.35 A108.732 108.732 -166.87 0 0 30.21 583.58 A112.792 112.792 -180 0 0 60.59 547.65 L27 540.98
								 A41.722 41.722 -179.35 0 0 -0 570.35 Z" class="st3"/>
				</g>
				<g id="shape24-43" v:mID="24" v:groupContext="shape" transform="translate(73.4992,740.999) rotate(-165.4)">
					<title>Sheet.24</title>
					<path d="M-0 570.35 A108.732 108.732 -175.27 0 0 30.21 583.58 A112.792 112.792 -180 0 0 60.59 547.65 L24.3 543.71
								 A37.7187 37.7187 -180 0 0 0 570.35 Z" class="st3"/>
				</g>
				<g id="shape25-45" v:mID="25" v:groupContext="shape" transform="translate(53.865,722.732) rotate(-165.4)">
					<title>Sheet.25</title>
					<path d="M-0 583.57 A66.4564 66.4564 -3.26 0 0 63.14 538.29 A61.1253 61.1253 -180 0 0 35.86 534.92 A88.0162 88.0162
								 89.48 0 1 5.65 570.51 A34.2958 34.2958 77.76 0 1 -0 583.57 Z" class="st3"/>
				</g>
				<g id="shape26-47" v:mID="26" v:groupContext="shape" transform="translate(158.268,755.123) rotate(178.2)">
					<title>Sheet.26</title>
					<path d="M-0 583.57 A66.4564 66.4564 -3.26 0 0 63.14 538.29 A61.1253 61.1253 -180 0 0 35.86 534.92 A88.0162 88.0162
								 89.48 0 1 5.65 570.51 A34.2958 34.2958 77.76 0 1 -0 583.57 Z" class="st3"/>
				</g>
				<g id="shape27-49" v:mID="27" v:groupContext="shape" transform="translate(332.646,764.803) rotate(160.4)">
					<title>Sheet.27</title>
					<path d="M0 572.73 A69.3244 69.3244 90.69 0 1 57.94 529.98 A82.0749 82.0749 -65.09 0 0 46.69 558.67 A37.0363
								 37.0363 -93.89 0 0 27.72 583.58 A1559.82 1559.82 86.49 0 1 0 572.73 Z" class="st3"/>
				</g>
				<g id="shape28-51" v:mID="28" v:groupContext="shape" transform="translate(431.899,721.161) rotate(144.7)">
					<title>Sheet.28</title>
					<path d="M0 571.2 A69.3244 69.3244 91.56 0 1 57.94 528.45 A82.0749 82.0749 -31.3 0 0 46.69 557.14 A43.0704 43.0704
								 -100.33 0 0 21.66 583.58 A1307.05 1307.05 0 0 1 -0 571.2 Z" class="st3"/>
				</g>
				<g id="shape29-53" v:mID="29" v:groupContext="shape" transform="translate(406.561,722.648) rotate(144.7)">
					<title>Sheet.29</title>
					<path d="M0 570.35 A108.732 108.732 -166.87 0 0 30.21 583.58 A112.792 112.792 -180 0 0 60.59 547.65 L27.2 541.6
								 A41.3916 41.3916 -176.9 0 0 -0 570.35 Z" class="st3"/>
				</g>
				<g id="shape30-55" v:mID="30" v:groupContext="shape" transform="translate(507.844,644.425) rotate(126.4)">
					<title>Sheet.30</title>
					<path d="M-0 570.35 A108.732 108.732 -175.27 0 0 30.21 583.58 A112.792 112.792 -180 0 0 60.59 547.65 L24.3 543.71
								 A37.7187 37.7187 -180 0 0 0 570.35 Z" class="st3"/>
				</g>
				<g id="shape31-57" v:mID="31" v:groupContext="shape" transform="translate(484.016,652.77) rotate(126.4)">
					<title>Sheet.31</title>
					<path d="M0 583.57 A69.1143 69.1143 -2.04 0 0 65.89 536.8 A61.1253 61.1253 -180 0 0 38.61 533.42 A88.0162 88.0162
								 0 0 1 8.4 569.01 A40.5049 40.5049 0 0 1 0 583.57 Z" class="st3"/>
				</g>
				<g id="shape32-59" v:mID="32" v:groupContext="shape" transform="translate(552.439,570.964) rotate(110)">
					<title>Sheet.32</title>
					<path d="M-0 583.57 A66.4564 66.4564 -3.26 0 0 63.14 538.29 A61.1253 61.1253 -180 0 0 35.86 534.92 A88.0162 88.0162
								 89.48 0 1 5.65 570.51 A34.2958 34.2958 77.76 0 1 -0 583.57 Z" class="st3"/>
				</g>
			</g>
			<g id="group33-61" transform="translate(203.287,-203.288)" v:mID="33" v:groupContext="group">
				<title>Sheet.33</title>
				<g id="shape34-62" v:mID="34" v:groupContext="shape">
					<title>Sheet.34</title>
					<path d="M0 498.07 A85.5 85.5 -180 1 0 171 498.08 A85.5 85.5 -180 0 0 0 498.08 ZM30.04 498.08 A55.458 55.458
								 0 1 1 140.96 498.08 A55.458 55.458 0 1 1 30.04 498.08 Z" class="st4"/>
				</g>
				<g id="shape35-64" v:mID="35" v:groupContext="shape" transform="translate(592.022,635.147) rotate(111.945)">
					<title>Sheet.35</title>
					<path d="M-0 535.05 A64.4665 64.4665 -180 0 0 124.93 535.05" class="st5"/>
				</g>
				<g id="shape36-67" v:mID="36" v:groupContext="shape" transform="translate(-417.977,429.557) rotate(-75.6997)">
					<title>Sheet.36</title>
					<path d="M-0 555.68 A76.7915 76.7915 -180 0 0 118.42 555.68" class="st5"/>
				</g>
				<g id="shape37-70" v:mID="37" v:groupContext="shape" transform="translate(585.138,612.164) rotate(111.405)">
					<title>Sheet.37</title>
					<path d="M-0 528.08 A79.1335 79.1335 -180 0 0 151.04 528.08" class="st6"/>
				</g>
				<g id="shape38-73" v:mID="38" v:groupContext="shape" transform="translate(704.423,393.001) rotate(84.7462)">
					<title>Sheet.38</title>
					<path d="M0 583.58 A64.5901 64.5901 0 0 1 98.29 583.58" class="st6"/>
				</g>
			</g>
			<g id="group39-76" transform="translate(77.2674,-91.3235)" v:mID="39" v:groupContext="group">
				<title>Sheet.39</title>
				<g id="shape40-77" v:mID="40" v:groupContext="shape" transform="translate(370.525,735.35) rotate(144.7)">
					<title>Sheet.40</title>
					<path d="M0 583.54 A69.6726 69.6726 -1.97 0 0 61.7 549.98 A77.2535 77.2535 -22.03 0 0 64.41 535.41 A53.8335 53.8335
								 -4.89 0 0 40.21 534.56 A88.0162 88.0162 89.65 0 1 10.01 570.15 A40.2758 40.2758 90.76 0 1 0 583.54
								 Z" class="st7"/>
				</g>
				<g id="shape41-79" v:mID="41" v:groupContext="shape" transform="translate(193.319,-50.539)">
					<title>Sheet.41</title>
					<path d="M0.1 565.01 A47.708 47.708 -180 0 0 2.56 583.58 L18.31 565.58 L0.1 565.01 Z" class="st7"/>
				</g>
				<g id="shape42-81" v:mID="42" v:groupContext="shape" transform="translate(225.164,-36.4765)">
					<title>Sheet.42</title>
					<path d="M0.18 551.23 A31.5399 31.5399 -103.87 0 0 19.09 583.58 A64.215 64.215 144.75 0 1 37.09 559.95 A11.9635
								 11.9635 8.19 0 1 24.93 548.7 L0.18 551.23 Z" class="st7"/>
				</g>
				<g id="shape43-83" v:mID="43" v:groupContext="shape" transform="translate(212.195,-3.289)">
					<title>Sheet.43</title>
					<path d="M0 562.2 A62.6067 62.6067 -179.66 0 0 29.53 583.58 L59.62 565.01 A89.2444 89.2444 178.78 0 1 18.28 540.83
								 L0 562.2 Z" class="st7"/>
				</g>
				<g id="shape44-85" v:mID="44" v:groupContext="shape" transform="translate(267.039,-19.4393)">
					<title>Sheet.44</title>
					<path d="M0 579.48 A127.69 127.69 -180 0 0 38.53 583.41 A112.237 112.237 -19 0 0 51.19 559.23 L23.62 554.16 A36.2169
								 36.2169 -180 0 0 -0 579.48 Z" class="st7"/>
				</g>
				<g id="shape45-87" v:mID="45" v:groupContext="shape" transform="translate(287.289,0)">
					<title>Sheet.45</title>
					<path d="M0 583.1 A58.2039 58.2039 -180 0 0 64.97 534.16 A76.082 76.082 -35.78 0 0 31.22 539.79 A57.3912 57.3912
								 80.87 0 1 15.19 565.66 A55.7197 55.7197 90.97 0 1 0 583.1 Z" class="st7"/>
				</g>
				<g id="shape46-89" v:mID="46" v:groupContext="shape" transform="translate(192.844,-5.66459) rotate(-15)">
					<title>Sheet.46</title>
					<path d="M-0 583.33 A56.5453 56.5453 -84.62 0 0 61.26 535.1 A57.753 57.753 -70.4 0 0 35.31 536.3 A65.3324 65.3324
								 89.23 0 1 13.22 563 A58.4342 58.4342 89.4 0 1 0 583.33 Z" class="st7"/>
				</g>
				<g id="shape47-91" v:mID="47" v:groupContext="shape" transform="translate(20.7461,28.1709) rotate(-33)">
					<title>Sheet.47</title>
					<path d="M0 571.2 A69.3244 69.3244 91.56 0 1 57.94 528.45 A82.0749 82.0749 -31.3 0 0 46.69 557.14 A43.0704 43.0704
								 -100.33 0 0 21.66 583.58 A1307.05 1307.05 0 0 1 -0 571.2 Z" class="st7"/>
				</g>
				<g id="shape48-93" v:mID="48" v:groupContext="shape" transform="translate(-92.9567,125.644) rotate(-53)">
					<title>Sheet.48</title>
					<path d="M0 571.2 A67.0869 67.0869 90.81 0 1 55.82 529.49 A77.5423 77.5423 -45 0 0 46.69 557.14 A43.0704 43.0704
								 -95 0 0 21.66 583.57 A1307.05 1307.05 0 0 1 -0 571.2 Z" class="st7"/>
				</g>
				<g id="shape49-95" v:mID="49" v:groupContext="shape" transform="translate(-69.2702,116.524) rotate(-53)">
					<title>Sheet.49</title>
					<path d="M-0 570.35 A108.732 108.732 -175.27 0 0 30.21 583.58 A112.792 112.792 -180 0 0 60.59 547.65 L24.3 543.71
								 A37.7187 37.7187 -180 0 0 0 570.35 Z" class="st7"/>
				</g>
				<g id="shape50-97" v:mID="50" v:groupContext="shape" transform="translate(-123.462,178.987) rotate(-67.1)">
					<title>Sheet.50</title>
					<path d="M-0 570.16 A84.0938 84.0938 -171.56 0 0 21.69 583.58 A112.792 112.792 -180 0 0 52.07 547.65 L15.78 543.71
								 A32.2151 32.2151 -3.14 0 0 -0 570.16 Z" class="st7"/>
				</g>
				<g id="shape51-99" v:mID="51" v:groupContext="shape" transform="translate(-105.867,170.044) rotate(-67.1)">
					<title>Sheet.51</title>
					<path d="M-0 583.57 A66.4564 66.4564 -3.26 0 0 63.14 538.29 A61.1253 61.1253 -180 0 0 35.86 534.92 A88.0162 88.0162
								 89.48 0 1 5.65 570.51 A34.2958 34.2958 77.76 0 1 -0 583.57 Z" class="st7"/>
				</g>
				<g id="shape52-101" v:mID="52" v:groupContext="shape" transform="translate(-155.94,281.919) rotate(-84.9)">
					<title>Sheet.52</title>
					<path d="M0 583.58 A64.6161 64.6161 -6.87 0 0 59.55 537.09 A66.4131 66.4131 166.63 0 1 34.9 539.29 A80.6592 80.6592
								 91.14 0 1 5.65 570.51 A34.2958 34.2958 84.63 0 1 -0 583.58 Z" class="st7"/>
				</g>
				<g id="shape53-103" v:mID="53" v:groupContext="shape" transform="translate(-191.24,433.185) rotate(-100.6)">
					<title>Sheet.53</title>
					<path d="M-0 573.12 A69.3244 69.3244 90.78 0 1 57.94 530.37 A82.0749 82.0749 -59.69 0 0 46.69 559.06 A41.5477
								 41.5477 -92.54 0 0 21.54 583.58 A1254.82 1254.82 88.1 0 1 -0 573.12 Z" class="st7"/>
				</g>
				<g id="shape54-105" v:mID="54" v:groupContext="shape" transform="translate(-159.615,544.003) rotate(-117)">
					<title>Sheet.54</title>
					<path d="M0 571.2 A70.5556 70.5556 89.22 0 1 57.14 525.32 A89.2015 89.2015 -30.22 0 0 46.69 557.14 A43.0704 43.0704
								 -99.72 0 0 21.66 583.58 A1307.05 1307.05 0 0 1 -0 571.2 Z" class="st7"/>
				</g>
				<g id="shape55-107" v:mID="55" v:groupContext="shape" transform="translate(-157.429,518.716) rotate(-117)">
					<title>Sheet.55</title>
					<path d="M-0 570.35 A108.732 108.732 -175.27 0 0 30.21 583.58 A112.792 112.792 -180 0 0 60.59 547.65 L24.3 543.71
								 A37.7187 37.7187 -180 0 0 0 570.35 Z" class="st7"/>
				</g>
				<g id="shape56-109" v:mID="56" v:groupContext="shape" transform="translate(-96.4698,627.392) rotate(-134.8)">
					<title>Sheet.56</title>
					<path d="M0 568.97 A108.15 108.15 -175.49 0 0 29.38 583.58 A112.792 112.792 -180 0 0 59.75 547.65 L23.47 543.71
								 A36.0683 36.0683 -179.68 0 0 0 568.97 Z" class="st7"/>
				</g>
				<g id="shape57-111" v:mID="57" v:groupContext="shape" transform="translate(-103.482,602.268) rotate(-134.8)">
					<title>Sheet.57</title>
					<path d="M-0 583.57 A66.4564 66.4564 -3.26 0 0 63.14 538.29 A61.1253 61.1253 -180 0 0 35.86 534.92 A88.0162 88.0162
								 89.48 0 1 5.65 570.51 A34.2958 34.2958 77.76 0 1 -0 583.57 Z" class="st7"/>
				</g>
				<g id="shape58-113" v:mID="58" v:groupContext="shape" transform="translate(-35.635,679.43) rotate(-150.5)">
					<title>Sheet.58</title>
					<path d="M0 582.88 A51.1037 51.1037 -7.26 0 0 59.31 537.28 A57.0992 57.0992 -12.29 0 0 33.63 537.59 A72.4925
								 72.4925 88.39 0 1 8.94 567.07 A43.7569 43.7569 91.04 0 1 0 582.88 Z" class="st7"/>
				</g>
				<g id="shape59-115" v:mID="59" v:groupContext="shape" transform="translate(78.1949,771.68) rotate(-165.4)">
					<title>Sheet.59</title>
					<path d="M0 571.2 A69.3244 69.3244 91.56 0 1 57.94 528.45 A82.0749 82.0749 -31.3 0 0 46.69 557.14 A43.0704 43.0704
								 -100.33 0 0 21.66 583.58 A1307.05 1307.05 0 0 1 -0 571.2 Z" class="st7"/>
				</g>
				<g id="shape60-117" v:mID="60" v:groupContext="shape" transform="translate(191.448,792.105) rotate(178.2)">
					<title>Sheet.60</title>
					<path d="M0 571.2 A66.316 66.316 89.15 0 1 53.81 528.21 A79.3572 79.3572 -37.98 0 0 46.69 557.14 A43.0704 43.0704
								 -107.6 0 0 21.66 583.58 A1307.05 1307.05 0 0 1 0 571.2 Z" class="st7"/>
				</g>
				<g id="shape61-119" v:mID="61" v:groupContext="shape" transform="translate(169.497,779.361) rotate(178.2)">
					<title>Sheet.61</title>
					<path d="M-0 570.35 A108.732 108.732 -169.73 0 0 30.21 583.58 A81.9654 81.9654 -3.41 0 0 58.87 546.01 A120.477
								 120.477 -92.04 0 0 24.3 543.71 A37.7187 37.7187 -180 0 0 0 570.35 Z" class="st7"/>
				</g>
				<g id="shape62-121" v:mID="62" v:groupContext="shape" transform="translate(288.252,772.446) rotate(160.4)">
					<title>Sheet.62</title>
					<path d="M0 568.81 A91.5098 91.5098 -172.42 0 0 23.5 583.58 A112.792 112.792 -180 0 0 53.87 547.65 L17.59 543.71
								 A31.9473 31.9473 -9.01 0 0 -0 568.81 Z" class="st7"/>
				</g>
				<g id="shape63-123" v:mID="63" v:groupContext="shape" transform="translate(268.068,766.123) rotate(160.4)">
					<title>Sheet.63</title>
					<path d="M-0 583.58 A65.2012 65.2012 -5.09 0 0 60.35 537.01 A54.6707 54.6707 -2.16 0 0 35.86 534.92 A88.0162
								 88.0162 89.48 0 1 5.65 570.51 A34.2958 34.2958 78.75 0 1 0 583.58 Z" class="st7"/>
				</g>
				<g id="shape64-125" v:mID="64" v:groupContext="shape" transform="translate(518.67,647.314) rotate(126.4)">
					<title>Sheet.64</title>
					<path d="M0 571.2 A69.3244 69.3244 91.56 0 1 57.94 528.45 A82.0749 82.0749 -31.3 0 0 46.69 557.14 A43.0704 43.0704
								 -100.33 0 0 21.66 583.58 A1307.05 1307.05 0 0 1 -0 571.2 Z" class="st7"/>
				</g>
				<g id="shape65-127" v:mID="65" v:groupContext="shape" transform="translate(579.694,549.746) rotate(110)">
					<title>Sheet.65</title>
					<path d="M-0 571.2 A65.2039 65.2039 90.14 0 1 53.48 529.65 A75.415 75.415 -45 0 0 46.69 557.14 A43.0704 43.0704
								 -99.72 0 0 21.66 583.58 A1307.05 1307.05 0 0 1 -0 571.2 Z" class="st7"/>
				</g>
				<g id="shape66-129" v:mID="66" v:groupContext="shape" transform="translate(559.709,565.394) rotate(110)">
					<title>Sheet.66</title>
					<path d="M-0 570.35 A108.732 108.732 -175.27 0 0 30.21 583.58 A112.792 112.792 -180 0 0 60.59 547.65 L24.3 543.71
								 A37.7187 37.7187 -180 0 0 0 570.35 Z" class="st7"/>
				</g>
			</g>
			<g id="group67-131" transform="translate(233.775,-161.269)" v:mID="67" v:groupContext="group">
				<title>Sheet.67</title>
				<g id="shape68-132" v:mID="68" v:groupContext="shape" transform="translate(13.1269,-44.5507)">
					<title>Sheet.68</title>
					<path d="M-0 533.88 A30.0526 28.1984 90 0 1 5.62 539.87 A53.9379 50.6099 90 0 1 6.16 577.94 A25.2506 26.911 -180
								 0 0 25.01 583.33 A100.533 107.144 -180 0 0 17.44 522.48 A13.3459 12.5225 -90 0 0 0 533.88 Z"
							class="st3"/>
				</g>
				<g id="shape69-134" v:mID="69" v:groupContext="shape" transform="translate(79.1793,-43.5938) scale(-1,1)">
					<title>Sheet.69</title>
					<path d="M-0 521.83 A14.261 13.3811 90 0 1 19.13 528.12 A124.379 116.704 90 0 1 22.76 583.58 L7.29 582.98 A97.8581
								 91.8202 -90 0 0 0 521.83 Z" class="st3"/>
				</g>
				<g id="shape70-136" v:mID="70" v:groupContext="shape" transform="translate(-1.59872E-014,-26.1563)">
					<title>Sheet.70</title>
					<path d="M4.13 564.58 A16.4354 10.0335 0 0 0 4.79 578.31 A155.299 94.8068 0 0 0 106.88 578.31 A22.6019 13.798
								 -180 0 0 107.07 564.23 A153.203 93.5271 0 0 1 4.13 564.58 Z" class="st3"/>
				</g>
				<g id="shape71-138" v:mID="71" v:groupContext="shape" transform="translate(0.0564306,0)">
					<title>Sheet.71</title>
					<path d="M4.13 564.58 A16.4354 10.0335 0 0 0 4.79 578.31 A155.299 94.8068 0 0 0 106.88 578.31 A22.6019 13.798
								 -180 0 0 107.07 564.23 A153.203 93.5271 0 0 1 4.13 564.58 Z" class="st3"/>
				</g>
			</g>
			<g id="group72-140" transform="translate(233.719,-174.544)" v:mID="72" v:groupContext="group">
				<title>Sheet.72</title>
				<g id="shape73-141" v:mID="73" v:groupContext="shape" transform="translate(30.9021,-30.3185)">
					<title>Sheet.73</title>
					<path d="M-0 521.83 A14.261 13.3811 90 0 1 19.13 528.12 A124.379 116.704 90 0 1 22.76 583.58 L7.29 582.98 A97.8581
								 91.8202 -90 0 0 0 521.83 Z" class="st7"/>
				</g>
				<g id="shape74-143" v:mID="74" v:groupContext="shape" transform="translate(96.9545,-31.2754) scale(-1,1)">
					<title>Sheet.74</title>
					<path d="M-0 533.88 A30.0526 28.1984 90 0 1 5.62 539.87 A53.9379 50.6099 90 0 1 6.16 577.94 A25.2506 26.911 -180
								 0 0 25.01 583.33 A100.533 107.144 -180 0 0 17.44 522.48 A13.3459 12.5225 -90 0 0 0 533.88 Z"
							class="st7"/>
				</g>
				<g id="shape75-145" v:mID="75" v:groupContext="shape" transform="translate(-1.59872E-014,-26.1563)">
					<title>Sheet.75</title>
					<path d="M4.13 564.58 A16.4354 10.0335 0 0 0 4.79 578.31 A155.299 94.8068 0 0 0 106.88 578.31 A22.6019 13.798
								 -180 0 0 107.07 564.23 A153.203 93.5271 0 0 1 4.13 564.58 Z" class="st7"/>
				</g>
				<g id="shape76-147" v:mID="76" v:groupContext="shape" transform="translate(0.0564306,0)">
					<title>Sheet.76</title>
					<path d="M4.13 564.58 A16.4354 10.0335 0 0 0 4.79 578.31 A155.299 94.8068 0 0 0 106.88 578.31 A22.6019 13.798
								 -180 0 0 107.07 564.23 A153.203 93.5271 0 0 1 4.13 564.58 Z" class="st7"/>
				</g>
			</g>
			<g id="group77-149" transform="translate(57.5321,-111.488)" v:mID="77" v:groupContext="group">
				<title>Sheet.77</title>
				<g id="shape78-150" v:mID="78" v:groupContext="shape" transform="translate(81.1151,-69.3748)">
					<title>Sheet.78</title>
					<path d="M17.19 536.51 A62.72 57.8658 -88.84 0 0 77.13 564.64 A9.24522 8.52968 69.73 0 1 80.5 582.64 A87.4343
								 80.6672 86.76 0 1 1.1 544.39 A8.85394 9.59669 0 1 1 17.19 536.51 Z" class="st7"/>
				</g>
				<g id="shape79-152" v:mID="79" v:groupContext="shape" transform="translate(36.7429,0)">
					<title>Sheet.79</title>
					<path d="M0 481.76 A139.096 139.096 -180 0 0 132.19 583.58 A10.1739 10.1739 -45 0 0 127.13 563.89 A114.618 114.618
								 92.55 0 1 23.06 481.76 A11.9588 11.9588 -87.65 0 0 0 481.76 Z" class="st7"/>
				</g>
				<g id="shape80-154" v:mID="80" v:groupContext="shape" transform="translate(-98.6049,-133.45) rotate(-10)">
					<title>Sheet.80</title>
					<path d="M3.46 560.79 A13.7524 12.0332 0 0 0 4.01 577.26 A129.946 113.702 0 0 0 89.44 577.26 A18.9122 16.548
								 -180 0 0 89.59 560.38 A128.192 112.167 0 0 1 3.46 560.79 Z" class="st7"/>
				</g>
				<g id="shape81-156" v:mID="81" v:groupContext="shape" transform="translate(-93.1111,-102.565) rotate(-10)">
					<title>Sheet.81</title>
					<path d="M3.46 560.79 A13.7524 12.0332 0 0 0 4.01 577.26 A129.946 113.702 0 0 0 89.44 577.26 A18.9122 16.548
								 -180 0 0 89.59 560.38 A128.192 112.167 0 0 1 3.46 560.79 Z" class="st7"/>
				</g>
			</g>
			<g id="group82-158" transform="translate(60.3433,-79.0924)" v:mID="82" v:groupContext="group">
				<title>Sheet.82</title>
				<g id="shape83-159" v:mID="83" v:groupContext="shape" transform="translate(92.8286,-72.5536) rotate(4)">
					<title>Sheet.83</title>
					<path d="M0.17 522.54 A112.577 112.577 -90.9 0 0 108.06 583.3 A10.8131 10.8131 -116.57 0 0 104.64 562.68 A84.4421
								 84.4421 89.61 0 1 21.54 514.66 A11.5826 11.5826 -180 0 0 0.17 522.54 Z" class="st3"/>
				</g>
				<g id="shape84-161" v:mID="84" v:groupContext="shape" transform="translate(92.4681,-20.3453) rotate(10)">
					<title>Sheet.84</title>
					<path d="M-0 476.39 A164.034 164.034 -180 0 0 192.58 578.94 A10.6506 10.6506 -65.26 0 0 179.11 562.47 A133.375
								 133.375 0 0 1 24.83 478.11 A12.907 12.907 -180 0 0 0 476.39 Z" class="st3"/>
				</g>
				<g id="shape85-163" v:mID="85" v:groupContext="shape" transform="translate(-98.6049,-150.174) rotate(-10)">
					<title>Sheet.85</title>
					<path d="M3.46 560.79 A13.7524 12.0332 0 0 0 4.01 577.26 A129.946 113.702 0 0 0 89.44 577.26 A18.9122 16.548
								 -180 0 0 89.59 560.38 A128.192 112.167 0 0 1 3.46 560.79 Z" class="st3"/>
				</g>
				<g id="shape86-165" v:mID="86" v:groupContext="shape" transform="translate(-93.1111,-119.289) rotate(-10)">
					<title>Sheet.86</title>
					<path d="M3.46 560.79 A13.7524 12.0332 0 0 0 4.01 577.26 A129.946 113.702 0 0 0 89.44 577.26 A18.9122 16.548
								 -180 0 0 89.59 560.38 A128.192 112.167 0 0 1 3.46 560.79 Z" class="st3"/>
				</g>
			</g>
		</g>
	</g>
</svg>
