<svg xmlns="http://www.w3.org/2000/svg" xmlns:xlink="http://www.w3.org/1999/xlink" viewBox="0 0 150 150">
  <defs>
    <clipPath id="b">
      <use overflow="visible" xlink:href="#a"/>
    </clipPath>
    <rect id="a" width="133.4" height="150" x="9.3"/>
  </defs>
  <path fill="#ffca02" clip-path="url(#b)" d="M9.3,42.8c0-3.4,2.4-7.6,5.4-9.4L70.5,1.3c3-1.7,7.8-1.7,10.8,0l55.8,32.2c3,1.7,5.4,5.9,5.4,9.4v64.4c0,3.4-2.4,7.6-5.4,9.4l-55.8,32.2c-3,1.7-7.8,1.7-10.8,0l-55.8-32.2c-3-1.7-5.4-5.9-5.4-9.4V42.8z"/>
  <g fill="#fff" clip-path="url(#b)">
    <path d="M125.2,84.5l-15.4-8.2l-3.2-1.7c-7.3,4.9-18.3,7.9-30.7,7.9c-12.4,0-23.4-3-30.7-7.9L42,76.3l-15.4,8.2c-1.7,0.9-1.7,3.4,0,4.4c16.6,9,29.7,11.9,49.3,11.9c19.6,0,32.7-2.8,49.3-11.9C127,88,126.9,85.5,125.2,84.5"/>
    <path d="M104.7,68.6L104.7,68.6c6.5-11.6,7.3-24.5,2.7-38.5c-6.1,12.2-7.3,24.1-3.7,35.5c-1.7-4.2-4.2-8.1-8.1-10.6c-12.7-4.9-14.7,7-19.6,6.4C71,62,69,50.1,56.3,55c-4.8,3-7.5,8.2-9.2,13.5c5.4,4.6,15.8,8.3,28.8,8.3S99.3,73.2,104.7,68.6"/>
  </g>
</svg>
