<svg class="svg-sprite">

                        <symbol viewBox="0 0 25 24" id="icon-nav-empresa-home">
                <g fill-rule="evenodd"><path d="M12.95.203a.495.495 0 0 0-.65 0L.85 10.036a.5.5 0 1 0 .652.759l1.118-.96v12.752a.5.5 0 0 0 .5.5h19a.5.5 0 0 0 .5-.5V9.823l1.13.97c.094.082.21.122.326.122a.498.498 0 0 0 .325-.878L12.95.203zm8.67 21.883h-18V8.974l9.006-7.733 8.994 7.725v13.12z"></path><path d="M11.124 6.853h.644V6.06H13.5v.793h.645v.3h-3.02v-.3zm.544 5.898h1.936l-.968-2.5-.968 2.5zm2.354 1.08H11.25l-2.14 5.52h1.232v.675H8.184L7.15 20.02l4.577-11.322h1.815l4.15 10.206 1.27-.388.198.65-1.782.543-.96.31-2.396-6.19z"></path></g>
            </symbol>

                        <symbol viewBox="0 0 21 24" id="icon-nav-muebles">
                <g fill-rule="evenodd"><path d="M.515 12.035h3.44l.122 2.75c.013.275.245.458.522.478.275-.013.49-.246.477-.522L4.48 1.115l-.5.022.59-.1h10.956l.09.078-.597 13.635c-.013.274.2.508.477.52h.022c.265 0 .486-.21.5-.478l.12-2.757h3.375c.276 0 .5-.224.5-.5v-1.5c0-.276-.224-.5-.5-.5-.277 0-.5.224-.5.5v1h-2.83l.43-9.878c.014-.295-.09-.574-.294-.786-.203-.213-.493-.335-.794-.335H4.57c-.3 0-.59.122-.796.336-.203.213-.307.492-.294.787l.433 9.878H1.015v-1c0-.276-.224-.5-.5-.5-.277 0-.5.224-.5.5v1.5c0 .276.223.5.5.5"></path><path d="M20.034 15.346c-.112-.255-.41-.366-.66-.255-2.718 1.205-5.943 1.842-9.326 1.842-3.382 0-6.607-.637-9.327-1.84-.248-.112-.547 0-.658.254-.113.252.002.548.254.66 2.71 1.2 5.894 1.853 9.232 1.914v2.447L4.54 22.994c-.243.128-.338.43-.21.675.09.17.264.266.444.266.08 0 .158-.018.232-.057l4.542-2.384v1.94c0 .277.224.5.5.5s.5-.223.5-.5v-1.94l4.542 2.383c.074.038.153.056.232.056.18 0 .354-.097.443-.267.13-.246.034-.548-.21-.676l-5.007-2.627V17.92c3.34-.06 6.522-.715 9.23-1.915.254-.11.37-.407.256-.66"></path></g>
            </symbol>

                        <symbol viewBox="0 0 24 14" id="icon-nav-muebles-mesas">
                <path fill-rule="evenodd" d="M1.537 5l3.186-4h14.022l3.185 4H1.537zm21.752.102L19.377.188c-.096-.12-.24-.188-.392-.188H4.48c-.15 0-.295.07-.39.188l-3.982 5c-.12.15-.142.356-.058.53C.133 5.89.307 6 .5 6h1.217v7.5c0 .277.223.5.5.5.276 0 .5-.223.5-.5V6h18v7.5c0 .277.223.5.5.5.276 0 .5-.223.5-.5V6h1.27c.277 0 .5-.224.5-.5 0-.163-.077-.308-.198-.398z"></path><path d="M6.217 7c-.276 0-.5.225-.5.5v2.983c0 .276.224.5.5.5s.5-.224.5-.5V7.5c0-.275-.224-.5-.5-.5M17.217 7c-.276 0-.5.225-.5.5v2.983c0 .276.224.5.5.5s.5-.224.5-.5V7.5c0-.275-.224-.5-.5-.5"></path>
            </symbol>

                        <symbol viewBox="0 0 24 22" id="icon-nav-muebles-categorias">
                 <path d="M22.535 2.04H6.77C5.804 0 5.214 0 5.015 0H1.446C.65 0 0 .65 0 1.45v19.06c0 .8.65 1.45 1.446 1.45h21.09c.796 0 1.444-.65 1.444-1.45V3.49c0-.8-.648-1.45-1.445-1.45zM1.445 1h3.498c.22.17.698.957 1.052 1.745.08.18.26.295.457.295h16.083c.246 0 .445.202.445.45v2.52H1V1.45c0-.248.2-.45.446-.45zm21.09 19.96H1.445c-.245 0-.445-.202-.445-.45V7.01h21.98v13.5c0 .248-.2.45-.445.45z" fill-rule="evenodd"></path>
            </symbol>

                        <symbol viewBox="0 0 21 24" id="icon-nav-muebles-sillas-oficina">
                <g fill-rule="evenodd"><path d="M.515 12.035h3.44l.122 2.75c.013.275.245.458.522.478.275-.013.49-.246.477-.522L4.48 1.115l-.5.022.59-.1h10.956l.09.078-.597 13.635c-.013.274.2.508.477.52h.022c.265 0 .486-.21.5-.478l.12-2.757h3.375c.276 0 .5-.224.5-.5v-1.5c0-.276-.224-.5-.5-.5-.277 0-.5.224-.5.5v1h-2.83l.43-9.878c.014-.295-.09-.574-.294-.786-.203-.213-.493-.335-.794-.335H4.57c-.3 0-.59.122-.796.336-.203.213-.307.492-.294.787l.433 9.878H1.015v-1c0-.276-.224-.5-.5-.5-.277 0-.5.224-.5.5v1.5c0 .276.223.5.5.5"></path><path d="M20.034 15.346c-.112-.255-.41-.366-.66-.255-2.718 1.205-5.943 1.842-9.326 1.842-3.382 0-6.607-.637-9.327-1.84-.248-.112-.547 0-.658.254-.113.252.002.548.254.66 2.71 1.2 5.894 1.853 9.232 1.914v2.447L4.54 22.994c-.243.128-.338.43-.21.675.09.17.264.266.444.266.08 0 .158-.018.232-.057l4.542-2.384v1.94c0 .277.224.5.5.5s.5-.223.5-.5v-1.94l4.542 2.383c.074.038.153.056.232.056.18 0 .354-.097.443-.267.13-.246.034-.548-.21-.676l-5.007-2.627V17.92c3.34-.06 6.522-.715 9.23-1.915.254-.11.37-.407.256-.66"></path></g>
            </symbol>

                        <symbol viewBox="0 0 49 30" id="icon-nav-muebles-sillas-espera">
                <path d="M40.35 22.5v3.75M4.9 13.15V3.25c0-1.333.667-2 2-2h35.15c1.333 0 2 .667 2 2V13.15M1.4 20.45c0-1.333.667-2 2-2h42.05c1.333 0 2 .667 2 2v9.3M8.5 22.5v3.75M4.9 8.05h39.15M1.4 29.75v-9.3" stroke-width="2" fill="none" fill-rule="evenodd"></path>
            </symbol>

                        <symbol viewBox="0 0 27 47" id="icon-nav-muebles-sillas-colectividades">
                <path d="M1.75.25v27.1h21.7c1.333 0 2 .667 2 2v17.4m-23.7-19.4v19.4" stroke-width="2" fill="none" fill-rule="evenodd"></path>
            </symbol>

                        <symbol viewBox="0 0 24 13" id="icon-nav-muebles-soft-seating">
                <path d="M23 8.925C23 9.508 22.496 10 21.9 10H2.1C1.504 10 1 9.508 1 8.925V5.057a.996.996 0 0 1 1.007-.986.99.99 0 0 1 .993.986V7.5a.5.5 0 0 0 .5.5h17a.5.5 0 0 0 .5-.5V5.057a.99.99 0 0 1 1-.986c.552 0 1 .443 1 .986v3.868zM4 2.362C4 1.61 4.615 1 5.371 1H11.5v6H4V2.362zm16 0V7h-7.5V1h6.128C19.385 1 20 1.61 20 2.362zm1.984.709c-.36 0-.693.104-.984.273v-.982A2.37 2.37 0 0 0 18.628 0H5.371A2.37 2.37 0 0 0 3 2.362v.985a1.986 1.986 0 0 0-1-.276c-1.102 0-2 .89-2 1.986v3.868C0 10.07.941 11 2.1 11H3v1.443a.5.5 0 0 0 1 0V11h16v1.443a.5.5 0 0 0 1 0V11h.9c1.158 0 2.1-.93 2.1-2.075V5.057c0-1.095-.897-1.986-2.016-1.986z"></path>
            </symbol>

                        <symbol viewBox="0 0 18 24" id="icon-nav-muebles-archivo">
                <g fill-rule="evenodd"><path d="M1 22.985h15.881V11.998H1v10.987zm0-11.987h15.881V1H1v9.998zM17.381 0H.5a.5.5 0 0 0-.5.5v22.985a.5.5 0 0 0 .5.5h16.881a.5.5 0 0 0 .5-.5V.5a.5.5 0 0 0-.5-.5z"></path><path d="M10.49 14.331a.5.5 0 0 0-.5.5v1.084h-2.1v-1.084a.5.5 0 1 0-1 0v1.584a.5.5 0 0 0 .5.5h3.1a.5.5 0 0 0 .5-.5v-1.584a.5.5 0 0 0-.5-.5m-3.1-8.409h3.1a.5.5 0 0 0 .5-.5V3.838a.5.5 0 0 0-1 0v1.084h-2.1V3.838a.5.5 0 0 0-1 0v1.584a.5.5 0 0 0 .5.5"></path></g>
            </symbol>

                        <symbol viewBox="0 0 46 24" id="icon-nav-muebles-mostradores">
                <path d="M45 .7H1c-.5 0-1 .4-1 1v19.2c0 .5.4 1 1 1h2.9V23c0 .5.4 1 1 1s1-.4 1-1v-1.2h34.5V23c0 .5.4 1 1 1 .5 0 1-.4 1-1v-1.2H45c.5 0 1-.4 1-1V1.7c0-.6-.4-1-1-1zm-.9 19.2H1.9V2.6h42.2v17.3z" fill-rule="evenodd"></path>
            </symbol>

                        <symbol viewBox="0 0 19 25" id="icon-nav-muebles-bibliotecas">
                <g fill-rule="evenodd"><path d="M7.592 20.054V1h4.992v19.054H7.592zm-5.992 0h4.992V1H1.6v19.054zm11.984-15.01h4.419V1h-4.42v4.044zm0 15.01h4.419V16.05h-4.42v4.003zm0-5.003h4.419v-4.004h-4.42v4.004zm0-5.004h4.419V6.044h-4.42v4.003zM18.503 0H1.1a.5.5 0 0 0-.5.5v20.054l.002.009-.002.009v2.886a.5.5 0 1 0 1 0v-2.404h16.403v2.494a.5.5 0 0 0 1 0v-2.976l-.002-.01.002-.008V.5a.5.5 0 0 0-.5-.5z"></path><path d="M9.092 9.885a.5.5 0 0 0-.5.5v1.232a.5.5 0 0 0 1 0v-1.232a.5.5 0 0 0-.5-.5m-4 0a.5.5 0 0 0-.5.5v1.232a.5.5 0 0 0 1 0v-1.232a.5.5 0 0 0-.5-.5"></path></g>
            </symbol>

                        <symbol viewBox="0 0 21 20" id="icon-nav-muebles-butacas">
                <path d="M3.1 5.8H.45v11.15H3.1v2.55h1v-2.55h12.7v2.55h1v-2.55h2.65V5.8H17.8V.45H3.1V5.8zm1-4.35h12.7v9.85H4.1V1.45zM1.45 6.8H3.1v5.5h14.7V6.8h1.65v9.15h-18V6.8z" fill-rule="evenodd"></path>
            </symbol>


                        <symbol viewBox="0 0 48 48" id="icon-nav-muebles-divisorias">
                <path d="M4.8 39.7V8.4H24l11.5-6.9v6.9h7.7V39.8M24 8.4h11.5M24 8.4l-11.5 6.9v28.6L24 37V8.4zM12.6 43.8v2.7M43.2 37H24v2.7M12.6 37H4.8" fill="none" stroke="#BDBDBD" stroke-width="2" stroke-linecap="round" stroke-linejoin="round"></path>
            </symbol>

                        <symbol viewBox="0 0 18 20" id="icon-nav-muebles-complementos">
                <g fill-rule="evenodd"><path d="M6.5 8.5A.5.5 0 0 0 6 9v1a.5.5 0 0 0 1 0V9a.5.5 0 0 0-.5-.5m5 2a.5.5 0 0 0 .5-.5V9a.5.5 0 0 0-1 0v1a.5.5 0 0 0 .5.5"></path><path d="M17 2H1V1h16v1zM9.5 16H16V3H9.5v13zM2 16h6.5V3H2v13zM17.5 0H.5a.5.5 0 0 0-.5.5v2a.5.5 0 0 0 .5.5H1v13.495l-.001.005v3a.5.5 0 0 0 1 0V17H16v2.5a.5.5 0 0 0 1 0V3h.5a.5.5 0 0 0 .5-.5v-2a.5.5 0 0 0-.5-.5z"></path></g>
            </symbol>

                        <symbol viewBox="0 0 25 25" id="icon-nav-muebles-disenadores">
                <g fill-rule="evenodd"><path d="M22.85.003H17.21c-.65 0-1.18.528-1.18 1.18v3.115L14.46 1.67c-.327-.56-1.054-.753-1.62-.43L7.593 4.222c-.278.157-.476.413-.558.72-.082.305-.038.622.12.895l1.52 2.59-2.64-1.502c-.567-.32-1.294-.127-1.622.43l-3.03 5.165c-.158.273-.2.59-.12.895.083.307.28.563.558.72l3.29 1.87H1.207c-.65 0-1.18.527-1.18 1.178v5.64c0 .652.53 1.18 1.18 1.18h13.328c.277 0 .5-.223.5-.5 0-.275-.223-.5-.5-.5H1.208c-.1 0-.18-.08-.18-.18v-5.64c0-.1.08-.18.18-.18h5.66l7.663 4.356c.08.044.164.065.248.065.174 0 .343-.09.435-.253.137-.24.053-.545-.188-.682l-12.71-7.224c-.058-.034-.08-.083-.086-.11-.01-.032-.013-.08.017-.13L5.275 7.86c.053-.088.173-.12.265-.066l4.145 2.356 5.018 8.556c.094.16.26.247.432.247.086 0 .174-.022.253-.068.238-.14.318-.447.178-.685L8.02 5.33c-.03-.05-.027-.1-.02-.13.008-.026.03-.076.087-.11l5.247-2.98c.092-.05.214-.02.266.07l2.43 4.068v16.576c0 .65.528 1.18 1.178 1.18h5.643c.65 0 1.18-.53 1.18-1.18V1.182c0-.65-.53-1.18-1.18-1.18zm.18 22.82c0 .1-.08.18-.18.18H17.21c-.1 0-.18-.08-.18-.18V1.184c0-.1.08-.18.18-.18h5.643c.1 0 .18.08.18.18v21.64z"></path><path d="M19.67 20.15c-.09.1-.14.23-.14.35 0 .13.05.26.14.35.09.1.22.15.36.15.13 0 .26-.05.35-.14.1-.1.15-.22.15-.36 0-.13-.05-.25-.15-.36-.19-.18-.52-.18-.71.01M22.03 17.003h-4c-.277 0-.5.224-.5.5s.223.5.5.5h4c.276 0 .5-.224.5-.5s-.224-.5-.5-.5"></path></g>
            </symbol>

                        <symbol viewBox="0 0 64 64" id="icon-nav-muebles-filtro-productos">
                <g fill-rule="evenodd"><path d="M58.1441559,0 L1.31795322,0 C0.637282651,0 0.0853255361,0.551836257 0.0853255361,1.23262768 L0.0853255361,8.41193762 C0.0853255361,8.7505809 0.222015595,9.05707602 0.443064327,9.27993762 L0.443064327,9.28017934 L0.445964912,9.28332164 C0.44608577,9.28356335 0.446327485,9.28368421 0.446569201,9.28392593 L24.0771501,33.0948265 L24.0771501,53.5727135 C24.0771501,53.9472515 24.2474386,54.3013645 24.5397934,54.535345 L33.3821053,61.6091462 C33.6050877,61.7875322 33.877501,61.8792632 34.1523314,61.8792632 C34.3337388,61.8792632 34.5162339,61.8391384 34.686039,61.7575595 C35.1131501,61.5522222 35.3847173,61.1203977 35.3847173,60.6465146 L35.3847173,33.0948265 L59.01554,9.28380507 C59.0157817,9.28356335 59.0159025,9.2834425 59.0161442,9.28320078 L59.0190448,9.28005848 L59.0190448,9.27981676 C59.2400936,9.05707602 59.3767836,8.75033918 59.3767836,8.41181676 L59.3767836,1.23262768 C59.3767836,0.551836257 58.8248265,0 58.1441559,0 Z M32.9195828,58.0817934 L26.5425263,52.980269 L26.5425263,33.8196101 L32.9195828,33.8196101 L32.9195828,58.0817934 Z M33.6389279,31.3543548 L25.8231813,31.3543548 L4.27787914,9.64468616 L55.18423,9.64468616 L33.6389279,31.3543548 Z M56.9115283,7.17930994 L2.5505809,7.17930994 L2.5505809,2.46525536 L56.9115283,2.46525536 L56.9115283,7.17930994 Z" fill-rule="nonzero"></path>
                    <path d="M22.9981326,23.1089591 L22.4674464,22.5782729 C21.9864327,22.0970175 21.2058129,22.0967758 20.7241949,22.5782729 C20.2426979,23.0596491 20.2426979,23.8400273 20.7240741,24.3215244 L21.2548811,24.8522105 C21.4955088,25.0929591 21.8110682,25.2132125 22.1265068,25.2132125 C22.4419454,25.2132125 22.757384,25.0929591 22.9980117,24.8522105 C23.4795088,24.3707135 23.4795088,23.5903353 22.9981326,23.1089591 Z" fill-rule="nonzero"></path>
                    <path d="M19.7563665,19.8669513 L11.2675634,11.3781481 C10.7860663,10.8968928 10.005809,10.8968928 9.52419103,11.3781481 C9.04293567,11.8596452 9.04293567,12.6401442 9.52431189,13.1215205 L18.013115,21.6103236 C18.2538635,21.8509513 18.5693021,21.9713255 18.8847407,21.9713255 C19.2001793,21.9713255 19.5156179,21.8509513 19.7563665,21.6103236 C20.2376218,21.1289474 20.2376218,20.3483275 19.7563665,19.8669513 Z" fill-rule="nonzero"></path></g>
            </symbol>

                        <symbol viewBox="0 0 64 64" id="icon-nav-muebles-ambientes">
                <g fill-rule="evenodd"><path d="M54.129101,61.7266364 C53.5746439,61.7266364 53.020482,61.4751136 52.5985867,60.9713636 L52.530682,60.8903409 C52.1592725,60.4471818 51.5112248,60.4471818 51.1398153,60.8903409 C50.2963201,61.8974886 48.9225772,61.8974886 48.079082,60.8903409 L47.986082,60.779375 C47.2550725,59.9071477 46.9267677,58.6618636 47.1077486,57.4479318 C47.1130629,57.412 47.1207391,57.3767727 47.1307772,57.3418977 L47.2964058,56.76875 L14.4443772,56.76875 L14.6100058,57.3418977 C14.6200439,57.3767727 14.6280153,57.412 14.6330344,57.4482841 C14.8137201,58.6622159 14.4854153,59.9075 13.754701,60.779375 L13.661701,60.8903409 C13.2527963,61.3782386 12.7092629,61.6466705 12.1311867,61.6466705 C11.5528153,61.6466705 11.009282,61.3778864 10.6003772,60.8903409 C10.5593391,60.8417273 10.5159391,60.7980455 10.4704725,60.76 C10.4244153,60.7360455 10.3807201,60.7053977 10.3411582,60.6684091 C9.97358674,60.4517614 9.51567245,60.5257386 9.20980579,60.8903409 L9.14190102,60.9713636 C8.29840579,61.9785114 6.92466293,61.9785114 6.08116769,60.9713636 L6.00853912,60.8847045 C5.96159626,60.8448977 5.91937722,60.7966364 5.88365341,60.7416818 C5.49748198,60.3527727 4.9179296,60.3749659 4.55419626,60.8089659 L4.43344388,60.9530455 C4.02453912,61.4409432 3.48100579,61.709375 2.9029296,61.709375 C2.32455817,61.709375 1.78102483,61.4405909 1.37241531,60.9530455 L0.645834358,60.0864545 C0.236929596,59.5985568 0.0119581678,58.9500227 0.0119581678,58.2599205 L0.0119581678,31.0042273 C-0.00368945123,30.9126364 -0.00427992742,30.8171705 0.0119581678,30.7224091 L0.0119581678,29.3922273 C-0.00398468933,29.2985227 -0.00339421314,29.2044659 0.0119581678,29.1139318 L0.0119581678,26.3035 C-0.00250849885,26.2147273 -0.00221326076,26.1238409 0.0119581678,26.0357727 L0.0119581678,23.4927159 C-0.00191802266,23.4064091 -0.00221326076,23.3165795 0.0119581678,23.2285114 L0.0119581678,0.704545455 C0.0119581678,0.315636364 0.276491501,0 0.602434358,0 L8.77964388,0 L8.78643436,0 L13.1745582,0 C13.1766248,0.000352272727 13.1783963,0.000352272727 13.1807582,0 L17.6441677,0 C17.6465296,0.000352272727 17.648301,0.000352272727 17.6503677,0 L21.8179486,0 C21.8197201,0.000352272727 21.822082,0.000352272727 21.8241486,0 L35.9377105,0 L35.9492248,0 L61.1380534,0 C61.4639963,0 61.7285296,0.315636364 61.7285296,0.704545455 L61.7285296,58.260625 C61.7285296,58.9507273 61.5032629,59.5992614 61.0946534,60.0871591 L60.3683677,60.95375 C59.9594629,61.4416477 59.4159296,61.7100795 58.8378534,61.7100795 C58.259482,61.7100795 57.7159486,61.4412955 57.3070439,60.95375 L57.1865867,60.8096705 C56.8030725,60.3520682 56.1789391,60.3517159 55.7954248,60.8096705 L55.6602058,60.9717159 C55.2380153,61.4751136 54.6835582,61.7266364 54.129101,61.7266364 Z M51.8451391,59.1377841 C52.4196725,59.1409545 52.9593677,59.4093864 53.3656153,59.8941136 L53.4335201,59.9751364 C53.8161486,60.4316818 54.4376248,60.4327386 54.8214344,59.9790114 L59.6772153,32.3798523 L57.8293201,33.3338068 C57.7814915,33.3764318 57.7280534,33.4106023 57.6713677,33.4342045 L51.8451391,59.1377841 Z M6.88923436,59.9437841 L6.91580579,59.9754886 C7.29932007,60.4330909 7.92315817,60.4330909 8.30667245,59.9754886 L8.37457722,59.8944659 C8.78820579,59.4009318 9.32878674,59.1494091 9.87232007,59.1395455 L4.04520579,33.4342045 C3.98881531,33.4106023 3.93567245,33.3767841 3.88813912,33.3345114 L2.03935817,32.3802045 L6.88923436,59.9437841 Z M56.4910058,59.0564091 C57.0693772,59.0564091 57.6129105,59.3251932 58.0218153,59.8127386 L58.1425677,59.9568182 C58.5139772,60.3999773 59.1620248,60.3999773 59.5334344,59.9568182 L60.2597201,59.0902273 C60.4454248,58.8686477 60.5478725,58.5737955 60.5478725,58.2602727 L60.5478725,34.2926932 L56.1866153,59.0814205 C56.2864058,59.0652159 56.3879677,59.0564091 56.4910058,59.0564091 Z M1.19261531,34.4251477 L1.19261531,58.2602727 C1.19261531,58.5741477 1.29506293,58.869 1.48076769,59.0902273 L2.20734864,59.9568182 C2.57875817,60.3999773 3.22680579,60.3999773 3.59821531,59.9568182 L3.71896769,59.8127386 C4.21260579,59.2237386 4.88663436,58.9799659 5.53084388,59.0793068 L1.19261531,34.4251477 Z M11.2147677,59.6640795 C11.2918248,59.7334773 11.3656344,59.810625 11.4356058,59.8941136 C11.8185296,60.3510114 12.4426629,60.3517159 12.8267677,59.8941136 L12.9197677,59.7831477 C13.3676439,59.24875 13.5743105,58.4903068 13.4774725,57.7456023 L6.87506293,34.8767614 L5.4263296,34.1288864 L11.2147677,59.6640795 Z M48.2633105,57.7456023 C48.1661772,58.4903068 48.3728439,59.24875 48.8210153,59.7831477 L48.9140153,59.8941136 C49.2975296,60.3517159 49.9213677,60.3517159 50.304882,59.8941136 C50.365701,59.8215455 50.4297677,59.7535568 50.4961963,59.6908523 L56.2908344,34.1288864 L54.8695582,34.8626705 L48.2633105,57.7456023 Z M14.0375391,55.3596591 L47.7029486,55.3596591 L53.6130248,34.8890909 C51.4377105,34.3296818 44.7417105,32.0166591 40.1770344,23.9982273 C37.165901,18.7085 36.0094534,12.1833523 35.578701,7.37659091 C35.3336534,7.22405682 35.1116344,7.02995455 34.9150058,6.79498864 L34.7877582,6.64386364 C34.4934058,6.29229545 34.1025105,6.09889773 33.6868153,6.09889773 C33.2708248,6.09889773 32.8799296,6.29229545 32.5858725,6.64315909 L32.5002534,6.74531818 C31.9829963,7.3625 31.295682,7.70244318 30.564082,7.70244318 C29.832482,7.70244318 29.1451677,7.3625 28.6279105,6.74531818 L28.5812629,6.68965909 C27.9739582,5.96503409 26.9863867,5.96503409 26.379082,6.68965909 L26.3448344,6.730875 C26.2996629,6.78477273 26.2524248,6.83690909 26.2034153,6.88728409 C25.8080915,11.7327955 24.6779201,18.5267273 21.5631582,23.997875 C16.998482,32.0163068 10.302482,34.3293295 8.12716769,34.8887386 L14.0375391,55.3596591 Z M6.15113912,32.9677955 L7.41210102,33.6191477 C8.54315817,33.3732614 15.8703772,31.4903636 20.5862153,23.2063182 C23.5707772,17.9634432 24.6475105,11.2854091 25.0245296,6.57728409 C25.0230534,6.54346591 25.0236439,6.50964773 25.026301,6.47547727 C25.2052153,4.17267045 25.2161391,2.33944318 25.2046248,1.40909091 L22.4290915,1.40909091 C22.4704248,4.32767045 22.2918058,15.0575455 17.8133391,22.9245 C14.0915677,29.4633864 8.88356769,32.026875 6.15113912,32.9677955 Z M36.5243486,1.40909091 C36.4936439,4.22621591 36.677282,15.3425341 41.1539772,23.2063182 C45.858301,31.4695795 53.1270629,33.3577614 54.3112629,33.615625 L55.5660248,32.9677955 C52.833301,32.026875 47.625301,29.4633864 43.9032344,22.9245 C39.4247677,15.0575455 39.2467391,4.32767045 39.2877772,1.40909091 L36.5243486,1.40909091 L36.5243486,1.40909091 Z M40.4722725,1.40909091 C40.4448153,4.14307955 40.6349486,14.6753295 44.8801772,22.1325909 C49.3229201,29.9364886 56.1674248,31.7665455 57.3743582,32.0335682 L59.2532534,31.0634091 C56.9117201,30.3560455 51.5369105,28.0835341 47.780301,21.4840568 C43.615082,14.1677045 43.4261296,4.20648864 43.4618534,1.40909091 L40.4722725,1.40909091 L40.4722725,1.40909091 Z M2.46361531,31.0637614 L4.34192007,32.0335682 C5.54796769,31.7637273 12.4045772,29.9185227 16.8366915,22.1329432 C21.0872344,14.666875 21.2738248,4.14096591 21.2451867,1.40909091 L18.2553105,1.40909091 C18.2910344,4.20648864 18.1017867,14.1680568 13.9368629,21.4840568 C10.1799582,28.0838864 4.80514864,30.3563977 2.46361531,31.0637614 Z M44.6463486,1.40909091 C44.6233201,4.02788636 44.8214248,13.7787955 48.7572439,20.6921477 C53.1427105,28.3963523 60.0766725,29.8596932 60.5478725,29.9505795 L60.5478725,29.7198409 C58.0976915,28.4055114 54.7854153,25.9381932 52.2502058,21.4840568 C48.085282,14.1677045 47.8963296,4.20648864 47.9320534,1.40909091 L44.6463486,1.40909091 L44.6463486,1.40909091 Z M1.19261531,29.7075114 L1.19261531,29.946 C1.8326915,29.818125 8.63497722,28.2896136 12.9599201,20.6921477 C16.9004629,13.7703409 17.0950248,4.02542045 17.0711105,1.40909091 L13.785701,1.40909091 C13.8214248,4.20648864 13.6321772,14.1680568 9.46725341,21.4840568 C6.93972007,25.92375 3.64043436,28.3900114 1.19261531,29.7075114 Z M49.1162534,1.40909091 C49.0932248,4.02788636 49.2913296,13.7787955 53.2268534,20.6921477 C55.4461582,24.5900455 58.3025867,26.8710114 60.5478725,28.1652614 L60.5478725,26.5233182 C59.0403867,25.0807614 57.7277582,23.3870341 56.6448248,21.4840568 C52.479901,14.1677045 52.2906534,4.20648864 52.3263772,1.40909091 L49.1162534,1.40909091 L49.1162534,1.40909091 Z M1.19261531,26.5004205 L1.19261531,28.151875 C3.43406293,26.8551591 6.27897722,24.5770114 8.49031055,20.6921477 C12.4308534,13.7703409 12.6254153,4.02542045 12.601501,1.40909091 L9.39078674,1.40909091 C9.42651055,4.20648864 9.23755817,14.1680568 5.07233912,21.4840568 C3.99472007,23.3768182 2.69065341,25.0631477 1.19261531,26.5004205 Z M53.5105772,1.40909091 C53.4878439,4.02788636 53.6859486,13.7787955 57.6214725,20.6921477 C58.4572915,22.1607727 59.4383677,23.4965909 60.5475772,24.6777614 L60.5475772,23.5730341 C60.2219296,22.8783523 59.9151772,22.137875 59.6349963,21.3688636 C56.981101,14.0880909 56.8627105,4.17619318 56.8857391,1.40873864 L53.5105772,1.40873864 L53.5105772,1.40909091 Z M1.19261531,23.5240682 L1.19261531,24.6531023 C2.29208198,23.4779205 3.26548198,22.1505568 4.09539626,20.6921477 C8.03623436,13.7703409 8.23050102,4.02577273 8.20658674,1.40909091 L4.8311296,1.40909091 C4.85415817,4.17654545 4.73606293,14.0884432 2.08187245,21.3692159 C1.80848198,22.1192045 1.50999626,22.843125 1.19261531,23.5240682 Z M58.0693486,1.40909091 C58.054882,3.99653409 58.1782915,13.4103182 60.5478725,20.3250795 L60.5478725,1.40909091 L58.0693486,1.40909091 Z M1.19261531,1.40909091 L1.19261531,20.2567386 C3.53946293,13.3486705 3.66198674,3.98807955 3.64752007,1.40909091 L1.19261531,1.40909091 L1.19261531,1.40909091 Z M27.4806153,4.73842045 C28.1818058,4.73842045 28.8824058,5.05652273 29.4161963,5.69343182 L29.4628439,5.74909091 C29.756901,6.09995455 30.1477963,6.29335227 30.5637867,6.29335227 C30.9797772,6.29335227 31.3706725,6.09995455 31.6647296,5.74909091 L31.7503486,5.64693182 C32.2676058,5.02975 32.9549201,4.68980682 33.6865201,4.68980682 C34.3322058,4.68980682 34.9436439,4.95471591 35.4340344,5.44155682 C35.3262725,3.63122727 35.319482,2.21509091 35.3295201,1.40909091 L26.4003391,1.40909091 C26.4115582,2.16084091 26.4094915,3.42972727 26.3265296,5.04102273 C26.6914439,4.83917045 27.085882,4.73842045 27.4806153,4.73842045 Z"></path></g>
            </symbol>

                        <symbol viewBox="0 0 24 24" id="icon-nav-proyectos">
                <path d="M22.662 6.918c.473-.473.732-1.1.732-1.768 0-.668-.26-1.295-.732-1.767l-2.27-2.27c-.848-.85-2.332-.85-3.182 0L2.977 15.344a.495.495 0 0 0-.135.297c-.215.483-.785 1.906-2.55 6.397-.18.434-.066.946.29 1.304.242.243.55.37.86.37.144 0 .287-.027.425-.083 4.5-1.736 5.94-2.302 6.434-2.52a.487.487 0 0 0 .306-.136L22.662 6.918zm-18.34 14.69L2.324 19.61c.476-1.202.924-2.33 1.2-3.013l3.826 3.827c-.685.27-1.82.715-3.028 1.183zm13.595-19.79c.473-.47 1.295-.47 1.768 0l2.27 2.272c.283.283.44.66.44 1.06s-.157.778-.44 1.06L8.253 19.914 6.85 18.51 18.1 7.263a.5.5 0 0 0-.708-.707L6.144 17.805l-2.106-2.107 13.88-13.88zM1.497 22.702c-.085.037-.174-.03-.206-.062-.057-.058-.102-.15-.07-.225l.704-1.79 1.38 1.38-1.806.698zm3.451-11.174a.5.5 0 1 0 .707-.707l-.698-.697.953-.952a.5.5 0 1 0-.707-.706l-.953.952L3.205 8.37l2.87-2.868a.5.5 0 0 0-.708-.707l-2.87 2.87-1.16-1.16 5.145-5.146L10.8 5.677a.5.5 0 0 0 .707-.707L6.837.3a.498.498 0 0 0-.71-.003L.276 6.15a.5.5 0 0 0 0 .707l4.67 4.67m18.869 5.751l-4.822-4.822a.5.5 0 0 0-.707.707l4.47 4.47-5.147 5.143-1.12-1.12 2.87-2.87a.5.5 0 0 0-.707-.706l-2.87 2.87-1.12-1.12.953-.952a.5.5 0 0 0-.707-.707l-.953.953-.815-.816a.5.5 0 0 0-.707.708l4.82 4.822a.503.503 0 0 0 .707 0l5.852-5.852a.498.498 0 0 0 0-.707" fill-rule="evenodd"></path>
            </symbol>

                        <symbol viewBox="0 0 24 22" id="icon-nav-proyectos-categorias">
                 <path d="M22.535 2.04H6.77C5.804 0 5.214 0 5.015 0H1.446C.65 0 0 .65 0 1.45v19.06c0 .8.65 1.45 1.446 1.45h21.09c.796 0 1.444-.65 1.444-1.45V3.49c0-.8-.648-1.45-1.445-1.45zM1.445 1h3.498c.22.17.698.957 1.052 1.745.08.18.26.295.457.295h16.083c.246 0 .445.202.445.45v2.52H1V1.45c0-.248.2-.45.446-.45zm21.09 19.96H1.445c-.245 0-.445-.202-.445-.45V7.01h21.98v13.5c0 .248-.2.45-.445.45z" fill-rule="evenodd"></path>
            </symbol>

                        <symbol viewBox="0 0 23 18.995" id="icon-nav-proyectos-oficinas"><g><path d="M5.728 5.427c1.445 0 2.404-1.818 2.404-3.02C8.132 1.078 7.055 0 5.728 0 4.402 0 3.323 1.08 3.323 2.405c0 1.203.96 3.022 2.405 3.022zm0-4.427c.774 0 1.404.63 1.404 1.405 0 .846-.708 2.02-1.404 2.02-.697 0-1.405-1.175-1.405-2.02C4.323 1.63 4.953 1 5.728 1zM22.5 17.995h-5.34l-.51-4.556c-.03-.254-.243-.445-.498-.445h-2.354c-.257 0-.47.194-.497.45l-.467 4.55H.5c-.276 0-.5.224-.5.5s.224.5.5.5h22c.276 0 .5-.224.5-.5s-.224-.5-.5-.5zm-8.66 0l.41-4h1.455l.448 4H13.84z"></path><path d="M3.433 16.975H6.26c.275 0 .5-.224.5-.5s-.225-.5-.5-.5H3.432c-.324 0-.623-.132-.84-.37-.22-.24-.323-.55-.293-.87l.416-4.563c0-1.09.587-2.082 1.523-2.615.962 1.062 2.37.928 3.246-.342.157-.227.1-.538-.127-.695-.228-.16-.54-.102-.696.127-.58.838-1.295.834-1.872 0-.135-.196-.39-.267-.604-.177-1.5.63-2.472 2.082-2.47 3.656l-.414 4.517c-.055.597.145 1.192.55 1.636.403.44.98.695 1.58.695zM9.835 15.995h1.662c.276 0 .5-.224.5-.5s-.224-.5-.5-.5H9.835c-.164 0-.338-.188-.338-.365V8.282c0-.172.175-.287.338-.287H20.05c.216 0 .447.17.447.287v6.348c0 .14-.245.365-.448.365h-1.553c-.276 0-.5.224-.5.5s.224.5.5.5h1.552c.743 0 1.447-.663 1.447-1.365V8.282c0-.76-.764-1.287-1.448-1.287H9.834c-.737 0-1.338.577-1.338 1.287v6.348c0 .727.625 1.365 1.338 1.365z"></path></g></symbol>

                        <symbol viewBox="0 0 13 23.688" id="icon-nav-proyectos-auditorios"><g><path d="M6.5 4.366c1.18 0 2.13-1.322 2.13-2.417C8.63.873 7.675 0 6.5 0S4.373.874 4.373 1.95c0 1.094.95 2.416 2.13 2.416zM6.5 1c.623 0 1.13.426 1.13.95 0 .592-.57 1.416-1.13 1.416S5.373 2.542 5.373 1.95c0-.524.507-.95 1.13-.95zM12.5 12.69h-7v-2.484l1.204-1.422c.178-.21.152-.526-.06-.705-.207-.18-.524-.153-.704.057l-1.322 1.56c-.076.092-.118.206-.118.324v2.668h-4c-.276 0-.5.224-.5.5s.224.5.5.5h1.466l1.798 9.592c.044.237.25.408.49.408h4.398c.24 0 .447-.172.49-.408l1.798-9.592h1.56c.276 0 .5-.224.5-.5s-.224-.5-.5-.5zm-4.263 9.998H4.67l-1.687-9h6.94l-1.686 9z"></path><path d="M1.997 11.672c.278.003.505-.212.512-.488l.06-2.568c0-1.055.81-2.02 2.09-2.52.924.833 2.753.84 3.683.002 1.28.498 2.09 1.464 2.09 2.53l.062 2.556c.007.273.23.488.5.488h.012c.276-.007.495-.235.488-.512l-.06-2.545c0-1.577-1.21-2.98-3.08-3.574-.2-.06-.42.005-.547.17-.267.343-.752.547-1.3.547s-1.05-.21-1.312-.546c-.128-.165-.35-.232-.546-.17-1.87.595-3.08 1.998-3.08 3.564l-.06 2.556c-.008.276.21.505.487.512z"></path></g></symbol>

                        <svg viewBox="0 0 24 24" id="icon-nav-proyectos-institucional">
                <g fill-rule="evenodd"><path d="M8.895 20.948h.958V9.968h-.958v10.98zm-.5-11.98c-.277 0-.5.224-.5.5v11.98a.5.5 0 0 0 .5.5h1.958a.5.5 0 0 0 .5-.5V9.468a.5.5 0 0 0-.5-.5H8.395zM3.895 20.948h.958V9.968h-.958v10.98zm-.5-11.98c-.277 0-.5.224-.5.5v11.98a.5.5 0 0 0 .5.5h1.958a.5.5 0 0 0 .5-.5V9.468a.5.5 0 0 0-.5-.5H3.395zM13.896 20.948h.958V9.968h-.958v10.98zm-.5-11.98c-.277 0-.5.224-.5.5v11.98a.5.5 0 0 0 .5.5h1.958a.5.5 0 0 0 .5-.5V9.468a.5.5 0 0 0-.5-.5h-1.958zM18.896 20.948h.958V9.968h-.958v10.98zm-.5-11.98c-.277 0-.5.224-.5.5v11.98a.5.5 0 0 0 .5.5h1.958a.5.5 0 0 0 .5-.5V9.468a.5.5 0 0 0-.5-.5h-1.958zM11.884 1.088l9.604 5.945H2.261l9.623-5.945zM.5 8.033h22.766a.5.5 0 0 0 .171-.97L12.147.075a.499.499 0 0 0-.526 0L.238 7.108a.5.5 0 0 0 .262.925zM23.246 22.977H.5a.5.5 0 0 0 0 1h22.746a.5.5 0 0 0 0-1"></path><path d="M11.873 5.002a.498.498 0 0 1 0-.995.498.498 0 0 1 0 .995m0-1.995a1.5 1.5 0 0 0-1.498 1.498 1.499 1.499 0 1 0 1.498-1.498"></path></g>
            </svg>


                        <symbol viewBox="0 0 23.345 21.829" id="icon-nav-proyectos-sanidad"><g><path d="M22.674 11.94h-7.577L13.9 9.246c-.088-.198-.298-.32-.51-.294-.218.023-.394.184-.438.396l-1.022 5.01-1.96-8.432c-.054-.224-.25-.383-.48-.387h-.008c-.227 0-.426.153-.483.373l-1.59 6.025H.673c-.276 0-.5.224-.5.5s.224.5.5.5h7.12c.226 0 .425-.153.482-.372l1.175-4.45 2.024 8.7c.053.227.255.387.487.387h.008c.235-.003.436-.17.483-.4l1.17-5.723.694 1.56c.08.182.26.298.457.298h7.903c.276 0 .5-.224.5-.5s-.223-.5-.5-.5z"></path><path d="M2.24 10.878c.21-.178.24-.493.062-.705C1.462 9.17 1 7.897 1 6.588 1 3.508 3.508 1 6.59 1c1.83 0 3.58.866 4.684 2.318.095.124.242.197.398.197.156 0 .304-.073.398-.197C13.175 1.868 14.926 1 16.755 1c3.082 0 5.59 2.507 5.59 5.588 0 1.31-.463 2.58-1.303 3.585-.177.212-.148.527.062.705.094.078.208.116.32.116.144 0 .285-.06.385-.18.99-1.183 1.534-2.685 1.534-4.226 0-3.633-2.956-6.588-6.59-6.588-1.932 0-3.79.826-5.08 2.236C10.378.826 8.52 0 6.59 0 2.956 0 0 2.955 0 6.588c0 1.542.545 3.044 1.535 4.227.18.212.492.24.705.063zM17.576 14.166l-5.63 6.488c-.096.11-.235.175-.383.175h-.004c-.15-.003-.288-.066-.385-.182l-5.48-6.477c-.18-.208-.495-.234-.705-.058-.21.18-.237.494-.06.705l5.48 6.478c.284.336.7.53 1.14.533h.012c.438 0 .852-.188 1.14-.517l5.63-6.487c.18-.21.157-.524-.05-.706-.21-.18-.523-.158-.706.05z"></path></g></symbol>

                        <symbol viewBox="0 0 21.691 24.045" id="icon-nav-proyectos-terminales"><path d="M16.776 9.52l-.063-.003c-1.62-1.898-2.9-3.412-3.92-4.62C8.89.278 8.656.002 7.643 0h-1c-.17 0-.33.088-.42.233-.093.144-.105.325-.032.48l4.248 9.073-5.348.396-2.305-2.58c-.095-.105-.23-.165-.373-.165H.5c-.183 0-.352.1-.44.262-.087.16-.08.356.02.51l2.36 3.612-2.367 3.983c-.092.154-.094.346-.005.502.09.156.255.253.435.253h1.91c.143 0 .278-.06.373-.167l2.304-2.578 5.352.398-4.25 9.122c-.07.155-.06.336.032.48.092.143.25.23.422.23h.997c1.013 0 1.245-.275 5.14-4.88 1.02-1.21 2.304-2.73 3.932-4.635l.112-.007c1.7-.108 4.864-.31 4.865-2.5-.002-2.172-3.078-2.38-4.916-2.502zm-.013 4.003l-.328.022c-.14.01-.265.077-.35.182-1.69 1.98-3.017 3.548-4.066 4.79-3.504 4.145-3.843 4.528-4.376 4.528H7.43l4.224-9.066c.07-.15.06-.323-.022-.465-.083-.142-.23-.233-.394-.246l-6.32-.47c-.154-.013-.305.048-.41.164L2.19 15.56h-.807l2.08-3.496c.097-.164.093-.37-.012-.53L1.424 8.437h.765l2.318 2.596c.105.116.254.175.41.165l6.318-.47c.164-.01.31-.103.394-.245.083-.142.09-.315.022-.464L7.432 1h.21c.535 0 .875.386 4.39 4.543 1.048 1.24 2.372 2.807 4.06 4.782.086.102.21.165.344.174l.275.018c1.392.093 3.982.268 3.983 1.503-.003 1.254-2.655 1.422-3.93 1.503z"></path></symbol>

                        <symbol viewBox="0 0 24 17" id="icon-nav-proyectos-educacion">
                <g fill-rule="evenodd"><path d="M3.123 15.021H1.954c-.035 0-.066-.02-.084-.02-.008 0-.013.003-.016.014l.287-1.694c0-.05.042-.092.093-.092h.61c.05 0 .092.041.1.178l.271 1.522a.092.092 0 0 1-.092.092m-.085-2.753V9.61a.5.5 0 0 0-1 0v2.658c-.506.095-.895.511-.889.967L.862 14.93c0 .602.49 1.092 1.092 1.092h1.17c.6 0 1.091-.49 1.083-1.178l-.272-1.522c0-.533-.39-.957-.897-1.053"></path><path d="M1.342 7.02l1.633-2.992h8.7a.5.5 0 0 0 0-1H3.52L4.626.998H20.05l2.653 6.022H1.342zm16.235 6.356c-.076.818-2.142 1.646-5.556 1.646s-5.48-.829-5.556-1.646L7.688 8.02h8.666l1.223 5.354zm6.3-6.172L20.835.298a.502.502 0 0 0-.458-.3H4.329c-.182 0-.351.1-.438.261L.06 7.281a.495.495 0 0 0 .01.494.497.497 0 0 0 .429.245h6.162l-1.186 5.197a.464.464 0 0 0-.013.112c0 1.985 3.388 2.692 6.558 2.692s6.558-.707 6.558-2.692a.52.52 0 0 0-.012-.112L17.379 8.02h6.092c.008.002.015 0 .019 0a.5.5 0 0 0 .387-.816z"></path></g>
            </symbol>

                        <symbol viewBox="0 0 20.993 23.484" id="icon-nav-proyectos-hosteleria"><g><path d="M20.62 14.703c-.363-.614-.938-1.044-1.62-1.21-.36-.087-.73-.087-1.084-.016.05-.494.086-.995.086-1.507 0-.276-.224-.5-.5-.5H.5c-.276 0-.5.224-.5.5 0 4.686 2.202 8.72 5.35 10.515H.515c-.276 0-.5.224-.5.5s.224.5.5.5h16.95c.276 0 .5-.224.5-.5s-.224-.5-.5-.5h-4.812c1.657-.946 3.047-2.515 3.995-4.473.324.31.716.542 1.16.65.2.048.4.07.602.07.472 0 .936-.132 1.347-.39 1.21-.76 1.595-2.394.86-3.64zM9 22.483c-4.283 0-7.792-4.447-7.99-10.014h15.983c-.2 5.566-3.708 10.014-7.992 10.014zm10.226-4.988c-.355.224-.772.294-1.18.194-.398-.097-.732-.347-.958-.698.29-.765.52-1.573.674-2.42.315-.148.663-.19 1.004-.106.416.102.77.366.993.745.462.785.222 1.81-.534 2.285zM7.83 9.372l.05.002c.25 0 .464-.19.492-.445.03-.272-.168-.52-.438-.553-.016-.002-.384-.052-.538-.378-.118-.25-.263-1.025.906-2.872C9.435 3.335 9.827 1.935 9.47.968 9.2.243 8.617.045 8.55.025c-.265-.086-.543.066-.623.33-.08.265.066.544.33.625.002 0 .18.077.274.335.14.37.182 1.29-1.074 3.277-1.062 1.682-1.384 2.98-.954 3.855.323.66.987.892 1.33.925zM11.144 9.372l.05.002c.253 0 .47-.193.496-.452.026-.275-.176-.52-.45-.546 0 0-.094-.02-.128-.09-.018-.037-.156-.39.503-1.432.692-1.097.917-1.934.686-2.56-.143-.388-.445-.604-.66-.67-.267-.08-.56.06-.642.325-.08.263.05.537.314.618.007.003.04.025.06.103.03.116.076.577-.602 1.648-.657 1.04-.84 1.827-.555 2.406.278.57.864.64.93.648z"></path></g></symbol>

                        <symbol viewBox="0 0 22 24" id="icon-nav-recursos">
                <g fill-rule="evenodd"><path d="M21.513 11.404c-.16-1.694-1.305-2.905-1.748-3.313-.245-2.84-1.96-3.714-2.714-3.962-.454-1.89-1.294-3.11-2.5-3.634-1.444-.625-2.923-.038-3.5.246C10.49.457 9.1-.11 7.69.463 6.456.965 5.567 2.196 5.05 4.125c-.75.244-2.47 1.11-2.723 3.95-.472.396-1.66 1.544-1.857 3.19-.138 1.15.255 2.29 1.122 3.39-.05.155-.094.315-.125.48-.346 1.828.614 3.84 2.844 5.986.01.024.01.046.02.07.48 1.195 1.304 2.027 2.383 2.405.44.154.916.23 1.416.23.93 0 1.933-.274 2.915-.786.48.225 1.64.698 2.914.698.536 0 1.092-.085 1.623-.308 1.065-.45 1.815-1.377 2.255-2.73.807-.393 3.546-2.042 2.494-5.84.882-1.11 1.293-2.27 1.18-3.456zM7.043 22.65c-.81-.283-1.41-.9-1.784-1.833-.525-1.306.078-2.28.1-2.318.153-.233.088-.542-.142-.693-.232-.152-.54-.09-.693.143-.023.036-.38.597-.46 1.457-1.293-1.5-1.844-2.87-1.617-4.08.366-1.95 2.66-2.91 2.684-2.92.256-.105.378-.397.274-.652-.104-.256-.396-.38-.65-.275-.09.036-1.716.715-2.672 2.166-.492-.755-.71-1.51-.622-2.254.184-1.58 1.626-2.645 1.64-2.656.122-.088.198-.226.207-.376.162-2.764 1.855-3.255 2.17-3.323.09.01.464.07.757.397.293.33.417.835.37 1.506-.02.276.186.515.46.536h.038c.26 0 .48-.2.498-.463.07-.953-.14-1.708-.62-2.246-.29-.324-.623-.5-.903-.603.435-1.475 1.1-2.41 1.983-2.773.983-.4 2.028-.004 2.482.215v20.58c-1.25.642-2.514.812-3.5.466zM18.1 19.386c.074-1.537-.774-2.42-1.738-2.74-1.375-.456-2.955.14-3.387 1.274-.098.257.032.546.29.644.256.095.546-.03.645-.29.24-.634 1.282-.964 2.137-.68.963.32 1.297 1.266.918 2.598-.337 1.183-.932 1.962-1.767 2.315-1.342.568-3.015-.055-3.653-.34V9.865c.572-.297 2.1-.968 3.217-.507-.072.58-.045 1.216.17 1.904.067.214.264.35.477.35.05 0 .1-.008.15-.023.262-.082.41-.363.326-.627-.512-1.63.282-2.956.802-3.602.172-.214.138-.53-.077-.703-.215-.172-.528-.14-.702.076-.3.372-.665.934-.913 1.628-1.21-.41-2.607.028-3.45.397V1.61c.48-.225 1.604-.636 2.612-.196.95.416 1.62 1.5 1.984 3.222.045.207.214.363.422.39.02.004 2.042.313 2.22 3.334.008.14.076.272.186.36.014.012 1.4 1.15 1.55 2.786.09.98-.283 1.965-1.107 2.926-.225.264-.92 1.072-2.43-.2-.212-.18-.53-.152-.706.06-.177.212-.15.527.06.705 1.143.96 2.252 1.167 3.16.644.364 2.016-.618 3.17-1.394 3.745z"></path><path d="M6.926 8.373c-.252-.117-.548-.01-.665.24-.117.25-.01.547.24.664.024.012 2.47 1.19 1.886 3.222-.076.265.077.542.342.618.046.014.092.02.138.02.218 0 .417-.143.48-.362.656-2.274-1.296-3.875-2.42-4.403M8.13 15.677c-.053.04-1.294.962-1.395 2.283-.054.722.23 1.4.848 2.016.098.098.226.147.354.147.127 0 .255-.05.353-.147.195-.196.195-.512 0-.707-.406-.406-.59-.808-.558-1.23.063-.86.98-1.55.99-1.558.22-.164.27-.476.105-.698-.163-.224-.476-.27-.697-.107"></path></g>
            </symbol>

                        <symbol viewBox="0 0 24 24" id="icon-nav-recursos-arquitectura">
                <path d="M22.662 6.918c.473-.473.732-1.1.732-1.768 0-.668-.26-1.295-.732-1.767l-2.27-2.27c-.848-.85-2.332-.85-3.182 0L2.977 15.344a.495.495 0 0 0-.135.297c-.215.483-.785 1.906-2.55 6.397-.18.434-.066.946.29 1.304.242.243.55.37.86.37.144 0 .287-.027.425-.083 4.5-1.736 5.94-2.302 6.434-2.52a.487.487 0 0 0 .306-.136L22.662 6.918zm-18.34 14.69L2.324 19.61c.476-1.202.924-2.33 1.2-3.013l3.826 3.827c-.685.27-1.82.715-3.028 1.183zm13.595-19.79c.473-.47 1.295-.47 1.768 0l2.27 2.272c.283.283.44.66.44 1.06s-.157.778-.44 1.06L8.253 19.914 6.85 18.51 18.1 7.263a.5.5 0 0 0-.708-.707L6.144 17.805l-2.106-2.107 13.88-13.88zM1.497 22.702c-.085.037-.174-.03-.206-.062-.057-.058-.102-.15-.07-.225l.704-1.79 1.38 1.38-1.806.698zm3.451-11.174a.5.5 0 1 0 .707-.707l-.698-.697.953-.952a.5.5 0 1 0-.707-.706l-.953.952L3.205 8.37l2.87-2.868a.5.5 0 0 0-.708-.707l-2.87 2.87-1.16-1.16 5.145-5.146L10.8 5.677a.5.5 0 0 0 .707-.707L6.837.3a.498.498 0 0 0-.71-.003L.276 6.15a.5.5 0 0 0 0 .707l4.67 4.67m18.869 5.751l-4.822-4.822a.5.5 0 0 0-.707.707l4.47 4.47-5.147 5.143-1.12-1.12 2.87-2.87a.5.5 0 0 0-.707-.706l-2.87 2.87-1.12-1.12.953-.952a.5.5 0 0 0-.707-.707l-.953.953-.815-.816a.5.5 0 0 0-.707.708l4.82 4.822a.503.503 0 0 0 .707 0l5.852-5.852a.498.498 0 0 0 0-.707" fill-rule="evenodd"></path>
            </symbol>

                        <symbol viewBox="0 0 64 46.809" id="icon-nav-recursos-videos">
                <g><path d="M30.913 13.638c-.455-.328-.986-.502-1.538-.502-1.457 0-2.64 1.184-2.64 2.638V31.25c0 1.453 1.183 2.637 2.64 2.637.558 0 1.092-.175 1.54-.505l10.657-7.74c.68-.492 1.084-1.287 1.084-2.128.003-.84-.402-1.64-1.084-2.136l-10.66-7.74zm-1.472 17.47l-.115-15.28 10.656 7.625-10.54 7.656z"></path><path d="M58.425 3.035C56.455 1.623 51.673 0 31.985 0 10.774 0 7.64 1.9 6.462 2.612.738 6.052.07 19.65 0 23.782c.09 5.03.896 17.09 6.458 20.43 1.184.712 4.325 2.597 25.526 2.597 19.72 0 24.49-1.616 26.44-3.023 4.812-3.463 5.56-14.064 5.576-20.08-.013-5.02-.587-17.08-5.575-20.672zm-1.58 38.556c-2.314 1.666-10.678 2.512-24.86 2.512-9.33 0-21.09-.383-24.13-2.21-3.6-2.16-5.018-10.796-5.148-18.11C2.84 15.858 4.484 6.957 7.862 4.93c3.032-1.837 14.79-2.223 24.122-2.223 14.162 0 22.526.85 24.86 2.525 3.252 2.342 4.428 11.42 4.45 18.476-.028 9.212-1.69 15.895-4.45 17.883z"></path></g>
            </symbol>

                        <symbol viewBox="0 0 64 54.692" id="icon-nav-recursos-descargas">
                <g><path d="M37.85 43.987l-5.726 5.934V23.2c0-.758-.614-1.372-1.373-1.372-.758 0-1.372.614-1.372 1.373v26.72l-5.728-5.933c-.525-.544-1.394-.56-1.94-.035-.546.527-.563 1.395-.036 1.94l8.088 8.38.01.007c.248.252.593.412.978.412s.73-.16.978-.413l.01-.008 8.086-8.38c.527-.545.51-1.413-.035-1.94-.544-.525-1.412-.51-1.94.035z"></path><path d="M59.755 16.137c-2.725-2.476-6.424-3.816-10.14-3.698C47.618 7.47 42.45 3.155 34.77 3.86c-4.94-3.878-11.304-4.91-17.137-2.75C11.663 3.322 7.403 8.417 6.14 14.815.172 18.76-.734 24.56.45 28.755c1.605 5.692 6.764 9.517 12.836 9.517h7.717c.76 0 1.373-.614 1.373-1.373 0-.76-.614-1.374-1.373-1.374h-7.717c-5.578 0-9.14-3.776-10.195-7.518-1.22-4.333.65-8.517 5.01-11.188.338-.208.57-.553.636-.945.945-5.698 4.63-10.255 9.853-12.192 5.084-1.88 10.644-.887 14.88 2.655.292.245.676.36 1.048.31 7.453-.91 11.57 3.535 12.837 7.628.193.622.784 1.017 1.444.96 3.366-.33 6.698.743 9.11 2.933 2.127 1.93 3.345 4.547 3.345 7.18 0 5.516-5.11 10.177-11.16 10.177H40.37c-.76 0-1.373.614-1.373 1.373 0 .76.614 1.373 1.373 1.373h9.728C57.633 38.273 64 32.353 64 25.35c0-3.406-1.547-6.764-4.245-9.213z"></path></g>
            </symbol>

                        <symbol viewBox="0 0 22 16" id="icon-nav-empresa">
                <g fill-rule="evenodd"><path d="M1.63 11.545a.5.5 0 0 0 .5-.5v-.79c.147-.09.383-.226.74-.415.88-.467 1.587-.756 1.594-.76a.498.498 0 0 0 .31-.462v-1.7a.5.5 0 1 0-1 0v1.37c-.3.134-.798.364-1.373.668-.782.415-1.044.608-1.07.628a.501.501 0 0 0-.2.4v1.06a.5.5 0 0 0 .5.5"></path><path d="M21.533 10.514a.499.499 0 1 0 0-1h-4.806v-.832h4.806a.5.5 0 0 0 0-1h-4.25l-.003-1.42v-.037l-.004-1.134c-.012-.063-.32-1.584-1.76-3.14C14.493.846 13.88.366 13.857.347a.506.506 0 0 0-.46-.082c-.038.01-3.824 1.224-7.435 2.897-3.714 1.72-4.725 3.48-4.766 3.555a.491.491 0 0 0-.063.242v.953a.5.5 0 0 0 1 0v-.803c.262-.365 1.358-1.7 4.25-3.04 3.013-1.393 6.15-2.463 7.06-2.764.245.214.71.644 1.342 1.328a6.843 6.843 0 0 1 1.342 2.1c-.112-.108-.233-.22-.366-.337-.915-.803-2.003-1.366-2.05-1.39a.506.506 0 0 0-.288-.052c-.086.012-2.11.265-3.595.833-1.674.64-3.91 1.853-4.004 1.904a.5.5 0 0 0-.26.44V14.4H2.13v-1.398c.102-.055.266-.133.516-.23.638-.24 1.685-.383 1.696-.384a.5.5 0 0 0 .433-.495v-1.368a.5.5 0 0 0-1 0v.94c-.406.07-1.018.197-1.484.374-.684.26-.947.462-1.048.586a.5.5 0 0 0-.11.314v1.66h-.02a.5.5 0 0 0 0 1h20.42a.499.499 0 1 0 0-1H17v-3.886h4.533zM6.56 6.426c.64-.34 2.334-1.216 3.623-1.71.85-.323 1.926-.54 2.628-.66V14.4H6.56V6.426zm7.25 7.974V4.217c.368.224.85.545 1.288.927.698.614 1.055 1.096 1.187 1.29v1.248h-.058c-.276 0-.5.222-.5.5v1.833c0 .192.113.354.272.438V14.4h-2.19z"></path></g>
            </symbol>

                        <symbol viewBox="0 0 25 24" id="icon-nav-empresa-conocenos">
                <g fill-rule="evenodd"><path d="M12.95.203a.495.495 0 0 0-.65 0L.85 10.036a.5.5 0 1 0 .652.759l1.118-.96v12.752a.5.5 0 0 0 .5.5h19a.5.5 0 0 0 .5-.5V9.823l1.13.97c.094.082.21.122.326.122a.498.498 0 0 0 .325-.878L12.95.203zm8.67 21.883h-18V8.974l9.006-7.733 8.994 7.725v13.12z"></path><path d="M11.124 6.853h.644V6.06H13.5v.793h.645v.3h-3.02v-.3zm.544 5.898h1.936l-.968-2.5-.968 2.5zm2.354 1.08H11.25l-2.14 5.52h1.232v.675H8.184L7.15 20.02l4.577-11.322h1.815l4.15 10.206 1.27-.388.198.65-1.782.543-.96.31-2.396-6.19z"></path></g>
            </symbol>

                        <symbol viewBox="0 0 64 64" id="icon-nav-empresa-adnactiu">
                <g fill-rule="evenodd"><path d="M14.7316602,43.8227383 C10.2226133,41.7090469 6.84070703,39.3136914 4.86796875,36.6364297 L19.8042773,36.6364297 C20.6497539,36.6364297 21.2133242,36.0727383 21.2133242,35.2273828 C21.2133242,34.3820273 20.6496328,33.8183359 19.8042773,33.8183359 L3.45892188,33.8183359 C3.17713672,32.8320273 2.89523047,31.9865508 2.89523047,31.0001211 C2.89523047,26.6319063 6.55892188,23.2501211 9.51796875,21.1364297 C10.2224922,20.7136914 10.3634453,19.8682148 9.94070703,19.1636914 C9.51796875,18.459168 8.67249219,18.3182148 7.96796875,18.7409531 C2.75427734,22.4046445 0.077015625,26.6319063 0.077015625,31 C0.077015625,36.9182148 4.86796875,42.4136914 13.6042773,46.3590469 C18.8179688,48.7545234 22.4815391,51.7135703 24.3133242,54.9545234 L8.53166016,54.9545234 C7.68618359,54.9545234 7.12261328,55.5182148 7.12261328,56.3635703 C7.12261328,57.2090469 7.68630469,57.7726172 8.53166016,57.7726172 L25.299875,57.7726172 C25.4408281,58.1953555 25.4408281,58.7589258 25.4408281,59.1816641 L25.4408281,60.5907109 C25.4408281,61.4361875 26.0045195,61.9997578 26.849875,61.9997578 C27.6952305,61.9997578 28.2589219,61.4360664 28.2589219,60.5907109 L28.2589219,59.1816641 C28.2589219,53.2636914 23.4679688,47.7682148 14.7316602,43.8227383 Z"></path><path d="M9.94070703,47.3454766 C9.51796875,46.6409531 8.67249219,46.5 7.96796875,46.9227383 C2.75427734,50.5864297 0.077015625,54.8136914 0.077015625,59.1817852 L0.077015625,60.590832 C0.077015625,61.4363086 0.640707031,61.9998789 1.4860625,61.9998789 C2.33153906,61.9998789 2.89510938,61.4361875 2.89510938,60.590832 L2.89510938,59.1817852 C2.89510938,54.8135703 6.55880078,51.4317852 9.51784766,49.3180937 C10.2224922,48.8954766 10.3634453,48.05 9.94070703,47.3454766 Z"></path><path d="M14.7316602,15.6409531 C9.51796875,13.2454766 5.85439844,10.2864297 4.02261328,7.04547656 L19.8043984,7.04547656 C20.649875,7.04547656 21.2134453,6.48178516 21.2134453,5.63642969 C21.2134453,4.79107422 20.6497539,4.22738281 19.8043984,4.22738281 L3.03618359,4.22738281 C2.89523047,3.80464453 2.89523047,3.24095312 2.89523047,2.81833594 L2.89523047,1.40904688 C2.89523047,0.563691406 2.33166016,0 1.48618359,0 C0.640707031,0 0.0771367188,0.563691406 0.0771367188,1.40904688 L0.0771367188,2.81809375 C0.0771367188,8.73630859 4.86808984,14.2317852 13.6043984,18.1771406 C18.1134453,20.290832 21.4953516,22.6861875 23.4680898,25.3634492 L8.53166016,25.3634492 C7.68618359,25.3634492 7.12261328,25.9271406 7.12261328,26.7724961 C7.12261328,27.6179727 7.68630469,28.181543 8.53166016,28.181543 L24.8771367,28.181543 C25.1589219,29.1678516 25.4408281,30.0133281 25.4408281,30.9997578 C25.4408281,35.3679727 21.7771367,38.8907109 18.6771367,41.0042812 C17.9726133,41.4270195 17.8316602,42.2724961 18.2543984,42.9770195 C18.5361836,43.3997578 18.9589219,43.5407109 19.3816602,43.5407109 C19.6634453,43.5407109 19.9453516,43.3997578 20.2271367,43.2589258 C25.4408281,39.7361875 28.2589219,35.5089258 28.2589219,30.9998789 C28.2589219,25.0817852 23.4679688,19.5863086 14.7316602,15.6409531 Z"></path><path d="M26.8497539,0 C26.0042773,0 25.440707,0.563691406 25.440707,1.40904687 L25.440707,2.81809375 C25.440707,7.18630859 21.7770156,10.7090469 18.6770156,12.8226172 C17.9724922,13.2453555 17.8315391,14.090832 18.2542773,14.7953555 C18.5360625,15.2180937 18.9588008,15.3590469 19.3815391,15.3590469 C19.6633242,15.3590469 19.9452305,15.2180937 20.2270156,15.0772617 C25.440707,11.5545234 28.2588008,7.32726172 28.2588008,2.81821484 L28.2588008,1.40904687 C28.2589219,0.563691406 27.6952305,0 26.8497539,0 Z"></path></g>
            </symbol>

                        <symbol viewBox="0 0 22 16" id="icon-nav-empresa-parque">
                <g fill-rule="evenodd"><path d="M1.63 11.545a.5.5 0 0 0 .5-.5v-.79c.147-.09.383-.226.74-.415.88-.467 1.587-.756 1.594-.76a.498.498 0 0 0 .31-.462v-1.7a.5.5 0 1 0-1 0v1.37c-.3.134-.798.364-1.373.668-.782.415-1.044.608-1.07.628a.501.501 0 0 0-.2.4v1.06a.5.5 0 0 0 .5.5"></path><path d="M21.533 10.514a.499.499 0 1 0 0-1h-4.806v-.832h4.806a.5.5 0 0 0 0-1h-4.25l-.003-1.42v-.037l-.004-1.134c-.012-.063-.32-1.584-1.76-3.14C14.493.846 13.88.366 13.857.347a.506.506 0 0 0-.46-.082c-.038.01-3.824 1.224-7.435 2.897-3.714 1.72-4.725 3.48-4.766 3.555a.491.491 0 0 0-.063.242v.953a.5.5 0 0 0 1 0v-.803c.262-.365 1.358-1.7 4.25-3.04 3.013-1.393 6.15-2.463 7.06-2.764.245.214.71.644 1.342 1.328a6.843 6.843 0 0 1 1.342 2.1c-.112-.108-.233-.22-.366-.337-.915-.803-2.003-1.366-2.05-1.39a.506.506 0 0 0-.288-.052c-.086.012-2.11.265-3.595.833-1.674.64-3.91 1.853-4.004 1.904a.5.5 0 0 0-.26.44V14.4H2.13v-1.398c.102-.055.266-.133.516-.23.638-.24 1.685-.383 1.696-.384a.5.5 0 0 0 .433-.495v-1.368a.5.5 0 0 0-1 0v.94c-.406.07-1.018.197-1.484.374-.684.26-.947.462-1.048.586a.5.5 0 0 0-.11.314v1.66h-.02a.5.5 0 0 0 0 1h20.42a.499.499 0 1 0 0-1H17v-3.886h4.533zM6.56 6.426c.64-.34 2.334-1.216 3.623-1.71.85-.323 1.926-.54 2.628-.66V14.4H6.56V6.426zm7.25 7.974V4.217c.368.224.85.545 1.288.927.698.614 1.055 1.096 1.187 1.29v1.248h-.058c-.276 0-.5.222-.5.5v1.833c0 .192.113.354.272.438V14.4h-2.19z"></path></g>
            </symbol>

                        <symbol viewBox="0 0 64 64" id="icon-nav-empresa-disenyo">
                <g><path d="M32.166 4.075a.94.94 0 0 0-.94.94v3.512a.94.94 0 0 0 1.88 0V5.015a.94.94 0 0 0-.94-.94zM50.285 12.23a.94.94 0 0 0-1.282-.349l-3.048 1.744a.94.94 0 0 0 .933 1.63l3.048-1.743a.94.94 0 0 0 .35-1.282zM42.98 6.522a.94.94 0 0 0-1.317.175l-2.135 2.788a.94.94 0 0 0 1.492 1.142l2.135-2.788a.94.94 0 0 0-.175-1.317zM18.045 13.625l-3.048-1.743a.939.939 0 1 0-.933 1.63l3.048 1.744a.936.936 0 0 0 1.282-.349.94.94 0 0 0-.35-1.282zM24.472 9.485l-2.135-2.788a.94.94 0 1 0-1.492 1.142l2.135 2.788a.938.938 0 0 0 1.317.175.94.94 0 0 0 .175-1.317z"></path><path d="M56.612 6.361a.94.94 0 0 0-.94.94v9.293h-11.92c-2.653-3.521-6.859-5.801-11.586-5.801s-8.933 2.28-11.585 5.801H8.328V7.301a.94.94 0 0 0-.94-.94C3.314 6.362 0 9.677 0 13.75v39.898c0 .07.008.136.022.202a7.075 7.075 0 0 0 2.128 4.554 7.074 7.074 0 0 0 4.966 2.02h49.768c1.866 0 3.63-.717 4.966-2.02a7.075 7.075 0 0 0 2.128-4.554.943.943 0 0 0 .022-.202V13.749c0-4.073-3.314-7.388-7.388-7.388zm.272 52.185H7.116a5.207 5.207 0 0 1-5.233-5.068c.006-.179.02-.356.042-.531v-.002c.01-.084.023-.167.038-.25l.005-.027c.013-.073.028-.147.044-.22l.014-.06a5.175 5.175 0 0 1 .164-.564l.035-.099c.023-.06.047-.122.072-.182l.022-.053c.032-.074.065-.148.1-.221l.005-.01a5.53 5.53 0 0 1 3.844-3.006l.014-.003c.078-.016.156-.03.235-.042l.04-.007c.071-.011.143-.02.215-.028l.061-.007c.07-.007.14-.011.21-.016l.067-.005c.092-.004.185-.007.278-.007a.94.94 0 0 0 .94-.94v-21.54a.94.94 0 1 0-1.88 0v20.66a7.338 7.338 0 0 0-4.57 2.412V13.75a5.519 5.519 0 0 1 4.57-5.43V21.9a.94.94 0 1 0 1.88 0v-3.427h11.045a14.464 14.464 0 0 0-1.631 5.268l-.02.18-.018.204a14.625 14.625 0 0 0-.04.671l-.006.145A14.573 14.573 0 0 0 20 33.304l.019.029.107.162c.213.326.421.647.622.962a.94.94 0 0 0 .066.09l.023.026a.904.904 0 0 0 .053.055l.028.025c.02.018.04.034.06.05l.024.018c.029.02.058.038.088.054l.027.013a1.003 1.003 0 0 0 .17.066l.037.01a.932.932 0 0 0 .087.016l.017.003a.971.971 0 0 0 .101.006l.012.001.02-.001a.96.96 0 0 0 .089-.007l.032-.003a.947.947 0 0 0 .112-.024l.02-.007a.917.917 0 0 0 .231-.106.938.938 0 0 0 .286-1.297c-.205-.321-.417-.648-.64-.99l-.097-.146-.023-.035a12.647 12.647 0 0 1-2.04-6.915 13.148 13.148 0 0 1 .178-2.125l.027-.163c.016-.086.032-.172.05-.258l.009-.04c1.192-5.76 6.286-10.102 12.371-10.102 6.084 0 11.177 4.34 12.371 10.098l.01.045a13.306 13.306 0 0 1 .213 1.51l.007.09a12.945 12.945 0 0 1 .035.944 12.686 12.686 0 0 1-2.045 6.922l-.019.029-.102.156-.405.621-.139.217-.25.39-.16.257-.214.337-.163.264-.196.316c-.055.088-.107.175-.16.262l-.187.306-.15.25-.182.303-.142.24-.177.3-.133.228-.172.297-.123.213-.17.298-.111.198-.168.298-.102.183a68.2 68.2 0 0 0-.256.466l-.162.298a68.11 68.11 0 0 0-.24.45l-.072.136a63.244 63.244 0 0 0-.374.718l-.053.105-.152.298-.02.042V30.574a.935.935 0 0 0-.092-.403l-.005-.012-2.503-5.233-2.19-4.579a.94.94 0 0 0-1.694 0L30.27 22.54l-1.142 2.387v.001l-2.502 5.232-.005.013a.934.934 0 0 0-.092.402V40.76l-.002-.003a69.045 69.045 0 0 0-.684-1.322l-.025-.047a74.558 74.558 0 0 0-.25-.465l-.018-.034a74.921 74.921 0 0 0-.235-.43l-.052-.095a92.034 92.034 0 0 0-.268-.482l-.021-.038-.256-.451-.072-.126a84.26 84.26 0 0 0-.292-.507.94.94 0 1 0-1.625.944c.16.274.314.542.462.804l.044.078.174.31.038.069.171.307.097.178.104.19c.046.083.09.164.133.246l.06.111c.126.233.245.459.36.679l.003.005a52.266 52.266 0 0 1 1.842 3.86l.008.02.037.088.023.055.014.035c.121.293.196.488.23.578v7.1a3.21 3.21 0 0 0 3.206 3.205h4.86a3.21 3.21 0 0 0 3.206-3.206v-7.1c.019-.05.05-.132.095-.245l.006-.013.013-.034c.464-1.162 2.174-5.15 5.876-10.89a99.31 99.31 0 0 1 .521-.8l.024-.037a14.522 14.522 0 0 0 2.343-7.937c0-.14-.002-.279-.006-.417l-.005-.146a14.475 14.475 0 0 0-.041-.67l-.018-.206-.02-.177a14.468 14.468 0 0 0-1.63-5.27h10.712v20.036a.94.94 0 1 0 1.88 0V8.32a5.519 5.519 0 0 1 4.57 5.43v34.979a7.337 7.337 0 0 0-4.57-2.41v-4.052a.94.94 0 1 0-1.879 0v4.932c0 .519.42.94.94.94.093 0 .185.002.278.007.022 0 .044.003.066.004l.21.016.061.008c.072.008.144.016.216.027l.04.007c.078.012.157.026.234.042l.015.003a5.53 5.53 0 0 1 3.949 3.238l.021.052c.025.06.05.122.072.183a5.984 5.984 0 0 1 .153.478c.017.062.033.123.047.185l.014.06c.016.073.03.146.044.22l.005.027c.014.082.027.165.038.249v.002c.022.175.036.352.042.53a5.209 5.209 0 0 1-5.234 5.069zM28.41 48.236v-2.24h7.515v2.24h-7.515zm7.515 1.878v2.301c0 .732-.596 1.327-1.328 1.327h-4.86a1.329 1.329 0 0 1-1.328-1.327v-2.301h7.516zm-7.515-5.996V31.513h7.515v12.605h-7.515zm.556-14.494l1.604-3.354h3.195l1.604 3.355h-6.403z"></path></g>
            </symbol>

                        <symbol viewBox="0 0 20.965 23.64" id="icon-nav-empresa-campanas"><g><path d="M10.942 19.068c-.023 0-.043.006-.065.006l-1.203-4.72c.423-.19.786-.48 1.078-.833l.48.277c.08.045.165.066.25.066.173 0 .34-.09.434-.25.138-.24.055-.546-.185-.684l-.478-.276c.117-.318.19-.658.19-1.016 0-.666-.228-1.275-.6-1.77l5.307-5.624c.35.223.762.356 1.206.356 1.26 0 2.286-1.025 2.286-2.286 0-1.26-1.025-2.286-2.286-2.286-1.26 0-2.286 1.025-2.286 2.286 0 .454.137.875.366 1.23l-5.31 5.63c-.475-.32-1.045-.508-1.66-.508-.33 0-.644.067-.942.168l-.267-.49c-.133-.243-.436-.333-.68-.2-.24.133-.33.437-.197.68l.265.484c-.694.545-1.15 1.383-1.15 2.332 0 .355.073.69.187 1.005l-1.37.83c-.012.006-.02.02-.03.027-.01.006-.024.006-.036.013l-1.33.806c-.312-.295-.73-.48-1.19-.48-.953 0-1.726.774-1.726 1.724s.773 1.724 1.724 1.724c.95 0 1.724-.773 1.724-1.724 0-.128-.017-.252-.043-.372l1.357-.822c.014-.008.022-.023.035-.032.01-.005.022-.003.032-.01l1.347-.815c.546.666 1.365 1.1 2.29 1.1.082 0 .158-.017.237-.023l1.206 4.735c-.74.38-1.254 1.14-1.254 2.028 0 1.26 1.025 2.286 2.286 2.286 1.26 0 2.285-1.026 2.285-2.287 0-1.26-1.025-2.285-2.285-2.285zm-9.218-2.78c-.4 0-.724-.325-.724-.724 0-.4.324-.724.724-.724s.724.325.724.724c0 .4-.325.724-.724.724zm15.632-15.26c.71 0 1.286.577 1.286 1.286S18.065 3.6 17.356 3.6c-.338 0-.642-.137-.87-.352-.015-.016-.02-.035-.036-.05-.01-.008-.022-.01-.032-.02-.21-.228-.348-.53-.348-.864 0-.71.577-1.286 1.286-1.286zM6.494 11.64c0-1.088.886-1.974 1.974-1.974 1.09 0 1.975.886 1.975 1.975 0 1.09-.886 1.975-1.975 1.975-1.088 0-1.974-.886-1.974-1.974zm4.448 11c-.71 0-1.286-.577-1.286-1.286 0-.71.577-1.286 1.286-1.286.71 0 1.285.577 1.285 1.286 0 .708-.576 1.286-1.285 1.286zM19.24 16.067c-.465 0-.887.188-1.197.49l-.49-.282c-.237-.136-.544-.056-.682.185-.137.24-.054.545.186.683l.5.288c-.023.117-.038.238-.038.36 0 .952.773 1.725 1.724 1.725.95 0 1.724-.774 1.724-1.724s-.775-1.723-1.725-1.723zm0 2.448c-.398 0-.723-.325-.723-.724 0-.398.324-.723.724-.723s.725.325.725.724c0 .4-.324.725-.724.725zM3.146 3.448c.097 0 .188-.013.28-.028l.286.523c.09.166.262.26.44.26.08 0 .163-.02.24-.06.242-.135.33-.438.198-.68l-.266-.487c.334-.315.546-.758.546-1.252C4.87.774 4.097 0 3.146 0S1.423.773 1.423 1.724c0 .95.773 1.724 1.723 1.724zm0-2.448c.4 0 .724.325.724.724 0 .295-.178.547-.432.66-.002 0-.005 0-.007.002 0 0-.002.004-.005.006-.086.036-.18.056-.278.056-.4 0-.724-.325-.724-.724 0-.4.324-.724.723-.724zM4.602 5.57l.89 1.626c.09.167.262.26.438.26.08 0 .164-.02.24-.062.242-.132.33-.436.198-.678l-.89-1.627c-.13-.244-.435-.332-.678-.2-.242.133-.33.437-.198.68z"></path><path d="M15.612 15.16l-1.94-1.115c-.238-.137-.545-.056-.683.185-.14.24-.056.545.183.683l1.94 1.115c.08.045.165.066.25.066.173 0 .34-.09.434-.25.138-.24.055-.546-.185-.684z"></path></g></symbol>

                        <symbol viewBox="0 0 19.924 23.412" id="icon-nav-empresa-showrooms"><g><path d="M13.58 16.892c-.24-.13-.545-.042-.678.2-.402.74-.85 1.344-1.127 1.634-.053-.213-.095-.53-.1-.805.053-3.2-1.217-4.104-1.443-4.24-.063-.025-1.556-.627-2.252-.773-.016-.02-.047-.122-.01-.286.048-.22.184-.41.348-.49.133-.063.216-.054.328-.04.14.016.398.045.612-.162.25-.244.232-.61.182-1.19-.044-.505-.217-.884-.517-1.128-.468-.38-1.062-.308-1.493-.256-.107.013-.205.027-.288.027-.856 0-1.044.592-1.3 1.77-.03-.288-.063-.657-.083-.98-.015-.222-.17-.407-.387-.458-.22-.05-.437.048-.548.24l-.614 1.093c0 .003-.126.225-.766.45.007-.288.168-.877.39-1.387.11-.253-.007-.548-.26-.657-.252-.11-.547.007-.657.26-.31.71-.75 1.988-.22 2.56.146.154.474.384 1.077.17.61-.215.954-.47 1.15-.687.043.213.082.28.104.318.07.122.44.726.998.636.238-.037.55-.207.68-.808l.053-.255c.127-.602.248-1.17.38-1.263.118 0 .258-.016.41-.033.27-.032.603-.072.74.038.08.064.135.22.153.436.01.105.016.19.02.258-.16.007-.357.042-.58.15-.69.33-.99 1.127-.922 1.708.058.485.364.847.803.94.487.107 1.57.522 2.027.704.158.142.923.955.884 3.34.01.57.106 1.57.66 1.865.107.057.224.085.34.085.157 0 .318-.05.468-.147.498-.324 1.198-1.344 1.638-2.154.133-.243.043-.546-.2-.678z"></path><path d="M19.924 5.484C19.924 2.46 17.464 0 14.438 0S8.954 2.46 8.954 5.484c0 .137.02.294.042.45-.084-.002-.166-.012-.25-.012C3.922 5.922 0 9.845 0 14.667c0 4.822 3.923 8.745 8.745 8.745 4.822 0 8.746-3.923 8.746-8.745 0-.768-.126-1.556-.348-2.344 1.345-2.377 2.782-5.278 2.782-6.84zM14.438 1c2.474 0 4.485 2.012 4.485 4.484 0 1.328-1.37 4.09-2.732 6.488-.01.02-.022.037-.03.057-.622 1.088-1.24 2.1-1.723 2.86-1.555-2.448-4.484-7.462-4.484-9.405C9.953 3.012 11.966 1 14.438 1zm2.053 13.667c0 4.27-3.474 7.745-7.745 7.745-4.27 0-7.745-3.474-7.745-7.745s3.475-7.745 7.745-7.745c.162 0 .32.014.48.024 1.017 3.368 4.618 8.872 4.796 9.142.094.14.25.226.42.226s.324-.085.417-.226c.073-.11.732-1.12 1.55-2.493.052.36.084.72.084 1.072z"></path><path d="M16.713 5.104c0-1.254-1.02-2.275-2.274-2.275-1.255 0-2.274 1.02-2.274 2.274s1.02 2.273 2.273 2.273c1.252 0 2.273-1.02 2.273-2.273zm-3.548 0c0-.703.57-1.275 1.273-1.275s1.274.57 1.274 1.274c0 .702-.57 1.273-1.274 1.273-.702 0-1.273-.57-1.273-1.273z"></path></g></symbol>

                        <symbol viewBox="0 0 16 24" id="icon-nav-empresa-empleo"><g><path d="M6.424 12.612v.102c-.148.136-.708.524-2.796 1.33-.315.123-.52.422-.52.763v.622c0 .275.225.5.5.5.277 0 .5-.225.5-.5v-.5c2.828-1.1 3.18-1.55 3.294-1.917.015-.048.023-.1.023-.15v-.443c0-.13-.052-.256-.143-.35-.238-.243-.425-.586-.538-.993-.03-.11-.1-.208-.193-.274-.046-.033-.078-.087-.087-.147-.006-.043-.002-.107.05-.17.072-.09.11-.2.11-.316v-.993c0-.814.464-1.226 1.378-1.226.94 0 1.376.39 1.376 1.227v.993c0 .115.04.227.112.316.052.064.056.128.05.17-.01.06-.04.114-.087.147-.094.066-.162.163-.193.274-.114.407-.3.75-.538.994-.093.095-.144.22-.144.35v.445c0 .05.008.1.022.15.114.366.466.816 3.293 1.917v.498c0 .276.225.5.5.5.277 0 .5-.224.5-.5v-.622c0-.336-.21-.643-.518-.762-2.17-.838-2.69-1.225-2.796-1.31v-.123c.256-.307.46-.686.598-1.114.19-.187.317-.435.354-.705.038-.273-.016-.543-.152-.778v-.84c0-1.394-.888-2.226-2.375-2.226-1.465 0-2.376.854-2.376 2.227v.84c-.136.234-.19.503-.15.776.036.27.162.517.352.704.137.428.34.808.598 1.115zM6.08 4.956C6.154 5.56 6.68 6 7.324 6h1.35c.646 0 1.17-.436 1.244-1.034l.447-3.566c.044-.344-.064-.683-.304-.955C9.818.165 9.466 0 9.123 0H6.876c-.343 0-.693.164-.937.44-.243.276-.352.622-.308.974l.447 3.542zm.61-3.854c.06-.067.14-.102.187-.102h2.245c.048 0 .13.037.192.106.033.038.07.097.06.168l-.447 3.568c-.014.11-.14.158-.253.158h-1.35c-.114 0-.24-.058-.253-.17l-.446-3.54c-.01-.082.03-.147.066-.188z"></path><path d="M13.643 4H12c-.276 0-.5.224-.5.5s.224.5.5.5h1.643C14.39 5 15 5.554 15 6.235V17H1V6.235C1 5.555 1.608 5 2.356 5H4c.276 0 .5-.224.5-.5S4.276 4 4 4H2.356C1.056 4 0 5.003 0 6.235v15.64C0 23.084 1.013 24 2.356 24h11.286C14.986 24 16 23.086 16 21.874V6.234C16 5.005 14.942 4 13.643 4zm0 19H2.356C1.7 23 1 22.605 1 21.874V18h14v3.874c0 .73-.7 1.126-1.357 1.126z"></path><path d="M12.39 20H8.61c-.276 0-.5.224-.5.5s.224.5.5.5h3.782c.276 0 .5-.224.5-.5s-.223-.5-.5-.5zM5.608 20h-2c-.276 0-.5.224-.5.5s.224.5.5.5h2c.276 0 .5-.224.5-.5s-.223-.5-.5-.5zM8 3.02c.14 0 .27-.05.35-.15.1-.09.15-.22.15-.35 0-.12-.05-.25-.15-.35-.18-.19-.49-.2-.71 0-.09.1-.14.22-.14.35 0 .13.05.26.148.36.09.09.22.14.35.14z"></path></g></symbol>

                        <symbol viewBox="0 0 65 67" id="icon-nav-noticias">
                <g fill-rule="evenodd"><path d="M13.1 35.15l4.45 4.45 24.9-24.9L38 10.25l-24.9 24.9z"></path><path d="M50.3 22.55L40.05 32.9m6.2-14.4l-10.3 10.35m18.15-2.5L43.8 36.7m-4.25 4.25L29.2 51.25m6.55-14.1L25.4 47.45m6.3-14.35L21.35 43.4" stroke-width="2" fill="none"></path><path d="M36.2 2.35c1.333-1.367 2.65-1.4 3.95-.1l22.1 22.1c1.167 1.267 1.1 2.55-.2 3.85l-34.6 34.7-1.9 1.9c-1.133.8-2.233.683-3.3-.35L2.8 45c-1.2-1.3-1.167-2.583.1-3.85l2.5-2.6-.7-.7c-1.3-1.3-1.317-2.617-.05-3.95L36.2 2.35zM27.45 62.9c.5-1.033.283-2.017-.65-2.95L5.4 38.55 27.45 62.9z" stroke-width="2.5" fill="none"></path></g>
            </symbol>

                        <symbol viewBox="0 0 65 67" id="icon-nav-noticias-actualidad">
                <g fill-rule="evenodd"><path d="M13.1 35.15l4.45 4.45 24.9-24.9L38 10.25l-24.9 24.9z"></path><path d="M50.3 22.55L40.05 32.9m6.2-14.4l-10.3 10.35m18.15-2.5L43.8 36.7m-4.25 4.25L29.2 51.25m6.55-14.1L25.4 47.45m6.3-14.35L21.35 43.4" stroke-width="2" fill="none"></path><path d="M36.2 2.35c1.333-1.367 2.65-1.4 3.95-.1l22.1 22.1c1.167 1.267 1.1 2.55-.2 3.85l-34.6 34.7-1.9 1.9c-1.133.8-2.233.683-3.3-.35L2.8 45c-1.2-1.3-1.167-2.583.1-3.85l2.5-2.6-.7-.7c-1.3-1.3-1.317-2.617-.05-3.95L36.2 2.35zM27.45 62.9c.5-1.033.283-2.017-.65-2.95L5.4 38.55 27.45 62.9z" stroke-width="2.5" fill="none"></path></g>
            </symbol>

                        <symbol viewBox="0 0 18 24" id="icon-nav-noticias-prensa"><g><path d="M17.615 3.648L14.302.378C14.14.218 13.917 0 13.5 0H1.287C.577 0 0 .586 0 1.306V22.7c0 .717.578 1.3 1.287 1.3h15.42C17.42 24 18 23.417 18 22.7V4.5c0-.42-.206-.676-.385-.852zM16.548 4H14V1.485L16.548 4zm.16 19H1.288C1.13 23 1 22.863 1 22.7V1.306C1 1.14 1.13 1 1.287 1L13 .993V4.5c0 .276.224.5.5.5H17v17.7c0 .163-.133.3-.292.3z"></path><path d="M14.037 17H3.995c-.276 0-.5.224-.5.5s.224.5.5.5h10.04c.277 0 .5-.224.5-.5s-.222-.5-.498-.5zM14.037 14H3.995c-.276 0-.5.224-.5.5s.224.5.5.5h10.04c.277 0 .5-.224.5-.5s-.222-.5-.498-.5zM14.037 11H3.995c-.276 0-.5.224-.5.5s.224.5.5.5h10.04c.277 0 .5-.224.5-.5s-.222-.5-.498-.5zM3.995 9h5.58c.275 0 .5-.224.5-.5s-.225-.5-.5-.5h-5.58c-.276 0-.5.224-.5.5s.224.5.5.5z"></path></g></symbol>

                        <symbol viewBox="0 0 23.933 23.942" id="icon-nav-noticias-dosier"><g><path d="M20.553 13.038h-1.85c-.276 0-.5.224-.5.5v2.858c0 .276.224.5.5.5s.5-.224.5-.5v-.93h1.09c.275 0 .5-.223.5-.5 0-.275-.225-.5-.5-.5h-1.09v-.428h1.35c.276 0 .5-.224.5-.5s-.223-.5-.5-.5z"></path><path d="M22.384 9.978H9.468c-.855 0-1.55.695-1.55 1.55v6.94c0 .853.695 1.55 1.55 1.55h12.917c.854 0 1.55-.696 1.55-1.55v-6.94c-.002-.855-.697-1.55-1.55-1.55zm.55 8.49c0 .302-.247.55-.55.55H9.468c-.303 0-.55-.248-.55-.55v-6.94c0-.303.247-.55.55-.55h12.917c.303 0 .55.247.55.55v6.94z"></path><path d="M18.435 21.035c-.276 0-.5.224-.5.5v1.11c0 .164-.134.298-.3.298H1.3c-.164 0-.298-.134-.298-.3V1.3C1 1.134 1.134 1 1.298 1h12.495l.004 3.472c0 .276.224.5.5.5h3.64v3.402c0 .276.223.5.5.5.275 0 .5-.224.5-.5V4.47c0-.418-.21-.625-.388-.8L15.203.375C14.96.134 14.636 0 14.292 0H1.298C.582 0 0 .582 0 1.298v21.347c0 .716.582 1.298 1.298 1.298h16.338c.716 0 1.3-.582 1.3-1.298v-1.11c0-.277-.225-.5-.5-.5zM17.43 3.97h-2.634l-.003-2.597L17.43 3.97z"></path><path d="M12.537 13.038h-1.073c-.276 0-.5.224-.5.5v2.858c0 .276.224.5.5.5s.5-.224.5-.5v-.81l.577-.002c.57-.004 1.415-.356 1.415-1.308 0-.34-.12-.637-.346-.856-.41-.394-1.02-.385-1.073-.382zm0 1.546l-.573.002v-.548h.59c.062-.01.278.024.36.103.012.013.04.04.04.137 0 .256-.266.303-.418.307zM15.787 13.038h-.965c-.276 0-.5.224-.5.5v2.858c0 .276.224.5.5.5h.965c.028 0 .055-.002.082-.007.978-.046 1.763-.892 1.763-1.926 0-1.062-.828-1.926-1.846-1.926zm0 2.853c-.024 0-.047.003-.07.006h-.394v-1.858h.465c.466 0 .845.415.845.927 0 .51-.38.926-.846.926z"></path></g></symbol>

                        <symbol viewBox="0 0 23.601 22.195" id="icon-nav-area-privada">
                <g><path d="M17.732 3.27c-.718.717-.718 1.885 0 2.603.35.348.81.54 1.303.54.492 0 .954-.192 1.302-.54.718-.718.718-1.886 0-2.604-.695-.697-1.91-.697-2.605 0zm1.898 1.895c-.32.317-.873.315-1.19 0-.328-.328-.328-.86 0-1.19.16-.158.37-.246.596-.246.225 0 .435.087.595.246.16.16.247.37.247.595 0 .225-.09.436-.247.595z"></path><path d="M21.79 1.815C20.62.645 19.064 0 17.41 0c-1.655 0-3.21.646-4.38 1.815-1.62 1.617-2.205 4.018-1.537 6.198L.147 19.36c-.145.144-.186.36-.106.55l.84 1.98c.08.186.26.306.46.306h.02l3.284-.12c.22-.01.408-.16.465-.372l.664-2.504 2.904-.566c.21-.04.37-.21.4-.422l.512-3.655 2.722.066c.133.015.27-.05.365-.147l2.506-2.505c.71.274 1.475.417 2.235.417 1.652 0 3.205-.643 4.372-1.81 2.415-2.417 2.415-6.347 0-8.762zm-.707 8.053c-.98.978-2.28 1.518-3.665 1.518-.736 0-1.478-.16-2.146-.462-.19-.085-.414-.044-.56.102l-2.59 2.59-2.954-.07c-.236-.022-.473.18-.507.43l-.523 3.743-2.86.558c-.19.037-.34.178-.39.362l-.65 2.448-2.57.095-.574-1.354L12.42 8.5c.137-.138.182-.342.115-.524-.69-1.894-.22-4.035 1.2-5.455C14.72 1.54 16.023 1 17.41 1s2.69.54 3.673 1.522c2.025 2.026 2.025 5.32 0 7.346z"></path></g>
            </symbol>

            <symbol viewBox="0 0 24.101 22.695" id="icon-nav-area-privada-2">
                <g stroke-miterlimit="10"><path stroke-width=".25" d="M17.982 3.52c-.718.717-.718 1.885 0 2.603.35.348.81.54 1.303.54.492 0 .954-.192 1.302-.54.718-.718.718-1.886 0-2.604-.695-.697-1.91-.697-2.605 0zm1.898 1.895c-.32.317-.873.315-1.19 0-.328-.328-.328-.86 0-1.19.16-.158.37-.246.596-.246.225 0 .435.087.595.246.16.16.247.37.247.595 0 .225-.09.436-.247.595z"></path><path stroke-width=".5" d="M22.04 2.065C20.87.895 19.313.25 17.66.25c-1.655 0-3.21.646-4.38 1.815-1.62 1.617-2.205 4.02-1.537 6.198L.397 19.61c-.144.144-.186.36-.106.55l.84 1.98c.08.186.26.306.46.306h.02l3.284-.12c.22-.01.408-.16.465-.372l.664-2.504 2.904-.566c.21-.04.37-.21.4-.422l.512-3.655 2.722.066c.133.015.27-.05.365-.147l2.506-2.505c.71.274 1.475.417 2.235.417 1.652 0 3.205-.643 4.372-1.81 2.415-2.417 2.415-6.347 0-8.762zm-.707 8.053c-.98.978-2.28 1.518-3.665 1.518-.736 0-1.478-.16-2.146-.462-.19-.085-.414-.044-.56.102l-2.59 2.59-2.954-.07c-.236-.022-.473.18-.507.43l-.523 3.743-2.86.558c-.19.037-.34.178-.39.362l-.65 2.448-2.57.095-.574-1.354L12.67 8.75c.137-.138.182-.342.115-.524-.69-1.894-.22-4.035 1.2-5.455.983-.98 2.286-1.522 3.674-1.522 1.387 0 2.69.542 3.673 1.523 2.025 2.025 2.025 5.32 0 7.345z"></path></g>
            </symbol>

                        <symbol viewBox="0 0 26 18" id="icon-newsletter">
                <g transform="translate(-1006 -33)" stroke-linecap="round" stroke-width="2" stroke-linejoin="round" fill="none" fill-rule="evenodd"><path d="M1031 48.29c0 .94-.77 1.71-1.71 1.71h-20.58c-.94 0-1.71-.77-1.71-1.71V35.71c0-.94.77-1.71 1.71-1.71h20.58c.94 0 1.71.77 1.71 1.71v12.58zM1029.86 34l-11.43 9.14-10.43-8.455 21.86-.685z"></path></g>
            </symbol>

            <symbol viewBox="0 0 26 18" id="icon-newsletter-thin">
                <g transform="translate(-1006 -33)" stroke-linecap="round" stroke-linejoin="round" fill="none" fill-rule="evenodd" stroke-width="1"><path d="M1031 48.29c0 .94-.77 1.71-1.71 1.71h-20.58c-.94 0-1.71-.77-1.71-1.71V35.71c0-.94.77-1.71 1.71-1.71h20.58c.94 0 1.71.77 1.71 1.71v12.58zM1029.86 34l-11.43 9.14-10.43-8.455 21.86-.685z"></path></g>
            </symbol>

                        <symbol viewBox="0 0 19 19" id="icon-search">
                <g transform="translate(-965 -33)" stroke-linecap="round" stroke-width="2" stroke-linejoin="round" fill="none" fill-rule="evenodd"><path d="M977.13 39.57c0 3.07-2.49 5.56-5.56 5.56-3.08 0-5.57-2.49-5.57-5.56 0-3.08 2.49-5.57 5.57-5.57 3.07 0 5.56 2.49 5.56 5.57zm-1.63 3.93L982 50l-6.5-6.5z"></path></g>
            </symbol>

                        <symbol viewBox="0 0 19 19" id="icon-phone">
                <g transform="translate(-1055 -32)" stroke-linecap="round" stroke-width="2" stroke-linejoin="round" fill="none" fill-rule="evenodd"><path d="M1062.252 35.417l-1.9-1.9c-.7-.69-1.83-.69-2.53 0l-1.04 1.04c-.9.91-1.04 2.31-.33 3.38 3.02 4.56 7.05 8.59 11.61 11.61 1.07.71 2.48.57 3.38-.33l1.04-1.04c.69-.7.69-1.83 0-2.53l-1.9-1.9c-.7-.7-1.83-.7-2.53 0l-.63.64c-2.08-1.71-4.1-3.73-5.8-5.81l.63-.63c.7-.7.7-1.83 0-2.53z"></path></g>
            </symbol>

            <symbol viewBox="0 0 19 19" id="icon-phone-thin">
                <g transform="translate(-1055 -32)" stroke-linecap="round" stroke-width="1" stroke-linejoin="round" fill="none" fill-rule="evenodd"><path d="M1062.252 35.417l-1.9-1.9c-.7-.69-1.83-.69-2.53 0l-1.04 1.04c-.9.91-1.04 2.31-.33 3.38 3.02 4.56 7.05 8.59 11.61 11.61 1.07.71 2.48.57 3.38-.33l1.04-1.04c.69-.7.69-1.83 0-2.53l-1.9-1.9c-.7-.7-1.83-.7-2.53 0l-.63.64c-2.08-1.71-4.1-3.73-5.8-5.81l.63-.63c.7-.7.7-1.83 0-2.53z"></path></g>
            </symbol>

            <symbol viewBox="0 0 31.012 31.012" id="icon-email">
                <g stroke-linecap="round" stroke-width="1" stroke-linejoin="round" fill="none" fill-rule="evenodd"><path d="M27.91,26.53H3.11A3.66,3.66,0,0,1,0,23.43V7.59a3.66,3.66,0,0,1,3.1-3.1H27.92A3.64,3.64,0,0,1,31,7.58V23.42A3.66,3.66,0,0,1,27.91,26.53ZM3.1,5.48A2.74,2.74,0,0,0,1,7.59V23.45a2.7,2.7,0,0,0,2.09,2.07H27.91A2.75,2.75,0,0,0,30,23.42L30.12,7.58a2.56,2.56,0,0,0-2-2.1H3.1Z"></path><path d="M15.51,18a2.8,2.8,0,0,1-1.84-.66L0.89,6.22c-0.21-.18,0-0.37.18-0.57s0.27-.36.48-0.18L14.33,16.6a1.87,1.87,0,0,0,2.36,0L29.46,5.47c0.21-.18.32,0,0.51,0.21s0.36,0.36.15,0.55L17.34,17.35A2.79,2.79,0,0,1,15.51,18Z"></path></g>
            </symbol>

        </svg>
