<svg xmlns="http://www.w3.org/2000/svg" xmlns:xlink="http://www.w3.org/1999/xlink" preserveAspectRatio="xMidYMid" width="37" height="39" viewBox="0 0 37 39">
  <defs>
    <style>
      .cls-1 {
        fill: #ffffff;
        fill-rule: evenodd;
      }
    </style>
  </defs>
  <path d="M29.343,33.965 C29.341,32.917 29.340,31.869 29.344,30.820 C28.705,30.822 28.067,30.823 27.429,30.820 C27.431,33.127 27.431,35.433 27.429,37.740 C28.280,37.740 29.130,37.736 29.981,37.740 C29.977,38.160 29.989,38.579 29.981,38.998 C21.475,38.998 12.969,38.999 4.463,38.998 C4.459,38.578 4.468,38.159 4.465,37.740 C5.314,37.735 6.164,37.743 7.014,37.737 C7.016,36.691 7.017,35.644 7.013,34.598 C6.377,34.590 5.741,34.599 5.105,34.596 C5.108,35.226 5.097,35.856 5.108,36.486 C3.405,36.478 1.703,36.485 0.001,36.483 C-0.003,33.547 -0.002,30.611 -0.000,27.675 C1.700,27.675 3.402,27.672 5.103,27.676 C5.105,28.305 5.105,28.935 5.103,29.563 C5.741,29.556 6.379,29.564 7.016,29.562 C7.014,27.020 7.016,24.478 7.015,21.936 C7.031,20.556 7.467,19.183 8.272,18.053 C9.386,16.457 11.215,15.379 13.165,15.151 C13.389,14.686 13.679,14.248 14.056,13.889 C14.001,12.616 14.047,11.337 14.033,10.063 C12.119,10.064 10.205,10.064 8.291,10.063 C8.286,9.643 8.295,9.224 8.292,8.804 C7.866,8.807 7.442,8.808 7.016,8.804 C7.020,9.224 7.019,9.643 7.016,10.062 C5.103,10.067 3.189,10.062 1.276,10.064 C1.273,7.967 1.274,5.869 1.276,3.772 C3.189,3.772 5.103,3.770 7.016,3.773 C7.013,4.192 7.025,4.612 7.016,5.031 C7.442,5.029 7.866,5.032 8.290,5.028 C8.294,4.610 8.292,4.191 8.292,3.772 C8.749,3.772 9.207,3.774 9.664,3.768 C9.874,2.513 10.098,1.259 10.295,0.001 C14.913,-0.006 19.530,-0.004 24.148,0.001 C24.347,1.260 24.572,2.515 24.779,3.773 C25.237,3.772 25.696,3.767 26.153,3.773 C26.154,5.869 26.156,7.966 26.153,10.062 C24.240,10.067 22.327,10.062 20.414,10.064 C20.398,11.339 20.443,12.619 20.390,13.893 C20.766,14.250 21.058,14.684 21.277,15.151 C22.833,15.340 24.322,16.050 25.418,17.158 C26.516,18.247 27.219,19.711 27.384,21.237 C27.459,21.914 27.422,22.595 27.429,23.273 C28.067,23.266 28.705,23.274 29.343,23.272 C29.342,22.224 29.340,21.175 29.343,20.127 C31.894,20.125 34.445,20.125 36.997,20.127 C37.000,24.739 36.999,29.352 36.997,33.965 C34.445,33.967 31.894,33.968 29.343,33.965 ZM1.277,28.935 C1.282,29.354 1.273,29.772 1.276,30.192 C2.126,30.187 2.975,30.192 3.825,30.190 C3.821,29.771 3.829,29.352 3.827,28.933 C2.977,28.937 2.127,28.933 1.277,28.935 ZM3.824,31.453 C2.975,31.446 2.125,31.454 1.276,31.450 C1.272,31.869 1.284,32.288 1.276,32.707 C2.126,32.706 2.976,32.706 3.827,32.707 C3.827,32.289 3.828,31.871 3.824,31.453 ZM3.828,33.966 C2.978,33.971 2.128,33.962 1.278,33.968 C1.274,34.386 1.276,34.805 1.276,35.223 C2.126,35.222 2.977,35.221 3.828,35.225 C3.824,34.805 3.825,34.386 3.828,33.966 ZM5.103,30.820 C5.108,31.658 5.099,32.496 5.106,33.334 C5.742,33.341 6.379,33.332 7.015,33.335 C7.017,32.497 7.013,31.659 7.017,30.820 C6.379,30.822 5.741,30.823 5.103,30.820 ZM5.741,5.029 C4.677,5.034 3.614,5.031 2.551,5.031 C2.554,6.289 2.552,7.547 2.551,8.805 C3.614,8.802 4.678,8.804 5.741,8.805 C5.739,7.547 5.738,6.289 5.741,5.029 ZM8.292,6.289 C7.868,6.289 7.443,6.287 7.019,6.291 C7.015,6.709 7.017,7.128 7.016,7.547 C7.442,7.539 7.867,7.550 8.292,7.547 C8.295,7.127 8.284,6.708 8.292,6.289 ZM23.060,1.257 C19.168,1.256 15.276,1.259 11.384,1.256 C11.246,2.095 11.100,2.931 10.959,3.770 C15.134,3.774 19.310,3.770 23.485,3.772 C23.342,2.933 23.204,2.095 23.060,1.257 ZM24.878,8.805 C24.876,7.547 24.875,6.288 24.878,5.029 C19.774,5.034 14.672,5.029 9.570,5.032 C9.568,6.289 9.570,7.548 9.568,8.805 C14.671,8.803 19.774,8.803 24.878,8.805 ZM15.308,10.062 C15.311,11.042 15.312,12.024 15.308,13.004 C16.503,12.438 17.942,12.440 19.136,13.004 C19.132,12.025 19.140,11.046 19.133,10.066 C17.858,10.059 16.583,10.067 15.308,10.062 ZM20.408,16.900 C20.392,16.048 20.000,15.211 19.353,14.646 C18.741,14.093 17.897,13.795 17.068,13.844 C15.598,13.884 14.270,15.063 14.075,16.499 C14.017,17.046 14.005,17.605 14.082,18.151 C14.272,19.311 15.189,20.317 16.337,20.629 C16.906,20.795 17.523,20.798 18.092,20.634 C19.162,20.347 20.042,19.461 20.307,18.400 C20.446,17.912 20.413,17.400 20.408,16.900 ZM26.151,22.090 C26.167,21.048 25.888,20.002 25.345,19.108 C24.559,17.790 23.202,16.822 21.688,16.492 C21.680,17.153 21.732,17.824 21.601,18.478 C21.311,19.953 20.195,21.233 18.763,21.743 C17.531,22.199 16.090,22.075 14.961,21.405 C13.894,20.793 13.108,19.724 12.856,18.532 C12.703,17.864 12.776,17.174 12.755,16.495 C11.483,16.775 10.316,17.497 9.516,18.512 C8.706,19.519 8.278,20.808 8.295,22.091 C8.291,26.469 8.295,30.847 8.292,35.223 C13.183,35.223 18.074,35.220 22.964,35.225 C22.961,35.644 22.972,36.062 22.964,36.481 C18.074,36.485 13.184,36.480 8.295,36.484 C8.291,36.902 8.293,37.321 8.292,37.740 C14.245,37.737 20.198,37.741 26.151,37.737 C26.155,37.318 26.153,36.900 26.153,36.481 C25.514,36.489 24.875,36.474 24.237,36.485 C24.242,36.064 24.239,35.644 24.240,35.223 C24.878,35.226 25.515,35.217 26.154,35.225 C26.149,30.846 26.156,26.468 26.151,22.090 ZM27.429,24.530 C27.431,26.208 27.431,27.885 27.429,29.563 C28.067,29.556 28.705,29.564 29.343,29.562 C29.342,27.885 29.340,26.207 29.344,24.530 C28.705,24.532 28.067,24.532 27.429,24.530 ZM35.722,32.707 C35.722,32.289 35.722,31.871 35.719,31.453 C34.018,31.447 32.319,31.452 30.620,31.451 C30.625,31.870 30.615,32.288 30.619,32.708 C32.319,32.704 34.021,32.707 35.722,32.707 ZM30.622,30.188 C32.321,30.194 34.021,30.189 35.720,30.190 C35.715,29.771 35.724,29.352 35.722,28.933 C34.020,28.936 32.319,28.935 30.619,28.933 C30.619,29.352 30.618,29.770 30.622,30.188 ZM30.618,27.675 C32.319,27.674 34.020,27.674 35.722,27.675 C35.725,27.256 35.714,26.837 35.722,26.417 C34.020,26.418 32.319,26.420 30.618,26.416 C30.622,26.837 30.621,27.256 30.618,27.675 ZM35.722,23.901 C34.022,23.904 32.321,23.899 30.621,23.904 C30.617,24.322 30.619,24.741 30.619,25.159 C32.319,25.155 34.018,25.162 35.719,25.157 C35.723,24.738 35.721,24.320 35.722,23.901 ZM35.722,21.385 C34.021,21.386 32.320,21.386 30.619,21.385 C30.615,21.804 30.627,22.224 30.619,22.643 C32.320,22.642 34.021,22.641 35.722,22.644 C35.718,22.224 35.719,21.805 35.722,21.385 ZM9.568,23.272 C14.672,23.268 19.777,23.275 24.881,23.269 C24.874,25.576 24.882,27.884 24.877,30.191 C19.774,30.194 14.671,30.191 9.569,30.193 C9.566,27.886 9.566,25.579 9.568,23.272 ZM10.844,28.933 C15.096,28.932 19.349,28.932 23.602,28.933 C23.598,27.467 23.605,26.000 23.599,24.533 C19.347,24.530 15.095,24.528 10.843,24.534 C10.845,26.001 10.845,27.467 10.844,28.933 ZM21.050,7.547 C19.987,7.548 18.924,7.550 17.861,7.546 C17.864,7.127 17.853,6.708 17.861,6.289 C18.924,6.286 19.988,6.287 21.052,6.289 C21.057,6.708 21.047,7.127 21.050,7.547 ZM23.602,7.547 C23.177,7.555 22.752,7.543 22.327,7.547 C22.321,7.127 22.324,6.708 22.327,6.289 C22.752,6.287 23.177,6.284 23.602,6.289 C23.599,6.708 23.610,7.127 23.602,7.547 Z" class="cls-1"/>
</svg>
