<?xml version="1.0" encoding="utf-8"?>
<!-- Generator: Adobe Illustrator 16.0.0, SVG Export Plug-In . SVG Version: 6.00 Build 0)  -->
<!DOCTYPE svg PUBLIC "-//W3C//DTD SVG 1.1//EN" "http://www.w3.org/Graphics/SVG/1.1/DTD/svg11.dtd">
<svg version="1.1" id="Layer_1" xmlns="http://www.w3.org/2000/svg" xmlns:xlink="http://www.w3.org/1999/xlink" x="0px" y="0px"
	 width="864px" height="864px" viewBox="0 0 864 864" enable-background="new 0 0 864 864" xml:space="preserve">
<g>
	<path fill-rule="evenodd" clip-rule="evenodd" d="M816.161,551.263c3.247-1.991,7.825-3.254,7.436-8.234
		c-0.348-4.445-1.301-8.872-2.326-13.227c-0.811-3.443-3.207-5.091-6.908-5.245c-5.239-0.22-8.259-6.763-5.278-11.047
		c4.312-6.198,4.308-9.219,0.154-15.664c-0.601-0.931-1.062-2.113-1.122-3.205c-0.39-7.12-0.871-14.247-0.911-21.373
		c-0.119-21.325-0.295-42.655,0.065-63.974c0.146-8.626-2.673-16.016-7.188-22.87c-1.854-2.815-11.123-2.153-14.121-2.393
		c-6.212-0.497-12.426-0.974-18.64-1.457c-1.363-4.812,1.241-13.008,1.1-15.545c-0.053-0.932,2.683-1.918,3.986-3.057
		c1.22-1.065,3.022-2.266,3.186-3.579c0.405-3.261,0.15-6.63-0.124-9.932c-0.081-0.982-0.971-2.572-1.718-2.718
		c-5.739-1.119-11.519-2.087-17.324-2.775c-1.453-0.172-3.145,1.44-4.559,1.208c-4.403-0.722-6.075,1.443-6.408,5.287
		c-0.215,2.478-0.009,4.995-0.269,7.465c-0.337,3.203,1.284,4.474,4.121,5.074c4.25,0.898,5.252,11.904,2.714,17.344
		c-5.6-0.465-11.197-0.948-16.789-1.489c-21.696-2.097-43.371-4.449-65.023-6.963c-4.256-0.494-8.368-2.226-13.607-3.682
		c2.389-2.044-9.64-60.429-16.111-87.104c3.229-0.172,5.982-0.319,8.795-0.469c0.362-2.273,0.387-4.312,1.025-6.136
		c5.512-15.735,2.807-30.84-3.343-45.693c-1.037-2.504-6.886-3.854-7.865-1.655c-2.518,5.648-7.033,4.493-11.407,4.143
		c-21.225-1.699-42.42-4.057-63.677-4.95c-14.09-0.592-28.373-0.002-42.38,1.655c-21.944,2.597-43.731,6.532-65.58,9.929
		c-3.189,0.496-4.816,2.173-5.02,5.695c-1.305,22.6-2.83,45.186-4.207,67.781c-1.033,16.945-1.918,33.899-2.947,50.844
		c-0.252,4.149-0.633,8.308-1.291,12.409c-0.507,3.16-1.513,3.557-4.332,2.488l0.141,0.087c-1.633,0.295-3.272,0.555-4.896,0.892
		c-8.243,1.708-16.965,3.702-21.909,10.719c-5.493,7.797-9.628,16.702-13.381,25.537c-6.071,14.291-7.767,29.457-7.371,44.946
		c0.073,2.861-1.229,6.056-2.738,8.596c-3.437,5.783-2.963,14.314,2.782,17.894C396,490,395,496,393.85,500.692
		c-1.253,5.113-1.291,5.087-4.191,6.392c-8.153,3.67-9.074,4.368-8.837,12.788c0.117,4.161,0.273,8.321,0.477,12.479
		c0.411,8.376,4.157,12.022,11.917,12.857c1.146,0.123,2.415,0.268,3.357,0.844c1.384,0.846,2.524,2.089,3.769,3.162
		c-0.283,0.344-0.566,0.688-0.849,1.03c-6.705,0-13.409,0-20.87,0c0-17.59,0-34.746,0-51.886c-7.729,0-14.702,0.138-21.659-0.126
		c-1.262-0.048-3.428-1.653-3.521-2.688c-0.395-4.411-0.168-8.878-0.168-13.868c3.432,0,6.228,0,9.024,0c2.758,0,5.517,0,8.212,0
		c0.771-12.483,0.35-13.334-7.17-15.337c-0.07-0.321-0.272-0.689-0.182-0.959c0.734-2.192,1.437-4.403,2.31-6.543
		c7.931-19.435,12.665-39.437,11.642-60.632c-0.772-16.007-5.272-30.703-14.421-43.845c-3.422-4.916-7.953-8.732-13.104-10.487
		c-1.719,1.585-3,3.723-4.12,3.641c-6.178-0.451-12.316-1.443-19.119-2.335c3.56-4.554,9.056-0.7,14.008-4.106
		c-4.144-1.102-7.127-2.325-10.193-2.595c-3.406-0.3-4.404-2.161-4.106-4.905c0.462-4.245,1.52-8.428,1.92-12.676
		c0.109-1.158-1.139-3.457-1.918-3.527c-6.847-0.619-13.729-0.853-20.542-1.197c0.279,5.605,0.524,10.541,0.816,16.417
		c-3.649-2.057-6.009-3.387-8.727-4.919c-1.358,4.251-3.405,4.812-7.297,3.892c-17.086-4.037-33.028-0.885-47.444,9.221
		c-4.154,2.912-8.085,6.144-12.094,9.265c-0.262,0.281-0.522,0.565-0.787,0.842c-0.137,0.162-0.284,0.319-0.426,0.479
		c0.101-0.203,0.201-0.406,0.302-0.608c0.305-0.235,0.607-0.476,0.911-0.712c3.289-3.534,6.347-7.358,10.08-10.335
		c12.149-9.687,26.222-13.878,42.145-13.803c-0.809-1.343-1.956-2.648-3.067-2.62c-7.286,0.188-14.618,0.268-21.819,1.241
		c-2.92,0.395-4.411-0.185-6.496-1.951c-4.515-3.824-9.433-7.171-14.187-10.713c-0.291,0.405-0.582,0.811-0.872,1.216
		c0.285,1.359,0.571,2.719,1.073,5.112c-25.61-9.021-48.023-2.587-69.055,11.703c15.478-15.298,34.699-19.955,55.84-20.202
		c-2.74-1.589-5.43-2.451-8.173-2.675c-20.153-1.652-37.409,5.462-52.516,18.092c-8.506-7.415-11.45-17.224-14.235-27.008
		c-0.708-0.141-1.253-0.434-1.66-0.302c-9.791,3.181-19.601,6.308-29.323,9.686c-2.994,1.041-4.603,2.859-2.188,6.391
		c2.029,2.968,3.684,6.354,4.739,9.789c1.566,5.099,3.484,10.351,1.181,15.803c-14.336-2.146-39.111,16.715-46.87,33.459
		c-6.171,13.316-8.624,38.362-3.689,43.119c0.524-5.95,0.697-11.585,1.597-17.101c0.898-5.505,2.535-10.889,3.829-16.331
		c1.879-7.902,4.524-12.201,8.069-13.155c-13.918,26.913-11.298,54.474-2.563,82.605c-5.285,0.596-10.13,1.143-15.401,1.738
		c0,2.902-0.168,5.719,0.042,8.508c0.271,3.606-0.947,5.155-4.783,4.885c-4.231-0.3-8.5-0.068-12.542-0.068
		c-0.342,5.136-0.633,9.497-0.967,14.512c5.418,0,10.232-0.179,15.018,0.112c1.386,0.084,3.767,1.421,3.848,2.346
		c0.401,4.549,0.183,9.153,0.183,14.001c-8.802,0-16.74,0-24.606,0c0,27.392,0,54.479,0,81.936c3.809,0,7.113-0.402,10.25,0.15
		c1.877,0.331,4.836,1.98,5.013,3.338c1.536,11.746,6.585,21.434,14.394,30.364c13.752,15.728,31.213,20.904,50.913,18.247
		c24.295-3.277,44.742-23.56,47.735-48.477c0.454-3.777,2.014-4.819,5.753-4.789c22.161,0.176,44.323,0.078,66.485,0.099
		c1.429,0.001,2.857,0.229,4.589,0.378c0.603,12.613,5.115,23.463,12.992,32.738c11.959,14.08,27.426,21.156,45.863,20.523
		c27.228-0.935,49.181-19.425,54.621-46.37c0.797-3.947,2.528-5.354,6.281-5.204c3.403,0.137,6.816,0.029,10.58,0.029
		c0-6.266,0-12.031,0-18.105c5.732,0,11.071,0,16.63,0c-5.245,9.576-4.966,11.884,1.925,19.762c1.08,1.235,1.924,2.679,2.858,4.039
		c7.076,10.305,10.472,10.588,19.451,5.374c4.875-2.831,10.276,0.208,10.143,5.844c-0.058,2.455-0.651,4.904-1.077,7.343
		c-1.112,6.369,0.948,10.271,6.872,12.971c1.97,0.897,3.918,1.841,5.865,2.785c8.613,4.177,12.252,3.14,17.408-4.806
		c0.764-1.179,1.847-2.7,3.029-2.965c5.206-1.167,10.565,2.572,11.885,7.965c1.048,4.278,2.926,8.067,7.721,8.693
		c5.17,0.674,10.46,1.198,15.633,0.843c4.144-0.286,8.448-2.043,9.062-7.047c0.819-6.682,4.712-10.011,10.801-11.6
		c2.929-0.764,5.137-1.153,8.032,1.372c8.437,7.358,11.5,7.139,20.298,0.552c0.526-0.394,1.024-0.831,1.575-1.185
		c12.982-8.325,12.733-8.572,8.188-20.175c-2.037-5.201,3.585-6.048,4.021-9.65c0.052-0.423,3.793-0.914,5.635-0.512
		c6.697,1.461,9.186,0.66,12.856-4.811c1.76-2.623,3.472-5.287,5.384-7.796c4.511-5.918,4.367-11.848-0.51-17.65
		c-1.402-1.667-2.669-3.448-4.697-6.087c3.089-0.155,4.849-0.314,6.609-0.319c9.492-0.024,18.985,0.083,28.477-0.028
		c17.454-0.203,34.907-0.566,52.362-0.724c1.361-0.012,3.929,1.184,3.887,1.621c-0.163,1.703-1.107,3.349-1.869,4.964
		c-0.185,0.391-0.771,0.61-1.196,0.866c-4.826,2.901-6.921,6.894-5.146,12.53c0.945,3.006,1.74,6.059,2.631,9.081
		c2.417,8.201,2.682,8.391,10.914,8.052c3.983-0.164,7.056,3.96,4.778,7.164c-4.666,6.562-2.233,12.256,2.354,16.652
		c2.598,2.49,5.086,8.743,10.707,4.925c4.406-2.992,7.843-2.469,11.215,1.247c-1.251,12.328,1.193,13.641,8.691,15.739
		c2.063,0.577,4.06,1.419,6.053,2.224c6.3,2.544,6.64,2.299,10.341-3.414c1.094-1.688,3.26-3.711,4.932-3.708
		c1.687,0.002,3.778,2.032,4.982,3.69c4.844,6.672,5.317,8.316,13.155,6.539c3.058-0.693,6.088-1.535,9.174-2.059
		c4.773-0.81,6.616-3.96,6.753-8.315c0.209-6.661,4.126-9.443,9.946-6.01c5.307,3.131,9.812,2.634,14.03-1.047
		c3.725-3.249,7.712-6.671,9.993-10.878c0.996-1.838-1.986-5.822-3.143-8.84c-1.104-2.883,2.311-7.496,5.223-6.455
		c5.967,2.134,8.633-0.79,10.589-5.615c3.252-8.023,8.148-15.895-0.451-23.942C811.177,557.66,812.951,553.23,816.161,551.263z
		 M121.974,343.922c-1.509,1.657-2.041,2.809-2.803,2.992c-12.382,2.959-22.412,9.767-31.314,18.606
		C96.537,355.037,106.433,346.367,121.974,343.922z M85.21,482.346c6.468-2.547,10.284,1.167,13.904,5.177
		c3.048,3.374,5.951,6.88,9.036,10.464c-7.403,0-14.939,0-22.94,0C85.21,492.362,85.21,487.286,85.21,482.346z M117.123,589.344
		c-4.589,0.853-8.451-0.812-11.808-3.65c-3.263-2.76-4.827-6.571-4.883-10.772c-0.111-8.364,5.187-14.677,14.15-15.214
		c7.253-0.434,15.004,5.507,14.985,14.203C130.062,582.424,123.809,588.103,117.123,589.344z M305.84,589.463
		c-7.477,0.295-14.717-5.908-14.682-14.848c-0.115-7.672,5.932-14.162,13.653-14.541c9.603-0.47,15.323,7.009,15.483,13.578
		C320.525,583.146,313.999,589.141,305.84,589.463z M477.701,359.729c1.15-20.571,2.28-40.855,3.437-61.137
		c0.056-0.98,0.339-1.949,0.531-2.919c1.712-8.648,1.711-8.668,10.124-9.619c3.435-0.388,6.898-0.531,10.326-0.979
		c15.881-2.075,12.896,6.297,12.978,8.913c0.716,22.738,1.189,45.484,1.723,68.228c0.045,1.939,0.006,3.88,0.006,6.653
		c-11.793-1.045-22.409-1.986-33.026-2.926c-0.053-0.545-0.104-1.091-0.157-1.636C480,364,477,364,477.701,359.729z
		 M516.057,549.703c-4.129,4.299-9.412,6.938-15.014,8.955c-11.455,4.124-22.198,2.275-32.4-3.816
		c-5.828-3.481-10.088-8.568-13.612-14.273c-4.212-6.816-5.743-14.307-5.926-22.285c-0.241-10.576,2.991-19.936,9.557-27.963
		c6.233-7.621,14.354-12.576,24.291-14.002c13.687-1.962,25.435,2.352,34.656,12.324c7.562,8.178,11.707,18.152,11.437,31.689
		C528.889,530.443,524.457,540.955,516.057,549.703z M605.766,457.91c5.622-5.584,1.44-10.83-0.59-16.131
		c-4.391-11.464-10.074-22.429-18.062-31.613c-7.444-8.559-16.387-15.855-24.981-23.351c-2.896-2.525-6.747-3.955-10.161-5.885
		l0.144,0.141c-8.223-3.795-8.35-10.75-8.301-18.617c0.155-24.954-0.307-49.914-0.754-74.868c-0.069-3.838,1.16-5.347,4.862-5.727
		c9.695-0.995,19.345-2.524,29.057-3.234c5.256-0.385,21.021,0.373,24.175,3.175c0.474-0.083,0.947-0.166,1.421-0.248
		c1.466,4.592,3.343,9.098,4.328,13.791c5.598,26.651,10.605,53.417,12.722,80.583c-8.563-0.733-16.383-4.258-16.442-12.559
		c-0.013-1.824,0.553-3.982-0.223-5.397c-1.344-2.449,0.041-5.973-5.481-6.29c-1.814-0.104-5.457,1.167-6.607,2.963
		c-1.237,1.934-1.517,14.299-1.482,15.179c0.272,7.017,0.967,14.032,0.91,21.043c-0.031,3.774,1.896,5.339,4.826,5.65
		c3.44,0.365,6.176-1.411,6.977-4.991c0.525-2.351,0.487-4.828,0.726-7.513c3.351,1.18,11.956,3.269,17.618,4.887
		c1.048,19.312,1.651,38.651,2.478,57.976c0.029,0.665-0.062,1.338-0.007,1.999C624.082,462.836,616.876,463.109,605.766,457.91z
		 M755.432,570.275c-6.154,4.354-13.322,5.729-20.854,3.393c-8.521-2.643-13.947-8.532-17.006-16.62
		c-1.135-3.003-1.319-6.364-1.938-9.562c0.169-7.361,2.635-13.732,7.446-19.053c5.24-5.795,12.007-8.987,19.809-8.348
		c10.215,0.838,17.395,6.352,21.787,15.76C770.549,548.422,765.696,563.016,755.432,570.275z"/>
	<path fill-rule="evenodd" clip-rule="evenodd" d="M72.473,420.418c1.428,7.442,2.855,14.885,4.481,23.359
		c-1.696-0.943-2.962-1.232-3.082-1.775c-1.561-7.049-4.102-14.021-2.811-21.364C71.532,420.564,72.003,420.491,72.473,420.418z"/>
</g>
<path fill-rule="evenodd" clip-rule="evenodd" fill="#009444" d="M658.395,531.016c1.115,0.817,3.027,2.219,4.94,3.62
	c-0.077,0.451-0.154,0.903-0.231,1.354c-26.804-0.614-53.585,2.055-80.398,0.06c13.014-7.154,10.766-7.172,11.707-15.341
	c0.613-5.328,0.333-11.123-1.228-16.19c-0.815-2.648-5.01-5.15-8.133-5.959c-3.659-0.948-4.775-2.828-5.585-5.94
	c-0.866-3.329-2.257-6.521-3.168-9.84c-0.305-1.107,0.086-2.441,0.313-3.642c0.08-0.42,0.638-0.741,0.955-1.126
	c9.739-11.788,7.757-12.026-0.159-24.547c-1.054-1.668-2.158-3.354-3.514-4.77c-2.983-3.115-6.476-4.594-10.673-2.316
	c-4.763,2.583-8.743,2.509-12.603-2.102c-2.085-2.49-2.934-4.572-2.065-7.58c0.597-2.07,1.083-4.191,1.394-6.322
	c0.589-4.042-0.146-7.333-4.383-9.42c-3.849-1.896-7.3-4.582-11-6.796c-4.367-2.613-8.27-1.932-11.462,1.833
	c-6.569,7.749-10.748,8.81-19.749,4.735c-1.015-0.459-1.728-1.828-2.329-2.915c-2.241-4.051-0.554-10.778-7.208-11.748
	c-4.884-0.711-9.919-0.443-14.888-0.491c-6.6-0.064-10.776,2.698-11.112,9.816c-0.037,0.794-0.571,1.553-0.73,2.356
	c-0.623,3.139-2.143,4.53-5.534,5.763c-6.507,2.364-11.538,3.371-16.91-2.641c-3.504-3.92-8.778-4.26-13.381-0.242
	c-1.231,1.076-2.833,1.734-4.279,2.557c-9.485,5.393-10.712,9.208-6.599,19.11c0.829,1.996,1.645,5.762,0.778,6.394
	c-3.701,2.695-4.324,10.333-11.737,7.501c-2.849-1.088-6.149-0.995-10.099-1.564c0.505-6.215,0.227-12.729,1.695-18.82
	c3.26-13.523,7.358-26.812,15.689-38.376c3.781-5.249,9.015-7.664,14.905-9.086c6.384-1.542,12.837-2.804,20.55-4.466
	c0-6.998-0.232-14.46,0.059-21.902c0.357-9.104,1.121-18.192,1.765-27.283c0.727-10.262,1.56-20.516,2.269-30.779
	c1.256-18.177,2.406-36.362,3.787-54.529c0.088-1.147,1.666-2.964,2.76-3.136c18.006-2.836,36.001-5.825,54.093-8
	c12.166-1.463,24.478-2.313,36.727-2.337c13.916-0.027,27.863,0.826,41.745,1.945c11.873,0.958,23.662,2.927,35.511,4.25
	c4.375,0.488,3.746-1.537,11.721-1.928c0.643,6.829,1.368,13.789,1.863,20.765c0.06,0.848-1.707,10.707-1.729,11.316
	c-4.244,0-8.488,0-12.996,0c0,1.534-0.165,2.492,0.024,3.375c5.295,24.7,10.668,49.383,15.892,74.099
	c0.577,2.731,0.253,5.643,0.483,8.459c0.382,4.661-0.266,8.508-6.186,8.385c-0.13,0.78-0.315,1.264-0.271,1.725
	c0.983,10.135,2.117,10.705,12.263,11.561c14.279,1.205,28.493,3.187,42.742,4.772c11.497,1.279,23.005,2.462,34.507,3.688
	c11.519,1.228,23.036,2.47,34.557,3.677c3.938,0.413,7.916,0.533,11.816,1.16c4.372,0.703,16.391,0.649,16.714,0.888
	c4.478,3.301,6.52,7.858,6.537,13.328c0.072,21.328,0.092,42.655,0.152,63.983c0.011,3.827,0.061,7.656,0.205,11.48
	c0.127,3.374-1.027,5.508-5.463,5.466c-0.253-2.33-2.319-0.884-2.609,2.429c-4.831-0.991-6.652-3.83-6.027-8.303
	c0.837-5.991-0.818-10.396-7.082-12.429c-1.841-0.598-3.376-2.102-5.1-3.109c-6.343-3.71-7.922-3.376-12.276,2.509
	c-3.825,5.17-14.272,4.107-18.005-1.831c-5.155-8.204-7.32-8.946-16.264-5.577c-0.935,0.353-1.851,0.909-2.812,1.009
	c-6.146,0.639-7.955,3.873-7.908,10.006c0.02,2.479-4.15,4.99-6.098,7.138c-1.324-0.399-1.715-0.405-1.938-0.602
	c-9.977-8.755-10.486-5.811-17.96,0.65c-5.124,4.431-8.205,9.105-3.957,15.863c0.479,0.764,0.101,2.437-0.426,3.386
	c-1.203,2.172-3.044,4.019-4.07,6.253c-1.252,2.728-2.956,3.115-5.611,2.45c-4.969-1.245-7.806,0.246-9.7,4.967
	c-1.298,3.233-2.306,6.585-3.625,9.81C661.183,525.505,659.852,527.978,658.395,531.016z M630.595,466.226
	c0-9.585,0.334-18.824-0.068-28.03c-0.89-20.346-1.734-40.71-3.387-61.002c-1.368-16.809-3.1-33.663-6.073-50.246
	c-3.23-18.021-8.084-35.749-12.223-53.607c-1.521-6.568-3.026-7.56-9.568-5.973c-0.894,1.56-1.97,3.182-3.402,3.611
	c-2.164,0.648-4.575,0.581-6.884,0.611c-6.14,0.079-12.291-0.164-18.421,0.11c-8.261,0.369-16.564,0.681-24.74,1.812
	c-6.455,0.893-9.819,2.113-9.703,9.882c0.183,12.152-0.11,24.31-0.085,36.466c0.03,14.652,0.3,29.305,0.222,43.956
	c-0.029,5.592-0.736,11.181-1.144,16.905c-1.983,0.164-3.756,4.253-2.385,5.085c6.472,3.924,13.242,7.366,19.628,11.417
	c11.305,7.171,20.498,16.617,28.051,27.657c1.569-0.93,2.923-1.731,4.727-2.8c6.255,9.464,12.471,18.543,14.584,29.601
	c-5.6,3.183-5.743,5.78-1.367,14.545C608.591,466.226,618.731,466.226,630.595,466.226z M521.467,270.611
	c-4.073,0-6.9-0.169-9.688,0.084c-1.106,0.101-2.188,1.057-3.174,1.77c-1.662,1.201-3.077,3.264-4.883,3.66
	c-7.941,1.743-15.981,3.049-23.996,4.448c-2.606,0.455-4.784,0.981-4.986,4.376c-0.888,14.922-1.903,29.837-2.918,44.751
	c-0.597,8.779-1.084,17.574-2.07,26.31c-0.227,2.002-2.199,3.877-3.57,5.655c-0.933,1.208-2.95,1.997-3.2,3.233
	c-0.629,3.107-0.529,6.361-0.694,9.108c21.029,0.849,41.21,1.664,61.817,2.496C523.23,341.42,522.351,306.092,521.467,270.611z"/>
<path fill-rule="evenodd" clip-rule="evenodd" fill="#9B8579" d="M59.681,554.163c0-13.133,0-25.888,0-39.654
	c5.602,0,11.011-0.003,16.42,0c75.509,0.043,151.019,0.093,226.529,0.128c18.116,0.009,36.232,0.068,54.346-0.118
	c3.883-0.04,5.246,1.062,5.174,5.066c-0.221,12.419-0.081,24.844-0.82,37.514c-1.788-3.624-3.529-7.272-5.37-10.869
	c-8.872-17.326-23.705-25.841-42.345-29.168c-20.86-3.723-37.65,4.475-51.367,18.734c-5.787,6.017-8.589,15.048-12.168,22.972
	c-1.36,3.011-2.491,4.346-5.957,4.321c-22.651-0.16-45.305-0.191-67.956,0.036c-3.793,0.038-4.928-1.838-5.772-4.685
	c-2.718-9.171-6.84-17.595-13.768-24.322c-6.764-6.567-14.419-11.596-23.518-14.788c-10.382-3.644-20.889-4.098-31.271-2.028
	c-11.951,2.382-22.016,9.13-29.951,18.252C67.192,540.951,63.917,547.583,59.681,554.163z"/>
<g>
	<path fill-rule="evenodd" clip-rule="evenodd" fill="#F15A29" d="M229.861,350.762c-1.847,3.687-3.637,7.403-5.552,11.054
		c-7.678,14.642-13.101,30.084-16.707,46.204c-0.677,3.025-0.281,5.074,3.192,5.167c2.794,0.075,5.266,0.26,6.084-3.956
		c3.444-17.741,9.699-34.592,19.906-49.509c10.237-14.962,32.429-24.087,48.063-18.77c2.342,0.797,4.759,1.656,6.777,3.024
		c1.306,0.885,1.948,2.749,3.606,5.266c4.724,2.658,10.526,7.852,17.025,8.96c5.047,0.861,10.894-1.224,16.394,0.823
		c0.221,0.082,1.333-2.231,2.56-4.338c3.925,1.547,8.412,2.552,11.976,4.938c3.458,2.315,5.969,6.048,8.895,9.157
		c3.845-4.29,4.93-4.047,7.849,1.369c8.812,16.348,9.409,34.009,6.581,51.565c-2.123,13.178-6.739,25.955-10.245,38.91
		c-0.908-0.248-1.816-0.496-2.725-0.744c1.266-4.648,2.247-9.397,3.848-13.927c6.384-18.056,8.841-36.43,5.219-55.414
		c-0.277-1.45,0.08-3.036-0.276-4.453c-0.47-1.866-1.355-3.627-2.898-5.399c0,2.354-0.535,4.862,0.09,7.038
		c3.198,11.139,0.569,22.153-0.98,33.024c-1.228,8.616-4.71,16.886-6.664,25.43c-1.378,6.028-5.525,6.621-10.37,6.605
		c-1.457-0.006-2.914-0.146-5.105-0.264c0,3.367-0.211,6.328,0.05,9.245c0.375,4.166-1.305,5.467-5.415,5.438
		c-21.494-0.152-42.989-0.066-64.484-0.065c-13.83,0-27.662-0.131-41.489,0.081c-3.784,0.058-5.999-0.781-6.385-4.856
		c-1.092-11.53-2.396-23.043-3.373-34.583c-0.257-3.033-0.735-4.927-4.695-3.795c0.319,1.335,0.626,2.62,1.032,4.32
		c-6.566-0.237-6.549,4.218-6.122,8.455c0.851,8.424,2.064,16.811,3.104,25.217c0.159,1.279,0.193,2.576,0.312,4.245
		c-1.62-0.191-2.854-0.337-4.269-0.505c-1.386-13.902-2.749-27.572-4.181-41.934c-2.056-0.824-2.708,1.032-2.419,3.579
		c1.084,9.542,1.71,19.183,3.578,28.575c2.163,10.875,2.338,11.18-8.801,11.182c-28.494,0.005-56.987-0.047-85.48,0.09
		c-3.646,0.018-6.247-0.761-8.254-4.023c-7.86-12.778-13.279-26.458-14.002-41.495c-0.475-9.861-0.52-19.907,0.811-29.655
		c2.249-16.472,12.762-27.133,27.367-34.031c1.14-0.539,2.854,0.2,4.304,0.233c1.152,0.026,2.529,0.267,3.43-0.247
		c9.482-5.407,19.299-6.221,29.705-3.015c1.478,0.456,4.361-0.64,5.297-1.947c4.537-6.329,10.18-10.807,17.83-12.621
		c0.939-0.223,2.25-0.411,2.668-1.071c5.557-8.771,14.753-11.506,23.847-13.79c12.64-3.174,25.021-2.869,35.643,6.328
		c0.622,0.539,1.379,0.92,2.712,1.794c-23.886,17.754-31.218,43.623-38.644,69.441c0.575,0.34,1.15,0.68,1.725,1.02
		c1.679-2.931,3.59-5.756,4.995-8.813c5.576-12.135,10.824-24.423,16.589-36.465c1.443-3.014,4.36-5.322,6.597-7.958
		C229.981,350.888,229.861,350.762,229.861,350.762z M204.623,405.093c-7.171,1.036-5.557,6.329-6.217,9.879
		c-0.317,1.708,1.515,3.815,2.373,5.742c0.495-0.2,0.989-0.4,1.483-0.601C203.011,415.351,203.76,410.587,204.623,405.093z"/>
	<path fill-rule="evenodd" clip-rule="evenodd" fill="#F15A29" d="M223.874,481.843c36.737,0,71.989,0,107.241,0
		c0.194,0.381,0.387,0.762,0.581,1.143c-7.905,5.637-11.771,16.158-24.785,15.577c-20.608-0.919-41.311-0.804-61.925,0.053
		c-8.439,0.351-12.708-3.868-16.94-9.412C226.515,487.197,225.516,484.785,223.874,481.843z"/>
	<path fill-rule="evenodd" clip-rule="evenodd" fill="#F15A29" d="M119.002,481.611c6.604,0,13.207-0.006,19.811,0.001
		c20.465,0.02,40.93,0.017,61.394,0.093c3.312,0.013,6.653,0.168,9.926,0.638c5.589,0.801,3.89,5.5,5.005,9.577
		c-2.213-0.975-3.753-1.653-6.837-3.011c1.641,3.692,2.703,6.082,4.006,9.013c-1.675,0.137-3.222,0.371-4.769,0.373
		c-20.634,0.024-41.27,0.119-61.902-0.1c-2.911-0.03-6.113-1.103-8.647-2.597c-6.374-3.758-12.443-8.032-18.635-12.101
		C118.57,482.869,118.786,482.24,119.002,481.611z"/>
	<path fill-rule="evenodd" clip-rule="evenodd" fill="#F15A29" d="M326.031,497.213c2.852-2.801,5.703-5.601,8.554-8.401
		c0.374,0.373,0.747,0.747,1.12,1.12c-2.87,2.776-5.739,5.554-8.608,8.33C326.742,497.912,326.386,497.562,326.031,497.213z"/>
</g>
</svg>
