<?xml version="1.0" encoding="utf-8"?>
<!-- Generator: Adobe Illustrator 16.0.0, SVG Export Plug-In . SVG Version: 6.00 Build 0)  -->
<!DOCTYPE svg PUBLIC "-//W3C//DTD SVG 1.1//EN" "http://www.w3.org/Graphics/SVG/1.1/DTD/svg11.dtd">
<svg version="1.1" xmlns="http://www.w3.org/2000/svg" xmlns:xlink="http://www.w3.org/1999/xlink" x="0px" y="0px" width="256px"
	 height="256px" viewBox="0 0 256 256" enable-background="new 0 0 256 256" xml:space="preserve">
<g id="round_x5F_white">
	<g id="_x31_6">
		<g>
			<path fill-rule="evenodd" clip-rule="evenodd" fill="#FFFFFF" d="M119.59,193.198c0.215-0.089,0.426-0.221,0.646-0.28v0.006
				c0.298-0.116,0.597-0.25,0.901-0.347c0,0.006,0,0.012,0,0.012c0.493-0.167,1.064-0.396,1.607-0.396
				c-0.549,0-1.114,0.039-1.666,0.061C120.016,192.254,120.004,192.175,119.59,193.198z M77.805,85.528
				c-0.494-0.31-0.825,0.261-0.972,0.696c0.41-0.114,0.8-0.274,1.182-0.479C77.801,85.673,77.729,85.599,77.805,85.528z M128,0
				C57.308,0,0,57.308,0,128s57.308,128,128,128s128-57.308,128-128S198.692,0,128,0z M220.82,178.656
				c-0.02,0.677-1.471,2.721-2.133,2.925c-0.9,0.282-1.911-0.341-2.6-0.833c-1.305,0.208-4.452-0.935-5.615-1.567
				c-5.032,0.329-11.286-7.317-14.546-10.454c-0.211,0.486-0.437,0.986-0.714,1.465c-1.484-3.125-3.962-6.094-6.807-8.091
				c-3.187-2.229-2.096,1.357-1.349,3.007c-0.669-1.074-5.345-9.059-6.88-8.401c-0.847,0.372,1.943,5.192,2.168,5.619
				c-2.021-2.606-3.936-6.233-6.521-8.295c0.347,1.973,1.656,3.541,1.752,5.645c-2.647-1.997-5.444-5.393-8.453-6.766
				c-0.152-0.066,0.714,3.341,0.804,3.692c-0.657-0.486-7.697-5.935-8.081-5.157c-0.385,0.771,1.321,3.234,1.591,3.992
				c-2.84-1.358-5.994-2.572-8.559-4.422c1.095,0.884,1.888,2.077,2.308,3.417c-1.455-0.688-2.899-1.377-4.33-2.104
				c-0.718,0.357-1.484,0.513-2.291,0.462c0.288,0.437,3.333,4.34,2.304,4.703c-0.871,0.313-1.798-0.508-2.65-0.332
				c0.227,0.802,2.164,9.602-0.663,6.94c0.226,0.911,1.32,10.82-1.876,7.734c0.195,1.48,1.004,6.853-1.827,4.052
				c0.75,3.238-0.896,5.025-4.19,3.494c-0.712,2.063-0.712,6.651-2.89,6.651c-1.429,0.019-2.142,1.179-3.813,0.42
				c-0.382,0.667-0.791,1.599-1.086,2.309v-0.024c-1.11,2.857,5.467,3.542,7.228,4.373c1.297,0.606,4.787,2.653,5.445,3.917
				c0.785,1.504,0.537,5.438-1.497,6.014c0.985-1.422,0.583-4.466-1.066-5.262c-1.475-0.707-2.078,0.398-3.449,0.721
				c-2.016,0.32-2.911-2.761-4.964-3.313c-4.279-0.925-9.377,0.471-13.557,1.354v0.007c-1.145,0.246-2.239,0.656-3.11,1.459
				c0.559,0.322,1.234,0.369,1.808,0.644c0-0.007,0-0.007,0-0.007c0.914,0.323,1.833,0.627,2.729,0.986c0-0.006,0-0.006,0-0.006
				c2.102,0.828,4.264,1.611,6.14,2.918c0.803,0.557,1.774,1.333,2.077,2.309c0.81,0.073,1.629,0.49,2.205,1.059
				c1.845,1.815,2.282,9.153-0.992,10.082c1.774-1.018,0.413-6.229-0.666-7.268c-1.046-1.004-5.049-0.006-4.751,0.578
				c0,0.003,0.013,0.013,0.013,0.016c-2.021,0.773-2.798-1.665-3.728-2.896c-1.101-1.462-2.747-1.991-4.512-2.104
				c-1.786-0.11-3.771-0.418-5.535,0.019c-0.385,0.127-0.775,0.228-1.166,0.335c0.004,0.003,0.004,0.009,0.004,0.009
				c-0.748,0.197-1.495,0.408-2.258,0.548c0.034,0.092,0.074,0.17,0.136,0.22c-0.452-0.232-0.924-0.214-1.404,0.055
				c0-0.006-0.002-0.012-0.002-0.021c0,0.122-4.557,0.877-5.133,1.06c-2.245,0.588-3.444,1.65-4.951,3.323
				c-0.228,0.259-0.481,0.524-0.745,0.752c0-0.004-0.006-0.01-0.006-0.016c-1.104,1.234-2.76,1.77-4.338,2.084
				c-1.511,0.085-2.302-0.278-3.223,1.191c-0.264,0.42-2.092,5.571-1.175,5.534c-3.058,0.302-0.192-8.936,0.639-10.305
				c0,0.007,0,0.007,0.007,0.007c0.499-0.82,1.206-1.503,1.9-2.151c0,0.004,0,0.004,0,0.01c0.341-0.283,0.618-0.514,1.012-0.83
				c0,0.013,0.006,0.022,0.006,0.029c0.301-0.299,0.716-0.5,1.075-0.722c0,0.003,0,0.01,0,0.01c2.131-1.256,4.571-2.21,6.571-3.664
				c0,0.003,0,0.003,0,0.003c1.145-0.672,2.462-1.23,3.758-1.547c-0.325,0.006-0.211,0-0.396,0c0-1.592-14.976,4.132-16.289,4.087
				c-2.118-0.309-3.103-1.794-5.15,0.082c-0.527,0.487-3.057,3.964-2.03,4.556c-4.241-1.69,2.437-8.692,4.525-9.258
				c2.637-0.717,5.186-1.934,7.846-2.741c0,0,0,0,0,0.003c0.395-0.082,0.778-0.161,1.166-0.24c0.396-0.079,0.794-0.158,1.191-0.237
				c0.036,0.055,1.01-0.152,1.19-0.188c0,0,0,0.003,0,0.009c0.395-0.076,0.797-0.113,1.193-0.168c0,0,0,0.006,0,0.013
				c0.398-0.04,0.794-0.073,1.19-0.092c0,0.007,0,0.007,0,0.007c1.239-0.063,2.46-0.061,3.684-0.102
				c-1.583-0.486-10.475-0.897-6.43-3.853c-0.816-0.133-6.735,1.784-5.601,3.417c-1.563-2.006,2.096-5.016,3.622-5.742
				c2.276-1.077,4.16-0.013,6.291-0.214l-0.007,0.006c1.613-0.115,4.245,0.786,5.601,1.643c1.805,0.535,1.792,0.468,3.73-0.274
				v0.006c0.745-0.271,1.473-0.554,2.245-0.749c0.964-0.487,1.036-1.815,1.293-2.875c-0.385-0.186-2.18,1.012-1.953,1.656
				c-1.367-1.396,2.16-2.335,0.455-3.322c-0.694-0.405-2.191-1.729-2.04-2.667c-0.381-0.837-0.635-1.73-0.871-2.625
				c-0.003,0.003-0.003,0.006-0.01,0.006c-0.076-0.299-0.155-0.603-0.235-0.905c0,0,0,0,0,0.007
				c-1.063-3.069-1.745-6.854-2.105-10.126c-0.006,0.006-0.009,0.006-0.016,0.013c-0.509-3.411-1.569-6.804-2.958-9.946
				c0,0-0.006,0.004-0.006,0.007c-0.807-2.107-2.138-3.979-2.93-6.097c-0.944-2.031-1.602-1.678-3.892-2.126
				c-1.018-0.201-2.436-2.853-3.344-3.514c-1.932-1.42-1.491,1.063-2.487,1.817c-0.325,0.247-3.665-3.943-4.146-4.363
				c-3.324-2.904-0.468,1.714-1.531,2.454c-0.608,0.423-4.677-5.118-5.662-5.521c0.415,0.688,2.741,2.955,2.475,3.825
				c-0.214,0.604-9.783-6.303-10.51-6.979c-3.736-3.481-6.886-7.599-9.654-11.873c-3.009-4.648-6.544-9.269-7.335-14.883
				c-0.652-4.651-0.53-9.718,0.847-14.229c-0.184,0.185-0.378,0.355-0.592,0.507c-0.03-0.283-0.071-0.564-0.105-0.848
				c0.003,0.077-0.177-3.18-0.862-2.727c-0.201,0.186-0.354,0.403-0.493,0.638c0-0.006-0.006-0.009-0.012-0.013
				c-0.305,0.422-0.589,0.874-0.884,1.309c-0.016-0.154-0.016-0.344,0-0.505c0.006,0.006,0.006,0.006,0.006,0.009
				c0-0.936,0.787-1.908,0.787-2.696c-0.033,0.032-0.056,0.067-0.087,0.1c-0.055,0.068-0.12,0.137-0.177,0.207
				c0.282-1.14,1.539-2.523,0.711-3.635c-1.11-0.487-2.636,1.39-3.33,2.046c1.061-1.213,1.857-2.827,2.191-4.398
				c0-2.154-2.846,0.419-3.466,0.983c-0.024-0.146-0.048-0.313-0.031-0.458c0.007,0.007,0.013,0.014,0.013,0.021
				c0-1.854,1.153-3.988,2.427-5.288c0.006,0.003,0.006,0.01,0.006,0.016c0.436-0.515,0.813-0.892,1.479-1.128
				c0.104-0.012,0.195-0.042,0.292-0.086c-0.771-0.554-2.633-0.03-3.417,0.297c0.238-0.954,0.489-1.771,0.877-2.677
				c0,0.012,0,0.025,0.006,0.038c0.37-1.115,1.328-1.744,2.242-2.37v0.034c0.05,0,0.506-0.261,0.312-0.44
				c-0.969-0.471-2.811,0.347-3.616,0.781c0.626-1.937,1.652-2.751,3.519-3.443l-0.006,0.005c0.063-0.038,0.128-0.081,0.189-0.143
				c-0.419-0.057-0.979,0.024-1.404,0.059v-0.015c-0.445,0.021-0.993,0.154-1.405-0.013c0.059-0.125,0.146-0.279,0.239-0.373
				c-0.003,0.013-0.003,0.025-0.003,0.038c0.495-0.867,2.111-3.258,3.289-3.295c0,0.009-0.006,0.019-0.013,0.031
				c0.209-0.09,0.447-0.062,0.676-0.087c-0.007,0.009-0.007,0.011-0.007,0.017c0.203,0.019,0.241-0.074,0.128-0.271
				c-0.947,0.086-1.644,0.283-2.719,0.283c0.039-0.068,0.075-0.138,0.105-0.21c0,0.01-0.006,0.02-0.006,0.028
				c0.945-0.76,1.337-2.747,2.334-3.684c-0.021,0.037-0.049,0.087-0.07,0.13c0.791-0.763,1.826-1.124,2.831-1.51
				c-0.223-0.313-0.335-0.651-0.335-1.021c-0.006,0.003-0.006,0.009-0.006,0.013c-0.205-2.126,1.715-4.551,3.112-5.938
				c-0.03,0.021-0.067,0.036-0.097,0.059c0.673-0.684,1.405-1.334,2.162-1.911c-0.043,0.019-0.08,0.036-0.124,0.06
				c0.884-0.674,1.826-1.293,2.804-1.819c-0.016,0.007-0.034,0.014-0.047,0.016c3.299-1.71,10.254-2.488,12.763-1.831
				c1.544,0.068,3.107,0.248,4.614,0.589c-0.003,0-0.003-0.003-0.01-0.003c1.821,0.303,3.721,0.933,5.39,1.713
				c1.792,0.837,2.946,2.782,4.465,3.506c-0.003,0.003-0.003,0.006-0.009,0.006c0.146,0.011,0.262,0.063,0.356,0.152
				c0.214,0.136,0.435,0.257,0.664,0.373c0.062,0.114,0.151,0.183,0.265,0.21c0.076,0.072,0.153,0.143,0.233,0.21
				c-0.006,0.003-0.019,0.01-0.019,0.01c0.013,0.017,0.184,0.181,0.208,0.23c0,0-0.006,0.004-0.012,0.004
				c0.046,0.068,0.089,0.149,0.14,0.261c-0.006,0-0.006,0.007-0.012,0.007c2.576,0,5.006,0.871,7.36,1.858
				c-0.006-0.007-0.006-0.01-0.012-0.013c0.508,0.235,1.778,0.67,1.909,1.061c2.59,2.372,4.763,8.006,0.267,9.908
				c0.006-0.009,0.013-0.016,0.016-0.021c-0.124,0.013-0.248,0.039-0.362,0.075c0.006-0.007,0.006-0.007,0.012-0.013
				c-0.071,0.006-0.13,0-0.2-0.013c1.209-2.366,0.749-3.021-1.511-2.572h0.003c-0.038,0.021-0.45,0.097-0.667,0.135h0.111
				c-0.235,0.021-0.465,0.057-0.7,0.104h0.096c-0.945,0.176-1.892,0.337-2.84,0.474h0.054c-0.605,0.087-1.208,0.175-1.809,0.268
				h0.248c-0.317,0.012-0.624,0.049-0.931,0.104h0.109c-0.326,0.02-0.643,0.065-0.966,0.138h0.12c-1,0.123-4.742,2.527-3.999,3.756
				l-0.006-0.003c0.006,0.01,0.012,0.019,0.012,0.027c0-0.063,0.245,0.445,0.178,0.326c-0.105-0.155-0.202-0.31-0.329-0.444
				c-0.884,1.801-0.639,3.108-0.639,5.051c0.006-0.01,0.013-0.021,0.013-0.028c0.006,0.224,0.04,0.443,0.077,0.663
				c-0.231-0.272-1.123-1.388-1.54-1.15c-0.401,0.23-0.165,1.337-0.079,1.683c0-0.006,0-0.017,0.003-0.029
				c0.469,2.986,9.998,0.967,12.544,0.681c4.214-0.472,9.244-0.143,13.448,0.406c9.146,1.195,18.112,2.84,26.894,5.845
				c11.097,3.8,22,7.798,31.957,14.105c4.861,3.084,9.606,6.417,13.839,10.339c0.48,0.444,5.162,4.927,3.953,5.078
				c1.271,0.854,12.441,11.025,13.458,10.008c0,0.039,0.056,0.057,0.074,0.027c0.031,0.029,0.007,0.068,0.108,0.056
				c0.08,0.087,0.093,0.025,0.105,0.025c0.007,0.042,0.047,0.062,0.103,0.056v-0.003c1.985,0.682,8.478,2.883,9.032,5.081
				c-0.012-0.006-0.018-0.019-0.03-0.03c0.311,1.388-2.918,1.172-3.803,1.172c-0.139,0-0.267-0.003-0.399-0.006
				c0,0.003,0,0.006,0,0.006c-0.14-0.006-0.283-0.013-0.422-0.009c0,0.003,0,0.009,0,0.009c-0.133-0.013-0.273-0.019-0.406-0.016
				c0,0.007,0,0.016,0,0.016c-2.272,0.774-6.561-0.416-8.613-0.673c0.623,1.184,0.05,2.161-1.157,2.562
				c2.729,0.354,5.677,1.024,8.308,1.822c2.552,0.776,5.805,0.782,8.07,2.323c4.172,2.824-11.444,6.197-12.929,6.45
				c5.141,6.088,10.285,12.211,15.198,18.485c1.989,2.533,4.567,5.298,5.679,8.368C223.366,175.151,222.684,178.36,220.82,178.656z
				 M124.865,182.086c-0.313,1.328-0.595,2.698-1.263,3.904c2.242,0.557,4.044,1.766,5.269-0.878
				c1.085-2.362,0.754-3.505-0.304-5.792C128.174,180.676,126.258,185.662,124.865,182.086z M53.239,93.575
				c0.235-0.279,0.583-0.647,0.726-0.973C53.636,92.819,53.395,93.221,53.239,93.575z"/>
		</g>
	</g>
</g>
<g id="round_x5F_blue" display="none">
	<g id="_x31_6_8_" display="inline">
		<g>
			<path fill-rule="evenodd" clip-rule="evenodd" fill="#00A3F5" d="M119.59,193.198c0.215-0.089,0.426-0.221,0.646-0.28v0.006
				c0.298-0.116,0.597-0.25,0.901-0.347c0,0.006,0,0.012,0,0.012c0.493-0.167,1.064-0.396,1.607-0.396
				c-0.549,0-1.114,0.039-1.666,0.061C120.016,192.254,120.004,192.175,119.59,193.198z M77.805,85.528
				c-0.494-0.31-0.825,0.261-0.972,0.696c0.41-0.114,0.8-0.274,1.182-0.479C77.801,85.673,77.729,85.599,77.805,85.528z M128,0
				C57.308,0,0,57.308,0,128s57.308,128,128,128s128-57.308,128-128S198.692,0,128,0z M220.82,178.656
				c-0.02,0.677-1.471,2.721-2.133,2.925c-0.9,0.282-1.911-0.341-2.6-0.833c-1.305,0.208-4.452-0.935-5.615-1.567
				c-5.032,0.329-11.286-7.317-14.546-10.454c-0.211,0.486-0.437,0.986-0.714,1.465c-1.484-3.125-3.962-6.094-6.807-8.091
				c-3.187-2.229-2.096,1.357-1.349,3.007c-0.669-1.074-5.345-9.059-6.88-8.401c-0.847,0.372,1.943,5.192,2.168,5.619
				c-2.021-2.606-3.936-6.233-6.521-8.295c0.347,1.973,1.656,3.541,1.752,5.645c-2.647-1.997-5.444-5.393-8.453-6.766
				c-0.152-0.066,0.714,3.341,0.804,3.692c-0.657-0.486-7.697-5.935-8.081-5.157c-0.385,0.771,1.321,3.234,1.591,3.992
				c-2.84-1.358-5.994-2.572-8.559-4.422c1.095,0.884,1.888,2.077,2.308,3.417c-1.455-0.688-2.899-1.377-4.33-2.104
				c-0.718,0.357-1.484,0.513-2.291,0.462c0.288,0.437,3.333,4.34,2.304,4.703c-0.871,0.313-1.798-0.508-2.65-0.332
				c0.227,0.802,2.164,9.602-0.663,6.94c0.226,0.911,1.32,10.82-1.876,7.734c0.195,1.48,1.004,6.853-1.827,4.052
				c0.75,3.238-0.896,5.025-4.19,3.494c-0.712,2.063-0.712,6.651-2.89,6.651c-1.429,0.019-2.142,1.179-3.813,0.42
				c-0.382,0.667-0.791,1.599-1.086,2.309v-0.024c-1.11,2.857,5.467,3.542,7.228,4.373c1.297,0.606,4.787,2.653,5.445,3.917
				c0.785,1.504,0.537,5.438-1.497,6.014c0.985-1.422,0.583-4.466-1.066-5.262c-1.475-0.707-2.078,0.398-3.449,0.721
				c-2.016,0.32-2.911-2.761-4.964-3.313c-4.279-0.925-9.377,0.471-13.557,1.354v0.007c-1.145,0.246-2.239,0.656-3.11,1.459
				c0.559,0.322,1.234,0.369,1.808,0.644c0-0.007,0-0.007,0-0.007c0.914,0.323,1.833,0.627,2.729,0.986c0-0.006,0-0.006,0-0.006
				c2.102,0.828,4.264,1.611,6.14,2.918c0.803,0.557,1.774,1.333,2.077,2.309c0.81,0.073,1.629,0.49,2.205,1.059
				c1.845,1.815,2.282,9.153-0.992,10.082c1.774-1.018,0.413-6.229-0.666-7.268c-1.046-1.004-5.049-0.006-4.751,0.578
				c0,0.003,0.013,0.013,0.013,0.016c-2.021,0.773-2.798-1.665-3.728-2.896c-1.101-1.462-2.747-1.991-4.512-2.104
				c-1.786-0.11-3.771-0.418-5.535,0.019c-0.385,0.127-0.775,0.228-1.166,0.335c0.004,0.003,0.004,0.009,0.004,0.009
				c-0.748,0.197-1.495,0.408-2.258,0.548c0.034,0.092,0.074,0.17,0.136,0.22c-0.452-0.232-0.924-0.214-1.404,0.055
				c0-0.006-0.002-0.012-0.002-0.021c0,0.122-4.557,0.877-5.133,1.06c-2.245,0.588-3.444,1.65-4.951,3.323
				c-0.228,0.259-0.481,0.524-0.745,0.752c0-0.004-0.006-0.01-0.006-0.016c-1.104,1.234-2.76,1.77-4.338,2.084
				c-1.511,0.085-2.302-0.278-3.223,1.191c-0.264,0.42-2.092,5.571-1.175,5.534c-3.058,0.302-0.192-8.936,0.639-10.305
				c0,0.007,0,0.007,0.007,0.007c0.499-0.82,1.206-1.503,1.9-2.151c0,0.004,0,0.004,0,0.01c0.341-0.283,0.618-0.514,1.012-0.83
				c0,0.013,0.006,0.022,0.006,0.029c0.301-0.299,0.716-0.5,1.075-0.722c0,0.003,0,0.01,0,0.01c2.131-1.256,4.571-2.21,6.571-3.664
				c0,0.003,0,0.003,0,0.003c1.145-0.672,2.462-1.23,3.758-1.547c-0.325,0.006-0.211,0-0.396,0c0-1.592-14.976,4.132-16.289,4.087
				c-2.118-0.309-3.103-1.794-5.15,0.082c-0.527,0.487-3.057,3.964-2.03,4.556c-4.241-1.69,2.437-8.692,4.525-9.258
				c2.637-0.717,5.186-1.934,7.846-2.741c0,0,0,0,0,0.003c0.395-0.082,0.778-0.161,1.166-0.24c0.396-0.079,0.794-0.158,1.191-0.237
				c0.036,0.055,1.01-0.152,1.19-0.188c0,0,0,0.003,0,0.009c0.395-0.076,0.797-0.113,1.193-0.168c0,0,0,0.006,0,0.013
				c0.398-0.04,0.794-0.073,1.19-0.092c0,0.007,0,0.007,0,0.007c1.239-0.063,2.46-0.061,3.684-0.102
				c-1.583-0.486-10.475-0.897-6.43-3.853c-0.816-0.133-6.735,1.784-5.601,3.417c-1.563-2.006,2.096-5.016,3.622-5.742
				c2.276-1.077,4.16-0.013,6.291-0.214l-0.007,0.006c1.613-0.115,4.245,0.786,5.601,1.643c1.805,0.535,1.792,0.468,3.73-0.274
				v0.006c0.745-0.271,1.473-0.554,2.245-0.749c0.964-0.487,1.036-1.815,1.293-2.875c-0.385-0.186-2.18,1.012-1.953,1.656
				c-1.367-1.396,2.16-2.335,0.455-3.322c-0.694-0.405-2.191-1.729-2.04-2.667c-0.381-0.837-0.635-1.73-0.871-2.625
				c-0.003,0.003-0.003,0.006-0.01,0.006c-0.076-0.299-0.155-0.603-0.235-0.905c0,0,0,0,0,0.007
				c-1.063-3.069-1.745-6.854-2.105-10.126c-0.006,0.006-0.009,0.006-0.016,0.013c-0.509-3.411-1.569-6.804-2.958-9.946
				c0,0-0.006,0.004-0.006,0.007c-0.807-2.107-2.138-3.979-2.93-6.097c-0.944-2.031-1.602-1.678-3.892-2.126
				c-1.018-0.201-2.436-2.853-3.344-3.514c-1.932-1.42-1.491,1.063-2.487,1.817c-0.325,0.247-3.665-3.943-4.146-4.363
				c-3.324-2.904-0.468,1.714-1.531,2.454c-0.608,0.423-4.677-5.118-5.662-5.521c0.415,0.688,2.741,2.955,2.475,3.825
				c-0.214,0.604-9.783-6.303-10.51-6.979c-3.736-3.481-6.886-7.599-9.654-11.873c-3.009-4.648-6.544-9.269-7.335-14.883
				c-0.652-4.651-0.53-9.718,0.847-14.229c-0.184,0.185-0.378,0.355-0.592,0.507c-0.03-0.283-0.071-0.564-0.105-0.848
				c0.003,0.077-0.177-3.18-0.862-2.727c-0.201,0.186-0.354,0.403-0.493,0.638c0-0.006-0.006-0.009-0.012-0.013
				c-0.305,0.422-0.589,0.874-0.884,1.309c-0.016-0.154-0.016-0.344,0-0.505c0.006,0.006,0.006,0.006,0.006,0.009
				c0-0.936,0.787-1.908,0.787-2.696c-0.033,0.032-0.056,0.067-0.087,0.1c-0.055,0.068-0.12,0.137-0.177,0.207
				c0.282-1.14,1.539-2.523,0.711-3.635c-1.11-0.487-2.636,1.39-3.33,2.046c1.061-1.213,1.857-2.827,2.191-4.398
				c0-2.154-2.846,0.419-3.466,0.983c-0.024-0.146-0.048-0.313-0.031-0.458c0.007,0.007,0.013,0.014,0.013,0.021
				c0-1.854,1.153-3.988,2.427-5.288c0.006,0.003,0.006,0.01,0.006,0.016c0.436-0.515,0.813-0.892,1.479-1.128
				c0.104-0.012,0.195-0.042,0.292-0.086c-0.771-0.554-2.633-0.03-3.417,0.297c0.238-0.954,0.489-1.771,0.877-2.677
				c0,0.012,0,0.025,0.006,0.038c0.37-1.115,1.328-1.744,2.242-2.37v0.034c0.05,0,0.506-0.261,0.312-0.44
				c-0.969-0.471-2.811,0.347-3.616,0.781c0.626-1.937,1.652-2.751,3.519-3.443l-0.006,0.005c0.063-0.038,0.128-0.081,0.189-0.143
				c-0.419-0.057-0.979,0.024-1.404,0.059v-0.015c-0.445,0.021-0.993,0.154-1.405-0.013c0.059-0.125,0.146-0.279,0.239-0.373
				c-0.003,0.013-0.003,0.025-0.003,0.038c0.495-0.867,2.111-3.258,3.289-3.295c0,0.009-0.006,0.019-0.013,0.031
				c0.209-0.09,0.447-0.062,0.676-0.087c-0.007,0.009-0.007,0.011-0.007,0.017c0.203,0.019,0.241-0.074,0.128-0.271
				c-0.947,0.086-1.644,0.283-2.719,0.283c0.039-0.068,0.075-0.138,0.105-0.21c0,0.01-0.006,0.02-0.006,0.028
				c0.945-0.76,1.337-2.747,2.334-3.684c-0.021,0.037-0.049,0.087-0.07,0.13c0.791-0.763,1.826-1.124,2.831-1.51
				c-0.223-0.313-0.335-0.651-0.335-1.021c-0.006,0.003-0.006,0.009-0.006,0.013c-0.205-2.126,1.715-4.551,3.112-5.938
				c-0.03,0.021-0.067,0.036-0.097,0.059c0.673-0.684,1.405-1.334,2.162-1.911c-0.043,0.019-0.08,0.036-0.124,0.06
				c0.884-0.674,1.826-1.293,2.804-1.819c-0.016,0.007-0.034,0.014-0.047,0.016c3.299-1.71,10.254-2.488,12.763-1.831
				c1.544,0.068,3.107,0.248,4.614,0.589c-0.003,0-0.003-0.003-0.01-0.003c1.821,0.303,3.721,0.933,5.39,1.713
				c1.792,0.837,2.946,2.782,4.465,3.506c-0.003,0.003-0.003,0.006-0.009,0.006c0.146,0.011,0.262,0.063,0.356,0.152
				c0.214,0.136,0.435,0.257,0.664,0.373c0.062,0.114,0.151,0.183,0.265,0.21c0.076,0.072,0.153,0.143,0.233,0.21
				c-0.006,0.003-0.019,0.01-0.019,0.01c0.013,0.017,0.184,0.181,0.208,0.23c0,0-0.006,0.004-0.012,0.004
				c0.046,0.068,0.089,0.149,0.14,0.261c-0.006,0-0.006,0.007-0.012,0.007c2.576,0,5.006,0.871,7.36,1.858
				c-0.006-0.007-0.006-0.01-0.012-0.013c0.508,0.235,1.778,0.67,1.909,1.061c2.59,2.372,4.763,8.006,0.267,9.908
				c0.006-0.009,0.013-0.016,0.016-0.021c-0.124,0.013-0.248,0.039-0.362,0.075c0.006-0.007,0.006-0.007,0.012-0.013
				c-0.071,0.006-0.13,0-0.2-0.013c1.209-2.366,0.749-3.021-1.511-2.572h0.003c-0.038,0.021-0.45,0.097-0.667,0.135h0.111
				c-0.235,0.021-0.465,0.057-0.7,0.104h0.096c-0.945,0.176-1.892,0.337-2.84,0.474h0.054c-0.605,0.087-1.208,0.175-1.809,0.268
				h0.248c-0.317,0.012-0.624,0.049-0.931,0.104h0.109c-0.326,0.02-0.643,0.065-0.966,0.138h0.12c-1,0.123-4.742,2.527-3.999,3.756
				l-0.006-0.003c0.006,0.01,0.012,0.019,0.012,0.027c0-0.063,0.245,0.445,0.178,0.326c-0.105-0.155-0.202-0.31-0.329-0.444
				c-0.884,1.801-0.639,3.108-0.639,5.051c0.006-0.01,0.013-0.021,0.013-0.028c0.006,0.224,0.04,0.443,0.077,0.663
				c-0.231-0.272-1.123-1.388-1.54-1.15c-0.401,0.23-0.165,1.337-0.079,1.683c0-0.006,0-0.017,0.003-0.029
				c0.469,2.986,9.998,0.967,12.544,0.681c4.214-0.472,9.244-0.143,13.448,0.406c9.146,1.195,18.112,2.84,26.894,5.845
				c11.097,3.8,22,7.798,31.957,14.105c4.861,3.084,9.606,6.417,13.839,10.339c0.48,0.444,5.162,4.927,3.953,5.078
				c1.271,0.854,12.441,11.025,13.458,10.008c0,0.039,0.056,0.057,0.074,0.027c0.031,0.029,0.007,0.068,0.108,0.056
				c0.08,0.087,0.093,0.025,0.105,0.025c0.007,0.042,0.047,0.062,0.103,0.056v-0.003c1.985,0.682,8.478,2.883,9.032,5.081
				c-0.012-0.006-0.018-0.019-0.03-0.03c0.311,1.388-2.918,1.172-3.803,1.172c-0.139,0-0.267-0.003-0.399-0.006
				c0,0.003,0,0.006,0,0.006c-0.14-0.006-0.283-0.013-0.422-0.009c0,0.003,0,0.009,0,0.009c-0.133-0.013-0.273-0.019-0.406-0.016
				c0,0.007,0,0.016,0,0.016c-2.272,0.774-6.561-0.416-8.613-0.673c0.623,1.184,0.05,2.161-1.157,2.562
				c2.729,0.354,5.677,1.024,8.308,1.822c2.552,0.776,5.805,0.782,8.07,2.323c4.172,2.824-11.444,6.197-12.929,6.45
				c5.141,6.088,10.285,12.211,15.198,18.485c1.989,2.533,4.567,5.298,5.679,8.368C223.366,175.151,222.684,178.36,220.82,178.656z
				 M124.865,182.086c-0.313,1.328-0.595,2.698-1.263,3.904c2.242,0.557,4.044,1.766,5.269-0.878
				c1.085-2.362,0.754-3.505-0.304-5.792C128.174,180.676,126.258,185.662,124.865,182.086z M53.239,93.575
				c0.235-0.279,0.583-0.647,0.726-0.973C53.636,92.819,53.395,93.221,53.239,93.575z"/>
		</g>
	</g>
</g>
<g id="round_x5F_black" display="none">
	<g id="_x31_6_10_" display="inline">
		<g>
			<path fill-rule="evenodd" clip-rule="evenodd" d="M77.805,85.528c-0.494-0.31-0.825,0.261-0.972,0.696
				c0.41-0.114,0.8-0.274,1.182-0.479C77.801,85.673,77.729,85.599,77.805,85.528z M119.59,193.198
				c0.215-0.089,0.426-0.221,0.646-0.28v0.006c0.298-0.116,0.597-0.25,0.901-0.347c0,0.006,0,0.012,0,0.012
				c0.493-0.167,1.064-0.396,1.607-0.396c-0.549,0-1.114,0.039-1.666,0.061C120.016,192.254,120.004,192.175,119.59,193.198z M128,0
				C57.308,0,0,57.308,0,128s57.308,128,128,128s128-57.308,128-128S198.692,0,128,0z M220.82,178.656
				c-0.02,0.677-1.471,2.721-2.133,2.925c-0.9,0.282-1.911-0.341-2.6-0.833c-1.305,0.208-4.452-0.935-5.615-1.567
				c-5.032,0.329-11.286-7.317-14.546-10.454c-0.211,0.486-0.437,0.986-0.714,1.465c-1.484-3.125-3.962-6.094-6.807-8.091
				c-3.187-2.229-2.096,1.357-1.349,3.007c-0.669-1.074-5.345-9.059-6.88-8.401c-0.847,0.372,1.943,5.192,2.168,5.619
				c-2.021-2.606-3.936-6.233-6.521-8.295c0.347,1.973,1.656,3.541,1.752,5.645c-2.647-1.997-5.444-5.393-8.453-6.766
				c-0.152-0.066,0.714,3.341,0.804,3.692c-0.657-0.486-7.697-5.935-8.081-5.157c-0.385,0.771,1.321,3.234,1.591,3.992
				c-2.84-1.358-5.994-2.572-8.559-4.422c1.095,0.884,1.888,2.077,2.308,3.417c-1.455-0.688-2.899-1.377-4.33-2.104
				c-0.718,0.357-1.484,0.513-2.291,0.462c0.288,0.437,3.333,4.34,2.304,4.703c-0.871,0.313-1.798-0.508-2.65-0.332
				c0.227,0.802,2.164,9.602-0.663,6.94c0.226,0.911,1.32,10.82-1.876,7.734c0.195,1.48,1.004,6.853-1.827,4.052
				c0.75,3.238-0.896,5.025-4.19,3.494c-0.712,2.063-0.712,6.651-2.89,6.651c-1.429,0.019-2.142,1.179-3.813,0.42
				c-0.382,0.667-0.791,1.599-1.086,2.309v-0.024c-1.11,2.857,5.467,3.542,7.228,4.373c1.297,0.606,4.787,2.653,5.445,3.917
				c0.785,1.504,0.537,5.438-1.497,6.014c0.985-1.422,0.583-4.466-1.066-5.262c-1.475-0.707-2.078,0.398-3.449,0.721
				c-2.016,0.32-2.911-2.761-4.964-3.313c-4.279-0.925-9.377,0.471-13.557,1.354v0.007c-1.145,0.246-2.239,0.656-3.11,1.459
				c0.559,0.322,1.234,0.369,1.808,0.644c0-0.007,0-0.007,0-0.007c0.914,0.323,1.833,0.627,2.729,0.986c0-0.006,0-0.006,0-0.006
				c2.102,0.828,4.264,1.611,6.14,2.918c0.803,0.557,1.774,1.333,2.077,2.309c0.81,0.073,1.629,0.49,2.205,1.059
				c1.845,1.815,2.282,9.153-0.992,10.082c1.774-1.018,0.413-6.229-0.666-7.268c-1.046-1.004-5.049-0.006-4.751,0.578
				c0,0.003,0.013,0.013,0.013,0.016c-2.021,0.773-2.798-1.665-3.728-2.896c-1.101-1.462-2.747-1.991-4.512-2.104
				c-1.786-0.11-3.771-0.418-5.535,0.019c-0.385,0.127-0.775,0.228-1.166,0.335c0.004,0.003,0.004,0.009,0.004,0.009
				c-0.748,0.197-1.495,0.408-2.258,0.548c0.034,0.092,0.074,0.17,0.136,0.22c-0.452-0.232-0.924-0.214-1.404,0.055
				c0-0.006-0.002-0.012-0.002-0.021c0,0.122-4.557,0.877-5.133,1.06c-2.245,0.588-3.444,1.65-4.951,3.323
				c-0.228,0.259-0.481,0.524-0.745,0.752c0-0.004-0.006-0.01-0.006-0.016c-1.104,1.234-2.76,1.77-4.338,2.084
				c-1.511,0.085-2.302-0.278-3.223,1.191c-0.264,0.42-2.092,5.571-1.175,5.534c-3.058,0.302-0.192-8.936,0.639-10.305
				c0,0.007,0,0.007,0.007,0.007c0.499-0.82,1.206-1.503,1.9-2.151c0,0.004,0,0.004,0,0.01c0.341-0.283,0.618-0.514,1.012-0.83
				c0,0.013,0.006,0.022,0.006,0.029c0.301-0.299,0.716-0.5,1.075-0.722c0,0.003,0,0.01,0,0.01c2.131-1.256,4.571-2.21,6.571-3.664
				c0,0.003,0,0.003,0,0.003c1.145-0.672,2.462-1.23,3.758-1.547c-0.325,0.006-0.211,0-0.396,0c0-1.592-14.976,4.132-16.289,4.087
				c-2.118-0.309-3.103-1.794-5.15,0.082c-0.527,0.487-3.057,3.964-2.03,4.556c-4.241-1.69,2.437-8.692,4.525-9.258
				c2.637-0.717,5.186-1.934,7.846-2.741c0,0,0,0,0,0.003c0.395-0.082,0.778-0.161,1.166-0.24c0.396-0.079,0.794-0.158,1.191-0.237
				c0.036,0.055,1.01-0.152,1.19-0.188c0,0,0,0.003,0,0.009c0.395-0.076,0.797-0.113,1.193-0.168c0,0,0,0.006,0,0.013
				c0.398-0.04,0.794-0.073,1.19-0.092c0,0.007,0,0.007,0,0.007c1.239-0.063,2.46-0.061,3.684-0.102
				c-1.583-0.486-10.475-0.897-6.43-3.853c-0.816-0.133-6.735,1.784-5.601,3.417c-1.563-2.006,2.096-5.016,3.622-5.742
				c2.276-1.077,4.16-0.013,6.291-0.214l-0.007,0.006c1.613-0.115,4.245,0.786,5.601,1.643c1.805,0.535,1.792,0.468,3.73-0.274
				v0.006c0.745-0.271,1.473-0.554,2.245-0.749c0.964-0.487,1.036-1.815,1.293-2.875c-0.385-0.186-2.18,1.012-1.953,1.656
				c-1.367-1.396,2.16-2.335,0.455-3.322c-0.694-0.405-2.191-1.729-2.04-2.667c-0.381-0.837-0.635-1.73-0.871-2.625
				c-0.003,0.003-0.003,0.006-0.01,0.006c-0.076-0.299-0.155-0.603-0.235-0.905c0,0,0,0,0,0.007
				c-1.063-3.069-1.745-6.854-2.105-10.126c-0.006,0.006-0.009,0.006-0.016,0.013c-0.509-3.411-1.569-6.804-2.958-9.946
				c0,0-0.006,0.004-0.006,0.007c-0.807-2.107-2.138-3.979-2.93-6.097c-0.944-2.031-1.602-1.678-3.892-2.126
				c-1.018-0.201-2.436-2.853-3.344-3.514c-1.932-1.42-1.491,1.063-2.487,1.817c-0.325,0.247-3.665-3.943-4.146-4.363
				c-3.324-2.904-0.468,1.714-1.531,2.454c-0.608,0.423-4.677-5.118-5.662-5.521c0.415,0.688,2.741,2.955,2.475,3.825
				c-0.214,0.604-9.783-6.303-10.51-6.979c-3.736-3.481-6.886-7.599-9.654-11.873c-3.009-4.648-6.544-9.269-7.335-14.883
				c-0.652-4.651-0.53-9.718,0.847-14.229c-0.184,0.185-0.378,0.355-0.592,0.507c-0.03-0.283-0.071-0.564-0.105-0.848
				c0.003,0.077-0.177-3.18-0.862-2.727c-0.201,0.186-0.354,0.403-0.493,0.638c0-0.006-0.006-0.009-0.012-0.013
				c-0.305,0.422-0.589,0.874-0.884,1.309c-0.016-0.154-0.016-0.344,0-0.505c0.006,0.006,0.006,0.006,0.006,0.009
				c0-0.936,0.787-1.908,0.787-2.696c-0.033,0.032-0.056,0.067-0.087,0.1c-0.055,0.068-0.12,0.137-0.177,0.207
				c0.282-1.14,1.539-2.523,0.711-3.635c-1.11-0.487-2.636,1.39-3.33,2.046c1.061-1.213,1.857-2.827,2.191-4.398
				c0-2.154-2.846,0.419-3.466,0.983c-0.024-0.146-0.048-0.313-0.031-0.458c0.007,0.007,0.013,0.014,0.013,0.021
				c0-1.854,1.153-3.988,2.427-5.288c0.006,0.003,0.006,0.01,0.006,0.016c0.436-0.515,0.813-0.892,1.479-1.128
				c0.104-0.012,0.195-0.042,0.292-0.086c-0.771-0.554-2.633-0.03-3.417,0.297c0.238-0.954,0.489-1.771,0.877-2.677
				c0,0.012,0,0.025,0.006,0.038c0.37-1.115,1.328-1.744,2.242-2.37v0.034c0.05,0,0.506-0.261,0.312-0.44
				c-0.969-0.471-2.811,0.347-3.616,0.781c0.626-1.937,1.652-2.751,3.519-3.443l-0.006,0.005c0.063-0.038,0.128-0.081,0.189-0.143
				c-0.419-0.057-0.979,0.024-1.404,0.059v-0.015c-0.445,0.021-0.993,0.154-1.405-0.013c0.059-0.125,0.146-0.279,0.239-0.373
				c-0.003,0.013-0.003,0.025-0.003,0.038c0.495-0.867,2.111-3.258,3.289-3.295c0,0.009-0.006,0.019-0.013,0.031
				c0.209-0.09,0.447-0.062,0.676-0.087c-0.007,0.009-0.007,0.011-0.007,0.017c0.203,0.019,0.241-0.074,0.128-0.271
				c-0.947,0.086-1.644,0.283-2.719,0.283c0.039-0.068,0.075-0.138,0.105-0.21c0,0.01-0.006,0.02-0.006,0.028
				c0.945-0.76,1.337-2.747,2.334-3.684c-0.021,0.037-0.049,0.087-0.07,0.13c0.791-0.763,1.826-1.124,2.831-1.51
				c-0.223-0.313-0.335-0.651-0.335-1.021c-0.006,0.003-0.006,0.009-0.006,0.013c-0.205-2.126,1.715-4.551,3.112-5.938
				c-0.03,0.021-0.067,0.036-0.097,0.059c0.673-0.684,1.405-1.334,2.162-1.911c-0.043,0.019-0.08,0.036-0.124,0.06
				c0.884-0.674,1.826-1.293,2.804-1.819c-0.016,0.007-0.034,0.014-0.047,0.016c3.299-1.71,10.254-2.488,12.763-1.831
				c1.544,0.068,3.107,0.248,4.614,0.589c-0.003,0-0.003-0.003-0.01-0.003c1.821,0.303,3.721,0.933,5.39,1.713
				c1.792,0.837,2.946,2.782,4.465,3.506c-0.003,0.003-0.003,0.006-0.009,0.006c0.146,0.011,0.262,0.063,0.356,0.152
				c0.214,0.136,0.435,0.257,0.664,0.373c0.062,0.114,0.151,0.183,0.265,0.21c0.076,0.072,0.153,0.143,0.233,0.21
				c-0.006,0.003-0.019,0.01-0.019,0.01c0.013,0.017,0.184,0.181,0.208,0.23c0,0-0.006,0.004-0.012,0.004
				c0.046,0.068,0.089,0.149,0.14,0.261c-0.006,0-0.006,0.007-0.012,0.007c2.576,0,5.006,0.871,7.36,1.858
				c-0.006-0.007-0.006-0.01-0.012-0.013c0.508,0.235,1.778,0.67,1.909,1.061c2.59,2.372,4.763,8.006,0.267,9.908
				c0.006-0.009,0.013-0.016,0.016-0.021c-0.124,0.013-0.248,0.039-0.362,0.075c0.006-0.007,0.006-0.007,0.012-0.013
				c-0.071,0.006-0.13,0-0.2-0.013c1.209-2.366,0.749-3.021-1.511-2.572h0.003c-0.038,0.021-0.45,0.097-0.667,0.135h0.111
				c-0.235,0.021-0.465,0.057-0.7,0.104h0.096c-0.945,0.176-1.892,0.337-2.84,0.474h0.054c-0.605,0.087-1.208,0.175-1.809,0.268
				h0.248c-0.317,0.012-0.624,0.049-0.931,0.104h0.109c-0.326,0.02-0.643,0.065-0.966,0.138h0.12c-1,0.123-4.742,2.527-3.999,3.756
				l-0.006-0.003c0.006,0.01,0.012,0.019,0.012,0.027c0-0.063,0.245,0.445,0.178,0.326c-0.105-0.155-0.202-0.31-0.329-0.444
				c-0.884,1.801-0.639,3.108-0.639,5.051c0.006-0.01,0.013-0.021,0.013-0.028c0.006,0.224,0.04,0.443,0.077,0.663
				c-0.231-0.272-1.123-1.388-1.54-1.15c-0.401,0.23-0.165,1.337-0.079,1.683c0-0.006,0-0.017,0.003-0.029
				c0.469,2.986,9.998,0.967,12.544,0.681c4.214-0.472,9.244-0.143,13.448,0.406c9.146,1.195,18.112,2.84,26.894,5.845
				c11.097,3.8,22,7.798,31.957,14.105c4.861,3.084,9.606,6.417,13.839,10.339c0.48,0.444,5.162,4.927,3.953,5.078
				c1.271,0.854,12.441,11.025,13.458,10.008c0,0.039,0.056,0.057,0.074,0.027c0.031,0.029,0.007,0.068,0.108,0.056
				c0.08,0.087,0.093,0.025,0.105,0.025c0.007,0.042,0.047,0.062,0.103,0.056v-0.003c1.985,0.682,8.478,2.883,9.032,5.081
				c-0.012-0.006-0.018-0.019-0.03-0.03c0.311,1.388-2.918,1.172-3.803,1.172c-0.139,0-0.267-0.003-0.399-0.006
				c0,0.003,0,0.006,0,0.006c-0.14-0.006-0.283-0.013-0.422-0.009c0,0.003,0,0.009,0,0.009c-0.133-0.013-0.273-0.019-0.406-0.016
				c0,0.007,0,0.016,0,0.016c-2.272,0.774-6.561-0.416-8.613-0.673c0.623,1.184,0.05,2.161-1.157,2.562
				c2.729,0.354,5.677,1.024,8.308,1.822c2.552,0.776,5.805,0.782,8.07,2.323c4.172,2.824-11.444,6.197-12.929,6.45
				c5.141,6.088,10.285,12.211,15.198,18.485c1.989,2.533,4.567,5.298,5.679,8.368C223.366,175.151,222.684,178.36,220.82,178.656z
				 M124.865,182.086c-0.313,1.328-0.595,2.698-1.263,3.904c2.242,0.557,4.044,1.766,5.269-0.878
				c1.085-2.362,0.754-3.505-0.304-5.792C128.174,180.676,126.258,185.662,124.865,182.086z M53.239,93.575
				c0.235-0.279,0.583-0.647,0.726-0.973C53.636,92.819,53.395,93.221,53.239,93.575z"/>
		</g>
	</g>
</g>
<g id="base_x5F_white" display="none">
	<g id="_x31_6_2_" display="inline">
		<g>
			<path fill-rule="evenodd" clip-rule="evenodd" fill="#FFFFFF" d="M222.827,173.64c-1.111-3.07-3.689-5.835-5.679-8.368
				c-4.913-6.274-10.058-12.397-15.198-18.485c1.484-0.253,17.101-3.626,12.929-6.45c-2.266-1.541-5.519-1.547-8.07-2.323
				c-2.631-0.798-5.578-1.469-8.308-1.822c1.207-0.4,1.78-1.378,1.157-2.562c2.053,0.257,6.341,1.447,8.613,0.673
				c0,0,0-0.009,0-0.016c0.133-0.003,0.273,0.003,0.406,0.016c0,0,0-0.006,0-0.009c0.139-0.004,0.282,0.003,0.422,0.009
				c0,0,0-0.003,0-0.006c0.133,0.003,0.261,0.006,0.399,0.006c0.885,0,4.113,0.216,3.803-1.172c0.013,0.012,0.019,0.024,0.03,0.03
				c-0.555-2.198-7.047-4.399-9.032-5.081v0.003c-0.056,0.006-0.096-0.014-0.103-0.056c-0.013,0-0.025,0.062-0.105-0.025
				c-0.102,0.013-0.077-0.026-0.108-0.056c-0.019,0.029-0.074,0.012-0.074-0.027c-1.017,1.018-12.187-9.154-13.458-10.008
				c1.209-0.151-3.473-4.634-3.953-5.078c-4.232-3.922-8.978-7.255-13.839-10.339c-9.957-6.308-20.86-10.306-31.957-14.105
				c-8.781-3.005-17.747-4.649-26.894-5.845c-4.204-0.549-9.234-0.878-13.448-0.406c-2.546,0.286-12.075,2.306-12.544-0.681
				c-0.003,0.013-0.003,0.023-0.003,0.029c-0.086-0.346-0.322-1.452,0.079-1.683c0.417-0.237,1.309,0.878,1.54,1.15
				c-0.037-0.22-0.071-0.439-0.077-0.663c0,0.007-0.007,0.019-0.013,0.028c0-1.942-0.245-3.25,0.639-5.051
				c0.127,0.135,0.224,0.289,0.329,0.444c0.067,0.119-0.178-0.39-0.178-0.326c0-0.009-0.006-0.018-0.012-0.027l0.006,0.003
				c-0.743-1.229,2.999-3.633,3.999-3.756h-0.12c0.323-0.072,0.64-0.118,0.966-0.138h-0.109c0.307-0.056,0.613-0.093,0.931-0.104
				h-0.248c0.601-0.093,1.203-0.181,1.809-0.268H97.3c0.948-0.137,1.895-0.298,2.84-0.474h-0.096c0.235-0.048,0.465-0.084,0.7-0.104
				h-0.111c0.217-0.038,0.629-0.115,0.667-0.135h-0.003c2.26-0.448,2.72,0.206,1.511,2.572c0.07,0.013,0.129,0.019,0.2,0.013
				c-0.006,0.006-0.006,0.006-0.012,0.013c0.114-0.036,0.238-0.063,0.362-0.075c-0.003,0.006-0.01,0.013-0.016,0.021
				c4.496-1.902,2.323-7.536-0.267-9.908c-0.131-0.391-1.401-0.825-1.909-1.061c0.006,0.003,0.006,0.006,0.012,0.013
				c-2.354-0.987-4.784-1.858-7.36-1.858c0.006,0,0.006-0.007,0.012-0.007c-0.051-0.111-0.094-0.192-0.14-0.261
				c0.006,0,0.012-0.004,0.012-0.004c-0.024-0.05-0.195-0.214-0.208-0.23c0,0,0.013-0.007,0.019-0.01
				c-0.08-0.067-0.157-0.138-0.233-0.21c-0.113-0.027-0.203-0.096-0.265-0.21c-0.229-0.116-0.45-0.237-0.664-0.373
				c-0.095-0.09-0.21-0.142-0.356-0.152c0.006,0,0.006-0.003,0.009-0.006c-1.519-0.724-2.673-2.669-4.465-3.506
				c-1.669-0.78-3.568-1.41-5.39-1.713c0.007,0,0.007,0.003,0.01,0.003c-1.507-0.341-3.07-0.521-4.614-0.589
				c-2.509-0.657-9.464,0.121-12.763,1.831c0.013-0.002,0.031-0.009,0.047-0.016c-0.978,0.526-1.92,1.146-2.804,1.819
				c0.044-0.023,0.081-0.041,0.124-0.06c-0.757,0.577-1.489,1.228-2.162,1.911c0.029-0.022,0.066-0.037,0.097-0.059
				c-1.397,1.388-3.317,3.813-3.112,5.938c0-0.004,0-0.01,0.006-0.013c0,0.369,0.112,0.708,0.335,1.021
				c-1.005,0.386-2.04,0.747-2.831,1.51c0.021-0.043,0.05-0.093,0.07-0.13c-0.997,0.937-1.389,2.924-2.334,3.684
				c0-0.009,0.006-0.019,0.006-0.028c-0.03,0.072-0.066,0.142-0.105,0.21c1.075,0,1.771-0.197,2.719-0.283
				c0.113,0.196,0.075,0.289-0.128,0.271c0-0.006,0-0.008,0.007-0.017c-0.229,0.025-0.467-0.003-0.676,0.087
				c0.007-0.013,0.013-0.022,0.013-0.031c-1.178,0.037-2.794,2.428-3.289,3.295c0-0.013,0-0.025,0.003-0.038
				c-0.094,0.094-0.181,0.248-0.239,0.373c0.412,0.167,0.96,0.033,1.405,0.013v0.015c0.425-0.034,0.985-0.115,1.404-0.059
				c-0.062,0.062-0.127,0.104-0.189,0.143l0.006-0.005c-1.866,0.692-2.893,1.507-3.519,3.443c0.806-0.435,2.647-1.252,3.616-0.781
				c0.194,0.18-0.262,0.44-0.312,0.44v-0.034c-0.914,0.626-1.872,1.255-2.242,2.37c-0.006-0.013-0.006-0.026-0.006-0.038
				c-0.388,0.905-0.639,1.723-0.877,2.677c0.784-0.327,2.646-0.851,3.417-0.297c-0.097,0.044-0.188,0.074-0.292,0.086
				c-0.666,0.236-1.044,0.613-1.479,1.128c0-0.006,0-0.013-0.006-0.016c-1.273,1.3-2.427,3.434-2.427,5.288
				c0-0.007-0.006-0.014-0.013-0.021c-0.017,0.145,0.007,0.313,0.031,0.458c0.62-0.564,3.466-3.138,3.466-0.983
				c-0.334,1.571-1.131,3.186-2.191,4.398c0.694-0.656,2.22-2.533,3.33-2.046c0.828,1.111-0.429,2.495-0.711,3.635
				c0.057-0.07,0.122-0.139,0.177-0.207c0.031-0.032,0.054-0.067,0.087-0.1c0,0.788-0.787,1.761-0.787,2.696
				c0-0.003,0-0.003-0.006-0.009c-0.016,0.161-0.016,0.351,0,0.505c0.295-0.435,0.579-0.887,0.884-1.309
				c0.006,0.004,0.012,0.007,0.012,0.013c0.14-0.234,0.292-0.452,0.493-0.638c0.686-0.453,0.865,2.804,0.862,2.727
				c0.034,0.283,0.075,0.564,0.105,0.848c0.214-0.151,0.408-0.322,0.592-0.507c-1.377,4.512-1.499,9.578-0.847,14.229
				c0.791,5.614,4.326,10.234,7.335,14.883c2.769,4.274,5.918,8.392,9.654,11.873c0.727,0.676,10.296,7.582,10.51,6.979
				c0.267-0.87-2.06-3.137-2.475-3.825c0.985,0.403,5.054,5.944,5.662,5.521c1.063-0.74-1.793-5.358,1.531-2.454
				c0.48,0.42,3.82,4.61,4.146,4.363c0.996-0.755,0.556-3.237,2.487-1.817c0.908,0.661,2.326,3.313,3.344,3.514
				c2.29,0.448,2.947,0.095,3.892,2.126c0.792,2.117,2.123,3.989,2.93,6.097c0-0.003,0.006-0.007,0.006-0.007
				c1.389,3.143,2.449,6.535,2.958,9.946c0.007-0.007,0.01-0.007,0.016-0.013c0.36,3.271,1.043,7.057,2.105,10.126
				c0-0.007,0-0.007,0-0.007c0.08,0.303,0.159,0.606,0.235,0.905c0.007,0,0.007-0.003,0.01-0.006
				c0.236,0.895,0.49,1.788,0.871,2.625c-0.151,0.938,1.346,2.262,2.04,2.667c1.705,0.987-1.822,1.926-0.455,3.322
				c-0.227-0.645,1.568-1.842,1.953-1.656c-0.257,1.06-0.329,2.388-1.293,2.875c-0.772,0.195-1.5,0.478-2.245,0.749v-0.006
				c-1.938,0.742-1.926,0.81-3.73,0.274c-1.355-0.856-3.987-1.758-5.601-1.643l0.007-0.006c-2.131,0.201-4.015-0.863-6.291,0.214
				c-1.526,0.727-5.186,3.736-3.622,5.742c-1.135-1.633,4.784-3.55,5.601-3.417c-4.045,2.955,4.847,3.366,6.43,3.853
				c-1.224,0.041-2.444,0.038-3.684,0.102c0,0,0,0,0-0.007c-0.396,0.019-0.792,0.052-1.19,0.092c0-0.007,0-0.013,0-0.013
				c-0.396,0.055-0.799,0.092-1.193,0.168c0-0.006,0-0.009,0-0.009c-0.181,0.036-1.154,0.243-1.19,0.188
				c-0.397,0.079-0.796,0.158-1.191,0.237c-0.388,0.079-0.771,0.158-1.166,0.24c0-0.003,0-0.003,0-0.003
				c-2.66,0.808-5.209,2.024-7.846,2.741c-2.089,0.565-8.767,7.567-4.525,9.258c-1.026-0.592,1.503-4.068,2.03-4.556
				c2.048-1.876,3.032-0.391,5.15-0.082c1.313,0.045,16.289-5.679,16.289-4.087c0.186,0,0.071,0.006,0.396,0
				c-1.296,0.316-2.613,0.875-3.758,1.547c0,0,0,0,0-0.003c-2,1.454-4.44,2.408-6.571,3.664c0,0,0-0.007,0-0.01
				c-0.359,0.222-0.774,0.423-1.075,0.722c0-0.007-0.006-0.017-0.006-0.029c-0.394,0.316-0.671,0.547-1.012,0.83
				c0-0.006,0-0.006,0-0.01c-0.694,0.648-1.401,1.331-1.9,2.151c-0.007,0-0.007,0-0.007-0.007
				c-0.831,1.369-3.696,10.606-0.639,10.305c-0.917,0.037,0.911-5.114,1.175-5.534c0.921-1.47,1.712-1.106,3.223-1.191
				c1.578-0.314,3.233-0.85,4.338-2.084c0,0.006,0.006,0.012,0.006,0.016c0.264-0.228,0.518-0.493,0.745-0.752
				c1.507-1.673,2.706-2.735,4.951-3.323c0.576-0.183,5.133-0.938,5.133-1.06c0,0.01,0.002,0.016,0.002,0.021
				c0.48-0.269,0.952-0.287,1.404-0.055c-0.062-0.05-0.102-0.128-0.136-0.22c0.763-0.14,1.51-0.351,2.258-0.548
				c0,0,0-0.006-0.004-0.009c0.391-0.107,0.781-0.208,1.166-0.335c1.764-0.437,3.749-0.129,5.535-0.019
				c1.765,0.112,3.411,0.642,4.512,2.104c0.93,1.231,1.706,3.67,3.728,2.896c0-0.003-0.013-0.013-0.013-0.016
				c-0.298-0.584,3.705-1.582,4.751-0.578c1.079,1.038,2.44,6.25,0.666,7.268c3.274-0.929,2.837-8.267,0.992-10.082
				c-0.576-0.568-1.396-0.985-2.205-1.059c-0.303-0.976-1.274-1.752-2.077-2.309c-1.876-1.307-4.038-2.09-6.14-2.918
				c0,0,0,0,0,0.006c-0.896-0.359-1.814-0.663-2.729-0.986c0,0,0,0,0,0.007c-0.573-0.274-1.249-0.321-1.808-0.644
				c0.871-0.803,1.966-1.213,3.11-1.459v-0.007c4.18-0.884,9.277-2.279,13.557-1.354c2.053,0.553,2.948,3.634,4.964,3.313
				c1.371-0.322,1.975-1.428,3.449-0.721c1.649,0.796,2.052,3.84,1.066,5.262c2.034-0.575,2.282-4.51,1.497-6.014
				c-0.658-1.264-4.148-3.311-5.445-3.917c-1.761-0.831-8.338-1.516-7.228-4.373v0.024c0.295-0.71,0.704-1.642,1.086-2.309
				c1.671,0.759,2.384-0.401,3.813-0.42c2.178,0,2.178-4.589,2.89-6.651c3.294,1.531,4.94-0.256,4.19-3.494
				c2.831,2.801,2.022-2.571,1.827-4.052c3.196,3.086,2.102-6.823,1.876-7.734c2.827,2.661,0.89-6.139,0.663-6.94
				c0.853-0.176,1.779,0.646,2.65,0.332c1.029-0.363-2.016-4.267-2.304-4.703c0.807,0.051,1.573-0.104,2.291-0.462
				c1.431,0.728,2.875,1.416,4.33,2.104c-0.42-1.34-1.213-2.533-2.308-3.417c2.564,1.85,5.719,3.063,8.559,4.422
				c-0.27-0.758-1.976-3.222-1.591-3.992c0.384-0.777,7.424,4.671,8.081,5.157c-0.09-0.352-0.956-3.759-0.804-3.692
				c3.009,1.373,5.806,4.769,8.453,6.766c-0.096-2.104-1.405-3.672-1.752-5.645c2.586,2.062,4.5,5.688,6.521,8.295
				c-0.225-0.427-3.015-5.247-2.168-5.619c1.535-0.657,6.211,7.327,6.88,8.401c-0.747-1.649-1.838-5.236,1.349-3.007
				c2.845,1.997,5.322,4.966,6.807,8.091c0.277-0.479,0.503-0.979,0.714-1.465c3.26,3.137,9.514,10.783,14.546,10.454
				c1.163,0.633,4.311,1.775,5.615,1.567c0.688,0.492,1.699,1.115,2.6,0.833c0.662-0.204,2.113-2.248,2.133-2.925
				C222.688,178.365,223.37,175.156,222.827,173.64z"/>
		</g>
	</g>
</g>
<g id="base_x5F_blue" display="none">
	<g id="_x31_6_4_" display="inline">
		<g>
			<path fill-rule="evenodd" clip-rule="evenodd" fill="#00A3F5" d="M222.827,173.64c-1.111-3.07-3.689-5.835-5.679-8.368
				c-4.913-6.274-10.058-12.397-15.198-18.485c1.484-0.253,17.101-3.626,12.929-6.45c-2.266-1.541-5.519-1.547-8.07-2.323
				c-2.631-0.798-5.578-1.469-8.308-1.822c1.207-0.4,1.78-1.378,1.157-2.562c2.053,0.257,6.341,1.447,8.613,0.673
				c0,0,0-0.009,0-0.016c0.133-0.003,0.273,0.003,0.406,0.016c0,0,0-0.006,0-0.009c0.139-0.004,0.282,0.003,0.422,0.009
				c0,0,0-0.003,0-0.006c0.133,0.003,0.261,0.006,0.399,0.006c0.885,0,4.113,0.216,3.803-1.172c0.013,0.012,0.019,0.024,0.03,0.03
				c-0.555-2.198-7.047-4.399-9.032-5.081v0.003c-0.056,0.006-0.096-0.014-0.103-0.056c-0.013,0-0.025,0.062-0.105-0.025
				c-0.102,0.013-0.077-0.026-0.108-0.056c-0.019,0.029-0.074,0.012-0.074-0.027c-1.017,1.018-12.187-9.154-13.458-10.008
				c1.209-0.151-3.473-4.634-3.953-5.078c-4.232-3.922-8.978-7.255-13.839-10.339c-9.957-6.308-20.86-10.306-31.957-14.105
				c-8.781-3.005-17.747-4.649-26.894-5.845c-4.204-0.549-9.234-0.878-13.448-0.406c-2.546,0.286-12.075,2.306-12.544-0.681
				c-0.003,0.013-0.003,0.023-0.003,0.029c-0.086-0.346-0.322-1.452,0.079-1.683c0.417-0.237,1.309,0.878,1.54,1.15
				c-0.037-0.22-0.071-0.439-0.077-0.663c0,0.007-0.007,0.019-0.013,0.028c0-1.942-0.245-3.25,0.639-5.051
				c0.127,0.135,0.224,0.289,0.329,0.444c0.067,0.119-0.178-0.39-0.178-0.326c0-0.009-0.006-0.018-0.012-0.027l0.006,0.003
				c-0.743-1.229,2.999-3.633,3.999-3.756h-0.12c0.323-0.072,0.64-0.118,0.966-0.138h-0.109c0.307-0.056,0.613-0.093,0.931-0.104
				h-0.248c0.601-0.093,1.203-0.181,1.809-0.268H97.3c0.948-0.137,1.895-0.298,2.84-0.474h-0.096c0.235-0.048,0.465-0.084,0.7-0.104
				h-0.111c0.217-0.038,0.629-0.115,0.667-0.135h-0.003c2.26-0.448,2.72,0.206,1.511,2.572c0.07,0.013,0.129,0.019,0.2,0.013
				c-0.006,0.006-0.006,0.006-0.012,0.013c0.114-0.036,0.238-0.063,0.362-0.075c-0.003,0.006-0.01,0.013-0.016,0.021
				c4.496-1.902,2.323-7.536-0.267-9.908c-0.131-0.391-1.401-0.825-1.909-1.061c0.006,0.003,0.006,0.006,0.012,0.013
				c-2.354-0.987-4.784-1.858-7.36-1.858c0.006,0,0.006-0.007,0.012-0.007c-0.051-0.111-0.094-0.192-0.14-0.261
				c0.006,0,0.012-0.004,0.012-0.004c-0.024-0.05-0.195-0.214-0.208-0.23c0,0,0.013-0.007,0.019-0.01
				c-0.08-0.067-0.157-0.138-0.233-0.21c-0.113-0.027-0.203-0.096-0.265-0.21c-0.229-0.116-0.45-0.237-0.664-0.373
				c-0.095-0.09-0.21-0.142-0.356-0.152c0.006,0,0.006-0.003,0.009-0.006c-1.519-0.724-2.673-2.669-4.465-3.506
				c-1.669-0.78-3.568-1.41-5.39-1.713c0.007,0,0.007,0.003,0.01,0.003c-1.507-0.341-3.07-0.521-4.614-0.589
				c-2.509-0.657-9.464,0.121-12.763,1.831c0.013-0.002,0.031-0.009,0.047-0.016c-0.978,0.526-1.92,1.146-2.804,1.819
				c0.044-0.023,0.081-0.041,0.124-0.06c-0.757,0.577-1.489,1.228-2.162,1.911c0.029-0.022,0.066-0.037,0.097-0.059
				c-1.397,1.388-3.317,3.813-3.112,5.938c0-0.004,0-0.01,0.006-0.013c0,0.369,0.112,0.708,0.335,1.021
				c-1.005,0.386-2.04,0.747-2.831,1.51c0.021-0.043,0.05-0.093,0.07-0.13c-0.997,0.937-1.389,2.924-2.334,3.684
				c0-0.009,0.006-0.019,0.006-0.028c-0.03,0.072-0.066,0.142-0.105,0.21c1.075,0,1.771-0.197,2.719-0.283
				c0.113,0.196,0.075,0.289-0.128,0.271c0-0.006,0-0.008,0.007-0.017c-0.229,0.025-0.467-0.003-0.676,0.087
				c0.007-0.013,0.013-0.022,0.013-0.031c-1.178,0.037-2.794,2.428-3.289,3.295c0-0.013,0-0.025,0.003-0.038
				c-0.094,0.094-0.181,0.248-0.239,0.373c0.412,0.167,0.96,0.033,1.405,0.013v0.015c0.425-0.034,0.985-0.115,1.404-0.059
				c-0.062,0.062-0.127,0.104-0.189,0.143l0.006-0.005c-1.866,0.692-2.893,1.507-3.519,3.443c0.806-0.435,2.647-1.252,3.616-0.781
				c0.194,0.18-0.262,0.44-0.312,0.44v-0.034c-0.914,0.626-1.872,1.255-2.242,2.37c-0.006-0.013-0.006-0.026-0.006-0.038
				c-0.388,0.905-0.639,1.723-0.877,2.677c0.784-0.327,2.646-0.851,3.417-0.297c-0.097,0.044-0.188,0.074-0.292,0.086
				c-0.666,0.236-1.044,0.613-1.479,1.128c0-0.006,0-0.013-0.006-0.016c-1.273,1.3-2.427,3.434-2.427,5.288
				c0-0.007-0.006-0.014-0.013-0.021c-0.017,0.145,0.007,0.313,0.031,0.458c0.62-0.564,3.466-3.138,3.466-0.983
				c-0.334,1.571-1.131,3.186-2.191,4.398c0.694-0.656,2.22-2.533,3.33-2.046c0.828,1.111-0.429,2.495-0.711,3.635
				c0.057-0.07,0.122-0.139,0.177-0.207c0.031-0.032,0.054-0.067,0.087-0.1c0,0.788-0.787,1.761-0.787,2.696
				c0-0.003,0-0.003-0.006-0.009c-0.016,0.161-0.016,0.351,0,0.505c0.295-0.435,0.579-0.887,0.884-1.309
				c0.006,0.004,0.012,0.007,0.012,0.013c0.14-0.234,0.292-0.452,0.493-0.638c0.686-0.453,0.865,2.804,0.862,2.727
				c0.034,0.283,0.075,0.564,0.105,0.848c0.214-0.151,0.408-0.322,0.592-0.507c-1.377,4.512-1.499,9.578-0.847,14.229
				c0.791,5.614,4.326,10.234,7.335,14.883c2.769,4.274,5.918,8.392,9.654,11.873c0.727,0.676,10.296,7.582,10.51,6.979
				c0.267-0.87-2.06-3.137-2.475-3.825c0.985,0.403,5.054,5.944,5.662,5.521c1.063-0.74-1.793-5.358,1.531-2.454
				c0.48,0.42,3.82,4.61,4.146,4.363c0.996-0.755,0.556-3.237,2.487-1.817c0.908,0.661,2.326,3.313,3.344,3.514
				c2.29,0.448,2.947,0.095,3.892,2.126c0.792,2.117,2.123,3.989,2.93,6.097c0-0.003,0.006-0.007,0.006-0.007
				c1.389,3.143,2.449,6.535,2.958,9.946c0.007-0.007,0.01-0.007,0.016-0.013c0.36,3.271,1.043,7.057,2.105,10.126
				c0-0.007,0-0.007,0-0.007c0.08,0.303,0.159,0.606,0.235,0.905c0.007,0,0.007-0.003,0.01-0.006
				c0.236,0.895,0.49,1.788,0.871,2.625c-0.151,0.938,1.346,2.262,2.04,2.667c1.705,0.987-1.822,1.926-0.455,3.322
				c-0.227-0.645,1.568-1.842,1.953-1.656c-0.257,1.06-0.329,2.388-1.293,2.875c-0.772,0.195-1.5,0.478-2.245,0.749v-0.006
				c-1.938,0.742-1.926,0.81-3.73,0.274c-1.355-0.856-3.987-1.758-5.601-1.643l0.007-0.006c-2.131,0.201-4.015-0.863-6.291,0.214
				c-1.526,0.727-5.186,3.736-3.622,5.742c-1.135-1.633,4.784-3.55,5.601-3.417c-4.045,2.955,4.847,3.366,6.43,3.853
				c-1.224,0.041-2.444,0.038-3.684,0.102c0,0,0,0,0-0.007c-0.396,0.019-0.792,0.052-1.19,0.092c0-0.007,0-0.013,0-0.013
				c-0.396,0.055-0.799,0.092-1.193,0.168c0-0.006,0-0.009,0-0.009c-0.181,0.036-1.154,0.243-1.19,0.188
				c-0.397,0.079-0.796,0.158-1.191,0.237c-0.388,0.079-0.771,0.158-1.166,0.24c0-0.003,0-0.003,0-0.003
				c-2.66,0.808-5.209,2.024-7.846,2.741c-2.089,0.565-8.767,7.567-4.525,9.258c-1.026-0.592,1.503-4.068,2.03-4.556
				c2.048-1.876,3.032-0.391,5.15-0.082c1.313,0.045,16.289-5.679,16.289-4.087c0.186,0,0.071,0.006,0.396,0
				c-1.296,0.316-2.613,0.875-3.758,1.547c0,0,0,0,0-0.003c-2,1.454-4.44,2.408-6.571,3.664c0,0,0-0.007,0-0.01
				c-0.359,0.222-0.774,0.423-1.075,0.722c0-0.007-0.006-0.017-0.006-0.029c-0.394,0.316-0.671,0.547-1.012,0.83
				c0-0.006,0-0.006,0-0.01c-0.694,0.648-1.401,1.331-1.9,2.151c-0.007,0-0.007,0-0.007-0.007
				c-0.831,1.369-3.696,10.606-0.639,10.305c-0.917,0.037,0.911-5.114,1.175-5.534c0.921-1.47,1.712-1.106,3.223-1.191
				c1.578-0.314,3.233-0.85,4.338-2.084c0,0.006,0.006,0.012,0.006,0.016c0.264-0.228,0.518-0.493,0.745-0.752
				c1.507-1.673,2.706-2.735,4.951-3.323c0.576-0.183,5.133-0.938,5.133-1.06c0,0.01,0.002,0.016,0.002,0.021
				c0.48-0.269,0.952-0.287,1.404-0.055c-0.062-0.05-0.102-0.128-0.136-0.22c0.763-0.14,1.51-0.351,2.258-0.548
				c0,0,0-0.006-0.004-0.009c0.391-0.107,0.781-0.208,1.166-0.335c1.764-0.437,3.749-0.129,5.535-0.019
				c1.765,0.112,3.411,0.642,4.512,2.104c0.93,1.231,1.706,3.67,3.728,2.896c0-0.003-0.013-0.013-0.013-0.016
				c-0.298-0.584,3.705-1.582,4.751-0.578c1.079,1.038,2.44,6.25,0.666,7.268c3.274-0.929,2.837-8.267,0.992-10.082
				c-0.576-0.568-1.396-0.985-2.205-1.059c-0.303-0.976-1.274-1.752-2.077-2.309c-1.876-1.307-4.038-2.09-6.14-2.918
				c0,0,0,0,0,0.006c-0.896-0.359-1.814-0.663-2.729-0.986c0,0,0,0,0,0.007c-0.573-0.274-1.249-0.321-1.808-0.644
				c0.871-0.803,1.966-1.213,3.11-1.459v-0.007c4.18-0.884,9.277-2.279,13.557-1.354c2.053,0.553,2.948,3.634,4.964,3.313
				c1.371-0.322,1.975-1.428,3.449-0.721c1.649,0.796,2.052,3.84,1.066,5.262c2.034-0.575,2.282-4.51,1.497-6.014
				c-0.658-1.264-4.148-3.311-5.445-3.917c-1.761-0.831-8.338-1.516-7.228-4.373v0.024c0.295-0.71,0.704-1.642,1.086-2.309
				c1.671,0.759,2.384-0.401,3.813-0.42c2.178,0,2.178-4.589,2.89-6.651c3.294,1.531,4.94-0.256,4.19-3.494
				c2.831,2.801,2.022-2.571,1.827-4.052c3.196,3.086,2.102-6.823,1.876-7.734c2.827,2.661,0.89-6.139,0.663-6.94
				c0.853-0.176,1.779,0.646,2.65,0.332c1.029-0.363-2.016-4.267-2.304-4.703c0.807,0.051,1.573-0.104,2.291-0.462
				c1.431,0.728,2.875,1.416,4.33,2.104c-0.42-1.34-1.213-2.533-2.308-3.417c2.564,1.85,5.719,3.063,8.559,4.422
				c-0.27-0.758-1.976-3.222-1.591-3.992c0.384-0.777,7.424,4.671,8.081,5.157c-0.09-0.352-0.956-3.759-0.804-3.692
				c3.009,1.373,5.806,4.769,8.453,6.766c-0.096-2.104-1.405-3.672-1.752-5.645c2.586,2.062,4.5,5.688,6.521,8.295
				c-0.225-0.427-3.015-5.247-2.168-5.619c1.535-0.657,6.211,7.327,6.88,8.401c-0.747-1.649-1.838-5.236,1.349-3.007
				c2.845,1.997,5.322,4.966,6.807,8.091c0.277-0.479,0.503-0.979,0.714-1.465c3.26,3.137,9.514,10.783,14.546,10.454
				c1.163,0.633,4.311,1.775,5.615,1.567c0.688,0.492,1.699,1.115,2.6,0.833c0.662-0.204,2.113-2.248,2.133-2.925
				C222.688,178.365,223.37,175.156,222.827,173.64z"/>
		</g>
	</g>
</g>
<g id="base_x5F_black" display="none">
	<g id="_x31_6_6_" display="inline">
		<g>
			<path fill-rule="evenodd" clip-rule="evenodd" d="M222.827,173.64c-1.111-3.07-3.689-5.835-5.679-8.368
				c-4.913-6.274-10.058-12.397-15.198-18.485c1.484-0.253,17.101-3.626,12.929-6.45c-2.266-1.541-5.519-1.547-8.07-2.323
				c-2.631-0.798-5.578-1.469-8.308-1.822c1.207-0.4,1.78-1.378,1.157-2.562c2.053,0.257,6.341,1.447,8.613,0.673
				c0,0,0-0.009,0-0.016c0.133-0.003,0.273,0.003,0.406,0.016c0,0,0-0.006,0-0.009c0.139-0.004,0.282,0.003,0.422,0.009
				c0,0,0-0.003,0-0.006c0.133,0.003,0.261,0.006,0.399,0.006c0.885,0,4.113,0.216,3.803-1.172c0.013,0.012,0.019,0.024,0.03,0.03
				c-0.555-2.198-7.047-4.399-9.032-5.081v0.003c-0.056,0.006-0.096-0.014-0.103-0.056c-0.013,0-0.025,0.062-0.105-0.025
				c-0.102,0.013-0.077-0.026-0.108-0.056c-0.019,0.029-0.074,0.012-0.074-0.027c-1.017,1.018-12.187-9.154-13.458-10.008
				c1.209-0.151-3.473-4.634-3.953-5.078c-4.232-3.922-8.978-7.255-13.839-10.339c-9.957-6.308-20.86-10.306-31.957-14.105
				c-8.781-3.005-17.747-4.649-26.894-5.845c-4.204-0.549-9.234-0.878-13.448-0.406c-2.546,0.286-12.075,2.306-12.544-0.681
				c-0.003,0.013-0.003,0.023-0.003,0.029c-0.086-0.346-0.322-1.452,0.079-1.683c0.417-0.237,1.309,0.878,1.54,1.15
				c-0.037-0.22-0.071-0.439-0.077-0.663c0,0.007-0.007,0.019-0.013,0.028c0-1.942-0.245-3.25,0.639-5.051
				c0.127,0.135,0.224,0.289,0.329,0.444c0.067,0.119-0.178-0.39-0.178-0.326c0-0.009-0.006-0.018-0.012-0.027l0.006,0.003
				c-0.743-1.229,2.999-3.633,3.999-3.756c-0.042,0-0.083,0-0.12,0c0.323-0.072,0.64-0.118,0.966-0.138c-0.038,0-0.076,0-0.109,0
				c0.307-0.056,0.613-0.093,0.931-0.104c-0.081,0-0.165,0-0.248,0c0.601-0.093,1.203-0.181,1.809-0.268c-0.021,0-0.035,0-0.054,0
				c0.948-0.137,1.895-0.298,2.84-0.474c-0.03,0-0.063,0-0.096,0c0.235-0.048,0.465-0.084,0.7-0.104c-0.036,0-0.074,0-0.111,0
				c0.217-0.038,0.629-0.115,0.667-0.135h-0.003c2.26-0.448,2.72,0.206,1.511,2.572c0.07,0.013,0.129,0.019,0.2,0.013
				c-0.006,0.006-0.006,0.006-0.012,0.013c0.114-0.036,0.238-0.063,0.362-0.075c-0.003,0.006-0.01,0.013-0.016,0.021
				c4.496-1.902,2.323-7.536-0.267-9.908c-0.131-0.391-1.401-0.825-1.909-1.061c0.006,0.003,0.006,0.006,0.012,0.013
				c-2.354-0.987-4.784-1.858-7.36-1.858c0.006,0,0.006-0.007,0.012-0.007c-0.051-0.111-0.094-0.192-0.14-0.261
				c0.006,0,0.012-0.004,0.012-0.004c-0.024-0.05-0.195-0.214-0.208-0.23c0,0,0.013-0.007,0.019-0.01
				c-0.08-0.067-0.157-0.138-0.233-0.21c-0.113-0.027-0.203-0.096-0.265-0.21c-0.229-0.116-0.45-0.237-0.664-0.373
				c-0.095-0.09-0.21-0.142-0.356-0.152c0.006,0,0.006-0.003,0.009-0.006c-1.519-0.724-2.673-2.669-4.465-3.506
				c-1.669-0.78-3.568-1.41-5.39-1.713c0.007,0,0.007,0.003,0.01,0.003c-1.507-0.341-3.07-0.521-4.614-0.589
				c-2.509-0.657-9.464,0.121-12.763,1.831c0.013-0.002,0.031-0.009,0.047-0.016c-0.978,0.526-1.92,1.146-2.804,1.819
				c0.044-0.023,0.081-0.041,0.124-0.06c-0.757,0.577-1.489,1.228-2.162,1.911c0.029-0.022,0.066-0.037,0.097-0.059
				c-1.397,1.388-3.317,3.813-3.112,5.938c0-0.004,0-0.01,0.006-0.013c0,0.369,0.112,0.708,0.335,1.021
				c-1.005,0.386-2.04,0.747-2.831,1.51c0.021-0.043,0.05-0.093,0.07-0.13c-0.997,0.937-1.389,2.924-2.334,3.684
				c0-0.009,0.006-0.019,0.006-0.028c-0.03,0.072-0.066,0.142-0.105,0.21c1.075,0,1.771-0.197,2.719-0.283
				c0.113,0.196,0.075,0.289-0.128,0.271c0-0.006,0-0.008,0.007-0.017c-0.229,0.025-0.467-0.003-0.676,0.087
				c0.007-0.013,0.013-0.022,0.013-0.031c-1.178,0.037-2.794,2.428-3.289,3.295c0-0.013,0-0.025,0.003-0.038
				c-0.094,0.094-0.181,0.248-0.239,0.373c0.412,0.167,0.96,0.033,1.405,0.013c0,0.007,0,0.011,0,0.015
				c0.425-0.034,0.985-0.115,1.404-0.059c-0.062,0.062-0.127,0.104-0.189,0.143l0.006-0.005c-1.866,0.692-2.893,1.507-3.519,3.443
				c0.806-0.435,2.647-1.252,3.616-0.781c0.194,0.18-0.262,0.44-0.312,0.44c0-0.01,0-0.021,0-0.034
				c-0.914,0.626-1.872,1.255-2.242,2.37c-0.006-0.013-0.006-0.026-0.006-0.038c-0.388,0.905-0.639,1.723-0.877,2.677
				c0.784-0.327,2.646-0.851,3.417-0.297c-0.097,0.044-0.188,0.074-0.292,0.086c-0.666,0.236-1.044,0.613-1.479,1.128
				c0-0.006,0-0.013-0.006-0.016c-1.273,1.3-2.427,3.434-2.427,5.288c0-0.007-0.006-0.014-0.013-0.021
				c-0.017,0.145,0.007,0.313,0.031,0.458c0.62-0.564,3.466-3.138,3.466-0.983c-0.334,1.571-1.131,3.186-2.191,4.398
				c0.694-0.656,2.22-2.533,3.33-2.046c0.828,1.111-0.429,2.495-0.711,3.635c0.057-0.07,0.122-0.139,0.177-0.207
				c0.031-0.032,0.054-0.067,0.087-0.1c0,0.788-0.787,1.761-0.787,2.696c0-0.003,0-0.003-0.006-0.009
				c-0.016,0.161-0.016,0.351,0,0.505c0.295-0.435,0.579-0.887,0.884-1.309c0.006,0.004,0.012,0.007,0.012,0.013
				c0.14-0.234,0.292-0.452,0.493-0.638c0.686-0.453,0.865,2.804,0.862,2.727c0.034,0.283,0.075,0.564,0.105,0.848
				c0.214-0.151,0.408-0.322,0.592-0.507c-1.377,4.512-1.499,9.578-0.847,14.229c0.791,5.614,4.326,10.234,7.335,14.883
				c2.769,4.274,5.918,8.392,9.654,11.873c0.727,0.676,10.296,7.582,10.51,6.979c0.267-0.87-2.06-3.137-2.475-3.825
				c0.985,0.403,5.054,5.944,5.662,5.521c1.063-0.74-1.793-5.358,1.531-2.454c0.48,0.42,3.82,4.61,4.146,4.363
				c0.996-0.755,0.556-3.237,2.487-1.817c0.908,0.661,2.326,3.313,3.344,3.514c2.29,0.448,2.947,0.095,3.892,2.126
				c0.792,2.117,2.123,3.989,2.93,6.097c0-0.003,0.006-0.007,0.006-0.007c1.389,3.143,2.449,6.535,2.958,9.946
				c0.007-0.007,0.01-0.007,0.016-0.013c0.36,3.271,1.043,7.057,2.105,10.126c0-0.007,0-0.007,0-0.007
				c0.08,0.303,0.159,0.606,0.235,0.905c0.007,0,0.007-0.003,0.01-0.006c0.236,0.895,0.49,1.788,0.871,2.625
				c-0.151,0.938,1.346,2.262,2.04,2.667c1.705,0.987-1.822,1.926-0.455,3.322c-0.227-0.645,1.568-1.842,1.953-1.656
				c-0.257,1.06-0.329,2.388-1.293,2.875c-0.772,0.195-1.5,0.478-2.245,0.749v-0.006c-1.938,0.742-1.926,0.81-3.73,0.274
				c-1.355-0.856-3.987-1.758-5.601-1.643l0.007-0.006c-2.131,0.201-4.015-0.863-6.291,0.214c-1.526,0.727-5.186,3.736-3.622,5.742
				c-1.135-1.633,4.784-3.55,5.601-3.417c-4.045,2.955,4.847,3.366,6.43,3.853c-1.224,0.041-2.444,0.038-3.684,0.102
				c0,0,0,0,0-0.007c-0.396,0.019-0.792,0.052-1.19,0.092c0-0.007,0-0.013,0-0.013c-0.396,0.055-0.799,0.092-1.193,0.168
				c0-0.006,0-0.009,0-0.009c-0.181,0.036-1.154,0.243-1.19,0.188c-0.397,0.079-0.796,0.158-1.191,0.237
				c-0.388,0.079-0.771,0.158-1.166,0.24c0-0.003,0-0.003,0-0.003c-2.66,0.808-5.209,2.024-7.846,2.741
				c-2.089,0.565-8.767,7.567-4.525,9.258c-1.026-0.592,1.503-4.068,2.03-4.556c2.048-1.876,3.032-0.391,5.15-0.082
				c1.313,0.045,16.289-5.679,16.289-4.087c0.186,0,0.071,0.006,0.396,0c-1.296,0.316-2.613,0.875-3.758,1.547c0,0,0,0,0-0.003
				c-2,1.454-4.44,2.408-6.571,3.664c0,0,0-0.007,0-0.01c-0.359,0.222-0.774,0.423-1.075,0.722c0-0.007-0.006-0.017-0.006-0.029
				c-0.394,0.316-0.671,0.547-1.012,0.83c0-0.006,0-0.006,0-0.01c-0.694,0.648-1.401,1.331-1.9,2.151c-0.007,0-0.007,0-0.007-0.007
				c-0.831,1.369-3.696,10.606-0.639,10.305c-0.917,0.037,0.911-5.114,1.175-5.534c0.921-1.47,1.712-1.106,3.223-1.191
				c1.578-0.314,3.233-0.85,4.338-2.084c0,0.006,0.006,0.012,0.006,0.016c0.264-0.228,0.518-0.493,0.745-0.752
				c1.507-1.673,2.706-2.735,4.951-3.323c0.576-0.183,5.133-0.938,5.133-1.06c0,0.01,0.002,0.016,0.002,0.021
				c0.48-0.269,0.952-0.287,1.404-0.055c-0.062-0.05-0.102-0.128-0.136-0.22c0.763-0.14,1.51-0.351,2.258-0.548
				c0,0,0-0.006-0.004-0.009c0.391-0.107,0.781-0.208,1.166-0.335c1.764-0.437,3.749-0.129,5.535-0.019
				c1.765,0.112,3.411,0.642,4.512,2.104c0.93,1.231,1.706,3.67,3.728,2.896c0-0.003-0.013-0.013-0.013-0.016
				c-0.298-0.584,3.705-1.582,4.751-0.578c1.079,1.038,2.44,6.25,0.666,7.268c3.274-0.929,2.837-8.267,0.992-10.082
				c-0.576-0.568-1.396-0.985-2.205-1.059c-0.303-0.976-1.274-1.752-2.077-2.309c-1.876-1.307-4.038-2.09-6.14-2.918
				c0,0,0,0,0,0.006c-0.896-0.359-1.814-0.663-2.729-0.986c0,0,0,0,0,0.007c-0.573-0.274-1.249-0.321-1.808-0.644
				c0.871-0.803,1.966-1.213,3.11-1.459v-0.007c4.18-0.884,9.277-2.279,13.557-1.354c2.053,0.553,2.948,3.634,4.964,3.313
				c1.371-0.322,1.975-1.428,3.449-0.721c1.649,0.796,2.052,3.84,1.066,5.262c2.034-0.575,2.282-4.51,1.497-6.014
				c-0.658-1.264-4.148-3.311-5.445-3.917c-1.761-0.831-8.338-1.516-7.228-4.373c0,0.013,0,0.016,0,0.024
				c0.295-0.71,0.704-1.642,1.086-2.309c1.671,0.759,2.384-0.401,3.813-0.42c2.178,0,2.178-4.589,2.89-6.651
				c3.294,1.531,4.94-0.256,4.19-3.494c2.831,2.801,2.022-2.571,1.827-4.052c3.196,3.086,2.102-6.823,1.876-7.734
				c2.827,2.661,0.89-6.139,0.663-6.94c0.853-0.176,1.779,0.646,2.65,0.332c1.029-0.363-2.016-4.267-2.304-4.703
				c0.807,0.051,1.573-0.104,2.291-0.462c1.431,0.728,2.875,1.416,4.33,2.104c-0.42-1.34-1.213-2.533-2.308-3.417
				c2.564,1.85,5.719,3.063,8.559,4.422c-0.27-0.758-1.976-3.222-1.591-3.992c0.384-0.777,7.424,4.671,8.081,5.157
				c-0.09-0.352-0.956-3.759-0.804-3.692c3.009,1.373,5.806,4.769,8.453,6.766c-0.096-2.104-1.405-3.672-1.752-5.645
				c2.586,2.062,4.5,5.688,6.521,8.295c-0.225-0.427-3.015-5.247-2.168-5.619c1.535-0.657,6.211,7.327,6.88,8.401
				c-0.747-1.649-1.838-5.236,1.349-3.007c2.845,1.997,5.322,4.966,6.807,8.091c0.277-0.479,0.503-0.979,0.714-1.465
				c3.26,3.137,9.514,10.783,14.546,10.454c1.163,0.633,4.311,1.775,5.615,1.567c0.688,0.492,1.699,1.115,2.6,0.833
				c0.662-0.204,2.113-2.248,2.133-2.925C222.688,178.365,223.37,175.156,222.827,173.64z"/>
		</g>
	</g>
</g>
</svg>
