<?xml version="1.0" encoding="iso-8859-1"?>
<svg xmlns="http://www.w3.org/2000/svg" viewBox="0 0 512 512">
	<circle cx="256" cy="256" r="256" fill="#386895"/>
	<path d="M511.902 249.006l-49.895-49.895-149.118 28.444L84.471 357.047l154.367 154.367c5.674.376 11.394.586 17.162.586 141.384 0 256-114.616 256-256 0-2.339-.036-4.67-.098-6.994z" fill="#273B7A"/>
	<path d="M462.007 199.111l-102.815-89.967c-4.387-3.839-11.89-1.121-11.89 4.31v39.776h-171.48c-6.654 0-12.05 4.72-12.05 10.545v70.677c0 5.823 5.396 10.545 12.05 10.545H347.3v39.776c0 5.43 7.502 8.149 11.89 4.31l102.817-89.972z" fill="#FFF"/>
	<path fill="#FEE187" d="M84.471 199.111H321.37v157.927H84.471z"/>
	<path fill="#FFC61B" d="M202.852 199.111h118.529v157.927H202.852z"/>
	<path fill="#E59413" d="M321.376 199.111L202.924 278.08 84.471 199.111z"/>
	<path fill="#D48B07" d="M321.376 199.111H202.847v78.917l.077.052z"/>
</svg>
