<?xml version="1.0" encoding="UTF-8" standalone="no"?>
<svg width="50px" height="50px" viewBox="0 0 50 50" version="1.1" xmlns="http://www.w3.org/2000/svg" xmlns:xlink="http://www.w3.org/1999/xlink">
    <!-- Generator: Sketch 49.2 (51160) - http://www.bohemiancoding.com/sketch -->
    <title>console-arrow</title>
    <desc>Created with Sketch.</desc>
    <defs/>
    <g id="Design-Files" stroke="none" stroke-width="1" fill="none" fill-rule="evenodd">
        <g id="Icons" transform="translate(-656.000000, -1415.000000)" fill-rule="nonzero" fill="currentColor">
            <g id="console-arrow" transform="translate(656.000000, 1415.000000)">
                <path d="M25.7142857,21.4285714 L31.4312245,16.7505195 C32.3361634,16.0103939 32.8570502,14.929725 32.8571429,13.7922078 L32.8571429,2.92207792 C32.8571429,1.30825885 31.486586,9.88179182e-17 29.7959184,0 L21.6326531,0 C19.9419855,-9.88179182e-17 18.5714286,1.30825885 18.5714286,2.92207792 L18.5714286,13.7922078 C18.5714191,14.9296624 19.0921518,16.0103209 19.9969388,16.7505195 L25.7142857,21.4285714 Z M20.6122449,2.92207792 C20.6122449,2.38413823 21.0690972,1.94805195 21.6326531,1.94805195 L29.7959184,1.94805195 C30.3594742,1.94805195 30.8163265,2.38413823 30.8163265,2.92207792 L30.8163265,13.7922078 C30.8169613,14.3610456 30.5565227,14.9016021 30.1036735,15.2713636 L25.7142857,18.8631818 L21.3246939,15.2715584 C20.8722033,14.9014731 20.611912,14.3609963 20.6122449,13.7922078 L20.6122449,2.92207792 Z" id="Shape"/>
                <path d="M25.7142857,28.5714286 L19.9969388,33.2494805 C19.0921518,33.9896791 18.5714191,35.0703376 18.5714286,36.2077922 L18.5714286,47.0779221 C18.5714286,48.6917412 19.9419855,50 21.6326531,50 L29.7959184,50 C31.486586,50 32.8571429,48.6917412 32.8571429,47.0779221 L32.8571429,36.2077922 C32.8572034,35.0703689 32.3365477,33.9897156 31.4318367,33.2494805 L25.7142857,28.5714286 Z M30.8163265,47.0779221 C30.8163265,47.6158618 30.3594742,48.0519481 29.7959184,48.0519481 L21.6326531,48.0519481 C21.0690972,48.0519481 20.6122449,47.6158618 20.6122449,47.0779221 L20.6122449,36.2077922 C20.6119403,35.6390232 20.8723183,35.0985924 21.324898,34.7286364 L25.7142857,31.1368182 L30.1032653,34.7284416 C30.5562533,35.0982228 30.8168364,35.6388408 30.8163265,36.2077922 L30.8163265,47.0779221 Z" id="Shape"/>
                <path d="M16.7505195,19.9963266 C16.0102114,19.0917675 14.9295686,18.571266 13.7922078,18.5714286 L2.92207792,18.5714286 C1.30825885,18.5714286 1.97635836e-16,19.9419855 0,21.6326531 L0,29.7959184 C1.97635836e-16,31.486586 1.30825885,32.8571429 2.92207792,32.8571429 L13.7922078,32.8571429 C14.929725,32.8570502 16.0103939,32.3361634 16.7505195,31.4312245 L21.4285714,25.7142857 L16.7505195,19.9963266 Z M15.2715584,30.1020408 C14.9018345,30.55526 14.3612898,30.8162552 13.7922078,30.8163265 L2.92207792,30.8163265 C2.38413823,30.8163265 1.94805195,30.3594742 1.94805195,29.7959184 L1.94805195,21.6326531 C1.94805195,21.0690972 2.38413823,20.6122449 2.92207792,20.6122449 L13.7922078,20.6122449 C14.3608774,20.6119489 14.9012205,20.8722444 15.2711688,21.3246939 L18.8627922,25.7142857 L15.2715584,30.1020408 Z" id="Shape"/>
                <path d="M47.0779221,18.5714286 L36.2077922,18.5714286 C35.0705675,18.5713851 33.9900897,19.0918757 33.2498701,19.9963265 L28.5714286,25.7142857 L33.2494805,31.4322449 C33.9897886,32.336804 35.0704314,32.8573055 36.2077922,32.8571428 L47.0779221,32.8571428 C48.6917412,32.8571428 50,31.4865859 50,29.7959183 L50,21.6326531 C50,19.9419855 48.6917412,18.5714286 47.0779221,18.5714286 Z M48.0519481,29.7959183 C48.0519481,30.3594742 47.6158618,30.8163265 47.0779221,30.8163265 L36.2077922,30.8163265 C35.6387782,30.8161955 35.098316,30.5552058 34.7286364,30.1020408 L31.1372078,25.7142857 L34.7284416,21.3265306 C35.0981492,20.873289 35.6387044,20.6122888 36.2077922,20.6122449 L47.0779221,20.6122449 C47.6158618,20.6122449 48.0519481,21.0690972 48.0519481,21.6326531 L48.0519481,29.7959183 Z" id="Shape"/>
            </g>
        </g>
    </g>
</svg>