<svg version="1" xmlns="http://www.w3.org/2000/svg" width="400" height="400" viewBox="0 0 300 300">
	<title>Floral letter y</title>
	<g>
		<path class="branch node" d="M56 68c0 1.5.7 2 2.7 2 3 0 15.2 6.5 15.9 8.5.3.7-.8 3.2-2.4 5.4-9.8 13.5.8 32.5 17.1 30.8 2.9-.3 6.1-.8 7.3-1.2 1.8-.6 2.8.4 6.8 6.6 2.5 4 4.6 7.5 4.6 7.9 0 .3-1.3 1.3-2.9 2.3-1.6.9-3.9 3.2-5 5.1-2.7 4.3-6.5 5.4-10 2.8-3.2-2.3-3.8-5.5-1.7-8.8 1.9-2.8 5.1-3.1 8-.7 2 1.8 2 1.8.5-.7-2.2-3.3-7-3.8-10.8-1.1-1.6 1.2-4 2.1-5.3 2.1-4.8 0-7.6 6.2-4.2 9.1 1.5 1.2 1.6 1.1.9-1-.5-1.6-.3-2.6.6-3.2 2.5-1.5 3.8-1 4.5 1.8 1.1 4.4 3.4 7.3 7.6 9.4 2.1 1.1 3.8 2.1 3.8 2.3 0 .1-.9 1.3-2 2.6a8.68 8.68 0 0 0 1.1 12.4c2.2 1.9 3.8 2.5 5.3 2 5.2-1.6 7.4-6.7 3.9-9.5-1.5-1.3-1.5-1.2-.4.8 1.8 3.6-.2 6.5-4.2 6.1-2.4-.2-3.4-.9-4.1-3.1-1.2-3.3-.1-5.5 3.5-7.6 2.3-1.3 3.1-1.1 8.9 1.8 7.2 3.5 8.8 3.6 14.5 1.6 3.6-1.3 4.1-1.3 5.7.5 1 1.1 1.8 2.3 1.8 2.7 0 .4 1.1 2.1 2.4 3.8 2.7 3.3 4.8 2.7 2.6-.8-.8-1.2-8.9-14.1-18-28.7-20.6-33-30.3-47.4-38.6-57.8L69.9 66h-7c-6.2 0-6.9.2-6.9 2zm24 17.1c.9 1.6.8 3-.5 6.1-3.1 7.7 1.1 13.8 9.5 13.8 3.5 0 4.8.5 5.8 2.1 1.8 2.8.5 4-5 4.6-5.5.6-11.6-2.2-15-6.9-3.3-4.7-3.3-13.9 0-18.6 2.7-3.7 3.7-4 5.2-1.1zm32 47.9c0 .6.9 2.4 2.1 3.9 2.5 3.4 1.9 6.8-1.4 7.4-1.2.2-.3.2 2 0 4.7-.5 6.6 1.2 3.8 3.4-2.5 1.7-8.5 1.7-11.2-.2-3.1-2.2-4.8-7.8-3.2-10.7.7-1.3 1.9-2.8 2.8-3.5 2-1.5 5.1-1.7 5.1-.3zM82 67.2c0 2.2 10.8 22.6 18.3 34.8 11.5 18.7 26.2 39.1 36.6 51 3.3 3.7 4.2 4.3 5.7 3.4 4.8-2.9 4.4-3.7-8.7-17.1-21-21.4-28.9-34.7-28.9-48.4 0-9.8 4.2-16.7 12.4-20.5 2.8-1.3 6.1-2.4 7.4-2.4 1.2 0 2.2-.5 2.2-1 0-.6-8.2-1-22.5-1-17.3 0-22.5.3-22.5 1.2z"/>
		<path class="branch node" d="M176 66.8c0 .5 1.7 1.4 3.8 2 6.2 1.9 12.1 6.8 14.4 11.9 1.7 3.8 1.9 6 1.5 12.2-.5 9-3.1 15.2-10.8 26.1-5 7-30 32.9-45.1 46.7l-6.8 6.1v6.6c0 5.6.3 6.7 2.2 8 2.8 2 5.7 2 8.3 0 1.8-1.3 1.8-1.4-1.1-.8-2.6.5-3.5.1-5.7-2.6-3.1-3.7-3.3-5.6-1.1-10.3 1.9-4.1 6-6.7 10.4-6.7 2.1 0 3.8-.8 5.5-2.8 2-2.2 2.7-2.5 4.2-1.6 2.5 1.5 2.8 4.2.8 6.4-1.4 1.6-1.5 2.5-.7 4.9 1.2 3.5-.1 9.5-2.6 12.5-1 1-3.6 2.9-6 4.3-4 2.3-4.2 2.7-2.8 4.1 1.4 1.5 1.9 1.3 5.1-1.8 3.1-3 4.3-3.5 8.5-3.5 3.3 0 5.4.6 6.8 1.9 2.1 1.8 2.1 1.8 2.4-3 .3-4.8.4-4.9 3.8-5.2 5.5-.4 9.1-2.2 14.2-6.9 5.3-4.9 6.5-5.1 10.2-2.2 3.2 2.5 3.4 6.1.5 8.8-1.7 1.6-2.6 1.8-4.5.9-2.9-1.4-3.8-3.6-2.2-5.6 1.1-1.3 1-1.4-.2-1-2.5.8-2.4 5.4.2 7.2 3.2 2.3 6.5 2 9.3-.9 3.6-3.5 3.3-7.6-.9-11.9l-3.5-3.4 3.5-3.7c2.9-3.1 3.4-4.3 3.4-8.6 0-4.6.2-4.9 2.5-4.9 2 0 2.5.5 2.5 2.6 0 1.4.4 2.3 1 1.9 1.5-1 1.2-5.2-.6-7-1-.9-3.2-1.5-5.8-1.5-2.2 0-5.7-.2-7.6-.5-2.7-.5-4.2-.2-6 1.3-1.4 1.1-2.2 2.4-1.8 2.8.5.4 1.7-.1 2.7-1 2.4-2.2 5.5-1.4 7.7 2 2.2 3.2 1.1 7-2.6 8.9-3.4 1.7-5.3 1.2-9.8-2.7-1.8-1.5-4.4-2.8-5.7-2.8-1.3 0-2.6-.4-2.9-.8-.3-.5 1.4-3.8 3.7-7.3l4.2-6.4 6.6.3c10.3.6 17.3-3.2 21-11.3 1-2.2 1.9-5.6 1.9-7.5 0-4.7-3.3-14-5.4-15.2-1.5-.8-1.4-1.3.6-5.1 3.6-6.6 12.1-17.9 16.4-21.8 4.6-4.1 12.3-8 17.4-8.9 2.2-.3 3.5-1.1 3.5-2 0-1.3-4.8-1.5-34.2-1.8-18.9-.1-34.3.2-34.3.6zm52 3.2c0 2.7-1.9 3.5-3.8 1.6-1.6-1.6-1.6-1.8.2-3.1 2.2-1.7 3.6-1.1 3.6 1.5zm-6.2 4.3c.4 2-2.5 3.4-4 1.9s-.1-4.4 1.9-4c1 .2 1.9 1.1 2.1 2.1zM217 81c0 1-.6 2-1.2 2.3-2.1.7-3.8-.4-3.8-2.3 0-1 .6-2 1.3-2.3 2-.7 3.7.4 3.7 2.3zm-6.2 6.6c.2 1.2-.4 2.4-1.2 2.7-1.9.7-4-1.8-3.2-3.9.8-2.2 4-1.3 4.4 1.2zm-5.9 6.3c1.9 1.2.6 4.1-1.9 4.1-1.3 0-2-.7-2-1.8 0-3.1 1.4-3.9 3.9-2.3zm-3.3 11c-1 1.6-4.3 1.3-5-.4-.8-2.1 2.5-3.7 4.3-2 .7.7 1 1.8.7 2.4zm3.9 6.5c4.6 6.9 3.7 14.7-2.4 20.7-2.8 2.8-4.8 3.9-8.3 4.4-5.2.8-8.8 0-8.8-1.9s3-4.2 5.1-3.8c3.2.5 8-2.8 9.6-6.6 1.2-2.9 1.3-4.3.3-7.4-2-6.8 1.2-10.6 4.5-5.4zm-8.7 1.9c.4 2-2.5 3.4-4 1.9s-.1-4.4 1.9-4c1 .2 1.9 1.1 2.1 2.1zm-6.8 7.3c1.1 1.2 1 1.8-.3 3.2-1.6 1.5-1.8 1.5-3.4 0-1.3-1.4-1.4-2-.3-3.2.7-.9 1.6-1.6 2-1.6.4 0 1.3.7 2 1.6zm-5 7.9c1.5 1.7.5 3.5-2 3.5-2.2 0-3.3-2.3-1.7-3.9 1.5-1.5 2.2-1.4 3.7.4zm-6.6 8.4c3.3 3.6-1.8 8.3-5.2 4.9-2.3-2.3-.7-6.8 2.3-6.8.7 0 2 .9 2.9 1.9zm-5.9 10.1c.4 1.2.1 2.7-.5 3.5-2.7 3.3-7.8.5-6.5-3.5.4-1.4 1.5-2 3.5-2s3.1.6 3.5 2zm-7.7 7.2c3.2 3.2-.8 8-4.8 5.8-2.1-1.1-2.5-2.7-1.4-5.4.7-1.9 4.5-2.1 6.2-.4zm15.3 5.7c3.2 3.3 3.6 5.8 1.5 10-2.4 4.6-9.2 6.6-13.1 3.7-2.6-1.9-1.3-5.1 1.4-3.6 2.5 1.3 6.1 1.3 6.1 0 0-.6-1.1-1-2.4-1-3.2 0-4.8-2.2-4.4-6.2.2-2.3 1-3.6 2.8-4.5 3.7-1.9 4.8-1.6 8.1 1.6z"/>
		<path class="heart node" d="M238.5 74.1c-.8 1.2 1.4 3.1 3 2.6.6-.2 1-1 1-1.8 0-1.7-3.1-2.4-4-.8zM164.4 74.7c-3.3.4-7.3 3.7-11.5 9.3l-2.6 3.4-2.6-4.2c-3-4.7-8.3-8-10-6.3-.8.8-.7 1.1.5 1.1 2.4 0 4.1 2.7 3.4 5.5-.4 1.7-1.3 2.5-2.9 2.5-2.2 0-2.2.1.3 2 2.1 1.6 2.3 2.2 1.4 3.7-.8 1.2-2.2 1.7-4.1 1.6-1.9-.2-3.7.4-4.8 1.6-1.8 2.1-4.2 1.8-6.3-.8-.8-1-1.5-1.2-2-.5-.4.6-1.5 1.3-2.5 1.7-2.4.9-4.6-3.5-2.8-5.6.9-1.2.7-1.6-1.1-2-4.1-1.1-4.8 3-2.2 12 2.4 8.1 7.2 15.8 16.7 26.4 9 10 18.1 18.9 19.4 18.9.5 0 3.1-2.3 5.8-5.1 4.4-4.4 4.8-5.1 3.3-6-1-.6-1.8-1.7-1.8-2.6 0-1.2-.3-1.3-1.5-.3-2.1 1.8-5.5.3-5.5-2.5 0-1.3.6-2.5 1.2-2.7.9-.3.8-.9-.5-2.2-2.2-2.3-2.2-5.2.2-7.3 1.1-.9 1.8-2 1.5-2.5-.3-.4-.2-1.7.1-2.9 1-3.2 5.6-2.2 6.8 1.5.8 2.4.6 3.2-.8 4.2-1.5 1.1-1.6 1.6-.4 3 1.1 1.4 1 1.7-.5 2.6-1.3.7-1.5 1.3-.5 2.4.6.7.8 2.2.4 3.1-.4 1.2.3.9 2.3-1l2.9-2.7 1.1 2.5c1.1 2.4 1.4 2.5 2.7 1.1 1-1 1.3-2.4.9-4-.4-1.9-.2-2.8 1-3.2.9-.3 1.6-1 1.6-1.4 0-1.5-4.1-2.2-5.5-1-1.2 1-1.7.7-2.5-1.5-2.2-5.9 0-9.7 4.5-7.7 1.4.7 2.5 1.6 2.5 2.2 0 .7.8.9 1.9.5 4.5-1.4 6.6 2.1 3.4 5.7-.9 1-1.1 1.8-.6 1.8 1.5 0 5.7-5.8 9.4-13.1 4.3-8.3 4.7-17.6 1.1-22.7-5-6.9-11.9-9.8-20.8-8.5zM231.7 76.4c-.8 1.9 1.5 3.7 3.2 2.6 1.7-1 .7-4-1.3-4-.7 0-1.6.6-1.9 1.4z"/>
		<path class="branch node" d="M129.4 78.1c-1.6 1.8-1.8 1.8-3.6.2-1.7-1.5-1.9-1.5-3.2.2-1.2 1.7-1.2 2.1.2 3.1 1.5 1.1 1.5 1.4-.1 3.1-2.1 2.4-2.2 3.7-.3 3 .8-.3 1.7-.1 1.9.6.3.8 1 .7 2.3-.5 1.5-1.5 2-1.5 3.3-.4 1.3 1 2.1 1 4 0l2.3-1.2-2.7-1.8-2.7-1.8 2.1-1.5c2.1-1.6 2.1-1.7.2-3.3-1.8-1.5-2-1.5-3.7.3zM225 82c0 1.5.5 2 1.8 1.8.9-.2 1.7-1 1.7-1.8s-.8-1.6-1.7-1.8c-1.3-.2-1.8.3-1.8 1.8zM219.4 87.1c-.3.6-.2 1.5.4 2.1 1.3 1.3 3.2.2 3.2-1.8 0-1.6-2.6-1.9-3.6-.3zM133.1 90.6c0 1.1.3 1.4.6.6.3-.7.2-1.6-.1-1.9-.3-.4-.6.2-.5 1.3zM215 93c-1.1.7-1.2 1.2-.3 2.1 1.6 1.6 4.4.4 3.7-1.6-.7-1.7-1.3-1.8-3.4-.5zM210.6 100.7c-.9 2.2 1 4.1 2.5 2.6 1.3-1.3.5-4.3-1-4.3-.5 0-1.2.8-1.5 1.7zM141.6 172.6c-2.1 2-2 6.8 0 8.5 1.4 1.1 1.9.9 3.4-1.1 2.4-3.2 3.7-1.8 2.2 2.3l-1.1 3.2 2.4-2.8c2.9-3.2 3.2-6.3.9-9.5a5.07 5.07 0 0 0-7.8-.6zM204.6 174.8c1.4 6.9-4.5 13.3-19.6 21.7-9.5 5.2-13.3 8.4-15.1 12.7-1.3 3.2-2.9 2.2-2.9-2v-2.4l-3.1 2.6c-6.2 5.3-14 1.2-11.3-5.8.9-2.4 3.2-1.9 3.6.6.5 3.4 4.9 3.1 6.6-.5 1.8-3.7-.2-8.1-3.9-8.5-3.4-.4-8.9 4.8-9 8.6-.4 10.6 3.8 20.8 6.6 16.2 1.1-1.8 9.1-1.1 11.7 1 3.8 3 5.3 7.3 3.8 11-.7 1.6-1.7 3-2.2 3-.5 0-.7.4-.4.8.2.4 5.5.9 11.8 1 9.2.2 11.9 0 14.8-1.5 5.8-3 8.5-10.9 5.6-16.2-1.3-2.4-1.4-2.4-2.1 2-.5 3.1-1.7 5.3-4.2 7.6-2.9 2.8-4.2 3.3-8.4 3.3-3.7 0-4.9-.4-4.9-1.5 0-1 1.1-1.5 3.5-1.5s4.4-.9 6.7-2.9c3.2-2.8 3.3-3.2 3.3-10.5 0-6.5.3-7.7 1.8-8.2 2.2-.7 8.7-6.3 8.7-7.4 0-.4-1.7.1-3.7 1.1-3.9 2-10.3 2.6-10.3.9 0-.5 1.5-1.7 3.3-2.6 11.8-6 17.8-16.5 13.1-23.2-2.2-3.2-4.5-2.9-3.8.6zm-16.5 34.1c3.1 3.1 3.6 6.4 1.8 10.4-3.2 7-13.9 5.2-13.9-2.2 0-1.6.7-3.4 1.5-4.1 1.9-1.6 6.8-1.6 7.3-.1.2.6.9 1.1 1.5 1.1 2.7-.1-3.8-4-6.6-4-2.9 0-3 0-1.2-2 2.6-2.8 6.2-2.5 9.6.9zM133.2 196.7c.3 5.3.5 5.8 2.8 6.1 1.4.2 3.1.9 3.8 1.4 1.6 1.4 1.5 5.3-.2 6.7-1.2 1-1.5.7-1.8-1.6-.4-3.8-3.5-4.3-4.4-.7-1.4 5.3 3.7 8.3 7.5 4.5 4.5-4.5 3.5-12.4-2.3-18.6-4.8-5-5.8-4.6-5.4 2.2zM141.6 218.5c-2 1.5-2 1.5.1 1.5 1.9 0 5.3 2.8 5.3 4.4 0 .4-1.3.5-2.9.1-3.4-.7-4.6.6-3.1 3.5.8 1.5 1.9 2 3.7 1.8 3.7-.4 5.1-4.9 2.9-9.4-1.7-3.7-3.1-4.1-6-1.9zM132 219.8c0 1 4.1 2.4 4.9 1.7.6-.7 0-1.1-2.6-1.9-1.3-.4-2.3-.3-2.3.2z"/>
		<path class="branch node" d="M157.1 224.6c-2.5 3.1-2.7 6.2-.7 9 1.1 1.4 1.8 1.6 2.6.8s.9-1.4.1-1.8c-.6-.4-1.1-1.7-1.1-2.8 0-1.9.2-1.9 2.1.6 1.1 1.4 2.8 2.6 3.7 2.6 2.7-.1 5.2-2.5 5.2-5.2 0-5.8-8.2-8-11.9-3.2zM129.1 225.4c-2.2 2.6-8 4.7-13.7 4.7-3.9.1-5.7.5-6.1 1.6-.3.8 0 1.9.7 2.3 1.8 1.1 32 1 32-.1 0-.5-.4-.9-.9-.9-1.8 0-4.1-3.2-4.1-5.6 0-1.7-.6-2.4-1.9-2.4-1.1 0-2.6-.2-3.4-.5-.7-.3-1.9.1-2.6.9zM146.5 234c.3.5.8 1 1.1 1 .2 0 .4-.5.4-1 0-.6-.5-1-1.1-1-.5 0-.7.4-.4 1z"/>
	</g>
	<g class="inneDots trans" fill="transparent">
		<path class="dots trans" d="M74.8 86.2c-3.3 4.7-3.3 13.9 0 18.6 3.4 4.7 9.5 7.5 15 6.9 5.5-.6 6.8-1.8 5-4.6-1-1.6-2.3-2.1-5.8-2.1-8.4 0-12.6-6.1-9.5-13.8 1.3-3.1 1.4-4.5.5-6.1-1.5-2.9-2.5-2.6-5.2 1.1zM106.9 133.3c-.9.7-2.1 2.2-2.8 3.5-1.6 2.9.1 8.5 3.2 10.7 2.7 1.9 8.7 1.9 11.2.2 2.8-2.2.9-3.9-3.8-3.4-2.3.2-3.2.2-2 0 3.3-.6 3.9-4 1.4-7.4-1.2-1.5-2.1-3.3-2.1-3.9 0-1.4-3.1-1.2-5.1.3zM224.4 68.5c-1.8 1.3-1.8 1.5-.2 3.1 1.9 1.9 3.8 1.1 3.8-1.6 0-2.6-1.4-3.2-3.6-1.5zM217.4 73.5c-.4.9-.2 2.1.4 2.7 1.5 1.5 4.4.1 4-1.9-.4-2.3-3.6-2.9-4.4-.8zM213.3 78.7c-.7.3-1.3 1.3-1.3 2.3 0 1.9 1.7 3 3.8 2.3.6-.3 1.2-1.3 1.2-2.3 0-1.9-1.7-3-3.7-2.3zM206.4 86.4c-.8 2.1 1.3 4.6 3.2 3.9 2-.8 1.3-4.7-.9-5.1-.9-.2-2 .4-2.3 1.2zM201.7 93.7c-.4.3-.7 1.5-.7 2.5 0 2.3 3.8 2.5 4.7.2.8-2.1-2.4-4.3-4-2.7zM197.8 102.1c-2.1 1.2-1.2 3.9 1.2 3.9 2.6 0 3.5-1.9 1.9-3.5-1-1-1.9-1.1-3.1-.4zM200.5 111c-.3 1-.1 3.6.5 5.8 1 3.1.9 4.5-.3 7.4-1.6 3.8-6.4 7.1-9.6 6.6-2.1-.4-5.1 1.9-5.1 3.8s3.6 2.7 8.8 1.9c8.7-1.3 15.5-11.4 13.2-19.4-2-7.1-6.1-10.4-7.5-6.1zM192.4 112.5c-.4.9-.2 2.1.4 2.7 1.5 1.5 4.4.1 4-1.9-.4-2.3-3.6-2.9-4.4-.8zM186 120.6c-1.1 1.2-1 1.8.3 3.2 1.6 1.5 1.8 1.5 3.4 0 1.3-1.4 1.4-2 .3-3.2-.7-.9-1.6-1.6-2-1.6-.4 0-1.3.7-2 1.6zM181.3 128.1c-1.6 1.6-.5 3.9 1.7 3.9 2.5 0 3.5-1.8 2-3.5-1.5-1.8-2.2-1.9-3.7-.4zM173.2 136.2c-2.5 2.5-.6 6.8 3 6.8.9 0 2.2-.9 2.8-2.1.9-1.6.8-2.5-.6-4-2-2.2-3.5-2.4-5.2-.7zM165.5 147c-.4 1.2-.1 2.7.5 3.5 2.7 3.3 7.8.5 6.5-3.5-.4-1.4-1.5-2-3.5-2s-3.1.6-3.5 2zM158.6 154.6c-1.1 2.7-.7 4.3 1.4 5.4 4 2.2 8-2.6 4.8-5.8-1.7-1.7-5.5-1.5-6.2.4zM172 158.3c-1.8.9-2.6 2.2-2.8 4.5-.4 4 1.2 6.2 4.4 6.2 1.3 0 2.4.4 2.4 1 0 1.3-3.6 1.3-6.1 0-2.7-1.5-4 1.7-1.4 3.6 5.5 4 14.5-1.4 14.5-8.6 0-2.4-5.1-8-7.2-8-.7 0-2.4.6-3.8 1.3zM178.5 208c-1.8 2-1.7 2 1.2 2 2.8 0 9.3 3.9 6.6 4-.6 0-1.3-.5-1.5-1.1-.5-1.5-5.4-1.5-7.3.1-.8.7-1.5 2.5-1.5 4.1 0 7.4 10.7 9.2 13.9 2.2 1.8-4 1.3-7.3-1.8-10.4-3.4-3.4-7-3.7-9.6-.9z"/>
	</g>
</svg>
