<svg version="1" xmlns="http://www.w3.org/2000/svg" width="400" height="400" viewBox="0 0 300 300">
	<title>Floral letter d</title>
	<g>
		<path class="topBranch branch node" d="M67 68.9c0 1.5 1.1 1.9 7.1 2.4 8 .7 14.3 4.1 16.1 8.7.6 1.4 1 10.8.9 22.4l-.2 19.8 2.7-3.1c1.9-2.3 3.4-3.1 5.9-3.1 2.9 0 3.4-.4 4-3 .7-3.4 4.5-6.3 8.4-6.6l3-.3c.2-.1-.8-1-2.3-2.2-1.4-1.1-3.1-3-3.7-4.1-.9-1.8-.9-1.8 1-.9 1.1.6 2.3 1.6 2.7 2.2 1 1.7 8.6 4.9 11.6 4.9 5.9 0 9.8-3.8 9.8-9.6 0-3.2-4.2-7.4-7.4-7.4-3.4 0-6.4 4.3-4.6 6.5.7.8 2.1 1.5 3.1 1.5 1.1 0 1.9.7 1.9 1.5 0 1-1 1.5-2.9 1.5-3.1 0-6.1-3.4-6.1-6.9 0-3.1 4.7-8 8.5-8.7 11-2 17.5 10.8 10.4 20.8-2.6 3.6-1.1 3.6 2.3 0 5.8-6.2 6.3-11.4 1.8-18.1a16 16 0 0 1-3-6.5c.1-3.9 4.7-7.8 8.1-6.9 2.5.7 2.4 2.3 0 2.3-2.5 0-5.1 2.6-5.1 5.1 0 1.1 1.4 2.8 3.2 3.9 3 1.8 4.4 1.9 10 .3 2.8-.7 4.2-7 2.6-11.8-1.6-5-4.8-6.7-11.2-6.2-4.6.4-5.3.9-11.6 7.6-5.6 6-7.2 7.1-9.9 7.1-3.4 0-7.1-1.5-7.1-2.9 0-.4 1.7-1.3 3.8-1.9 2-.7 6-3.2 8.7-5.7l5-4.4-11.5.1c-6.3 0-10.3.3-8.8.5 3.5.5 2.8 2.3-2.2 5.8-3.3 2.3-3.7 2.9-2.5 4.1a12 12 0 0 1 2 4.4c.4 1.6 1.1 3.2 1.6 3.5 2.5 1.6.6 2.7-3.7 2.2-7.5-.8-12.1-7-7.6-10.3.9-.7 2.6-1.4 3.7-1.4 1.7 0 1.7-.2.5-1-1.8-1.1-2.2-5-.8-6.8 1.3-1.6-.2-1.6-3.6-.1-2 1-2.9.9-4.3-.2-1.8-1.5-1.8-1.6.4 3.8.5 1.2.2 1.5-1 1-2.1-.8-2.1-.3-.1 1.8 1.5 1.4 1.4 2.1-1.2 8.2-1.6 3.7-3 6-3.2 5a17 17 0 0 1 2.2-6.7c1.4-2.7 2.1-5 1.6-5s-1.1.4-1.5.9c-1.2 2-6.2-1-9-5.4L82.7 67h-7.8c-7 0-7.9.2-7.9 1.9zm36.8 19.9c1 2.1.3 12.2-.9 12.2-.4 0-2.7-1.8-4.9-3.9-3.3-3.1-4.1-4.5-3.8-6.7a5 5 0 0 1 9.6-1.6z"/>
		<path class="face node" d="M160 68.9c0 .6.4 1.2.9 1.6.6.3 1.3 2.5 1.6 4.9.5 3.3.2 5.2-1.3 8.3-2.6 5-4.4 6.5-8.9 7.2-3.6.6-3.6.7-3.8 5.8-.4 10-6.7 14.5-19 13.6a39 39 0 0 1-8.9-1.5c-1.7-.9-1.7-.7.3 2.6 2 3.1 2.1 4 1.1 7-.6 1.9-2.5 5.4-4.3 7.8-2.2 3.1-3.4 6-4 10.3-1.9 14.2-1.9 13.8.9 16.9 2.1 2.4 3.6 3 7.8 3.4 4.4.3 5.4.1 7.3-2 3.6-3.9 3.5-10-.2-12.4-4.9-3.2-10.3 2.4-6.3 6.4 1.6 1.6.1 2.9-2 1.6-5.1-3.2-3.2-10.2 3.2-12.4 4.5-1.5 9.7.8 12.6 5.5 3.7 5.9 1.8 12.3-5.2 17.5-6.3 4.8-16.2 2.1-20.2-5.4-1.1-2-2.2-3.6-2.5-3.6-.3 0-1.4 1.1-2.3 2.4-1.7 2.3-1.6 2.4 2.3 4.1 7.8 3.5 12.9 12.5 11.4 20.1-.3 1.9-2 4.7-3.8 6.4l-3.2 3h2.6c1.4 0 3-.5 3.7-1.2 2.1-2.1 2.5.1.7 3.9-4 8.5-8.8 12.2-14 10.9-3.1-.8-3.2-3-.3-5 2.6-1.8 1.7-2.1-1.4-.5-2.8 1.5-3.2.6-1.4-2.9 1.5-3 .7-5.2-1.9-5.2-1.4 0-5.8-4.7-7.4-7.7-2.7-5.3.5-14.7 5.5-15.9 5.8-1.5 11.3 3.2 9.9 8.4-.5 1.8-.9 2.2-1.3 1.2-.8-2.5-4.5-6-6.3-6-2.3 0-3.9 2.2-4.6 6.4-.5 3-.1 4 2.5 6.6 2.5 2.4 3.9 3 7.4 3 6.2 0 8.8-2.9 8.8-9.7 0-4.6-.4-5.4-3.5-8.2-4.6-4-10.5-5.6-15.1-4.1-5 1.7-6.4 4.4-6.4 12 0 5.3.5 7.5 3 12 8.9 16.2 9.3 17.2 9.3 24a25 25 0 0 1-5 16.2c-1.4 1.5-1.4 1.8-.1 1.8 3 0 8.8-7.2 10.4-12.9 2.6-8.7 2.8-9 3.2-3.2.4 7-1 10.3-6.7 15.2l-4.6 4.1 3.5-.7c7.2-1.4 11-2.9 13.1-5.1 1.3-1.3 1.8-2.4 1.1-2.4-2.9 0-4.2-3.2-4-10.2.1-6.8.3-7.4 6.2-17.1a72.5 72.5 0 0 1 7.8-11.1c1.2-.7 5.4-.6 14.1.2 17 1.7 19.7.4 19.7-9.7 0-2.5.7-4.4 1.9-5.5 1-1 2.2-3.3 2.5-5.2.4-1.9 1.1-3.4 1.6-3.4 1.8 0 4-3.3 4-6.1 0-1.6.5-2.9 1.3-2.9.6 0 2.8-1.4 4.7-2.9l3.5-2.9-8.3-8a39.8 39.8 0 0 1-8.3-9.9l-.3-17.3a108 108 0 0 0-1-17.3c-1.6-3.3 2.5-1.8 7 2.6 5 5 6.1 8.4 4.2 12.4-1 2.1-2.1 2.8-4.1 2.8-2.9-.1-3.5 1.3-1.5 3.3 4.2 4.2 10.8-2.3 10.8-10.5 0-5-3.4-13.7-6.9-17.7-1.2-1.4-1.3-2-.3-2.3.6-.3 1.2-1.2 1.2-2.1.1-2.3 2.9-5.6 6.1-6.9 1.9-.8 3.9-.8 7.9.3 2.9.8 5.5 1.2 5.7 1 .7-.7-11.5-4.6-20.7-6.6-10.5-2.2-13-2.4-13-1.1zm-6 59.5c0 .8-.9 3.4-1.9 5.9-3 7.1-10.2 11.3-11.8 6.9-.4-.9-1.2-2-1.8-2.4-1.9-1.1-.6-5.6 2.3-7.8 1.5-1.2 4-2 6.3-2 2.1 0 4.1-.5 4.4-1 .9-1.5 2.5-1.2 2.5.4zM142 164c1.1.6 2.5 2.9 3.1 5.3.7 2.3 1.7 4.8 2.2 5.4 1.2 1.6-1.3 1.7-6.5.3-6.1-1.7-10.2-8.6-5.8-9.7 1.1-.3 1.7-.9 1.4-1.4-.7-1.2 3.3-1.1 5.6.1z"/>
		<path class="leafs node" d="M140.5 137c-.3.6.1.7.9.4 1.8-.7 2.1-1.4.7-1.4-.6 0-1.3.4-1.6 1zM178.2 79.2c-1.8 1.8-1.4 6.3.7 8.2 1.4 1.3 2.4 1.4 4.5.7 3-1.2 3.5-4.4.9-6.1-1.6-.9-1.5-1 .7-.8 2.3.3 2.5.8 3 5.7.3 3.3 1 5.6 1.8 5.9 1.1.3 1.2 0 .3-1.6-1.3-2.5-1.4-7.2-.1-9.2 1.9-3.1-8.9-5.7-11.8-2.8zM195.4 83.1c-2 4-1.1 7.7 2.2 8.5 4.3 1.1 8.8-4.7 4.8-6.3-.9-.3-2.5-.1-3.5.6-3.1 1.9-2.4-1.4.9-3.8l2.7-2-2.7-.1c-2.1 0-3.1.8-4.4 3.1z"/>
		<path d="M208 87.3c0 .8 1.6 2.5 3.5 3.7 2.7 1.7 3.5 2.8 3.5 5.1 0 1.6-.5 2.9-1.1 2.9-.7 0-1.7.8-2.4 1.7-1.1 1.5-1.5 1.4-3.9-1-1.4-1.4-2.6-3.5-2.6-4.7 0-2-.1-2-3.2-.4-1.8 1-5.4 1.8-7.9 1.8l-4.6.1 4.2 6c2.4 3.3 5.4 8.5 6.7 11.5 2.1 4.6 6 19.5 7 26.5.2 1.5 1.2 2.1 3.8 2.3 1.9.2 4 1 4.6 1.7.9 1.2 1.7.6 4.2-3.5 4-6.5 6-6.5 2.7 0a23.5 23.5 0 0 0-2.5 6.6c0 2.2 2.7 7.7 5.1 10.3 1.9 2 2.1 2.1 4.4.4a11 11 0 0 0 4.5-8.7c0-2.2-.2-2.3-3.9-1.3-5 1.3-7.2-.2-6.7-4.4.2-1.7.5-3.1.7-3.2l2.1-1.5c1.4-1.1 2.2-1 4.7.3l3.1 1.6-.1-2.8c0-4.7-2.6-16.5-4.7-22.3-2.2-5.8-2.2-5.8-8.8-4.4-2.1.4-3.4.1-4.4-1.1-1.1-1.3-1.1-1.8-.1-2.4 1-.6.9-.9-.2-1.4-2-.8-2.7.1-2.7 3.4 0 3 2.9 9.9 4.1 9.9.4 0 .9.7 1.3 1.5 1.3 3.4-5.3-2.9-7-6.6-1.5-3.6-4-5.8-2.8-2.5.3.7-.2 1.6-1.1 2-1.9.7-7.5-4.4-7.5-6.8 0-2.1 5.7-2.2 8-.1 1.5 1.3 1.9 1.1 3.8-2.4 2.3-4 6.3-7 4.2-3.1-1.5 2.9-1.2 3.2 1.5 1.4 1.3-.8 2.9-1.3 3.5-.9 4.2 2.6-5.6-10.8-11.3-15.4-1.5-1.1-1.7-1.1-1.7.2zm7 35.5c0 .4 1.8 1.8 4 3.2 3.3 2.1 4 3 4 5.7 0 2.2-.5 3.3-1.4 3.3-.8 0-1.7.7-2 1.5-.5 1.4-.9 1.4-3.5.1a8.4 8.4 0 0 1-3.5-3.8c-.8-3.1-.8-9.3.1-10.1.9-.9 2.3-.9 2.3.1zM108.2 110.9c-2.1 1.3-1.1 8.5 1.2 9 1.1.2 2.6-.5 3.3-1.5.7-1 1.6-1.5 1.9-1.1 1.1 1.1-.2 3.2-2.9 4.6-2.2 1.2-2.8 1.1-5.5-.9-2.5-1.9-3.7-2.1-6.9-1.4l-3.8.8 3.5.3c5.9.6 7.6 1.2 10.1 3.7 2.3 2.3 2.5 2.3 4.4.8 5.4-4.5 7.1-10.5 3.7-13.5-2-1.8-6.8-2.2-9-.8zM96 128.9c-1.7 3.2-1.2 6.9 1.1 8.1 2.9 1.6 5.2-.5 4.5-4.2-.7-3.7.9-3.6 2.9.2 1.8 3.5.9 6-3 8.6-2.7 1.8-5.2 1.3-8.3-1.7l-2.2-2v10.6c0 5.8.2 10.5.5 10.5 1.9 0 8.7-4.4 10.3-6.7 6.4-9.2 8-17.8 4.1-22.7-2.6-3.3-8.3-3.7-9.9-.7z"/>
		<path class="topLetter node" d="M215.7 150c-.3 1.2-1.4 2-2.7 2-1.1 0-1.9.4-1.5 1 .3.5-.2 4-1.1 7.8-2.8 11.7-.3 17.2 7.7 17.2 4 0 8.4-2.8 9.4-6 .8-2.6-2.4-7.9-5.2-8.6-4.3-1.1-5.8-.1-5.7 3.9.1 3.6.1 3.7-1.7 2.1-2.4-2.2-2.4-3.5.2-6.8 1.5-1.9 2.9-2.6 5.6-2.6h3.6l-2-2.3a29.6 29.6 0 0 1-3.7-6c-2-4.3-2.2-4.4-2.9-1.7zM230.9 162.3c-1.4 1.1-1.4 1.6.2 5.2 1.3 2.9 1.8 3.4 1.8 1.9l.7-5.3c.7-3.3-.1-3.8-2.7-1.8zM204 174.5c0 .8.9 1.9 2 2.5 1.8 1 1.9.9.8-1.5-1.2-2.7-2.8-3.3-2.8-1z"/>
		<path class="branch node" d="M227.9 178.3c-3.5 4-3.8 4.2-9.6 4.2-5.4 0-5.9.1-5 1.7.8 1.2.8 2.4 0 4.1-.9 1.9-1.8 2.3-4.2 2.2-4.2-.2-4.9-1.1-5.3-6.7l-.3-4.6-3.2 7.4-3.1 7.4 2.4-.6c1.8-.5 2.4-.2 2.4 1 0 .9.7 1.6 1.5 1.6 1.7 0 2 2.3.5 5-1 1.9-10.7 5.7-11.7 4.6-.4-.3-.1-1.8.6-3.2 1.6-3.6.8-4.1-1.7-.9l-2.1 2.6 2.5 3.6c1.3 2 2.4 5 2.4 6.7 0 3.4-3.3 9.6-5.2 9.6-.6 0-.9.3-.6.6 1.2 1.1 6.7-2.6 8.7-6a49.6 49.6 0 0 1 13-12.5c1.6-.9 2.1-2.1 2.1-4.9 0-2.1.5-4.3 1.2-5 .9-.9.5-1.2-2-1.2-2.7 0-9.2-2.3-9.2-3.3 0-.1 3.1-.1 6.9.1l6.9.4 4.6-4.8c4.5-4.7 4.6-4.7 3.5-1.6-.6 1.8-2.9 4.8-5.2 6.7-3.4 2.9-3.7 3.5-2 3.5 1.2 0 2.4.7 2.7 1.6.5 1.4.9 1.3 2.4-.7 3-4 10.8-21.6 10-22.4a18 18 0 0 0-3.9 3.8zM91 203c-.1 16.7-1.5 21-8.2 24l-4.3 2h7.1c8.2 0 9.4-.8 12.5-8.9 3.5-9.2 2.4-15.1-5.1-27.4l-2-3.2V203z"/>
		<path class="bottomLetter node" d="M182.5 210.3c-4.9 5.3-5 12.7-.2 12.7 5.8 0 9.1-6.4 6.2-11.9-1.8-3.6-3.2-3.8-6-.8zM208.8 210.5a17 17 0 0 0-4.9 4.7c-.7 1.4.6.6 4-2.2 4.6-3.9 5.7-5 4.8-5a40 40 0 0 0-3.9 2.5z"/>
		<path class="leafs node" d="M173.3 216.7c-1.7.6-1.6 3.8.2 7.3 1.9 3.6 4 4.8 7.2 4.2l2.5-.5-3-1.3c-4.3-1.7-6.7-5.6-5.2-8.3 1.1-2.1.7-2.4-1.7-1.4zM165.5 221c.3.5 1.3 1 2.1 1s1.2-.5.9-1c-.3-.6-1.3-1-2.1-1s-1.2.4-.9 1zM121.9 225.6c-2.3 2.8-9.3 5.7-15.4 6.4-4.8.6-3.3.8 7.3.9l13.2.1v-2.6c0-1.4.5-3.4 1-4.5.9-1.7.7-1.9-1.8-1.9-1.6 0-3.5.7-4.3 1.6zM131.2 226.2c-.7.7-1.2 2.5-1.2 4 0 2.7.2 2.8 4.5 2.8 4.9 0 6.3-2.2 2.3-3.5-2.1-.7-2.2-.7-.4-1.2 1.2-.3 2.5.2 3.3 1.3 1.2 1.7 1.4 1.7 2.7-.1 1.3-1.8 1.1-2.1-1.6-3.2-3.8-1.6-8-1.7-9.6-.1zM150.9 227.5c-2.6 1.4-4.5 4.3-3.4 5.3.3.3 1.5-.4 2.8-1.6 2.7-2.5 7.5-2.9 8.3-.7.7 1.8 7.1 2 10.9.3 3.6-1.6 3.1-2.4-1.9-3.7-6.1-1.5-13.5-1.3-16.7.4zM67 231.4c0 1.4 1.8 1.6 15.8 1.4 15-.1 15.3-.2 6.7-.9l-15.7-1.4c-5.9-.6-6.8-.5-6.8.9z"/>
		<path class="leafs node" d="M152.8 232.7c.7.3 1.6.2 1.9-.1.4-.3-.2-.6-1.3-.5-1.1 0-1.4.3-.6.6z"/>
	</g>
	<g class="innerLeafs trans" fill="transparent">
		<path d="M96.9 86.3c-4.1 2.1-3.7 6.2 1.1 10.8 2.2 2.1 4.5 3.9 4.9 3.9 1.2 0 1.9-10.1.9-12.2-1.4-2.8-4.1-3.8-6.9-2.5zM151.5 128c-.3.5-2.3 1-4.4 1-2.3 0-4.8.8-6.3 2-2.9 2.2-4.2 6.7-2.3 7.8.6.4 1.4 1.5 1.8 2.4 1.6 4.4 8.8.2 11.8-6.9 1-2.5 1.9-5.1 1.9-5.9 0-1.6-1.6-1.9-2.5-.4zm-8.5 8.4c0 .2-.7.7-1.6 1-.8.3-1.2.2-.9-.4.6-1 2.5-1.4 2.5-.6zM136.4 163.9c.3.5-.3 1.1-1.4 1.4-4.4 1.1-.3 8 5.8 9.7 5.2 1.4 7.7 1.3 6.5-.3-.5-.6-1.5-3.1-2.2-5.4-.6-2.4-2-4.7-3.1-5.3-2.3-1.2-6.3-1.3-5.6-.1zM212.7 122.7c-.9.8-.9 7-.1 10.1.4 1.2 2 3 3.5 3.8 2.6 1.3 3 1.3 3.5-.1.3-.8 1.2-1.5 2-1.5.9 0 1.4-1.1 1.4-3.3 0-2.7-.7-3.6-4-5.7-2.2-1.4-4-2.8-4-3.2 0-1-1.4-1-2.3-.1z"/>
	</g>
</svg>
