<?xml version="1.0" encoding="UTF-8"?>
<!-- Generator: Adobe Illustrator 20.1.0, SVG Export Plug-In . SVG Version: 6.00 Build 0)  -->
<svg version="1.1" id="Layer_1" xmlns="http://www.w3.org/2000/svg" xmlns:xlink="http://www.w3.org/1999/xlink" x="0px" y="0px" viewBox="0 0 245.1 100.8" enable-background="new 0 0 245.1 100.8" xml:space="preserve">
<g>
	<g>
		<g>
			<g>
				<g>
					<path fill="#6D6E71" d="M152,17.7c0-3.3,3-3.2,3-3.2h14.7h0.8c0,0,0,0,0,0c0,0.3,0,1.5,0,1.7c0,0.6-0.6,1.4-1.5,1.4       c-3.2,0-9.4,0-12.2,0c-0.2,0-1.5,0.2-1.5,1.5c0,2.1,0,8.6,0,8.6h11.6c0,0,0,1.5,0,1.5c0,1.4-1,1.6-1.5,1.6       c-2.7,0-10.1,0-10.1,0s0,8.4,0,11.2c0,0.5,0.4,1.5,1.5,1.5c3.7,0,13.8,0,13.8,0s0,1.7,0,1.7c0,0.6-0.7,1.4-1.5,1.4       c-3.5,0-10.2,0-14,0c-0.3,0-3-0.5-3-2.9C152,37.2,152,23,152,17.7z"/>
				</g>
				<path fill="#6D6E71" d="M117.9,21.3c-1.8-2.7-4.2-4.6-7.3-5.7c-2.2-0.8-5.7-1.2-10.5-1.2h-3.4c0,0-3.3-0.1-3.3,3.3      c0,2.3,0,13.3,0,15.7c0,0.3,0,0.5,0,0.5v9.9c0,0,0.3,2.8,3,2.8c4.6,0,7.2,0,7.2,0c4,0,7.1-0.6,9.4-1.8c2.2-1.2,4-3,5.4-5.4      c1.4-2.5,2.1-5.3,2.1-8.5C120.5,27.3,119.6,24,117.9,21.3z M115.2,38.6c-1.4,2.1-3.3,3.5-5.7,4.3c-1.7,0.6-4.8,0.8-9.3,0.8h-1.9      c0,0-1.8,0.1-1.8-1c0-0.1,0-0.5,0-0.5v-6V34v-0.5v-8.1c0,0,0-4.9,0-6.6c0-0.9,1.1-1.2,1.1-1.2h1.2c4.6,0,8,0.3,10,0.9      c2.7,0.8,4.8,2.3,6.3,4.5c1.5,2.2,2.3,4.9,2.3,8C117.2,34,116.5,36.5,115.2,38.6z"/>
				<path fill="#6D6E71" d="M145.6,45.3l-9.7-13.6c2.2-0.1,4-0.4,5.3-1c1.5-0.7,2.7-1.7,3.5-3c0.8-1.3,1.2-2.9,1.2-4.6      c0-2.1-0.6-3.9-1.8-5.3c-1.2-1.4-2.8-2.4-4.7-2.8c-1.3-0.3-3.7-0.4-7.3-0.4h-3.4c0,0-3,0-3,3.5v0.8v26.5v1.6l0,0      c3.2,0,3.2-3,3.2-3V32.6v-0.9v-3.2v-9.3c0,0,0-1.6,1.4-1.6c2.2,0,4.3,0,4.3,0c2.2,0,3.8,0.2,4.7,0.6c1,0.4,1.7,1,2.3,1.9      c0.6,0.9,0.9,1.9,0.9,2.9c0,1.1-0.3,2.1-0.9,3c-0.6,0.9-1.4,1.6-2.4,2c-1,0.4-2.6,0.6-4.8,0.6c0,0-0.6,0-0.8,0      c-0.9,0-1.6,0.6-1.6,1.6c0,0.7,0,1.5,0,1.5s7.3,10.6,9.8,14.1c0.3,0.4,0.7,0.8,1.6,0.8c1.2,0,2.9,0,2.9,0L145.6,45.3z"/>
				<path fill="#6D6E71" d="M190.9,15.3c0,0-0.4-0.9-1.4-0.9c-1,0-1.5,0.9-1.5,0.9l-14.2,31.5c0,0,0.8,0,2.2,0c1.2,0,2.2-2,2.6-2.5      c0.8-1.2,2.4-3.1,4.8-5c2.4-1.8,5.6-3.4,10.5-4.1c-0.5-1.4-0.9-2.4-0.9-2.4c-6.6,0.2-10.5,3.3-10.5,3.3l2.4-5.2l4.6-11L195,33      l1.4,3.1l4.6,9.6c0,0,0.4,0.9,1.6,0.9c0.9,0,2.3,0,2.3,0L190.9,15.3z"/>
				<path fill="#6D6E71" d="M234.1,14.4l-11.7,17.3l-11.7-17.3c0,0-0.7,0-1.1,0c-0.9,0-1.5,0.7-1.5,1.5c0,7.7,0,30.8,0,30.8      s3.1,0,3.1-3.2c0-5.2,0-22.8,0-22.8s7.5,10.8,9.8,14.5c0.2,0.4,0.5,1,1.4,1c0.6,0,1-0.3,1.4-0.9c2.4-3.7,9.8-14.6,9.8-14.6      s0,16.6,0,22.8c0,2,1.5,3.2,3,3.2c0.4,0,0.1,0,0.1,0V16c0,0-0.1-1.5-1.5-1.5C234.6,14.4,234.1,14.4,234.1,14.4z"/>
			</g>
			<g>
				<path fill="#6D6E71" d="M93.3,59.4h2.1c1.2,0,2,0.1,2.5,0.2c0.6,0.2,1.1,0.5,1.5,0.9c0.4,0.5,0.6,1,0.6,1.7      c0,0.7-0.2,1.3-0.6,1.8c-0.4,0.5-0.9,0.8-1.5,0.9c-0.5,0.1-1.4,0.2-2.7,0.2h-0.8V70h-1.1V59.4z M94.4,60.5v3.6l1.8,0      c0.7,0,1.3-0.1,1.6-0.2c0.3-0.1,0.6-0.3,0.8-0.6c0.2-0.3,0.3-0.6,0.3-1c0-0.4-0.1-0.7-0.3-1c-0.2-0.3-0.4-0.5-0.8-0.6      c-0.3-0.1-0.8-0.2-1.5-0.2H94.4z"/>
				<path fill="#6D6E71" d="M102.1,59.4h1.1v4.5h5.4v-4.5h1.1V70h-1.1v-5.1h-5.4V70h-1.1V59.4z"/>
				<path fill="#6D6E71" d="M117.3,59.2c1.6,0,3,0.5,4,1.6c1.1,1.1,1.6,2.4,1.6,4c0,1.6-0.5,2.9-1.6,4c-1.1,1.1-2.4,1.6-4,1.6      c-1.6,0-2.9-0.5-4-1.6c-1.1-1.1-1.6-2.4-1.6-3.9c0-1,0.2-2,0.7-2.8c0.5-0.9,1.2-1.6,2-2C115.3,59.4,116.3,59.2,117.3,59.2z       M117.3,60.2c-0.8,0-1.5,0.2-2.2,0.6c-0.7,0.4-1.3,1-1.6,1.7c-0.4,0.7-0.6,1.5-0.6,2.3c0,1.3,0.4,2.3,1.3,3.2s1.9,1.3,3.2,1.3      c0.8,0,1.6-0.2,2.3-0.6c0.7-0.4,1.2-0.9,1.6-1.6c0.4-0.7,0.6-1.5,0.6-2.3c0-0.8-0.2-1.6-0.6-2.3c-0.4-0.7-0.9-1.2-1.7-1.6      C118.9,60.4,118.1,60.2,117.3,60.2z"/>
				<path fill="#6D6E71" d="M124,60.5v-1h5.8v1h-2.4V70h-1.1v-9.6H124z"/>
				<path fill="#6D6E71" d="M136.4,59.2c1.6,0,3,0.5,4,1.6c1.1,1.1,1.6,2.4,1.6,4c0,1.6-0.5,2.9-1.6,4c-1.1,1.1-2.4,1.6-4,1.6      c-1.6,0-2.9-0.5-4-1.6c-1.1-1.1-1.6-2.4-1.6-3.9c0-1,0.2-2,0.7-2.8c0.5-0.9,1.2-1.6,2-2C134.5,59.4,135.4,59.2,136.4,59.2z       M136.4,60.2c-0.8,0-1.5,0.2-2.2,0.6c-0.7,0.4-1.3,1-1.6,1.7c-0.4,0.7-0.6,1.5-0.6,2.3c0,1.3,0.4,2.3,1.3,3.2      c0.9,0.9,1.9,1.3,3.2,1.3c0.8,0,1.6-0.2,2.3-0.6c0.7-0.4,1.2-0.9,1.6-1.6c0.4-0.7,0.6-1.5,0.6-2.3c0-0.8-0.2-1.6-0.6-2.3      c-0.4-0.7-0.9-1.2-1.7-1.6C138,60.4,137.2,60.2,136.4,60.2z"/>
				<path fill="#6D6E71" d="M147.2,60.5v-1h5.8v1h-2.4V70h-1.1v-9.6H147.2z"/>
				<path fill="#6D6E71" d="M159.6,59.2c1.6,0,3,0.5,4,1.6c1.1,1.1,1.6,2.4,1.6,4c0,1.6-0.5,2.9-1.6,4c-1.1,1.1-2.4,1.6-4,1.6      c-1.6,0-2.9-0.5-4-1.6c-1.1-1.1-1.6-2.4-1.6-3.9c0-1,0.2-2,0.7-2.8c0.5-0.9,1.2-1.6,2-2C157.7,59.4,158.6,59.2,159.6,59.2z       M159.7,60.2c-0.8,0-1.5,0.2-2.2,0.6c-0.7,0.4-1.3,1-1.6,1.7c-0.4,0.7-0.6,1.5-0.6,2.3c0,1.3,0.4,2.3,1.3,3.2      c0.9,0.9,1.9,1.3,3.2,1.3c0.8,0,1.6-0.2,2.3-0.6c0.7-0.4,1.2-0.9,1.6-1.6c0.4-0.7,0.6-1.5,0.6-2.3c0-0.8-0.2-1.6-0.6-2.3      c-0.4-0.7-0.9-1.2-1.7-1.6C161.2,60.4,160.5,60.2,159.7,60.2z"/>
				<path fill="#6D6E71" d="M167.5,59.4h1.1v6.4c0,0.8,0,1.2,0,1.4c0.1,0.4,0.2,0.8,0.4,1c0.2,0.3,0.5,0.5,0.9,0.7      c0.4,0.2,0.8,0.3,1.2,0.3c0.4,0,0.7-0.1,1-0.2c0.3-0.1,0.6-0.4,0.8-0.6c0.2-0.3,0.4-0.6,0.5-1c0.1-0.3,0.1-0.8,0.1-1.7v-6.4h1.1      v6.4c0,0.9-0.1,1.7-0.3,2.3c-0.2,0.6-0.6,1.1-1.1,1.5c-0.6,0.4-1.2,0.6-2,0.6c-0.9,0-1.6-0.2-2.2-0.6c-0.6-0.4-1-0.9-1.2-1.6      c-0.1-0.4-0.2-1.2-0.2-2.2V59.4z"/>
				<path fill="#6D6E71" d="M177.1,59.4h2.1c1.2,0,2,0,2.4,0.1c0.6,0.1,1.1,0.5,1.5,0.9c0.4,0.5,0.6,1.1,0.6,1.8      c0,0.6-0.1,1.1-0.4,1.5c-0.3,0.4-0.7,0.8-1.2,1c-0.5,0.2-1.2,0.3-2.1,0.3l3.8,4.9h-1.3l-3.8-4.9h-0.6V70h-1.1V59.4z M178.2,60.5      v3.6l1.8,0c0.7,0,1.2-0.1,1.6-0.2c0.3-0.1,0.6-0.3,0.8-0.6c0.2-0.3,0.3-0.6,0.3-1c0-0.4-0.1-0.7-0.3-1c-0.2-0.3-0.4-0.5-0.8-0.6      c-0.3-0.1-0.8-0.2-1.6-0.2H178.2z"/>
				<path fill="#6D6E71" d="M185,68.1l0.9-0.5c0.6,1.2,1.4,1.8,2.2,1.8c0.4,0,0.7-0.1,1-0.2c0.3-0.2,0.6-0.4,0.7-0.7      c0.2-0.3,0.2-0.6,0.2-0.9c0-0.4-0.1-0.7-0.4-1c-0.3-0.5-0.9-1-1.8-1.7c-0.9-0.7-1.4-1.1-1.7-1.5c-0.4-0.5-0.6-1-0.6-1.6      c0-0.5,0.1-0.9,0.3-1.3c0.2-0.4,0.5-0.7,0.9-0.9c0.4-0.2,0.8-0.3,1.3-0.3c0.5,0,1,0.1,1.4,0.4c0.4,0.2,0.9,0.7,1.4,1.4l-0.9,0.7      c-0.4-0.5-0.7-0.9-1-1c-0.3-0.2-0.6-0.3-0.9-0.3c-0.4,0-0.8,0.1-1,0.4c-0.3,0.3-0.4,0.6-0.4,1c0,0.2,0,0.5,0.1,0.7      c0.1,0.2,0.3,0.5,0.5,0.7c0.1,0.1,0.6,0.5,1.4,1.1c0.9,0.7,1.5,1.3,1.9,1.8c0.3,0.5,0.5,1.1,0.5,1.6c0,0.8-0.3,1.4-0.9,2      c-0.6,0.6-1.3,0.9-2.1,0.9c-0.6,0-1.2-0.2-1.8-0.5C185.9,69.5,185.4,68.9,185,68.1z"/>
			</g>
		</g>
		<g>
			<linearGradient id="SVGID_1_" gradientUnits="userSpaceOnUse" x1="14.27" y1="65.6983" x2="16.3831" y2="64.2398">
				<stop offset="4.639390e-02" style="stop-color:#C42B28"/>
				<stop offset="8.095451e-02" style="stop-color:#CA3F28"/>
				<stop offset="0.1631" style="stop-color:#D86027"/>
				<stop offset="0.245" style="stop-color:#E37726"/>
				<stop offset="0.3257" style="stop-color:#ED8825"/>
				<stop offset="0.4045" style="stop-color:#F49324"/>
				<stop offset="0.4794" style="stop-color:#F89623"/>
				<stop offset="0.5793" style="stop-color:#F8A720"/>
				<stop offset="0.7603" style="stop-color:#FAC116"/>
				<stop offset="0.907" style="stop-color:#FCD009"/>
				<stop offset="1" style="stop-color:#FCD602"/>
			</linearGradient>
			<path fill="url(#SVGID_1_)" d="M13.1,66.6c0,0,1.3-0.3,2-0.6c0.7-0.3-0.7-1.3-0.7-1.3l-1.5,1.3C12.8,66.1,12.7,66.8,13.1,66.6z"/>
			
				<linearGradient id="SVGID_2_" gradientUnits="userSpaceOnUse" x1="1759.8192" y1="946.0444" x2="1761.9321" y2="944.5859" gradientTransform="matrix(-0.5 -0.866 0.866 -0.5 134.5595 2050.762)">
				<stop offset="4.639390e-02" style="stop-color:#C42B28"/>
				<stop offset="8.095451e-02" style="stop-color:#CA3F28"/>
				<stop offset="0.1631" style="stop-color:#D86027"/>
				<stop offset="0.245" style="stop-color:#E37726"/>
				<stop offset="0.3257" style="stop-color:#ED8825"/>
				<stop offset="0.4045" style="stop-color:#F49324"/>
				<stop offset="0.4794" style="stop-color:#F89623"/>
				<stop offset="0.5793" style="stop-color:#F8A720"/>
				<stop offset="0.7603" style="stop-color:#FAC116"/>
				<stop offset="0.907" style="stop-color:#FCD009"/>
				<stop offset="1" style="stop-color:#FCD602"/>
			</linearGradient>
			<path fill="url(#SVGID_2_)" d="M75.3,54.3c0,0-1-1-1.5-1.4c-0.6-0.5-0.7,1.3-0.7,1.3l1.9,0.7C75,54.8,75.6,54.6,75.3,54.3z"/>
			
				<linearGradient id="SVGID_3_" gradientUnits="userSpaceOnUse" x1="266.0465" y1="1863.207" x2="268.1596" y2="1861.7484" gradientTransform="matrix(-0.5 0.866 -0.866 -0.5 1780.0571 708.8638)">
				<stop offset="4.639390e-02" style="stop-color:#C42B28"/>
				<stop offset="8.095451e-02" style="stop-color:#CA3F28"/>
				<stop offset="0.1631" style="stop-color:#D86027"/>
				<stop offset="0.245" style="stop-color:#E37726"/>
				<stop offset="0.3257" style="stop-color:#ED8825"/>
				<stop offset="0.4045" style="stop-color:#F49324"/>
				<stop offset="0.4794" style="stop-color:#F89623"/>
				<stop offset="0.5793" style="stop-color:#F8A720"/>
				<stop offset="0.7603" style="stop-color:#FAC116"/>
				<stop offset="0.907" style="stop-color:#FCD009"/>
				<stop offset="1" style="stop-color:#FCD602"/>
			</linearGradient>
			<path fill="url(#SVGID_3_)" d="M33.3,6.1c0,0-0.4,1.3-0.5,2c-0.1,0.7,1.5,0,1.5,0l-0.4-2C33.9,6.2,33.4,5.8,33.3,6.1z"/>
			<g>
				<linearGradient id="SVGID_4_" gradientUnits="userSpaceOnUse" x1="37.8768" y1="71.9525" x2="6.7412" y2="25.0949">
					<stop offset="0" style="stop-color:#2F788D"/>
					<stop offset="0.1435" style="stop-color:#40939F"/>
					<stop offset="0.2824" style="stop-color:#4FABAE"/>
					<stop offset="0.3961" style="stop-color:#59BCB9"/>
					<stop offset="0.4706" style="stop-color:#5BC4BF"/>
					<stop offset="0.5561" style="stop-color:#5DC4BD"/>
					<stop offset="0.6155" style="stop-color:#63C4B6"/>
					<stop offset="0.6669" style="stop-color:#6DC5AC"/>
					<stop offset="0.7138" style="stop-color:#78C59D"/>
					<stop offset="0.7576" style="stop-color:#86C68A"/>
					<stop offset="0.7992" style="stop-color:#95C770"/>
					<stop offset="0.8382" style="stop-color:#A5CA4C"/>
					<stop offset="0.8601" style="stop-color:#AFCB36"/>
					<stop offset="1" style="stop-color:#D6DA24"/>
				</linearGradient>
				<path fill="url(#SVGID_4_)" d="M27.7,75c3.5,0.7,8.1,0.1,10.4-0.5c5.8-1.6,8.1-1.6,15.1-8c-5.6,4.4-9.1,4.9-13.3,4.9      c-1.5,0-3.9-0.2-7.2-1.7c-6.1-2.7-10.1-8.4-13.6-14.8c-3.1-5.7-5.9-10.2-5.9-19.3c0-3.2-0.1-7.5,0.7-10.6c0,0,0,0,0-0.1      c0.2-0.7,0.4-1.4,0.6-2.2c0-0.1,0.1-0.2,0.1-0.3c0.5-1.4,1.1-2.7,1.7-3.9c0.8-1.5,1.7-3.1,3-4.3c0,0,0.1-0.1,0.1-0.1      C10.3,20.9,5.1,31.3,5.3,43.1c0,0.7,0,1.4,0.1,2.1c0.2,3.2,0.8,6,1.5,8.3c0.6,1.8,1.3,3.3,1.9,4.5c1.2,2.4,2.6,4.7,4.3,6.7      c3.3,4.1,7.6,7.5,12.5,9.8c0.3,0.2,0.7,0.3,1.1,0.4C27,74.9,27.4,74.9,27.7,75z"/>
				<linearGradient id="SVGID_5_" gradientUnits="userSpaceOnUse" x1="71.222" y1="33.5671" x2="38.6125" y2="78.1434">
					<stop offset="0.1031" style="stop-color:#2F788D"/>
					<stop offset="0.1464" style="stop-color:#3B8A99"/>
					<stop offset="0.1987" style="stop-color:#469CA5"/>
					<stop offset="0.255" style="stop-color:#50ACAF"/>
					<stop offset="0.3166" style="stop-color:#57B8B7"/>
					<stop offset="0.3875" style="stop-color:#5BC1BC"/>
					<stop offset="0.4886" style="stop-color:#5BC4BF"/>
					<stop offset="0.5427" style="stop-color:#5EC4BC"/>
					<stop offset="0.5971" style="stop-color:#66C4B3"/>
					<stop offset="0.6517" style="stop-color:#72C5A5"/>
					<stop offset="0.7065" style="stop-color:#80C692"/>
					<stop offset="0.7614" style="stop-color:#90C779"/>
					<stop offset="0.8156" style="stop-color:#A3C953"/>
					<stop offset="0.8515" style="stop-color:#AFCB36"/>
					<stop offset="1" style="stop-color:#D6DA24"/>
				</linearGradient>
				<path fill="url(#SVGID_5_)" d="M63.6,24.4c-1.2-0.8-2.4-1.6-3.6-2.3c0.9,0.7,3.3,2.5,5.5,6c0.8,1.3,1.7,3.2,2.1,5.5      C68.6,39.8,67,46,62,54.9c-2.7,4.8-4.4,7.7-8.8,11.7c-7,6.4-9.3,6.4-15.1,8c-2.5,0.7-7.8,1.3-11.4,0.3c0,0-0.1,0-0.1,0      c10.8,4.8,21.2,4.5,33.9-3.2c2.8-1.7,4.9-3.7,6.5-5.6c1.2-1.4,2.1-2.7,2.8-3.8c1.5-2.2,2.7-4.6,3.7-7.1c1.5-4,2.3-8.4,2.3-12.7      C74,34.2,70.2,29,63.6,24.4z"/>
				<linearGradient id="SVGID_6_" gradientUnits="userSpaceOnUse" x1="15.2096" y1="24.7375" x2="69.7971" y2="24.7375">
					<stop offset="0" style="stop-color:#2F788D"/>
					<stop offset="8.007418e-02" style="stop-color:#3A8898"/>
					<stop offset="0.2008" style="stop-color:#489FA7"/>
					<stop offset="0.3151" style="stop-color:#53B2B3"/>
					<stop offset="0.4192" style="stop-color:#5ABEBB"/>
					<stop offset="0.5038" style="stop-color:#5BC4BF"/>
					<stop offset="0.6043" style="stop-color:#5DC4BD"/>
					<stop offset="0.6638" style="stop-color:#63C4B7"/>
					<stop offset="0.7125" style="stop-color:#6BC5AD"/>
					<stop offset="0.7554" style="stop-color:#76C59F"/>
					<stop offset="0.7946" style="stop-color:#83C68E"/>
					<stop offset="0.8309" style="stop-color:#91C777"/>
					<stop offset="0.8645" style="stop-color:#A1C957"/>
					<stop offset="0.8929" style="stop-color:#AFCB36"/>
					<stop offset="1" style="stop-color:#D6DA24"/>
				</linearGradient>
				<path fill="url(#SVGID_6_)" d="M43.2,7.2c-2.7-0.2-5.4,0-8.1,0.4c-5.3,0.9-10.3,2.9-14.7,6c-0.2,0.2-0.9,0.7-0.9,0.7      c0,0-0.4,0.4-0.4,0.4c-1.2,1.2-2.4,3-3.2,4.5c-0.7,1.3-2.9,4.8-2.6,14.8c0,0.8,0,2.1,0,2.1c0.1-0.6,0.6-4.3,1.9-7.1      c0.7-1.3,2.6-3.9,3.7-4.8c3.9-3.6,8.4-6.4,21.7-6.4c12.7,0,17,2.7,23,6.7c6.7,4.6,10.4,9.7,12.3,18      C76.6,30.3,68.3,10.3,43.2,7.2z"/>
				<g>
					<linearGradient id="SVGID_7_" gradientUnits="userSpaceOnUse" x1="39.6722" y1="12.1112" x2="25.2069" y2="54.1207">
						<stop offset="4.639390e-02" style="stop-color:#C42B28"/>
						<stop offset="8.654484e-02" style="stop-color:#CA3F28"/>
						<stop offset="0.182" style="stop-color:#D86027"/>
						<stop offset="0.2771" style="stop-color:#E37726"/>
						<stop offset="0.3709" style="stop-color:#ED8825"/>
						<stop offset="0.4625" style="stop-color:#F49324"/>
						<stop offset="0.5495" style="stop-color:#F89623"/>
						<stop offset="0.7004" style="stop-color:#F8A91F"/>
						<stop offset="1" style="stop-color:#FCD602"/>
					</linearGradient>
					<path fill="url(#SVGID_7_)" d="M46.1,6.1C46.5,16.9,43.5,29,37,40.4c-1.4,2.4-2.9,4.6-4.4,6.8c-5.1,0.6-10,1.7-14.5,3.2       c5.5-2.9,10.2-7.3,13.5-13.1c5.7-9.9,5.9-21.4,1.7-31c-0.2-0.5,2.3-2.1,6.2-2.4C44.1,3.6,46.1,5.7,46.1,6.1z"/>
				</g>
				<g>
					<linearGradient id="SVGID_8_" gradientUnits="userSpaceOnUse" x1="6.3856" y1="56.0509" x2="59.9375" y2="57.8459">
						<stop offset="4.639390e-02" style="stop-color:#C42B28"/>
						<stop offset="8.758768e-02" style="stop-color:#CA3F28"/>
						<stop offset="0.1855" style="stop-color:#D86027"/>
						<stop offset="0.2831" style="stop-color:#E37726"/>
						<stop offset="0.3793" style="stop-color:#ED8825"/>
						<stop offset="0.4733" style="stop-color:#F49324"/>
						<stop offset="0.5625" style="stop-color:#F89623"/>
						<stop offset="0.6427" style="stop-color:#F89D22"/>
						<stop offset="0.7759" style="stop-color:#F9AF1E"/>
						<stop offset="0.9446" style="stop-color:#FBCC0E"/>
						<stop offset="1" style="stop-color:#FCD602"/>
					</linearGradient>
					<path fill="url(#SVGID_8_)" d="M13.3,66.5c6.3-8.3,16.2-13.6,27.3-13.6c6.6,0,12.7,1.8,17.9,5c-3.5-3.1-6.9-6.7-9.9-10.8       c-2.6-0.3-5.3-0.4-8-0.4c-13.1,0-25.1,3.5-34.2,9.2c-0.3,0.2-1.7,1.9,1.1,6.6C10.2,67.3,12.9,67,13.3,66.5z"/>
				</g>
				<g>
					<linearGradient id="SVGID_9_" gradientUnits="userSpaceOnUse" x1="70.0684" y1="65.9676" x2="44.3969" y2="19.2514">
						<stop offset="4.639390e-02" style="stop-color:#C42B28"/>
						<stop offset="8.740795e-02" style="stop-color:#CA3F28"/>
						<stop offset="0.1849" style="stop-color:#D86027"/>
						<stop offset="0.2821" style="stop-color:#E37726"/>
						<stop offset="0.3778" style="stop-color:#ED8825"/>
						<stop offset="0.4714" style="stop-color:#F49324"/>
						<stop offset="0.5603" style="stop-color:#F89623"/>
						<stop offset="0.6388" style="stop-color:#F89C22"/>
						<stop offset="0.7626" style="stop-color:#F8AC1F"/>
						<stop offset="0.9153" style="stop-color:#FBC613"/>
						<stop offset="1" style="stop-color:#FCD602"/>
					</linearGradient>
					<path fill="url(#SVGID_9_)" d="M75.2,54.2C64.8,53,55.2,47,49.6,37.3c-3.2-5.6-4.7-11.8-4.6-17.8c-0.9,4.6-2.4,9.2-4.4,13.8       c1.1,2.4,2.3,4.8,3.6,7.2c6.5,11.3,15.5,19.9,25,25c0.3,0.2,3.6,0.5,6.2-5C77.2,56.7,75.8,54.3,75.2,54.2z"/>
				</g>
			</g>
		</g>
	</g>
</g>
</svg>