<?xml version="1.0" encoding="UTF-8" standalone="no"?>
<svg width="33px" height="33px" viewBox="0 0 33 33" version="1.1" xmlns="http://www.w3.org/2000/svg" xmlns:xlink="http://www.w3.org/1999/xlink">
    <!-- Generator: Sketch 39.1 (31720) - http://www.bohemiancoding.com/sketch -->
    <title>Combined Shape</title>
    <desc>Created with Sketch.</desc>
    <defs></defs>
    <g id="Symbols" stroke="none" stroke-width="1" fill="none" fill-rule="evenodd">
        <g id="Organism:-Footer---m" transform="translate(-424.000000, -108.000000)" fill="#FFFFFF">
            <g id="Footer">
                <g id="icon-facebook-+-icon-twitter-+-icon-youtube" transform="translate(314.000000, 108.000000)">
                    <path d="M126.5,33 C135.612698,33 143,25.6126984 143,16.5 C143,7.38730163 135.612698,0 126.5,0 C117.387302,0 110,7.38730163 110,16.5 C110,25.6126984 117.387302,33 126.5,33 Z M119.660096,10.2091912 C119.660096,10.2091912 121.965033,10 126.41243,10 C130.859783,10 132.970296,10.2091912 132.970296,10.2091912 C132.970296,10.2091912 134.587919,10.2643153 135.220208,11.4490454 C135.220208,11.4490454 135.852497,12.3086835 135.852497,16.5 C135.852497,16.5 135.890584,19.094733 135.590996,20.4741941 C135.291364,21.8536113 134.62977,22.2564818 134.62977,22.2564818 C134.62977,22.2564818 134.205346,22.6593085 133.269123,22.7691623 C132.332899,22.87906 129.297185,23 126.41243,23 C126.41243,23 121.131375,22.9970641 119.352533,22.7095249 C117.57369,22.4220294 117.323794,20.7974895 117.323794,20.7974895 C117.323794,20.7974895 116.595257,16.6850908 117.323794,12.2071115 C117.323794,12.2071115 117.534662,10.4184262 119.660096,10.2091912 Z M129.587656,16.3984375 L124.509531,18.9882812 L124.509531,13.8085938 L129.587656,16.3984375 Z" id="Combined-Shape"></path>
                </g>
            </g>
        </g>
    </g>
</svg>