<?xml version="1.0" encoding="utf-8"?>
<!-- Generator: Adobe Illustrator 21.0.0, SVG Export Plug-In . SVG Version: 6.00 Build 0)  -->
<svg version="1.2" baseProfile="tiny" id="Layer_2" xmlns="http://www.w3.org/2000/svg" xmlns:xlink="http://www.w3.org/1999/xlink"
	 x="0px" y="0px" viewBox="0 0 900 600" xml:space="preserve">
<g>
	<path d="M396.7,438.1c2.2,4.4,4.5,8.9,6.7,13.3c2.5,4.9,4.9,9.8,7.3,14.7c0.7,1.4,1.4,2.8,1.9,4.3c-0.9-1.3-1.8-2.6-2.6-4
		c-5.4-9.5-10.5-19.2-15.4-29c-0.5-0.9-1-1.7-1.5-2.6c-0.7-1.3-1.5-2.5-2.3-3.9c-13.1,4.4-26.4,8.9-39.7,13.4
		c0.3,1.1,0.6,2.1,0.9,3.2c0.9,3.6,1.8,7.2,2.7,10.8c0.2,0.8,0.5,1.4,1.4,1.7c3.3,1.1,6.1,3.1,9.2,4.7c4,2,8.1,3.7,12.1,5.7
		c3.3,1.6,6.7,2.8,10.1,3.7c0.7,0.2,1.4,0.5,2.1,0.8c-3.8-0.4-7.4-1.3-10.9-2.7c-4.2-1.7-8.3-3.5-12.4-5.4c-1.6-0.7-3.1-1.7-4.6-2.5
		c-1.9-1.1-3.8-2.1-5.8-3.2c-0.1,0.1-0.2,0.2-0.3,0.2c0.2,0.7,0.3,1.5,0.6,2.1c1.8,3.1,3.6,6.2,5.5,9.3c3.6,5.9,7.9,11.3,12.1,16.7
		c0.6,0.7,1.2,1.4,1.7,2.1c2.1,3.4,5.2,5.8,8.2,8.2c0,0,0.1,0.1,0.1,0.1c3.8,2.2,5.2,6,6.5,9.9c0.1,0.4,0.2,0.8,0.1,1.2
		c-0.3,1.2,0.3,2,1,2.9c1,1.2,1.9,2.5,2.9,3.8c0.7,0.8,1.3,1.7,2.1,2.4c1.5,1.5,2.3,3.2,2.2,5.3c0,1-0.1,1.9-0.2,2.9
		c-0.3,2.1,0.1,4.1,0.9,6.1c0.4,1,0.7,2.1,1,3.2c0.5,1.9,1.2,3.7,2.7,5.2c0.8,0.7,1.2,1.6,1.2,2.7c0.1,0.9-0.2,1.9,0.5,2.8
		c0.1,0.2,0,0.7-0.1,1c-0.6,2.3-1.3,4.4-2.9,6.2c-0.7,0.8-1.3,1.7-1.3,2.8c0,0.4-0.2,0.7-0.3,1.1c-0.3-0.2-0.4-0.3-0.6-0.4
		c-0.1,0.1-0.2,0.1-0.2,0.2c-1.4,3.8-1.9,7.6-0.8,11.6c0.2,0.6,0,1.4-0.1,2c-0.5,1.6-1.1,3.2-1.6,4.8c0.6,2.1,1.2,4.2,1.8,6.4
		c0.1,0.5-0.1,1.1-0.1,1.7c0,0.3-0.3,0.5-0.3,0.8c0.1,2.1-1.3,2.7-2.9,3.2c-5.6,1.7-11.3,2.1-17,0.2c-0.9-0.3-1.9-0.4-2.8-0.5
		c-2.4-0.2-3.1-0.7-3.8-3.1c-0.5-0.1-1.1-0.1-1.4-0.4c-0.4-0.4-0.5-1-0.8-1.7c-0.3-0.1-1.3,0.1-1.3-0.9c0.1-0.9,1-1,1.5-1.1
		c0.7-1.2,1.4-2.2,2.1-3.3l-0.1,0.1c0.4-0.3,0.8-0.6,1.3-1c0,0.4,0,0.7-0.1,1c-0.2,0.6-0.3,1.3-0.6,1.9c-1,2.1-0.2,3.7,1.1,5.3
		c0.6,0.7,1.1,1.2,2.1,1.2c1.5,0.1,3,0.2,4.6,0.3c1,0.1,2,0.3,3,0.5c0.4,0.1,1,0.3,1.3,0.1c1.1-0.5,2.1-0.2,3.2-0.2
		c2.2,0.1,4.4-0.2,6.5-0.8c0.9-0.2,1.6-0.7,2.2-1.5c0.4-0.7,0.7-1.2,0.1-2c-0.3-0.5-0.4-1.1-0.6-1.7c-0.2-1.2-0.4-2.4-0.6-3.7
		c-0.2-1-0.1-1.9,0.3-2.8c0.5-1.2,0.9-2.5,1.4-3.7c-1.6-2.1-2-4.4-1.7-6.8c0.3-2.5,1-5,2.3-7.2c1-1.7,1.5-3.4,1.5-5.5
		c0.1-2.7,0.5-5.4,0.7-8.1c0-0.2,0.2-0.4,0.4-0.6c1.2,0.3,1.1,1.2,1.1,2c-0.1,1.1-0.3,2.1-0.4,3.2c-0.1,0.7-0.1,1.3-0.1,2
		c0.1,0,0.2,0.1,0.3,0.1c0.2-0.4,0.5-0.8,0.6-1.3c0.3-1.3,0.5-2.7,0.6-4c0-0.5-0.2-1.3-0.5-1.6c-1.4-1.2-1.9-2.9-2.6-4.5
		c-0.4-1-1-2-1.4-3c-0.7-1.5-1.3-3.1-2-4.7c-2.1-0.2-3.2-1.8-4-3.8c1.3,0.8,2.6,1.6,4.1,2.4c0.2-2.1,0.5-3.9,0.6-5.8
		c0.1-1.1-0.4-2-1.2-2.8c-1.3-1.3-2.4-2.9-3.5-4.3c-0.3-0.4-0.6-0.8-0.9-1.2c-1.6-2.1-2.9-4.3-3.3-6.9c-0.1-0.8-0.4-1.7-0.8-2.4
		c-0.5-0.9-1-2-1.8-2.6c-3.3-2.5-6.2-5.4-8.9-8.8c-0.3,0.4-0.5,0.8-0.8,0.9c-0.4,0.1-0.9,0-1.3-0.2c-1-0.5-2-1-2.9-1.7
		c-3.6-2.3-6.8-5.1-9.6-8.2c-1.1-1.2-2-2.4-3.3-3.4c-0.5-0.3-0.7-1-1.1-1.5c0.8-0.4,1.2,0,1.6,0.4c1.2,1.3,2.3,2.6,3.5,3.9
		c0.8,0.8,1.6,1.6,2.6,2.2c3,2.1,6.1,4.1,9.1,6.1c0.2,0.1,0.5,0.2,0.8,0.3c-5.6-6.4-10.1-13.5-14.7-21c0,1.8,1,2.9,1.7,4.4
		c-1.5-1.5-3.6-4.6-4.5-7c-2.1-5-3.4-10.3-4.7-15.5c-0.8-3.1-1.6-6.2-2.4-9.3c-0.1-0.3-0.2-0.6-0.4-1.1c-0.6,0.1-1.1,0.2-1.6,0.4
		c-9.7,2.7-19.5,5.1-29.5,6.9c-2.1,0.4-4,1.1-5.8,2.2c-1.5,0.9-3.1,1.5-4.7,2.3c-0.5,0.2-1,0.4-1.5,0.6c0.6,1.2,1.1,2.4,1.7,3.5
		c0.7,1.2,1.4,2.3,2.2,3.4c0.7,1,1.4,2,2.3,3.3c-1.6-0.1-2.1-1.3-2.9-1.9c-0.8-0.7-1.9-0.8-2.5-1.9c-0.5-1-1.4-1.8-2-2.7
		c-0.6-0.8-1.1-1.7-1.8-2.8c-2.7,0.8-5.7,1.7-8.9,2.6c0.3,0.4,0.4,0.7,0.7,1c9.7,10.6,19.7,21,30.9,30.1c1.9,1.6,4,3,6.1,4.3
		c4.6,2.7,9,5.6,13.1,9c3.4,2.7,6.3,5.8,7.9,10c0,0.1-0.1,0.2-0.2,0.3c-0.1,0.1-0.2,0.2-0.3,0.3c0.8,2.2,1.5,4.3,2.3,6.5
		c0.8-0.4,1.7-0.8,2.5-1.1c0.9-0.4,1.7-0.7,3-0.5c-1.6,1.5-3.2,2.6-5.2,3.2c0.4,4.6,0.6,9.2,3,13.6c1.9-2.3,4.7-2.9,6.9-4.4
		c0.1,0.2,0.3,0.4,0.4,0.5c-0.2,0.1-0.4,0.1-0.6,0.2c-2.1,0.9-3.5,2.6-4.7,4.5c-0.8,1.3-0.9,1.3-2.6,1.5c0.2,1.5-0.6,2.6-1.6,3.7
		c-1.3,1.5-2.1,3.3-2.7,5.2c-1.3,3.8-3.6,7-6.2,10c-1.6,1.8-3.6,3.2-5.5,4.7c-0.3,0.2-0.7,0.4-1.1,0.5c-1.7,0.4-3,1.3-4.2,2.4
		c-0.5,0.4-1,1-1.6,1.2c-1.7,0.8-2.7,2.1-3.7,3.6c-0.5,0.7-1.1,1.3-1.7,1.9c-0.3,0.3-0.6,0.6-1,1c0.5,0.4,0.8,0.8,1.3,1.2
		c-0.5,0.2-0.8,0.4-1.1,0.5c0.2,1.2,0.8,2.1,1.9,2.4c0.8,0.2,1.5,0.3,2.2-0.4c0.4-0.5,1.1-0.7,1.8-1.2c0.4-1,0.9-2.1,1.5-3.2
		c0.2-0.3,0.7-0.6,1.1-0.7c1.1-0.3,2-1,2.8-1.9c1-1.2,2.3-1.8,3.9-1.6c0.3,0,0.8,0.4,0.9,0.8c0.1,0.2-0.3,0.9-0.5,0.9
		c-2.5,0.4-4,2.5-6,3.3c-0.9,1.4-1.7,2.7-2.6,4.1c0.8,0.1,1.5,0.2,2.2,0.4c0.3,0.1,0.5,0.5,0.7,0.8c-0.3,0.2-0.6,0.6-0.9,0.6
		c-0.6,0-1.2-0.1-1.8-0.3c-0.9-0.3-1.8-0.2-2.7,0.2c-0.2,0.5-0.4,1-0.6,1.6c-1.3-0.4-0.5-1.5-0.7-2.4c-0.5,0.1-1,0.2-1.4,0.3
		c-1.1,0.2-2.1-0.1-2.9-0.9c-1.8-1.9-1.5-5.1,0.7-6.6c1.4-1,2.7-2.1,3.6-3.7c1.4-2.4,3.3-4.3,5.6-5.7c1.1-0.6,2.2-1.2,3.2-2
		c0.7-0.6,1.4-0.7,2-0.3c3.4-2.2,5.7-5.3,7.7-8.7c0.3-0.5,0.4-1,0.5-1.6c0.6-3.1,2.1-5.7,4.3-7.9c1.3-1.3,1.5-2.3,0.4-3.9
		c-1-1.5-1.6-3.1-1.9-4.8c-0.5-2.6-0.7-5.1-0.4-7.7c0.1-1,0-2-0.3-3c-1.4-4.4-3.5-8.4-6.2-12.2c-0.5-0.7-1.1-1.3-1.7-1.8
		c-3.8-2.9-7.6-5.8-11.8-8.3c-10.8-6.3-19.8-14.7-28.3-23.7c-2.9-3.1-5.8-6.3-8.6-9.5c-1.5-1.8-2.8-3.8-4.3-5.9
		c-1.4,0.3-3.1,0.7-4.7,1c-6,1.1-12.1,2.3-18.1,3.4c-3.6,0.7-7.2,1.4-10.8,1.9c-2.2,0.3-4.5,0.3-6.7,0.5c-0.7,0.1-1.3-0.2-1.8-0.8
		c-0.9-1-1.9-2-2.3-3.5c-0.2-0.9-0.9-1.8-1.5-2.7c-0.8-1.2-1.1-2.4-1-3.8c0-0.8,0-1.6-0.2-2.3c-1.6-5.7-3.1-11.4-4-17.3
		c-0.5-2.8-1.2-5.6-0.8-8.5c0.4-3.6,0.8-7.2,1.2-10.8c0.4-3.2,0.8-6.5,1.2-9.7c0.1-1,0.2-1.9,0.3-2.9c0.1-0.8-0.1-1.5-0.8-1.9
		c-2.3-1.7-3.8-4-5-6.5c-1.9-4.2-4.3-8.2-5.6-12.7c-2.6-9.2-5.3-18.4-6.8-27.9c-0.6-3.6-0.8-7.3-1.1-10.9c-0.2-2.6,0.2-5.2,0.8-7.7
		c0.5-2.3-0.3-4.1-1.8-5.8c-1-1.2-2.1-2.4-2.8-3.8c-1.6-2.8-2.2-5.9-2.9-9c-0.3-1.2,0-1.4,1.2-1.6c0.1-1.8,0-3.6,0.3-5.4
		c0.9-5.2,3.4-9.5,6.7-13.5c1-1.2,1.9-2.7,3.5-3.3c0.2-0.1,0.3-0.3,0.5-0.5c1-1.6,2.1-3.2,3.1-4.8c0.5-0.7,0.9-1.5,1.5-2.1
		c2-2.1,4-4.1,6.1-6.1c0.3-0.3,0.7-0.6,1-0.9c1.1-0.8,1.4-0.8,2.6,0.2c1.1-0.4,2.3-0.7,3.4-1.2c3-1.4,6.2-2.5,9.4-3.4
		c0.8-0.2,1.6-0.4,2.5-0.5c1.5-0.3,2.9-0.1,4.2,0.7c0.9,0.5,2,0.8,3,1.2c5.9,2.3,9.3,4.4,14.1,8.8c0-0.6,0.1-1.2,0.1-1.7
		c0-2.4,0.1-4.7,0.7-7c0.1-0.5,0-1,0-1.5c-0.1-5.2,0.3-10.3,1.7-15.2c0.6-2.3,1.7-4.4,2.5-6.6c0.6-1.5,1.3-3,1.8-4.5
		c1.6-5.5,3.5-10.8,6-16c3.4-6.8,8.4-12.3,14.6-16.6c9.1-6.4,19-11.3,29.6-14.7c0.8-0.3,1.6-0.4,2.4,0.1c0.3,0.2,0.8,0.1,1.3,0.1
		c0.4,0,0.8,0.1,1.1,0.1c0.4-0.5,0.7-1.2,1.2-1.5c0.5-0.3,1.2-0.1,1.9-0.1c1.7-1.6,3.9-2.9,6.1-4.1c0.1-0.1,0.3-0.2,0.5-0.2
		c2.6-0.2,4.7-1.8,7.2-2.2c2-0.4,3.9-1.2,5.6-2.4c2.1-1.4,4.1-2.9,6.3-4.3c1-0.7,2.1-1.3,3.3-1.7c6.1-2.3,12.1-4.6,18.2-6.8
		c5.3-1.9,10.7-3.5,16.3-4.5c0.2,0,0.4,0,0.5-0.1c1.7-1.1,3.6-1.2,5.6-1.6c0-0.6,0.1-1.2,0.1-1.8c0-4.6,0-9.1-0.1-13.7
		c0-0.5-0.1-1,0-1.5c0.6-3.8-0.5-7.4-0.8-11.1c-0.1-0.6-0.4-1.2-0.6-1.8c-2.4,0.9-2.7,0.8-3.3-1.5c-0.1-0.3-0.2-0.7-0.4-0.9
		c-1.1-1.4-1.6-3.1-2-4.8c-0.6-2.6-2-4.8-3.6-6.8c-0.8-1.1-1.7-2.1-2.6-3.2c-1.4-1.7-2.4-3.7-3.2-5.7c-0.7-1.7-0.6-3.5-0.5-5.3
		c0.1-1.2,0-2.4,0.1-3.5c0.1-1.2,0.2-2.4,0.4-3.5c0.2-1,0.5-2.1,0.9-3.1c0.3-1.2,1.2-1.5,2.2-0.8c0.6,0.4,1.2,0.8,1.9,1.3
		c0.2-0.4,0.3-0.6,0.3-0.8c-0.2-9.4-0.3-18.7-0.7-28.1c-0.3-5.1,0.4-10.1,0.1-15.2c0-0.7,0.2-1.6,0.5-2.3c0.6-1.2,0.8-2.3,0.8-3.6
		c0-2.5,0.7-4.8,1.9-7.1c1.2-2.3,2.2-4.8,3.1-7.3c0.5-1.3,1-2.5,2.1-3.4c1.4-1.2,2.3-2.7,4-3.6c1.3-0.8,2.2-2.2,3.3-3.3
		c0.3-0.3,0.8-0.9,1.2-0.9c1.1,0,1.8-0.8,2.7-1.2c1.9-1.1,3.9-1.9,5.9-2.9c0.6-0.3,1.3-0.5,1.8-0.9c1.1-1,2.5-1.6,3.9-2
		c1-0.3,2-0.8,3-1.1c0.7-0.2,1.5-0.3,2.3-0.4c0.5-0.1,1-0.2,1.4-0.4c2.3-1.6,2.7-1.6,4.9,0.5c0.9-1.3,1.7-2.5,2.6-3.7
		c0.4-0.5,0.6-1.1,1.1-1.5c1.3-1.3,2.8-1.1,3.8,0.4c0.2,0.3,0.4,0.6,0.6,1c1.2-0.5,2.5-1.3,3.6-0.1c1.4-0.9,2.8-1.6,4.1-2.5
		c0.4-0.3,0.7-0.9,1-1.3c0.5-0.9,0.8-1.9,1.4-2.7c0.4-0.7,0.9-1.4,1.5-2c0.9-0.8,1.9-0.8,2.8-0.3c1,0.6,1.6,1.8,1.3,2.9
		c-0.2,0.7-0.5,1.4-0.8,2c-0.1,0.4-0.3,0.7-0.4,1c1.5,0.9,2.3,0.8,3-0.4c1.4-2.4,3.2-4.6,3.7-7.4c0.1-0.3,0.1-0.6,0.3-0.8
		c0.2-0.2,0.6-0.4,0.9-0.3c0.3,0.1,0.6,0.4,0.6,0.6c0.1,0.5,0,1-0.1,1.5c-0.1,0.6-0.3,1.2-0.5,1.8c-0.2,0.6-0.3,1.2,0.1,1.8
		c0.6,0.7,0.3,1.4-0.2,1.9c-1.1,1.2-1.7,2.6-2.4,4.1c-0.1,0.2-0.1,0.4-0.2,0.9c1.6-0.3,2.8,0.2,3.7,1.4c0.3-0.1,0.5-0.1,0.6-0.2
		c1.6-1.4,3.3-2.8,4.8-4.2c0.7-0.7,1.4-1.5,1.6-2.5c0.2-0.8,0.9-1,1.6-0.5c1,0.7,1.4,2.2,0.8,3.3c-0.6,1.1-1.4,2.1-2.2,3.2
		c-0.2,0.3-0.5,0.6-0.9,1.1c1.1,0.2,2.1,0.4,3,0.6c1.5,0.4,1.8,1,1.3,2.5c-0.1,0.3-0.3,0.6-0.5,0.9c-0.1,0.2-0.2,0.5-0.2,0.6
		c1.2,0.9,2.3,1.7,3.5,2.6c0.2-0.1,0.6-0.2,0.9-0.4c0.4-0.2,0.8-0.5,1.2-0.7c1-0.5,1.8-0.3,2.4,0.4c0.6,0.8,0.6,1.7-0.2,2.6
		c-0.8,0.9-1.7,1.6-2.6,2.5c-0.4,0.4-0.9,0.8-1.4,1.3c0.6,1.1,1.5,1.5,2.4,1.9c1.4,0.7,1.4,0.6,1.4,2.1c0,2.2,0.7,4,2.2,5.6
		c2.7,2.9,5,6.1,6.9,9.6c0.8,1.4,1.5,2.8,2.3,4.2c1.2,2.2,1.8,4.5,2,6.9c0.2,2.9,0.3,5.9,0.3,8.8c0,1-0.5,2-1,2.8
		c-0.7,1.3-0.9,2.5-0.5,3.9c0.2,0.8,0.3,1.6,0.5,2.3c1,4,0.1,7.7-1.2,11.4c-0.2,0.6-0.2,1.3-0.1,2c0.4,2.9,1,5.8,0.9,8.7
		c0,1-0.1,2-0.7,2.9c-0.4,0.6-0.7,1.3-0.1,2.2c0.4-0.3,0.7-0.6,1-0.9c0.6-0.6,1.2-1.3,1.9-1.9c0.8-0.7,1.5-0.6,2.2,0.2
		c1.7,2.2,2.8,4.6,3,7.4c0.1,1.2-0.1,2.5-0.2,3.7c0,0.2,0,0.3,0,0.5c0.3,3.4-1,6.2-3.3,8.6c-1,1-1.7,2.4-2.4,3.6
		c-1.8,3.1-3,6.4-3.2,10.1c-0.1,1.5-0.9,2.6-2.1,3.3c-0.9,0.5-1.9,0.8-2.8,1.1c-1.4,0.5-1.6,0.8-1.2,2.2c0.2,0.7,0.2,1.4,0.2,2.2
		c-0.4,3.8-1.1,7.5-1.2,11.3c-0.1,3.6,0.4,7.2,0.6,10.8c0.1,1,0.5,1.7,1.5,1.9c2.7,0.6,5.5,1.3,8.2,2c6.1,1.4,12.1,2.6,17.9,5.1
		c2.3,1,4.7,2.1,6.8,3.3c3.8,2.2,7.6,4.5,11.3,6.8c0.6,0.4,1,1,1.5,1.5c0.2,0.2,0.4,0.4,0.6,0.5c3,1.8,6.2,3.1,9.5,3.8
		c2.3,0.5,4.6,1.1,6.9,1.7c1.4,0.3,2.8,0.6,4.3,0.9c6.2,1.3,11.8,4.1,17,7.6c1,0.7,1.8,1.6,2.8,2.4c0.4,0.3,0.9,0.7,1.4,0.8
		c1.9,0.3,3.6,1,5.2,1.9c0.8,0.4,1.6,0.9,2.4,1.3c8.1,4,13.4,10.5,17.5,18.3c3.1,5.9,5.2,12.3,6.7,18.8c1.5,6.5,2.9,13.1,4.3,19.7
		c0.3,1.5,0.6,3.1,0.7,4.7c0.1,2.5,0.1,4.9,0.1,7.4c0,0.3,0,0.6,0,1.1c3.6-1,7.1-1.9,10.5-2.8c1.3-0.3,2.5-0.4,3.8,0
		c1.9,0.5,3.7,0.1,5.5-0.2c0.4-0.1,0.9-0.3,1.3-0.2c3.1,0.3,6.2,0.9,8.6,3c1.1,1,2.2,2.1,3.1,3.3c1.9,2.3,4.3,4,6.9,5.5
		c1.7,1,3.4,1.8,5,2.7c0.8,0.4,1.5,0.9,1.6,2c0,0.4,0.5,0.8,0.9,1.1c2.6,2.2,4.5,4.9,5.7,8.1c0.1,0.4,0.2,0.8,0.8,0.9
		c0.3,0.1,0.6,0.5,0.7,0.8c1.2,2.4,2.4,4.8,3.6,7.3c0.2,0.4,0.4,1,0.4,1.4c0.1,4.6,0.2,9.3-1.2,13.8c-0.3,0.9-0.6,1.7-0.9,2.5
		c-1.7,3.9-3,7.9-3.7,12.1c-0.3,1.6-0.4,3.2-0.5,4.9c-0.1,1.5-0.1,2.9-0.2,4.4c0,0.4-0.2,0.9-0.4,1.3c-0.7,1.3-1.5,2.7-2.3,3.9
		c-0.5,0.7-0.8,1.5-0.8,2.4c0,0.8,0,1.7-0.1,2.5c0,0.3-0.1,0.8,0.1,1c0.8,0.8,0.4,1.5,0.1,2.3c-0.4,1.4-0.9,2.8-1.3,4.2
		c-0.1,0.2-0.1,0.4-0.2,0.6c-2.6,4.8-4,8.2-5.2,12.9c-0.1,0.5-0.2,0.8-0.9,0.7c-0.1,0-0.4,0.8-0.6,1.2c-1.4,3.3-2.8,6.7-4.3,9.9
		c-1.6,3.4-3.2,6.7-5,10c-1.2,2.1-2.2,4.2-1.7,6.7c-0.4,0-0.6-0.1-1-0.1c0,0.8,0,1.7,0,2.5c-0.3,4.5-0.5,8.9-0.8,13.3
		c0,0.2,0,0.5-0.1,0.7c-1.3,1.7-0.9,3.7-1.1,5.5c-0.5,5.7-1.6,11.2-3.5,16.5c-0.3,0.9-0.8,1.8-1.4,2.5c-1,1.3-1.7,1.3-3.4,0.5
		c-0.3,0.6-0.7,1.1-1,1.7c-0.7,1.8-2,2.5-3.9,2.1c-0.9-0.2-1.7-0.1-2.7,0.1c-1.4,0.4-2.9,0.5-4.3,0.3c-4.6-0.6-9.1-1.4-13.7-2.1
		c-2-0.3-4-0.6-5.8-0.8c-0.5,1-0.9,1.9-1.4,2.7c-1.6,2.8-3.6,5.3-5.9,7.6c-1.8,1.8-3.7,3.4-5.9,4.8c-1.7,1-3.1,2.2-4.5,3.6
		c-7,7.2-14.6,13.8-23,19.4c-0.8,0.5-1.5,1.2-2.2,1.8c-0.8,0.7-1.5,1.4-2.3,2c-4.8,3.7-9.6,7.3-14.4,11c-1.5,1.2-2.9,2.5-4.4,3.7
		c-0.7,0.6-1.5,1.2-2.2,1.9c-0.5,0.5-1.1,1-1.4,1.6c-0.9,1.7-1.8,3.5-2.6,5.3c-0.2,0.5-0.4,1.2-0.4,1.8c0,2.1-0.6,4-1.6,5.8
		c-1.1,1.9-2,4.1-3.7,5.6c-0.6,0.5-1.2,1-2,1.6c0.2,1.3,0.3,2.8,0.6,4.2c0.9,3.7,1.3,7.5,1.4,11.2c0.1,1.6,0.5,2.7,2.1,3.5
		c1,0.5,2,0.9,3,1.5c1.9,1.1,2.9,2.9,3.8,4.8c0.7,1.5,1.5,3,2.2,4.5c0.2,0.3,0.5,0.6,0.8,0.8c0.6,0.4,1.4,0.6,2,1
		c0.6,0.4,1.4,0.9,1.7,1.5c0.4,0.8,1,1.1,1.7,1c3.3-0.1,5.2,2,6.7,4.4c1.4,2.2,1.1,5.2-0.6,7.1c-0.1,0.2-0.3,0.2-0.7,0.5
		c0-0.6,0-1.1,0-1.6c-1.2,0.3-2.2,0.6-3.3,0.9c-0.7,0.2-1.2,0.5-1.7,1c-0.9,0.9-2,1.1-3.2,1.3c-1,0.2-2,0.4-3,0.6
		c-0.3,0.1-0.6,0.3-0.8,0.5c-2.1,2.5-4.9,2.8-7.8,2.7c-0.7,0-1.5-0.2-2.2-0.3c-0.9-0.2-1.8,0-2.5,0.6c-0.4,0.4-0.9,0.8-1.4,1.2
		c-0.7,0.5-1.3,1.1-2.3,0.5c-0.2-0.1-0.6-0.1-0.8,0c-3.8,1.3-6.9-0.3-10-2.3c-0.1-0.1-0.3-0.2-0.3-0.2c-1.7,0.8-3.4,1.6-5.1,2.3
		c-0.4,0.2-0.8,0.3-1.1,0.3c-2.8,0.2-5.6,0.3-8.4,0.5c-2,0.1-3.9-0.5-5.7-1.5c-0.7-0.4-1.4-0.7-2.2-0.8c-0.9-0.2-1.6-0.6-1.9-1.4
		c-0.5-1.6-1-3.1-1.2-4.7c-0.1-1.1-0.3-2-0.8-3c-0.9-1.5-1.7-3.2-2.5-4.8c-0.2,0-0.6,0.1-1.1,0.2c-0.5-1.3-0.1-2.6-0.1-3.8
		c0-1.3,0.3-2.7,0.5-4c0.2-1.2-0.3-2.6,0.7-3.9c0.2,0.4,0.5,0.7,0.5,1.1c0.1,1.6,0.1,3.3,0,4.9c-0.1,1-0.1,1.9,0.7,2.8
		c0.6,0.6,0.9,1.6,1.3,2.4c0.3,0.8,0.7,1.6,0.9,2.4c0.3,0.8,0.4,1.7,0.7,2.7c0.2,0,0.6,0.1,1,0.2c0.6-1.6,0.3-3.4,1.6-4.6
		c1,0.3,1,1.1,0.7,1.8c-0.4,1-0.9,1.9-1.5,2.8c-0.5,0.7-0.8,1.3-0.5,2.2c0.1,0.4,0.1,0.8,0.2,1.2c0.1,2.2,1.5,3.3,3.3,4.2
		c2.8,1.4,5.8,1.4,8.8,1.1c1.3-0.1,2.6-0.2,3.9-0.3c1.8-0.1,3.4-0.7,4.9-1.6c2.1-1.4,2.3-2.2,1.5-4.5c-0.3-0.9-0.8-1.9-1.4-2.7
		c-0.7-0.8-1.5-1.7-2.9-1.3c-0.3,0.1-0.7-0.2-1.1-0.4c-1.7-1-1.7-1-3.2-1.2c0.4-0.9,0.4-0.9,2.4-1c0.2-1.9,0.3-3.9,0.5-5.8
		c0.1,0,0.2-0.1,0.3-0.1c0.2,0.3,0.5,0.5,0.5,0.8c0.1,1.1,0.8,2.2-0.1,3.2c0.2,1,0.4,2.1,0.7,3.2c3.1,0.2,4.6,2.4,5.8,4.8
		c0.2,0.4,0.3,0.9,0.5,1.2c1,1.1,1.1,2.3,0.3,3.6c2.8,2,5.8,3.3,9.3,3.2c0.2,0,0.5,0,0.7-0.1c1.4-0.8,2.8-1.7,3.6-3.2
		c0.2-0.3,0.1-0.9,0-1.3c0-0.5-0.1-1-0.1-1.5c1.5,0.4,1.9,1.4,2,2.6c3.3,1,6.3,0.6,9.3-1.1c0-0.6,0.1-1.3,0-2c-0.1-1.1-1-1.6-2-1.3
		c-0.6,0.2-1.3,0.4-2,0.5c-1.7,0.2-3.3,0.4-5.3,0.7c1.6-1.6,3.3-2.1,5.3-2.1c-0.3-0.1-0.6-0.4-0.8-0.3c-1.5,0.6-2.9-0.1-4.3-0.6
		c0.2-1.6-0.5-2.6-2.1-3c-0.7-0.2-1.2-0.7-1.2-1.6c1.8,0.3,3.2,1.1,4,2.2c0.8,1.2,1.5,2.1,3.1,1.4c0.3-0.1,0.7,0,1,0.1
		c1.2,0.4,2.5,0.8,3.7,1.2c1,0.4,1.4,1.4,1.7,2.4c0.1,0.3,0,0.7,0.1,1.2c1-0.3,1.9-0.6,2.8-0.8c0.9-0.2,1.9-0.3,2.7-0.5
		c0.6-1.1,0.7-2.1-0.2-3c-1.6,0-3.2,0-4.9,0c0.1-0.3,0.2-0.5,0.4-0.8c0.1-0.2,0.3-0.4,0.7-0.8c-1.6-0.6-3-1.2-4.4-1.8
		c-0.2-0.8-0.2-1.7-0.5-2.3c-0.3-0.7-0.9-1.2-1.3-1.8c0.7-0.7,1.1-0.3,1.4,0.1c0.7,0.9,1.3,1.9,2,2.9c0.3,0.3,0.7,0.6,1.1,0.7
		c1.3,0.4,2.4,0.8,3.4,1.9c0.2,0.2,0.6,0.3,0.9,0.3c1.9,0,3.3,0.7,3.7,2.6c1.3,0,2.3-0.3,2.8-1.5c0.1-0.3,0.6-0.5,0.9-0.8
		c-0.3-0.7-0.8-1.1-1.8-1c-1,0.1-2-0.1-3-0.1c-0.3,0-0.5-0.1-0.9-0.3c0.5-1.6,2.1-0.8,2.9-1.7c-0.3-0.2-0.7-0.6-1.1-0.7
		c-1.7-0.5-2.8-1.7-3.7-3c-0.9-1.2-2.1-2-3.5-2.4c-1.2-0.3-2-1.3-2.6-2.3c-0.5-0.8-0.9-1.7-1.3-2.6c-0.5-1.1-1-2.1-1.5-3.2
		c-0.4-0.9-1-1.4-1.9-1.8c-1-0.4-1.9-1.3-2.9-1.7c-0.9-0.3-1.5-0.8-2.1-1.5c-1.2-1.3-1.2-1.3,0.2-2.5c-0.3-1-0.7-2.1-1-3.2
		c-0.8-3-1.5-6-2.3-9c-0.1-0.5-0.2-1-0.2-1.5c-0.1-1,0-1.9,1-2.6c-1.5-3.9-3.6-7.2-7.7-8.8c1.8,0.7,3.7,1.2,5.3,2.4
		c1.6,1.1,2.4,3,3.7,4.6c0.6-0.7,1.3-1.3,1.8-2.1c1.2-1.9,2.3-3.9,3.3-5.9c0.7-1.4,1.1-2.8,1.1-4.5c0-2.4,0.9-4.8,2.7-6.6
		c1.7-1.7,3.4-3.3,5.2-4.9c1.6-1.4,3.3-2.7,5-4.1c0.4-0.4,0.8-0.7,1.1-1.3c-0.7,0.4-1.5,0.8-2.2,1.3c-0.1-0.1-0.1-0.1-0.2-0.2
		c0.2-0.2,0.4-0.5,0.6-0.7c4.1-3,8.2-5.8,12.2-8.9c4.7-3.6,9.3-7.4,13.9-11.1c0.4-0.3,0.7-0.7,1-1.1c0.3-0.4,0.6-0.9,1-1.3
		c3.8-2.8,7.3-5.8,10.7-9.1c1.4-1.3,3.1-2.3,4.1-4c0.1-0.2,0.4-0.5,0.7-0.5c1.3-0.1,2-1,2.8-1.8c3.4-3.5,7-6.8,9.7-10.8
		c0.2-0.4,0.5-0.7,0.8-1.2c-5.1-0.6-10.1,0.6-14.7-0.8c-0.4,1-0.6,1.8-1.1,2.4c-1.4,1.7-2.9,3.5-4.5,5.1c-1.6,1.6-3.4,3.1-5.2,4.6
		c3.6-3.7,6.6-7.9,9.8-12.2c-3.4-0.6-6.6-1.3-9.9-1.7c-4.6-0.6-9.2-0.9-13.8-1.5c-6.8-0.9-13.6-2.3-20.2-4c-0.4-0.1-0.9-0.2-1.3-0.3
		c-0.1,0-0.2,0-0.3,0.1c-1.6,6.3-3.8,12.4-7.1,18c-1.5,2.5-2.7,5.2-4.3,7.7c-1.7,2.7-3.7,5.1-5.5,7.7c-1.1,1.5-2.1,3.1-3,4.7
		c-2.3,4.2-4.9,8.3-8.2,11.8c-0.1,0.1-0.2,0.3-0.2,0.6c1.4-1,2.8-2,4.3-3.1c0.1,0.7-0.3,1-0.6,1.3c-1.2,1.1-2.4,2.2-3.6,3.3
		c-2.5,2.3-5.1,4.6-7.6,6.9c-0.7,0.6-1.3,1.2-2.4,0.7c-0.3-0.1-0.8,0-1.1,0.2c-1.9,0.8-3.8,1.6-5,3.3c-0.1,0.2-0.4,0.2-0.6,0.4
		c0-0.3-0.1-0.5-0.1-0.5c1.5-1.9,2.9-3.9,5.2-5c1.4-0.7,2.5-1.6,3.3-3.1c0.5-0.9,1.3-1.5,2.1-2.4c-5.7-0.1-11.3-0.4-16.7-1.8
		c0-0.1,0-0.3,0-0.4c0.3-0.1,0.6-0.3,0.8-0.2c4.9,1.3,9.9,1.3,15,1.3c0.7,0,1.3,0.1,2.2,0.2c2.6-2.1,4.9-4.7,6.9-7.6
		c1.7-2.5,3.3-5.1,4.9-7.7c0.2-0.2,0.3-0.6,0.5-0.7c2.1-1,2.3-3.1,3.5-4.7c-0.1-0.1-0.2-0.2-0.2-0.3c-1.3,0.4-2.6,0.9-3.9,1.3
		c-1.3,0.5-2.6,1-4,1.4c-1.4,0.5-2.8,0.9-4.2,1.4c-1.3,0.5-2.6,1.1-3.9,1.6c-1.3,0.5-2.4,1.3-3.9,1.2c1.1-1.2,2.5-1.5,3.9-2.1
		c1.4-0.6,2.8-1.2,4.2-1.8c1.4-0.6,2.8-1.2,4.2-1.7c1.4-0.6,2.8-1.2,4.3-1.7c1.4-0.5,2.9-0.9,4.5-1.3c3.1-6,6.2-12,9.4-18.4
		c-4.2,2.3-8.2,4.4-12.4,6c-0.1-0.1-0.1-0.2-0.2-0.4c0.3-0.2,0.6-0.5,1-0.7c4.2-1.6,8.1-4.1,12-6.3c0.4-0.3,0.8-0.8,1-1.3
		c0.7-1.7,1.3-3.4,1.9-5.1c0.5-1.2,0.9-2.5,1.5-3.8c-1.4-0.5-2.9-1-4.4-1.5c-3.3-1.2-6.5-2.5-9.6-4.2c-1.8-0.9-3.8-1.6-5.6-2.4
		c-5.2-2.5-10.4-5.1-15.6-7.7c-0.9-0.4-1.7-0.9-2.6-1.4c-1,1.8-2,3.5-2.9,5.2c0.1,0.1,0.1,0.1,0.2,0.2c0.5-0.4,1-0.7,1.4-1.2
		c0.6-0.6,1.3-0.9,2.2-0.7c0.4,0.1,1,0.4,1,0.7c0.1,0.4-0.1,1-0.5,1.3c-0.5,0.4-1.1,0.6-1.7,0.7c-0.7,0.2-1.2,0.5-1.6,1.1
		c-0.5,0.7-1.3,1.3-1.8,2c-1,1.4-2,2.8-2.9,4.4c-4.7,8.3-9.8,16.4-15.7,23.9c-1.1,1.4-2.5,2.7-3.9,3.9c-1.4,1.2-2.9,2.4-4.5,3.4
		c-0.9,0.6-1.9,0.9-2.9,1.2c-0.9,0.2-1.9,0.3-2.5-0.8c-2.2,1.2-4.2,2.4-6.4,3.4c-2.6,1.2-5.2,2.3-7.8,3.2c-1.1,0.4-2.4,0.5-3.6,0.6
		c-3.3,0.3-6.5-0.2-9.7-0.9c-3.2-0.7-6.6-1.1-9.8-1.8c-4.7-1-9.2-2.5-13.3-5.1c-1.3-0.8-2.7-1.5-3.9-2.4c-1.1-0.8-1-1.3,0.4-1.9
		c-3.5-2.9-5.6-6.9-7.8-10.7c-0.6-1-1.2-2-1.9-3c-1.6-2-2.7-4.3-3.7-6.6c-1.5-3.3-3.1-6.4-5.3-9.2
		C397.4,438.7,397,438.5,396.7,438.1c-0.1-0.1-0.1-0.2-0.1-0.3C396.6,437.9,396.6,438,396.7,438.1z M420.7,470.6
		c-0.2-0.1-0.5-0.2-0.7-0.3c-0.6-0.2-1.1-0.5-1.7-0.7c-0.1-0.1-0.2-0.2-0.1-0.1c-0.2,0,0,0,0.1,0c0.6,0.2,1.1,0.5,1.7,0.7
		C420.3,470.3,420.5,470.4,420.7,470.6c0.3,0.4,0.6,0.6,1.2,0.2C421.5,470.8,421.1,470.7,420.7,470.6z M440,315.4
		c0.1-0.1,0.3-0.2,0.3-0.3c0.7-2.3,1.4-4.7,1.9-7c0.3-1.2,0.3-2.5,0.5-3.7c-0.3,0.6-0.5,1.2-0.7,1.7c-0.4,1.4-0.7,2.8-1.7,4
		c-0.2,0.3-0.3,0.7-0.3,1.1C440,312.6,440,314,440,315.4c0,0.3-0.1,0.5-0.2,0.7c0.1,0,0.1,0,0.2,0C440,315.9,440,315.6,440,315.4z
		 M427.9,337.1c0.3-0.5,0.7-1,1-1.6c0.9-1.8,1.8-3.6,2.8-5.4c0.4-0.8,1-1.5,1.6-2.2c0.9-0.9,1.4-2,1.5-3.5c-0.6,0.7-1.1,1.3-1.5,2
		c-1.2,1.9-2.3,3.9-3.5,5.7C428.6,333.6,428.2,335.3,427.9,337.1c-0.1,0.3-0.2,0.5-0.3,0.7c-0.7,0.7-1.4,1.4-2,2.3
		c-1.1,1.5-1.6,3.1-1.6,5c0,6.6-0.8,13.1-2.3,19.5c-0.3,1.4-0.8,2.8-1.7,4c-0.7,0.9-1.2,2-1.7,3.1c-0.6,1.1-1.1,2.4-1.8,3.5
		c-0.7,1.2-1.8,2.2-3.1,2.8c-2.5,1.1-5,2.2-7.5,3.2c-2.8,1.1-5.6,2.2-8.4,3.2c-0.6,0.2-1.5,0.4-1.9,0.1c-1-0.7-1.9-0.3-2.9,0
		c-1.7,0.5-3.3,1.1-5,1.7c-4.6,1.9-9.2,3.7-14,5.1c-6.6,1.8-13.1,4.2-19.9,5.2c-0.1,0-0.2,0.1-0.2,0.2c0.1,0.2,0.2,0.5,0.4,0.9
		c-0.6,0-1.1,0-1.5,0c-2.1-0.1-4.3-0.3-6.4-0.2c-3.5,0.2-7,0.7-10.5,0.8c-6,0.2-12.1,0.3-18.1,0.3c-3.8,0-7.6-0.5-11.5-0.8
		c-2.3-0.2-4.6-0.8-6.9-0.3c-1.9,0.4-3.9,0.7-5.8,1.1c-2.5,0.5-5,1-7.5,1.5c-1.5,0.3-3.1,0.7-4.6,1c-1.6,0.3-3.3,0.4-4.6,1.5
		c-0.2,0.2-0.6,0.1-1.3,0.1c1.2-1.4,2.6-2,3.7-2.7c4.9-3.2,10.6-3.6,16.3-4.3c0.2-1.4,1.2-1.6,2.4-1.5c0.2,0,0.4,0.1,0.7,0.1
		c2.4,0.2,4.8,0.3,7.2,0.5c1.8-2.2,3.6-3.9,5.9-5.2c0.5-0.3,0.9-0.7,1.2-1.1c3.1-3.3,5.6-7.1,7.9-11c2.6-4.2,5.2-8.4,7.7-12.6
		c0.5-0.8,0.8-1.6,1.1-2.4c5.7-15.4,8.9-31.4,11.1-47.7c0.1-0.6,0.2-1.2,0.4-1.8c0.1-0.4,0.6-0.8,0.9-0.8c0.3,0,1,0.4,1,0.7
		c0.1,1.4,1.1,2.2,1.8,3.2c1,1.6,1.9,3.2,2.3,5c0.1,0.6,0.2,1.2,1,1.5c0.7-1.2,1.5-2.3,2.2-3.5c2.7-4.4,5.4-8.7,8.1-13.1
		c0.7-1.1,1.4-2.4,1.7-3.7c0.4-1.9,0.6-3.9,0.7-5.9c0.2-7.2,0.4-14.3,0.5-21.5c0.1-5.3,0.1-10.6-0.1-15.9
		c-0.2-5.2-0.8-10.5-1.4-15.7c-0.2-2.1-0.9-4.2-1.3-6.3c-0.1-0.3-0.1-0.7-0.2-1c-0.1-0.5-0.2-1.1-0.5-1.5c-1.4-2.8-3-5.5-4.4-8.4
		c-2.4-5.2-4.7-10.5-7.1-15.8c-0.4-0.8-0.8-1.6-1.4-2.3c-0.9-1.1-1.9-2-2.8-2.9c-1,0.4-1.9,0.8-2.8,1.1c-1.2,0.4-2.6,0.5-3.7,1
		c-4,1.7-8,3.5-12,5.4c-2.6,1.3-5.1,2.8-7.7,4.3c-5.9,3.5-11.3,7.7-15.4,13.4c-2.4,3.4-4.6,7-6.8,10.5c-0.4,0.6-0.7,1.3-1.2,1.8
		c-2.9,2.6-4.3,6-4.9,9.8c-0.5,3.1-1.1,6.1-2.1,9c-0.1,0.3-0.2,0.6-0.3,1c-0.7,3.9-1.4,7.9-1.9,11.8c-0.6,4.2-1.5,8.5-1.2,12.8
		c0,0.4,0,0.8-0.2,1.2c-0.6,1.2-0.5,2.4-0.1,3.5c0.5,1.4,0.3,2.5-0.1,3.8c-1.3,4.3-2.8,8.6-4,12.9c-1.4,5.4-4.4,9.7-7.9,13.8
		c-0.6,0.7-1.2,0.9-1.9,0.7c-2.5,3.5-4.8,7-7.2,10.4c-1.1,1.6-2.4,3.2-2.6,5.2c0,0.3-0.2,0.5-0.3,0.8c-1,2.9-2.2,5.7-3,8.6
		c-1.4,5.2-2.1,10.6-2.4,16c-0.2,2.6-0.4,5.3-0.8,7.9c-0.4,2.8-0.9,5.7-1.4,8.5c-0.4,2.2-0.7,4.5-1.1,6.8c-0.3-0.1-0.5-0.2-0.8-0.3
		c-0.4,2.2-0.9,4.3-1.3,6.5c-0.8,4.7-1.6,9.4-2.3,14.2c-0.7,5.1-1.1,10.3-1.7,15.5c-0.1,1.2-0.7,2.5-0.5,3.7c0.3,1.1,1.3,2.1,2,3.1
		c1.1,1.6,2.1,3.2,3.7,4.3c0.2,0.2,0.2,0.6,0.5,1.3c-1.7-0.5-3.2-0.4-4.3-1.3c-1.1-0.9-2-1.9-3.1-2.9c0,0.5-0.1,1,0,1.4
		c1,5.2,2.4,10.3,4.1,15.4c0.1,0.4,0.3,0.8,0.6,1c2.6,1.7,4,4.3,5.4,7c0.1,0.2,0,0.6-0.1,1c-1.4-1.3-2.7-2.4-4.2-3.7
		c0.7,2.1,1.4,3.9,1.8,5.7c0.4,1.8,1.6,3.1,2.8,4.3c0.3,0.3,1,0.5,1.5,0.5c1.7-0.2,3.5-0.4,5.2-0.7c5.8-1,11.6-2.2,17.5-3.2
		c9.4-1.6,18.7-3.7,27.8-6.6c2.5-0.8,5-1.8,7.3-3.1c1.4-0.8,3-1.5,4.5-1.8c11.9-2.4,23.7-5.1,35.3-8.6c10.4-3.1,20.8-6.4,31.2-9.6
		c1.9-0.6,3.9-1.1,5.8-1.9c2.4-0.9,4.7-2,7-3c0.8-0.3,1.5-0.7,2.3-1.1c5.7-2.8,11.3-5.7,17-8.4c2.5-1.2,4.7-2.8,7-4.3
		c2.8-1.9,5.5-3.9,8.3-5.8c1-0.6,2.1-1.1,3.2-1.4c1.4-0.4,2.8-0.5,4.1-0.8c3.5-0.7,7-1.5,9.8-3.8c0.8-0.7,1.8-1.3,2.3-2.2
		c1.2-2.2,1.9-4.7,2.1-7.2c0.2-3,0.2-6.1,0.3-9.1c0.1-2,0.3-4,0.5-6.1c0.2-2.4,0.4-4.7-0.1-7.1c-0.5-2.4-0.4-4.7,0.8-6.9
		c0.4-0.7,0.6-1.6,0.7-2.4c0.2-3.9,0.3-7.8,0.4-11.7c0-2.1-0.3-4.3-0.2-6.4c0.1-2.1,0.6-4.2,0.9-6.3c0.2-1.4,0.9-2.8,0.3-4.3
		c-0.1-0.2,0.1-0.5,0.1-0.8c0.1-1.6,0.2-3.2,0.1-4.7c-0.1-1.4-0.6-1.6-2-1.7c-0.3,0-0.6-0.1-1.1-0.2c-0.8,1.8-1.6,3.6-1.9,5.5
		c-0.7,5.3-2.4,10.4-3.9,15.5c-0.4,1.2-1,2.4-1.5,3.6c-0.3,0.5-0.7,1-1.1,1.5c-0.3-1.9,0.3-3.3,1-4.8c0.7-1.6,1.3-3.4,1.7-5.1
		c0.4-1.9,0.4-3.9,0.8-5.8c0.6-2.2,0.3-4.8,2.2-6.6c0.1-0.1,0.1-0.2,0.1-0.3c0.1-2.1,1.3-3.8,2.2-5.6c1-0.1,2.1-0.1,3.1-0.2
		c0.6-0.8,0.3-1.5,0.1-2.2c-0.4-1.6-0.5-3.2,0-4.8c0.8-2.4,1.2-4.8,1-7.3c-0.1-0.8,0-1.6,0.2-2.4c0.2-1.1,0.5-2.2-0.4-3.2
		c-0.2-0.2-0.1-0.6-0.1-1c0-0.6,0-1.2,0-1.7c-2.2-1-2.2-1-3.6-0.3c-0.3,1.7-0.7,3.5-1.8,5c-0.4,0.6-0.4,1.4-0.6,2.1
		c-0.3,1.6-0.6,3.2-0.9,4.8c-0.7,3.7-1.4,7.3-2,11c-0.5,3.5-1.5,6.7-3.6,9.6c-0.3,0.4-0.5,0.8-0.6,1.2c-0.6,3.4-1.4,6.8-2.8,10.1
		c-0.1,0.3-0.3,0.5-0.5,0.9c-0.5-0.5-0.6-1-0.3-1.5c0.8-1.6,1.3-3.2,1.2-5c0-0.1,0-0.1,0-0.2c0.8-3,1.7-6,2.5-8.9
		c0.7-2.3,1.3-4.7,2-7c0.5-1.6,1.1-3.2,1.4-4.9c0.7-3.3,1.1-6.7,1.9-10c0.4-1.6,0.4-3.4,1.8-4.7c0.3-0.3,0.3-1,0.4-1.6
		c0.1-0.4,0-0.9,0.2-1.3c0.1-0.4,0.4-0.9,0.7-1c1.4-0.7,2.9-1.4,4.5-0.9c0.1,0,0.3,0,0.5-0.1c0.1-0.4,0.3-0.8,0.4-1.3
		c-1.3-0.3-1.3-0.3-1.1-1.4c0-0.3,0.1-0.6,0.2-0.8c0.5-1.7,0-3.4-0.5-5c-0.2-0.7-0.7-1.3-1.5-1.5c-0.5,0.9-1.1,1.7-1.5,2.6
		c-1.2,3.1-2.3,6.1-3.3,9.2c-1.2,3.4-2.7,6.7-3.4,10.3c-0.1,0.4-0.2,0.8-0.5,1c-0.7,0.5-0.8,1.3-0.9,2.1c-0.1,0.8-0.2,1.6-0.4,2.3
		c-0.8,2.9-1.6,5.7-2.5,8.6c-0.2,0.7-0.5,1.5-1,1.9c-0.8,0.8-1.2,1.8-1.5,2.8c-0.3,1-0.6,1.9-1,2.9c-1.2,2.8-2.5,5.7-3.8,8.5
		c-0.5,1.1-1.4,1.4-2,1c-0.6-0.4-0.6-0.9,0-2.1c1-2.1,2-4.3,3-6.5c0-0.1,0-0.2,0-0.3c-0.4-0.1-0.8-0.3-1.3-0.5
		c-0.2,0.4-0.3,0.8-0.5,1.1c-1,2.3-2,4.7-3,7c-0.2,0.5-0.5,0.9-0.8,1.3c-0.6,0.7-0.9,0.7-1.7-0.2
		C427.6,337.5,427.7,337.3,427.9,337.1z M416.6,194.2c0-0.2,0-0.4-0.1-0.6c-0.1,0-0.1,0-0.2,0C416.5,193.8,416.6,194,416.6,194.2
		c-0.1,1.8,0,3.7,0.5,5.5c0.2,0.9,0.4,1.9,0.5,2.8c0,0.3-0.2,0.6-0.3,1.1c-0.3-0.3-0.5-0.4-0.5-0.5c-1.2-6.7-3.6-13.2-3.7-20.1
		c-0.2,0.5-0.4,1-0.5,1.5c-1.8,6.4-3.5,12.7-5.3,19c-0.4,1.5-0.6,3-0.4,4.5c1.2,6.7,4.2,12.4,9.3,16.8c5.7,5,11.9,9.3,19,12.2
		c1.7,0.7,3.3,1.3,5.1,2c0.8-0.7,1.8-0.6,2.8-0.4c1.1,0.2,2.2,0.5,3.3,0.8c7,1.9,14,1.8,21-0.5c6-1.9,11.9-4.3,17.4-7.3
		c2.7-1.5,5.4-3,7.8-5.1c1-0.9,1.8-1.9,2.3-3.1c2.4-6,3.3-12.3,3.6-18.7c0.1-2.8-0.1-5.6-0.3-8.4c-0.2-2.3-0.6-4.5-1.5-6.8
		c-1.4,0.9-2.1,2.5-3.9,3.1c0.3-2,0.6-3.8,0.9-5.6c0.2-1.6,0.5-3.2-0.3-4.8c-0.3-0.7-0.2-1.4,0.4-1.8c0.6-0.4,0.7-1,0.7-1.6
		c0.3-3.2,0.4-6.4,0.2-9.6c-0.1-1.5,0.1-3,0.1-4.5c0.1-1.5-0.1-2.9-0.6-4.4c-0.4,0.7-0.8,1.5-0.8,2.2c0.1,2.6-1.1,4.8-2.4,6.9
		c-1.6,2.4-3.5,4.6-5.6,6.5c-0.4,5.9-0.5,11.8-3.7,17.1c0.5-5,1-10.1,1.6-15.4c-0.6,0.5-0.9,0.7-1.2,1c-2.9,2.2-5.7,4.6-8.7,6.7
		c-1.9,1.4-3.9,2.5-5.9,3.7c-0.9,0.5-1.8,0.9-2.8,1.2c-4.3,1.1-8.7,1.5-13.1,0.6c-0.4-0.1-0.8-0.1-1.2-0.1
		c-4.2,0.3-8.2-0.9-12.2-1.4c-0.7-0.1-1.2-0.5-1.5-1.2c-0.2-0.5-0.7-1-1.2-1.4c-1.8-1.4-3.6-2.7-5.4-4.1c-0.9-0.7-1.8-1.3-2.9-2.2
		c0.3,0.7,0.4,1.2,0.6,1.6c-0.1,0.1-0.2,0.1-0.3,0.2c-0.6-0.6-1.1-1.2-1.7-1.7c-1.8-1.5-3.2-3.3-4.3-5.4c-1.1-2.3-2.2-4.6-3.4-6.8
		c-0.2-0.4-0.5-0.8-0.7-1.2c-0.1,0-0.2,0.1-0.3,0.1c0,0.4,0,0.9,0,1.3c0.1,2,0.3,3.9,0.2,5.9c-0.1,2.5-0.4,5,0,7.6
		c0,0.2-0.1,0.4-0.1,0.7c-0.1,0.8-0.2,1.6-0.2,2.4c0.1,3.8,0.1,7.7,1,11.4c0.1,0.4,0.5,1-0.3,1.3c-0.7-0.2-0.6-0.9-0.8-1.4
		C417.1,195.7,416.9,195,416.6,194.2z M533.6,341.2c0.1,0.1,0.1,0.2,0.2,0.3c-0.2,0.2-0.5,0.5-0.7,0.6c-6.4,4.5-12.6,9.1-19.1,13.5
		c-8.7,5.9-17.8,11.1-27,16.1c-0.9,0.5-1.9,0.9-2.9,1.3c-1.5,0.6-3.1,1.1-4.7,1.7c1.4,1,2.7,2,4,2.9c0.7,0.5,1.4,0.9,2.1,1.3
		c0.6,0.4,1.2,0.6,2.1,0.3c0.6-0.2,1.3,0,2,0.2c4.9,1.4,9.9,2.8,14.8,4.1c0.9,0.2,1.9,0.3,2.8,0.3c2.8-0.1,5.5-0.3,8.2-0.8
		c4.6-0.8,9.1-1.4,13.7-2.1c0.6-0.1,1.3,0,1.9,0c0.2-0.9,0.4-1.9-0.3-2.9c-2.1-2.8-1.9-5.8-0.4-8.8c2-4.1,5-7.3,9-9.6
		c0.4-0.2,0.7-0.5,0.9-0.9c3.9-6.6,7.6-13.3,10.4-20.5c2-5.2,4.1-10.4,5.3-15.9c0.3-1.3,0.4-2.5,0-3.8c0-0.1,0.1-0.3,0.1-0.5
		c0.5,0,0.9-0.1,1.3-0.1c-0.7-1.2-1.4-2.4-2.2-3.5c-0.2-0.3-0.5-0.6-0.7-0.9c-4.4-4-7.1-9-9.2-14.4c-0.3-0.7-0.4-1.6-0.1-2.3
		c0.3-0.8,0.1-1.3-0.2-1.9c-0.6-1.5-1.3-2.9-1.8-4.4c-0.7-1.9-1.4-3.8-2-5.7c-2.5-7-4.1-14.2-4.2-21.7c0-3.4,0.1-6.9,0.3-10.3
		c0.3-3.8,0.8-7.6,1.4-11.4c0.7-4.1,1.6-8.2,3.4-12c1-2,1.6-4.1,1.9-6.3c0.1-0.4,0.2-0.8,0.2-1.2c1.6-8.5,5-16.5,7.4-24.8
		c-0.5-0.2-0.8-0.3-1.2-0.4c-2.4-1-5-1.8-6.5-4.3c-0.1-0.1-0.3-0.2-0.4-0.3c-1.2-0.7-2.4-1.5-3.6-2.2c-2.2-1.2-4.2-2.8-6.5-3.6
		c-6.1-2.2-12.2-4-18.3-5.9c-5.6-1.7-11.4-2.8-16.7-5.3c-0.1,0-0.2,0-0.5,0c-0.2,2.4-0.4,4.8-0.2,7.2c0,0.3,0.1,0.5,0.3,0.8
		c0.6,1.1,1.3,2.3,1.9,3.4c1.4-0.6,2.6-0.1,3.9,0.2c1.2,0.3,2.4,0.7,3.6,1c2.7,0.7,2.7,0.7,3.3,1.6c-3.2-1.4-6.7-0.9-10.2-1.6
		c0.2,0.5,0.2,0.8,0.3,1.1c1.1,3.2,1.7,6.5,1.7,9.9c0.1,6.3-1.3,12.3-3.7,18.1c-0.3,0.8-1.1,1.6-0.4,2.7c0.1,0.2-0.1,0.6-0.2,1
		c-1,2.9-2.8,5.3-4.7,7.6c-1.2,1.5-2.9,2.6-4.5,3.8c-6.7,4.7-14,8.2-21.9,10.5c-5,1.5-10.2,1.9-15.4,1.2c-3.2-0.4-6.3-1.4-9.4-2.3
		c-0.7-0.2-1.5-0.4-2.3-0.4c-1.3,0-2.5-0.4-3.7-1c-2.5-1.1-4.9-2.4-7.5-3.2c-4.7-1.5-9-3.8-12.9-6.8c-6.2-4.9-10.2-11.1-11.3-19
		c-0.3-2.1-0.4-4.2,0.2-6.2c1.6-5.1,3.1-10.3,4.6-15.4c0.1-0.3,0-0.7,0-1.3c-2.2,0.6-4.3,1.2-6.3,1.8c-2,0.6-4,1.1-6,1.7
		c-2,0.6-3.9,1.4-6,1.5c2.9-1.2,5.9-2.2,8.9-3.2c3-1,6.1-1.9,9.1-2.8c0.6-2.6,1.6-4.9,3.4-6.8c1-1,1.3-2.2,1.3-3.8
		c-1.2,1.4-2.7,1.6-4.1,1.8c-0.1,0-0.2,0.1-0.3,0.1c-4.8,1-9.4,2.5-13.9,4.2c-6.9,2.5-13.7,5.1-20.6,7.7c-1.1,0.4-2.2,1.1-3.2,1.9
		c-3,2.3-6.3,3.8-10.2,4.3c-1.6,0.2-3.2,0.7-4.7,1c-0.7,1.6-0.7,1.6-2.3,1.8c-1.6,0.2-3,0.7-4.3,1.7c-1.4,1-2.9,1.9-4.3,2.8
		c1.3,2,2.7,4.2,4,6.4c0.3,0.5,0.7,1.1,0.7,1.7c0,0.5-0.5,0.9-0.9,1.4c0.1,0.1,0.1,0.3,0.2,0.5c2.5,5.4,5,10.8,7.5,16.3
		c0.9,2,2.1,4,2.1,6.4c0,0.3,0.2,0.5,0.4,0.8c1.5,2.3,2.4,4.9,3,7.5c1.1,4.2,1.9,8.4,2.1,12.7c0.2,4.6,0.3,9.2,0.2,13.9
		c-0.1,3.9-0.6,7.9-0.9,11.8c-0.1,1.5-0.3,3-0.6,4.5c-0.9,5.6-2.3,11.2-2.4,16.9c0,1-0.3,2-0.5,3c-0.1,0.3-0.2,0.8-0.4,0.9
		c-0.9,0.4-1.1,1.3-1.4,2c-3.3,6.1-6.7,12.1-11.3,17.2c0.4,0.8,0.9,1.6,1.1,2.4c1.5,4.4,2.7,8.8,4.8,13c0.5,1,0.9,1.9,1.3,2.9
		c0.2,0.5,0.3,1.1,0.3,1.6c0.1,1.3,0,2.7,0.1,4c0.1,3.4-0.3,6.6-1.8,9.7c-0.3,0.8-0.5,1.6-0.7,2.7c-0.8,0.4-1,1.4-1,2.2
		c0.5,0.6,1,1,1.3,1.5c1,1.3,1.9,2.6,2.9,4c0.9,1.2,1.8,2.4,2.7,3.7c1.5,2.2,1.7,4.4-0.2,6.5c-0.8,0.9-1,2-0.7,3.2
		c0.2,0.8,0.3,1.5,0.4,2.3c0,0.1-0.1,0.2-0.1,0.3c-0.3,0-0.6-0.1-0.9-0.1c-0.4,1.7-0.3,2.4,0.2,4c0.5,1.4,1.1,1.8,2.6,1.4
		c2.3-0.6,4.5-1.4,6.8-2c3.4-1,6.8-2,10.2-3c1.5-0.5,2.9-1.1,4.4-1.6c-0.7-0.3-1.3-0.3-1.9-0.3c-4.2-0.3-8.3-0.5-12.5-0.8
		c-1.5-0.1-2.1-0.7-2-1.6c0.1-0.9,0.8-1.4,2.2-1.3c1.9,0.1,3.8,0.2,5.7,0.3c3.6,0.2,7.1,0.7,10.5,1.8c1.1,0.3,2.1,0.3,3.1-0.2
		c3.2-1.4,6.6-2.4,10.1-2.9c1.2-0.2,2.4-0.3,3.5-0.7c2.7-1,5.4-2.2,8.1-3.3c0.4-0.2,0.7-0.4,1.2-0.6c-1.8-0.7-3.5-1.3-5.1-2.1
		c-2.7-1.4-5.4-2.9-8.1-4.3c-7.9-4.3-13.9-10.5-19.4-17.4c-0.2-0.2-0.2-0.5-0.3-0.8c0.1-0.1,0.2-0.2,0.3-0.3
		c4.5,5.5,9.5,10.4,15.4,14.3c5.9,3.9,12.1,7.2,18.5,10c1.7-0.2,2.8-1.4,3.8-2.6c0.9-1,1.8-2,2.8-2.9c0.7-0.7,1.4-1.4,1.1-2.6
		c-0.1-0.4,0.2-1,0.3-1.5c0.6-2.9,1.2-5.7,1.7-8.6c0.5-3.5,0.8-7.1,1.4-10.6c0.4-2.5,0.6-5.1,2.4-7.1c0.1-0.1,0.1-0.3,0.2-0.5
		c0.7-1.9,1.4-3.8,2.2-5.6c0.1-0.4,0.4-0.6,0.7-1c1-1.3,2.2-2.4,2.8-3.8c1.1-2.5,2.8-4.6,4.7-6.6c1.1-1.1,1.7-2.4,2.1-4
		c1.3-4.7,2.7-9.4,4-14.1c0.4-1.4,0.8-2.7,1.3-4c0.3-0.8,0.6-1.8,1.2-2.4c0.9-0.9,1.1-2.1,1.4-3.2c0.8-2.3,1.6-4.6,2.5-6.8
		c0.5-1.2,1.3-2.4,2.4-3.1c0.6,0.3,1.1,0.6,1.7,0.9c0.5-0.9,1-1.7,1.4-2.5c0.4-0.7,1.1-1,1.9-0.9c1.1,0.1,2.1,0.6,2.8,1.4
		c0.3,0.3,0.5,0.7,0.8,1.1c0.4-0.5,0.6-0.8,0.9-1.2c1.6-1.9,3.6-1.9,5.1,0.1c0.2,0.3,0.5,0.6,0.6,1c0.7,1.6,1.3,3.2,1.9,4.9
		c0.6,1.7,0.6,3.4-0.1,5.1c-0.1,0.3-0.2,0.7-0.1,1c0.8,2.4,0.9,5,1.2,7.5c0.3,2.1,0.6,4.2,0.8,6.4c0.2,1.3,0.2,2.6,0.5,3.8
		c0.2,1.1,0.6,2.2,0.8,3.3c0.3,1.9,0.5,3.8,0.9,5.7c0.6,3,1.2,6.1,1.9,9.1c0.1,0.3,0.2,0.6,0.3,0.9c0.3,0.9,0.8,1.7,1,2.7
		c0.4,2.3,0.5,4.6,0.9,6.9c0.7,4.2,1.5,8.3,2.2,12.5c0.1,0.5,0.1,1,0.1,1.5c-0.1,5.6,1.4,10.9,2,16.6c2.3-0.9,4.6-1.6,6.7-2.7
		c5.4-2.8,10.8-5.7,16.1-8.6c10.5-5.9,21.1-11.8,30.7-19.2C533,341.5,533.3,341.4,533.6,341.2z M451.7,396.6
		c0.4,0.8,0.8,1.6,1.2,2.5c0.9,2.4,2.6,3.9,5.1,4.5c0.8,0.2,1.7,0.3,2.5,0.6c0.7,0.2,1.5,0.5,2.2,0.9c1.4,1,2.9,1.4,4.5,1.8
		c4.1,0.9,8.3,1.5,12.1,3.6c0.9,0.5,1.7,1.3,2.6,1.8c2.7,1.5,5.3,3,8,4.3c7.1,3.6,14.1,7.1,21.2,10.6c5,2.5,10.1,4.8,15.1,7.2
		c2.7,1.3,5.4,2.5,8.2,3.7c0.7,0.3,1.4,0.6,2.2,0.9c12.4,5,25.4,7.5,38.6,8.7c5.7,0.5,11.4,1.3,17.1,2.4c2.2,0.4,4.5,1,6.7,0.9
		c4-0.1,8-0.2,12,0.5c5,0.8,10,1.5,15,2.3c3.8,0.6,7.6,1.4,11.5,0.5c0.8-0.2,1.5-0.4,2.1-0.9c1-1,2.1-1.8,3.2-2.8
		c0.3-0.3,0.5-0.7,0.6-1.1c1.2-4.7,2.4-9.4,3.5-14.1c0.5-2.1,0.7-4.3,1-6.4c-0.9,0.3-1.7,0.9-2.5,0.8c-1.1-0.1-2,0.2-3,0.3
		c-1.2,0.2-2.5,0.2-3.7,0.3c-1.1,0-2.1,0-3.2-0.1c-0.3,0-0.6-0.3-1-0.6c0.5-0.3,0.7-0.5,1-0.6c3.1-0.7,5.9-2.1,8.9-3.2
		c1.3-0.5,2.4-1,3.7,0.2c0.4-0.9,0.8-1.5,0.9-2.2c0.2-1,0.3-2.1,0.4-3.2c0.3-6.1,0.7-12.3,0.3-18.4c0-0.7-0.1-1.5,0.3-2
		c0.6-1,0.5-1.9,0.4-2.9c-0.2-2.5-0.4-4.9-0.6-7.4c-0.1-1.2,0-2.5-0.1-3.7c-0.5-5.2,0-10.4,0.6-15.5c0.3-3.1,0.3-6.1-0.4-9.1
		c-1.1-4.9-2.2-9.8-3.2-14.7c-1.4-7-3.7-13.7-7.4-19.9c-2.1-3.6-4.3-7.2-6.4-10.7c-0.7-1.1-1.5-2.1-2.2-3.2
		c-1.4-2.1-2.9-4.1-4.1-6.2c-1.8-3.2-3.3-6.5-4.9-9.8c-0.4-0.8-0.7-1.7-0.8-2.6c-0.7-4.4-0.7-8.9-0.6-13.3c0-1.7,0-3.4-0.1-5.1
		c-0.1-2-0.4-3.9-0.5-5.9c-0.1-1.2-0.2-2.4-0.3-3.5c-0.1-1.1-0.2-2.1-0.4-3.3c0.5,0.2,0.9,0.4,1.4,0.6c-0.3-0.9-0.5-1.6-0.7-2.2
		c-1.2-3.2-2.3-6.4-3.5-9.5c-2.4-6.5-4.9-13-8-19.2c-4.8-9.6-12.4-16.3-21.3-21.7c-0.8-0.5-1.5-1.1-2.2-1.8c-1.5-1.6-3.2-3-5.3-3.8
		c-5.3-2-10.6-3.9-15.9-5.8c-0.2-0.1-0.3-0.1-0.5-0.2c-1.8-0.4-3.6-0.8-5.4-1.2c-0.9-0.2-1.7-0.4-2.4-0.5c-3.6,8.6-6.7,17.1-9.2,26
		c1.1,0.5,1,1.3,0.7,2.2c-0.1,0.4-0.2,0.8-0.3,1.1c-1.2,2.8-1.8,5.8-2.3,8.8c-1.3,7.2-1.9,14.4-2.3,21.7c-0.4,6.6,0.1,13.2,1,19.7
		c0.9,6.3,2.6,12.3,4.4,18.4c0.7,2.3,1.5,4.6,2.6,6.8c1.3,2.4,3,4.5,4.6,6.7c1,1.4,2.2,2.6,3.4,4c0.4-0.6,0.8-1,1-1.5
		c0.6-1.3,1-2.6,1.5-3.9c0.1-0.4,0.2-0.8,0.3-1.2c0.4-1.6,0.8-3.3,1.2-4.9c0.1-0.2,0.5-0.5,0.7-0.5c0.2,0,0.5,0.4,0.6,0.7
		c0.2,0.9,0.2,1.8,0.4,2.7c0.2,1.2,0.3,2.4,0.5,3.7c0.1,0.9,0.4,1.8,0.4,2.6c0,7.2,0,14.4,0.7,21.6c0.5,4.9,1,9.8,2,14.6
		c1.1,5.5,2.5,11,3.6,16.5c0.9,4.4,2.7,8.5,5,12.3c0.2,0.4,0.5,0.9,0.8,1c1.4,0.3,2,1.4,2.7,2.4c1.9,2.5,3.9,4.8,6.2,6.9
		c0.7,0.7,1.3,1.6,1.7,2.5c0.6,1.4,0.5,1.5,2,1.5c5.2-0.1,10.4,0.4,15.5,1c5.9,0.7,11.8,1.8,17.6,3.3c0.9,0.2,1.7,0.7,2.8,1.2
		c1.9-0.3,2.1-0.1,2.6,1.6c-0.3,0-0.4-0.1-0.6-0.1c-0.8-0.1-1.7-0.5-2.5-0.3c-1.2,0.4-2.2,0.1-3.3-0.1c-4.6-0.8-9.1-1.7-13.7-2.5
		c-7.7-1.2-15.5-1.6-23.3-1.5c-1.5,0-3-0.3-4.4,0.8c-0.2,0.2-0.5,0.2-0.8,0.2c-4.7,0.9-9.4,1.8-14.3,1.5c-0.3,0-0.7,0-1,0.1
		c-4.5,0.8-8.9,1.2-13.5,1c-2.3-0.1-4.6-0.1-6.9,0.1c-1.7,0.2-3.4,0-5-0.5c-2-0.7-4-1.4-6.1-2.1c-0.5-0.2-1-0.3-1.5-0.4
		c-1-0.2-2-0.2-3-0.4c-5.1-1.3-10.3-2.6-15.4-4c-6.5-1.7-12.9-3.6-19.4-5.3c-3.6-1-7.2-2-10.3-4.2c-0.9-0.7-2-1.2-3.1-1.8
		c-1.3,1.8-2.6,3.6-3.9,5.5c0.3-1,0.7-2,1.1-2.9c0.4-1,0.7-2,1.1-3c0.4-0.9,0.5-1.9-0.1-2.7c-0.6-1-0.9-2-1.2-3.2
		c-1.1-5.2-1.8-10.4-1.6-15.8c0-0.6-0.1-1.2-0.2-1.8c-0.5-2.5-1.1-5.1-1.4-7.6c-0.5-3.5-0.7-7-1.1-10.4c-0.2-1.5-0.4-3-1.2-4.6
		c-0.5,1.5-0.7,2.8-0.3,4c0.3,0.9,0.6,1.8,0.9,2.7c0.4,1.2,0.6,2.4,0.3,3.7c-0.6-1.6-1.2-3.3-1.6-4.9c-0.4-1.5-0.6-2.9-0.5-4.5
		c0.1-1.6-0.4-3.2-0.7-4.8c-0.1-0.9-0.6-1.8-0.5-2.6c0.1-1.2-0.2-2.2-0.6-3.3c-1.3-3.4-2.4-6.8-2.4-10.5c0-0.6-0.4-1.2-0.7-1.9
		c-0.2-0.5-0.7-1.1-0.6-1.5c0.3-1.4-0.3-2.5-0.5-3.8c-0.2-1.2-0.4-2.3-0.4-3.5c0-1.4,0.2-2.9,0.3-4.4c-1.2-0.5-2.2,0.1-3.2,0.5
		c-2.6,1-2.7,1.2-2.9,4.1c-0.1,1.6-0.3,3.2-0.7,4.8c-0.1,0.6-0.2,1.1-0.1,1.8c0.2,1.7,0.5,3.5-0.4,5.1c-0.7,1.3-0.9,2.6-0.6,4.1
		c0.2,0.9,0.4,1.8,0,2.8c-0.1,0.3,0.1,0.8,0.3,1.4c0.9-0.8,1.5-1.4,2.2-2c0.3-0.3,0.8-0.7,1.1-0.6c1,0.2,2-0.1,3-0.1
		c1.1,0,1.3,0.4,1.1,1.5c-0.9,0.2-1.8,0.6-2.6,0.5c-1.7-0.2-2.6,0.9-3.4,2c-0.2,0.3-0.4,0.7-0.3,1.1c0.2,2.1-0.1,4.2,0.2,6.3
		c0.3,1.5-0.3,3.2-0.5,4.8c-0.3,2.3-1,4.5-1.1,6.8c-0.3,5.6-0.3,11.3-0.5,16.9c0,1.2-0.2,2.4-0.8,3.4c-1.3,2.3-1.1,4.5-0.7,6.9
		c0.3,1.4,0.4,2.9,0.1,4.2c-0.7,3.2-0.7,6.5-0.7,9.8c0,2.4-0.2,4.9-0.3,7.3c0,0.7-0.4,1.4-0.6,2.1c-0.1,0.3-0.3,0.5-0.3,0.8
		C452.1,393.8,451.9,395.1,451.7,396.6z M419.1,61.3c-2.5,1.3-3.6,2.5-4.7,4.8c-0.2,0.5-0.4,1.1-0.8,1.5c-1.1,1.5-1.2,3.2-0.9,4.8
		c0.2,1.4,0,2.8-0.3,4.2c-0.3,1.5-0.7,3.1-0.8,4.7c-0.1,4-0.2,8,0,12c0.1,2.5-0.3,4.9-0.8,7.4c-0.3,1.2-0.4,2.4-0.8,3.6
		c-0.3,1.1-0.7,2.1-1.2,3.1c-1,2-2,3.9-1.7,6.2c0.2,1.3,0,2.7-0.1,4.1c0,0.8,0.1,1.4,0.6,2.1c0.3,0.4,0.6,1,0.7,1.5
		c0.7,3.3,1.4,6.6,4.3,8.8c0.1,0.1,0.2,0.2,0.2,0.3c2.2,2.9,4.4,5.7,6.5,8.6c0.2,0.3,0.3,0.7,0.5,1.1c-0.8,0.3-1.3-0.2-1.8-0.5
		c-1-0.8-1.9-1.6-2.9-2.4c-0.3-0.2-0.9-0.3-1.2-0.2c-0.2,0.1-0.3,0.8-0.2,1.2c0.1,0.8,0.4,1.5,0.5,2.3c0.3,2.2,0.6,4.4,0.9,6.5
		c0.2,1.5,0.4,3,0.8,4.5c0.3,1,0.4,2,0.5,3c0.2,3.5,0.7,7,2.4,10.1c1.5,3,3.1,5.9,4.5,8.9c0.5,1.1,1.3,2,2.2,2.7
		c4.3,3.4,8.5,6.7,12.8,10.1c0.5,0.4,1.1,0.7,1.6,0.8c4.1,0.5,8.3,1.3,12.5,1c0.6,0,1.1-0.1,1.7,0c2.8,0.5,5.5,0.3,8.3,0
		c1.5-0.2,3-0.4,4.3-1.3c1.6-1.2,3.3-2.2,4.9-3.3c1.4-0.9,2.8-1.7,4-2.8c2.3-1.9,4.5-3.9,6.9-5.8c3.4-2.7,6.4-5.7,8.4-9.6
		c0.4-0.7,0.7-1.6,0.7-2.4c-0.1-3.8,0.7-7.4,1.6-11c1.1-4.6,2.1-9.2,3.1-13.9c0.1-0.5,0.3-1,0.5-1.4c0.2-0.6,0.6-0.9,1.3-0.7
		c0.7,0.2,0.8,0.8,0.7,1.3c-0.1,0.7-0.2,1.3-0.4,2c-0.1,0.5-0.3,1,0.4,1.5c0.6-0.2,1.4-0.4,2.1-0.6c0.6-6.3,3.6-11.5,7.3-16.4
		c-1.3-0.4-1.4-1.3-1.3-2.4c0.1-0.8,0.1-1.6,0.2-2.4c0-0.6,0.1-1.2,0.1-1.9c-1.7,0.9-3.3,3.7-3,5.1c0,0.3,0.2,0.5,0.4,0.7
		c1,1.1,1,2.2,0.4,3.5c-0.3,0.6-0.4,1.3-0.8,1.9c-0.8,1.3-1.5,2.7-3.1,3.3c-0.8,0.3-1.3,0.8-1.9,1.3c-1.6,1.5-3.1,3.1-4.8,4.5
		c-0.3,0.3-0.8,0.4-1.2,0.6c-0.6-0.6-0.4-1.1,0-1.5c0.3-0.3,0.6-0.5,0.9-0.8c2.4-2,4.3-4.4,5.9-7.2c0.4-0.7,0.6-1.3,0.2-2.1
		c-0.5-0.8-0.4-1.7-0.3-2.6c0.2-0.7,0.3-1.4,0.3-2.2c0.3-3.4,0.5-6.7,0.8-10.1c0-0.1,0-0.2,0-0.3c0.2-1,0.5-1.2,1.6-1.1
		c0.3,0,0.7-0.1,1-0.2c-0.8-1.1-1.3-2.1-2.1-2.8c-2.2-2.1-3.1-4.7-3.5-7.5c-0.5-3.7-0.9-7.5-1.4-11.2c-0.1-0.7-0.3-1.5-0.8-2
		c-0.8-0.7-1.8-1.2-2.8-1.8c0.1,0.6,0.1,1.1,0.3,1.5c0.9,2.2,0.8,4.3,0,6.4c-0.3,0.8-0.2,1.4,0.4,2c2.3,2.2,2.9,5,2.9,8
		c0,0.6-0.1,1.3-0.4,1.4c-1.1,0.1-1.9,0.1-2.6,0.3c-0.6,0.1-1.1-0.1-1.4-0.7c-0.2-0.4-0.4-0.8-0.6-1.2c-0.4-0.7-1-1.1-1.9-1.1
		c-1.9,0.1-3.9,0.2-5.1-1.6c-1,0.4-1.8,0.9-2.6,1.2c-1.6,0.6-3.3,0.4-4.8-0.1c-1.2-0.4-2.2-0.2-3.2,0.4c-1.5,0.9-3.2,1.3-5,1.1
		c-1.5-0.2-2.9-0.4-4.3-0.8c-1.1-0.3-1.4-0.8-1.3-1.6c0.1-0.8,0.2-1.6,0.4-2.5c1-0.6,2.1-0.7,3.2-0.2c1.2,0.6,2.1,0.4,3.1-0.3
		c1.3-0.9,2.8-1.5,4.3-1.1c2.1,0.5,4.2,0,6.2-0.2c2.8-0.2,5.3,0.4,7.5,2.1c0.9,0.7,1.8,1.2,2.8,1.5c1.4,0.3,2.5,1,3.1,2.4
		c0.1,0.2,0.4,0.4,0.7,0.7c0.1-0.4,0.2-0.6,0.1-0.9c-0.2-2.2-0.7-4.4-2.5-5.9c-1-0.9-1.5-2.1-1.5-3.4c0-1.3-0.2-2.7-0.2-4
		c0-0.8,0.2-1.7,0.3-2.5c0.1-0.6,0.2-1.3,0-1.8c-1-2.9-0.6-5.8-0.8-8.7c0-0.1,0.2-0.3,0.3-0.5c1.2,0.5,1.7,1.4,1.8,2.6
		c0.1,1.5,0.2,2.9,0.4,4.4c0.1,0.7,0.1,1.5,0.7,2.2c0.5-1.4,1-2.6,1.4-3.9c0.4-1.3,0.8-2.6,1.2-3.9c0.3-0.9,0.3-1.7-0.1-2.6
		c-0.4-1-0.7-2.2-1-3.2c-0.6-2.1-1.1-4.1-1.8-6.2c-0.1-0.4-0.5-0.9-0.8-1.2c-2.1-1.7-4.4-3.1-7.2-3.2c-0.1,0-0.2-0.1-0.3-0.1
		c-2.2-0.5-4.3-0.9-6.3,0.4c-0.8,0.5-1.7,0.5-2.6,0.1c-0.6-0.3-1-0.2-1.6,0c-1.2,0.5-2.4,0.4-3.8,0.2c-1.5-0.2-3.2-0.1-4.6,0.4
		c-2.1,0.7-4.1,1.7-6.2,2.6c-0.2,0.1-0.5,0-0.8,0c-0.3-0.5-0.6-1-0.8-1.5c-0.5,0.2-0.8,0.4-1.2,0.5c-1.3,0.2-2.6,0.4-3.7,1.3
		c-0.8,0.6-2,0-2.3-1c-0.1-0.4-0.2-0.9-0.3-1.3c-1-0.4-1.8-0.3-2.7,0.1c-1.1,0.5-2.3,0.6-3.4-0.1c-0.4-0.2-1-0.3-1.4-0.3
		c-1.6-0.1-2.9-0.8-4.1-1.7c-1.1-0.8-2.2-1.5-3.3-2.4c-1-0.7-1.8-0.6-2.7,0.1c-0.9,0.7-2,1.2-3.1,1.6c-1.4,0.5-2.8,0.8-4.2,1.2
		c-0.3,0.1-0.6,0.4-0.8,0.6c-0.4,0.4-0.8,0.8-1.2,1.2C421.6,63.1,421.1,63.1,419.1,61.3z M491.3,451.2c-2.4,2.1-4.8,4.2-7.2,6.3
		c-8.1,7.1-17.4,11.6-27.9,13.9c-0.3,0.1-0.6,0-1-0.1c0.4-0.7,1-0.7,1.5-0.9c2.3-0.9,4.6-1.7,6.7-2.7c9.4-4.6,17.5-11.1,25.1-18.3
		c0.2-0.2,0.5-0.5,0.7-0.7c5.3-6.3,10.2-12.8,14.7-19.6c0.4-0.5,0.6-1.1,1-1.8c-2-1.1-3.9-2.2-5.9-3.3c-1.6,3.6-4,6.4-6.7,8.9
		c-4.8,4.7-10.1,9-15.5,12.8c-7.3,5.2-14.8,10.2-23.1,13.7c-2.3,1-4.4,2.2-6.8,3.5c1,0.3,1.8,0.5,2.6,0.7c-0.1,0.2-0.2,0.2-0.2,0.2
		c-0.2,0-0.5,0-0.7,0c-2-0.6-4-0.5-5.9,0.3c-0.7,0.3-1.4,0.4-2.1,0.6c-0.3,0.1-0.7-0.1-1.1-0.1c0.2-1.5,1.9-1.1,2.3-2.1
		c-0.4-0.1-0.7-0.2-1-0.3c-5.1-1.2-9.9-3.1-14.5-5.5c-4.3-2.1-8.2-4.7-11.6-8.2c-1.8-1.9-3.4-3.9-5.1-5.8c-3.4-3.8-5.6-8.3-7.6-13
		c-0.3-0.6-0.4-1.3-0.5-2c-0.1-0.6,0.2-1.2,1.1-1.3c0.4,0.8,0.9,1.6,1.2,2.4c2.5,5.6,5.8,10.7,9.7,15.4c3.3,4,6.9,7.6,11.5,10.1
		c4.4,2.4,8.8,4.8,13.7,6.3c0.7,0.2,1.4,0.4,2.1,0.8c1.5,0.9,3,0.7,4.5-0.1c4.4-2.3,8.8-4.6,13.1-7c2.4-1.3,4.7-2.7,7-4.2
		c3.5-2.2,7-4.4,10.2-6.9c4.8-3.6,9.5-7.5,14.1-11.4c2.2-1.8,4.2-4,6.2-6c0.7-0.7,1.3-1.7,1.6-2.7c-5.5-2.8-10.8-5.5-16.3-8.3
		c-1.4,0.8-2.8,1.8-4.2,2.6c-1.4,0.8-2.9,1.5-4.3,2.3c-1.5,0.8-3,1.6-4.5,2.3c-1.5,0.7-3,1.4-4.5,2c-1.6,0.6-3.2,1.2-4.8,1.7
		c-1.6,0.5-3.1,1-4.7,1.4c-1.6,0.4-3,1.4-5,1.5c0.2-0.5,0.2-0.9,0.4-1.1c0.4-0.3,0.8-0.4,1.2-0.6c7.7-2.7,15.1-6.1,22.2-10
		c1.4-0.8,2.7-1.6,4.2-2.1c0.8-0.3,1.5-0.6,2.3-1.3c-1.2-0.5-2.2-1.1-3.2-1.4c-2.7-0.7-5.6-1.1-8.2-2c-2.7-1-4.8-0.2-7.1,0.9
		c-0.6,0.3-1.1,0.7-1.7,1c-0.9,0.5-1.8,0.9-2.7,1.3c-0.3,0.1-0.6,0-1-0.1c0-0.1-0.1-0.3-0.1-0.4c1.2-0.7,2.4-1.3,3.6-2
		c1.2-0.7,2.4-1.5,3.6-2.4c-2-1.5-2-1.5-4.1-2c-0.7-0.2-1.3-0.3-2-0.5c-2.9-0.9-4.9-2.8-6-5.6c-0.2-0.4-0.3-0.8-0.5-1.3
		c-1.4,1.6-3,2.6-5,3c-0.3,0.1-0.7,0.2-0.9,0.5c-0.7,0.9-1.7,1.1-2.7,1.4c-1.3,0.3-2.6,0.7-3.9,1c-2.7,0.6-5.1,1.6-7.4,3.3
		c-2.1,1.6-4.3,3.1-6.6,4.4c-4.1,2.3-8.3,4.5-12.5,6.7c-0.5,0.3-0.9,0.6-1.5,0.9c1.9,2,4.1,3.4,6.2,4.9c5,3.5,10.3,6.6,16,8.8
		c3.1,1.3,6.3,2.5,9.5,3.7c4.7,1.8,9.4,3.1,14.5,3.4c1.9,0.1,3.8,0.4,5.7,0.6c-0.6,0.2-1.1,0.2-1.7,0.2c-3.2-0.3-6.5-0.6-9.7-1.1
		c-2.2-0.3-4.5-0.6-6.6-1.3c-5.2-1.6-10.3-3.2-15.4-5.1c-2.3-0.8-4.5-1.9-6.6-3.1c-2.7-1.6-5.3-3.4-7.9-5.3c-1.6-1.2-3.1-2.6-4.6-4
		c-0.3-0.3-0.5-0.7-0.8-1.1c-2.6,1.3-5,2.5-7.5,3.7c-0.3,0.1-0.6,0.3-0.8,0.6c-1.1,1.7-2.9,2.4-4.7,3.2c-0.9,0.4-1.8,0.8-3,1.3
		c1.2,1.4,2.4,2.6,3.4,3.9c2.1,2.5,4.2,5,6.1,7.7c2.9,4.2,5.6,8.5,8.2,12.8c1.1,1.7,2.4,3.1,4,4.3c3.9,2.7,8.1,4.7,12.6,6.1
		c4.8,1.4,9.6,2.8,14.6,3.5c2.2,0.3,4.5,0.5,6.7,0.9c1.7,0.3,3.4,0.3,5,0c0.9-0.2,1.8-0.4,2.6-0.6c0.4-0.1,0.9-0.2,1.2,0.4
		c-0.2,0.8-0.9,0.7-1.5,0.9c-2.4,0.8-4.9,0.6-7.3,1.1c-2.6,0.5-5.3,0.4-7.9,0.1c-1.8-0.2-3.6-0.5-5.3-0.8
		c-5.4-1.1-10.8-2.5-15.7-5.2c-1.2-0.7-2.4-1.4-3.8-2.2c0.9,2.2,2.1,4,3.9,5.2c0.4,0.3,0.9,0.5,1.4,0.6c1.4,0.3,2.6,1.1,4,1.6
		c0.1,0,0.1,0.3,0.2,0.6c-0.6,0.2-1.1,0.4-1.9,0.6c0.6,0.5,1,0.8,1.5,1.1c0.6,0.3,1.3,0.5,1.9,0.7c6.2,2.1,12.8,2.7,19.2,4
		c0.8,0.2,1.7,0.4,2.5,0.5c3.5,0.1,7,0.2,10.3-1.2c2.8-1.1,5.6-2.1,8.4-3.1c2.3-0.8,4.5-1.7,6.5-3.1c1.1-0.8,2.4-1.3,3.5-2.1
		c0.7-0.5,1.3-0.3,1.8,0.3C481.5,466.4,489.5,455.5,491.3,451.2z M229.7,295.6c-0.4,0.5-1,0.8-1,1.2c-0.2,1.5-1.1,2.5-1.9,3.5
		c-3.6,4.6-5.9,9.8-7.7,15.4c-0.7,2.2-1,4.2,0.2,6.3c0.2,0.4,0.3,0.8,0.5,1.3c0.8,2.5,2,4.8,3.7,6.8c0.5,0.6,1.1,1.3,1.3,2
		c0.7,2.7,1.6,5.3,1.8,8c0.4,3.7,0.4,7.4,0.4,11.2c0,2.9,0.2,5.7,0.9,8.6c2,8,3.9,16,6,24c1.7,6.7,4.7,12.8,8.6,18.6
		c0.1-0.6,0.3-1.1,0.4-1.7c0.5-3.1,1-6.1,1.6-9.2c0.8-4.4,1.9-8.7,2.2-13.2c0.1-1.1,0.4-2.4,1-3.3c0.6-0.9,0.9-1.8,0.9-2.8
		c0.2-2.2,0.2-4.5,0.4-6.8c0.2-2.7,0.5-5.4,0.8-8.1c0.2-1.7,0.5-3.3-0.6-4.9c-0.6-0.8-0.3-1.3,0.8-2.2c0,1,0,1.9,0,2.8
		c0.1,0,0.3,0,0.4,0c0.6-2.4,1.3-4.8,1.9-7.2c-0.1,0-0.1,0-0.2-0.1c-0.4,0.9-0.8,1.8-1.3,3c0-0.7-0.1-1.1,0-1.5c0.5-2,1-4,1.7-5.8
		c2.9-7.2,6.9-13.8,11.3-20.2c2.9-4.1,5.7-8.3,8.6-12.3c0.8-1.1,1.2-2.3,0.7-3.6c0-0.1,0.1-0.3,0.1-0.4c0.9-0.4,0.8,0.8,1.4,0.9
		c0.9-1.3,1.7-2.6,2.2-4.2c0.4-1.6,0.9-3.1,1.6-4.6c1.1-2.5,1.3-5.1,0.9-7.8c-0.3-0.3-0.7-0.5-1-0.9c-4.3-4.2-9.5-6.9-15.2-8.9
		c-1.6-0.6-3.1-0.7-4.8-0.1c-4,1.5-8.2,2.6-12.5,2.7c-1.2,0-2.3,0.4-3.5,0.8c-0.5,0.1-1,0.4-1.3,0.7c-2.1,2.2-4.2,4.4-6.3,6.6
		c-0.8,0.9-1.3,2-1.9,3.2c1,0.1,1.8,0.2,2.6,0.4c0.7,0.1,1.5,0.1,2.1,0.8c-1.5,0.6-3,1.1-4.4,1.6
		C231.9,296.6,230.8,296.7,229.7,295.6z M670,361.8c1-1.3,1.1-2.7,1.5-4c0.2-0.6,0.5-1.1,0.8-1.6c1.2-2.2,2.8-4.4,1.9-7.3
		c-0.2-0.5-0.1-1.1-0.1-1.7c0.3-3.5,0.6-7,2.1-10.2c0.2-0.5,0.4-1,0.6-1.6c1.7-4.9,3.1-9.8,3.6-14.9c0.3-3.2,0.4-6.4-1.7-9.2
		c-1.4,0.2-1.4,0.1-2-1.1c-0.7-1.6-1.4-3.2-2.2-4.7c-1.4-2.9-3-5.7-5.2-8.1c-0.3-0.3-0.5-0.8-0.7-1.1c-0.3-0.4-0.6-0.8-1-1
		c-1.7-1-3.4-2-5-3.1c-0.9-0.6-1.8-1.3-3-1.3c-0.6,0-1.3-0.4-1.8-0.8c-1.2-1-2.4-2.1-3.4-3.3c-1.1-1.3-2.2-2.6-3.6-3.5
		c-1.7-1.1-3.7-1.9-5.7-1.9c-2.6,0-5.3,0.1-7.9-0.4c-0.5-0.1-1,0-1.5,0.1c-3.9,0.9-7.9,1.9-11.7,2.8c-0.1,0.2-0.2,0.3-0.2,0.4
		c-0.3,3.7-0.1,7.3,0.5,11c0.1,0.5,0.3,1,0.6,1.3c2.2,2.9,3.5,6.1,4.5,9.6c0.3,0.9,0.6,1.8,1.2,2.6c1.5,2.2,3.2,4.4,4.8,6.6
		c2.4,3.4,4.8,6.7,7.1,10.1c2.5,3.9,4.5,8.1,5.8,12.5c2,6.7,2.9,13.7,3.2,20.7c0,0.6-0.1,1.2,0.4,1.7c1.2,1.2,1.6,2.7,1.6,4.3
		c-0.1,2.3-0.3,4.5-0.4,6.8c-0.5,5.9-0.3,11.7-0.1,17.6c0.2,4.6,0.5,9.2,0.8,13.8c0,0.4,0.1,0.7,0.1,1.4c0.6-1.2,1.1-2.2,1.5-3.1
		c1.5-3.4,3.3-6.7,4.5-10.2c2.5-7.5,5.4-14.8,9-21.9c0.9-1.8,1.6-3.7,1.9-5.8c0.1-0.5,0.2-1.1,0.2-1.6c-0.1,0-0.2-0.1-0.3-0.1
		c-0.5,1-1,1.9-1.5,2.9c-0.1,0-0.1-0.1-0.2-0.1c0-0.4,0.1-0.8,0.1-1.3c-1.7,1.3-3.3,2.5-4.8,3.7c-0.3,0.3-0.7,0.7-0.7,1.1
		c-0.1,0.7-0.5,1.1-1,1.5c-0.9,0.7-1.9,1.4-2.8,2.1c-0.5,0.4-1.1,0.8-1.6,1.2c1-2.1,2.3-3.8,4.3-4.9c0.9-0.5,1.5-1.1,2-1.9
		c0.8-1.5,2-2.7,3.3-3.8C668.5,361.5,669.1,361.1,670,361.8z M350.9,366.7c-1.2-0.2-1.3-0.4-1-1.8c0.3-1,0.6-1.9,0.9-2.9
		c-1.2-1.1-2.3-2-3.6-2.6c-1.2-0.6-2.3-1.6-3.5-2.3c1.1,1.7,2,3.5,2.5,5.4c0.7,2.6,0.9,5.3,0.9,8c0,7.1-1.9,13.9-4,20.7
		c-0.2,0.8-0.5,1.5-0.9,2.2c-0.1,0.3-0.5,0.4-0.8,0.6c-0.7-0.8-0.3-1.4,0-2c1.6-4.2,2.4-8.6,2.4-13.1c0-1.7,0-3.4,0.1-5.1
		c0.3-4.7-0.2-9.2-1.6-13.7c-0.2-0.5-0.4-1.1-0.4-1.6c0.1-3-1.9-5.2-3-7.9c-0.2,0.4-0.4,0.6-0.4,0.8c-2.5,7-5.8,13.6-10.4,19.5
		c-0.9,1.2-1.7,2.6-2.3,4c1.7,0.6,1.9,0.7,2.7,2.1c1,1.8,2,3.7,2.9,5.5c1.3,2.5,2.2,5.2,2.2,8.1c0,0.6,0.2,1.1,0.3,1.7
		c0.1,0.9,0.4,1.8-0.2,2.7c4.8,0.4,9.5,0.9,14.3,1.3c0.1-1,0.8-1.2,1.7-1.3c1.7-0.2,3.4-0.7,5.1-1.3c-2.4-3.3-2-6.7,1.1-8.8
		c-0.4-1.6-0.1-3.2,0.9-4.5c1-1.3,0.9-2.5,0.2-3.7c-1-1.7-2.2-3.3-3.2-5C352.8,370.1,351.9,368.5,350.9,366.7z M553.1,394
		c3.1-0.2,6.1-0.4,9-0.6c0.4-1.5,0.7-2.9,1.2-4.1c1.3-3.5,3.1-6.6,5.8-9.3c1.1-1.1,2-2.3,3.1-3.6c-5.1-10.2-9.2-20.7-10.9-32
		c-1.6,2.5-3.9,4.3-5.9,6.4c0,0-0.1,0.1-0.1,0.1c-0.1,0.2-0.3,0.5-0.3,0.8c0.2,1.2-0.6,1.8-1.4,2.3c-0.8,0.6-1.5,1.3-1.7,2.4
		c-1.6,6.5-2.5,13.1-2.1,19.8c0.1,1.9,0.2,3.9,0.9,5.6C552.2,385.7,552.5,389.7,553.1,394z M538.7,393.2c-0.1-1.1-0.1-2,1.1-2.2
		c0.3,0,0.5-0.5,0.6-0.8c0.5-0.8,0.9-1.7,1.4-2.5c0.5-0.8,1-1.5,1.6-2.2c0.1-0.1,0.6-0.1,0.7,0c0.2,0.1,0.3,0.5,0.2,0.7
		c-0.1,0.4-0.4,0.7-0.6,1c-0.5,0.9-1.1,1.9-1.5,2.8c-0.5,1.2-1,2.4-1.4,3.5c3.1,0,6.3,0,9.7,0c-0.3-1.4-0.7-2.5-0.7-3.6
		c-0.1-2.1-0.7-4-1.5-5.9c-1-2.5-1.4-5.1-1.5-7.8c-0.2-4.7-0.1-9.5,1.1-14.1c0.3-1.3,0.5-2.6,0.8-4c-0.6,0.4-0.9,0.6-1.3,0.9
		c-3.9,3-7.8,6-11.8,8.9c-2.4,1.7-3.1,4.1-3.4,6.9c0,0.2,0.1,0.4,0.2,0.6c1.9-0.4,2.5,0.1,2.4,1.9c-0.2,2.5-0.4,5.1-0.7,7.6
		c-0.1,1.3-0.7,2.3-1.9,3c-0.5,0.3-0.8,0.7-1.3,1.1c-0.2,0.2-0.5,0.3-0.8,0.5c-0.4-0.9-0.4-0.9-0.1-1.4c0.2-0.3,0.5-0.7,0.5-1
		c0.1-1.6,0-3.2,0-4.8c-6.6,2.7-13.6,2.9-21,2.7c0.4,0.3,0.5,0.5,0.7,0.5c3.5,0.9,7,2.1,10.6,2.7c4.5,0.7,8.8,1.7,13.1,3.4
		C535.5,392,537,392.5,538.7,393.2z M347.3,323.5c-1.2-1.1-2.4-2.2-3.7-3.3c0,1.7-0.1,3.2,0,4.7c0.1,1.9,0.4,3.8-0.4,5.7
		c-0.2,0.6-0.2,1.2-0.3,1.8c-0.6,3.7-1.3,7.3-2,11c-0.3,1.7-0.8,3.4-1.3,5.2c2.5,2.1,4.9,4.2,7.4,6.2c1.6,1.3,3.3,2.6,4.3,4.9
		c0.6-3.1,1.2-5.8,1.1-8.7c0-1-0.2-2.1,0.1-3c0.4-1.2,0.1-2-0.4-3c-2.7-5.3-4.5-10.9-6-16.7c-0.3-0.1-0.6-0.2-1.1-0.4
		C345.8,326.4,346.5,325.1,347.3,323.5z M307.1,394.3c2.7,0.7,22.8,1.1,25.5,0.6c-0.2-0.6-0.4-1.3-0.5-1.9c-0.2-1.4-0.7-2.6-1.4-3.8
		c-2.1-4-4.1-8-6.2-12.1c-0.2,0.3-0.5,0.8-0.8,1.2c-1.4,2-2.8,4.1-4.3,6.1c-1.7,2.2-3.8,4-6.4,5.1c-0.5,0.2-1,0.5-1.2,0.9
		c-0.6,1.2-1.7,1.7-2.7,2.4C308.6,393.1,308,393.6,307.1,394.3z M558.1,318.7c0.6,1.8,0.7,2.7,0.5,4.5c-0.1,0.9-0.2,1.8-0.4,2.7
		c-2.1,9.5-5.7,18.4-10.6,26.8c-0.3,0.5-0.6,1-0.8,1.5c1.6-1.1,3-2.3,4.5-3.4c3-2.3,6-4.4,9-6.7c0.6-0.4,1-0.9,0.9-1.7
		c-0.1-0.4,0-0.9-0.1-1.4c-0.6-4.8-0.9-9.7-0.9-14.5c0-2.6,0-5.2,0-7.8C559.4,318.7,558.8,318.7,558.1,318.7z M563.7,393.2
		c1.9,0.2,3.4-0.3,5-0.5c4.7-0.7,9.5-1.2,14.2-1.8c0.5-0.1,1-0.2,1.7-0.3c-3.6-2.4-4.1-2.9-6.8-6.4c-0.7-0.9-1.5-1.8-2.4-2.6
		c-0.6-0.6-1.4-1-2.2-1.5C569.5,383.8,566.5,388.2,563.7,393.2z M457.1,296.1c2.6-1.2,5-1.8,7.6-1.8c0.6-0.7,0.6-1.5,0.3-2.4
		c-0.7-2.2-1.6-4.3-2.2-6.5c-0.4-1.5-1.6-1.8-2.7-0.5c-0.5,0.6-1.1,1.1-1.6,1.7c-0.7,2.4-0.2,4.9-1.2,7.1c-0.2,0.4-0.3,0.8-0.4,1.3
		C456.8,295.3,457,295.6,457.1,296.1z M404.4,126.3c1.6-5.7-0.3-10.3-3.8-12.6C398.8,116.6,400.9,123.6,404.4,126.3z M411.8,141.7
		c0.7-0.4,0.6-1,0.4-1.6c-0.4-1.7-0.7-3.4-0.5-5.2c0.1-0.9-0.6-1.7-1.5-2c-0.9-0.2-1.7-0.5-2.6-0.7
		C407.9,133.9,410.7,140.7,411.8,141.7z M503.5,116.6c0.4-0.1,0.6-0.1,0.6-0.2c1.7-2.1,3.4-4.1,5.1-6.3c0.6-0.7,0.4-1-0.5-1.9
		c-0.1,0-0.2,0-0.3,0.1c-1.5,1.4-2.9,2.8-4.3,4.2c-0.1,0.1-0.2,0.3-0.2,0.4C503.7,114.1,503.6,115.3,503.5,116.6z M400.7,107.6
		c-0.2,0.4-0.3,0.5-0.3,0.7c0.1,0.3,0.1,0.7,0.3,0.9c1.1,1.3,2.3,2.6,3.4,3.9c0.2,0.2,0.4,0.3,0.7,0.4c0.6-1.9,0.5-2.3-0.8-3.3
		c-0.7-0.6-1.4-1.3-2.2-1.9C401.5,108.1,401.1,107.9,400.7,107.6z M438.3,46.8c-2.6-0.5-4.6,0.6-4.5,2.5
		C435.4,48.4,436.9,47.6,438.3,46.8z M510.6,112.9c-0.3,0.3-0.5,0.4-0.5,0.4c0.1,2.3,0.3,4.5,0.5,6.9
		C512.1,117.7,511.1,115.4,510.6,112.9z M491.8,44c-0.1,0.1-0.1,0.3-0.2,0.4c0.3,0.4,0.6,0.7,1,1c0.4,0.3,0.8,0.2,1.1-0.2
		c0.3-0.4,0.2-1.1-0.4-1.2C492.8,43.9,492.3,44,491.8,44z M503,123.5c-1,1.7-1,2-0.5,2.8C503.6,125.1,503.6,124.8,503,123.5z
		 M558.7,314.5c1.4,0,1.9-0.5,1.8-2C559.6,312.9,559.1,313.6,558.7,314.5z M476.2,470.4c-0.1-0.1-0.2-0.2-0.2-0.3
		c-1.2,0.7-2.3,1.5-3.5,2.2C474.1,472.3,475.2,471.4,476.2,470.4z M483.2,22.6c-1.7-0.4-2.2,0.1-1.8,1.6
		C482.1,23.7,482.6,23.2,483.2,22.6z M400.9,552.4c-0.2,0-0.3,0-0.5,0c0.1,0.3,0.1,0.6,0.2,0.9c0.1,0,0.2,0,0.3,0
		C400.9,553,400.9,552.7,400.9,552.4z M271.6,317.7c0,0-0.1-0.1-0.1-0.1c-0.1,0.2-0.2,0.3-0.3,0.5c0,0,0.1,0.1,0.1,0.1
		C271.4,318,271.5,317.9,271.6,317.7z M431.9,31.5c-0.5-0.2-0.6-0.3-0.8-0.3c0,0.1-0.1,0.3-0.1,0.4c0,0,0.2,0.1,0.2,0.1
		C431.4,31.7,431.6,31.7,431.9,31.5z M466.4,307.6c-0.1,0-0.1,0-0.2,0c0,0.2,0,0.5,0,0.7c0.1,0,0.1,0,0.2,0
		C466.4,308.1,466.4,307.8,466.4,307.6z M468,316.7c0-0.1,0-0.2,0-0.3c0,0,0,0-0.1,0C468,316.5,468,316.6,468,316.7
		C468,316.7,468,316.7,468,316.7z M333.5,578.5c0.1,0.1,0.2,0.2,0.3,0.1c0.1,0,0.2-0.1,0.4-0.2c-0.1-0.1-0.2-0.2-0.3-0.2
		C333.7,578.3,333.6,578.4,333.5,578.5z M439.5,30.4c-0.1,0.1-0.2,0.1-0.2,0.2c0,0,0.1,0.1,0.1,0.1c0.1-0.1,0.2-0.1,0.2-0.2
		C439.6,30.5,439.5,30.4,439.5,30.4z M503.3,434.3L503.3,434.3l-0.1,0.1L503.3,434.3z M476.9,469.8c0,0,0.1,0,0.1,0
		C477,469.8,477,469.7,476.9,469.8C476.9,469.7,476.9,469.7,476.9,469.8z M438.9,320.9l0-0.1L438.9,320.9L438.9,320.9z M468.3,317.9
		C468.4,317.9,468.4,317.9,468.3,317.9c0.1-0.1,0.1-0.2,0.1-0.2c0,0-0.1,0.1-0.1,0.1C468.3,317.8,468.3,317.9,468.3,317.9z
		 M467,312.8L467,312.8l0-0.1L467,312.8z M467.3,313.8c0-0.1,0-0.2,0-0.3C467.3,313.7,467.3,313.8,467.3,313.8z M467.6,315.1
		L467.6,315.1l0-0.1L467.6,315.1z"/>
	<path d="M490.7,547.6c0.9-0.6,1.4-1.8,2.7-2.1c0,0.4,0.1,0.7,0,0.8c-0.3,0.5-0.3,1-0.3,1.6c0,1.1-0.3,2.2-0.4,3.3
		c-0.3,2.3-0.6,4.7-1,7c-0.2,1.1-0.6,2.1-1.5,3c0.2-2,0.3-4.1,0.5-6.2c-1.2-0.7-2.1-1.5-2.4-2.9c-0.4-2.2-0.6-4.4,0.2-6.5
		c0.4-1.3,1-2.6,1.5-3.9c0.2-0.5,0.3-1,0.3-1.4c0.1-0.9,0-1.8,0.1-2.7c0-2.4,0.7-4.6,2-6.5c0.4-0.6,1.1-1,1.7-1.5
		c1.3-3.5,2.2-7.1,3.1-11.3c-2.1,1.8-4.3,1.3-6.3,1.4c-1.1,0-2.1,0.2-3.2,0.4c-0.3,0-0.7,0.2-1,0.2c-7.5,0.5-15.1,1.1-22.6,1.6
		c-2.1,0.1-4.2,0.3-6.2,0.4c-0.4,0-0.8,0.2-1.1,0.3c-2,0.7-3.9,0.8-6,0.2c-0.9-0.2-1.9-0.2-2.9-0.2c-6.7,0-13.4,0.1-20.2,0
		c-6.2-0.1-12.4-0.3-18.5-1.9c-2.6-0.7-5.1-1.7-7.6-2.7c-1.7-0.7-3.4-1.5-5.1-2.3c-0.9-0.4-1.7-0.9-2.5-1.4
		c-0.3-0.2-0.6-0.5-0.8-0.8c-0.1-0.3-0.2-0.7,0-0.9c0.1-0.2,0.6-0.3,0.9-0.3c0.5,0.1,0.9,0.4,1.4,0.5c3.1,1.3,6.3,2.5,9.4,3.8
		c3.5,1.4,7.2,1.9,10.9,2.4c4.5,0.6,9.1,0.7,13.7,0.7c6.6,0,13.2,0,19.8,0c1.2,0,2.4,0.3,3.8,0.5c0.1-0.1,0.2-0.4,0.5-0.6
		c0.4-0.2,0.9-0.6,1.3-0.5c3.7,0.5,7.4,0.3,11.1,0c3.5-0.2,7.1-0.7,10.6-1c2.9-0.3,5.9-0.4,8.8-0.7c2.6-0.3,5.3-0.5,7.9-0.5
		c1.2,0,2.3-0.7,3.6-0.5c0.2,0,0.7-0.6,0.9-1c0.5-1.3,1-2.6,1.5-4c0.2-0.6,0.5-1.3,1.4-1.2c0.6,0.1,0.7,0.8,0.5,1.9
		c-0.9,3.3-1.7,6.5-2.6,9.8c-0.5,1.8-1,3.7-1.5,5.5c-0.5,1.5-1.3,2.9-2.6,3.9c-1.4,1.1-1.9,2.5-1.9,4.1c0,1.3,0,2.6,0.1,3.9
		c0.1,1.9-0.3,3.6-1.3,5.1C490.6,545.7,490.6,546.2,490.7,547.6z M490.6,551.8c0.4-0.9,0.9-1.9,0-3.1
		C490.6,549.9,490.6,550.9,490.6,551.8z"/>
	<path d="M371.6,578.6c-0.6,0.4-1.2,0.7-1.7,1.1c-1,0.9-2,1.8-3,2.8c-0.3,0.3-0.5,0.7-0.8,1.2c0.2,0.2,0.3,0.5,0.5,0.6
		c0.7,0.5,0.6,1.1,0.2,1.6c-1.1,1.3-2.3,2.5-4.2,3c-3.1,0.8-5.9,0.3-8.7-1c-0.9-0.4-1.8-0.8-2.9-1.3c-5.3,1.1-8,0.3-10.6-3.3
		c0.7-0.4,1.3-0.1,1.9,0.2c0.6,0.3,1.2,0.7,1.8,1c1.8,0.9,3.7,1.1,5.8,0.4c0-0.4,0.2-0.8,0.1-1.1c-0.3-2,0.8-3.2,2.3-4.3
		c0.7-0.5,1.4-1.1,2.1-1.7c1.1-1.1,2.5-1.7,4-2.1c0.5-0.1,1-0.2,1.6-0.4c0.2-1.2,1.1-1.8,2.3-2.1c0.5-0.1,0.9-0.6,1.3-1
		c0.6-0.6,1-1.3,2-1.4c0,2.3-0.7,3.3-2.6,3.8c-0.8,0.2-1.3,0.4-1.6,1.3c-0.1,0.3-0.6,0.6-1,0.8c-0.8,0.3-1.6,0.5-2.4,0.7
		c-0.1,0-0.3,0.1-0.1,0c-0.1,0.1,0,0,0.1-0.1c0.5,0,1,0,1.5,0.2c0.4,0.1,0.8,0.6,0.8,0.9c0,0.3-0.3,0.9-0.6,1
		c-0.6,0.3-1.3,0.5-1.9,0.6c-1.2,0.3-2.5,0.4-3.6,0.8c-2,0.6-2.8,1.4-2.5,3.4c0.1,0.1,0.3,0.1,0.3,0.3c0.9,1.4,2.3,1.5,3.8,1.7
		c1.7,0.2,3.5,0.5,5.2,0.6c2.4,0.1,3.6-0.8,4.5-3c0.8-2,1.9-3.8,3.5-5.3c0.4-0.3,0.8-0.7,1.2-0.9c0.4-0.2,0.9-0.1,1.4-0.1
		C371.6,577.9,371.6,578.3,371.6,578.6L371.6,578.6z"/>
	<path d="M342.5,580c-0.6,0.8-1.3,1.5-1.9,2.3c-1.5,1.8-2.4,2.1-4.5,1c-0.6-0.3-1.2-0.6-1.7-1c-0.5-0.3-0.9-0.8-0.5-1.5
		c0.4-0.6,0.9-0.5,1.5-0.3c0.5,0.2,1,0.5,1.5,0.8c1.6,0.8,1.9,0.7,2.9-0.8c0.8-1.3,1.7-2.5,3.2-3c0.7-2.8,0.8-2.9,3.9-2.7
		c0.6-0.5,1-0.9,1.6-1.3c1.1-0.9,2.2-1.8,3.3-2.6c0.2-0.2,0.4-0.4,0.6-0.6c0.2-0.1,0.6-0.2,0.8,0c0.2,0.1,0.3,0.5,0.2,0.7
		c-0.2,0.5-0.5,1.1-0.9,1.4c-0.9,0.8-1.9,1.6-2.9,2.3c-1.1,0.7-2.3,1.1-3.4,1.8c-0.5,0.3-1,0.7-1.1,1.1c-0.3,0.9-0.8,1.4-1.6,1.8
		C343,579.5,342.7,579.8,342.5,580L342.5,580z"/>
	<path d="M376.7,582.7c0.9-3,3.3-4.3,6.2-4.4c2.4-0.1,4.8,0.3,7.2,0.6c1.6,0.2,1.7,0.5,1.8,2.4c-0.7,0.6-1.4,0.3-2.2,0
		c-0.7-0.3-1.4-0.7-2.2-0.8c-1.7-0.2-3.3-0.5-5-0.5C380.3,580.1,378.3,581,376.7,582.7L376.7,582.7z"/>
	<path d="M514.8,577.9c-0.7,1.7-0.8,1.7-2.2,1.3c-0.6-0.2-1.2-0.2-1.8-0.1c-2.4,0.3-4.9,0.7-7.3,1c-0.4,0.1-0.8,0.4-1.1,0.7
		c-0.9,0.7-1.9,1.4-3.2,1.4c-0.4-0.7,0-1.1,0.4-1.4c1.1-0.7,2.2-1.3,3.4-1.7c3.1-1,6.2-1.4,9.4-1.9C513.4,577,514.2,577,514.8,577.9
		z"/>
	<path d="M526.9,578.4c-0.8-1.6-1.5-2.8-2.1-4.1c-0.3-0.7-0.6-1.3-0.8-2c-0.1-0.8,0.2-1.4,1.2-1.9c-0.1,2.2,1,3.8,1.8,5.6
		c0.3,0.6,0.7,1,1.3,1.2c1.3,0.5,2.5,1,3.8,1.4c1.1,0.4,1.9,1,2.1,2.4c-0.4,0-0.9,0.1-1.1,0c-1.6-1.2-3.5-1.6-5.3-2.2
		C527.4,578.6,527,578.4,526.9,578.4z"/>
	<path d="M542,506.7c-0.7,1.4-1.3,2.5-1.9,3.6c-0.3,0.6-0.7,1.1-1.4,1.4c-0.8,0.3-1.3,0.9-1.4,1.8c-0.3,1.6-0.7,3.2-1,4.8
		c0,0.2,0,0.4-0.1,0.5c-0.2,0.3-0.5,0.7-0.8,0.7c-0.3,0-0.6-0.4-0.7-0.8c-0.1-0.4-0.2-0.9-0.1-1.3c0.2-2.1,0.8-4.1,2.6-5.5
		c0.6-0.5,1-1.1,1.2-1.9C538.7,508,540.3,507.4,542,506.7z"/>
	<path d="M516.6,493.2c-1,0.3-1.6,0.6-2.3,0.7c-2,0.3-4,0.5-6,0.7c-3.3,0.3-6.5,0.7-9.8,1c-0.6,0.1-1.2,0-1.8-0.3
		c0.3-0.1,0.5-0.4,0.8-0.4c1.4-0.2,2.8-0.3,4.2-0.5c4.1-0.5,8.3-1.1,12.4-1.7C514.9,492.6,515.6,492.5,516.6,493.2z"/>
	<path d="M449.8,482.1c0.2,2.6-0.5,5-0.6,7.6c-0.1,2.5-0.2,5-0.2,7.5c-1.1-2.4-1-5-0.9-7.6C448.2,484,448.4,483.3,449.8,482.1z"/>
	<path d="M532,558.6c1.8,1.1,2.5,2.6,2.7,4.3c1.3,0.6,2.6,1.1,3.8,1.7c0.5,0.3,1.5,0.5,1,1.4c-0.4,0.7-1.1,0-1.6-0.2
		c-0.4-0.2-0.7-0.4-1-0.6C532.6,563.2,533.9,563.9,532,558.6z"/>
	<path d="M367,527.3c-3.2,1.2-6.1,2.3-9,3.3c-0.3,0.1-0.6,0.2-0.8,0.2c-0.3,0-0.8-0.2-0.8-0.4c-0.1-0.3,0.1-0.7,0.3-1
		c0.2-0.2,0.6-0.4,0.9-0.5c2.9-0.6,5.7-1.2,8.6-1.8C366.4,527.1,366.5,527.2,367,527.3z"/>
	<path d="M381.1,483.4c-5.4-1.3-10.3-3.8-15.2-6.3c-0.3-0.2-0.5-0.5-0.6-1c0.4,0.1,0.8,0.1,1.2,0.3c1.9,0.9,3.9,1.9,5.7,2.9
		c2.4,1.4,4.9,2.3,7.4,3.1c0.6,0.2,1.1,0.4,1.7,0.6C381.2,483.2,381.2,483.3,381.1,483.4z"/>
	<path d="M353.6,584.2c0.2-0.2,0.3-0.5,0.5-0.6c2-0.7,4-1.2,6.1-1c0.7,0.1,1.3,0.3,1.3,1.4c-2.6,0.2-5.1,0.3-7.7,0.5
		C353.7,584.4,353.7,584.3,353.6,584.2z"/>
	<path d="M369.3,525.7c-0.1-1.3,0.8-1.3,1.5-1.5c1.6-0.5,3.2-0.3,4.8,0c0.3,0,0.6,0.4,1,0.7c-1.3,0.9-2.5,0.5-3.7,0.6
		C371.8,525.5,370.6,525.6,369.3,525.7z"/>
	<path d="M369,562.8c-0.2,1.2-0.2,2.4-0.6,3.6c-0.2,0.7-0.9,1.2-1.5,1.7c-0.2,0.2-0.9-0.1-1.1-0.3c-0.2-0.2-0.1-0.8,0-1
		c0.9-1.3,1.9-2.6,2.8-3.9C368.8,562.8,368.9,562.8,369,562.8z"/>
	<path d="M342.4,580.1c1.9-0.7,3.9-0.6,5.8-0.4c1,0.1,1.1,0.3,1.4,1.6c-0.7,0-1.4,0.1-2.1,0c-1.4-0.2-2.8-0.9-4.3-0.6
		C343,580.6,342.7,580.2,342.4,580.1L342.4,580.1z"/>
	<path d="M525.7,582.3c1.6-1.1,3.4-1.5,5.3-1.7c0.7-0.1,1.2,0.2,1.2,1.3c-2.2,0.3-4.3,0.6-6.4,0.8
		C525.7,582.6,525.7,582.5,525.7,582.3z"/>
	<path d="M358.6,562.6c-0.7,0.7-1.4,1.3-2,2c-1.1,1-1.8,1.2-3,0.4c0.8-1.4,2.3-1.7,3.5-2.4C357.6,562.2,357.7,562.3,358.6,562.6z"/>
	<path d="M544.2,472.3c-0.2-0.8,0.2-1.3,0.6-1.8c1.6-2.2,2.1-2.6,3.3-3c-0.1,0.4,0,0.7-0.2,0.9C546.3,470.9,545.1,472,544.2,472.3z"
		/>
	<path d="M506.8,574.6c-0.1,0.1-0.2,0.2-0.3,0.2c-1.5,0-3,0-4.3,1c-0.2,0.2-0.7,0-1.1-0.1c1.2-1.2,2.6-2,4.3-2
		C506,573.8,506.7,573.9,506.8,574.6z"/>
	<path d="M501.8,527.1c-1,0.8-2.1,1.6-3.1,2.4c-0.4,0.3-1,0.5-1.3-0.1c-0.3-0.5,0-1,0.5-1.3c1.2-0.5,2.5-1,3.7-1.4
		C501.7,526.9,501.8,527,501.8,527.1z"/>
	<path d="M318.9,478.8c2.1,0.8,2.7,3,4.1,4.4c0.1,0.1,0,0.5,0,1.2c-1.7-2-3.1-3.6-4.5-5.3C318.7,479,318.8,478.9,318.9,478.8z"/>
	<path d="M531.5,525.2c1.4,1.3,2.3,2.8,2.7,4.7c-1.1,0.4-1.2,0.4-1.5-0.5C532.3,528,531.9,526.6,531.5,525.2L531.5,525.2z"/>
	<path d="M527.1,567.2c-0.4,0.1-0.9,0.3-1.1,0.2c-0.5-0.3-0.9-0.7-1.2-1.1c-0.5-1-0.9-2-1.3-3C524.7,564.4,526.3,565.2,527.1,567.2z
		"/>
	<path d="M447.7,506.1c1.2,2.1,1.9,4.3,2,6.7C448.2,510.8,448.1,508.4,447.7,506.1z"/>
	<path d="M527,533.7c0.8,1.3,1.6,2.5,2.4,3.8c0.1,0.2,0.3,0.5,0.2,0.8c0,0.2-0.2,0.6-0.4,0.6c-0.2,0.1-0.5-0.1-0.7-0.2
		c-0.1-0.1-0.2-0.3-0.2-0.4c-0.5-1.5-1-2.9-1.4-4.4C526.9,533.8,527,533.8,527,533.7z"/>
	<path d="M377.6,573.9c-0.4,0.8-0.7,1.4-1.1,1.9c-0.2,0.4-0.5,0.8-0.9,1c-0.3,0.1-0.8,0.1-1-0.1c-0.2-0.2-0.1-0.7,0-1
		C374.9,575.1,376.3,574.3,377.6,573.9z"/>
	<path d="M536.1,481.7c0.5-1.8,1.2-2.3,3.1-2.5C538.9,480.5,537.8,481.5,536.1,481.7z"/>
	<path d="M496.3,540.6c0.2,1.3-0.2,2.6-1,3c-0.3,0.1-0.8,0.1-1-0.1c-0.2-0.1-0.2-0.6-0.1-0.9C494.6,541.8,495.3,541.1,496.3,540.6z"
		/>
	<path d="M380.8,571c0.5,1.7,0.4,2-1.1,2.1c0.1-0.3,0.1-0.6,0.2-0.9c0.1-0.4,0.3-0.7,0.4-1.1c0.1-1.3,0.1-1.3,1.3-1.9
		C381.9,570.1,381.2,570.5,380.8,571z"/>
	<path d="M340.3,462.1c1.3,0.6,1.8,1.3,1.7,2.7C340.5,464.7,340,464,340.3,462.1z"/>
	<path d="M346.5,470.7c-1.9-0.7-1.5-2.1-2-3.5C346.1,467.9,346.3,469.1,346.5,470.7z"/>
	<path d="M520.3,552.5c0.5,1.1,1.4,2.1,0.7,3.5c-0.3-0.2-0.7-0.3-0.8-0.5C519.8,554.5,519.8,553.5,520.3,552.5z"/>
	<path d="M389.8,570.1c1.2,0.8,2.5,1.5,3,3c-1,0.5-1.3,0-1.6-0.6C390.7,571.7,390.3,570.9,389.8,570.1z"/>
	<path d="M386.3,521.9c1.7,0.2,2.3,1.1,2.7,2.4C387.5,524.1,386.9,523.3,386.3,521.9z"/>
	<path d="M497.8,535.7c0,1.6-0.1,1.8-1.1,2.8C496.1,537.4,496.5,536.4,497.8,535.7z"/>
	<path d="M361.7,558.8c-0.3,1-0.5,1.9-1.6,2.3c-0.1-0.3-0.3-0.6-0.2-0.9C360.1,559.4,360.6,558.9,361.7,558.8z"/>
	<path d="M349.9,474.8c-1.5-0.4-1.6-0.5-1.9-2.7C349,472.9,349.6,473.7,349.9,474.8z"/>
	<path d="M313.7,470c1.3,0.6,1.4,2,1.9,2.9c-0.4-0.4-1-0.8-1.5-1.2C313.6,471.2,313,470.8,313.7,470z"/>
	<path d="M524.6,492.8c-0.2-1.4,0-1.7,1.8-2.3C526,491.8,525.7,492.2,524.6,492.8z"/>
	<path d="M522.6,561.4c-1.1-1.1-0.6-2.4-0.9-3.5C522.3,558.9,523.2,559.9,522.6,561.4z"/>
	<path d="M364.5,519.9c-0.8,0.5-1.5,1.3-2.6,0.6C362.8,519.2,363.1,519.2,364.5,519.9z"/>
	<path d="M528.5,517.6c1.3,0.8,1.3,2.2,2,3.4C529.6,520.8,529.6,520.8,528.5,517.6z"/>
	<path d="M530.3,555.4c0.5,0.9,0.9,1.7,1.4,2.5C530.2,558,529.8,557.3,530.3,555.4z"/>
	<path d="M530.6,487.1c-0.2-1.7,0.8-2.2,2.3-2.5C532.1,485.6,531.3,486.4,530.6,487.1z"/>
	<path d="M351.7,476.6c1.1,0.1,1.6,0.8,2,1.7C352.2,478.5,351.8,478.3,351.7,476.6z"/>
	<path d="M369.5,559c-0.6-1-0.6-1.1,0.3-2.1C370.5,557.9,370.5,557.9,369.5,559z"/>
	<path d="M527.8,551.4c-1.1-0.5-1.1-1.2-1-2.1C528.1,549.9,528.2,550,527.8,551.4z"/>
	<path d="M574,477.2c0-1.7,0-1.7,1.6-2.4C575.5,475.9,574.6,476.4,574,477.2z"/>
	<path d="M507.1,524.2c-0.2,0.9-0.5,1.5-1.6,1.6c0-0.4-0.1-0.7,0-0.9C505.8,524.3,506.3,524,507.1,524.2z"/>
	<path d="M316.4,474.7c0.8,0.6,1.3,1.2,1.3,2.2C316.6,476.2,316.4,475.9,316.4,474.7z"/>
	<path d="M581.1,467.9c0.5,0.7,0.5,0.7-0.7,2.4C580.3,469.1,580.3,468.9,581.1,467.9z"/>
	<path d="M522,577.4c0.7-0.1,1.4-0.1,2.4-0.2c-1,1.1-1,1.1-2.4,0.6C521.9,577.7,521.9,577.6,522,577.4z"/>
	<path d="M382.5,566.5c0.4,1.3,0.3,1.4-0.9,1.6C381.3,567.3,381.6,566.9,382.5,566.5z"/>
	<path d="M529.2,554.6c-1.1-0.4-0.7-1.3-0.8-2.1C529.6,553.3,529.6,553.3,529.2,554.6z"/>
	<path d="M369.3,559.6c0.2,1.3,0.2,1.3-0.9,1.7C368,560.5,368.6,560.2,369.3,559.6z"/>
	<path d="M391.5,526.4c-0.8,0-1.1-0.5-1.5-1.1C391.2,525,391.3,525.1,391.5,526.4z"/>
	<path d="M362.6,555.7c0.1-0.6,0.4-1,1.1-1.1C363.4,555.7,363.4,555.7,362.6,555.7z"/>
	<path d="M376,583.7c0.2-0.3,0.5-0.7,0.7-1l0,0C376.5,583,376.2,583.4,376,583.7L376,583.7z"/>
	<path d="M447.6,503.2c0.2,0,0.4,0,0.5,0c-0.1,0.1-0.1,0.2-0.2,0.2C447.9,503.3,447.8,503.3,447.6,503.2z"/>
	<path d="M532,571.7c-0.1,0-0.2,0.1-0.3,0.1c-0.1,0-0.1-0.2-0.1-0.3c0.1,0,0.2-0.1,0.2-0.1C531.9,571.5,531.9,571.6,532,571.7z"/>
	<path d="M376,583.7c0,0.1,0,0.3-0.1,0.4C376,584,376,583.9,376,583.7L376,583.7z"/>
	<polygon points="395,476.5 395.1,476.5 395,476.5 	"/>
	<polygon points="396.4,476.9 396.3,476.8 396.4,476.8 	"/>
	<polygon points="449.3,499 449.4,499 449.4,499.1 	"/>
	<path d="M531.2,524.4c-0.1-0.1-0.3-0.1-0.4-0.2c0.1-0.1,0.2-0.1,0.3-0.2C531.1,524.2,531.1,524.3,531.2,524.4L531.2,524.4z"/>
	<path d="M531.2,524.4c0.1,0.2,0.2,0.5,0.3,0.7l0,0C531.4,524.9,531.3,524.7,531.2,524.4L531.2,524.4z"/>
	<path d="M383.1,294c0.1,0.3,0.4,0.5,0.4,0.8c1.8,6.7,4.7,12.9,7.4,19.2c3.2,7.5,6.6,14.9,10.6,22.1c3.2,5.7,6.9,11.1,11,16.2
		c1.2,1.5,2.8,2.8,4.2,4.1c0.4,0.4,0.8,0.8,1.5,1.5c-0.6,0.1-0.9,0.2-1.1,0.1c-0.3-0.1-0.6-0.4-0.8-0.6c-5-4.3-9.4-9.1-12.9-14.7
		c-5.7-8.8-9.8-18.3-13.6-27.9c-1.9-4.8-3.8-9.5-5.6-14.4c-0.6-1.7-1.1-3.6-1.6-5.4C382.6,294.7,382.4,294.3,383.1,294z"/>
	<path d="M512.4,274.5c0.2-1.4,0.4-2.9,0.5-4.3c0.3-3.7,0.6-7.4,0.9-11.1c0.6-5.7,1-11.4,1.9-17c1.3-8.2,2.9-16.3,4.4-24.5
		c0.1-0.5,0.2-1,0.4-1.5c0.1-0.3,0.4-0.5,0.6-0.7c0.7,0.3,0.6,0.7,0.5,1.2c-0.7,4.1-1.3,8.2-2,12.3c-1.3,8.3-2.6,16.6-3.9,24.9
		c-0.6,3.6-1.1,7.1-1.5,10.7c-0.3,2.5-0.5,4.9-0.8,7.4c-0.1,0.9-0.3,1.7-0.4,2.6C512.7,274.6,512.5,274.5,512.4,274.5z"/>
	<path d="M527.6,225.2c0.8,3.8,0.5,7.6,0.5,11.5c-0.1,6.1-0.1,12.3,0,18.4c0.1,8.1,0.4,16.2,0.4,24.4c0,3.8-0.3,7.6-0.4,10.3
		C527.2,269,526.3,247.1,527.6,225.2z"/>
	<path d="M371.9,227.9c0.3,0.4,0.5,0.6,0.6,0.8c6,17.8,13.8,34.9,21.4,52.1c-0.2-0.3-0.5-0.6-0.6-0.9c-6.4-13.2-13.1-26.2-18.1-40
		c-1.1-3.1-2.2-6.3-3.2-9.4C371.7,229.7,371.4,228.9,371.9,227.9z"/>
	<path d="M549.3,202.1c-0.4-0.2-0.7-0.3-1-0.4c-3.6-2.5-7.5-4.6-11.7-5.8c-1.5-0.4-3.1-0.4-4.7-0.6c-1.1-0.1-2.3-0.1-3.4-0.3
		c-0.9-0.2-1.8-0.6-2.7-0.9c0-0.1,0.1-0.2,0.1-0.3c0.3,0.1,0.7,0.1,1,0.2c1.9,0.6,3.9,0.8,5.9,0.6c5.2-0.5,9.7,1.3,13.9,4.3
		c0.7,0.5,1.4,1,2,1.5C549.1,200.8,549.6,201.2,549.3,202.1z"/>
	<path d="M507.6,232.2c-0.5-1.8,2.8-15.1,3.8-16.5c0.4,0.5,0.2,1.1,0.1,1.6c-1.2,4.7-2.3,9.4-3.5,14.1
		C507.9,231.7,507.7,231.9,507.6,232.2z"/>
	<path d="M393.6,226.1c3.8,1.2,7.6,2.5,11.3,3.7c0.6,0.2,1.3,0.4,1.3,1.3c-0.6,0.5-1.3,0.3-1.9,0.1c-1.6-0.6-3.1-1.3-4.6-2
		c-1.7-0.8-3.4-1.6-5.2-2.4c-0.3-0.2-0.7-0.4-1-0.5C393.5,226.2,393.6,226.2,393.6,226.1z"/>
	<path d="M371.4,200.4c-2.9,2.3-5.9,3.9-9.7,3.9c-1.5,0-3.1,0.2-4.6,1c0.2-0.2,0.3-0.5,0.5-0.7c0.8-0.7,1.7-1.1,2.8-1.1
		c3.4,0,6.5-1,9.5-2.7c0.3-0.2,0.7-0.4,1.1-0.5C371.1,200.3,371.2,200.4,371.4,200.4z"/>
	<path d="M363.1,227.9c2.1,2.9,2.4,6.5,3.3,9.8C365.2,234.5,364.7,231.1,363.1,227.9z"/>
	<path d="M383.9,221.7c-1.6,0.7-2.1-0.7-3.1-1.3C382.4,220.1,382.9,220.4,383.9,221.7z"/>
	<polygon points="366.7,239.2 366.7,239.2 366.7,239.1 	"/>
	<path d="M386.4,420.8c1.5-1.1,3-2.1,4.4-3.1c1.2-0.9,2.6-1.3,4.1-1.2c1.7,0.1,3.1-0.3,4.4-1.4c0.6-0.5,1.6-0.9,2.5-1
		c2.8-0.4,5.4-1.2,7.7-2.8c0.3-0.2,0.6-0.3,0.9-0.4c0.8-0.2,1.3-0.7,1.7-1.5c0.4-0.7,1.1-1.3,1.8-1.6c1.3-0.6,2.8-1,4.3-0.9
		c2.4,0.3,4.4-0.6,6.3-2c1.1-0.9,2.1-1.9,3.1-2.8c1-0.9,1.7-1.1,2.3-0.5c0.6,0.5,0.6,1.4-0.2,2.3c-3,3.4-6.5,5.7-11.3,5.4
		c-1.2-0.1-2.5,0.4-3.8,0.7c-1.4,0.3-2.5,0.9-3.6,2c-1,1.1-2.3,1.7-3.9,1.9c-1.2,0.1-2.4,0.5-3.7,0.7c-1.5,0.3-2.9,0.8-4,2
		c-0.9,1-2.3,1.3-3.6,1.1c-2.4-0.4-4.3,0.4-5.8,2.3C389.2,421,388,421.2,386.4,420.8z"/>
	<path d="M320.9,221.6c-0.4,0.3-0.8,0.6-1.1,0.8c-1.3,0.9-2.6,1.6-3.8,2.6c-3.5,3.2-7,6.4-10.3,9.8c-1.2,1.3-1.9,3-2.9,4.6
		c-0.3,0.5-0.5,0.9-1.1,1.3c0-0.2-0.1-0.5,0-0.7c3-5.9,6.4-11.6,11.8-15.8c1.6-1.2,3.2-2.3,5-3C319.4,220.8,320.2,220.5,320.9,221.6
		z"/>
	<path d="M343.9,305.4c-0.1,0.3-0.3,0.9-0.7,1.4c-1.5,2.2-3.6,3.5-6.1,4.4c-1.1,0.4-2.1,0.7-3.2,1c-0.3,0.1-0.7,0.2-1,0.2
		c-0.2,0-0.5-0.2-0.6-0.4c-0.1-0.2,0.1-0.5,0.3-0.7c0.1-0.1,0.3-0.2,0.4-0.2c1.6-0.4,2.6-1.4,3.7-2.5c1.4-1.4,2.9-2.8,4.3-4.3
		c0.6-0.6,1.2-0.9,2-0.6C343.8,303.9,344,304.4,343.9,305.4z"/>
	<path d="M334.1,213c0-0.9,0.6-1,1.1-1.1c3.5-1.1,6.6-0.2,9.4,1.9c0.7,0.5,0.9,1.2,0.5,1.7c-0.3,0.6-1,0.8-1.8,0.5
		c-1.7-0.7-3.4-1.5-5-2.4c-1.1-0.6-2.1-1-3.4-0.5C334.7,213.2,334.4,213,334.1,213z"/>
	<path d="M303.2,391.7c0.1-0.4,0.1-0.6,0.2-0.6c2.9-1.9,5.1-4.4,7.5-6.8c0.2-0.2,0.4-0.5,0.6-0.6c0.4-0.1,0.9-0.3,1.2-0.1
		c0.3,0.2,0.3,0.8,0.3,1.2c0,0.3-0.3,0.6-0.5,0.9c-1.8,2.3-3.9,4.4-6.9,5.1C304.8,391,304.1,391.3,303.2,391.7z"/>
	<path d="M419,384.1c-0.2-0.1-0.5-0.1-0.6-0.3c-1.1-1.8-2.3-3.6-2.7-5.8c-0.1-0.5-0.2-1.1,0.4-1.3c0.7-0.2,1,0.3,1.2,0.9
		c0.2,0.5,0.3,1,0.4,1.5c0.4,1.2,0.8,2.4,1.3,3.6c0.1,0.4,0.2,0.8,0.3,1.2C419.3,384,419.2,384,419,384.1z"/>
	<path d="M298.5,248.8c-0.2-1.7-0.2-3.6,1-5.2c0.3-0.5,0.7-0.9,1.2-1.2c0.2-0.1,0.6-0.2,0.8,0c0.2,0.2,0.4,0.6,0.3,0.8
		c-0.4,0.8-0.8,1.6-1.2,2.4C299.8,246.7,299.1,247.8,298.5,248.8z"/>
	<path d="M296.1,390.1c0.4-0.4,0.6-0.7,0.8-0.7c1.8-0.3,3.5-0.8,5.1-1.6c0.6-0.3,1.4-0.4,2.1,0.1c0.3,0.7,0,1-0.6,1.2
		c-0.8,0.2-1.5,0.3-2.3,0.3c-0.7,0-1.3,0-1.8,0.6C298.5,390.8,297.5,390.3,296.1,390.1z"/>
	<path d="M326,313.3c-0.7,1.8-2.7,1.9-4.1,3.2c-0.1-0.5-0.2-0.8-0.1-1c0.6-0.8,1.2-1.6,1.9-2.3C324.6,312.5,325,312.6,326,313.3z"/>
	<path d="M256.4,434.8c-0.8,0.1-1.6,0.2-2.3,0.2c-0.3,0-0.6,0-0.8-0.1c-0.6-0.2-1-0.5-0.9-1.2c0.1-0.6,0.6-0.8,1.1-0.8
		c0.5,0.1,1.1,0.2,1.6,0.4C255.6,433.7,256.3,433.9,256.4,434.8z"/>
	<path d="M266.2,406.5c1.5,0.4,1.9-0.6,2.5-1.5c0.3-0.5,0.9-1,1.4-1.3c0.2-0.1,0.6,0.3,0.9,0.4c-0.2,0.3-0.2,0.6-0.5,0.8
		c-0.3,0.2-0.7,0.2-1.1,0.3c-0.3,0.5-0.5,1.1-0.7,1.6c-0.4,0.7-1,1.1-1.8,1C266.4,407.6,266,407.3,266.2,406.5z"/>
	<path d="M327,312.6c1.1-0.6,2-1.2,3-1.7c0.3-0.1,0.7,0.1,1,0.1c-0.1,0.4,0,0.8-0.2,1.1C330.1,313.1,328.8,313.3,327,312.6z"/>
	<path d="M257.5,434.2c1.1-1.3,1.9-1.2,3.5,0.3C259.3,435.2,258.5,435.1,257.5,434.2z"/>
	<path d="M299.1,251c0.2,1.8-1.6,2.3-2,3.7C296.3,252.8,296.9,251.7,299.1,251z"/>
	<path d="M378.3,422.5c-0.9,1-2,1.1-3.2,1.4C376,422.1,376.7,421.8,378.3,422.5z"/>
	<path d="M265.4,433.8c-0.7,0.9-1.6,1-2.9,0.7C263.5,433.6,264.4,433.5,265.4,433.8z"/>
	<path d="M437.6,345.4c0-1.3,0.2-2.1,1.3-2.6C439.1,344,438.4,344.5,437.6,345.4z"/>
	<path d="M443.1,352.8c-0.1,0.5-0.3,0.9-0.4,1.4c-0.1,0-0.2-0.1-0.3-0.1c0.1-0.5,0.3-1,0.4-1.5C442.9,352.7,443,352.7,443.1,352.8z"
		/>
	<path d="M489.5,402.3c-3.2,1.9-6.4,2.1-9.7,0.8c-1.9-0.7-3.7-1.7-5.5-2.5c-1-0.5-1.9-1-2.8-1.6c-1.1-0.7-1.3-2.4-0.4-3.4
		c0.5-0.5,1.3-0.4,1.5,0.3c0.2,0.7,0.6,0.9,1.1,1.2c2,1.1,3.9,2.2,5.9,3.3c1.4,0.8,3,1,4.6,1c1.6,0.1,3.1,0.2,4.7,0.4
		C489,401.9,489.2,402.1,489.5,402.3z"/>
	<path d="M467.1,341.6c-0.9-0.8-1.3-1.8-1.5-2.8c-0.2-0.9-0.4-1.8-0.4-2.7c0-1.6-0.5-3.1-1.1-4.5c-0.5-1.3-0.8-2.8-0.9-4.3
		c-0.1-1.7-0.1-3.5,0-5.2c0-0.7,0.1-1.5,0.9-1.8c0.8,0.1,0.9,0.8,0.9,1.4c-0.2,3,0.4,5.9,0.8,8.9c0,0.3,0,0.6,0.1,0.8
		c1,2.3,0.9,4.7,1.2,7.1c0.1,0.4,0.2,0.9,0.3,1.3C467.5,340.4,467.7,341,467.1,341.6z"/>
	<path d="M584.6,303.7c-3.5-1.7-7.1-3.3-9.9-6c-1.5-1.5-2.7-3.2-3.6-5c-0.6-1.1-0.5-1.9,0.1-2.3c0.7-0.4,1.4-0.1,2.2,1
		c0.5,0.8,1,1.6,1.5,2.4c2.3,3.6,5.1,6.6,8.6,8.9c0.3,0.2,0.5,0.4,0.8,0.6C584.5,303.4,584.5,303.5,584.6,303.7z"/>
	<path d="M572.7,214c3.9,0,7.4,1.2,11,2.5c0.2,0.1,0.4,0.2,0.6,0.3c0.5,0.2,1,0.6,0.7,1.2c-0.2,0.4-0.8,0.7-1.2,0.7
		c-0.6,0-1.2-0.2-1.8-0.4c-2.7-0.8-5.3-1.6-8-2.3c-1-0.3-2.1-0.3-3.2-0.4c-0.3,0-0.7,0-1,0c-0.5-0.1-0.9-0.3-0.8-0.9
		c0.1-0.3,0.5-0.6,0.8-0.7C570.8,214,571.7,214,572.7,214z"/>
	<path d="M467.8,342.8c0.2,0.3,0.5,0.6,0.6,1c0.4,1.3,0.8,2.6,1.1,3.9c0.4,2.2,0.6,4.3,1,6.5c0.2,1.1,0.7,2.2,1.1,3.3
		c0.3,0.9,0.8,1.8,0.6,3.1c-1.7-2.3-3.2-4.4-3.5-7.2c-0.3-3.1-0.9-6.1-1.3-9.2c-0.1-0.4-0.1-0.9-0.1-1.3
		C467.5,342.9,467.6,342.8,467.8,342.8z"/>
	<path d="M508.9,408.9c-0.6,0-1.2,0-1.7-0.2c-1.4-0.4-2.8-0.9-4.1-1.5c-1.8-0.8-3.7-1.3-5.7-1.5c-2-0.1-3.9-0.4-5.9-0.7
		c-0.6-0.1-1.5-0.1-1.5-1.1c0-0.5,0.8-0.7,1.9-0.6c0.5,0.1,1,0.2,1.5,0.4c3.7,1,7.5,2,11.2,3c1.3,0.4,2.5,0.9,3.8,1.4
		c0.2,0.1,0.3,0.3,0.5,0.4C509,408.7,508.9,408.8,508.9,408.9z"/>
	<path d="M510.3,408.5c0.5,0.1,1,0.1,1.5,0.3c2.2,0.8,4.4,1,6.8,1.1c2.6,0.1,5.1,0.9,7.6,1.4c0.3,0.1,0.6,0.3,1.1,0.6
		c-0.9,0.6-1.7,0.4-2.4,0.2c-1.3-0.3-2.6-0.6-3.9-1c-1.4-0.4-2.8-0.7-4.3-0.5c-1.9,0.2-3.7-0.2-5.4-1c-0.4-0.2-0.8-0.5-1.2-0.7
		C510.2,408.8,510.2,408.6,510.3,408.5z"/>
	<path d="M624.1,430.5c0.3-0.2,0.6-0.4,0.9-0.5c1.4-0.4,2.8-0.7,4.3-1.1c0.3-0.1,0.6-0.2,0.8-0.2c0.7,0,1.3,0.2,1.4,1
		c0.1,0.8-0.3,1.1-1,1.3c-0.5,0.1-1.1,0.3-1.7,0.2c-0.8-0.1-1.5-0.4-2.3-0.5c-0.7-0.1-1.5,0.1-2.3,0.1
		C624.2,430.7,624.1,430.6,624.1,430.5z"/>
	<path d="M590.6,306.7c-0.6-0.1-0.9-0.1-1.1-0.2c-0.7-0.6-1.5-1-2.4-1c-0.2,0-0.3-0.1-0.5-0.2c-0.7-0.3-1.1-0.9-1.1-1.6
		c0-0.4,0.4-0.8,0.7-1c0.7-0.4,1.3-0.1,1.8,0.4c0.8,0.8,1.6,1.6,2.3,2.5C590.5,305.8,590.5,306.1,590.6,306.7z"/>
	<path d="M591,386.8c-2,0.4-3.6-0.1-5-1.4c-0.2-0.2-0.5-0.5-0.6-0.8c-0.3-0.4-0.4-0.9,0.1-1.2c0.3-0.2,0.7-0.2,1.1-0.1
		c0.3,0.1,0.6,0.3,0.8,0.6C588.5,384.8,589.7,385.8,591,386.8z"/>
	<path d="M600.7,309.8c-0.2,0-0.6,0.2-0.7,0.1c-1.1-0.6-2.2-1.3-3.3-2c-1-0.6-1.4-1.3-1.1-1.9c0.3-0.6,1.1-0.5,2.2,0.4
		c1.1,0.9,2.1,2,3.1,2.9C600.8,309.5,600.8,309.6,600.7,309.8z"/>
	<path d="M597.2,386c-1.8,1.1-3.3,1.1-4.6,0c-0.3-0.3-0.6-0.9-0.6-1.2c0.2-0.7,0.8-0.7,1.4-0.5C594.7,384.8,595.9,385.4,597.2,386z"
		/>
	<path d="M460.4,397.1c-0.4,0.9-1.1,1.1-1.7,1c-0.7-0.1-1.5-0.5-2.1-0.9c-0.5-0.4-0.3-1.1,0.4-1.2c0.4-0.1,0.8,0,1.1,0.1
		C458.9,396.5,459.6,396.8,460.4,397.1z"/>
	<path d="M617.5,428.5c1.4,0,2.5,0,3.6,0c0.3,0,0.6,0.4,0.9,0.6c-0.2,0.3-0.4,0.6-0.7,0.8c-0.3,0.2-0.6,0.3-1,0.2
		C619.3,430,618.4,429.6,617.5,428.5z"/>
	<path d="M561.1,296.1c0.3,0.1,0.5,0.1,0.6,0.2c0.6,1.2,1.2,2.3,1.8,3.5c-0.8,0.6-1.4,0.4-1.7-0.2
		C561.2,298.6,560.9,297.4,561.1,296.1z"/>
	<path d="M616.2,428.1c-1.5,0.7-2.8,1-4.2,0.6C612.5,427.3,614.1,427.1,616.2,428.1z"/>
	<path d="M478.5,385.9c0.6-1.5,1.3-2.9,2.6-4.1C481.1,383.2,480.7,384,478.5,385.9z"/>
	<path d="M608.1,311.2c-1,0.6-1.5,0.5-2.4-0.6C606.7,309.8,607.2,310,608.1,311.2z"/>
	<path d="M630.3,399.8c0.9,0,1.6,0.5,1.4,1.1c0,0.2-0.4,0.6-0.6,0.6c-0.6,0.2-1.3-0.4-1.3-1C629.9,400.2,630.2,399.9,630.3,399.8z"
		/>
	<path d="M456.2,386.1c-0.7,0-1.1,0.1-1.4,0.1c-0.5-0.1-0.8-0.5-0.5-1c0.1-0.2,0.7-0.3,1-0.2C455.6,385.1,455.8,385.5,456.2,386.1z"
		/>
	<path d="M645.3,350.9c0,0.7,0,1.4,0,2.1c-0.1,0-0.1,0-0.2,0c0-0.7,0-1.4,0-2.1C645.2,350.9,645.2,350.9,645.3,350.9z"/>
	<path d="M477.1,387.6c0.2-0.3,0.4-0.6,0.6-0.8c0.1,0,0.1,0.1,0.2,0.1c-0.2,0.3-0.4,0.6-0.6,0.9
		C477.2,387.7,477.1,387.6,477.1,387.6z"/>
	<path d="M434.4,96.9c2.4-1.4,4.1,0.1,5.9,0.8c0.5,0.2,1,0.4,1.5,0.6c0.6,0.3,1.2,0.7,1.9,1.1c0.1,0,0.3-0.1,0.5-0.3
		c1-0.7,1.4-0.7,1.9-0.1c0.6,0.7,0.6,1.8,0,2.5c-0.5,0.6-1.2,0.9-1.9,0.8c-1.4-0.2-2.7,0.1-4.1,0.4c-1.3,0.3-2.8,0-4.2-0.3
		c-1.6-0.4-3.2-1-4.8-1.5c-0.7-0.2-1.4-0.4-2.1-0.4c-1.6-0.1-1.6,0-2.7-1.2c-1.9,0.3-3.8,0.6-5.7,1.1c-0.8,0.2-1.5,0.7-2.2,1.1
		c-0.5,0.3-1,0.6-1.5,0.8c-0.2,0.1-0.7-0.1-0.9-0.3c-0.2-0.2-0.2-0.7,0-0.9c1.4-1.6,2.6-3.5,5.1-3.5c0.8,0,1.5-0.2,2.1-0.8
		c0.4-0.4,1.1-0.6,1.7-0.6c1.7,0,3.5,0.1,5.2,0.2c0.4,0,0.9,0,1.3-0.3C432.5,95.4,433.6,95.2,434.4,96.9z"/>
	<path d="M437.1,109.7c-0.2,0.3-0.5,0.6-0.6,0.8c-1.1,1.7-2.8,2.6-4.8,2.6c-0.7,0-1.3-0.2-2-0.2c-0.9-0.1-1.5-0.5-2-1.4
		c-0.4-0.7-1-1.3-1.4-1.9c-1.3,0.7-2.3,1.3-3.4,1.8c-0.4,0.2-0.9,0.3-1.3,0.3c-0.7,0-1.4-0.2-1.6-1c-0.2-0.7,0.2-1.2,0.7-1.6
		c0.7-0.6,1.4-1.3,2.2-1.9c2.3-1.8,5-2.5,7.9-2.4c0.8,0,1.7,0,2.5,0.1c1.8,0.1,3.6,0.2,5.4,0.3c1.2,0.1,1.7,0.6,2.2,1.8
		c-0.7,0.1-1.3,0.2-2,0.3c0.1,1,0.7,1,1.4,0.9c1.4-0.3,1.9-0.1,2.1,0.8c0.3,1.3-0.4,2.7-1.5,3c-0.7,0.2-1-0.2-1.4-0.7
		C438.5,110.3,438.5,110.3,437.1,109.7z"/>
	<path d="M480.8,108c-0.6,1.1-1.2,1.9-1.7,2.8c-0.8,1.4-1.9,2.2-3.6,2c-0.3-0.1-0.7,0-1,0c-2.5,0.1-4.1-1.1-4.7-3.4
		c-0.1-0.3-0.2-0.6-0.4-0.9c-1,0.2-1.2,1.1-1.6,1.7c-0.7,1-1.4,1.2-2.3,0.8c-0.8-0.5-1.1-1.3-0.5-2c2.9-3.2,6.2-5.6,10.9-4.9
		c1,0.2,2,0.3,3,0.5c1.5,0.3,3.1,0.6,4.3,1.8c0.3,0.3,0.9,0.5,1.3,0.7c0.9,0.4,1.6,0.8,1.8,1.8c0.1,0.4,0.6,0.7,1,1
		c0.4,0.3,0.8,0.7,0.6,1.2c-0.2,0.6-0.8,0.6-1.3,0.5c-0.9-0.3-1.8-0.6-2.6-1.1C483.1,109.8,482.1,109,480.8,108z"/>
	<path d="M436.9,154.1c0.5,0,0.7,0,0.9,0.1c2.3,1,4.5,0.1,6.6-0.5c2-0.7,4-0.6,6-0.6c1.7,0,3.4,0.1,5-0.1c2.2-0.2,4.4,0.1,6.5,0.6
		c1.1,0.3,2.3,0.6,3.4,0.9c0.5,0.1,1,0.3,1.4,0.6c0.6,0.4,1.2,0.3,1.9,0.1c0.6-0.2,1.3-0.3,1.9-0.1c1.2,0.3,1.4,1.5,0.5,2.3
		c-0.8,0.7-1.7,1.1-2.9,0.6c-1.5-0.5-3-0.8-4.6-1.1c-2-0.4-3.9-1-5.9-1.1c-1.8-0.1-3.7,0.2-5.5,0.3c-0.9,0-1.9,0.1-2.8-0.1
		c-1.5-0.3-3-0.2-4.5,0.2c-2,0.5-4.1,0.8-6.1,1.2c-0.6,0.1-1.2,0.3-1.8,0.3c-0.5,0-1.2,0-1.6-0.2c-1.1-0.5-1.2-1.8-0.1-2.4
		C435.7,154.4,436.5,154.2,436.9,154.1z"/>
	<path d="M456.3,85.9c-5.4-0.6-10.9-1.1-16.3-1.6c-1.7-0.2-3.5-0.1-5.2-0.2c-0.2,0-0.5,0.1-0.7,0c-0.3-0.2-0.8-0.4-0.8-0.6
		c-0.1-0.3,0.2-0.9,0.4-1c0.9-0.3,1.9-0.6,2.8-0.6c2.8,0.1,5.6,0.4,8.4,0.6c4.2,0.3,8.4,0.6,12.7,1c0.7,0.1,1.4,0.1,2,0.4
		c0.4,0.2,0.8,0.7,0.8,1.1c0,0.6-0.6,0.7-1.1,0.7c-1,0-1.9,0-2.9,0C456.4,85.8,456.3,85.8,456.3,85.9z"/>
	<path d="M451.9,164.3c-1.6,0-3.3,0-4.9,0c-1.2,0-2.2-0.5-3-1.3c-0.4-0.4-1-0.8-0.6-1.4c0.3-0.4,0.9-0.6,1.4-0.7
		c0.9-0.1,1.9-0.1,2.9,0.1c3.3,0.8,6.6,0.3,9.9,0.2c0.6,0,1.2-0.1,1.9-0.1c1.2,0,2,0.6,2.1,1.3c0.1,0.9-0.7,1.5-2,1.6
		c-2.5,0.2-5,0.3-7.6,0.4C451.9,164.4,451.9,164.3,451.9,164.3z"/>
	<path d="M442.4,134.9c1.3-0.8,2.5-1.5,3.7-2.2c0.9-0.5,1.7-0.4,2.5,0.4c0.7,0.7,1.4,1.3,2.2,1.9c0.4,0.4,0.7,0.8,0.3,1.3
		c-0.4,0.5-0.9,0.4-1.4,0.1c-0.4-0.3-0.8-0.6-1.2-0.9c-0.3,0.2-0.5,0.4-0.7,0.6c-0.6,0.8-1.4,0.9-2.3,0.8c-0.9-0.1-1.9-0.4-2.5,0.8
		c-0.1,0.3-1,0.3-1.4,0.2c-2-0.6-3.6-2.8-2.4-4.9c0.5-0.9,1.1-1.7,1.6-2.6c0.2-0.3,0.5-0.5,0.8-0.6c0.3-0.1,0.9-0.1,1.1,0.1
		c0.2,0.2,0.3,0.7,0.2,1c-0.2,0.8-0.5,1.5-0.7,2.3C442.2,133.8,442.4,134.4,442.4,134.9z"/>
	<path d="M416.2,89.6c-0.1-0.1-0.4-0.5-0.5-0.9c-0.2-0.7-0.4-1.4-0.4-2.1c0.2-2.3,0.6-4.6,0.8-6.9c0.1-1.1,0.1-2.3,0.2-3.4
		c0-0.6,0-1.2,0.2-1.7c0.1-0.3,0.6-0.7,1-0.7c0.2,0,0.6,0.4,0.7,0.8c0.2,0.5,0.2,1.1,0.2,1.7c0.1,3.4-0.8,6.6-1.2,9.9
		c-0.2,1.6-0.1,3.2-0.1,4.8c0,0.4,0,0.8,0,1.2c-0.4,2-0.8,4.1-1.3,6.1c-0.1,0.6-0.5,1.2-0.8,1.6c-0.2,0.2-0.7,0.2-1.1,0.1
		c-0.2-0.1-0.4-0.6-0.4-0.8c0-0.5,0.2-1,0.4-1.5C414.7,95.2,415.4,92.6,416.2,89.6z"/>
	<path d="M458.1,135.9c-0.4,0.2-0.8,0.5-1.2,0.6c-0.3,0.1-0.9-0.1-1-0.3c-0.2-0.2-0.1-0.7,0-1.1c0.1-0.2,0.4-0.4,0.6-0.6
		c0.6-0.6,1.3-1.2,1.9-1.9c0.7-0.8,1-0.9,2-0.4c1.4,0.6,2.7,1.4,3.3,2.9c1.6-1.5,1.8-2.7,0.6-4.2c-0.1-0.1-0.3-0.2-0.3-0.4
		c-0.1-0.4-0.3-1-0.1-1.2c0.2-0.2,0.9-0.3,1.2-0.2c1.3,0.6,2.3,1.5,2.4,3c0.2,2-0.7,3.6-2.4,4.8c-0.4,0.2-1,0.4-1.4,0.2
		c-0.6-0.3-1.1-0.3-1.7-0.1c-1.1,0.3-2.2-0.1-3.2-0.6C458.6,136.2,458.4,136,458.1,135.9z"/>
	<path d="M451.9,143c0,0.9,0,1.8,0,2.7c0,0.8,0.3,1.3,1.1,1.5c0.4,0.1,0.9,0.3,1.2,0.6c0.2,0.2,0.5,0.6,0.4,0.8
		c0,0.3-0.4,0.6-0.6,0.7c-0.7,0.3-1.4,0.4-2.1,0.6c-0.7,0.2-1.4-0.1-1.7-0.8c-0.3-0.7-0.6-1.5-0.6-2.2c0.1-2.2,0.3-4.5,0.4-6.7
		c0-0.2,0-0.4,0.1-0.5c0.3-0.3,0.7-0.7,1-0.7c0.3,0,0.8,0.5,0.8,0.8C452,140.9,451.9,141.9,451.9,143C451.9,143,451.9,143,451.9,143
		z"/>
	<path d="M450.4,108.4c1,0.3,1,1.2,1,2.1c0,1-0.1,2-0.1,3c0,0.3-0.2,0.6,0,0.8c0.9,1.5,0,2.8-0.3,4.2c-0.5,2-0.9,4.1-1.3,6.1
		c-0.1,0.6-0.4,1.1-0.6,1.6c-1-0.2-1-0.8-0.9-1.4c0.3-2.4,0.5-4.8,1.6-7c0.4-0.8,0.4-1.5,0.3-2.4c-0.2-1.9-0.2-3.9-0.3-5.9
		C449.6,109,449.8,108.5,450.4,108.4z"/>
	<path d="M455.8,77.2c-2.3-0.3-4.7-0.5-7-0.8c-0.8-0.1-1.6-0.1-2.4-0.3c-0.5-0.1-1-0.2-1.5-0.4c-0.6-0.3-0.6-1,0-1.3
		c0.3-0.2,0.8-0.3,1.1-0.3c3.8,0.4,7.6,0.9,11.4,1.4c0.5,0.1,0.9,0.3,0.8,0.9c0,0.6-0.5,0.7-1,0.7c-0.5,0-1-0.1-1.5-0.1
		C455.8,77.1,455.8,77.2,455.8,77.2z"/>
	<path d="M492.2,142.6c-0.1,0.4-0.2,0.7-0.3,1.1c-0.5,1.8-1.1,3.7-1.6,5.5c-0.1,0.4-0.2,0.9-0.1,1.3c0.5,2.1-0.7,3.6-1.9,5.2
		c-0.2,0.2-0.8,0.2-1.2,0.2c0-0.4-0.1-0.7-0.1-1.1c0.1-0.3,0.3-0.6,0.5-0.9c0.6-1.2,1.3-2.4,0.9-3.8c-0.1-0.4,0.1-0.9,0.2-1.3
		c0.5-1.8,1-3.7,1.6-5.5c0.1-0.4,0.2-0.8,0.5-1.1c0.2-0.2,0.7-0.4,1-0.3C491.9,141.9,492.1,142.4,492.2,142.6z"/>
	<path d="M421.3,154.1c-0.2-0.3-0.4-0.5-0.5-0.7c-1.1-3.2-1.8-6.5-2.1-9.9c0-0.3-0.1-0.7,0-1c0.2-0.4,0.5-0.8,0.8-0.9
		c0.5-0.2,0.8,0.2,1,0.6c0,0.1,0.1,0.2,0.1,0.3c0.5,3.3,1,6.7,1.5,10C422.1,153.1,422.2,153.8,421.3,154.1z"/>
	<path d="M466.4,105.4c-0.3,0.7-0.3,1-0.6,1.2c-0.4,0.3-0.8,0.7-1.2,0.8c-1.1,0.4-1.8,1.2-2.2,2.4c-0.1,0.5-0.4,1-1,1
		c-0.6,0-0.8-0.5-1-1c-0.9-2,0.6-4.2,2.8-4.1c0.5,0,1-0.1,1.5-0.2C465.1,105.5,465.6,105.5,466.4,105.4z"/>
	<path d="M447.9,110.9c0,0.2-0.1,0.5-0.1,0.8c-0.1,0.6-0.4,1.1-1,1.1c-0.6,0-0.8-0.4-1-0.9c-0.3-0.7-0.6-1.4-0.9-2.1
		c-0.2-0.4-0.3-0.8-0.3-1.3c0-0.3,0.2-0.9,0.4-1c0.3-0.1,0.9-0.1,1.2,0.1C447.1,108.3,447.9,109.4,447.9,110.9z"/>
	<path d="M453.9,181.5c-0.1,0.5-0.2,1.2-0.5,1.7c-0.2,0.4-0.7,0.8-1.1,0.8c-0.4,0-0.9-0.4-1.1-0.8c-0.6-1-0.4-2.4,0.4-3.2
		c0.8-0.8,1.8-0.6,2.1,0.4C453.9,180.7,453.9,181.1,453.9,181.5z"/>
	<path d="M455.6,207c-2.1-0.5-4.2-1-6.3-1.6c-3.1-1-5.1-5.5-4.7-7.9c0.1-0.8,0.6-1.6,1-2.3c0.3-0.5,1-0.7,1.5-0.3
		c0.3,0.2,0.6,0.9,0.5,1.3c-0.5,2.6,0.6,4.6,2.2,6.5c0.3,0.3,0.9,0.7,1.3,0.6c1-0.1,1.8,0.3,2.5,0.8c0.7,0.5,1.4,1.1,2.1,1.7
		c0.2,0.2,0.2,0.6,0.3,0.9C455.8,206.8,455.7,206.9,455.6,207z"/>
	<path d="M419.8,210.3c-0.8-1-1.7-1.9-2.5-2.9c-0.3-0.4-0.5-1-0.6-1.6c-0.2-0.6,0-1.3,0.7-1.5c0.7-0.2,1,0.3,1.3,0.8
		c0.1,0.2,0.3,0.5,0.3,0.8c0.3,1.4,0.6,2.8,1,4.2C419.9,210.2,419.9,210.2,419.8,210.3z"/>
	<path d="M480.4,200.2c-0.2-1.8,0.6-3.3,1.2-4.8c0.2-0.5,0.6-0.8,1.4-0.6C483.1,197.1,481.9,198.7,480.4,200.2L480.4,200.2z"/>
	<path d="M475.2,209.6c0.1-1.8,0.2-3.3,1.7-4.2C476.8,206.9,476.6,208.3,475.2,209.6z"/>
	<path d="M421.7,214.7c-0.6-0.4-1.2-0.8-1.8-1.3c-0.7-0.5-0.6-0.7,0.2-1.8c0.3,0.6,0.4,1.1,0.7,1.5c0.3,0.5,0.7,0.9,1,1.4
		C421.8,214.6,421.8,214.6,421.7,214.7z"/>
	<path d="M470.4,220.6c-0.1,1.1-0.5,2-1.4,3C468.9,222.2,469.3,221.2,470.4,220.6z"/>
	<path d="M473.6,214.1c-0.2,0.5-0.5,0.9-0.8,1.6C472.8,214.7,472.8,214.7,473.6,214.1z"/>
	<path d="M480.4,200.2c-0.1,0.1-0.1,0.3-0.1,0.2C480.2,200.4,480.3,200.3,480.4,200.2L480.4,200.2z"/>
	<path d="M249.3,345.9c0.2-3.1-0.6-6.3,0.7-9.4c1,0.2,1.1,0.9,1,1.6c-0.1,0.8-0.1,1.7-0.3,2.5C250.2,342.4,249.8,344.2,249.3,345.9z
		"/>
	<path d="M244.9,301.2c-0.5-0.3-1.1-0.7-1.6-1c-0.6-0.3-1.2-0.4-1.7-0.6c-0.3-0.1-0.6-0.4-0.8-0.6c-0.2-0.4-0.4-0.9-0.2-1.2
		c0.2-0.3,0.7-0.3,1.2-0.4c0.2,0,0.4,0.1,0.6,0.2c1.5,0.7,2.1,2,2.9,3.2C245.1,301,245,301.1,244.9,301.2z"/>
	<path d="M235.8,333.3c-0.1-0.4-0.3-0.8-0.2-0.9c0.5-0.8,1-1.5,1.6-2.2c0.2-0.2,0.7-0.4,1-0.3c0.5,0.2,0.5,0.8,0.2,1.2
		C237.8,332,237,332.8,235.8,333.3z"/>
	<path d="M244.4,302.9c1.3,0.1,2,0.8,2.6,1.8C245.3,304.9,244.4,304.3,244.4,302.9z"/>
	<path d="M240.1,296.4c-0.8-0.4-1.8-0.2-2-1.4C239.5,294.4,240.1,294.8,240.1,296.4z"/>
	<path d="M274.9,296.2c0.3,0.9-0.1,1.4-0.7,1.8C273.4,296.8,273.5,296.6,274.9,296.2z"/>
	<path d="M272.7,301.5c-0.1-1.3-0.1-1.3,1.1-1.6C273.8,301.1,273.8,301.1,272.7,301.5z"/>
	<path d="M638.6,311.4c-0.8-2.2-1.4-4.2-2.1-6.2c-0.1-0.4-0.3-0.9-0.4-1.3c-0.2-1.2-0.6-2.3-1.2-3.3c-0.4-0.6-0.6-1.3-0.7-2.1
		c-0.3-1.5-0.5-3-0.8-4.5c-0.1-0.7-0.1-0.7,0.4-1.5c0.8,0.2,0.9,0.9,1.1,1.6c0.3,1.4,0.4,2.8,0.7,4.2c0.1,0.7,0.3,1.3,0.4,2
		c1,0.1,1.4,0.7,1.7,1.6c0.5,1.7,1.2,3.4,1.8,5.1C640,308.7,639.3,310,638.6,311.4z"/>
	<path d="M638.8,317.1c-0.1-0.2-0.2-0.4-0.3-0.6c-0.1-1.2-0.1-2.3-0.2-3.5c0-0.5,0.1-1,0.7-1.2c0.5-0.1,1,0.3,1.2,0.9
		C640.4,313.5,639.5,316.4,638.8,317.1z"/>
	<path d="M662.2,318.2c0.9-1.1,1.9-2.1,2.8-3.2c0.1-0.1,0.1-0.2,0.2-0.2c0.5-0.4,1.1-1.1,1.7-0.5c0.7,0.7-0.2,1.2-0.7,1.5
		c-1.3,0.9-2.6,1.7-3.9,2.6C662.3,318.3,662.2,318.3,662.2,318.2z"/>
	<path d="M657.4,323c1.7-2.7,3-3.7,4.4-3.5C660.9,321.4,659,322,657.4,323z"/>
	<path d="M640.7,319.2c-0.6-0.8-0.7-2-0.2-2.5c0.2-0.2,0.6-0.2,1.2-0.4C641.3,317.5,641,318.3,640.7,319.2z"/>
	<path d="M536.7,384.9c0.2-0.8,0.3-1.6,0.6-2.3c1.8-3.8,3.6-7.7,5.4-11.5c0.5-1,1-2,1.5-3.1c0.3-0.5,0.5-1.1,1.2-1.4
		c0.3,1.1-0.2,2-0.6,2.8c-1.6,3.3-3.2,6.6-4.9,9.9C538.9,381.2,537.7,383,536.7,384.9L536.7,384.9z"/>
	<path d="M536.3,385.5c0.1-0.2,0.2-0.4,0.4-0.7l0,0C536.5,385,536.4,385.3,536.3,385.5L536.3,385.5z"/>
	<path d="M536.2,385.5c0,0.1-0.1,0.2-0.1,0.3C536.2,385.7,536.2,385.6,536.2,385.5L536.2,385.5z"/>
</g>
</svg>
