<?xml version="1.0" encoding="utf-8"?>
<!-- Generator: Adobe Illustrator 21.1.0, SVG Export Plug-In . SVG Version: 6.00 Build 0)  -->
<svg version="1.2" baseProfile="tiny" id="Layer_2" xmlns="http://www.w3.org/2000/svg" xmlns:xlink="http://www.w3.org/1999/xlink"
	 x="0px" y="0px" viewBox="0 0 900 600" xml:space="preserve">
<g>
	<path d="M562.5,142.9c0.4-0.3,0.8-0.6,1.2-0.8c2.1-0.9,4.1-1.9,6.4-2c0.4,0,0.9-0.3,1.5-0.4c-0.4-0.3-0.7-0.5-1.1-0.8
		c0.3-0.1,0.6-0.2,0.9-0.3c0.3-0.2,0.9-0.4,1-0.6c0.2-1.1,0.9-1.8,1.6-2.5c0.5-0.4,0.8-1.1,1.4-1.4c2.3-1.6,4.8-3,7-4.8
		c5.2-4.2,10.7-8.1,15.4-12.9c1-1,2-2.1,3.1-3.1c0.8-0.7,1.7-1.4,2.6-1.9c1.6-1,3.3-2,5-2.9c1.7-0.9,3.3-1.7,5-2.4
		c1.6-0.7,3.1-1.3,4.7-1.9c1.1-0.4,2.2-0.6,3.3-0.8c1.2-0.2,2.5-0.4,3.7-0.6c0.6-0.1,1.2-0.5,1.7-0.8c2.1-1.5,4.3-1.8,6.5-0.7
		c1.1,0.5,2-0.1,3-0.1c1.3,0,1.7-1,2-2.1c0.4,0.1,0.9,0.1,1.1,0.3c0.9,0.6,1.9,0.7,2.9,0.5c1.3-0.3,2.5,0.1,3.6,0.6
		c0.5,0.2,1,0.5,1.6,0.5c1.6,0.1,1.8-0.2,1.9-1.8c0.1-0.8,0.3-1.6,0.7-2.2c0.6-0.9,1.4-1.1,2.4-0.9c0.9,0.3,1.4,1,1.4,1.9
		c0.1,1.3,0.2,2.6,0.3,3.9c0.1,0.5,0.2,1,0.5,1.4c0.4,0.5,1,0.3,1.2-0.3c0.1-0.3,0.1-0.6,0.1-0.8c0.2-2,0.4-3.9,0.7-5.9
		c0.1-0.5,0.3-1.1,0.6-1.6c0.5-0.9,1.3-1.3,2.3-1.2c1.1,0.1,2.1,0.5,2.3,1.6c0.2,0.9,0.3,1.8,0.3,2.7c0,1.3-0.3,2.6-0.4,3.9
		c0,0.4,0,0.7,0.1,1.3c0.4-0.1,0.8-0.1,1.1-0.3c1-0.6,2.2-0.6,3.3-0.5c1.2,0.2,1.4,0.5,1.2,1.7c-0.1,0.3-0.1,0.5-0.1,0.9
		c1,0.1,1.9,0.1,2.9,0.3c0.5,0.1,1.1,0.3,1.6,0.6c0.7,0.4,1.1,1,1,1.8c-0.1,0.9-0.6,1.5-1.4,1.7c-0.7,0.2-1.4,0.2-2.2,0.3
		c-0.7,0.1-1.5,0.1-2,1.1c1.2,1.4,2.4,2.8,3.7,4.3c0.3-0.1,0.5-0.2,0.7-0.3c1.6-0.9,2.8-0.4,3.2,1.4c0.3,1.3,0.5,2.7,0.8,4
		c0.7,2.8,1.3,5.6,2.1,8.4c0.6,1.8,1.5,3.6,2.2,5.3c0.9,2.3,1.8,4.6,2.7,7c0.5,1.4,0.9,2.8,1.4,4.2c0.2,0.4,0.5,0.9,0.9,1.2
		c1.9,1.1,2.9,2.8,3.9,4.6c0.6,1,0.9,2.1,1.4,3.1c1,2.2,0.9,2.5-0.9,4.1c0.3,0.3,0.5,0.6,0.8,0.8c1.1,0.7,2.2,1.4,3.3,2.1
		c0.2,0.1,0.5,0.3,0.6,0.6c0.3,1.2,1.3,1.5,2.2,2c2,1,2,1,1.5,2.8c1.1,1.5,2,3,3,4.4c0,0,0.1,0.1,0.1,0.1c0.9,1.6,0.9,2.8,0,3.4
		c-0.8,0.5-1.7,0.1-2.9-1.2c-1.2-1.3-2.5-2.6-3.8-3.9c-0.5-0.5-1-0.9-1.6-1.2c-0.3-0.2-0.8-0.2-1.2-0.3c-0.1,0.1-0.2,0.2-0.2,0.3
		c0.2,0.4,0.3,0.8,0.6,1c1.7,1.4,3,3.3,5,4.4c1.1,0.6,1.2,1.1,0.9,2.3c-0.3,1.1-0.1,1.5,0.9,2c2.2,1.1,4.3,2.2,6.4,3.5
		c0.8,0.5,1.4,1.3,2,2c0.3,0.4,0.3,1,0.3,1.4c-0.2,1-0.9,1.3-1.7,0.8c-0.6-0.3-1.2-0.7-1.9-1.1c-0.1,1,0.1,2-0.3,2.6
		c-0.3,0.6-1.2,0.8-1.9,1.3c-0.2,1.3,0.1,1.9,1.3,2.4c0.2,0.1,0.4,0.1,0.5,0.2c0.2,0.2,0.5,0.5,0.5,0.8c0,0.2-0.5,0.7-0.7,0.6
		c-1.9-0.3-2.8,1-3.6,2.2c-0.9,1.4-2,2.2-3.8,1.9c-0.1,0-0.2,0.1-0.3,0.2c-0.2,0.7,0.3,0.8,0.7,0.9c2.4,0.6,4.5,1.9,6.6,3.1
		c1.2,0.7,1.6,1.4,1.3,2.1c-0.3,0.8-0.9,1-2.4,0.7c-2.8-0.5-5.6-1-8.2-2.1c-0.4-0.2-0.9-0.2-1.5-0.4c0.1,1,0.8,1.3,1.3,1.6
		c0.8,0.5,1.6,0.8,2.4,1.3c0.6,0.4,1.3,0.8,1,1.8c-0.2,0.7-0.9,0.8-2,0.6c-0.6-0.1-1.3-0.1-1.8,0.1c-1,0.5-2,0.4-2.9-0.1
		c-1.3-0.9-2.6-1.8-3.8-2.8c-0.5-0.3-0.8-0.8-1.3-1.1c-0.8-0.6-1.4-1.3-1.8-2.2c-0.2-0.4-0.6-0.8-1-1c-3-1.1-5.6-2.7-7.6-5.2
		c-0.1-0.1-0.2-0.1-0.5-0.3c-0.5,0.4-1,0.8-1.6,1.3c-2.4,2.1-4.7,4.2-7.2,6.2c-1.1,0.9-2.4,1.5-3.7,2.1c-1.8,0.8-3,2.3-4.3,3.6
		c-1.2,1.1-2.3,2.3-3.5,3.4c-1.2,1.1-2.6,2-3.4,3.5c-0.5,1-1.5,1.1-2.9,0.6c-1.1-0.4-2.2-0.6-3.2-1c-0.6-0.2-1,0-1.3,0.4
		c-3.3,3.6-6.2,7.5-8.9,11.6c-1.1,1.7-2.2,3.4-3.5,5.1c-1,1.4-2.2,2.4-4,2.6c-0.2,0-0.4,0.1-0.6,0.2c-0.8,0.5-1.4,0.2-2-0.4
		c-1-1-2-2-3.1-2.9c-0.3-0.3-0.6-0.6-1-0.9c-0.8-0.6-1.7-0.6-2.5,0.1c-0.5,0.4-1,0.8-1.5,1.1c-1.5,0.9-3,1.8-4.5,2.7
		c-1.2-0.7-2.4-1.4-3.6-2.1c-0.5,0.9-1,1.7-1.4,2.5c-0.4,0.8-1,1.2-1.8,1.4c-1.3,0.4-2.6,0.4-3.9,0.3c-0.7-0.1-1.5-0.1-2.2,0
		c-1.4,0.1-2.3,0.8-3,2.2c-0.8,1.5-1.9,2.8-2.8,4.2c-0.5,0.8-1.3,1-2.2,0.9c-0.8-0.1-1.6,0.1-2.3,0.3c-2.5,0.7-5.4-0.6-6.6-2.8
		c-1.5-2.8-3.1-5.6-4.6-8.3c-1.6-2.9-3.2-5.8-5-8.5c-1.1-1.6-2.6-3-3.7-4.3c-2.7,0.7-5.1,1.6-7.5,2c-2.4,0.4-5,0.5-7.4,0.6
		c-0.4,0-0.8-0.1-1.2-0.2c-3.5-1.4-7.2-2.2-10.4-4.1c-0.9-0.6-4.1-0.7-5.4-0.4c-0.2,1.4-0.3,2.9-0.5,4.3c-1,10.2-3.6,20.1-7.6,29.5
		c-1.9,4.4-4.6,8.3-8,11.7c-1.6,1.6-3,3.6-4.5,5.3c-3,3.2-6.2,6.3-9.3,9.5c-0.7,0.7-1.2,1.4-1.6,2.4c-0.3,1-0.9,1.9-1.5,2.9
		c-1.9,3.1-3.2,6.4-3.9,9.9c-1.8,8-3.5,16-5.4,23.9c-1.1,4.7-2.6,9.3-3.9,13.9c-0.7,2.6-1.3,5.2-2.1,7.7c-1.4,4.2-2.9,8.4-4.4,12.5
		c-0.7,1.9-1.4,3.7-2.1,5.6c-0.4,1.2-0.8,2.5-2,3.1c0.3,3.6-0.2,7-0.6,10.5c-0.3,2.7-0.7,5.4-1.3,8.1c-0.6,2.7-1.4,5.4-2.9,7.8
		c-0.2,0.3-0.4,0.7-0.4,1.1c-1.8,8.4-4.9,16.4-7.9,24.4c-1.7,4.7-3.5,9.3-6,13.7c-1.2,2.2-2.6,4.2-3.9,6.4c-0.5,0.8-0.9,1.6-1.3,2.4
		c-2.9,6.8-5,13.9-7.2,20.9c-1.2,3.7-2.7,7.4-4.5,10.8c-0.4,0.8-0.7,1.6-1.7,2c-0.4,0.1-0.6,0.9-0.8,1.4c-2.4,5.1-4.8,10.1-7.3,15.2
		c-0.6,1.3-1.5,2.4-2.1,3.7c-0.7,1.5-1.6,2.9-1,4.7c0.1,0.4-0.1,0.9-0.2,1.3c-0.3,1-0.6,1.9-0.8,2.9c-1.1,5.4-3.6,10.4-5.6,15.4
		c-0.1,0.4-0.3,0.8-0.6,1c-1.4,1.1-1.5,2.7-2,4.2c-0.6,2.1-1.3,4.1-1.9,6.2c-1.1,3.8-1.3,7.7-1,11.6c0.1,0.7,0.2,1.5-0.6,2
		c-0.2,0.1-0.3,0.6-0.4,0.9c-0.3,1.1-0.5,2.2-0.9,3.2c-1.2,3.1-2.1,6.3-2.1,9.7c0,3.5,0,7,0.9,10.5c0.1,0.4,0.2,0.9,0.1,1.3
		c-0.4,1.6,0,3,0.6,4.5c1.1,3.1,2.7,6,4.4,8.8c0.9,1.6,1.6,3.3,2.5,4.8c1.6,2.7,3.2,5.3,5.6,7.5c0.5,0.4,0.9,0.8,1.3,1.3
		c0.5,0.8,0.3,1.3-0.4,1.8c-1.9,1.5-4.1,1.2-6.3,1c-0.6-0.1-1.2,0-1.8-0.2c-0.6-0.2-1.3-0.4-1.8-0.8c-1.7-1.5-3.3-3.1-5-4.8
		c-0.3,0-0.8,0.1-1.3,0.2c-1.7,0.3-3.1-0.4-4.5-1.2c-0.4-0.3-0.7-0.9-0.8-1.4c-0.6-1.9-1.2-3.8-1.7-5.7c-0.1-0.3-0.2-0.6-0.6-0.9
		c0,1.5-0.1,2.9-0.1,4.4c0,0.6,0.1,1.1-0.6,1.4c-0.2,0.1-0.3,0.6-0.3,0.9c0.1,1,0.1,1.9,0.3,2.9c0.7,2.9,0.1,5.5-1.3,8
		c-0.4,0.8-1.2,1-1.9,0.8c-2.5-0.6-4.6-1.9-5.9-4.2c-0.2-0.3-0.2-1,0-1.2c0.6-0.7,0.4-1.4,0.3-2.1c-0.1-1.1-0.4-2.3-0.3-3.4
		c0.2-2.3-0.3-4.5-0.7-6.7c-0.3-1.7-0.4-3.3-0.6-5c-2.7,1.5-5,1.4-6.2-0.5c0.9-0.9,2.1-0.4,3.2-0.7c1.1-0.3,2.2-0.6,3.2-0.9
		c0.1-2,0.2-3.9,0.2-5.4c-0.8-0.9-1.5-1.6-2-2.4c-1.3-1.7-2.5-3.4-3.8-5c-0.3-0.4-0.8-0.6-1.3-0.7c-1.1-0.3-2.2-0.4-3.3-0.7
		c-0.5-0.1-1-0.3-1.5-0.5c0-0.1,0-0.3-0.1-0.4c0.3-0.2,0.7-0.5,1-0.6c1.9-0.3,3.8,0.1,5.7,0.6c0.3,0.1,0.6,0.4,0.9,0.7
		c1.3,1.6,2.7,3.2,4.3,5.1c0.3-1.9,0.3-3.4,0.1-4.8c0-0.2-0.2-0.4-0.3-0.6c-1.1-1.2-2.2-2.3-3.3-3.4c-0.6-0.6-1.3-0.8-2.1-0.8
		c-1.8,0-3.5,0-5.3,0c-1.2,0-2.3-0.2-3.5-1.1c1.9-1.7,4.1-0.9,6.3-1.5c-1.8-1.2-3.5-2.2-5.3-3.3c-0.6-0.4-1.1-0.8-1.8-1.3
		c-2.6,1-5.3,2.5-8.4,1.9c-0.5-0.6-0.8-1.3-1.3-1.6c-1-0.7-1.2-1.6-1-2.7c0-0.2,0-0.4,0-0.7c-2.6-0.8-5.1-2-7.8-2.4
		c-3.3-0.5-6.4-1.6-9.4-3c-0.3-0.2-0.8-0.5-1.1-0.4c-1.6,0.6-3.1-0.1-4.5-0.6c-7.3-2.3-13.8-5.9-19-11.8c-3-3.5-6.2-6.7-8.4-10.8
		c-3.5-6.7-6.7-13.5-9.1-20.7c-0.6-1.7-1.1-3.3-1.6-5c-0.1-0.4-0.3-0.8-0.5-1.4c-0.2,0.7-0.3,1.1-0.5,2c-0.3-0.6-0.6-1-0.7-1.3
		c-1.7-5.9-3.2-11.9-3.9-18.1c-0.5-4.7-1.3-9.4-1.9-14.2c-0.6-5-0.9-10.1-0.7-15.1c0.3-6.8,0.2-13.5-0.4-20.2
		c-0.1-0.8-0.1-1.7-0.1-2.6c-0.3-6.5-0.7-13-0.9-19.5c-0.2-5.4-0.3-10.9-0.4-16.3c-0.1-4.8-0.1-9.5-0.1-14.3c0-0.8-0.2-1.7-0.4-2.5
		c-2-7.3-3.8-14.7-4.7-22.3c-0.4-2.8-0.7-5.5-0.3-8.3c0-0.3,0.1-0.7,0.2-1.1c0.6,0.9,0.5,0.9,0.6,2c0.3,3,0.4,6.1,1,9.1
		c1,5.2,2.2,10.3,3.6,15.4c1.5,5.4,2,10.8,2.3,16.3c0.3,6.3,0.9,12.6,1.8,18.8c0.4,2.3,0.6,4.6,0.7,6.9c0.5,6.4,0.6,12.8,0.4,19.2
		c-0.1,3.3-0.6,6.7-0.6,10c-0.1,4.6,0,9.2,0.2,13.8c0.2,6.1,1.5,12.1,2.5,18.2c1.1,6,2.1,12.1,2.2,18.2c0,0.9,0.3,1.9,0.7,2.8
		c1.1,2.8,2.3,5.7,3.6,8.5c2.7,5.9,6.6,10.8,11.6,14.9c1.7,1.4,3.3,2.8,5,4.2c0.5,0.4,0.9,0.9,1.5,0.4c2.3,3.5,5.5,5.7,9.1,7.3
		c1.9,0.9,4,1.6,6,2.4c1.2,0.5,2.4,0.9,2.8,2.5c0.2,0.6,0.9,1,1.4,1.4c4,2.3,7.6,5.2,11,8.3c1.1,1,2.5,1.4,3.9,2.1
		c2,0.9,4.1,1.8,6.1,2.7c1.2-1.2,1-2.5,1.2-3.7c0.1-0.7,0.3-1.2,0.8-1.6c1.5-1.3,2.8-2.9,4.5-3.9c1.9-1.2,3.3-3,4.9-4
		c0.2-1.4,0.2-2.6,0.5-3.7c0.6-2.1,1.3-4.2,2.1-6.3c0.7-1.9,1.6-3.6,2.4-5.5c0.2-0.5,0.5-1,0.8-1.5c2.1-2.8,4.3-5.6,7.4-7.4
		c2.3-1.4,3.9-3.2,4.7-5.9c0.7-2.3,1.4-4.5,1.8-6.9c0.3-2.1,1.1-4.1,1.6-6.2c0.8-2.8,1.5-5.7,2.3-8.5c0.5-1.8,0.5-3.6,0.5-5.4
		c0.1-5.3,0.2-10.5,0.3-15.8c0.1-3.4,0.1-6.8,0.2-10.2c0.1-4.1,0.2-8.2,0.3-12.2c0-0.8,0.2-1.6,0.3-2.4c1-5.4,1.9-10.7,2.9-16.1
		c1.5-7.6,3.2-15.1,4.8-22.6c0.2-1.1,0.3-2.1,0.5-3.4c-0.2,0.3-0.3,0.3-0.6,0.6c-0.2-1-0.3-1.9-0.1-2.8c0.9-5.9,2.2-11.8,4.6-17.4
		c2.5-5.7,5.1-11.4,7.6-17.1c0.2-0.4,0.3-1,0.2-1.4c-0.4-1.9-0.9-3.9-1.3-5.8c-0.2-0.9-0.5-1.9-0.7-2.8c-0.1-0.5-0.1-1.1-0.1-1.7
		c1.1,0.2,1.5,1,1.7,1.6c0.6,1.7,1.2,3.5,1.7,5.3c0.1,0.4,0.2,0.9,0.4,1.5c0.4-0.3,0.7-0.5,1-0.7c-0.6-1.5-0.5-2.9,0-4.4
		c1.6-4.5,1.9-9.2,2-13.9c0.2-6.8,0.7-13.5,1.8-20.2c0.2-1.5,0.6-2.9,1-4.3c0.6-2,0.9-4,1-6c0.4-6.9,0.8-13.7,1.4-20.5
		c0.4-4.4,1.2-8.8,3-12.9c0.4-0.9,0.9-1.7,1.4-2.5c0.2-0.4,0.5-0.8,0.6-1.2c2.7-8.4,6.5-16.3,10.7-24c0.3-0.5,0.6-1.1,0.8-1.6
		c-2-1.7-4.2-2.6-6.5-3.3c-3.5-1.1-7-2.3-10.5-3.5c-0.3-0.1-0.6-0.2-0.9-0.3c-0.1,0.1-0.3,0.2-0.3,0.2c-0.5,2.8-1.8,5.3-2.9,7.8
		c-2.6,5.9-5.1,11.8-7,17.9c-0.3,0.9-0.3,1.8-0.5,2.6c-0.2,1.3-0.4,2.7-0.7,4c-1.4,5.3-2.2,10.7-2.5,16.1c-0.3,4.4-0.5,8.7-1,13.1
		c-0.6,5.3-1.8,10.6-4.8,15.1c-2.8,4.2-4.4,8.8-6.4,13.2c-0.7,1.5-1.3,3-2,4.5c-0.4,0.8-0.7,1.7-1.8,1.9c-0.2,0.1-0.4,0.3-0.6,0.6
		c-1.8,2.5-3.6,4.9-4.4,8c-0.5,1.8-1.3,3.5-2.1,5.2c-3.4,7.2-6.4,14.5-8.4,22.3c-1.4,5.5-2.8,11.1-4.1,16.7c-0.5,2-0.5,4.2-0.8,6.2
		c-0.2,1.5-0.4,2.9-0.7,4.4c-1.2,5.4-2.3,10.9-2.7,16.4c-0.2,3.3-0.4,6.7-0.4,10c-0.1,5.7-0.1,11.5-0.1,17.2c0,0.3,0,0.7,0.1,1
		c1.4,4.1,0.8,8-1.1,11.7c-1.1,2.2-2.5,4.2-3.9,6.1c-1.2,1.5-2.6,2.8-3.9,4.2c-0.2,0.2-0.4,0.4-0.6,0.6c-1.7,2.5-3.5,4.9-5.1,7.4
		c-0.9,1.3-1.6,2.6-1.5,4.4c0.1,1-0.6,2.2-1.1,3.2c-0.3,0.5-0.4,1-0.1,1.5c-2.9,1.3-5.6,2.6-8.3,3.9c-4.1,1.9-8.3,3.7-12.4,5.6
		c-1.9,0.9-3.7,2-5.5,3c-0.8,0.4-1.1,1.2-1,2c0.1,1.4,0.8,2.4,1.6,3.5c0.2,0.2,0.6,0.3,0.9,0.3c0.5,0,1-0.2,1.5-0.4
		c4.4-1.7,9-3.1,13.2-5.5c1.9-1.1,4-1.8,6.3-1.7c1.3,0.1,2.6-0.3,3.9-0.3c1,0,1,0.1,1.1,1.4l0.1,0c-1.8,0.2-3.6,0.6-5.4,0.7
		c-1.4,0.1-2.7,0.4-3.9,1c-2.3,1.1-4.5,2.4-6.9,3.3c-2.7,1.1-5.5,2-8.3,2.9c-0.8,0.3-1.8,0.2-2.7,0.1c-1.7-0.1-2.6-1.4-2.9-2.7
		c-0.3-1.1,0.3-2.5,0.5-3.8c0.2-1,1-1.6,1.9-2c2-0.8,3.7-2,5.3-3.4c0.4-0.4,0.9-0.7,1.4-0.9c5.4-2.4,10.9-4.9,16.3-7.3
		c0.7-0.3,1.5-0.5,2.1-0.7c0.2-0.9,0.4-1.7,0.6-2.5c0.1-0.4,0.3-0.8,0.3-1.1c-0.4-1.4,0.2-2.5,0.8-3.6c1.3-2.1,2.7-4.1,4-6.1
		c1.5-2.2,2.9-4.5,4.4-6.7c0.2-0.4,0.3-1.1,1.1-0.7c0.1,0.1,0.5-0.2,0.6-0.4c1-1.6,2-3.2,3-4.7c0.3-0.4,0.5-0.9,0.9-1.2
		c0.7-0.4,0.8-0.9,0.7-1.6c-0.5-7.9-0.3-15.8-0.3-23.6c0-9.4,0.9-18.8,3-28c0.4-1.7,0.5-3.5,0.6-5.2c0.4-5.2,1.4-10.3,2.9-15.4
		c0.4-1.5,0.9-3.1,1.2-4.6c1.6-7.7,4.3-15.1,7.5-22.2c1.7-3.9,3.9-7.6,5.1-11.7c1.7-2.6,3.5-5.3,5.2-7.9c0.5-0.8,1-1.6,1.4-2.5
		c2.2-5.3,4.2-10.7,6.7-15.8c2.4-4.9,3.7-10,4.6-15.2c0.8-4.6,1.1-9.2,1.8-13.8c0.6-4,1.4-8,2.4-12c1.2-5.1,2.5-10.2,4-15.3
		c1.8-5.9,4.3-11.6,7-17.2c0.6-1.3,1.3-2.6,1.5-4.2c-0.4-0.2-0.7-0.4-1.1-0.5c-7-2.3-13.6-5.4-20.2-8.6c-1.8-0.9-3.7-1.8-5.6-2.5
		c-4.8-2-8.8-5.1-12.5-8.7c-1.2-1.3-2.4-2.6-3.8-3.6c-1.9-1.3-4-2.4-6-3.5c-0.3-0.2-0.8-0.2-1.1-0.2c-1.3,0.2-2.4-0.2-3.4-0.9
		c-1.7-1.1-3.3-2.2-4.8-3.5c-3.7-3.2-7.3-6.5-10.8-9.8c-2.2-2.2-4.2-4.6-6.3-6.9c-0.4-0.4-0.9-0.9-1.4-1.2
		c-3.7-2.2-7.7-3.4-11.9-3.8c-4.3-0.4-8.6-0.7-12.9-1c-1.2-0.1-2.5-0.2-3.7-0.3c-0.2,0-0.4-0.2-0.7-0.1c-0.4,0-1.1,0.3-1.2,0.2
		c-0.3-0.4-0.6-1-0.5-1.5c0.1-2.4,0.4-4.9,0.6-7.3c0-0.5,0.1-1,0-1.6c-1.2,2.2-2.5,4.3-3.5,6.5c-0.4,1-0.2,2.2-0.3,3.3
		c-0.8,7.3-1.1,14.7-1.1,22.1c0,5.7-1,11.2-3.4,16.4c-0.9,2-1.3,4-1.6,6.1c-0.5,4-1.5,7.9-2.3,11.8c-1.8,8.9-4.5,17.6-7,26.3
		c-0.2,0.8-0.2,1.7-0.3,2.5c-0.1,0.9-0.1,1.9-0.4,2.8c-1.3,4.1-2.7,8.1-3.1,12.3c-0.3,2.8-0.3,5.7-0.5,8.5c0,1.1,0,2.2-0.9,3.2
		c-0.3,0.3-0.3,0.9-0.5,1.4c-0.1,0.4-0.1,0.9-0.3,1.1c-1.1,1-0.8,2.3-0.7,3.5c0.1,5,0.2,10,0.3,15c0,2.8-0.1,5.6-0.3,8.3
		c-0.1,1-0.3,2-0.6,3c-1.4,4.4-2.8,8.8-4.2,13.1c-0.5,1.5-1.3,2.9-2.4,4.1c-0.6,0.6-1.2,1.1-2.2,0.8c0.1-0.4,0.1-0.7,0.2-1.1
		c1.6-5.3,3.1-10.6,4.8-15.8c1.3-3.9,1.9-7.9,2-12c0.1-6.7,0.1-13.4,0.5-20.1c0.4-5.4,0.6-10.9,2.1-16.1c0.8-2.7,1.7-5.4,2.6-8.1
		c0.1-0.4,0.3-0.8,0.5-1.4c-1.9-0.6-3.7-1.2-5.5-1.8c-5.3-1.5-10.6-2.8-15.7-5c-0.4-0.2-0.9-0.3-1.3-0.5c-4.6-2.5-9.6-3.9-14.5-5.7
		c-10.8-3.9-21.4-8.1-31.7-13.3c-2.5-1.3-4.9-2.6-7.3-4c-0.8-0.4-1.6-0.9-2.6-1.4c0.1,0.5,0.2,0.9,0.3,1.3c1.4,6.5,2.8,13,4.1,19.5
		c0.8,4.1,1.5,8.1,2.2,12.2c0.4,2.5,0.6,5.1,1,7.6c0.7,3.5,1.6,7,2.3,10.5c0.4,1.7,0.6,3.5,0.9,5.2c0,0.2,0,0.5,0.1,0.7
		c1.6,3.9,1.2,8.1,1,12.1c-0.2,6-0.7,12-1.1,18c-0.3,3.6-0.7,7.1-1,10.7c-0.1,0.7,0.1,1.3,0.2,2c0,0.7,0.1,1.5,0,2.2
		c-1.2,8.1-1.7,16.3-1.6,24.4c0.1,6.4,0.2,12.7,0.3,19.1c0,3.1-0.1,6.1-0.2,9.2c-0.2,5.2,0.7,10.2,2.1,15.1
		c2.7,9.2,6.1,18.2,9.4,27.2c0.8,2.1,1.9,4,2.8,6c3.7,8.7,6.8,17.7,8.8,27c0.1,0.3,0.1,0.6,0.2,0.8c2.2,5,3.1,10.4,3.9,15.8
		c0.3,2.1,0.7,4.2,1.1,6.4c0.4,0.1,0.8,0.3,1.2,0.4c0.7,3.9,1.4,7.8,2.1,11.7c1.2,7,2.4,14,3.6,21c0.4,2.1,0.5,4.3,1,6.4
		c0.9,3.9,0.5,7.9,0.4,11.8c-0.1,2.9,0.1,5.9,0.2,8.8c0.2,4.5-0.3,8.9-1.1,13.4c-0.1,0.4,0,0.8,0,1.1c0,0.4,0.2,0.9,0,1.1
		c-1.2,1.7-0.7,3.5-0.5,5.3c0.2,1.6,0.4,3.4,2.1,4.4c0.3,0.2,0.3,0.7,0.5,1.1c0.5,1.2,1.2,1.9,2.5,2.2c3.3,0.8,6.7,1.2,10.1,1
		c0.3,0,0.7,0,1,0.1c3.5,1.3,7.3,1.2,10.9,1.5c4.1,0.3,8.3,0.3,12.4,0.5c2.6,0.1,5.2,0.5,7.8,0.7c1.6,0.1,3.3,0.3,4.9,0.3
		c4.3,0,8.5,0.6,12.7,1.2c2.1,0.3,4.3,0.4,6.4,0.6c2.5,0.2,5,0.4,7.5,0.6c0.7,0.1,1.4,0.1,2,0.1c6.4,0,12.8-0.1,19.2-0.1
		c1.4,0,2.4-0.3,3.1-1.6c0.3-0.6,0.7-1.2,1-1.8c0.3-0.5,0.5-0.9,1.2-0.8c0.2,0.4,0.3,0.9,0.5,1.4c0.6-0.3,1.1-0.6,1.7-0.9
		c0.7,1.1-0.4,1.6-0.6,2.4c0.5,0.2,0.9,0.4,1.4,0.5c1.8,0.2,3.6,0.4,5.4,0.5c1.1,0.1,2.3,0,3.2-0.8c0.4-0.3,0.8-0.5,1.2,0
		c0.4,0.5,0.2,1-0.1,1.4c-0.3,0.3-0.6,0.6-0.9,0.7c-0.5,0.2-1,0.4-1.5,0.4c-1.8,0.2-3.7,0.4-5.5,0.5c-1.5,0.1-2.8-0.3-4-1.2
		c-0.7-0.6-1.5-0.8-2.4-0.6c0.1,0.3,0.3,0.5,0.4,0.7c0.3,0.9-0.1,1.7-1,2c-0.3,0.1-0.7,0.1-1,0.1c-3.8,0-7.6,0-11.4,0
		c-3,0-6,0.1-9,0.1c-3-0.1-6-0.5-9-0.5c-5,0-9.9-1.2-14.9-1.6c-5.7-0.5-11.3-0.9-17-1.2c-7.1-0.5-14.3-0.7-21.4-1.7
		c-2.4-0.4-4.8-0.8-7.3-0.7c-0.4,0-0.9-0.1-1.2,0.1c-1.5,1-3,0.4-4.4,0c-0.8-0.2-1.6-0.7-2.2-1.2c-3.7-3-6.2-6.7-6.2-11.7
		c0-0.2,0-0.5,0-0.7c0.2-1.4-0.3-2.4-1.2-3.5c-3.5-4.8-5.9-10.1-5.3-16.2c0.1-0.8,0.1-1.7,0.4-2.5c1.3-4.3,1.6-8.7,2-13.1
		c0.4-3.6,0.4-7.2,0.7-10.9c0.1-1.3,0.3-2.6,0.4-3.9c0.6-3.9-0.1-7.7-0.5-11.5c-0.5-5.6-2.5-10.9-3.4-16.5
		c-0.6-3.4-1.1-6.7-1.6-10.1c-0.1-0.6-0.1-1.2-0.4-1.7c-2.5-5.2-3.9-10.6-5.2-16.1c-1.1-4.3-2.5-8.6-3.8-12.9
		c-1.1-3.5-2.5-7-3.5-10.5c-1.2-4.2-3-8.1-5-11.9c-3.8-7.4-6.3-15.2-7.7-23.3c-0.6-3.3-0.9-6.6-1.4-9.9c-0.2-1.3-0.4-2.7-0.7-4
		c-0.9-3.4-1.2-6.9-1.2-10.5c0.1-7.3,0.3-14.5,0.7-21.8c0.3-5.1,1.2-10.1,1.8-15.2c0.6-4.6,0.6-9.3,0.7-13.9c0-1.7-0.5-3.5-0.5-5.2
		c0-2.7,0.2-5.3,0.4-8c0.2-2.4,0.6-4.8,1.4-7.2c0.1-0.4,0.2-0.9,0.2-1.3c-0.1-4.6-0.1-9.3-0.4-13.9c-0.2-3.4-1-6.7-2-10
		c-2.8-8.4-4.6-17-6.1-25.6c-1.2-6.9-2.5-13.7-3.7-20.6c-0.2-1.3-0.9-2-2-2.7c-5.5-3.2-11-6.6-16.5-9.9c-1.1-0.7-2.1-1.3-3.4-1.7
		c-2.9-0.8-4.7-3.1-6-5.7c-0.1-0.2-0.1-0.4-0.1-0.7c0.4-4.3,0.8-8.6,1.2-12.9c0.9-7.7,2.3-15.4,4-23c2.5-11.1,4.3-22.3,5.7-33.5
		c0.5-4.1,1-8.1,0.9-12.2c0-1.8-0.3-3.6-0.3-5.4c0.1-5.6,0.4-11.1,0.5-16.7c0-1.9-0.1-3.9-0.3-5.8c-0.3-5.7-0.4-11.4,0.2-17.2
		c0.3-3.6,0.3-7.3,0.6-10.9c0.4-6.3,1.3-12.5,3.1-18.6c0.7-2.4,1.7-4.7,3.2-6.7c0.7-1,1.5-2,2.8-2.4c0.4-0.2,0.8-0.6,1.1-1
		c6.4-8.3,14.2-15.1,23.2-20.5c7.4-4.4,15.5-7.3,24.1-8.5c3.3-0.4,6.5-0.8,9.8-0.7c0.5,0,1-0.1,1.5-0.3c2.2-0.6,4.4-0.8,6.6-0.6
		c0.5,0,0.9,0.3,1.5,0.5c-1.3,1.1-2.6,0.7-3.8,0.9c-1.2,0.2-2.3,0.3-3.7,0.5c0.2,2,1.9,2.8,2.7,4.3c0.4-0.4,0.7-0.7,1-1.1
		c-0.5-0.2-0.9-0.4-1.3-0.6c0.1-0.2,0.1-0.5,0.2-0.5c2-0.5,3.9-1.7,6.1-0.9c0.3,0.1,0.8-0.1,1.1-0.1c0.5-0.1,1-0.1,1.1,0.5
		c0.2,0.6-0.3,0.8-0.7,1c-1.6,0.4-3.2,0.8-4.8,1.3c-0.7,0.2-1.4,0.4-2.2,0.7c0.4,0.6,0.7,0.9,1,1.4c2.9-0.6,5.5-2.2,8.5-1.9
		c-2.5,0.9-5,1.8-7.8,2.7c0.6,0.7,1,1.2,1.3,1.6c3.5-0.9,6.7-1.7,10.1-2.6c-0.2-0.3-0.4-0.6-0.6-0.8c-1.8-1.7-3.7-3.4-5.5-5
		c-0.4-0.4-0.7-0.8-1.2-1.3c1.6-0.2,4.2,1.1,9.1,4.7c1.2-0.9,2.5-0.6,3.8-0.2c1.9,0.6,3.8,1.4,5.8,2.1c-0.2-1-0.4-2-0.6-3.3
		c1.6,0.7,3,1.4,4.4,1.9c8.8,3.6,17.7,6.9,26.9,9.5c2,0.6,4,1.3,6,2c9.6,3.4,19.1,6.8,28.6,10.4c9.2,3.5,18.2,7.6,26.9,12.2
		c3.5,1.9,7.1,3.5,10.6,5.3c6,3.1,11.6,6.6,17.1,10.5c7.1,5,14.3,9.9,21.4,14.9c1,0.7,1.9,1.5,2.8,2.2c0.8,0.6,1.4,1.4,2.7,1.1
		c0.5-0.1,1.1,0.3,1.5,0.7c1.9,1.3,3.8,2.6,5.7,4c5.7,4.4,11.5,8.6,17.9,12c1.7,0.9,3.4,1.8,5,2.8c0.7,0.4,1.2,1,1.8,1.5
		c0.4,0.4,0.8,0.8,1.3,1c3.4,1.7,6.9,3.4,10.4,5.1c7.2,3.6,14,7.8,19.9,13.3c0.9,0.8,1.8,1.6,2.9,2.1c7.2,3.6,13.7,8.2,20.2,12.9
		c1.2,0.9,2.6,1.7,3.8,2.6c0.8,0.6,1.5,1.4,2.2,2c0.5,0.4,1,0.8,1.5,1c1.4,0.7,3,1.2,4.3,1.9c1,0.5,1.9,1.2,2.6,2.1
		c0.6,0.7,1.2,1,2,1c1.1,0,2.1,0.2,3.1,0.8c0.5,0.3,1.4,0.1,2.2,0.1c-0.1-0.6-0.1-0.9-0.2-1.5c2.4-0.7,4.7-1.4,7.2-2.1
		C564.1,142.8,563.2,143,562.5,142.9L562.5,142.9z M310.1,32.5c0,0.2,0,0.3,0,0.1C310.2,32.8,310.1,32.7,310.1,32.5
		c-0.1-0.3-0.1-0.8-0.2-1.1c-1.5-4.2-3-8.4-4.5-12.6c-0.4-1.2-1.1-2.3-1.5-3.3c-1.1-0.3-1.9-0.5-2.7-0.8c-1.7-0.6-3.4-1.2-5.1-1.8
		c-0.4-0.1-0.8-0.1-1.6-0.2c0.6,0.7,1,1.1,1.4,1.5c3.4,3.3,6.5,6.9,9.3,10.8C306.9,27.5,308.4,30,310.1,32.5z M310.7,34.6
		c0-0.2-0.1-0.4-0.1-0.7c0,0-0.1,0-0.1,0C310.5,34.2,310.6,34.4,310.7,34.6c0,0.5,0,1-0.8,1.2c-0.4-0.4-0.9-0.8-1.4-1.3
		c-0.6-0.6-1.2-1.1-1.8-1.7c-1-1.4-1.9-2.8-2.9-4.2c-3.2-4.7-6.8-9.1-10.7-13.2c-0.3-0.3-0.5-0.8-0.6-1c-3.8,0.6-7.1,1.5-10.5,2.8
		c0.7,0.9,1.3,1.6,1.9,2.3c4.3-2.2,6.7-2.8,8.3-2c-1.4,0.3-2.7,0.5-3.9,1c-1.3,0.4-2.7,0.8-3.8,1.9c2.8,3.4,5.4,6.9,8.3,10.1
		c2.3-2.1,5-3.4,7.4-3.4c-2.3,1.4-5.1,1.8-6.7,4.3c1.5,1.5,3,3,4.5,4.5c-0.4,0.4-0.6,0.6-0.8,0.9c0.2,0.1,0.5,0.2,0.7,0.4
		c0.7-1.4,0.9-1.8,2.1-2.2c2.3-0.8,4.6-1.5,7-2.2c-0.2,0.9-0.9,1.1-1.6,1.4c-1.5,0.7-3,1.4-4.5,2.1c-0.8,0.4-1.5,0.8-1.8,1.9
		c0.5,0.3,0.9,0.6,1.1,0.8c1-0.7,1.7-1.5,2.6-1.9c0.9-0.5,1.9-0.7,2.9-0.9c0.9-0.2,2-0.5,3,0.6c-2.4,1-4.9,1.6-6.7,3.6
		c0.9,0.8,1.7,1.5,2.6,2.3c0.7-0.8,1.2-1.6,1.9-2.3c0.6-0.5,1.2-1,1.9-1.4c0.2-0.1,0.7,0.1,1,0.1c-0.1,0.3,0,0.7-0.2,0.9
		c-0.3,0.4-0.8,0.8-1.2,1.2c-0.5,0.6-1.3,1.1-1.4,2.2c0.7-0.1,1.3-0.2,1.9-0.3c0.8-0.2,1.6-0.5,2.5-0.7c1.1-0.2,1.6,0.1,1.8,1.2
		c0.1,0.6,0,1.1,0,1.7c0,0.6-0.1,1.2-0.1,1.9c0.5,0,0.8-0.1,1.3-0.1c-0.3-1.8-0.5-3.6-0.9-5.3c-0.3-1.5-0.8-3.1-1.2-4.6
		C311.4,36.4,311,35.5,310.7,34.6z M456.4,223.5c-1.9-0.7-2.5-2.3-2.9-4c-0.1-0.5-0.1-1-0.3-1.5c-1.1-4.1-2.2-8.1-3.3-12.1
		c-0.6-2.2-0.7-4.5-0.1-6.7c0.1-0.4,0.2-0.9,0.2-1.3c-0.1-1.6,0.3-3.2,0.8-4.7c1.3-3.8,3.2-7.2,5.7-10.2c2-2.4,4.3-4.7,6.4-7.1
		c0.5-0.5,1.1-1,1.3-1.6c0.5-1.5,1.6-2.4,2.8-3.3c2.2-1.7,4.8-2.6,7.5-3.1c3.5-0.8,7-1.4,10.5-2c7.4-1.3,14.9-1.2,22.4-0.2
		c5,0.7,9.4,2.7,12.9,6.7c2.3,2.6,4.7,5.1,7,7.7c3.3,3.8,6.2,7.8,8.1,12.5c0.1,0.2,0.2,0.3,0.4,0.5c0-0.3,0.1-0.4,0.1-0.5
		c0-6.3-0.7-12.6-2.8-18.6c-0.2-0.6-0.6-1.1,0-1.8c0.9-0.2,1.5,0.4,1.9,1.1c0.7,1.4,1.3,2.8,1.7,4.2c1.3,4.9,1.7,10,1.7,15
		c0,2.4-0.3,4.7-0.6,7.1c-0.1,0.7-0.2,1.3-1,1.8c-0.2-0.8-0.4-1.6-0.6-2.5c-0.2,1.6-0.4,2.9-0.5,4.2c0,1.3,0.1,2.6,0.2,3.9
		c0.1,1.2,0.2,2.5,0.3,3.7c0.8-0.9,1.4-1.9,1.9-2.9c1.3-2.8,2.6-5.7,4-8.5c0.5-1.1,1.2-2.2,2-3.1c1.7-1.7,3-3.6,3.8-5.8
		c1.5-4.1,3-8.2,4.5-12.3c0.2-0.7,0.6-1.3,0.8-1.9c-0.2-1.7-0.7-3.4-0.7-5c0.1-3.4,0.5-6.8,0.8-10.2c0.3-3.2,0.6-6.3,0.7-9.5
		c0.1-2,0-2.4-1.9-2.8c-2.4-0.6-4.5-1.9-6.7-2.8c-1.3-0.5-2.4-1.5-3.6-2.2c-0.4-0.3-0.9-0.6-1.3-0.6c-1.2,0-2.1-0.5-3-1.1
		c-2.4-1.7-4.7-3.3-7.1-5c-0.3-0.2-0.6-0.3-0.9-0.5c0.3,0.7,0.6,1.3,1,1.9c1.2,1.6,2.5,3.2,3.7,4.9c1.6,2.2,2.9,4.6,3.4,7.3
		c0.2,0.8,0.1,1.6,0.2,2.4c-0.3-0.4-0.5-0.8-0.5-1.3c-0.6-3.4-2.1-6.5-4.2-9.2c-1.6-2-3.1-3.9-4.7-5.8c-1.1-1.3-2.2-2.7-3.6-3.8
		c-3.8-2.8-7.7-5.6-11.3-8.8c-1.8-1.6-3.6-3.1-5.7-4.3c-5.2-3-10.4-5.7-15.6-8.6c-3.9-2.2-7.8-4.4-11.4-7.1
		c-0.4-0.3-0.8-0.4-1.2-0.6c-0.8-0.4-1.6-0.7-2.3-1.1c-5.2-2.9-10-6.5-14.8-10c-2.8-2-5.1-4.6-8.2-6.2c-1.8-1-3.4-2.3-5.1-3.4
		c-9-6-18-12-27-18.1c-5.7-3.9-11.5-7.7-17.7-10.9c-5.3-2.7-10.7-5.3-15.7-8.6c-0.3-0.2-0.6-0.3-0.9-0.4c-2.7-1-5.3-2-8-3
		c-9.9-3.4-19.8-6.7-29.6-10.2c-4.9-1.7-9.7-3.8-14.6-5.7c-1.5-0.6-2.9-1.2-4.5-1.6c-7.5-2.1-14.7-5-21.8-8.3
		c-0.5-0.3-1.1-0.5-1.6-0.7c3.9,5.2,6.3,10.9,8.3,17c3.5,11,5.6,22.2,6.1,33.7c0.1,1.1,0.4,1.8,1.3,2.4c1.3,0.9,2.6,2,3.8,3.1
		c1.1,1,1.9,2.3,2.1,3.8c0.4,2.8,0,5.3-2,7.4c-0.2,0.2-0.4,0.5-0.6,0.8c-1.3,1.6-1.5,5-0.5,6.8c0.1,0.1,0.2,0.3,0.3,0.4
		c1.5,0.5,1.8,1.9,2.5,3.1c0.4,0.7,0.8,1.3,1.6,1.7c0.7,0.3,1.3,1,1.7,1.6c2.1,3.3,3.4,6.9,3.6,10.9c0.3,6-0.5,11.8-2.3,17.4
		c-1.2,3.7-2.2,7.5-2.5,11.4c-0.1,1-0.2,1.9,0.4,2.8c0.2,0.3,0.3,0.8,0.3,1.1c-0.2,1.7-0.4,3.5-0.9,5.2c-0.3,1.1-0.9,2.2-1.4,3.3
		c-0.9,2-1.4,4-1.6,6.2c-0.1,1.7-0.3,3.4-0.5,5.1c-0.2,1.6-0.3,3.2-0.4,4.7c1.7-0.2,3.3-0.5,4.9-0.5c5.4,0.2,10.8,0.4,16.1,0.8
		c3.4,0.3,6.6,1.4,9.7,2.9c1,0.5,1.8,1.2,2.2,2.3c0.2,0.6,0.6,1.2,1,1.7c1.4,1.6,2.7,3.2,4.2,4.6c5.4,5.1,11,10,16.4,15.1
		c0.9,0.8,1.8,1.5,3,1.9c3.6,1.3,6.6,3.4,9.3,6.1c0.7,0.7,1.4,1.3,2.1,2c3.4,3.2,7.2,5.8,11.6,7.5c1.7,0.7,3.4,1.5,5.1,2.3
		c6.1,2.9,12.2,5.8,18.6,7.9c4.1,1.3,8,2.8,12.1,4.1c3.6,1.1,7.3,1.9,11,2.9C455,226,455.7,224.7,456.4,223.5z M207,108.1
		c0,2.9,0.1,5.6,0,8.3c-0.2,4.7-0.4,9.4-0.8,14.1c-0.1,1.5-0.6,2.9-0.7,4.4c-0.6,7.4-1.5,14.8-3,22.1c-1.5,7.1-3.1,14.2-4.3,21.3
		c-1.4,7.9-2.4,15.8-3.6,23.7c-0.1,0.6,0.1,1.3,0.3,1.8c0.7,1.3,1.7,2.5,3,3.4c0.9-0.6,1.6-0.3,2.3,0.2c8.1,5.1,16.4,9.7,25,13.8
		c8.3,3.9,16.6,7.9,25,11.6c8.4,3.8,16.5,8.3,25.2,11.3c3.3,1.2,6.5,2.4,9.8,3.3c5.8,1.7,11.9,2.5,17.6,4.6c0.1,0,0.2,0,0.4-0.1
		c0.1-0.2,0.2-0.5,0.2-0.8c2-12,4.7-23.9,7.4-35.8c0.4-1.7,0.7-3.5,0.7-5.2c0-2.1,0.4-4.2,1.2-6.1c2.5-6,3.7-12.3,4.4-18.8
		c0.5-4.8,1.2-9.6,1.8-14.3c0.1-0.8,0.8-1.7-0.4-2.3c-0.1-0.1-0.1-0.6,0-0.8c0.2-0.7,0.4-1.4,0.7-2.1c1.2-2.3,2.4-4.5,3.7-6.7
		c1.4-2.4,2.1-5,2.6-7.7c0.1-0.4,0.2-0.8,0.3-1.1c1-2.3,2.2-4.5,3.1-6.8c0.4-0.9,0.3-2,0.3-3c0-0.8-0.3-1.6-0.2-2.3
		c0.4-2.7,0.7-5.4,1.3-8c0.5-2.4,1.3-4.7,2-7c0.5-1.8,0.8-3.5,0.3-5.5c1-0.2,0.8-0.9,0.7-1.7c-0.1-0.8-0.1-1.7-0.2-2.5
		c-0.1-2.2-0.1-4.4-0.3-6.6c-0.3-2.9-1.1-5.6-2.6-8c-0.3-0.5-0.6-1-1.1-1.2c-0.8-0.5-1.3-1.1-1.6-1.9c-0.2-0.4-0.4-0.7-0.7-1.1
		c-0.5,1,0,2.5-1.8,2.6c-0.1-0.6-0.3-1.2-0.4-1.7c-0.3-1.7-0.5-3.4-0.8-5c-0.6-3-0.5-5.9,1.3-8.5c0.4-0.6,0.7-1.2,1-1.8
		c0.9-2,0.8-4-0.5-5.8c-0.9-1.2-2-2.1-3-3.2c0-0.1-0.2,0-0.3,0c-0.1,0.4-0.2,0.8-0.3,1.3c-0.8-1.5-1.6-3-2.4-4.5
		c-0.2-0.3-0.2-0.8-0.3-1.1c-1.4-5.2-2.8-10.4-4.2-15.6c-0.1-0.3-0.2-0.8-0.5-0.9c-1-0.4-2-1.3-3.2-0.5c0.7,1.2,2.1,2.1,2,3.7
		c-0.8,0.2-1.1-0.4-1.5-0.7C305,46.6,298,41,289.8,37c-0.2-0.1-0.3-0.1-0.5-0.2c-0.8-0.5-0.9-1.4-0.1-2c0.4-0.3,1-0.5,1.4-0.5
		c1,0.1,2.1,0.4,3.1,0.8c0.6,0.2,1.1,0.6,2,1c-8.2-8.3-14.6-17.6-21.7-26.4c-3.3,1.3-6.9,1.8-10.4,2.4c-9.4,1.5-18.1,4.7-26.1,9.8
		c-3.2,2.1-6.2,4.5-9.4,6.7c-4.7,3.2-9,6.9-13.1,10.8c-1.8,1.7-3,3.7-3.8,5.9c-0.2,0.6-0.5,1.3-0.6,1.9c-0.8,3.6-1.7,7.2-2.3,10.8
		c-0.5,3.3-1.2,6.5-1.1,9.9c0.1,7,0,14,0.1,20.9c0.1,4.5,0.4,9.1,0.7,13.6c0.1,1.4,0.2,2.7,0.3,4.1c0,0.5-0.2,0.9-0.2,1.4
		C207.6,108.1,207.3,108.1,207,108.1z M534.3,199.9c0.3-5.8,0.2-6.7-2.9-11.2c-4.3-6.3-9.5-11.7-14.8-17.1c-0.5-0.5-1-1-1.6-1.2
		c-1.9-0.8-3.8-1.5-5.8-2c-4.7-1.1-9.4-1.5-14.2-0.9c-4.5,0.5-9,1.2-13.5,1.8c-5,0.7-9.8,2-14.3,4.2c-0.5,0.3-1.1,0.6-1.5,1
		c-1.7,1.9-3.4,4-5.1,5.9c-2.5,2.8-4.7,5.8-6.4,9.2c-1.3,2.7-2.6,5.4-2.3,8.6c0,0.4,0,0.8-0.2,1.2c-0.8,2.3-0.6,4.5,0.3,6.7
		c0.9,2.5,2,4.9,3,7.4c0.7,1.8,1.5,3.5,2.2,5.3c0.4,0.9,0.5,1.9-0.3,2.7c-0.3,0.3-0.2,0.4,0.1,1.3c0.9-1.4,1.7-2.7,2.5-4
		c-1.1-1.7-1.3-5.5-0.4-6.6c1.3,1.1,1.2,2.7,1.3,4.3c0.5-0.3,0.8-0.6,1.2-0.9c0.8,0.5,0.8,1.2,0.6,1.9c-0.2,0.8-0.5,1.6-0.9,2.4
		c-0.9,1.9-1.9,3.8-2.9,5.8c-5.2,9.8-10.3,19.7-15.5,29.5c-1.9,3.6-3.1,7.5-3.8,11.6c-1.1,6.2-1.1,12.5-1.6,18.8
		c-0.3,3.9-0.4,7.8-1,11.7c-0.9,6.3-1,12.7-0.7,19c0.2,4.6,0.1,9.2-0.2,13.8c-0.2,2.6-0.8,5.2-1.4,7.7c-0.3,1.2-0.8,2.4-1.6,3.3
		c-0.9,1.1-1.4,2.3-1.9,3.5c-1.7,4.4-3.3,8.9-5.1,13.3c-2.3,5.7-4.9,11.3-7.8,16.6c-1,1.7-1.5,3.5-1.2,5.5c0.3,2.7,0,5.3-0.5,8
		c-1,5.7-2.1,11.4-2.8,17.1c-0.9,7.4-1.4,14.8-2.1,22.2c-0.5,5.5-1.1,11.1-2.2,16.5c-0.2,1.1-0.4,2.2-0.5,3.4c-0.3,4-0.5,8-0.8,12.1
		c-0.3,4-0.6,8-1,12c-0.4,3.7-1,7.4-1.5,11.1c-0.4,2.7-0.8,5.5-1.2,8.2c-0.3,2-1.2,3.6-2.8,4.9c-0.6,0.5-1,1.1-1.5,1.6
		c-0.9,1-1.7,2.2-2.8,2.9c-1.5,1-3.1,1.8-4.7,2.6c-0.3,0.2-0.8,0.3-1,0.6c-1.6,2.3-3.5,4.4-4.7,6.9c-1.3,2.6-2,5.5-2.9,8.3
		c-0.6,1.6-0.5,3.5-2.1,4.7c-0.1,0.1-0.1,0.2-0.1,0.3c-0.5,0.6-0.8,1.4-1.4,1.9c-2.4,2.3-4.8,4.6-7.2,7c-0.3,0.3-0.6,0.8-0.8,1.2
		c-0.8,2.6-1.5,5.3-2.3,7.9c-0.2,0.6-0.1,1.2,0.4,1.7c0.8,0.8,1.6,1.3,2.7,0.8c1.8-0.7,3.5-1.2,5.3-1.9c3-1.1,4.7-3.5,6.1-6.3
		c0.9-1.7,1.8-3.4,2.7-5.1c0.3-0.6,0.7-1.2,1.7-1.2c-0.3,1.5-1.2,2.7-1.7,3.9c-0.6,1.3-1.3,2.6-2,3.9c-0.7,1.2-1.5,2.3-2.4,3.7
		c1.5,0.4,2.9,0.9,4.3,1.3c1,0.3,1.8,0.7,2.5,1.3c1.4,1.3,3.1,1.8,5.3,2.5c-3.2-5.7-5.4-11.2-3-17.5c-0.9,0-1.6,0.3-2.2,0.1
		c-1.2-0.5-2.3-1.3-3.3-2c-0.2-0.1-0.2-0.4-0.4-0.6c0.1-0.2,0.1-0.3,0.2-0.5c1.7,1.6,3.6,1.5,5.8,1.3c0-1.5,0-3,0-4.5
		c0-1.5,0-3,0.1-4.4c0.2-1.5-0.1-3,0.8-4.4c0.2,0.5,0.3,1,0.3,1.6c-0.1,3.9-0.2,7.8-0.3,11.7c0,0.9,0.1,1.9-0.2,2.7
		c-0.6,2-0.2,3.8,0.3,5.7c0.8,3.1,1.8,6.2,2.7,9.3c0.4,1.5,0.7,3.1,0.5,4.7c-0.2,1.2-0.3,2.4-0.1,3.6c0.2,1.4,0.1,2.7,0,4.1
		c-0.2,1.7,0,3.4,0,5.1c0,1.8,0.1,3.5-0.1,5.3c-0.5,3.2-0.3,6.2,0.5,9.3c0.3,1,0.5,2,0.6,3c0.2,1.3,0.1,2.7,0.3,4c0.4,2,1,4,1.3,6
		c0.4,2.2,1.8,2.9,3.7,3.5c0.1-0.7,0.1-1.3,0.3-1.9c0.5-1.5,0.5-2.9,0.2-4.5c-0.7-3.1-0.3-6.3,0.2-9.5c0.1-0.6,0.2-1.2,0.2-1.8
		c0.3-2.1,0.4-4.2,0.8-6.2c0.3-1.9,1.1-3.7,1.3-5.6c0.2-1.9,0-3.9,0-5.8c0-0.5,0-1,0-1.5c0.3-2.5,0.6-5.1,1-7.6
		c0.1-0.6,0.2-1.4,1.1-1.6c0.6,0.8,0.6,0.8,0.5,1.6c-0.8,4.7-1.2,9.3-1.1,14.1c0,1-0.2,2-0.3,3.4c2.1,4.3,4.3,9,6.5,13.6
		c0.2,0.4,0.4,0.7,0.4,1.1c0,0.8,0.4,1.4,0.9,1.9c1.9,2.1,4.1,3.9,6.4,5.5c1.1,0.7,2.1,1,3.4,0.9c0.7-0.1,1.4-0.2,2.3-0.3
		c-0.5-0.8-1-1.4-1.4-2.1c-3.1-5.4-6.2-10.7-9.2-16.1c-1.3-2.4-2.2-5.1-2.2-8c0-0.3-0.1-0.6-0.1-0.8c-0.2-1.6-0.6-3.2-0.7-4.9
		c-0.1-3.2,0-6.4-0.1-9.5c0-0.7,0-1.4-0.2-2c-0.4-1.6-0.1-3,0.6-4.4c0.6-1.1,1.3-2.2,1.9-3.4c0.5-1.1,1.2-2.2,1-3.5
		c-0.4-4-0.2-8,0.6-11.8c0.5-2.5,1.5-5,2.2-7.5c0.2-0.6,0.5-1.1,0.2-1.8c-0.5-1-0.4-2.1,0-3.1c1.7-4.5,3.6-8.8,6.1-12.9
		c0.8-1.3,1.5-2.8,2.1-4.2c0.2-0.3,0.3-0.8,0.2-1.1c-0.5-1.2,0.1-2.2,0.6-3.2c2.8-6,5.5-12.1,8.4-18.1c2.3-4.8,4.6-9.6,6.9-14.4
		c0.3-0.6,0.5-1.3,0.7-1.9c1-3.1,2-6.2,2.9-9.2c1.4-4.4,3-8.7,5-12.8c1.3-2.6,2.6-5.3,4-8c0.1,0,0.5-0.1,0.9-0.2
		c0.5-1.3,0.9-2.6,1.3-3.9c4.1-11.6,8.1-23.2,13.1-34.5c0.4-0.9,0.6-1.8,0.9-2.7c0.1-0.4,0.2-1.1,0.5-1.2c0.8-0.4,0.7-1.1,0.7-1.7
		c0.1-2.4,0-4.9,0.2-7.3c0.3-3.8,0.8-7.6,1.3-11.3c0.3-2.2,0.1-4.6,1.6-6.5c0.1-0.2,0.1-0.4,0.2-0.7c0.3-0.9,0.5-1.9,0.9-2.8
		c3.6-9.2,7.1-18.4,10.8-27.6c1.3-3.4,2.5-6.8,3.2-10.4c0.8-3.9,1.6-7.8,2.5-11.7c1.6-7.2,3.4-14.3,6.1-21.3
		c0.2-0.4,0.4-0.8,0.6-1.2c0.3-0.5,0.8-0.9,1.1-1.4c0.5-0.6,0.9-1.3,1.4-1.9c2-2,4-3.9,6-5.8c0.3-0.3,0.6-0.7,1.1-1.3
		c-0.6,0-0.9,0-1.2,0c0.1,0.1,0.2,0.1,0.3,0.2c0.6-0.7,1.1-1.4,1.7-2.1c0.6-0.8,1.3-1.5,1.8-2.2c5.1-7.2,9.2-14.9,12-23.2
		c4.1-12,6.6-24.4,7.8-37c0.1-1,0.2-1.9,0.2-2.9C532.9,200.1,532.9,200.1,534.3,199.9z M672,190.8c-0.3-0.5-0.6-1.1-1-1.6
		c-1.3-2-1.3-2.5,0-4.4c0,0,0-0.1,0-0.2c-0.6-0.9-1.3-1.8-1.9-2.7c-1.2-2.1-2.2-4.3-2.7-6.8c-0.1-0.7-0.6-1.4-1.1-1.8
		c-2.7-2-5.4-3.9-8.1-5.8c-0.5-0.4-1.2-0.7-1.9-0.8c-1.4-0.1-2.8,0-4.3,0c-1.4,2-1.4,2-4.3,1.9c-0.7,0-1.5,0-2.2,0
		c-2.7,0.1-5.3,0.3-8,0.2c-2.5-0.1-5-0.5-7.4-0.7c-2.4-0.1-4.7-0.4-6.5-2.3c-0.3,0.2-0.6,0.4-0.8,0.6c-0.9,1.1-2.1,1.5-3.4,1.8
		c-1.7,0.5-2.7-0.4-2.7-2.2c0-0.5,0-1-0.1-1.5c-0.4-1.5-0.1-2.9,0.8-4.2c1.4-2,1.9-4.4,2.3-6.7c0.1-0.6-0.1-1.3-0.3-1.9
		c-0.1-0.2-0.6-0.3-1.2-0.6c0,2.9-1.2,5-2.5,7.2c-1.1,1.9-4.1,4.4-5.6,4.7c-0.4-0.4-0.8-0.9-1.2-1.3c-1.4,0.7-1.5,1-1.1,2
		c0.8,2,0.4,3.2-1.6,4.2c-1.1,0.5-2.3,0.9-3.7,1.4c-0.3,0.3-0.1,1.4-1.4,1.2c0-0.4-0.2-0.8,0-1.1c0.5-1.5,0-2.6-0.9-3.8
		c-0.5-0.6-0.8-1.4-1.1-2.1c-0.2-0.5-0.7-1.1,0-1.7c0.5-0.4,0.9-0.1,1.5,1c0.4,0.7,0.7,1.4,1,2c1.7-0.4,3-1,4.1-2.2
		c0.4-0.4,0.7-0.8,0.8-1.4c0.3-2.3,1.2-2.7,3.2-1.6c0.3,0.1,0.5,0.3,0.7,0.4c0.3,0.1,0.6,0.2,0.8,0c0.8-0.6,1.7-1,2-2.3
		c-0.5-0.1-0.9-0.1-1.2-0.1c-1.6,0-2.9-0.6-4-1.7c-1.1-1.1-1.1-1.5-0.2-2.7c0.4-0.6,1-1.1,0.9-2.2c-1.1,1.1-1.9,2-2.9,2.8
		c-1.1,0.8-1.7,1.7-2.2,2.9c-0.5,1.3-1.1,2.5-2.7,2.7c-1.2,0.2-2,0.1-2.1-0.5c-0.2-0.6,0.4-1.3,1.5-1.6c2-0.5,2.4-2.3,3.3-3.9
		c-1.3-0.2-2.4-0.5-3.1,0.6c-1,1.6-2,3.2-2.7,4.9c-0.7,1.6-1.1,3.3-1.5,5c-0.4,1.8-1.1,3.4-2,5c-0.3,0.5-0.6,1-0.7,1.5
		c-0.4,1.2,0,1.6,1.3,1.8c0.9,0.1,1.8,0.3,2.6,0.7c0.8,0.3,0.9,1,0.4,1.6c-0.2,0.2-0.4,0.4-0.6,0.6c-2.1,1.3-4,3-6.4,3.9
		c-0.5,0.2-1,0.6-1.4,0.9c-1.1,0.9-2.2,1.9-3.4,2.8c-0.6,0.5-1.2,1-1.3,1.9c-0.3,2.6-1.3,5-2.3,7.4c-0.4,1-0.6,2.1-0.7,3.1
		c-0.3,3.5-0.5,7-0.7,10.5c-0.1,1.2-0.4,2.3,0.2,3.5c0.1,0.3,0,0.7,0,1c0,1.4,0.1,2.7,0.1,4c0,0.7,0.2,1.5-0.7,1.8
		c-0.9-0.3-1-1.1-1.1-1.8c-0.2-1.4-0.4-2.8-0.6-4.2c-0.4-3.2-0.7-6.3-0.2-9.5c0.1-0.5,0-1,0-1.5c0.1-3.3,0.5-6.4,1.9-9.4
		c0.8-1.6,1.4-3.3,2.2-5c0.2-0.5,0.5-0.9,0.8-1.3c2.5-3.7,5.8-6.5,9.7-8.7c0.3-0.2,0.5-0.5,0.8-0.8c-0.3-0.2-0.5-0.4-0.7-0.5
		c-1.6-1-1.7-1.4-1.1-3.2c0.2-0.6,0.3-1.2,0.5-1.8c0.2-0.7,0.3-1.3,0.6-1.9c1-2,1.3-4.3,2.7-6.2c0.2-0.2,0.2-0.5,0.3-0.8
		c0.3-0.8,0.6-1.7,1-2.5c0.6-1.2,1.2-2.4,1.9-3.9c-1.4,0.6-2.3,0.2-3.3-0.3c-0.3-0.2-0.7-0.4-1-0.6c-1.4-0.7-2.6-1.5-4.3-0.6
		c-0.4,0.2-1.1,0-1.6-0.1c-0.4-0.1-0.7-0.3-1.1-0.5c-0.5,0.4-0.9,0.8-1.3,1.1c-0.5,0.4-1.3,0.7-1.7,0.2c-0.8-1-2.4-1.3-2.3-2.5
		c-0.6-0.4-1.1-0.7-1.5-1.1c-0.8-0.8-1.8-1.5-3-1.4c-3.4,0.2-6.7-0.8-10-1.4c-1.8-0.3-3.5,0-5.1,0.7c-2,0.8-3.7,2.1-5.6,3.2
		c0.1,0.8,0.3,1.8,0.3,2.8c0,1.1-0.2,2.1-0.2,3.2c-0.1,1.8-0.2,3.5-0.2,5.3c-0.1,3.2-0.2,6.4-0.3,9.5c-0.1,1.9-0.3,3.8-1.3,5.4
		c-0.7,1.2-1,2.4-1.4,3.6c-1.2,4-2.4,8-3.8,12c-0.6,1.9-1.6,3.7-3.3,4.9c-1.5,1-2.3,2.3-3,3.8c-1.8,4.1-3.6,8.3-5.4,12.5
		c0.4,0.1,0.7,0.3,1.1,0.4c3.7,1.3,7.5,2.5,11.2,3.9c2.9,1.1,5.8,1.1,8.7,0.8c1.9-0.2,3.7-0.7,5.5-1c1.8-0.3,3.5-0.6,5.2-0.9
		c1.4,1.5,2.7,3,4.1,4.3c1.1,1,1.8,2.3,2.4,3.6c1.7,3.8,2.9,7.7,5.2,11.3c0.7,1.1,1.2,2.2,1.9,3.2c1,1.5,2.5,1.8,4.2,1.5
		c0.8-0.2,1.5-0.5,2.3-0.6c1-0.2,1.7-0.7,2.2-1.6c0.8-1.2,1.7-2.4,2.8-3.4c1.4-1.4,3.1-2,5.1-1.6c1.2,0.2,2.5,0,3.7-0.1
		c1.2-0.1,2-0.8,2-2.1c0-0.5,0.3-1,0.4-1.5c0-0.4,0.1-0.9-0.1-1.1c-1.5-1.6-1.8-4.1-4.1-5c-0.2-0.1-0.4-0.3-0.5-0.5
		c-0.4-0.6-0.4-1.2,0.1-1.7c0.4-0.5,1-0.5,1.5-0.2c0.7,0.4,1.3,0.8,1.6,1.6c1.1,3,2.7,5.7,5.4,7.6c1,0.7,1.3,0.8,2.3,0.1
		c1.3-0.9,2.5-1.8,3.7-2.7c1.6-1.2,2.4-1.4,4.2-0.3c1,0.7,2.1,1.4,2.9,2.3c0.9,0.9,1.8,1.3,3,1.5c1.1,0.2,1.9-0.1,2.5-1
		c1.5-2.4,3-4.8,4.5-7.2c0.6-0.9,1.1-1.8,1.8-2.7c2.4-3.2,4.9-6.3,8-8.8c0.5-0.4,0.9-0.6,1.5-0.5c0.5,0.1,1,0.2,1.5,0.3
		c1.7,0.4,3.1,0,4.3-1.3c0.6-0.6,1.4-1.2,2.1-1.6c2.1-1.3,3.8-3,5.3-5c0.7-0.9,1.4-1.6,2.4-2.1c2-1,4.1-2,5.8-3.5
		c0.9-0.8,1.9-1.4,2.8-2.2C669.4,193.7,671,192.6,672,190.8z M314.5,499.8c0.1,0.3,0.2,0.5,0.3,0.8c1.9,4,3.8,8,5.8,11.9
		c0.1,0.3,0.3,0.6,0.6,0.8c3,2.6,6,5.2,9,7.8c0.9,0.7,1.8,1.4,2.8,2c3.9,2.3,8,4.3,12.2,6c1.5,0.6,2.8,1.4,4.2,2.3
		c1.3,0.9,2.7,1.6,4.2,2.1c3.8,1.1,7.4,2.4,11,4.1c1.4,0.6,2.8,1,4.4,1c-0.3-1.2-0.3-1.2-1.2-1.5c-2.1-0.5-3.8-2-6-2.1
		c-2.1-1.4-4.4-2.6-6.4-4.2c-2.1-1.6-4.1-3.4-6.1-5.1c-1-0.8-1.9-1.6-2.9-2.3c-0.6-0.4-1.1-0.9-1.8-1.2c-1.9-0.8-3.8-1.5-5.6-2.4
		c-3.4-1.6-6.6-3.6-8.9-6.6c-0.3-0.4-0.7-0.7-1.2-1C323.5,508.5,318.5,504.7,314.5,499.8z M265.9,549.3c0.1-0.6,0.2-0.8,0.3-1.1
		c0.3-2.7,0.8-5.4,0.9-8.1c0.2-5.6,0.3-11.2,0.4-16.8c0-0.7-0.1-1.5-0.2-2.2c-0.7-3.5-1.3-6.9-2-10.3c-0.3-1.6-0.6-3.1-0.9-4.7
		c-0.1,2,0.1,4,0.2,5.9c0.3,6.2-0.5,12.2-1.5,18.3c-0.5,2.7-0.8,5.5-1.6,8.2c-0.6,1.7-0.1,2.9,0.5,4.3c0.7,1.6,1.5,3.2,2.4,4.7
		C264.5,548.1,265.2,548.6,265.9,549.3z M380,543.2c2.3,1.1,4.6,2,6.8,3.2c1.4,0.8,2.8,1.4,4.5,1.5c0.6,0,1.3,0.2,1.7,1.2
		c-0.4,0.3-0.8,0.5-1.3,0.9c0.8,0.8,1.6,1.5,2.7,2.5c0-1.9,0-3.3,0-4.9c-0.7-0.2-1.4-0.5-2.1-0.5c-1.2,0-2.2-0.6-3.1-1.3
		c-0.5-0.4-1.1-0.9-1.7-1.1c-2-0.8-4.1-1.5-6.3-2.3C380.9,542.6,380.5,542.9,380,543.2z M607.7,153c0.9,1.7,4,2.9,5.2,2.9
		c0.4,0,0.9-0.3,1.1-0.6c0.5-0.8,0.9-1.8,1.3-2.6C613.2,150.5,610.4,150.6,607.7,153z M659.9,142.5c0-0.1,0.1-0.3,0.1-0.4
		c-2-1.1-3.9-2.2-5.9-3.2c-0.6-0.3-1.2-0.2-1.8,0.2c-1.1,0.8-2.3,1.1-3.6,1.3c-0.3,0-0.5,0.3-0.8,0.5c0.3,0.2,0.4,0.4,0.5,0.4
		c3.7,0.4,7.3,0.4,10.9,1.4C659.4,142.6,659.6,142.5,659.9,142.5z M405.7,570.2c-0.3,0.8-0.9,1.5-0.3,2.4c0.5,0.8,0.8,1.7,1.1,2.7
		c0.7,2.1,1.3,4.2,2.1,6.3c0.7,2,1.1,2.1,3.6,1.5c-1.7-1.4-2.4-3.4-3.2-5.2C407.9,575.3,406.8,572.7,405.7,570.2z M650,153.8
		c-0.3-0.4-0.5-0.7-0.8-1c-0.5-0.4-1.1-0.8-1.6-1.2c-1.3-1.4-2.8-1.1-4.5-0.5c0.4,1,0.8,1.6,1.9,1.8c0.8,0.1,1.5,0.4,2.2,0.7
		C648.1,154,649,154.3,650,153.8z M665.6,149.4c1,0.5,2,0.9,3,1.4c1.1,0.5,2.1,1.1,3.2,1.5c1,0.4,1.8,1.3,3.1,1
		C673.3,151,667.9,148.4,665.6,149.4z M696.8,180.8c1.7,3,4,3.9,5.9,2.5c-1.5-1-3.1-1.6-4.6-2.4
		C697.8,180.7,697.4,180.8,696.8,180.8z M660,133.9c-0.1,0.1-0.1,0.3-0.2,0.4c0.9,0.6,1.9,1.1,2.9,1.5c1,0.4,1.8,1.3,3.1,1.1
		c0.1-1.3-0.7-1.8-1.6-2.1c-1.1-0.4-2.3-0.7-3.4-0.9C660.5,133.8,660.2,133.8,660,133.9z M306.7,44.9c1.3,1.2,2.3,2.1,3.4,3.2
		c0.1-1.4,0.7-2.6,0.3-4.1C309.3,44.3,308.2,44.6,306.7,44.9z M643.4,122.9c0.1,0.3,0.1,0.5,0.2,0.5c1.2,1,2.6,0.5,3.9,0.3
		c0.2,0,0.4-0.7,0.4-1.1c0-0.5-0.4-0.9-0.9-0.8C645.7,122,644.5,122.1,643.4,122.9z M608.7,149.1c1.5,0.2,2.6,0.5,3.8,0.5
		c1.2,0,2.3,1,3.5,0.2c-0.6-1-0.6-1.1-1.2-1.1C612.9,148.5,610.9,148.2,608.7,149.1z M693.9,189c0,0.3-0.1,0.4-0.1,0.5
		c0,0.2,0.1,0.3,0.2,0.5c1.1,1.3,2.8,1.1,4.2,1.6c0.1,0,0.5-0.4,0.5-0.5c-0.1-0.3-0.3-0.7-0.5-0.7
		C696.8,189.8,695.4,189.4,693.9,189z M684.7,187.8c-0.1,0.2-0.2,0.3-0.2,0.5c1.1,1,2.2,2,3.7,2.5c0.3,0.1,0.8,0,1-0.3
		c0.4-0.5-0.1-0.8-0.5-1c-0.9-0.4-1.7-0.8-2.6-1.2C685.6,188,685.2,187.9,684.7,187.8z M627.4,130c0.5,1.1,1.6,1.4,2.4,1.8
		c0.5,0.2,1-0.1,1.1-0.7C629.8,129.5,629.2,129.3,627.4,130z M621,154.6c-1.3,1.3-1.3,2.4,0.1,3.5C622,157.2,622,155.7,621,154.6z
		 M407.8,430.1c0,0,0.1,0,0.1,0.1c0.2-3.8,0.3-7.6,0.5-11.4c-0.1,0-0.2,0-0.2,0C408,422.6,407.9,426.4,407.8,430.1z M621.8,131.4
		c-1.3-1.3-2.6-1.4-3.7-0.3C619.2,131.6,620.4,131.8,621.8,131.4z M602.1,145.2c1,0.2,1.9,0.2,2.5-0.7
		C603.7,143.6,603.6,143.6,602.1,145.2z M605.5,150.8c0.9-0.7,1.4-1.1,2.1-1.6c-1-0.3-1.7-0.3-2.2,0.5
		C605.3,149.8,605.4,150.2,605.5,150.8z M661.9,125.3c0.3,0.5,0.6,0.8,1.2,0.5c0.1-0.1,0.2-0.3,0.1-0.4
		C662.9,124.8,662.4,124.7,661.9,125.3z M612.9,146.3c-0.6-0.2-0.9-0.3-1.5-0.4C611.7,146.9,612.1,146.9,612.9,146.3z M622.7,148.4
		c-0.2-0.2-0.3-0.4-0.4-0.4c-0.2,0-0.4,0.1-0.6,0.2c0.1,0.2,0.2,0.4,0.3,0.4C622.2,148.7,622.4,148.5,622.7,148.4z M619.3,115.8
		c-0.1-0.1-0.2-0.2-0.3-0.3c-0.2,0.2-0.3,0.4-0.5,0.6c0.1,0.1,0.1,0.1,0.2,0.2C618.9,116.1,619.1,116,619.3,115.8z"/>
	<path d="M364.2,479c0.3,0.2,0.8,0.3,1,0.6c0.9,1.4,1.7,2.8,2.4,4.3c0.4,0.8,0.3,1.7-0.2,2.4c-0.6,1-1.2,2-1.8,2.9
		c-1.5,2.3-3,4.5-4.6,6.7c-2.2,3-3.6,6.4-4.6,10c-0.3,1.2-0.9,2.3-1.3,3.5c-0.2,0.5-0.3,1-0.4,1.5c-0.2,0.9-0.3,1.8-0.9,2.7
		c-0.7,1-0.5,3.5,0.3,4.3c0.2,0.2,0.5,0.4,0.7,0.4c1.1,0,2.3,0.1,3.4,0c0.4-0.1,0.9-0.7,1.1-1.2c0.7-1.8,1.3-3.7,2-5.6
		c0.4-1.2,0.9-2.3,1.5-3.4c2.2-3.6,4.4-7.1,6.7-10.7c0.5-0.8,0.9-1.6,1.4-2.4c-0.2-1-1.6-1.7-1.1-3.1c1.2,0.3,1.2,1.6,2,2.2
		c1.1-0.6,2.2-1.2,3.8-2c1.4-2,2.4-4.8,3.3-7.6c-1.4-1.4-2.6-2.8-3.2-4.6c-1.3-3.5-1-7-0.1-10.6c0.2-1,0.6-2,1.1-3.3
		c0.3,0.5,0.6,0.8,0.6,1c0,0.6-0.1,1.2-0.3,1.8c-0.6,2.4-0.9,4.8-0.7,7.2c0.2,2.5,1.1,4.6,3.3,6l0,0c0.6,1.5,0.6,2.9,0.1,4.4
		c-0.8,2.3-1.8,4.5-3,6.6c-0.4,0.7-0.9,1.3-2,1.3c-1.1,0-2,1-2.3,2c-0.6,1.9-1.4,3.9-1.1,6c0.1,0.5,0.3,1,0.6,1.7
		c1.3-1.1,2.8-1.4,4-2.4c1-0.8,2.5-1,3.8-1.2c1.1-0.2,2.3-0.2,3-1.2c0.1-0.1,0.3-0.2,0.4-0.2c1.5,0,2-1,2.5-2.1
		c1.4-3.3,3.4-6.2,6-8.8c1.7-1.7,2.8-3.8,2.9-6.3c0-2.2,0.4-4.4,1.3-6.5c0.2-0.5,0.5-0.9,0.7-1.4c0.1,0.1,0.3,0.1,0.4,0.2
		c-0.1,0.5-0.2,0.9-0.4,1.4c-0.7,2-1.1,4.2-1.2,6.3c0,0.8,0.1,1.7,0.3,2.5c0.2,0.8,0.2,1.5-0.2,2.1c-0.7,1.2-1.4,2.3-2.8,3.1
		c-1.1,0.6-1.8,1.9-2.5,2.9c-0.8,1.2-1.3,2.5-2,3.7c-0.6,1-1.1,2.1-1.8,3.1c-0.3,0.5-0.6,1-1.3,0.9c-0.1,0-0.3,0-0.3,0
		c-1.2,1.4-3,1.1-4.5,1.7c-0.7,0.3-1.5,0.6-2.3,0.9c0.7,1.3,0.7,2.5,0.4,3.8c-0.6,3.4-1,6.7-1.7,10.1c-0.5,2.3-0.1,4.6,0.2,6.9
		c0,0.3,0.2,0.7,0.3,1c0.1,0.8-0.3,1.1-1.1,1.1c-0.2,0-0.4-0.1-0.6-0.1c-0.2,0-0.4,0-0.8,0.1c-0.3-0.7-0.6-1.3-0.8-2
		c-0.5-1.6-1-3.1-1.4-4.7c-0.7-2.6-1.3-5.1-1.9-7.7c-0.2-1-0.2-2.1-0.2-3.2c0-1.2,0-2.3-0.6-3.4c-0.4-0.7-0.3-1.7-0.5-2.9
		c-0.4,0.6-0.7,1-1,1.5c-1.3,1.9-2.5,3.9-3.9,5.8c-1.3,1.8-1.6,3.8-2.4,5.8c-0.5,1.2-0.9,2.4-1.4,3.6c-0.4,1-1.1,1.6-2.2,1.6
		c-1.1,0-2.2,0.2-3.2,0.1c-1.5-0.1-2.5-0.9-3-2.4c-0.1-0.3,0-0.7,0-1.1c0-0.4,0.1-0.9,0.1-1.3c0-0.5,0.1-0.9,0.4-1.4
		c0.4-0.6,0.6-1.3,0.8-2c1-4,2.2-7.9,3.8-11.6c0.8-1.9,2-3.5,3.1-5.3c1.7-2.7,3.6-5.4,5.3-8.1c0.4-0.6,0.7-1.2,1-1.7
		c-0.7-1.4-1.4-2.8-2-4.2C364.2,480.2,364.3,479.6,364.2,479L364.2,479z M374.5,521.7c0.5-1.1,0.7-2.2,0.5-3.3
		c-0.1-0.8-0.3-1.7-0.1-2.5c0.5-3.5,1.1-6.9,1.6-10.4c0.1-0.6,0.3-1.3,0-2c-1.6,0.6-2.9,1.9-4.8,1.7c-0.6,3.8,0.4,7.2,1.2,10.8
		c0,0.1,0.1,0.1,0.1,0.2c0.3,0.9,0.6,1.7,0.8,2.6C374.1,519.7,374.3,520.7,374.5,521.7z"/>
	<path d="M268.6,367.9c-0.4-1.5-0.8-3-1.2-4.5c-1.7-5.6-2.6-11.4-3.3-17.1c-0.1-0.9-0.4-2,0.5-2.8c0.8,0,1,0.6,1.2,1.1
		c2.3,7,4.3,14.1,3.5,21.6c-0.1,0.6-0.2,1.2-0.3,1.7C268.8,367.9,268.7,367.9,268.6,367.9z"/>
	<path d="M393.5,567.7c-0.6,0.7-1.1,0.5-1.6,0.2c-0.6-0.4-1.1-0.8-1.6-1.3c-1.7-1.7-3.3-3.4-4.9-5.2c-0.6-0.7-1.2-1-2-1.1
		c-1.3-0.2-2.6-0.5-3.8-0.8c-0.5-0.1-0.9-0.4-1.4-0.6c0.5-0.9,1.3-0.8,1.9-0.7c1.6,0.2,3.3,0.4,4.9,0.6c0.5,0.1,1,0.3,1.3,0.6
		c2,2,3.9,4,5.8,6C392.8,566.1,393.4,566.7,393.5,567.7z"/>
	<path d="M293.2,275.4c-0.8-1.3-0.5-2.6-0.1-3.8c1-3.1,2.7-5.8,4.6-8.4c0.1-0.2,0.3-0.3,0.5-0.4c0.1-0.1,0.2,0,0.3,0
		c0.5,0.3,0.5,0.8,0.4,1.3c-0.2,0.6-0.3,1.2-0.6,1.8c-1,2.3-1.9,4.6-3,6.8C294.9,273.7,294.4,274.8,293.2,275.4z"/>
	<path d="M372,561.1c0.4,0,0.9-0.1,1.3,0c1.7,0.3,3.3,0.6,5,0.9c1,0.1,1.7,0.5,2,1.5c0.2,0.5,0.7,1,1.2,1.4c0.8,0.7,1.8,1.2,2.7,1.8
		c0.7,0.5,1.3,1.1,1.3,2.1c-0.9,0.3-1.7,0.2-2.4-0.3c-1.7-1.2-3.6-2.2-4.7-4.1c-0.2-0.3-0.8-0.5-1.3-0.6c-1.4-0.4-2.8-0.8-4.2-1.3
		C372.5,562.3,371.9,562,372,561.1z"/>
	<path d="M291.8,532.1c2,1.9,4,3.8,5.9,5.6c-0.7,0.9-1.2,1.1-2.3,0.8C292.6,537.8,291.1,535.3,291.8,532.1z"/>
	<path d="M250.6,278.5c1.9,2.5,2.1,5.3,2,8.2c0,1.2,0.1,2.6-1.1,3.6c-0.2-0.2-0.4-0.4-0.5-0.6c-0.2-3.4-0.5-6.8-0.7-10.2
		C250.4,279.2,250.5,278.8,250.6,278.5z"/>
	<path d="M285.7,319.5c0.2,0.2,0.5,0.3,0.7,0.5c1.4,1.6,2.2,3.5,2.6,5.6c0.1,0.3,0,0.7,0,1c0,0.5-0.1,1.1-0.8,1.1
		c-0.6,0-0.6-0.5-0.8-0.9c-0.4-1.4-0.9-2.8-1.3-4.2c-0.3-0.9-0.5-1.9-0.8-2.9C285.5,319.6,285.6,319.5,285.7,319.5z"/>
	<path d="M282.6,316c-0.1,0.2-0.2,0.7-0.4,0.8c-0.4,0.1-0.9,0-1.2-0.2c-1.1-0.7-1.7-3.1-1.3-4.3c0.4-0.9,1-1.1,1.6-0.3
		C282.2,313.1,282.3,314.4,282.6,316z"/>
	<path d="M270,395.8c1.2,1.2,1.4,4.3,0.4,6.6c-1-0.8-1.7-2.5-1.6-4.3C268.8,397.1,269,396.2,270,395.8z"/>
	<path d="M393.9,458.9c-0.6-0.3-1.1-0.7-1.7-1c-1.2-0.6-2.4-1-3.5-1.6c-0.3-0.1-0.6-0.6-0.6-0.8c0-0.3,0.4-0.6,0.8-0.7
		c0.4-0.1,0.8-0.1,1.2,0C391.6,455.1,393.5,456.9,393.9,458.9z"/>
	<path d="M655.7,94.2c-1.6-0.8-3-1.6-4.5-2.4c0.5-1.3,1.5-1.6,3-1C655.6,91.4,656.3,92.8,655.7,94.2z"/>
	<path d="M270.4,384.2c0.6,2.2,0.5,4.3-0.2,6.3C268.2,389.2,268.2,386.3,270.4,384.2z"/>
	<path d="M379.4,479c0.3-1.3,0.4-2.6,0.9-3.9c0.5-1.4,1.4-1.6,2.9-0.9c-0.6,0.9-1.2,1.7-1.7,2.6c-0.5,0.8-0.7,1.9-1.6,2.4
		C379.7,479.1,379.5,479.1,379.4,479z"/>
	<path d="M285.7,286.2c-0.9-0.7-0.4-1.5,0-2.2c0.7-1.2,1.5-2.4,3.1-2.4C288.8,283.2,287.2,285.6,285.7,286.2z"/>
	<path d="M369.3,468.6c1,2,0.1,4.3,1.5,6.2c-0.7,0.7-1.1,0.8-1.6,0.1c-0.2-0.4-0.4-0.8-0.5-1.2C368.4,471.9,368.4,470.2,369.3,468.6
		z"/>
	<path d="M269.8,377.8c-1.5-1.8-1.4-3.9-1.4-6c1-0.2,1.3,0.4,1.5,1C270.4,374.5,270.5,376.1,269.8,377.8z"/>
	<path d="M249.6,263.3c-0.2,0.7-0.3,1.2-0.5,1.6c-0.2,0.4-0.5,0.9-0.9,0.9c-0.3,0-0.8-0.4-1.1-0.7c-0.6-0.7-0.5-1.6,0-2.4
		c0.4-0.5,0.9-1,1.6-0.7C249.2,262.3,249.4,262.9,249.6,263.3z"/>
	<path d="M289.9,522.3c1.4,1.2,1.7,2.8,2,4.4c0.2,0.6,0.3,1.3-0.5,1.9c-0.2-0.2-0.6-0.4-0.6-0.6
		C290.4,526.1,289.7,524.3,289.9,522.3z"/>
	<path d="M288.4,516.3c1.6,1,2.2,3.3,1.5,5c-1.2-0.5-1.3-1.6-1.7-2.5C287.9,518,287.6,517.2,288.4,516.3z"/>
	<path d="M290.9,280.6c-1.1-1.4-0.7-3.5,0.9-4.3C292.5,277.7,292.1,279.6,290.9,280.6z"/>
	<path d="M250.3,272.7c-1.2-1.2-1.3-2.5-0.1-3.8c0.8,0.2,1,0.8,1,1.5C251.2,271.3,251.4,272.2,250.3,272.7z"/>
	<path d="M418.3,322.6c1.4,1.5,1.6,3.1,1.7,4.9C418.5,326.8,417.7,324.5,418.3,322.6z"/>
	<path d="M287.8,510.8c-1.2-1.4-1.3-2.8-0.4-4.9C288.3,507.5,288.3,509,287.8,510.8z"/>
	<path d="M247.1,250.9c0.7,0.9,0.7,1.6,0,3.5C245.8,253.1,245.8,251.8,247.1,250.9z"/>
	<path d="M282,289c0.4-1.8,1.2-2.5,2.7-2.6C284.7,287.7,283.6,288.7,282,289z"/>
	<path d="M376.4,458.3c-0.3,1.3-0.6,2.4-0.9,3.6c-0.8-0.7-1.1-1.5-0.8-2.5C375,458.6,375.6,458.3,376.4,458.3z"/>
	<path d="M395.2,464c1.2,0.9,1.4,1.5,1.3,3.2C395.3,466.5,394.7,465.2,395.2,464z"/>
	<path d="M336,560.1c1.4,0.2,2.8,0.5,4.2,0.7c0.1,0,0.2,0.2,0.4,0.3C339.2,561.7,337.7,561.5,336,560.1z"/>
	<path d="M270.1,406.5c0.8,1.2,0.4,2.2-0.1,3.3C268.8,408.6,268.8,407.7,270.1,406.5z"/>
	<path d="M328.7,558.5c-1.6,0.3-2.7,0.2-3.7-0.8C326.1,557.2,326.8,557.3,328.7,558.5z"/>
	<path d="M374.9,466.7c-0.7-1.1-0.7-2.1,0-3.5C375.6,464.5,375.6,465.6,374.9,466.7z"/>
	<path d="M284.9,496.6c1.2,0.8,1,2,0.9,3.4C284.8,498.8,284.6,497.8,284.9,496.6z"/>
	<path d="M421.5,330.9c0.9,0.8,0.9,0.8,1,2.2C421.3,332.5,421.1,332.1,421.5,330.9z"/>
	<path d="M277.2,304.5c-0.5-1-1.1-2-0.6-3.3c0.3,1.1,0.7,2.2,1,3.2C277.5,304.4,277.3,304.5,277.2,304.5z"/>
	<path d="M379.5,482.1c-0.2-1.1,0.6-1.6,1.6-2.1C380.9,481.2,380.6,481.9,379.5,482.1L379.5,482.1z"/>
	<path d="M281.3,485.4c-0.1-0.6-0.3-1.2-0.5-2c0.9,0.8,0.9,0.8,0.9,1.9C281.5,485.3,281.4,485.4,281.3,485.4z"/>
	<path d="M380.1,453.9c0.5,0.6,0.1,1.2,0,1.9C379.5,454.9,379.5,454.9,380.1,453.9z"/>
	<path d="M562.4,142.9c-0.1,0.1-0.2,0.1-0.1,0.1C562.2,143,562.3,143,562.4,142.9L562.4,142.9z"/>
	<path d="M343.8,118.3c-0.1-1.3-0.2-2.6-0.2-3.8c0-0.8,0.5-1,1.3-0.9c0.3,0.1,0.6,0.3,1,0.5c-0.4,2.5,0.4,4.8,1.1,7.1
		c2.3,7.8,5.5,15.2,8.8,22.7c2.2,5.1,4.4,10.3,6,15.7c1,3.6,1.6,7.2,1.7,10.9c0,0.8-0.1,1.6-0.2,2.4c-0.1,0-0.2,0-0.4,0
		c-0.1-0.7-0.2-1.4-0.3-2.1c-0.8-6.2-2.6-12.2-4.8-18c-2.4-6.1-4.8-12.2-7.1-18.4c-1.7-4.7-3.3-9.4-4.8-14.2
		c-0.5-1.5-0.6-3.2-0.9-4.8c-0.1-0.4-0.2-0.8-0.5-1.2C343.3,115.5,343.9,117,343.8,118.3L343.8,118.3z"/>
	<path d="M382,190.8c-0.3-0.7-0.6-1.4-0.8-2.2c-2.1-7.7-4-15.5-6.4-23.1c-1.5-4.7-3.6-9.3-5.5-13.9c-1-2.4-2.1-4.8-3.2-7.1
		c-0.1-0.2-0.1-0.5-0.2-0.8c0.8-0.3,0.9,0.2,1.1,0.6c1.5,3.2,3,6.4,4.6,9.5c5.1,10.2,8.1,21,10.5,32.1c0.2,0.9,0.4,1.9,0.5,2.9
		c0.1,0.7,0,1.3,0,2C382.4,190.7,382.2,190.7,382,190.8z"/>
	<path d="M436,150.2c1,0.7,2,1.3,2.9,2c4.2,2.9,8.1,6.2,11.8,9.8c1.3,1.3,2.6,2.5,4,3.7c1.3,1.1,2.7,2.2,4.1,3.4
		c-0.3,0.1-0.6,0.4-0.8,0.3c-0.5-0.1-1-0.4-1.4-0.7c-1.9-1.6-3.9-3.1-5.8-4.8c-4.9-4.3-9.8-8.7-14.9-13.3c-1.3,3.4-1.4,6.9-1.9,10.4
		c-1.2-4.6,2.3-18.1,5.3-20.4c0.4,0.6,0,1.1-0.2,1.6c-0.8,2.1-1.7,4.1-2.5,6.2C436.3,148.9,436.2,149.5,436,150.2z"/>
	<path d="M377.8,108.9c0.6,0.4,1.2,0.7,1.8,1.1c9.8,6.2,19.6,12.3,29.3,18.5c1.7,1.1,3.3,2.4,5,3.6c-0.2,0.2-0.2,0.2-0.3,0.2
		c0,0-0.1,0-0.2,0c-8.9-5.5-17.8-11-26.7-16.6c-3.2-2-6.1-4.3-9.2-6.5C377.7,109,377.8,108.9,377.8,108.9z"/>
	<path d="M479.5,112.3c0.8,0.1,1.1,0.8,1.3,1.4c0.4,1.2,0.9,2.3,1.2,3.5c1.1,3.6,2.6,7,4.4,10.3c0.7,1.3,1.6,2.4,2.5,3.8
		c-1.1-0.1-1.8-0.7-2.4-1.3c-1.4-1.4-2.5-2.9-3.4-4.7c-1.8-3.6-3-7.4-4-11.3C479,113.4,478.8,112.7,479.5,112.3z"/>
	<path d="M362.1,101c-10.3-5.3-19.9-11.8-30.2-17c0.1-0.1,0.1-0.2,0.2-0.4c0.5,0.2,1,0.3,1.5,0.6c3.8,2,7.7,3.8,11.4,6
		c5.4,3.1,10.6,6.4,15.9,9.6c0.5,0.3,0.9,0.7,1.4,1C362.3,100.8,362.2,100.9,362.1,101z"/>
	<path d="M343.8,118.3c0.2,1.7,0.4,3.4,0.6,5c0.5,6.8,1,13.6,1.5,20.4c0.3,4,0.6,8,0.8,12c0,0.5,0,0.9-0.2,1.4
		c-0.7-0.6-0.6-1.3-0.7-2c-0.5-8.5-1-17-1.5-25.5c-0.1-2.4-0.4-4.7-0.5-7.1C343.8,121.1,343.8,119.7,343.8,118.3L343.8,118.3z"/>
	<path d="M545,177.5c-0.1-0.3-0.3-0.4-0.2-0.4c1.3-2.7,1.2-5.6,1.5-8.5c0.4-4.5,0.5-8.9,0.8-13.4c0.1-1.7,0.2-3.4,0.3-5.1
		c0-0.4,0.1-0.8,0.5-1.3c0.1,0.4,0.2,0.8,0.2,1.2c-0.2,5.4-0.4,10.9-0.8,16.3c-0.2,2.6-0.5,5.2-0.8,7.8c-0.1,0.9-0.4,1.8-0.7,2.6
		C545.6,177.1,545.3,177.3,545,177.5z"/>
	<path d="M540.6,146.9c0.4,0.6,0.9,1.1,1.2,1.7c1.6,3.1,2.4,6.4,2.9,9.7c0.7,4.2,0.4,8.5-0.1,12.7c0-1.7,0-3.5,0-5.2
		c0-4-0.4-7.9-1.6-11.8c-0.6-1.9-1.4-3.8-2.2-5.7c-0.2-0.4-0.4-0.8-0.6-1.2C540.4,147.1,540.5,147,540.6,146.9z"/>
	<path d="M368.8,108.8c0-4.3,0.8-8.5,1.8-12.7c0.1-0.3,0.4-0.5,0.7-0.8c0.2,0.3,0.4,0.5,0.4,0.7c0,0.4,0,0.8-0.1,1.2
		C370.7,101,369.7,104.9,368.8,108.8z"/>
	<path d="M424.3,144.8c1-4.7,2.1-9.3,3.1-14.1c0.8,0.5,0.7,1.2,0.6,1.8c-0.3,1.4-0.5,2.9-0.9,4.3c-0.8,2.7-1.6,5.4-2.4,8.1
		C424.6,144.9,424.5,144.9,424.3,144.8z"/>
	<path d="M537.9,174.4c1.4,3.1,1.9,6.4,1.7,9.9c0,0.5-0.1,0.5-0.8,1.3c-0.7-1.2-0.2-2.4-0.4-3.6c-0.2-1.3-0.4-2.6-0.5-3.9
		c-0.2-1.2-0.3-2.4-0.5-3.7C537.6,174.4,537.8,174.4,537.9,174.4z"/>
	<path d="M495.2,133.7c-2.4-0.9-3.2-3-4.1-5.1c-0.3-0.7-0.8-1.4,0-2.3c0.3,0.3,0.7,0.5,0.8,0.8C493,129.2,494.1,131.5,495.2,133.7z"
		/>
	<path d="M454.7,99.6c1.7,1.4,6,6.6,6.5,7.8C459.7,106.8,456.2,102.6,454.7,99.6z"/>
	<path d="M500.3,135.8c-1.5-0.9-2.5-2.2-3.6-3.6c0.5-0.5,1-0.3,1.3,0.1c0.9,1.1,1.7,2.2,2.5,3.3
		C500.5,135.6,500.4,135.7,500.3,135.8z"/>
	<path d="M372.5,105.6c-0.1-1.7,0-3.4,0.9-4.8c0.1,0,0.3,0.1,0.4,0.1C373.4,102.4,372.9,104,372.5,105.6z"/>
	<path d="M504,138.2c-0.4-0.8-0.7-1.4-1.2-2.3C504.1,136.6,504.1,136.6,504,138.2z"/>
	<path d="M428.2,144.4c0.1,0.2,0.3,0.5,0.4,0.7c0.1,0.2,0,0.4-0.1,0.7c-0.2-0.2-0.4-0.3-0.4-0.5c-0.1-0.3-0.1-0.5-0.2-0.8
		C428,144.5,428.1,144.4,428.2,144.4z"/>
	<path d="M376.8,108.3C376.8,108.3,376.8,108.3,376.8,108.3c0,0.1-0.1,0-0.1,0C376.7,108.3,376.8,108.3,376.8,108.3z"/>
	<path d="M241.9,104.8c0.2,0.2,0.5,0.5,0.6,0.7c1.7,4,4.2,7.5,6.8,11c5.3,7.1,11.6,13.3,18,19.5c0.1,0.1,0.3,0.2,0.6,0.3
		c1.9-10.7,3.8-21.4,5.8-32.2c-0.1-0.1-0.3-0.4-0.6-0.7c-4.1-4.4-8.3-8.8-12.4-13.1c-0.5-0.5-0.8-1.1-1.4-1.9
		c1.1-0.2,1.7,0.4,2.2,0.9c1.4,1.5,2.8,3,4.2,4.4c2.3,2.4,4.5,4.8,6.8,7.2c0.5,0.5,0.9,1.1,1.6,2c0.3-1.2,0.6-1.9,0.8-2.8
		c1,0.6,0.9,1.4,0.7,2c-0.4,1.5,0.3,2.4,1.3,3.3c7.6,6.6,15.8,12.2,24.9,16.4c0.4,0.2,0.7,0.3,1.1,0.4c0.2,0.1,0.3,0.1,0.8,0.2
		c-0.4-0.5-0.7-0.8-0.9-1.1c-6-6.6-12.7-12.5-19.4-18.3c-1.7-1.5-3.4-3-5-4.6c-0.6-0.6-1.2-1.2-1.5-2.1c0.2,0.1,0.4,0.1,0.5,0.3
		c5.1,4.2,10.3,8.3,15.2,12.6c4.2,3.7,8,7.9,12,11.9c0.8,0.8,1.6,1.6,2.4,2.4c0.2,0.2,0.4,0.7,0.3,0.9c-0.2,0.3-0.6,0.6-0.9,0.6
		c-0.7,0-1.3-0.2-2-0.4c-3.7-1.2-7.2-3-10.6-5c-5.5-3.3-10.8-6.9-15.6-11.2c-1-0.9-1.9-1.8-3-2.8c-0.2,0.6-0.4,1.1-0.5,1.5
		c-1.1,6-2.2,12-3.4,18.1c-0.7,3.4-1.6,6.9-2.4,10.3c-0.1,0.5-0.3,1.1-0.3,1.5c1.9,2,3.7,3.8,5.5,5.6c5.1,5.1,10.4,10.2,15.4,15.4
		c2.5,2.6,4.7,5.4,7,8.1c0.4,0.4,0.7,1,1,1.4c-0.1,0.1-0.2,0.2-0.3,0.2c-4.7-4.9-9.4-9.8-14.3-14.7c-4.8-4.8-9.7-9.5-14.7-14.4
		c-0.2,0.3-0.4,0.5-0.6,0.8c-0.1-0.1-0.1-0.2-0.1-0.2c0.2-1-0.3-1.7-1-2.4c-4.3-4.3-8.7-8.5-12.6-13.2c-3.5-4.4-7-8.8-9.7-13.7
		C243.2,108.4,242.7,106.5,241.9,104.8L241.9,104.8z"/>
	<path d="M253.2,178.6c-1.7,8.4-2.5,16.5-3.7,24.5c0-1.8-0.2-3.6,0-5.3c0.5-4.6,1.1-9.2,1.7-13.8c0.2-1.6,0.4-3.3,0.7-4.9
		c0.2-1.4-0.1-2.5-0.9-3.7c-4.3-6.3-8.4-12.8-12-19.5c-3.4-6.1-6.1-12.5-8.8-19c-2.7-6.5-5.1-13-7-19.7c-0.4-1.3-0.9-2.7-1.4-4.3
		c0.9,0.5,1.1,1.1,1.3,1.7c0.5,1.6,1,3.1,1.5,4.7c3.3,10.3,7.3,20.4,12,30.2c3.4,7,7.5,13.6,11.8,20.1c6.1,9.3,12.8,18.1,20,26.7
		c5.5,6.6,11,13.1,16.4,19.8c2.2,2.7,4.2,5.6,6.2,8.5c0.5,0.8,0.8,1.7,1.1,2.6c0.1,0.3-0.2,0.9-0.4,0.9c-0.5,0.2-0.7-0.2-0.9-0.7
		c-0.2-0.7-0.4-1.4-0.8-2c-2.3-3.8-5.3-7.2-8.3-10.6c-8.8-10.2-17.3-20.6-25.3-31.4C255.6,181.9,254.5,180.4,253.2,178.6z"/>
	<path d="M233.7,95.9c0.3,0.8,0.6,1.3,0.8,1.9c2.4,5.9,4.9,11.8,8.1,17.2c3.1,5.1,6.3,10.2,9.7,15.2c9.2,13.8,19.6,26.7,30.3,39.3
		c4.9,5.8,10.3,11.2,15.4,16.8c0.5,0.5,0.8,1.1,1.2,1.6c0.1-0.1,0.2-0.2,0.4-0.3c0-0.2,0.1-0.5,0.1-0.7c1.9,1.7,2.1,2,1.9,3.3
		c-0.9,0.2-1.4-0.4-1.9-0.9c-2.3-2.2-4.7-4.4-7-6.8c-13.2-13.7-24.9-28.6-36-43.9c-6-8.4-11.6-17.1-16.5-26.2
		c-2.5-4.7-4.7-9.6-6.3-14.7c-0.1-0.4-0.3-0.9-0.4-1.3C233.6,96.4,233.6,96.3,233.7,95.9z"/>
	<path d="M259.3,225.5c-1.1-2-2.2-4-3.3-5.9c-2.3-4.1-4.6-8.1-6.7-12.2c-4.3-8.2-8.6-16.4-12.6-24.7c-7.1-14.9-13.1-30.3-17-46.4
		c-1.8-7.2-3-14.5-4.2-21.9c0-0.3,0-0.7,0.2-1c0.7,3.6,1.4,7.3,2.1,10.9c2.1,10.4,4.6,20.7,8.3,30.7c2.7,7.2,5.7,14.3,8.8,21.4
		c4,9.3,8.8,18.2,13.5,27.1c3.6,6.7,7,13.6,10.5,20.4c0.3,0.5,0.4,1,0.7,1.5C259.5,225.3,259.4,225.4,259.3,225.5z"/>
	<path d="M278.7,55.7c0.5,0.2,1.1,0.4,1.6,0.6c9.1,4.8,17.3,10.8,24.9,17.6c3.9,3.5,7,7.6,9.6,12.1c0.3,0.6,0.5,1.2,0.9,2
		c-1-0.1-1.2-0.6-1.5-1.1c-1.2-1.8-2.3-3.8-3.7-5.5c-1.8-2.2-3.7-4.4-5.9-6.4c-5.4-4.8-10.9-9.6-17-13.6c-2.5-1.6-5-3.1-7.5-4.7
		C279.6,56.5,279.2,56.1,278.7,55.7L278.7,55.7z"/>
	<path d="M315.3,75.5c0.4,0,0.7,0.1,1.3,0.1c-0.4-0.9-0.7-1.7-1-2.4c-3-6.7-7-12.7-11.6-18.3c-0.9-1.1-2.2-2.1-2.7-3.9
		c0.7,0.5,1.3,0.8,1.7,1.3c4.1,4.6,8.2,9.2,11.1,14.7c1.2,2.2,2.3,4.4,3.3,6.7c0.4,0.8,0.5,1.6,0.7,2.4c0,0.4-0.2,1-0.5,1.1
		c-0.3,0.2-0.9,0-1.2-0.2c-0.5-0.3-0.9-0.8-1.3-1.3C315.2,75.8,315.2,75.7,315.3,75.5z"/>
	<path d="M214.4,160.4c0.1,0.3,0.3,0.7,0.3,1c1,7,2.7,13.8,5.4,20.3c0.8,2,0.8,2,0.6,3.6c-0.8-0.5-1.1-1.3-1.4-2.1
		c-2.1-5-3.7-10.2-4.7-15.6c-0.2-1.3-0.5-2.6-0.6-3.9c-0.1-1.1,0-2.2,0-3.3C214.2,160.4,214.3,160.4,214.4,160.4z"/>
	<path d="M320.9,88.8c-1.2-0.2-1.6-1.1-2.1-1.7c-1.8-2.5-3.6-4.9-5.3-7.5c-3.3-4.8-6.7-9.5-10.7-13.8c0.7,0.3,1.3,0.9,1.8,1.5
		c3.7,3.7,6.9,7.8,9.9,12.1c1.1,1.6,2.3,3.3,3.4,4.8c0.5,0.6,1.1,1.1,1.6,1.7c0.5,0.6,1,1.4,1.4,2.1C321.1,88.1,321,88.4,320.9,88.8
		z"/>
	<path d="M273.3,155.5c-0.9-1.1-1.9-2.1-2.7-3.2c-3.5-4.6-7-9.2-10.4-13.9c-1.4-1.9-2.6-3.9-3.9-5.9c0.1-0.1,0.2-0.1,0.3-0.2
		c0.9,1.2,1.7,2.4,2.6,3.5c4.4,5.9,8.7,11.9,13.1,17.8C272.6,154.2,272.9,154.9,273.3,155.5L273.3,155.5z"/>
	<path d="M288.5,63c-4.3,7.6-7.5,15.6-9.8,24C278.4,82.7,285.5,65.1,288.5,63z"/>
	<path d="M248.4,214c0.1,0.4,0.3,0.6,0.2,0.8c-0.5,2.8-1,5.7-1.5,8.5c-0.1,0.3-0.3,0.6-0.6,1.2c-0.2-0.7-0.4-1-0.4-1.3
		c0.5-2.9,1.1-5.9,1.7-8.8C248,214.3,248.1,214.2,248.4,214z"/>
	<path d="M262.1,150.4c-1.7,2.9-3.5,5.3-5.2,8.1C256.8,156.2,260.1,151,262.1,150.4z"/>
	<path d="M273.2,155.5c0.3,0.3,0.6,0.6,1,0.9c-0.1,0.1-0.2,0.1-0.3,0.2C273.7,156.2,273.5,155.9,273.2,155.5L273.2,155.5z"/>
	<path d="M280.8,53.4c0.3,0,0.6,0,0.9,0c0,0,0,0.1,0,0.1C281.4,53.5,281.1,53.5,280.8,53.4C280.8,53.5,280.8,53.5,280.8,53.4z"/>
	<path d="M283.8,54c-0.3,0-0.7-0.1-1-0.1c0-0.1,0-0.2,0.1-0.2C283.2,53.8,283.5,53.9,283.8,54L283.8,54z"/>
	<path d="M286.2,54.7c-0.2,0-0.5-0.1-0.7-0.1c0-0.1,0-0.1,0.1-0.2C285.8,54.5,286,54.6,286.2,54.7L286.2,54.7z"/>
	<path d="M283.8,54.1c0.3,0,0.5,0,0.8,0c0,0.1,0,0.2,0,0.2C284.2,54.2,284,54.1,283.8,54.1L283.8,54.1z"/>
	<polygon points="215.2,112.2 215.2,112.3 215.2,112.3 	"/>
	<polygon points="274.8,157.4 274.8,157.6 274.8,157.5 	"/>
	<path d="M241.9,104.8c-0.1-0.1-0.1-0.2-0.1-0.1C241.9,104.5,241.9,104.7,241.9,104.8L241.9,104.8z"/>
	<path d="M287.7,55.2c-0.1,0-0.1,0-0.2,0c0,0,0,0,0-0.1C287.5,55.2,287.6,55.2,287.7,55.2z"/>
	<path d="M286.2,54.7c0.1,0,0.3,0.1,0.2,0C286.4,54.8,286.3,54.7,286.2,54.7L286.2,54.7z"/>
	<path d="M278.8,55.7c-0.1,0-0.3-0.1-0.1,0C278.5,55.6,278.6,55.6,278.8,55.7L278.8,55.7z"/>
	<path d="M457.6,376.9c0.4,0,0.7-0.1,1-0.1c0.5,0.6,0.4,1.4,0.3,2.1c-0.4,2.6-1.3,5.2-2.4,6.3c-0.4-2.6,0.3-4.9,0.8-7.2
		c-1.1-1.7-1.2-3.7-0.7-5.5c0.2-1.1,0.2-2-0.4-2.9c0,0-0.1-0.1-0.1-0.2c-1.1-3-2.3-5.9-3.2-8.9c-0.3-1-0.2-2.2-0.2-3.4
		c0-0.5,0.3-1,0.6-1.3c0.8-0.7,1.8-0.1,2.1,1.1c0.3,1.4,0.3,2.8,0.8,4.2c0.9,2.7,1.2,5.5,1.6,8.3c0.1,0.4,0.3,0.9,0.4,1.3
		c0.1,0.3,0.2,0.7,0.2,1C458.2,373.4,457.9,375.1,457.6,376.9z"/>
	<path d="M496.7,256.3c0.8,0.4,1.2,1,1.3,1.8c0.3,2.8,0.7,5.5,1,8.3c0.1,0.4,0.1,0.9,0,1.4c-0.1,0.4-0.4,1-0.8,1.2
		c-0.6,0.3-1.1-0.2-1.4-0.7c-0.3-0.5-0.6-1.1-0.8-1.7c-0.8-2.6-1-5.3-0.8-8.1C495.4,257.5,495.8,256.8,496.7,256.3z"/>
	<path d="M444,349.2c-0.8-0.6-1.5-1.2-2.1-1.7c-2.6-2.1-4-5-5.1-8.1c-0.1-0.2-0.1-0.3-0.1-0.5c-0.1-0.9,0.2-1.5,0.8-1.7
		c0.8-0.2,1.2,0.3,1.5,0.9c1.8,3.3,3.5,6.6,5.3,9.9C444.5,348.4,444.6,348.8,444,349.2z"/>
	<path d="M460.6,292.9c-1.3-0.9-1.8-2.1-2-3.3c-0.6-3.1-0.5-6.2,0.1-9.3c0.2-0.8,0.4-1.6,1.4-1.6c0.7,0.4,0.5,1.1,0.5,1.7
		c-0.1,2.9-0.2,5.9-0.2,8.8C460.4,290.4,460.5,291.6,460.6,292.9z"/>
	<path d="M449.7,381.1c-0.1-0.6-0.3-1.1-0.4-1.6c-0.1-3.4,0.3-6.8,1-10.1c0.1-0.3,0.3-0.5,0.6-1c0.2,0.4,0.5,0.7,0.5,1
		c0.1,0.6,0.1,1.1,0,1.7c-0.2,2.8-0.5,5.6-0.7,8.5C450.7,380.1,450.6,380.7,449.7,381.1z"/>
	<path d="M447,404.6c0,2.1-1,3.6-1.3,5.3c-0.3,1.7-0.6,3.4-0.9,5.3C443.2,412.5,444.3,406.7,447,404.6z"/>
	<path d="M416.6,490.4c0,2.2,0.1,4.5,0.1,6.7c0,0.2,0,0.4-0.1,0.5c-0.3,0.3-0.5,0.8-0.9,0.9c-0.6,0.1-0.9-0.4-0.9-1
		c-0.2-2.3-0.1-4.6,0.9-6.8c0.1-0.2,0.3-0.3,0.4-0.5C416.3,490.3,416.5,490.3,416.6,490.4z"/>
	<path d="M465.2,308.1c-1.7-1.3-1.9-3.1-1.9-4.8c0-1,0-2,1.2-2.7c0.2,0.3,0.5,0.5,0.6,0.8C465.4,302.7,465.5,306.8,465.2,308.1z"/>
	<path d="M408.7,536.1c0.8,1,0.9,2,0.8,3c-0.1,0.9-0.4,1.9-0.7,2.8c-0.1,0.3-0.7,0.6-1.1,0.6c-0.2,0-0.6-0.5-0.7-0.8
		C406.8,540.5,407.7,537.2,408.7,536.1z"/>
	<path d="M510,184.9c0.7-0.3,1.1,0.1,1.4,0.5c1.7,2.2,1.9,4.8,1.6,7.5C512,190.2,511.1,187.6,510,184.9z"/>
	<path d="M488.8,230.9c0.9,0,1.2,0.5,1.4,1.1c0.8,1.7,1.6,3.5,1,5.6c-0.3-0.4-0.6-0.7-0.8-1.1c-0.7-1.6-1.3-3.2-1.9-4.9
		C488.4,231.4,488.7,231.1,488.8,230.9z"/>
	<path d="M446.9,401.9c-0.8-2.6,0.3-5.7,2.3-7.2c0.3,1.4-0.5,2.5-0.9,3.7C447.9,399.5,447.9,400.8,446.9,401.9z"/>
	<path d="M450.1,382.7c0,2.6-0.6,5-1.2,7.7C447.8,388.7,448.4,384.8,450.1,382.7z"/>
	<path d="M419,480.8c0.2,2,0.3,3.6-0.4,5.4c-1.2-0.7-0.9-1.8-0.9-2.6C417.6,482.6,417.7,481.6,419,480.8z"/>
	<path d="M393.2,508.2c0.8,1,0.7,2,0.4,3c-0.1,0.3-0.6,0.6-0.8,0.6c-0.3,0-0.7-0.4-0.7-0.7C391.9,509.9,392.1,508.9,393.2,508.2z"/>
	<path d="M492.6,245.3c-0.8-1.7-0.8-3.1-0.1-4.9c0.4,0.5,0.8,0.7,0.8,1C493.4,242.7,493.7,243.9,492.6,245.3z"/>
	<path d="M419.4,472.8c1.3,1.7,1.4,3.7,0.3,5.6C419.7,476.4,418.6,474.8,419.4,472.8z"/>
	<path d="M494.6,253.9c-1.1-1.6-1.1-2.9,0.1-3.9C495.7,251,495.7,252.4,494.6,253.9z"/>
	<path d="M457.4,195.1c0.9,1.7,0.5,3.1,0.3,4.7C456.4,198.6,456.3,196.9,457.4,195.1z"/>
	<path d="M458.2,208c-1.3-1.2-1.4-2.2-0.3-3.4C458.9,205.5,459,206.4,458.2,208z"/>
	<path d="M409.9,530.3c0.4,1.6,0.1,2.7-0.8,3.9C408.4,532.5,408.6,531.4,409.9,530.3z"/>
	<path d="M515.4,198.5c-0.3-0.7-0.7-1.5-1-2.2c-0.1-0.2,0.2-0.6,0.4-0.8c0.1-0.1,0.6,0.1,0.7,0.3c0.5,0.8,0.7,1.6,0.3,2.5
		C515.7,198.4,515.6,198.4,515.4,198.5z"/>
	<path d="M421.3,466.5c0.7,1.3,0.6,2.3-0.1,3.3C420.5,468.7,420.5,467.7,421.3,466.5z"/>
	<path d="M410.4,528.9c-0.8-1.3-0.8-1.9,0-2.9C411.2,527.1,411.2,527.7,410.4,528.9z"/>
	<path d="M411.2,521c1,1.1,0.7,1.9,0.2,2.9C410.5,523,410.7,522.1,411.2,521z"/>
	<path d="M462,296.9c-0.7-1-0.7-1.7-0.1-2.5C462.5,295.3,462.3,295.9,462,296.9z"/>
	<path d="M637.9,190.8c0.7,0.4,1.7,0.9,2.5,1.6c1.6,1.5,3,3.2,4.5,4.8c1.5,1.5,2.4,3.3,2.3,5.5c0,1,0.2,1.7,1.1,2.3
		c1,0.7,1,1.1,0.5,2.2c-0.2,0.4-0.4,0.8-0.6,1.2c-0.2,0.6-0.5,1.2-1.3,1.1c-0.7-0.1-1.6-0.3-1.8-1.1c-0.6-2.7-2.6-4.7-3.3-7.4
		c-0.6-2.2-1.9-4.4-3.8-5.9c-1-0.8-1.1-2.1-1.5-3.2C636.5,191.4,637,191,637.9,190.8z"/>
	<path d="M637.9,203.6c0.6-0.2,0.9-0.5,1.3-0.5c0.4,0,0.9,0,1.2,0.3c0.2,0.1,0,0.7-0.1,1c-0.1,0.3-0.4,0.5-0.7,1
		c0.6,0.5,1.1,1,1.6,1.5c0.2,0.3,0.5,0.9,0.4,1.1c-0.3,0.6-0.9,0.4-1.3,0.1c-0.7-0.5-1.3-1-1.9-1.7c-0.8-0.9-0.9-1-2-0.6
		c-0.6,0.2-1.2,0.5-1.8,0.6c-1,0.1-1.8,0.4-2.4,1.4c-0.4,0.7-1.1,0.6-1.8,0c0.8-1.1,0.7-2.4,0.6-3.6c0-0.5,0.2-1,0.3-1.5
		c1.2-0.3,2.1,1.4,3.2-0.1c-0.2-0.3-0.4-0.6-0.6-0.9c-0.6-0.6-1.2-1.2-1.8-1.8c-0.2-0.2-0.5-0.5-0.6-0.8c0-0.4,0-0.9,0.2-1.2
		c0.3-0.4,0.9-0.2,1.2,0.1c1.1,1.3,2.7,2.1,3.4,3.7C636.9,202.4,637.4,202.9,637.9,203.6z"/>
	<path d="M620,215.8c1.2,0.4,2.3,0.9,3.5,1.3c0.2,0.1,0.3,0.5,0.4,0.8c-0.3,0.1-0.8,0.3-1,0.2c-1.1-0.6-2-0.4-3.1,0.2
		c-1.1,0.6-1.8,1.5-1.9,2.8c-0.1,1.1-0.4,1.5-1.1,1.4c-0.7-0.1-1.1-0.8-0.8-1.7c0.5-1.3,1.1-2.6,1.8-3.8
		C618.3,216.3,619.1,216,620,215.8z"/>
	<path d="M618.1,222.9c1.8,0.4,3.4,1,4.5,2.6c0.3,0.5,0.8,0.8,1.2,1.2c0.4,0.3,0.7,0.6,0.4,1.1c-0.4,0.5-0.8,0.2-1.2,0
		c-0.4-0.2-0.7-0.5-1.1-0.8c-1.1-0.7-2.2-1.4-3.3-2C617.6,224.5,617.5,224.2,618.1,222.9z"/>
	<path d="M571.4,195.3c-1,1.3-5.6,2.9-7.2,2.5c0.8-1.1,1.9-1.7,5.4-2.7C570.4,194.8,570.4,194.8,571.4,195.3z"/>
	<path d="M560.8,148.7c1.6,0.5,2.4,2.3,2.1,4.9C562.1,151.8,561.5,150.4,560.8,148.7z"/>
	<path d="M565.9,163.9c-1.6-0.2-2.1-0.9-1.7-2.4C565.1,162,565.8,162.7,565.9,163.9z"/>
	<path d="M558.7,199c-0.7,0.7-0.7,0.7-1.6,0.7C557.5,198.7,557.5,198.7,558.7,199z"/>
	<path d="M549.5,198.5c0.6,0,1,0,1.6,0C550.3,199.2,550.3,199.2,549.5,198.5z"/>
	<path d="M563.5,158.6c0-0.4,0-0.6,0.1-0.8c0.1,0.1,0.2,0.3,0.3,0.4C563.8,158.3,563.7,158.4,563.5,158.6z"/>
	<path d="M295.6,21.5c-2.4,0.8-4.7,1.6-7.3,2.4c0.9-1.4,2.3-1.5,3.5-1.9c1.2-0.4,2.4-0.8,3.7-0.9C295.5,21.2,295.6,21.4,295.6,21.5z
		"/>
</g>
</svg>
