<?xml version="1.0" encoding="utf-8"?>
<!-- Generator: Adobe Illustrator 21.0.0, SVG Export Plug-In . SVG Version: 6.00 Build 0)  -->
<svg version="1.2" baseProfile="tiny" id="Layer_2" xmlns="http://www.w3.org/2000/svg" xmlns:xlink="http://www.w3.org/1999/xlink"
	 x="0px" y="0px" viewBox="0 0 900 600" overflow="inherit" xml:space="preserve">
<g>
	<path d="M868.9,189.8c2.1,0,4.3,0,6.4-0.2c2.1-0.2,4.1-1,6.3-0.7c0.9,1.8,0.3,3.4-0.2,4.9c-0.1,0.4-0.8,0.8-1.2,1
		c-2.1,0.7-4.2,1.3-6.4,1.8c-2.5,0.6-5.1,1.2-7.6,1.7c-2.1,0.4-4,1.5-5.6,2.8c-3.4,2.6-7.3,3.3-11.3,4c-2.9,0.6-5.9,1.1-8.9,1.5
		c-1.2,0.1-2.4,0-3.5-0.2c-1.6-0.3-3.3-0.5-4.9-1c-3.3-1.2-6.6-1-10-0.4c-1.2,0.2-2.4,0.9-3.6,0.9c-2.9,0.1-5.9,0.4-8.7-0.2
		c-4-0.8-7.9-0.8-11.8-0.5c-7.3,0.5-14.7,1.1-22,1.8c-2.5,0.2-4.9,1.2-7.4,1.5c-9.4,1.4-18.7,1.7-28-0.5c-5.2-1.2-10.6-1.9-15.9-2.9
		c-2.2-0.4-4.3-1.2-6.4-1.7c-0.7-0.2-1.5-0.5-2-0.3c-3,1-6,0.3-8.9,0.2c-0.6,0-1.3-0.2-1.8-0.4c-3.5-1.8-7.5-1.9-11.2-2.9
		c-1-0.3-2.1,0.2-3.2,0.3c-8.5,0.2-17.1,0.4-25.6,0.7c-5.4,0.2-10.7-0.6-15.8-2.5c-4.1-1.5-8.2-2.8-12.3-4.3c-2.6-1-5.1-2.6-7.7-3.7
		c-1.8-0.8-3.7-1.3-5.3-1.8c-1.4,1.1-2.4,2.1-3.5,2.8c-3.8,2.5-7.5,5.4-11.7,7.2c-5.5,2.5-9.8,6.6-14.2,10.5c-0.5,0.4-1,0.8-1.3,1.3
		c-1,1.9-2.6,3-4.3,3.9c-4.8,2.6-9.5,5.4-14.4,7.7c-7.5,3.4-15.1,6.8-23.1,9.2c-4.4,1.4-8.9,2-13.5,1.8c-7.3-0.3-14.5-0.3-21.8-0.5
		c-2.8-0.1-5.7-0.5-8.5-0.7c-2.6-0.1-5.2-0.3-7.8-0.1c-3.9,0.3-7.8,0.9-11.8,1.3c-6,0.5-11.8,0-17.6-1.7c-1.6-0.5-3.2-0.5-4.9-0.7
		c-1.1-0.1-2.2-0.3-3.3-0.3c-3.1,0-6.2-0.3-9.2,0.4c-2.2,0.5-4.2,1.1-6.4,0.3c-0.6-0.2-1.3,0.2-2,0.3c0,2.2,0,4.3,0,6.3
		c0,1.3,0.1,2.7-0.1,4c-0.6,5.3-1.5,10.5-1.7,15.8c-0.1,3.6-0.2,7.2-0.3,10.8c-0.1,3.5-0.3,6.9-0.4,10.4c-0.1,2.6-1,3.3-3.6,2.8
		c-0.7-0.1-1.4-0.3-2.2-0.4c-0.2,0.5-0.3,1-0.5,1.4c-1.2,4.1-2.4,8.2-3.5,12.3c-0.2,0.5-0.6,1.1-0.4,1.6c0.6,1.9-0.3,3.4-0.9,5
		c-0.8,2.1-1.1,4.3-1.2,6.5c-0.1,3.3-0.7,6.6,1.5,9.6c0.4,0.6,0.5,1.3,0.6,1.7c-0.3,1.4-0.6,2.6-0.8,3.7c-0.5,5.1-1.6,10-3.4,14.7
		c-0.3,0.8-0.5,1.9-0.2,2.7c0.8,3,1.2,6.1,0.6,8.9c-1.3,6.5-0.5,13.1-0.8,19.6c-0.2,6.2-0.3,12.5-0.4,18.7c0,2.2-0.1,4.4-0.1,6.6
		c-0.2,4.5-0.4,9-0.5,13.5c0,0.9-0.2,1.7,0.7,2.3c0.3,0.2,0.4,1,0.3,1.5c-1,5.1-0.9,10.2-1.1,15.4c-0.4,8.4-0.1,16.7,0.3,25.1
		c0.3,7,1.8,13.6,4.5,20c0.7,1.6,1.4,3.2,1.9,4.8c0.7,2.8,3,4,5.2,5.1c4.8,2.4,9.5,5,13.8,8.3c3.3,2.5,6.8,4.6,10.3,6.8
		c1,0.7,2,1.3,1.4,2.8c2.5,1.1,4.8,2.5,7.6,2.9c2.1,0.3,4.1,1.4,6.2,2.1c0.9,0.3,1.8,0.3,2.8,0.3c1.5,0,3-0.1,4.5,0
		c1.2,0,1.9,0.8,2.3,1.8c1,2.1,0,5.9-2.2,6.9c-2.9,1.3-5.9,2.1-8.9,3.2c-0.2,0.1-0.5,0-0.7,0c-2.9-0.7-5.8-1.5-8.9-2.3
		c-2.2,1.6-4.8,2.1-7.8,2.1c-3.9-0.1-7.7-0.5-11.6-1.1c-0.5-0.1-1.1-0.2-1.6-0.3c-1.7-0.6-3.4-1.3-5.1-2c-0.9-0.3-1.7-0.5-2.2-1.6
		c-0.2-0.5-1-0.9-1.6-1.2c-2-1-3.8-2.1-5.4-3.9c0.5,0.1,0.9,0.2,1.4,0.4c2.1,1,4.2,2.1,6.4,3.1c0.6,0.3,1.3,0.5,1.6,0.9
		c0.8,1.3,2.2,1.5,3.4,2c5.3,2.4,10.9,3,16.7,2.2c1.4-0.2,2.7-0.9,4-1.3c1.5-0.5,3-1.1,4.7-0.4c2,0.8,4.1,1.2,6.2,1.5
		c0.9,0.1,2-0.2,3-0.5c1.3-0.5,2.6-1.1,3.9-1.6c2.9-1.1,3.4-2.4,2.5-5.6c-1.7-0.5-3.4-0.3-5.1,0c-1.4,0.2-2.6-0.1-3.8-0.9
		c-0.7-0.5-1.7-0.7-2.6-0.9c-4.9-1.2-9.9-2.6-13.7-6.1c-3.3-3.1-7.1-5.4-10.4-8.5c-2.2-2.1-5-3.5-7.9-4.7c-4-1.7-7.6-4.3-10.1-8
		c-1-1.5-2-3-2.9-4.6c-0.4-0.7-0.9-1.4-0.4-2.5c0.4-0.8-0.4-2.2-0.7-3.3c-0.6,0-0.9,0-1.3,0c-0.1-0.3-0.1-0.5-0.2-0.7
		c-0.5-2.3-1.1-4.6-1.4-7c-1.3-8.9-1.6-17.9-1.1-27c0.3-6,0.5-12,0.7-18c0.1-3.3-0.3-6.6-0.2-9.9c0.4-11.1,0.9-22.1,1.4-33.2
		c0.1-1.6-0.2-3.1-0.3-4.7c-0.2-4.9-0.1-9.8,0.6-14.7c0.3-2.1,0.6-4.2,0.7-6.4c0-0.9-0.3-1.9-0.8-2.6c-2.4-3.2-3-7.1-3.5-10.9
		c0-0.2,0.2-0.4,0.6-0.9c0.5,2,0.9,3.8,1.4,5.5c0.5,1.7,1.2,3.4,2.2,5c0-0.6,0.3-1.3,0.1-1.7c-0.9-1.3-0.4-2.6-0.1-3.9
		c1-4.5,2-9,3.1-13.4c0.7-2.8,0.6-5.5-0.4-8.2c-0.7-1.9-1.4-3.8-0.8-6c-1,1.1-2.3,2-2.2,3.7c0,0.5-0.5,1.2-0.9,1.6
		c-0.9,0.9-1.9,1.6-3,2.4c-1.5,1.1-3.1,2.3-4.9,3.2c0.2-0.3,0.4-0.7,0.7-1c1.1-1.2,2.2-2.6,3.5-3.5c2.5-1.7,3.9-4,4.8-6.8
		c1.1-3.2,2-6.6,3.6-9.5c1.6-2.9,1.5-5.9,2-8.9c0.4-2.6,0.8-5.2,1.2-7.7c0.1-0.8,0.2-1.5,0.3-2.4c-3-1.1-5.9-1.3-8.9-1.5
		c-9.6-0.5-19.1-0.9-28.7-1.4c-6.9-0.3-13.7-0.8-20.5-2.4c-0.3-0.1-0.6,0-1.2,0c0.5,1.4,0.9,2.7,1.4,3.9c1.9,4.6,3.8,9.2,5.7,13.8
		c1.1,2.6,2.1,5.1,2.3,7.9c0,0.4,0.2,0.8,0.3,1.1c2,5.1,3.1,10.4,3.4,15.9c0.1,2.2,0.6,4.3,0.9,6.5c0.3,3.4,0.5,6.8,0.8,10.1
		c0.2,2.2,0.4,4.4,0.6,6.6c0,0.5-0.1,0.9-0.2,1.4c-2.4,11.2-4.8,22.4-7,33.6c-0.6,3-1.5,6.2-0.4,9.4c0.7,2,1.6,4,2.4,5.9
		c3.2,7.1,6.5,14.2,9.7,21.3c1.4,3.1,2.2,6.4,2.5,9.8c0,0.3,0.2,0.8,0,0.9c-1.4,1.4-0.5,3-0.5,4.4c0.2,4.4,0.4,8.8,0.6,13.3
		c0.2,3.9,0.3,7.7,0.6,11.6c0.5,6.8,0.3,13.6-0.3,20.4c-0.1,0.6,0.3,1.3,0.5,1.9c0.2,0.6,0.3,1.2,0.5,2c-0.6,0-0.9-0.1-1.4-0.1
		c-0.3,2.2-0.6,4.5-0.8,6.8c-0.7,6.7-1.4,13.4-2.2,20c-0.1,0.8-0.4,1.7-0.9,2.4c-1.6,2.5-1.2,3.9,0.2,6.1c0.3,0.5,1.1,0.9,1.7,1
		c2.4,0.2,4.9,0.4,7.3,0.5c1.7,0.1,3.5-0.1,5.2-0.1c0.4,0,0.9,0.1,1.2-0.1c1.4-1.3,3-0.6,4.5-0.5c1.7,0.1,3.5,0.2,5.2,0.3
		c0.7,0.1,1.4,0.2,2.1,0.4c0,0.2-0.1,0.3-0.1,0.5c-3.5,0-7,0-10.5,0c-0.6,0-1.3-0.1-1.8,0.1c-2.8,1.3-5.8,1.2-8.8,1.2
		c-1,0-2-0.3-2.9,0.6c-0.3,0.3-1.3,0.3-1.7,0c-1-0.7-1.9-1.4-2.6-2.4c-0.8-1.1-1.4-2.3-1.9-3.5c-0.2-0.6-0.2-1.4-0.1-2.1
		c0.4-2.7,1.1-5.3,1.4-7.9c0.4-3.4,0.5-6.8,0.8-10.2c0.7-7.2,1.6-14.4,2.1-21.7c0.4-6.1,0.5-12.1,0-18.2c-0.4-4.2-0.2-8.4-0.4-12.6
		c-0.3-6.6,0-13.3-1-19.9c-0.4-2.6-1.4-4.8-2.2-7.1c-0.9-2.5-2.1-5-3.1-7.4c-1.6-3.6-3.1-7.3-4.7-10.9c-1-2.3-2.1-4.6-1.6-7.3
		c0.1-0.4,0-0.8-0.1-1.2c-1.2-2.9-0.7-5.9-0.2-8.9c1.4-10,3.3-20,6-29.7c0.6-2.1,0.7-4.1,0.2-6.3c-0.5-2.4-0.6-5.1-0.4-7.5
		c0.5-5.3,0-10.5-1.3-15.7c-0.7-2.7-1.1-5.4-1.6-8.1c-0.8-4-2-7.7-3.6-11.5c-2.7-6.5-5-13.1-7.4-19.7c-0.8-2-0.2-2.3-3.3-2.9
		c-0.3,0.5-0.7,1.1-1,1.7c-2-1.2-1.3-2.9-1.8-4.1c-0.1-0.3,0.2-0.7,0-0.9c-1.7-3-1.4-6.5-1.7-9.7c-0.5-5.3-1.7-10.3-2.9-15.5
		c-1.4-5.8-2.5-11.6-3.5-17.4c-0.8-4.8-1.4-9.7-2.1-14.5c-0.1-0.5-0.2-0.9-0.2-1.5c-1.8-0.5-3.4-1.2-5.4-0.2
		c-1.2,0.6-2.9,0.4-4.4,0.5c-8.1,0.8-16.2,1.3-24.3,2.5c-9.2,1.4-18.4,2.2-27.6,2.6c-1.4,0.1-2.3-0.3-2.8-1.6
		c-0.7-1.8-1.3-3.6-1.9-5.3c-0.2-0.7-0.4-1.5-0.6-2.5c-1.1-0.3-2.2-0.7-3.4-0.8c-10.1-0.8-19.5-3.8-28.5-8.3
		c-0.8-0.4-1.8-0.6-2.6-0.9c-1-0.3-2-0.6-2.9-1.1c-3.4-1.9-6.7-3.9-10-6c-0.5-0.3-0.9-0.8-1.7-1.6c0.9-0.1,1.4-0.3,1.8-0.2
		c0.4,0.1,0.7,0.4,1,0.6c4.3,2.5,8.5,5.1,12.8,7.6c0.4,0.2,0.9,0.3,1.3,0.5c5.1,1.3,10.1,2.6,15.2,3.7c4.5,1,9,1.9,13.5,2.8
		c0.9,0.2,1.8,0.2,3.1,0.3c-0.3-2.2-0.3-4.1-0.7-5.9c-2-8.9-2.4-17.8-2.4-26.9c0-9.3,0.8-18.5,1.9-27.7c0-0.2,0-0.5,0-0.9
		c-4,0-7.9-0.2-11.8,0.1c-6.7,0.5-13.4,1.3-20,2.1c-3.7,0.4-7.3,1-11,1.6c-0.6,0.1-1.2,0-2.1,0c0.2-0.6,0.4-1,0.6-1.6
		c-3.8-0.2-7.5-0.3-11.2-0.5c-2.3-0.1-4.6-0.1-6.7-1.3c-0.5-0.3-1.2-0.2-1.8-0.2c-3.1,0.2-6.3,0.4-9.4,0.6c-0.6,0-1.3,0-1.8-0.3
		c-3.9-2.2-8.2-3.6-12.4-5.2c-5.8-2.3-11.7-4.3-17.6-6.4c-0.8-0.3-1.7-0.3-2.6-0.4c-6.3-0.5-12.5,0.4-18.7,1.1
		c-1.9,0.2-3.8,0.4-5.7,0.7c-0.4,0-0.9,0-1.2,0.2c-2,1.5-4.4,0.9-6.6,1.3c-4.8,0.8-9.7,1.7-14.4,2.7c-3.9,0.8-7.8,1.8-11.7,2.9
		c-7.6,2.1-15.2,3.7-23.1,3.8c-2.8,0-5.6,0.8-8.5,0.9c-2.9,0.1-5.9,0-8.8-0.3c-5.6-0.5-11.1-1.5-16.3-4c-1-0.5-2.3-0.8-1.9-2.4
		c-1.2-0.7-2.5-1.2-3.7-2c-2.4-1.6-4.9-2.6-7.7-3.5c-2.5-0.8-4.6-0.4-6.8,0.5c-1.2,0.5-2,1.2-2.6,2.3c-0.9,1.7-1.8,3.4-2.7,5
		c-0.5,0.9-1.2,1.7-1.8,2.5c-0.3,0.4-0.6,0.9-0.9,1.4c-0.4,0.8-0.7,1.6-1,2.4c-1.4,4.4-3.6,8.2-7.7,10.8c-0.7,0.5-1.2,1.3-1.8,1.9
		c-0.6,0.6-1.2,1.4-1.9,1.7c-2,0.9-3.1,2.6-4.3,4.2c-0.9,1.3-2.1,2.4-2.8,3.8c-1.3,2.2-2.4,4.4-3.5,6.7c-0.3,0.6,0.6,1.6-0.5,2.2
		c-0.2-0.1-0.5-0.2-0.7-0.5c-0.6-0.7-1.2-1.6-2.3-1c-1.1,0.5-2.3,2.3-2.1,3.2c0.2,0.8,0.8,1.4,1.7,1.3c1.3-0.1,2.7-0.1,3.8-1.2
		c0.6-0.5,1.3-0.9,2.2-1.2c-0.6,1.6-1.9,2.6-3.3,3.2c-1.3,0.5-2,1.4-2.7,2.5c-0.7,1-1.5,1.9-2.4,3.1c0.9,0.3,2,0.6,3.3,0.9
		c1-1,2-2,3-3c0.9-0.9,1.3-2.3,3-2.4c-2,4-3.9,6.9-8.1,7.2c-0.5,0.7-1,1.5-1.6,2.5c1.4,0.3,2.7,0.6,4,0.9c1.8-1.5,2.4-4.1,5-5.3
		c0.1,0.6,0.3,1.3,0.1,1.5c-1.4,1.8-2.8,3.6-4.4,5.3c-0.4,0.4-1.1,0.6-1.7,0.6c-1.9,0.2-2.9,1.5-3.7,3c-0.7,1.1-0.1,2,1.2,2
		c1.2,0,2.2-0.3,2.9-1.4c1.1-1.6,2.1-3.2,3.2-4.7c0.6-0.8,1.1-1.9,2.4-2c0.1,0.2,0.3,0.4,0.2,0.5c-1.7,3-3.6,5.9-6.2,8.2
		c-1.7,1.5-4.5,0.9-5.2-1c-0.2-0.6-0.2-1.4,0.1-2c0.3-0.8,0.9-1.5,1.3-2.2c-0.3-1.2-0.5-2.4-0.8-3.7c1.6-0.6,1.9-1.8,2.3-3
		c-0.3-0.2-0.4-0.3-0.5-0.3c-2.5,0-2.8-0.4-1.6-2.7c0.3-0.6,0.9-1.1,1.4-1.6c0.5-0.5,1-0.9,1.7-1.4c-0.5-0.9-0.8-1.6-1.2-2.4
		c-0.8-1.7-0.5-3.5,0.9-4.7c0.8-0.7,1.7-1.4,2.7-1.9c1.2-0.6,1.9-1.5,2.6-2.7c3.6-6.2,7.7-12,13.5-16.3c0.7-0.5,1.3-1.1,2-1.6
		c1.7-1.2,2.8-3,3.5-4.9c1.9-4.9,4.6-9.3,7.4-13.7c4-6.1,9.9-5.7,14.3-4.1c2.8,1.1,5.3,2.8,7.9,4.2c1.6,0.8,3.3,1.6,4.8,2.5
		c0.9,0.5,1.7,1.2,2.5,2c6.8,1.5,13.7,2.8,20.8,3.1c1.5,0.1,3,0.2,4.4-0.6c0.2-0.1,0.5-0.2,0.7-0.2c5.4,0.1,10.4-1.8,15.6-3
		c6.8-1.5,13.5-3.3,20.3-4.9c5.9-1.4,11.9-1.7,17.9-2.2c1.3-0.1,2.7-0.3,4-0.7c7.8-2.1,15.7-2.8,23.7-2.5c1,0,2,0,3.1,0.1
		c0.9,0.1,1.7,0.3,2.2,1.1c0.3,0.4,1,0.6,1.6,0.8c8.3,2,16.4,4.8,24.3,8c3.5,1.4,7.2,2.1,11.1,2.1c3-0.1,6,0.6,8.9,0.9
		c1,0.1,2,0.3,3,0.4c5.6,0.4,11.2,0.7,16.8,1c1.3,0.1,2.7,0,4-0.3c10.9-2.7,21.9-3.3,33-2.1c0.6,0.1,1.3,0.1,1.9,0.2
		c0.2,0,0.5,0,0.8,0c0.4-1.2,0.8-2.5,1.3-3.9c0.8,0.1,1.7,0,2.3,0.3c1.7,0.8,3.5,0.9,5.3,0.8c3.3-0.3,6.6-0.4,9.9-0.2
		c3.5,0.2,6.9-0.2,10.4-0.6c5.6-0.6,11.1-1.3,16.9-2.1c0.1,0.1,0.3,0.5,0.6,0.9c1.4,0.4,2.3-0.6,2.8-1.6c1-2.2,2.8-2.9,5-2.7
		c2.3,0.2,3.7-0.9,4.9-2.7c0.8-1.2,1.7-2.3,2.8-3.2c3.9-2.8,7.8-5.8,11.9-8.1c2.5-1.4,5.5-2,8.4-2.5c5.1-0.8,10.3-1.4,15.5-1.9
		c3.6-0.3,7.2,0.5,10.7,1.8c4.5,1.7,9,3.4,13.5,5.2c2.2,0.9,4.2,2.1,6.3,3.3c0.6,0.3,1.5,0.7,1.3,2c-0.5-0.1-1-0.2-1.4-0.4
		c-6.9-3.9-14.3-6.3-21.7-8.8c-2.3-0.8-5-0.9-7.5-0.8c-6.3,0.4-12.6,1.1-18.9,1.7c-1,0.1-1.7,0.5-2.5,1.1c-1.3,1-2.9,1.6-4.2,2.6
		c-4.5,3.4-8.9,6.8-13.4,10.2c-0.7,0.5-1.2,1.2-2,2c-1.1,0-2.3,0-3.6,0c-1.5,0-2.8,0.1-3.5,1.8c-0.3,0.6-1.2,1-1.9,1.3
		c-1.9,0.7-3.1,1.9-3.5,4c-0.9,4-1.6,8.1-1.7,12.2c0,0.9,0,1.7-0.4,2.7c-0.2-0.4-0.5-0.8-0.6-1.2c-0.8-3.2-0.3-6.3,0.2-9.4
		c0.3-1.9,0.8-3.8,1.3-6.1c-1.2,1.2-2.1,2.2-2.9,3.1c-0.1-0.1-0.2-0.2-0.3-0.3c0.8-1.4,1.6-2.8,2.6-4.4c-2.9,0.5-5.4,1.1-8.1,1.4
		c-6.6,0.8-13.2,1.4-19.9,1.3c-3.3-0.1-6.6,0.3-10.2,0.5c-0.3,0.9-0.6,1.8-1,3c0-1,0-1.8,0-2.6c-0.8-0.6-1.6-1.1-2.8-1.9
		c-0.2,1.2-0.4,2.1-0.5,3c-1.1,12.8-1.9,25.5-1,38.4c0.5,7.6,1.2,15.1,3.9,22.3c0,0.1,0,0.3,0,0.7c-0.3-0.1-0.5-0.1-0.8-0.2
		c-0.2,0-0.4-0.1-0.7-0.2c0.5,4.2,1.5,8.1,3.5,12.1c3.1-0.1,6.1-0.1,9.2-0.4c4.9-0.4,9.8-0.5,14.6-1.4c6.9-1.2,13.8-1.5,20.7-2.5
		c1.5-0.2,3-0.2,4.5-0.5c3.7-0.6,7.4-1.2,11.1-1.8c0.3,0,0.6,0,0.9,0.1c3.8,0.8,7.5,1.7,11.3,2.5c3.1,0.7,6.2,1.4,9.2,2.1
		c0.3,0.1,0.6,0.2,1.3,0.5c-6.8,1-12.7-1.9-19-2.2c-0.2,1.8,0.3,3.3,0.6,4.8c1.8,8.3,3.6,16.5,5.5,24.8c0.4,1.8,1.1,3.6,1.5,5.5
		c0.3,1.1,0.5,2.2,0.7,3.2c0.8,5.7,1.6,11.4,2.4,17.1c0.2,1.3,0.3,2.7,0.4,4.1c0.5,0.3,1,0.6,1.5,0.7c6.6,1.7,13.3,2.5,20.1,2.8
		c8.6,0.4,17.2,0.6,25.8,1c6.7,0.3,13.4,0.8,20,2.5c1.2,0.3,2.3,0.8,3.4,1.2c0.2-0.3,0.4-0.5,0.4-0.6c0.3-4.2,0.8-8.5,0.8-12.7
		c0-5.6,0.4-11.2,1.1-16.8c0.7-5.4,0.9-10.8,1.4-16.4c-2.7,0-5,0-7.3,0c-2.2,0-4.4,0.1-6.6,0.2c-0.5,0-1,0-1.4,0
		c-3.4-0.5-3.6-0.8-4-3.8c-0.6-4.5,0.2-8.8,0.3-13.2c0.1-3.9,0-7.9,0-11.8c0-2.8-0.3-5.5-0.3-8.3c0-6.8,0-13.6,0.1-20.4
		c0.1-6.2,0-12.4,0.5-18.5c0.3-3.1-0.3-5.7-1.2-8.5c-1.7-5.2-2.5-10.6-3-16c-0.1-1.2-0.2-2.3-1.1-3.3c-0.6-0.7-1-1.8-0.1-2.9
		c0.8,0.2,1.5,0.9,2.6,0.2c0.5-0.3,1.5,0.1,2.3,0.2c1.4,0.2,2.8,0.4,4.2,0.6c2.3,0.4,4.6,0.6,6.8,1.1c4.5,1.1,8.9,2.6,13.5,3.5
		c3,0.6,5.9,1.6,9.1,1.1c2.4-0.4,4.9-0.7,7.5,0.2c0.8,0.3,2.2-0.2,3.1-0.7c1.5-0.9,3-0.9,4.5-0.4c0.8,0.3,1.7,0.4,2.5,0.7
		c1.9,0.7,3.8,0.6,5.8,0.2c3.6-0.7,7.3-1.6,11-1.9c4.2-0.4,8.4-0.3,12.5-0.6c2.8-0.2,5.6-0.7,8.5-0.8c9-0.5,18-1,27-1.4
		c2.2-0.1,4.3-0.5,6.5-1.2c3.4-1.1,6.9-1.7,10.4-2.4c1.5-0.3,3.1-0.5,4.6-0.9c2.9-0.8,5.9-0.7,8.9-0.7c3.3,0.1,6.6,0.2,9.9,0.2
		c5.2-0.1,10.4,0.3,15.5,1.6c0.7,0.2,1.4,0.2,2.1,0.2c2.1,0,4.3,0.1,6.4,0.1c1.7-0.1,3.4-0.4,5.2-0.4c1.3,0,2.7,0.1,3.9,0.5
		c0.9,0.3,1.6,0.4,2.5,0.1c0.9-0.3,1.8-0.5,2.8-0.6c2.9-0.4,3.6,0.3,3.8,3.3c2.4,0,4.8,0,7.3,0c0.2-0.7,0.5-1.5,0.7-2.2
		c0.8-3.1,2.6-5.5,5-7.6c0.4-0.3,0.8-0.6,0.9-1c0.8-2.3,2.2-4.1,3.6-6.1c1.6-2.3,2.9-4.7,4.5-6.9c1-1.3,2.2-2.4,3.3-3.6
		c0.6-0.7,1.4-1.4,1.8-2.2c0.7-1.6,1.9-2.4,3.5-2.9c1.6-0.4,2.6-1.4,2.7-3.2c2.3-1,4.7-2,7.1-3.1c-0.4-0.8-0.7-1.4-0.8-1.9
		c-0.2-0.7-0.1-1.5,0.6-1.9c0.8-0.4,1.5-0.3,2.1,0.5c0.6,0.8,1.1,1.5,1.7,2.2c0.2,0.2,0.5,0.3,0.9,0.5c0.5-1.5-0.8-2.4-1.1-3.5
		c-0.3-1.2-0.5-2.4-0.8-3.5c1.9-1.3,2.7-1.2,3.7,0.3c0.7,1.1,1.2,2.4,1.9,3.6c1-0.8,1.9-1.5,3.2-2.6c0.4,0.6,0.7,1.2,1,1.6
		c1-0.3,1.8-0.7,2.7-0.8c0.5,0,1.2,0.4,1.5,0.8c0.2,0.3,0,1.1-0.3,1.5c-0.5,0.7-1.2,1.2-1.9,1.8c0.9,1.4,2.4,0.9,3.3,1.7
		c0.3-0.2,0.5-0.2,0.7-0.4c1.4-1.3,1.6-1.3,2.9-0.1c1.7,1.7,3.3,3.4,5.1,5c1,0.9,2.1,1.7,3.1,2.5c2.4,1.8,4.8,3.7,7.2,5.4
		c0.7,0.5,1.5,0.8,2.3,1c2.5,0.5,4.5,1.9,6.4,3.4c0.4,0.4,0.4,1.4,0.6,2.2c2.3,0.2,4.7,0.4,6.5,0.6c1.3,0.8,2.1,1.3,2.9,1.7
		c1,0.6,2,1,2.9,1.7c0.3,0.2,0.5,0.9,0.3,1.2c-0.1,0.3-0.7,0.7-1.1,0.7c-0.6,0-1.2-0.3-1.8-0.4c-1.7-0.4-3.3-1.1-5.3-0.6
		c1.4,1.2,2.9,1.3,4.3,1.3c1.5,0.1,2.6,0.5,3,1.9c2.2-0.1,4.2-0.3,6.3-0.2c1.7,0,1.9,0.3,2.5,2c-0.6,0.2-1.3,0.4-1.7,0.5
		c-0.1,1.1-0.2,2.2-0.2,3.3c0.2,1.2,1.4,0.7,2.5,1c-1.4,1.2-1.6,2.6-1.9,4.1c-0.1,0.8-0.8,1.4-1.3,2.3c2.4,0,4.9-1.3,7.8,0.2
		c-2.6,2.3-5.5,2.6-8.4,3.5c1.7,0.9,3.3-0.2,4.5,1c-1.2,2.2-3.1,3.3-5.3,2.9c-1.7-0.3-3.4-0.7-5.1-1c-0.4-0.1-0.8-0.1-1.1-0.1
		c-1.1,0.1-2.2,0.3-3.3,0.2c-1.1,0-2.2-0.3-3.5-0.6c-0.2,0.8-0.4,1.5-0.7,2.2c-0.9,3-1.6,6-3.4,8.5c-0.4,0.6-0.6,1.3-0.8,2
		c-0.7,2.8-1.3,5.5-1.9,8.3c-0.2,0.8-0.7,1.2-1.4,1.4c-0.9,0.2-1.8,0.5-2.9,0.8c-0.2,1.2-0.4,2.3-0.6,3.6c6.1,2.5,12.3,3.8,18.9,5.1
		c2.4-1.5,5.3-2.2,8.5-2.3c1.9,0,3.7-0.8,5.6-0.8c5.8,0,11.5,0.6,17.1,2c2.7,0.7,5.4,1.8,8.1,2.6c7.3,2.3,14.6,4.6,22,6.7
		c3.6,1,7.4,1.9,11.1,2.3c3.3,0.4,6.6,0.1,9.9,0c0.5,0,1-0.4,1.3-0.8c1.4-1.6,2.9-3.2,3.9-5.1c1.5-2.9,4.1-4,6.9-5
		c1.1-0.4,2.3-0.7,3.3-1.2c0.6-0.2,1.3-0.5,1.6-1c1.5-2.4,4-4.1,5-6.8c0.1-0.3,0.4-0.5,0.6-0.8c1.7,0.3,2.6,1.2,3,2.9
		c0.7,2.8,0.3,5.2-1.9,7.3c-1.4,1.3-2.5,2.8-4.4,3.5c-0.3,0.1-0.4,0.6-0.8,1c1.9,0.8,3.8,1,5.6,1c1.6,0,3.2,0,4.7-0.2
		c0.7-0.1,1.5-0.5,2-1c1.9-1.9,3.7-3.9,5.5-5.9c0.9-1,1.8-1.5,3.1-2c3.3-1.1,6.5-2.5,9.7-3.7c2.3-0.9,4.6-1.8,7-2.7
		c0.9,4.3-0.7,6.2-3.3,7.9c-0.8,0.6-1.9,0.8-2.8,1.3c-0.8,0.4-1.5,1-2.1,1.8c2.3,0.2,4.6,0.5,6.8,0.1c3.6-0.7,7.2-1.6,10.9-2.2
		c3.1-0.5,6.3-1,9.4-1.1c1.7,0,3.4,0.1,5.1,0.1c2.3,0,3.9,2.8,3.1,4.9c-0.4,0.9-0.9,1.7-2,1.7c-0.6,0-1.1,0.1-1.2,0.8l0.1-0.1
		c-3.7,0.6-7.5,1.2-11.2,1.7c-2.6,0.4-5.1,0.8-7.7,1.1c-0.8,0.1-1.7,0.4-2.3-0.7c0.3-0.2,0.5-0.5,0.8-0.5c3.3-0.5,6.5-1.2,9.8-1.3
		c3.4-0.1,6.5-1,9.8-1.7c0.9-0.2,1.7-0.7,2.5-1.2c0.7-0.4,1-1.7,0.4-2.1c-0.8-0.6-1.8-1.4-2.8-1.5c-1.6-0.2-3.3-0.3-4.9,0.1
		c-4.6,0.9-9.3,0.9-13.7,2.6c-3.7,1.5-7.5,1.1-11.2,0.9c-2.5-0.1-5-0.7-7.5-0.1c-0.4,0.1-0.9-0.1-1.7-0.2c1.4-1.5,2.9-1.6,4.4-1.6
		c0.8,0,1.7,0,2-0.9c0.7-1.5,2.1-2.1,3.4-2.8c1-0.6,2.1-1.2,3-1.8c0.7-0.5,1.1-1.3,0.7-2.4c-1.3,0.5-2.8,0.6-3.8,1.4
		c-1.7,1.2-3.6,1.6-5.5,2.1c-2.5,0.7-5,1.4-6.8,3.5c-3.2,3.7-6.8,7-10.8,10c-2.2,1.6-4.6,2.7-7.2,3.3c-2.7,0.6-5.5,0.4-8.3,0
		c-4-0.6-8-0.7-12.1-0.5c-5.4,0.2-10.8,0.1-16.2-1.2c-8.9-2.1-17.3-5.6-26-8c-5.8-1.6-11.5-3.3-17.6-3.5c-3.2-0.1-6.3-0.2-9.5-0.7
		c-2.5-0.4-4.9,0-7.2,0.8c-1,0.3-1.9,0.8-2.9,1.1c-1,0.3-2,0.6-3,0.5c-2.3-0.3-4.6-0.8-7-1.2c-7.4-1.3-14.6-3.3-21.6-6.3
		c-0.9-0.4-1.9-0.7-2.9-0.9c-4.2-0.7-8.5-1.1-12.7-1.9c-5.3-0.9-10.9-0.6-15.5-4.2c-1.2-0.9-2.6-1.5-3.8-2.3
		c-1.6-1.1-2.9-2.4-4.5-3.4c-4.3-2.6-8.6-5-12.9-7.5c-0.7-0.4-1.4-0.7-2.2-0.9c-4.3-0.9-8.7-1.7-13.1-1.5c-2.8,0.1-5.7,0.4-8.5,0.6
		c-2.2,0.2-4.4,0.4-6.5,0.6c0-0.1,0-0.2,0-0.3c1.6-0.5,3.1-1,4.8-1.5c-0.4-0.3-0.5-0.5-0.7-0.6c-3.5-1.4-7-2.9-10.5-4.3
		c-1-0.4-2.2-0.6-3.3-0.4c-3.9,0.9-7.8,1.9-11.4,4c-5.2,3-9.5,7.1-13.6,11.4c-2.1,2.2-3.7,4.8-4.8,7.8c-2.4,6.4-2.8,12.9-1.3,19.6
		c1.9,8.5,6.7,14.7,14.7,18.3c1.4,0.6,2.8,1.1,4.1,1.9c2.8,1.7,5.7,1.8,8.5,0.5c2.9-1.3,5.7-2.8,8.4-4.4c4-2.4,7.7-5.1,11.1-8.5
		c-1.4-0.8-2.7-1.5-3.9-2.2c-2.2,0.8-4.2,1.7-6.6,1.1c-0.4-0.1-0.9,0.1-1.4,0.2c-2,0.5-4.2,0.8-5.6,2.6c-6.7,2.8-13.5,4.3-20.8,3.7
		c-0.1,0-0.1-0.2-0.2-0.3c1.6-0.3,3.3-0.4,4.9-0.8c7.6-2.1,15.2-4.3,22.8-6.5c0.8-0.2,1.7-0.2,2.5-0.4c1.3-0.2,2.5-0.5,3.8-0.8
		c0-0.2,0-0.3,0.1-0.5c3.3,1.4,6.5,2.8,9.8,4.2c0.8,0.3,1.8,0.6,2.7,0.7c2.9,0.4,5.8,0.7,8.7,1.1c0.4,0,0.7,0.4,1,0.6
		c-0.1,0.2-0.1,0.5-0.2,0.7c-5.4-0.7-10.8-1.5-16.2-2.8c-0.7,0.8-1.4,1.6-2.2,2.4c-5.6,5.6-12,10-19.6,12.5
		c-2.4,0.8-4.8,1.1-7.2,0.8c-0.8-0.1-1.5-0.7-2.3-0.9c-2.2-0.8-3.6-2.9-6-3.4c-0.8-0.2-2-0.6-2.2-1.2c-0.4-1.3-1.4-1.6-2.2-2.2
		c-3.3-2.2-5.9-5-7.4-8.7c-4.1-9.8-3.1-19.5,1.7-28.8c1.6-3,3.7-5.7,5.6-8.5c2.1-3.1,4.6-5.8,7.5-8.2c3.2-2.7,6.9-4.4,10.9-5.6
		c3.6-1,7.1-1.2,10.6,0c0.3,0.1,0.6,0.1,0.9,0.2c1.9,0.5,3.8,1,5.8,1.4c1.1,0.2,1.4,0.8,1.1,1.8c1.2,0.5,2.2,1.1,3.3,1.5
		c0.6,0.2,1.4,0.4,2,0.3c2.4-0.2,4.8-0.6,7.3-0.9c0.4,0,0.7-0.2,1.1-0.3c-0.4-2.4-0.9-4.6-1.3-6.8c-2-0.5-2-0.5-2.4-3.7
		c-1.2-0.5-2.5,0-3.7,0.3c-1.4,0.3-2.7,0.4-4.2-0.1c-0.8-0.3-1.8-0.4-2.5-0.1c-2.4,0.9-4.8,0.7-7.3,0.4c-1.2-0.2-2.3-0.1-3,1
		c-2-0.4-3.8-0.9-5.7-1.3c-4.5-0.8-9.1-0.5-13.7-0.5c-2,0-4-0.1-5.9-0.3c-4.9-0.7-9.7-0.4-14.5,1.2c-3.5,1.1-7,2.4-10.6,3.5
		c-3.6,1.1-7.2,1.6-11,1.4c-0.5,0-1.1,0.1-1.3-0.2c-0.7-1-1.6-0.8-2.6-0.7c-10.3,0.7-20.6,1.7-31,1.2c-5.1-0.2-10.1,0.5-15.1,1.5
		c-3.6,0.7-7.1,1.7-10.8,1.1c-1.8-0.3-3.5-0.8-5.3-1.2c-1.2-0.3-2.2-0.4-3.3,0.4c-1.2,0.9-2.7,1.3-4,0.8c-2.4-0.9-4.7-0.4-7-0.2
		c-1.3,0.1-2.7,0.1-4,0c-2-0.2-3.9-0.6-5.8-1c-0.5-0.1-0.9-0.3-1.3-0.4c-0.9-0.3-1.9-0.8-2.8-1c-3.3-0.6-6.6-1.1-9.8-1.7
		c-3.8-0.8-7.7-0.4-11.4-1.8c-0.5-0.2-1-0.2-1.7-0.4c0.2,1.7,0.3,3.2,0.6,4.7c1,5.9,2.7,11.7,4.6,17.4c0.4,1.3,1,2.7,0.8,3.9
		c-0.5,3-0.3,6-0.3,9c0,7.9,0.2,15.8,0.1,23.7c-0.1,5-0.4,9.9-0.7,14.9c-0.1,1.3-0.4,2.5-0.3,3.8c0,2.3,0.4,4.6,0.4,6.8
		c0,4.9-0.1,9.8,0,14.7c0,1.3,0.3,2.6,0.4,3.9c8.3,0.4,15.1-0.5,22.3-2.5c3.3-12.5,5.6-25.2,6.9-38.1c0.2,6.5-0.6,12.9-1.8,19.3
		c-1.1,6.3-2.6,12.6-4,19.2c2.3-0.1,4.7-0.3,7-0.4c2.1-0.1,4.2-0.1,6.4-0.1c0.9,0,1.9,0.1,2.8,0.2c1.7,0.2,3.4,0.4,5.1,0.7
		c3.2,0.6,6.3,1.3,9.5,1.8c4.4,0.6,8.8,0,13.2-0.4c3.9-0.3,7.9-1.1,11.8-1c9.5,0.3,18.9,1,28.4,1.5c3.5,0.2,7.1,0.4,10.6,0
		c3-0.3,6-1.3,8.9-2.3c2.8-1,6.1-0.9,8.3-3.4c3.4-0.7,6-3.1,9-4.6c5.7-2.8,11.4-5.5,17-8.3c1.2-0.6,2.3-1.4,3.2-2.3
		c5.5-5.2,11-10.2,17.9-13.5c0.8-0.4,1.4-1,2.1-1.5c2.5-1.9,5-3.8,7.5-5.7c0.6-0.5,1.2-1,2-1.7c0.3,0,0.7,0.1,1.2,0
		c2.3-0.4,4.6-0.2,6.6,1.2c0.4,0.3,0.9,0.3,1.3,0.4c4.4,1.5,8.9,2.8,13.2,4.5c3.8,1.5,7.7,2.9,11.8,3.6c4.7,0.8,9.4,1.5,14.2,1.1
		c5.7-0.4,11.4-0.6,17.1-0.1c0.6,0.1,1.5,0.2,1.8-0.2c1-1,2-0.6,3.1-0.3c2.5,0.6,5.1,1.1,7.6,1.8c2.1,0.5,4.1,1.3,6.2,1.6
		c3.4,0.4,6.9,0.3,10.4,0.5c1.2,0.1,2.5,0.4,3.7,0.7c0.5,0.1,0.9,0.2,1.4,0.3c3.6,0.6,7.2,1.1,10.8,1.8c6.9,1.3,13.8,2.7,20.9,2.4
		c4.7-0.2,9.4-0.3,14.1-1c6.4-1.1,12.9-1.4,19.3-2.1c8.4-0.8,16.7-0.9,25.1,0.2c2.7,0.4,5.5,0.4,8.2-0.1c4.4-0.7,8.7-2,13.2-0.2
		c1.4,0.6,2.9,0.8,4.4,1c0.7,0.1,1.4,0.2,2.1,0.1c4.2-0.5,8.3-1.1,12.5-1.6c2.9-0.4,5.8-0.6,8.2-2.7c0.6-0.5,1.4-0.7,2.1-1
		c0.4-0.2,0.9-0.3,1-0.5c0.7-1.4,2.1-1.6,3.4-2c1.9-0.5,3.8-0.9,5.8-1.4c0.7-0.2,1.4-0.4,2-0.6c1.4-0.4,2.8-0.9,4.3-1.3
		c0.7-0.2,1.5-0.3,2.5-0.5c0.3-1.1,0.5-2.1,0.7-3.1c-0.1-0.2-0.3-0.4-0.4-0.6c-2.9,1.3-5.8,1.9-8.9,1.8c-3-0.1-6,1.3-9.3,0.8
		c0.3-1,0.6-1.7,0.7-2.2c2.6-0.7,5-1.2,7.2-2.1c2-0.8,4.1-1.2,6.2-1.5c3.3-0.5,6.5-1.2,9.7-2c1.5-0.3,2.7-1.2,3.4-2.7
		c-0.3-0.8-0.5-1.5-0.7-2.3l0,0.1c0.4,0.1,0.8,0.2,1.1,0.4c1.6,1,1.7,2.2,0.3,3.4c-1.6,1.4-3.5,2.4-5.6,2.8c-3.5,0.7-7,1.1-10.4,1.9
		C872.3,188.3,870.7,189.2,868.9,189.8c-0.1,0.1-0.3,0.1-0.2,0.1C868.6,190,868.7,189.9,868.9,189.8z M660.4,141.2
		c-0.1,0.5-0.2,0.7-0.1,0.8c0.1,0.3,0.3,0.5,0.5,0.8c1.3,1.6,1.3,2.1,0.2,3.7c-0.6,0.8-1.2,1.7-1.8,2.7c-0.4-1.5-1.6-2.3-3-2.8
		c-0.6-0.2-1.3-0.6-1.3-1.8c1,0.4,1.8,0.7,2.6,1c1.1-1.3,2-2.5,1.3-4.3c-0.4-1,0.1-1.5,1-1.7c0.5-0.1,1-0.2,1.6-0.3
		c0.1-0.7,0.3-1.2,0.5-2.1c-1.8,0.8-3.3,1.4-5,0.3c-0.1-0.6-0.2-1.2-0.4-2.1c-0.6,1.9-1.4,3.3-0.9,5.1c0.2,0.7-0.4,1.6-0.8,2.3
		c-0.2,0.3-0.8,0.3-1.3,0.5c-0.1-0.1-0.3-0.2-0.4-0.3c0.8-1.5,1.8-2.9,0.8-4.8c-0.5,0.5-1.2,0.9-1.2,1.4c-0.3,3.3-0.1,6.5,2.4,9
		c1.6,1.6,3.1,3.3,4.8,4.9c1.3,1.2,2.9,2.1,4.8,2.3c8.4,0.6,16.6,2.1,24.7,4c0.6,0.1,1.3,0.6,2-0.1c-0.4-0.8-0.8-1.6-1.2-2.3
		c0.7-0.4,1.2-0.7,1.9-1.1c-1-1.2-3-0.3-3.5-2.2c2.1-0.3,3.8,0.5,5.5,1.2c0.6-0.4,1-0.7,1.9-1.2c-0.6,2.3,2,1.4,2.4,3.2
		c-1.3-0.1-2.3-0.2-3.5-0.4c-0.5,1.2-2.8,1.5-1.9,3.8c1.9,0.5,3.8,0.9,5.7,1.4c0.3-1,0.5-1.8,0.7-2.5c0.3-1.3,0.9-2.3,2.3-2.7
		c1-0.3,1.6-1.1,1.9-2.2c0.8-2.5,2.1-4.9,2.1-7.7c0-0.5,0.4-1,0.7-1.5c1.8-2.8,2.7-5.9,3.6-9c0.1-0.5,0.1-1.1,0.1-1.6
		c-1.6-0.7-3.2-1.4-3-3.1c-1.8-1.1-3.6-1.8-4.8-3.1c-1.5-1.6-3.3-1.9-5.3-2.1c-0.8-0.1-1.6,0-2.4-0.1c-2.3-0.3-4.4,0.1-6,1.8
		c-0.3,0.8-0.6,1.7-1.2,2.1c-2.9,1.9-5.8,3.9-8.8,5.6c-2.4,1.3-4.8,2.9-7.4,2.6c-0.8,1.1-1.3,2.1-2,2.9c-0.5,0.6-1.3,0.8-1.9,0.1
		c-1-1.3-2.2-2.6-2.2-4.6c0-1.4-0.6-2.9-1-4.3c-0.2-0.7-0.6-1.2-1.7-1.2c1.3,3.5,1.3,6.8-0.5,10.1
		C661.5,141.3,661,141.3,660.4,141.2z M825,158.8c-0.2,0.1-0.4,0.2-0.4,0.3c-1.6,2.2-3.2,4.5-5,6.6c-0.6,0.7-1.5,1.1-2.4,1.5
		c-1.1,0.5-2.3,0.7-3.3,1.2c-1.6,0.8-3.5,1.4-4.7,2.7c-1.8,1.9-3.1,4.3-4.6,6.5c0.1,0.1,0.2,0.1,0.3,0.1c5.7,0.4,11.3,0.7,17,1.1
		c0.2,0,0.5,0,0.7-0.1c1.5-0.5,5.2-3.1,6.3-4.6c-3.6,0.2-7.1,0-10.7-1.5c0.3-0.5,0.4-1.2,0.9-1.6c1.3-1.2,2.6-2.3,4-3.3
		c2-1.4,2.7-3.5,3.1-5.7C826.4,161,826.3,159.6,825,158.8z M627.1,129.9c-1.1,0-2.2,0-3,0c0,2,0,3.9,0,5.7c0,0.9,0.4,1.3,1.3,1.4
		c0.5,0,1.1,0,1.9,0c-0.4-1.3-0.8-2.3-1.2-3.5C626.4,132.5,626.7,131.4,627.1,129.9z M647.7,142.9c1.5,1,2.9,1.9,4.7,3
		c-0.4-2.2-0.7-3.9-1-5.7C648.4,141,648.4,141,647.7,142.9z M661.5,133.1c-2.3-0.3-3.4,0.5-4.1,3c0.3,0.1,0.6,0.2,0.9,0.3
		c0.5,0,0.9,0,1.4,0C662,136.1,662.3,135.5,661.5,133.1z M676.9,113.4c0.1,0.1,0.1,0.3,0.2,0.4c2.4-1.2,4.7-2.3,7.6-3.7
		c-3.1-0.1-5.7-0.6-7.1,2.5C677.5,112.9,677.2,113.2,676.9,113.4z M697.3,111.3c-2.2-0.8-4.2-0.9-6,0.8
		C693.3,111.8,695.3,111.6,697.3,111.3z M678.1,121.5c1.6,0.6,3.5,0.2,4.5-0.8C679.8,119.9,679.8,119.9,678.1,121.5z M629.1,134.4
		c-0.1,2.9,0.5,3.4,2.9,3.1C631.1,136.6,630.1,135.6,629.1,134.4z M722,118.9c1.9,1.5,2.7,1.4,4-0.3
		C724.5,118.7,723.2,118.8,722,118.9z M685.9,104.7c-1.6-1.3-2.8-0.4-4.1,0.4c1,0,2,0,3-0.2C685.2,104.9,685.6,104.8,685.9,104.7z
		 M661.4,131.1c-2-0.4-2.7,0-4.3,1.9C658.5,132.4,659.7,131.9,661.4,131.1z M669.4,102.2c-0.8,0.9-1.4,1.6-2.3,2.5
		C669.9,104.3,670.3,103.8,669.4,102.2z M726.4,125c-1.5-0.3-1.7-0.3-3.2,0.7C724.5,126.5,725.4,125.5,726.4,125z M720.6,128
		c-1.4-0.5-2.4-0.5-3.6,0.4C718.4,128.6,719.4,129,720.6,128z M663.3,114.4c-1.2-0.6-1.9-0.7-2.7,0.4
		C661.5,115.2,662.2,115.3,663.3,114.4z M666,131.8c0,1.9,0,1.9,1.6,2C667,133.1,666.6,132.6,666,131.8z M657.5,117.9
		c-1.3-0.4-1.7,0-1.9,1C656.1,118.7,656.6,118.4,657.5,117.9z M650.9,133c0.1,0.1,0.3,0.2,0.4,0.2c0.2-0.4,0.4-0.7,0.5-1.1
		c-0.1-0.1-0.2-0.1-0.4-0.2C651.4,132.3,651.1,132.7,650.9,133z M655.3,134.5c-0.1,0-0.2-0.1-0.3-0.1c-0.1,0.2-0.2,0.4-0.3,0.7
		c0.1,0.1,0.2,0.1,0.4,0.2C655.1,134.9,655.2,134.7,655.3,134.5z M657.3,130.3c-0.1,0.1-0.2,0.1-0.3,0.2c0,0,0.1,0.1,0.1,0.2
		c0.1-0.1,0.2-0.2,0.3-0.2C657.4,130.4,657.3,130.3,657.3,130.3z M632.3,131.6c0.1-0.1,0.3-0.1,0.4-0.2c0-0.1,0-0.2-0.1-0.3
		c-0.2,0.1-0.3,0.2-0.5,0.3C632.2,131.4,632.2,131.5,632.3,131.6z M680.3,98.8c-0.1-0.1-0.2-0.1-0.3-0.2c0,0-0.2,0.1-0.2,0.1
		c0,0.1,0.1,0.2,0.2,0.3C680.1,99,680.2,98.9,680.3,98.8z"/>
	<path d="M239.6,190.1c-2,0.1-3.8,0.7-5.9,0.3c-4.3-0.8-8.8-1.1-13.2-1.7c-1-0.1-2.1-0.4-2.9-0.8c-3.7-2-7.3-4.1-10.9-6.2
		c-1.4-0.8-2.8-1.2-4.4-1.5c-4.4-0.6-8.7-1.5-13.1-2.3c-0.8-0.2-1.7-0.3-2.6-0.3c-7.5,0.1-15,0.1-22.5,0.3c-5.7,0.1-11.4-0.2-17-1.5
		c-2.8-0.7-5.7-1.1-8.6-1.5c-7.5-1-15-2.5-22.3-4.6c-6.6-1.9-13.3-2.2-20.2-2.1c-6.7,0.1-13.2,1.1-19.7,2.5
		c-2.8,0.6-5.5,1.5-7.8,3.2c-0.9,0.6-1.7,1.3-3,0.9c-0.5-0.2-1.2,0.3-1.8,0.5c-2.7,0.9-5.4,1.9-8.1,2.8c-1.3,0.4-2.5,0.5-3.9,0.5
		c-1.4,0-2.9,0.8-4.1,1.5c-2.6,1.4-5,2.9-7.1,5c-0.3,0.3-0.7,0.7-1.2,0.8c-2.4,0.4-4.3,1.9-6.4,3.1c-1.3,0.7-2.5,1.7-4.2,1.2
		c-0.4-0.1-0.9,0.2-1.3,0.5c-0.5,0.3-1.1,0.7-1.5,1.1c-2.4,2.4-5.6,3.7-7.9,6.4c-0.4,0.5-1.2,0.6-2,1c-1,2-2,4.2-3.1,6.4
		c-0.1,0.3-0.4,0.6-0.4,0.8c-0.2,2-1.5,3.4-2.9,4.8c-2,0.1-3.1-1.3-4-2.8c-1-1.6-1.8-3.3-0.9-5.5c1.3,1,1.4,2.4,1.9,3.6
		c0.6,1.4,1.6,2.1,3.1,1.8c0.9-2.4,1.9-4.7,2.7-7.1c0.2-0.5-0.1-1.2-0.2-2c0.2-0.2,0.6-0.7,1-0.9c3.7-1.6,6.5-4.5,9.8-6.6
		c2.4-1.5,4.9-2.8,7.4-4.1c4.5-2.4,9.3-4.2,13.3-7.6c1.8-1.5,4.5-1.9,6.8-2.6c5.8-1.9,11.6-3.7,17.4-5.6c0.8-0.3,1.5-1.1,2.3-1.6
		c1-0.6,2-1.2,3.2-1.5c5-1.3,10.1-2.2,15.2-2.2c5.3,0,10.6,0.4,15.9,0.6c10.7,0.4,21.1,2.7,31.7,4.2c6.5,0.9,13,2,19.4,3.1
		c4.7,0.8,9.5,0.7,14.2,0.5c7.3-0.3,14.5,0.4,21.7,1.5c3.7,0.6,7.5,0.8,11.3,1.2c0.8,0.1,1.7,0.4,2.4,0.8c3.5,2.1,7,4.3,10.5,6.5
		c2.2,1.4,4.4,2,7.1,2.1c5,0.2,10,1,15.1,1.7c0.6,0.1,1.1,0.4,1.6,0.6C239.7,189.7,239.7,189.9,239.6,190.1z"/>
	<path d="M881.6,172.8c1.6-0.4,3.2-0.7,4.8-1.2c2.1-0.6,3.9,0.1,5.4,1.5c0.6,0.5,0.8,1.4,1.3,2.2c-1.8,1-3.3,1.9-4.7,2.7
		c0.2,0.6,0.3,1,0.4,1.4l0-0.1c-0.2,0.1-0.5,0.1-0.7,0.2c-3.4,0.6-6.8,0.2-10.3,0.8c-4.8,0.8-9.7,1.3-14.5,1.8
		c-0.4,0-0.8-0.1-1.7-0.1c0.7-0.4,1-0.6,1.2-0.7c3.6-0.7,7.1-1.4,10.7-2c1.6-0.3,3.3-0.8,4.9-0.7c1.6,0.1,2.9-0.2,4.4-0.6
		c1.7-0.5,3.3-0.9,5-1.3c1.2-0.3,2.4-0.6,3.4-1.4c-1.1-2.6-1.5-2.8-3.8-2.5c-1.3,0.2-2.5,0.4-3.8,0.5
		C883,173.2,882.3,172.9,881.6,172.8L881.6,172.8z"/>
	<path d="M338.3,166.7c-1.7-6-1-12.2-0.9-18.4c0.1-5,0.9-8.5,2-10.1c0.8,0.7,0.6,1.6,0.5,2.4c-0.2,3.6-0.5,7.2-0.6,10.8
		c-0.1,3.8-0.1,7.6-0.1,11.3c0,1.3-0.2,2.6-0.3,3.9C338.7,166.7,338.5,166.7,338.3,166.7z"/>
	<path d="M290.3,162.3c1.4-0.7,1.5-1.7,1.2-2.9c-0.3-1.6-0.1-3.3,0.6-5.4c0.6,2.8-0.2,5.3,0.8,7.6c7.8,0,15.5,0,23.3,0
		c0.2-1.6,0.3-3.1,0.5-4.6c0.2,0,0.3,0,0.5,0c0.1,1.6,0.3,3.2,0.4,4.9c0.1,1.8-0.1,3.6,0.1,5.4c0.1,1.7,0.4,3.4,0.8,5.1
		c0.3,1.7,0.8,3.4,0.9,5.1c-0.5-1.6-1-3.1-1.3-4.7c-0.4-1.6-0.6-3.3-0.9-4.9c-0.3-1.7-0.4-3.4-0.6-5.1c-2.3-1-16.9-0.7-23.5,0.4
		c-0.1,0.4-0.2,0.8-0.4,1.5c-0.3-0.6-0.4-1-0.7-1.3C291.6,163.1,291.1,162.9,290.3,162.3z"/>
	<path d="M405.5,353.5c1.2,0.5,1.3,1.3,1.6,2c1,2.1,2,4.3,2.8,6.5c1.6,4.1,2.4,8.3,0.7,12.7c-0.4,1.1-0.8,2.1-1.2,3.2
		c-0.2,0-0.3,0-0.5,0c-0.1-0.4-0.4-0.8-0.4-1.1c0.7-4.9,0.9-9.7-0.7-14.5c-0.8-2.3-1.5-4.6-2.2-6.9
		C405.6,354.7,405.6,354.2,405.5,353.5z"/>
	<path d="M401.4,149.9c-0.9,0.2-1.8,0.4-2.8,0.5c-5.7,0.6-11.2,2.1-16.3,4.8c-4.9,2.6-10.2,3.9-15.6,4.6c-0.2,0-0.5,0.1-0.7,0
		c-0.1,0-0.3-0.1-0.6-0.2c0.4-0.2,0.7-0.5,0.9-0.6c4.8-0.5,9.2-2.2,13.5-4.3c6.4-3,13.1-4.6,20-5.6c0.5-0.1,1,0.1,1.5,0.2
		C401.4,149.6,401.4,149.8,401.4,149.9z"/>
	<path d="M244.8,157.5c-0.9,0.6-1.8,1.6-2.8,1.9c-2.1,0.6-4.3,0.8-6.5,1.1c-1.6,0.2-3.3,0.3-4.9,0.4c-2.5,0.2-5,0.4-7.6,0.5
		c-0.7,0-1.4-0.3-2.2-0.4c0-0.2,0-0.4,0-0.6c0.6-0.1,1.1-0.2,1.7-0.2c1.9,0,3.8,0,5.7-0.1c2.2-0.1,4.2-0.5,6.4-1.3
		C237.8,157.5,241.3,157.1,244.8,157.5L244.8,157.5z"/>
	<path d="M358.5,154.7c-1.7-1.5-9.5-18.1-9.7-20.6c1-0.3,1.2,0.5,1.5,1.1c1,2.1,2,4.3,3,6.4c1.7,4,3.5,7.9,5.2,11.9
		C358.6,153.8,358.5,154.2,358.5,154.7z"/>
	<path d="M355.9,196.3c7.3,4.3,14.5,8.6,21.8,12.9C369.7,206.2,362.1,202.4,355.9,196.3z"/>
	<path d="M255.1,189.3c-0.6,0.3-1,0.6-1.1,0.5c-1.6-0.9-3.3-1.6-4.6-2.8c-2.4-2.2-4-4.9-4.2-8.6c1.6,0.3,2.1,1.3,2.7,2.2
		c0.9,1.3,1.7,2.7,2.4,4.1c0.8,1.4,1.8,2.6,3.3,3.3C254.1,188.3,254.4,188.7,255.1,189.3z"/>
	<path d="M66.7,148c-2.7,0.8-5.1,0-7.6-0.6c-2.7-0.7-3.3-0.5-4.8,2c-0.4,0.7-0.9,1.4-1.4,2.1c-0.1,0.1-0.3,0.1-0.5,0.2
		c-0.8-0.7-0.3-1.4,0.1-2c0.5-0.9,1.7-1.4,1.5-2.7c0-0.2,0.5-0.6,0.9-0.7c1.6-0.7,3.2-1.3,5-0.6c1.8,0.7,3.7,1.1,5.6,1.7
		C65.9,147.5,66.3,147.8,66.7,148z"/>
	<path d="M395.1,121c1.1-0.2,1.7-0.4,2.2-0.3c3.7,0.6,7.2,1.6,9.4,5.1c1.5,2.5,4.2,3.2,6.8,4c0.9,0.3,1.7,0.5,2.7,0.8
		c-0.3,0.4-0.4,0.6-0.5,0.6c-4.1-0.6-7.9-1.7-10.3-5.4c-0.9-1.4-2.2-2.2-3.7-2.8C399.7,122.4,397.7,121.8,395.1,121z"/>
	<path d="M422.8,479.8c-1,0.3-1.7,0.5-2.3,0.7c-1.6,0.6-3,1-2.9,3.3c0.1,1.9-2.8,3.8-5.1,3.6c-0.2-1.6,0.6-2.7,1.9-3.4
		c1-0.6,1.8-1.2,2.3-2.5c0.6-1.7,3.3-2.9,5.2-2.6C422.1,478.9,422.2,479.2,422.8,479.8z"/>
	<path d="M387.3,219.3c2.2,1.1,4.4,2.1,6.5,3.3c4.9,2.6,9.7,5.2,14.6,7.9c0.8,0.4,1.4,1.2,2.1,1.8l0.1-0.1c-0.8-0.3-1.6-0.6-2.4-1
		c-6.4-3.5-12.7-6.9-19.1-10.4C388.4,220.3,387.9,219.7,387.3,219.3L387.3,219.3z"/>
	<path d="M398.2,495.9c0-0.6-0.1-1.3-0.1-1.9c0.2-1.6,0.5-3.3,0.8-4.9c0.3-1.6,0.4-3.2-0.3-4.9c-0.4-1.1-0.4-2.4-0.6-4.1
		c1.5,0.8,1.8,1.8,1.6,2.9c-0.3,1.5,0.1,2.9,0.4,4.4c0.5,2.3,0.4,4.5-0.2,6.8c-0.2,0.6-0.5,1.2-0.8,1.8
		C398.8,496,398.5,496,398.2,495.9z"/>
	<path d="M358.9,160c-1.4,0.3-2.9,0.5-4.6,0.8c-0.1,1.6-0.2,3.2-0.4,4.8c-0.1,0-0.2,0-0.3,0c-0.3-1.5-0.5-3-0.8-4.8
		c-1.4,0.1-2.7,0.2-4,0.3c-1.2,0-2.5,0-3.7-0.1c2.4-0.3,4.8-0.7,7.2-1c0.1,0,0.3-0.2,0.7-0.5c0-1.6,0-3.4,0-5.3c0.2,0,0.4,0,0.6-0.1
		c1.2,1.6,0,3.5,0.7,5.3C355.8,160.4,357.4,159.2,358.9,160z"/>
	<path d="M343.8,133.5c0.6,0.8,1.1,1.1,1.2,1.6c0.8,3.8,1.5,7.5,1.5,11.5C345.1,145.1,343.3,136.7,343.8,133.5z"/>
	<path d="M413.3,225.4c-2.1-0.8-4.3-1.5-6.4-2.3c-3.7-1.4-7.3-2.9-11-4.4c-0.3-0.1-0.5-0.3-1-0.8c0.7-0.1,1.2-0.3,1.5-0.2
		c1.6,0.6,3.3,1.2,4.8,1.9c3.6,1.6,7.2,3.3,10.8,4.9C412.5,224.8,412.8,225.2,413.3,225.4L413.3,225.4z"/>
	<path d="M408.2,138.1c3.1-1.8,9.5-1.7,12.2,0.3c-0.6,0.2-1,0.6-1.4,0.6C415.6,138.8,412.1,138.4,408.2,138.1z"/>
	<path d="M411.8,151.8c2.1-2,4.2-0.9,6.1-0.9c2,0,3.7,0.7,5.3,2.5C419.2,152.9,415.6,152.4,411.8,151.8z"/>
	<path d="M182.4,169.6c0.7-0.2,1.5-0.3,2.2-0.5c1.7-0.4,3.5-0.8,5.2-1.4c0.7-0.2,1.3-0.7,1.9-1.2c1.1-0.9,2.3-1.5,4.2-1.9
		c-3.8,3.6-7.6,5.8-12.4,6c-0.4,0-0.8-0.3-1.2-0.4C182.4,170,182.4,169.8,182.4,169.6z"/>
	<path d="M406.9,390.7c0.1-3.3,0.6-6.5,1.9-9.5c0.2,0,0.4,0,0.6,0.1c0.2,0.4,0.6,0.8,0.5,1.2C409.4,385.3,408.8,388.2,406.9,390.7z"
		/>
	<path d="M394.4,266.2c-1.2-0.7-2.5-1.3-3.7-2c-3.8-2.4-7.4-5-10.1-8.7c-0.1-0.2-0.2-0.4-0.4-0.8c0.4,0.1,0.6,0.1,0.7,0.3
		c3.3,4.1,7.6,7,11.9,9.9C393.4,265.3,393.8,265.8,394.4,266.2L394.4,266.2z"/>
	<path d="M421.2,466.4c-2.2-1.3-4.1-6.3-4-9.9C418.3,457.7,421,464.2,421.2,466.4z"/>
	<path d="M382.8,241.3c3.8,3.5,7.6,7,11.4,10.5C391.3,251,384.9,245.3,382.8,241.3z"/>
	<path d="M393.1,303.7c-0.2,2.8-0.4,5.6-0.7,8.4c-0.1,1-0.2,1-1.8,0.8c0.3-3.2,0.8-6.3,1.9-9.3C392.7,303.7,392.9,303.7,393.1,303.7
		z"/>
	<path d="M393.1,344.3c-1-1.6-1.8-2.7-2.5-3.9c-0.1-0.2-0.3-0.5-0.2-0.7c0.8-2.1-0.4-4.1-0.1-6.7c0.4,0.7,0.7,0.9,0.8,1.3
		c0.1,0.8,0.2,1.6,0.2,2.3c0,1.5,0.4,2.8,1.4,3.9C393.4,341.5,393.6,342.6,393.1,344.3z"/>
	<path d="M183.3,143.2c4-0.1,7.9,0.7,11.8,1.7c0.5,0.1,0.9,0.5,1.4,0.8c-0.3,0.2-0.4,0.4-0.5,0.4
		C191.7,145.1,187.5,144.2,183.3,143.2z"/>
	<path d="M305.5,179.9c1.5,3.6,2.9,7,4.3,10.5c-1.3-1-3.9-5.5-4.5-7.7C305,181.8,304.7,180.9,305.5,179.9z"/>
	<path d="M89.2,148.5c-1.5,0.8-3,1.3-4.7,0.9c-0.7-0.1-1.4-0.1-2.1,0c-1.7,0.2-3.2,0-4.7-1.3C81.7,148.2,85.5,148.4,89.2,148.5
		L89.2,148.5z"/>
	<path d="M424.9,512.7c3.9,0,7.8,0,11.5,0c-1.4,1-4.8,1.2-11.5,0.5C424.8,513.1,424.8,512.9,424.9,512.7z"/>
	<path d="M379.2,252.2c0.3-3.8,0.6-7.1,0.9-10.5c0.1,0,0.3,0,0.4,0c0.1,1.2,0.2,2.3,0.2,3.5c0,1.3,0.1,2.5-0.1,3.8
		C380.5,250,381.3,251.5,379.2,252.2z"/>
	<path d="M295.7,194.7c-1.4-3.3-2.9-6.6-3.5-10.1c0.2-0.1,0.4-0.1,0.6-0.2c1.2,3.4,2.3,6.7,3.5,10.1
		C296.1,194.5,295.9,194.6,295.7,194.7z"/>
	<path d="M411.5,211.5c3.5,0.5,7,1.1,10.5,1.6c0,0.2-0.1,0.4-0.1,0.6c-3.6,0.1-7-0.7-10.5-1.6C411.5,211.9,411.5,211.7,411.5,211.5z
		"/>
	<path d="M205.5,168c-1.9,1.9-4.1,2.9-7.3,3.5C199.9,169.9,203.6,168.1,205.5,168z"/>
	<path d="M386.7,214.7c-3.9,0.5-6.6-0.1-7.9-1.5c0.1-0.1,0.3-0.3,0.4-0.3C381.7,213.5,384.2,214.1,386.7,214.7z"/>
	<path d="M415.3,310.4c0.6,3.5,0.5,4.3-0.7,5.6C414.2,313.9,414.3,312.1,415.3,310.4z"/>
	<path d="M413.3,325.7c-1.2-1.8-1-3.7-0.4-6.1C414,321.9,414,323.8,413.3,325.7z"/>
	<path d="M228.4,187.2c-1.6-1.8-1.6-1.8-2.2-7C227.5,182.5,228.3,185.1,228.4,187.2z"/>
	<path d="M358.7,136.1c-1-1.1-2-2.1-3-3.2c-0.2-0.2-0.2-0.7-0.2-1c0.4,0,1-0.2,1.2-0.1C357.9,132.9,358.6,134.4,358.7,136.1z"/>
	<path d="M389.1,319.3c-0.3-1.9,0.2-3.6,1.1-5.2C390.3,315.9,390.2,317.7,389.1,319.3z"/>
	<path d="M32.3,174.7c-0.3,2-1.8,3.4-2.9,5.2C29.2,178,30.1,176.4,32.3,174.7L32.3,174.7z"/>
	<path d="M369.4,221.8c1.6,1.4,2.6,3.2,3.7,5.1C371.4,226,370.1,224.3,369.4,221.8z"/>
	<path d="M216.8,182.5c-1.2-1.4-1.1-2.3,0.4-4.1C217.6,180.4,217.5,181.1,216.8,182.5z"/>
	<path d="M89.3,148.6c2.5-0.7,5-0.8,7.6-0.8C94.4,149.2,91.8,148.3,89.3,148.6L89.3,148.6z"/>
	<path d="M244.9,157.6c1.7-1.6,4-1.8,6.1-2.1C249.1,156.5,247.1,157.6,244.9,157.6L244.9,157.6z"/>
	<path d="M244,176.9c-2,0.1-2.9-1.1-4.3-2.5C241.9,174.7,243.2,175.2,244,176.9z"/>
	<path d="M433,505c-0.8-1.4,0.1-2.5,0.5-3.7C434.6,502.9,434.4,503.7,433,505z"/>
	<path d="M323.8,140.5c-0.9,1.2-1.7,2.4-2.6,3.6c0-1.8,0.5-3.3,2-4C323.5,140.2,323.7,140.3,323.8,140.5z"/>
	<path d="M376.7,219.8c1.5,1.3,3.1,2.5,2.8,4.9c-0.4-0.8-0.9-1.7-1.3-2.5C377.8,221.4,377.3,220.6,376.7,219.8L376.7,219.8z"/>
	<path d="M406.2,395.7c0.2,2-0.3,3.5-1.8,5C404.5,398.7,404.9,397.2,406.2,395.7z"/>
	<path d="M417.2,509.4c-1.5,0.3-3,0.5-4.4,0.8c1.3-1.3,2.8-1.4,4.4-1.4C417.2,509,417.2,509.2,417.2,509.4z"/>
	<path d="M434.7,499.3c-0.4-1.4,0.2-2.4,0.7-3.6C436.3,497.5,436.1,498.1,434.7,499.3z"/>
	<path d="M416.2,452c-1.2-1.2-0.8-2.4-0.8-3.5C416.5,449.4,416.5,449.5,416.2,452z"/>
	<path d="M40.5,155.1c1.7-1,1.7-1,3.5-0.5C43,155.6,42,155.8,40.5,155.1z"/>
	<path d="M388.4,241.3c-1.5-0.3-2.6-1-3.7-2.7C386.6,239.1,387.5,240.2,388.4,241.3z"/>
	<path d="M69.9,147.5c1.4,0.4,2.8,0.7,4.7,1.3c-2.2,0.3-3.6,0.2-4.9-0.8C69.8,147.8,69.9,147.7,69.9,147.5z"/>
	<path d="M403.4,352c-1.7-1.2-1.5-2.9-2-4.3C402.3,348.9,403.2,350.1,403.4,352z"/>
	<path d="M416.9,502.7c0.7-1.1,1.1-1.8,2.2-2.1C418.5,502.7,418.5,502.7,416.9,502.7z"/>
	<path d="M355.9,135c-1.8,0.2-1.9,0.1-2.4-2.5C354.6,133.6,355.3,134.3,355.9,135z"/>
	<path d="M36.2,156.9c-1.1,0.9-2.2,1.4-3.8,1.1C33.9,157,33.9,157,36.2,156.9z"/>
	<path d="M225.7,170c1.3-0.3,2,0.1,2.2,1.5C226.7,171.6,226.1,171.1,225.7,170z"/>
	<path d="M35.5,168.8c0.4-1.5,1.3-1.7,2.4-1.6C37.1,168.4,37.1,168.4,35.5,168.8z"/>
	<path d="M405.3,491.3c0.5-0.6,1-1.2,1.6-1.9C407.5,491,407.5,491,405.3,491.3z"/>
	<path d="M414.5,443.2c0.3,0.8,0.5,1.7,0.8,2.5c-0.2,0.1-0.4,0.1-0.6,0.2c-0.3-0.9-0.5-1.8-0.8-2.7
		C414,443.2,414.2,443.2,414.5,443.2z"/>
	<path d="M418.1,306.5c0-1,0.1-2.1,0.1-3.1C419.2,304.5,418.6,305.5,418.1,306.5z"/>
	<path d="M16.7,185.4c0.6-0.9,1.3-1.8,1.9-2.7c0.1,1.3-0.8,2.1-1.4,2.9C17,185.6,16.9,185.5,16.7,185.4z"/>
	<path d="M205.7,154.5c0.7-0.6,1.4-1.1,2.1-1.7c0.1,0.2,0.2,0.3,0.4,0.5c-0.7,0.6-1.4,1.1-2.1,1.7
		C205.9,154.8,205.8,154.7,205.7,154.5z"/>
	<path d="M379.6,263.5c0,1.3,0,2.6,0,3.9c-0.1,0-0.2,0-0.2,0c0-0.7-0.1-1.3-0.1-2c0-0.7,0-1.4,0-2.1
		C379.3,263.5,379.4,263.5,379.6,263.5z"/>
	<path d="M178.6,142.4c-0.9-0.3-1.7-0.7-2.6-1C177.1,141,178,141.1,178.6,142.4z"/>
	<path d="M40.4,165.5c0.4-1.3,0.4-1.3,1.7-1.1C41.9,165.3,41.3,165.6,40.4,165.5z"/>
	<path d="M238.3,174.2c-0.7-0.3-1.3-0.6-2-0.9c0.1-0.1,0.1-0.3,0.2-0.4c0.7,0.3,1.4,0.5,2.2,0.8C238.5,173.9,238.4,174,238.3,174.2z
		"/>
	<path d="M262.9,151.5c0.7-0.1,1.3-0.2,2-0.3c0,0.2,0,0.4,0.1,0.5c-0.7,0.1-1.4,0.1-2,0.2C263,151.8,263,151.6,262.9,151.5z"/>
	<path d="M394.3,295.8c0.1,0.7,0.3,1.3,0.5,2.2C393.9,297.1,393.9,297.1,394.3,295.8z"/>
	<path d="M395.1,291c-0.1-0.7-0.2-1.4-0.2-2.1c0.1,0,0.3,0,0.4-0.1c0.1,0.7,0.3,1.4,0.4,2.1C395.5,290.9,395.3,290.9,395.1,291z"/>
	<path d="M231.8,171.2c-0.5-0.2-0.9-0.5-1.6-0.8c0.4-0.2,0.6-0.4,0.7-0.3c0.4,0.2,0.8,0.5,1.1,0.8
		C231.9,171,231.9,171.1,231.8,171.2z"/>
	<path d="M203.2,157.8c-0.5,0.5-1,1-1.5,1.4c-0.1-1,0.5-1.5,1.2-1.8C202.9,157.6,203,157.7,203.2,157.8z"/>
	<path d="M42.1,137.8c0.4,0.1,0.8,0.2,1.2,0.2c0,0.1,0,0.2,0,0.3c-0.4,0-0.8,0-1.2,0C42.1,138.2,42.1,138,42.1,137.8z"/>
	<path d="M32.4,174.7c0.3-0.7,0.6-1.4,0.8-2.1C33.4,173.6,33.2,174.3,32.4,174.7L32.4,174.7z"/>
	<path d="M422.8,504.8c-0.3,0.3-0.5,0.5-0.6,0.5c-0.2,0-0.5-0.2-0.7-0.3c0.1-0.2,0.2-0.4,0.4-0.5
		C422.1,504.5,422.3,504.7,422.8,504.8z"/>
	<path d="M414.1,505.1c0.9-0.2,1.4-0.3,2.3-0.5C415.7,505.7,415.2,505.5,414.1,505.1z"/>
	<path d="M381,233.5c0,0.6,0,1.2,0,1.8c-0.1,0-0.1,0-0.2,0c0-0.6,0-1.2,0-1.8C380.9,233.5,380.9,233.5,381,233.5z"/>
	<path d="M254.6,154.3c0.4-0.2,0.9-0.3,1.3-0.5c0,0.1,0.1,0.2,0.1,0.3c-0.4,0.2-0.9,0.3-1.3,0.5
		C254.7,154.5,254.6,154.4,254.6,154.3z"/>
	<path d="M198.7,162c-0.3,0.2-0.5,0.5-1,0.9c0.4-0.6,0.6-1,0.7-1.3C198.5,161.8,198.6,161.9,198.7,162z"/>
	<path d="M402.5,404.8c0.2-0.2,0.3-0.5,0.5-0.7c0.1,0.1,0.2,0.1,0.3,0.2c-0.1,0.3-0.3,0.5-0.4,0.8
		C402.7,405,402.6,404.9,402.5,404.8z"/>
	<path d="M214.9,162.2c-0.5,0-0.9,0.1-1.4,0.1c0-0.1,0-0.3,0-0.4c0.5,0,0.9-0.1,1.4-0.1C214.9,162,214.9,162.1,214.9,162.2z"/>
	<path d="M406.8,512.3c-0.3,0-0.5,0-0.8,0c0-0.1,0-0.2,0-0.3c0.3-0.1,0.5-0.1,0.8-0.2C406.8,512,406.8,512.2,406.8,512.3z"/>
	<path d="M413.3,506.3c0.2,0.1,0.3,0.2,0.4,0.3c-0.1,0.2-0.2,0.3-0.3,0.5c-0.1-0.1-0.3-0.2-0.3-0.2
		C413.1,506.7,413.3,506.5,413.3,506.3z"/>
	<path d="M374.9,217c0.3,0.2,0.6,0.5,1,0.7c-0.1,0.1-0.2,0.2-0.3,0.2C375.3,217.6,375.1,217.3,374.9,217L374.9,217z"/>
	<path d="M394.3,266.3c0.4,0.2,0.8,0.3,1.2,0.5c-0.1,0.1-0.1,0.2-0.2,0.3C395,266.8,394.7,266.5,394.3,266.3L394.3,266.3z"/>
	<path d="M272.5,150.8c-0.4,0-0.7,0-1.1,0c0-0.1,0-0.2,0-0.2c0.4-0.1,0.7-0.1,1.1-0.2C272.5,150.6,272.5,150.7,272.5,150.8z"/>
	<path d="M426.4,505.9c-0.1,0-0.3,0-0.4,0c0,0,0-0.2,0-0.3c0,0,0.2,0,0.2,0C426.3,505.6,426.4,505.8,426.4,505.9z"/>
	<path d="M319.5,162.6C319.8,162.6,319.6,162.6,319.5,162.6C319.6,162.6,319.8,162.6,319.5,162.6z"/>
	<polygon points="21.2,188.4 21.2,188.5 21.1,188.4 	"/>
	<path d="M374.9,216.9c-0.1-0.2-0.2-0.3-0.3-0.5C374.7,216.6,374.8,216.8,374.9,216.9L374.9,216.9z"/>
	<path d="M386.3,218.8C386.1,218.7,386,218.7,386.3,218.8C386.1,218.5,386.2,218.7,386.3,218.8L386.3,218.8z"/>
	<path d="M376.8,219.8c-0.1-0.2-0.2-0.4-0.3-0.5C376.6,219.4,376.7,219.6,376.8,219.8L376.8,219.8z"/>
	<path d="M386.2,218.8c0.4,0.1,0.7,0.3,1.1,0.4l0.1-0.1C387,219.1,386.6,218.9,386.2,218.8L386.2,218.8z"/>
	<path d="M413.3,225.5c0.2,0,0.4,0.1,0.2,0C413.6,225.6,413.5,225.5,413.3,225.5L413.3,225.5z"/>
	<path d="M410.4,232.1c0.2,0,0.4,0,0.6,0.1C410.8,232.2,410.7,232.1,410.4,232.1L410.4,232.1z"/>
	<polygon points="319.7,146.2 319.6,146.2 319.7,146 	"/>
	<polygon points="379.9,269 379.9,269.2 379.8,269 	"/>
	<path d="M165.3,140.1c0,0.1,0,0.1,0,0.2c-0.1,0-0.2-0.1-0.3-0.1C165.2,140.2,165.2,140.1,165.3,140.1z"/>
	<polygon points="413,437.1 413.1,437 413.1,437.2 	"/>
	<path d="M530.1,175.5c-0.6,0.1-1.3,0.4-1.9,0.4c-2.3,0.1-4.6,0.3-6.9,0.3c-10.6,0-21.2-0.1-31.8-0.3c-3.8-0.1-7.5-0.6-11.3-0.9
		c-1.2-0.1-2.4,0-3.5-0.3c18.4,0,36.9,0,55.3,0C530,175,530,175.3,530.1,175.5z"/>
	<path d="M427.7,170.1c1.2-0.8,2.2-0.6,3.2-0.5c7.6,0.8,15.2,1.6,22.9,2.3c3.7,0.3,7.4,0.3,11.1,0.4c0.6,0,1.1,0.2,2.2,0.3
		C462.7,174.2,433.4,172.1,427.7,170.1z"/>
	<path d="M736.1,172.9c-1.6,0.6-3.1,2.4-5,0.2c-2.3,1.3-4.8,2-6.8,3.8c-1.1,1-2.5,1.3-4,1.2c-1-0.1-1.9-0.3-2.3-1.7
		c0.5-0.2,1.1-0.6,1.6-0.6c2,0,3.5-0.7,4.8-2.2c0.8-0.9,1.7-1.3,2.9-1.2c1.5,0.1,3-0.4,4.4,0.2c0.4,0.2,0.9-0.2,1.3-0.2
		c1-0.1,2-0.2,3-0.2C736.1,172.4,736.1,172.6,736.1,172.9z"/>
	<path d="M502.4,215.5c-4.6-9.9-6.3-20.4-5.8-31.2C497,195,499.7,205.2,502.4,215.5z"/>
	<path d="M610.3,160.3c1.7-0.4,9.4,0.4,13.7,1.4c-4.2,0.9-7.9,0.4-11.7-0.1C611.4,161.4,611.4,161.4,610.3,160.3z"/>
	<path d="M673.4,174.2c-2.3,1.4-4.7,2.3-7.3,2.8c-0.4,0.1-0.8,0.1-1.1-0.1c-0.3-0.1-0.6-0.5-0.7-0.8c0-0.3,0.3-0.7,0.5-0.9
		c0.1-0.2,0.4-0.2,0.6-0.3c2.6-0.4,5.2-0.8,7.9-1.2C673.3,173.8,673.3,174,673.4,174.2z"/>
	<path d="M545.8,175.5c5.1-0.9,10.2-1.8,15.6-2.3c-1.1,1.1-1.1,1.1-5.2,1.7c-1.7,0.2-3.4,0.5-5.2,0.6
		C549.3,175.6,547.5,175.5,545.8,175.5z"/>
	<path d="M733.2,187c-3,0.9-5.9,1.8-8.7-0.4c-0.6-0.5-1.5-0.6-2.8-1c2.4-0.3,4.1-0.7,5.9,0.5c0.8,0.5,2,0.5,3,0.6
		C731.4,186.9,732.3,187,733.2,187z"/>
	<path d="M712.5,194.9c-0.7-3.5,0.7-6.5,3.1-6.8C715.3,190.8,713.4,192.7,712.5,194.9z"/>
	<path d="M567.9,128.6c1.4,1.6,2,5,1.5,8.1C568.4,135.4,567.5,131.1,567.9,128.6z"/>
	<path d="M615.4,133.7c-0.6-2.2,0.6-4.7,2.8-5.8C618.2,129.2,617.2,131.4,615.4,133.7z"/>
	<path d="M823.6,190c-1.6,1.3-4.2,1.6-7.6,0.8C818.8,190,821.2,190.2,823.6,190z"/>
	<path d="M859.2,176.2c-1,0.9-4.6,1.8-6.3,1.5c0.3-0.9,1.2-1.3,1.9-1.1C856.2,176.9,857.5,175.1,859.2,176.2z"/>
	<path d="M826,183.1c1-2.3,2.9-3,4.4-4.8C830.1,180.8,828.3,182.7,826,183.1z"/>
	<path d="M605.3,179.1c-1.6,0.3-1.9,0.1-4.3-2.7C602.6,176.6,604.3,177.7,605.3,179.1z"/>
	<path d="M772,187.6c-2.3-0.4-4.2-0.8-6.4-1.2C767.6,185.3,769.3,185.6,772,187.6z"/>
	<path d="M605.7,127.8c1.7,1.3,1.7,1.9,0.3,3.5C604.6,130.4,604.6,129.9,605.7,127.8z"/>
	<path d="M824.2,200.9c-1.2,1.5-2.6,1.8-5,1.1C821,201.3,822.4,200.5,824.2,200.9z"/>
	<path d="M630.3,161c-1.7,1.1-3.1,1.8-5.1,0.9C626.8,160.7,628.3,160.7,630.3,161z"/>
	<path d="M659.6,175.7c1.4-0.6,2.7-0.9,4.2,0.5C662.1,176.9,660.8,176.4,659.6,175.7z"/>
	<path d="M679.4,171c-1.2,2.2-1.6,2.4-3.3,1.4C676.9,171.3,678,171.2,679.4,171z"/>
	<path d="M464.1,185.6c0,3,0,5.9,0,8.9c-0.1,0-0.2,0-0.4,0c0-2.7,0-5.4,0-8C463.8,186.2,464.1,185.9,464.1,185.6L464.1,185.6z"/>
	<path d="M827.4,201.5c0.5-1.9,1.9-2,2.9-2.7C829.8,200.1,829.1,201,827.4,201.5z"/>
	<path d="M759.7,186.6c-0.8,0.1-1.6,0.2-2.7,0.3C758,185.6,758,185.6,759.7,186.6z"/>
	<path d="M747.6,174.5c-0.7-0.1-1.3-0.1-2.4-0.3C746.4,173.2,747.1,173.2,747.6,174.5z"/>
	<path d="M747.8,186.6c0.9,0,1.7,0,2.6,0C749,187.6,749,187.6,747.8,186.6z"/>
	<path d="M574.3,129.3c-0.8-0.7-1.6-1.3-2.3-2c0.1-0.1,0.1-0.1,0.2-0.2C572.9,127.8,573.7,128.5,574.3,129.3
		C574.4,129.3,574.3,129.3,574.3,129.3z"/>
	<path d="M596.7,172.9c1,0.5,1.6,0.9,2.3,1.2C597.8,175.1,597.8,175.1,596.7,172.9z"/>
	<path d="M605.5,140.6c-0.8,0.9-1.4,1-2.2,0.3C603.9,140.2,604.5,139.9,605.5,140.6z"/>
	<path d="M851.4,177.8c-0.7,0.9-1.4,0.9-2.5,0.6C849.6,177.5,850.3,177.3,851.4,177.8z"/>
	<path d="M847.1,179.2c-0.9,0.7-0.9,0.7-2.1,0.5C846.1,179,846.1,179,847.1,179.2z"/>
	<path d="M859.3,185c-0.9,0-1.6,0-2.4,0C857.8,184.3,857.8,184.3,859.3,185z"/>
	<path d="M803.8,190.3c0.6-0.1,1.2-0.2,2-0.4C805.4,191.2,804.6,190.6,803.8,190.3z"/>
	<path d="M741.9,187.3c-0.5,0-1,0.1-1.8,0.1C740.7,186.2,741.3,186.4,741.9,187.3z"/>
	<path d="M596.4,140.4c0.5,0,0.9-0.1,1.4-0.1c0,0.2,0.1,0.3,0.1,0.5c-0.5,0.1-0.9,0.2-1.4,0.3C596.4,140.8,596.4,140.6,596.4,140.4z
		"/>
	<path d="M464.2,185.7c0-1,0-1.9,0-2.9c0.1,0,0.3,0,0.4,0C464.5,183.7,464.3,184.7,464.2,185.7L464.2,185.7z"/>
	<path d="M811.1,190.7c-0.8,0.2-1.3,0.4-2.1,0.6C809.6,190.2,810.1,190.2,811.1,190.7z"/>
	<path d="M593,170.9c0.3,0.3,0.6,0.7,1,1C592.6,172.4,592.6,172.4,593,170.9z"/>
	<path d="M741.7,173.1c-0.7,0.2-1.2,0.4-2.1,0.6C740.2,172.5,740.8,172.5,741.7,173.1z"/>
	<path d="M465.5,177.5c0.2-0.5,0.3-1.1,0.5-1.6c0.1,0.1,0.3,0.1,0.4,0.2C466.1,176.5,465.8,177,465.5,177.5L465.5,177.5z"/>
	<path d="M840.7,170.9c-0.3,0.1-0.5,0.3-0.8,0.4c-0.1-0.1-0.1-0.2-0.2-0.3c0.2-0.2,0.5-0.3,0.7-0.5
		C840.6,170.7,840.7,170.8,840.7,170.9z"/>
	<path d="M465,179.4c0.2-0.6,0.3-1.3,0.5-1.9l-0.1-0.1C465.3,178,465.1,178.7,465,179.4L465,179.4z"/>
	<path d="M465,179.3c0,0.5,0,1-0.1,1.5c-0.1,0-0.2,0-0.2,0C464.8,180.3,464.9,179.8,465,179.3L465,179.3z"/>
	<path d="M681.7,170.3c-0.1,0.1-0.1,0.3-0.2,0.3c-0.1,0-0.2-0.1-0.4-0.1c0.1-0.1,0.1-0.3,0.2-0.4
		C681.4,170.1,681.5,170.3,681.7,170.3z"/>
	<path d="M642.2,159.4c-0.3,0.1-0.7,0.2-1,0.3c0-0.1-0.1-0.3-0.1-0.4c0.3-0.1,0.7-0.1,1-0.2C642.1,159.1,642.1,159.2,642.2,159.4z"
		/>
	<path d="M687.1,170.2c-0.1-0.1-0.2-0.2-0.3-0.3c0.1-0.1,0.2-0.1,0.3-0.2c0,0,0.1,0.1,0.1,0.1C687.2,170,687.2,170.1,687.1,170.2z"
		/>
	<path d="M635,160.3c-0.2,0-0.5,0-0.7,0c0-0.1,0-0.1,0-0.2c0.2,0,0.5,0,0.7,0C635,160.2,635,160.2,635,160.3z"/>
	<polygon points="852.8,185.8 852.6,185.8 852.8,185.7 	"/>
	<path d="M575.7,130.3c0,0,0,0.1-0.1,0.1c0-0.1-0.1-0.1-0.1-0.2C575.6,130.2,575.7,130.3,575.7,130.3z"/>
	<path d="M702.7,155.4c-0.8,0-1.5,0.2-1.9,0c-1.5-0.9-3-2.1-4.5-3c-1.5-0.9-3.1-1.6-4.6-2.4c-0.9-0.5-1.7-1-2.7-1.5
		c0.9-1.3,2-1.1,2.9-0.9c1.8,0.4,3.5,0.9,5.2,1.5c0.8,0.3,1.4,0.9,2.1,1.5c0.9,0.7,1.7,1.4,2.9,1.9c0.1,0.4,0.2,0.9,0.3,1.3
		C702.6,154.2,702.6,154.6,702.7,155.4z"/>
</g>
</svg>
