<?xml version="1.0" encoding="utf-8"?>
<!-- Generator: Adobe Illustrator 21.1.0, SVG Export Plug-In . SVG Version: 6.00 Build 0)  -->
<svg version="1.1" xmlns="http://www.w3.org/2000/svg" xmlns:xlink="http://www.w3.org/1999/xlink" x="0px" y="0px"
	 viewBox="0 0 115.5 115.5" style="enable-background:new 0 0 115.5 115.5;" xml:space="preserve">
<style type="text/css">
	.st0{display:none;}
	.st1{display:inline;fill:#FFFFFF;}
	.st2{display:inline;}
	.st3{fill:#DCE4E7;}
	.st4{fill:#3E3E3F;}
	.st5{fill:#5EB4E7;}
	.st6{fill:#0089BA;}
	.st7{fill:#FFFFFF;}
	.st8{fill:#3E3E3F;stroke:#3E3E3F;}
	.st9{fill:#3E3E3F;stroke:#FFFFFF;}
</style>
<g id="Layer_2" class="st0">
	<rect x="-429.6" y="-354.9" class="st1" width="1000" height="800"/>
	<g class="st2">
		<g>
			<rect x="-56.3" y="-27.5" class="st3" width="100" height="100"/>
			<rect x="97.1" y="-27.5" class="st3" width="100" height="100"/>
		</g>
	</g>
</g>
<g id="Layer_4">
	<g>
		<g>
			<g>
				<polygon class="st5" points="44.1,54.9 54.9,50.4 65.7,45.8 88.6,99.9 75.7,99.5 67.1,109.1 				"/>
			</g>
			<g>
				<polygon class="st5" points="48.9,45.8 59.7,50.2 70.6,54.6 48.6,109.1 39.7,99.6 26.8,100.3 				"/>
			</g>
		</g>
		<g>
			<path class="st7" d="M99.4,50c0,2.1-3.9,3.9-4.2,5.9c-0.3,2.1,2.8,5,2.1,6.9c-0.6,2-4.9,2.5-5.8,4.4c-1,1.9,1.1,5.6-0.1,7.3
				c-1.2,1.7-5.4,0.9-6.9,2.3c-1.5,1.5-0.7,5.6-2.3,6.9c-1.7,1.2-5.4-0.8-7.3,0.1c-1.8,0.9-2.4,5.2-4.4,5.8c-2,0.6-4.8-2.5-6.9-2.1
				c-2,0.3-3.8,4.2-5.9,4.2c-2.1,0-3.9-3.9-5.9-4.2c-2.1-0.3-5,2.8-6.9,2.1c-2-0.6-2.5-4.9-4.3-5.8c-1.9-1-5.6,1.1-7.3-0.1
				c-1.7-1.2-0.9-5.4-2.3-6.9c-1.5-1.5-5.6-0.7-6.9-2.3c-1.2-1.7,0.8-5.4-0.1-7.3c-0.9-1.8-5.2-2.4-5.8-4.4c-0.6-2,2.5-4.8,2.1-6.9
				c-0.3-2-4.2-3.8-4.2-5.9c0-2.1,3.8-3.9,4.2-5.9c0.3-2.1-2.8-5-2.1-6.9c0.6-2,4.9-2.5,5.8-4.4c0.9-1.9-1.1-5.6,0.1-7.3
				c1.2-1.7,5.4-0.9,6.9-2.3c1.5-1.5,0.7-5.6,2.3-6.9c1.7-1.2,5.4,0.8,7.3-0.1c1.8-0.9,2.4-5.2,4.4-5.8c2-0.6,4.8,2.5,6.9,2.1
				c2-0.3,3.8-4.2,5.9-4.2c2.1,0,3.9,3.9,5.9,4.2c2.1,0.3,5-2.8,6.9-2.1c2,0.6,2.5,4.9,4.4,5.8c1.9,1,5.6-1.1,7.3,0.1
				c1.7,1.2,0.9,5.4,2.3,6.9c1.5,1.5,5.6,0.7,6.9,2.3c1.2,1.7-0.8,5.4,0.1,7.3c0.9,1.8,5.2,2.4,5.8,4.4c0.6,2-2.5,4.9-2.1,6.9
				C95.5,46.1,99.4,47.9,99.4,50z"/>
			<path class="st4" d="M57.7,93.6c-2,0-3.4-1.5-4.6-2.7c-0.5-0.5-1.3-1.4-1.7-1.5c-0.4,0-1.4,0.5-2.1,0.9c-1.2,0.7-2.5,1.4-3.9,1.4
				c-0.4,0-0.8-0.1-1.2-0.2c-1.9-0.6-2.7-2.4-3.5-4c-0.3-0.6-0.8-1.7-1.1-1.9l0,0c0,0-0.1,0-0.4,0c-0.5,0-1.2,0.1-1.9,0.2
				c-0.8,0.1-1.7,0.3-2.6,0.3c-1.1,0-2-0.3-2.7-0.8c-1.6-1.1-1.8-3.1-2.1-4.9c-0.1-0.7-0.3-1.9-0.5-2.2c-0.3-0.2-1.5-0.4-2.2-0.5
				c-1.7-0.2-3.7-0.5-4.9-2.1c-1.1-1.6-0.8-3.5-0.5-5.3c0.1-0.7,0.3-1.9,0.2-2.3c-0.2-0.3-1.3-0.8-1.9-1.1c-1.6-0.8-3.4-1.6-4-3.5
				c-0.6-1.8,0.3-3.6,1.2-5.1c0.3-0.7,0.9-1.7,0.9-2.1c-0.1-0.3-0.9-1.2-1.5-1.6c-1.3-1.2-2.7-2.6-2.7-4.6c0-2,1.5-3.4,2.7-4.6
				c0.5-0.5,1.4-1.3,1.5-1.7c0-0.4-0.6-1.4-0.9-2.1c-0.8-1.5-1.8-3.3-1.2-5.1c0.6-1.9,2.4-2.7,4-3.5c0.6-0.3,1.7-0.8,1.9-1.1
				c0.1-0.3-0.1-1.5-0.2-2.3c-0.3-1.7-0.7-3.7,0.5-5.3c1.1-1.6,3.1-1.8,4.9-2.1c0.7-0.1,1.9-0.3,2.2-0.5c0.2-0.3,0.4-1.5,0.5-2.2
				c0.2-1.7,0.5-3.7,2.1-4.9c0.7-0.5,1.6-0.8,2.7-0.8c0.9,0,1.7,0.2,2.6,0.3c0.7,0.1,1.4,0.2,1.9,0.2c0.3,0,0.4,0,0.4,0
				c0.3-0.2,0.8-1.3,1.1-1.9c0.8-1.6,1.6-3.4,3.5-4c0.4-0.1,0.8-0.2,1.2-0.2c1.4,0,2.7,0.7,3.9,1.4c0.7,0.4,1.7,0.9,2.1,0.9
				c0.3-0.1,1.2-0.9,1.7-1.5c1.2-1.3,2.6-2.7,4.6-2.7c2,0,3.4,1.5,4.6,2.7c0.5,0.5,1.3,1.4,1.7,1.5c0.4,0,1.4-0.5,2.1-0.9
				C67.3,9,68.6,8.3,70,8.3c0.4,0,0.8,0.1,1.2,0.2c1.9,0.6,2.7,2.4,3.5,4c0.3,0.6,0.8,1.7,1.1,1.9v0c0,0,0.1,0,0.4,0
				c0.5,0,1.2-0.1,1.9-0.2c0.8-0.1,1.7-0.3,2.6-0.3c1.1,0,2,0.3,2.7,0.8c1.6,1.1,1.8,3.1,2.1,4.9c0.1,0.7,0.3,1.9,0.5,2.2
				c0.3,0.2,1.5,0.4,2.2,0.5c1.7,0.2,3.7,0.5,4.9,2.1c1.1,1.6,0.8,3.5,0.5,5.3c-0.1,0.7-0.3,1.9-0.2,2.3c0.2,0.3,1.3,0.8,1.9,1.1
				c1.6,0.8,3.4,1.6,4,3.5c0.6,1.8-0.3,3.6-1.2,5.1c-0.3,0.7-0.9,1.7-0.9,2.1c0.1,0.3,0.9,1.2,1.5,1.7c1.3,1.2,2.7,2.6,2.7,4.6
				c0,2-1.5,3.4-2.7,4.6c-0.5,0.5-1.4,1.3-1.5,1.7c0,0.4,0.5,1.4,0.9,2.1c0.8,1.5,1.8,3.3,1.2,5.1c-0.6,1.9-2.4,2.7-4,3.5
				c-0.6,0.3-1.7,0.8-1.9,1.1c-0.1,0.3,0.1,1.5,0.2,2.3c0.3,1.7,0.7,3.7-0.5,5.3c-1.1,1.6-3.1,1.8-4.9,2.1c-0.7,0.1-1.9,0.3-2.2,0.5
				c-0.2,0.3-0.4,1.5-0.5,2.2c-0.2,1.7-0.5,3.7-2.1,4.9c-0.7,0.5-1.6,0.8-2.7,0.8c-0.9,0-1.7-0.2-2.6-0.3c-0.7-0.1-1.4-0.2-1.9-0.2
				c-0.3,0-0.4,0-0.4,0c-0.3,0.2-0.8,1.3-1.1,1.9c-0.8,1.6-1.6,3.4-3.5,4c-0.4,0.1-0.8,0.2-1.2,0.2h0c-1.4,0-2.7-0.7-3.9-1.4
				c-0.7-0.4-1.7-0.9-2.1-0.9c-0.3,0.1-1.2,0.9-1.7,1.5C61.1,92.2,59.7,93.6,57.7,93.6z M51.5,85.5c0.2,0,0.4,0,0.6,0
				c1.6,0.3,2.8,1.5,3.9,2.6c0.5,0.5,1.3,1.4,1.7,1.5c0.4-0.1,1.2-1,1.7-1.5c1.1-1.1,2.3-2.4,3.9-2.6c0.2,0,0.4,0,0.6,0
				c1.4,0,2.8,0.7,4,1.4c0.7,0.4,1.6,0.9,2,0.9c0.2-0.2,0.8-1.3,1.1-1.9c0.7-1.4,1.4-3,2.9-3.7c0.6-0.3,1.4-0.5,2.2-0.5
				c0.9,0,1.7,0.2,2.6,0.3c0.7,0.1,1.4,0.2,1.9,0.2c0.3,0,0.4,0,0.4,0c0.2-0.2,0.3-1.4,0.4-2.2c0.2-1.5,0.5-3.3,1.6-4.5
				c1.2-1.2,2.9-1.4,4.5-1.6c0.7-0.1,1.9-0.3,2.2-0.5c0.1-0.3-0.1-1.5-0.2-2.2c-0.3-1.5-0.6-3.3,0.2-4.8c0.8-1.5,2.3-2.2,3.7-2.9
				c0.7-0.3,1.8-0.9,2-1.2c0-0.3-0.6-1.3-0.9-2c-0.7-1.4-1.6-3-1.3-4.6c0.3-1.6,1.5-2.8,2.6-3.9c0.5-0.5,1.4-1.4,1.5-1.7
				c-0.1-0.3-1-1.2-1.5-1.7c-1.1-1.1-2.4-2.3-2.6-3.9c-0.3-1.7,0.6-3.2,1.3-4.6c0.3-0.6,0.9-1.7,0.9-2.1c-0.2-0.2-1.3-0.8-1.9-1.1
				c-1.4-0.7-3-1.4-3.7-2.9c-0.8-1.5-0.5-3.2-0.2-4.8c0.1-0.7,0.3-1.9,0.2-2.2c-0.2-0.2-1.4-0.3-2.2-0.4c-1.5-0.2-3.3-0.5-4.5-1.6
				c-1.2-1.2-1.4-2.9-1.6-4.5c-0.1-0.7-0.3-1.9-0.5-2.2c0,0-0.1,0-0.3,0c-0.5,0-1.2,0.1-1.9,0.2c-0.8,0.1-1.7,0.3-2.6,0.3
				c-0.9,0-1.6-0.2-2.2-0.5c-1.5-0.8-2.2-2.3-2.9-3.7c-0.3-0.7-0.9-1.8-1.2-2c-0.3,0-1.3,0.6-2,0.9c-1.3,0.7-2.6,1.4-4,1.4
				c-0.2,0-0.4,0-0.6,0c-1.6-0.3-2.8-1.5-3.9-2.6c-0.5-0.5-1.4-1.4-1.7-1.5c-0.3,0.1-1.2,1-1.7,1.5c-1.1,1.1-2.3,2.4-3.9,2.6
				c-1.6,0.3-3.2-0.6-4.6-1.3c-0.7-0.4-1.6-0.9-2-0.9c-0.2,0.2-0.8,1.3-1.1,1.9c-0.7,1.4-1.4,3-2.9,3.7c-0.6,0.3-1.4,0.5-2.2,0.5
				c-0.9,0-1.7-0.2-2.6-0.3c-0.7-0.1-1.4-0.2-1.9-0.2c-0.3,0-0.4,0-0.4,0c-0.2,0.2-0.3,1.4-0.4,2.2c-0.2,1.5-0.5,3.3-1.6,4.5
				c-1.2,1.2-2.9,1.4-4.5,1.6c-0.7,0.1-1.9,0.3-2.2,0.5c-0.1,0.3,0.1,1.5,0.3,2.2c0.3,1.5,0.6,3.3-0.2,4.8c-0.8,1.5-2.3,2.2-3.7,2.9
				c-0.7,0.3-1.8,0.9-2,1.2c0,0.3,0.6,1.3,0.9,2c0.7,1.4,1.6,3,1.3,4.6c-0.3,1.6-1.5,2.8-2.6,3.9c-0.5,0.5-1.4,1.4-1.5,1.7
				c0.1,0.3,1,1.2,1.5,1.7c1.1,1.1,2.4,2.3,2.6,3.9c0.3,1.7-0.6,3.2-1.3,4.6C20.6,60.9,20,62,20,62.3c0.2,0.2,1.3,0.8,1.9,1.1
				c1.4,0.7,3,1.4,3.7,2.9c0.8,1.5,0.5,3.2,0.2,4.8c-0.1,0.7-0.3,1.9-0.2,2.2c0.2,0.2,1.4,0.3,2.2,0.4c1.5,0.2,3.3,0.5,4.5,1.6
				c1.2,1.2,1.4,2.9,1.6,4.5c0.1,0.7,0.3,1.9,0.5,2.2c0,0,0.1,0,0.3,0l0,0c0.5,0,1.2-0.1,1.9-0.2c0.8-0.1,1.7-0.3,2.6-0.3
				c0.9,0,1.6,0.2,2.2,0.5c1.5,0.8,2.2,2.3,2.9,3.7c0.3,0.7,0.9,1.8,1.2,2c0.3,0,1.3-0.6,2-0.9C48.7,86.2,50,85.5,51.5,85.5z"/>
		</g>
		<circle class="st6" cx="57.7" cy="50" r="27"/>
		<g>
			<path class="st7" d="M67.5,64l-9.8-5.1L48,64l1.9-10.9L42,45.4l10.9-1.6l4.9-9.9l4.9,9.9l10.9,1.6l-7.9,7.7L67.5,64z M57.7,54.3
				l4.4,2.3l-0.8-4.9l3.6-3.5l-5-0.7L57.7,43l-2.2,4.5l-5,0.7l3.6,3.5l-0.8,4.9L57.7,54.3z"/>
		</g>
	</g>
</g>
</svg>
