<?xml version="1.0" encoding="utf-8"?>
<!-- Generator: Adobe Illustrator 19.2.0, SVG Export Plug-In . SVG Version: 6.00 Build 0)  -->
<svg version="1.1" id="Layer_1" xmlns="http://www.w3.org/2000/svg" xmlns:xlink="http://www.w3.org/1999/xlink" x="0px" y="0px"
	 viewBox="0 0 99.6 94.6" style="enable-background:new 0 0 99.6 94.6;" xml:space="preserve">
<style type="text/css">
	.st0{fill:#61D9A1;}
	.st1{fill:#FFFFFF;}
	.st2{fill:#494A4B;}
</style>
<title>Respond-in-48-hours</title>
<path class="st0" d="M31.6,94.6c-5.2,0-10.2-1.3-14.8-3.7c-3.8,2.5-8.4,3.6-13,3c-1.8-0.3-3.1-2-2.8-3.8c0.2-1.1,0.8-2,1.8-2.5
	c1.9-1,3.4-2.6,4.4-4.5C-3.9,69.6-2,49.7,11.5,38.6c12.6-10.4,31-9.5,42.5,2.1c12.3,12.2,12.4,32.1,0.2,44.4
	c-0.1,0.1-0.1,0.1-0.2,0.2C48.1,91.2,40,94.6,31.6,94.6z"/>
<path class="st1" d="M18,86.8c4.1,2.4,8.8,3.7,13.6,3.7c7.2,0,14.1-2.9,19.2-8c5.1-5.1,8-12,8-19.2c0-7.2-2.8-14.2-8-19.2
	c-10.7-10.6-27.9-10.5-38.5,0.2c-10,10.1-10.5,26.1-1.2,36.9l0.2,0.1c0.8,0.6,1,1.7,0.6,2.6c-1,2.2-2.4,4.3-4.2,6
	c2.8-0.3,5.5-1.3,7.7-3.1C16.2,86.2,17.2,86.2,18,86.8z"/>
<path class="st0" d="M18.4,66.8c-1.9,0-3.5-1.6-3.5-3.5c0-1.9,1.6-3.5,3.5-3.5c1.9,0,3.5,1.6,3.5,3.5c0,1.9-1.4,3.5-3.3,3.5
	C18.5,66.8,18.5,66.8,18.4,66.8z"/>
<path class="st0" d="M31.6,66.8c-1.9,0-3.5-1.6-3.5-3.5c0-1.9,1.6-3.5,3.5-3.5l0,0c1.9,0,3.5,1.6,3.5,3.5c0,1.9-1.4,3.5-3.3,3.5
	C31.7,66.8,31.7,66.8,31.6,66.8z"/>
<path class="st0" d="M44.8,66.8c-1.9,0-3.5-1.6-3.5-3.5c0-1.9,1.6-3.5,3.5-3.5l0,0c1.9,0,3.5,1.6,3.5,3.5c0,1.9-1.4,3.5-3.3,3.5
	C44.9,66.8,44.9,66.8,44.8,66.8z"/>
<path class="st2" d="M96.7,56.1c-1.9-1-3.4-2.6-4.3-4.5c11.1-13.5,9.1-33.4-4.4-44.5S54.6-2,43.5,11.5c-4,4.8-6.4,10.7-7,16.9
	c1.5,0.2,3,0.5,4.4,0.9c0.5-6.4,3.3-12.4,7.9-16.9C59.5,1.9,76.7,2,87.3,12.7c10,10.1,10.5,26.1,1.2,36.9l-0.2,0.1
	c-0.8,0.6-1,1.7-0.6,2.6c1,2.2,2.4,4.3,4.2,6c-2.8-0.3-5.5-1.3-7.7-3.1c-0.8-0.6-1.9-0.6-2.7,0c-4.1,2.4-8.8,3.7-13.6,3.7h-1.3
	c0.2,1.5,0.3,2.9,0.3,4.4h1c5.2,0,10.2-1.3,14.8-3.7c3.8,2.5,8.4,3.6,13,3c1.5-0.2,2.6-1.3,2.8-2.8C98.8,58.3,98.1,56.8,96.7,56.1z"
	/>
</svg>
