<?xml version="1.0" encoding="utf-8"?>
<!-- Generator: Adobe Illustrator 21.1.0, SVG Export Plug-In . SVG Version: 6.00 Build 0)  -->
<svg version="1.1" id="Layer_1" xmlns="http://www.w3.org/2000/svg" xmlns:xlink="http://www.w3.org/1999/xlink" x="0px" y="0px"
	 viewBox="0 0 100 100" style="enable-background:new 0 0 100 100;" xml:space="preserve">
<style type="text/css">
	.st0{clip-path:url(#XMLID_3_);fill:#B98609;}
	.st1{fill:#F3CA0C;}
</style>
<g>
	<defs>
		<path id="XMLID_1_" d="M79.3,56.1c0-0.2,0-0.4,0.2-0.6c3.7-3.8,7.5-9,7.5-14.5c0-12.2-13.4-22-30-22s-30,9.8-30,22s13.4,22,30,22
			c3.7,0,7.8-0.9,10.7-1.5c0.2,0,0.3,0,0.5,0.1c6.7,4,13.2,4.5,16.2,4.4c0.6,0,0.9-0.7,0.5-1.2C83.1,63.2,80,59.7,79.3,56.1z"/>
	</defs>
	<use xlink:href="#XMLID_1_"  style="overflow:visible;fill:#D39A10;"/>
	<clipPath id="XMLID_3_">
		<use xlink:href="#XMLID_1_"  style="overflow:visible;"/>
	</clipPath>
	<path class="st0" d="M71.3,65.1c0-0.2,0-0.4,0.2-0.6c3.7-3.8,7.5-9,7.5-14.5c0-12.2-13.4-22-30-22s-30,9.8-30,22s13.4,22,30,22
		c3.7,0,7.8-0.9,10.7-1.5c0.2,0,0.3,0,0.5,0.1c6.7,4,13.2,4.5,16.2,4.4c0.6,0,0.9-0.7,0.5-1.2C75.1,72.2,72,68.7,71.3,65.1z"/>
</g>
<path class="st1" d="M19.7,66.1c0-0.2,0-0.4-0.2-0.6c-3.7-3.8-7.5-9-7.5-14.5c0-12.2,13.4-22,30-22s30,9.8,30,22S58.6,73,42,73
	c-3.7,0-7.8-0.9-10.7-1.5c-0.2,0-0.3,0-0.5,0.1c-6.7,4-13.2,4.5-16.2,4.4c-0.6,0-0.9-0.7-0.5-1.2C15.9,73.2,19,69.7,19.7,66.1z"/>
</svg>
